node	%	avgtime	stdev
1	10	83.07271111111112	0.2488659389220538
1	20	83.07271111111112	0.2488659389220538
1	30	92.88317777777777	17.42687200625007
1	40	123.17628888888889	0.015300953954544224
1	50	123.17628888888889	0.015300953954544224
1	60	123.17628888888889	0.015300953954544224
1	70	124.07013333333333	5.994846493599161
1	80	142.8319111111111	20.32190107072374
1	90	162.4854	5.994331482932248
1	100	172.30862222222223	16.89711811938367
2	10	61.31451111111111	0.011986018791270989
2	20	63.10148888888889	8.378310875062583
2	30	92.58815555555556	16.904991415872033
2	40	101.52233333333334	0.013751033019047093
2	50	101.52233333333334	0.013751033019047093
2	60	104.20246666666667	10.141104874357987
2	70	120.27926666666667	20.278683226033646
2	80	140.8231777777778	5.995039204090818
2	90	141.71633333333335	0.012613124477738304
2	100	159.58002222222223	20.19714318737461
3	10	82.41904444444445	0.016288528528266392
3	20	82.41904444444445	0.016288528528266392
3	30	82.41904444444445	0.016288528528266392
3	40	90.45877777777778	16.26013497636151
3	50	118.15062222222222	12.77722453908603
3	60	122.61775555555556	0.01443977391468143
3	70	122.61775555555556	0.01443977391468143
3	80	127.97666666666667	13.819531009342606
3	90	152.0930888888889	17.978960692510242
3	100	168.18802222222223	13.857921093086874
4	10	74.36722222222222	9.95094404130238
4	20	80.61931111111112	12.72500156067542
4	30	90.44402222222222	9.961568319589968
4	40	95.80428888888889	14.210944528493492
4	50	112.77757777777778	11.82728430845946
4	60	115.45771111111111	10.630518362932568
4	70	122.60362222222221	12.853427967399641
4	80	131.5358222222222	12.537348982665005
4	90	150.2932888888889	13.74242124462231
4	100	169.06437777777776	16.52260852766856
5	10	65.88264444444445	8.875477713533755
5	20	90.44408888888888	16.815824419308438
5	30	99.377	7.36456001277864
5	40	102.95028888888889	8.005625682839373
5	50	105.62973333333333	9.53836144066303
5	60	117.24206666666666	17.876394233483133
5	70	135.99953333333332	12.854098056474227
5	80	140.4646	7.689206666135684
5	90	146.7166222222222	11.01091506454327
5	100	176.2299111111111	18.771498059585177
6	10	80.61597777777779	5.785300493055612
6	20	80.61597777777779	5.785300493055612
6	30	84.18926666666667	5.78411727138125
6	40	101.16122222222222	19.351305556014097
6	50	120.81602222222222	8.375980934382033
6	60	121.70917777777778	5.988881676941369
6	70	124.38864444444444	5.781718367388536
6	80	124.38864444444444	5.781718367388536
6	90	144.04326666666668	19.356346818409346
6	100	162.8182888888889	6.062077245324645
7	10	82.39484444444444	0.017695602375573913
7	20	82.39484444444444	0.017695602375573913
7	30	82.39484444444444	0.017695602375573913
7	40	85.07497777777779	10.141965237854967
7	50	111.873	17.97718419021986
7	60	122.5922	0.02070638900084891
7	70	122.5922	0.02070638900084891
7	80	122.5922	0.02070638900084891
7	90	130.6318222222222	16.26096304635582
7	100	161.90235555555557	13.532859215721016
8	10	81.50913333333334	4.186105537695781
8	20	81.50913333333334	4.186105537695781
8	30	83.29544444444446	4.190341538236554
8	40	83.29544444444446	4.190341538236554
8	50	94.01397777777778	17.917415727174607
8	60	115.45573333333333	14.93722024066666
8	70	120.816	7.1953997077678356
8	80	123.49546666666667	4.18860870044631
8	90	127.06873333333333	12.034158875316697
8	100	156.5516888888889	16.514095718537245
9	10	75.24971111111111	9.733850183350842
9	20	76.14286666666668	10.33950635273183
9	30	87.75795555555555	10.841845431549746
9	40	89.54560000000001	9.730094198366778
9	50	95.79835555555556	14.8428552833212
9	60	110.982	13.872435546795666
9	70	120.80802222222222	11.98250815201606
9	80	126.16822222222221	11.570990300765272
9	90	135.10171111111111	14.401889586601005
9	100	155.6547111111111	17.771852922557347
10	10	63.665	7.898324025329102
10	20	89.55775555555556	18.260404358207747
10	30	101.17151111111112	5.069047429889034
10	40	101.17151111111112	5.069047429889034
10	50	102.95848888888888	5.228947411122321
10	60	108.31873333333333	13.29156483091985
10	70	129.75826666666666	18.255072726380863
10	80	140.47799999999998	7.6914784812331565
10	90	142.26497777777777	5.227681119373923
10	100	161.91635555555555	21.412247963973964
11	10	72.14011111111111	10.156941744492293
11	20	75.71273333333333	12.851964143132506
11	30	91.79088888888889	11.010287869290538
11	40	94.47035555555556	11.660297220902985
11	50	108.76217777777778	12.726979521489143
11	60	113.22795555555555	11.004965666287271
11	70	118.58755555555555	13.947989236894513
11	80	131.0916222222222	11.727532789607244
11	90	134.6649111111111	11.658574000245135
11	100	159.67633333333333	15.426287949765847
12	10	76.15291111111111	9.408206361813322
12	20	77.04606666666668	9.956569506429593
12	30	84.19131111111112	11.188241979096995
12	40	88.65777777777778	9.40992422172388
12	50	91.33857777777779	12.534604570926634
12	60	113.6708	12.534152021214243
12	70	117.24475555555556	9.958832815773407
12	80	126.17828888888889	10.742524408380294
12	90	128.8584	9.409798853999336
12	100	147.61853333333335	19.23796750108304
13	10	70.80004444444445	10.046269900170447
13	20	71.69386666666666	11.014211777187112
13	30	85.98844444444444	15.022358678068008
13	40	94.02886666666667	10.035324440105649
13	50	94.02886666666667	10.035324440105649
13	60	98.49395555555556	12.560167764433205
13	70	107.42617777777778	12.23718257326061
13	80	116.35766666666666	14.096218130793417
13	90	132.4377111111111	11.830361303600887
13	100	141.3719111111111	14.47524674435987
14	10	64.99082222222222	6.906351659190549
14	20	71.24291111111111	15.182584873678941
14	30	97.14642222222221	11.658559509665162
14	40	99.82724444444445	6.912060192010755
14	50	99.82724444444445	6.912060192010755
14	60	100.7204	7.199361926903343
14	70	103.39986666666667	7.36216064690992
14	80	115.90464444444444	17.666610575725706
14	90	136.44986666666665	12.72574999147219
14	100	143.59506666666667	14.183974605486675
15	10	64.98748888888889	10.138406855800241
15	20	95.35817777777777	15.54321330603063
15	30	102.50408888888889	0.016621210740036283
15	40	102.50408888888889	0.016621210740036283
15	50	102.50408888888889	0.016621210740036283
15	60	102.50408888888889	0.016621210740036283
15	70	111.43622222222221	16.901547329499543
15	80	134.65808888888887	16.256642319123564
15	90	140.01697777777778	10.13798811287366
15	100	156.99006666666665	19.463410613250698
16	10	63.647511111111115	7.8971421862659295
16	20	86.87497777777777	19.111825596031668
16	30	99.38115555555555	7.366445010239936
16	40	99.38115555555555	7.366445010239936
16	50	102.06062222222222	8.00540969165933
16	60	106.52775555555556	9.1897112407784
16	70	114.56606666666666	16.813490066015444
16	80	132.43026666666665	15.815524016840943
16	90	140.46855555555555	9.793389798865624
16	100	152.07944444444445	15.207650594886825
17	10	64.54526666666666	6.387101282343118
17	20	78.83708888888889	18.81878745830905
17	30	98.4872	10.139019666614713
17	40	100.2735111111111	6.3875217225114405
17	50	100.2735111111111	6.3875217225114405
17	60	101.16666666666666	6.640345507166432
17	70	105.63244444444445	8.52098378217924
17	80	111.88517777777777	15.800456637948054
17	90	133.3207111111111	15.80015797047356
17	100	142.25293333333332	10.911970935628446
18	10	63.66093333333333	9.963194986366755
18	20	82.42197777777778	18.682454601344897
18	30	98.50222222222222	9.189947407824803
18	40	99.39537777777778	7.365046035432526
18	50	101.18168888888889	7.896418856965886
18	60	102.07484444444444	7.9992516665780995
18	70	103.86115555555556	7.900551393172607
18	80	106.54128888888889	9.191160065327153
18	90	125.3	18.47752645045523
18	100	144.95255555555553	11.51321010159349
19	10	66.31944444444444	12.568033321514829
19	20	94.01062222222222	14.523023830970926
19	30	99.36955555555555	7.368976265877824
19	40	99.36955555555555	7.368976265877824
19	50	101.15655555555556	7.904380639745265
19	60	102.94355555555555	8.004371117070844
19	70	103.83671111111111	7.90132747944127
19	80	106.51615555555556	11.0042083519227
19	90	127.95306666666666	17.874880301442836
19	100	144.92486666666667	15.587069315476034
20	10	76.6108888888889	21.293377800303656
20	20	97.15473333333333	9.009727156094833
20	30	97.15473333333333	9.009727156094833
20	40	98.94104444444444	9.867126078217218
20	50	103.4075111111111	10.461091322832742
20	60	107.87464444444444	10.827763691202598
20	70	114.12797777777777	15.118666504882588
20	80	124.81991111111111	17.257700789426554
20	90	136.43213333333333	10.339139841574655
20	100	152.5204	21.296468978981636
21	10	73.03404444444445	21.684994098302962
21	20	98.04777777777778	9.476048564884012
21	30	99.83408888888889	8.129448980047286
21	40	101.6204	8.520240474625966
21	50	105.193	10.140164713114421
21	60	110.56615555555555	13.851923438733165
21	70	122.62535555555556	18.19751259245409
21	80	136.91771111111112	11.039092958502732
21	90	138.704	8.139008533543313
21	100	152.9821111111111	16.38585062460656
22	10	71.23491111111112	20.352492389053104
22	20	97.14246666666666	9.958124162986444
22	30	98.03562222222222	8.452050424409903
22	40	99.82193333333333	9.193203120191072
22	50	101.60824444444444	9.539976286790509
22	60	106.07535555555555	8.873648757968617
22	70	106.96917777777777	10.39788500847624
22	80	116.7945111111111	16.93449225105406
22	90	135.55197777777778	12.23387070704802
22	100	140.01773333333333	9.194331090405653
23	10	69.8982	17.294298300569782
23	20	96.69622222222222	10.160102021429632
23	30	97.58937777777777	8.735893809421842
23	40	99.37635555555555	9.542318295970645
23	50	100.26951111111111	9.794580518239806
23	60	103.84213333333334	9.95908384477572
23	70	107.41475555555556	8.733307688893648
23	80	110.09417777777777	12.335919876318487
23	90	121.7058	17.64739320899059
23	100	139.57146666666665	12.82258834776987
24	10	81.49635555555555	20.077386982685898
24	20	94.89433333333334	9.856575490964945
24	30	94.89433333333334	9.856575490964945
24	40	96.68133333333333	11.028719306676296
24	50	102.04164444444444	12.488615648872075
24	60	109.18824444444444	10.49831075189882
24	70	111.86766666666666	11.815300844475125
24	80	117.22653333333334	15.091335940923793
24	90	129.73324444444444	14.314177233453101
24	100	143.13106666666667	16.316855820954544
25	10	86.40897777777778	13.954907449758062
25	20	89.0890888888889	9.585928889457573
25	30	94.44733333333333	14.466950016251774
25	40	101.59188888888889	16.57209066229098
25	50	112.31182222222222	14.604577033632749
25	60	118.56386666666667	11.002803214305313
25	70	120.35013333333333	11.513468560776985
25	80	123.92337777777777	11.659659829142237
25	90	131.96235555555555	12.564999434134407
25	100	150.71902222222224	18.877750166277867
26	10	84.32762222222222	13.940307705435421
26	20	89.11484444444444	12.138190010263163
26	30	95.80028888888889	16.03105250985528
26	40	111.87842222222223	14.58857712310449
26	50	119.03791111111111	9.888616395593065
26	60	119.93104444444444	11.839257205576624
26	70	127.97077777777777	10.861092588787841
26	80	128.86393333333334	10.360639946889904
26	90	135.10166666666666	16.754926339329685
26	100	156.98533333333333	11.82614700760373
27	10	86.41851111111112	19.917143443209262
27	20	94.45755555555556	10.84389298921822
27	30	94.45755555555556	10.84389298921822
27	40	99.81648888888888	13.27777549588755
27	50	109.64188888888889	11.45496014481028
27	60	115.89528888888889	13.548648533109764
27	70	121.25417777777777	15.09079634064914
27	80	131.07946666666666	12.482888680109262
27	90	135.54586666666665	11.466084836674554
27	100	144.47726666666665	17.043943454280974
28	10	82.84382222222223	15.145306085458365
28	20	88.20408888888889	11.036646447635302
28	30	89.99175555555556	11.571781971981267
28	40	101.60615555555556	17.116083682733716
28	50	113.21853333333333	14.595093296908194
28	60	118.5788	10.140532457779164
28	70	121.25824444444444	10.8394155015924
28	80	123.93768888888889	10.843510249793361
28	90	127.50959999999999	9.728835769364835
28	100	140.90744444444445	18.098977324895205
29	10	83.2812	13.523319810944754
29	20	87.74764444444445	10.839354507692526
29	30	94.00106666666667	16.309251641601797
29	40	105.61208888888889	18.15851352774708
29	50	118.11695555555556	11.242783988681879
29	60	119.01011111111112	9.853709740319362
29	70	119.90324444444444	10.138520840105452
29	80	123.47577777777778	10.4575691310798
29	90	127.04904444444445	9.47290669597812
29	100	140.44755555555557	20.197890238109203
30	10	82.87695555555555	9.042226402615762
30	20	93.59477777777778	16.95667410288094
30	30	104.32893333333334	18.13344590353316
30	40	118.62284444444444	8.129749599061116
30	50	119.06975555555556	8.873200606718566
30	60	120.3956	8.81926908536076
30	70	125.75513333333333	12.078883216363401
30	80	130.23375555555555	15.664770746886953
30	90	136.47217777777777	18.12124026621408
30	100	161.00788888888889	22.241061288467638
