Nodeid 	Neighbour 	prr
1 	7 		0.89189
1 	9 		0.91892
1 	10 		0.89189
1 	12 		0.93243
1 	13 		0.93243
1 	51 		0.51351
1 	54 		0.98649
1 	58 		0.06757
3 	-60 		2.5
4 	48 		0.0495
5 	10 		0.02703
5 	12 		0.27027
5 	13 		0.45946
5 	15 		0.01351
7 	1 		0.81081
7 	9 		0.89189
7 	10 		0.90541
7 	12 		0.98649
7 	13 		0.86486
7 	48 		0.64646
7 	51 		0.44595
7 	54 		0.83784
7 	56 		0.0
8 	1 		0.0
9 	1 		0.89333
9 	7 		0.92
9 	10 		0.82667
9 	12 		0.52
9 	13 		0.72
9 	48 		0.54545
9 	51 		0.04
9 	54 		0.82667
10 	1 		0.82432
10 	5 		0.01351
10 	7 		0.93243
10 	9 		0.89189
10 	12 		0.56757
10 	13 		0.86486
10 	48 		0.67368
10 	51 		0.83784
10 	54 		0.83784
10 	56 		0.68919
10 	58 		0.37838
10 	61 		0.04054
11 	48 		0.03158
12 	1 		0.41333
12 	5 		0.22667
12 	7 		0.44
12 	9 		0.41333
12 	10 		0.38667
12 	13 		0.42667
12 	15 		0.41333
12 	34 		0.01333
12 	54 		0.41333
12 	58 		0.01333
12 	65 		0.0
13 	1 		0.84
13 	5 		0.2
13 	7 		0.84
13 	9 		0.77333
13 	10 		0.78667
13 	12 		0.21333
13 	51 		0.48
13 	54 		0.70667
13 	56 		0.21333
13 	60 		0.02667
15 	5 		0.01389
15 	10 		0.0
15 	12 		0.61111
15 	27 		0.13889
15 	29 		0.23611
15 	34 		0.43056
15 	60 		0.29167
16 	19 		0.0
16 	23 		0.80822
16 	24 		0.0137
16 	26 		0.53425
16 	41 		0.0
16 	44 		0.0411
16 	45 		0.0137
16 	52 		0.68493
16 	57 		0.0
17 	19 		0.56944
17 	22 		0.23611
17 	23 		0.15278
17 	24 		0.38889
17 	26 		0.79167
17 	27 		0.01389
17 	28 		0.5
17 	34 		0.18056
17 	41 		0.0
17 	52 		0.01389
17 	57 		0.01389
18 	19 		0.05128
18 	22 		0.67949
18 	23 		0.01282
18 	24 		0.71795
18 	26 		0.76923
18 	40 		0.20513
18 	44 		0.01282
18 	47 		0.32051
18 	48 		0.08974
19 	17 		0.75342
19 	18 		0.09589
19 	22 		0.17808
19 	23 		0.23288
19 	24 		0.47945
19 	26 		0.64384
19 	27 		0.05479
19 	29 		0.09589
19 	34 		0.0
20 	24 		0.0
20 	27 		0.01299
20 	30 		0.33766
20 	34 		0.35065
22 	17 		0.43243
22 	18 		0.74324
22 	19 		0.09459
22 	23 		0.44595
22 	24 		0.75676
22 	26 		0.51351
22 	30 		0.62162
22 	35 		0.52703
22 	42 		0.16216
22 	44 		0.08108
22 	48 		0.31081
22 	52 		0.04054
22 	57 		0.2027
23 	16 		0.46667
23 	17 		0.30667
23 	18 		0.01333
23 	19 		0.17333
23 	22 		0.26667
23 	24 		0.30667
23 	26 		0.50667
23 	27 		0.24
23 	52 		0.56
23 	57 		0.54667
24 	16 		0.06944
24 	17 		0.52778
24 	18 		0.90278
24 	19 		0.20833
24 	22 		0.54167
24 	23 		0.19444
24 	26 		0.88889
24 	40 		0.01389
24 	42 		0.09722
24 	44 		0.19444
24 	52 		0.40278
24 	57 		0.04167
26 	16 		0.48649
26 	17 		0.75676
26 	18 		0.63514
26 	19 		0.2973
26 	22 		0.39189
26 	23 		0.36486
26 	24 		0.7027
26 	42 		0.02703
26 	44 		0.13514
26 	52 		0.68919
26 	57 		0.64865
27 	15 		0.02667
27 	17 		0.10667
27 	19 		0.09333
27 	20 		0.02667
27 	23 		0.28
27 	29 		0.30667
27 	34 		0.02667
28 	17 		0.17333
28 	19 		0.0
28 	22 		0.0
28 	24 		0.0
28 	26 		0.0
28 	30 		0.0
28 	35 		0.0
29 	15 		0.35211
29 	19 		0.01408
29 	27 		0.30986
29 	34 		0.0
30 	1 		0.0
30 	20 		0.19444
30 	22 		0.30556
30 	35 		0.73611
34 	2 		2.30435
34 	7 		3.11765
34 	9 		3.11765
34 	12 		0.02778
34 	15 		0.45833
34 	17 		0.43056
34 	20 		0.29167
34 	24 		0.0
34 	27 		7.0
34 	32 		0.0
34 	38 		0.0
34 	51 		0.0
34 	56 		0.0
34 	99 		0.0
35 	22 		0.2
35 	30 		0.84
40 	18 		0.42667
40 	24 		0.09333
40 	41 		0.18667
40 	42 		0.17333
40 	44 		0.08
40 	46 		0.12
40 	47 		0.37333
40 	48 		0.48
41 	40 		0.47297
41 	42 		0.45946
41 	44 		0.5
41 	45 		0.45946
41 	46 		0.58108
41 	47 		0.37838
41 	48 		0.48649
41 	65 		0.0
41 	72 		0.0
41 	75 		0.0
41 	76 		0.0
42 	22 		0.31507
42 	24 		0.31507
42 	26 		0.13699
42 	40 		0.21918
42 	41 		0.35616
42 	44 		0.47945
42 	45 		0.24658
42 	46 		0.36986
42 	47 		0.61644
42 	48 		0.61644
42 	65 		0.0
42 	72 		0.0
42 	74 		0.0
42 	75 		0.0
44 	16 		0.03947
44 	18 		0.02632
44 	22 		0.01316
44 	24 		0.34211
44 	26 		0.09211
44 	40 		0.26316
44 	41 		0.34211
44 	42 		0.39474
44 	45 		0.53947
44 	46 		0.38158
44 	47 		0.40789
44 	48 		0.63158
44 	65 		0.0
44 	72 		0.0
44 	77 		0.0
44 	78 		0.0
45 	16 		0.03947
45 	41 		0.30263
45 	42 		0.31579
45 	44 		0.73684
45 	46 		0.26316
45 	47 		0.03947
45 	48 		0.46053
45 	65 		0.0
45 	72 		0.0
46 	-88 		0.0
46 	40 		0.06849
46 	41 		0.38356
46 	42 		0.31507
46 	44 		0.32877
46 	45 		0.35616
46 	47 		0.42466
46 	48 		0.58904
46 	65 		0.0
47 	18 		0.74324
47 	40 		0.39189
47 	41 		0.22973
47 	42 		0.55405
47 	44 		0.43243
47 	45 		0.01351
47 	46 		0.24324
47 	48 		0.81081
48 	18 		0.21918
48 	22 		0.24658
48 	40 		0.73973
48 	41 		0.41096
48 	42 		0.34247
48 	44 		0.57534
48 	45 		0.47945
48 	46 		0.49315
48 	47 		0.68493
48 	72 		0.0
49 	53 		0.81944
49 	55 		0.73611
49 	58 		0.86111
49 	78 		0.0
51 	1 		0.43243
51 	7 		0.54054
51 	9 		0.06757
51 	10 		0.59459
51 	13 		0.47297
51 	54 		0.17568
51 	56 		0.74324
51 	57 		0.01351
51 	58 		0.0
51 	60 		0.5
51 	62 		0.0
51 	64 		0.0
51 	66 		0.0
52 	16 		0.48718
52 	17 		0.08974
52 	22 		0.0641
52 	23 		0.65385
52 	24 		0.33333
52 	26 		0.53846
53 	49 		0.78873
53 	55 		0.91667
53 	58 		0.01408
53 	78 		0.0
54 	1 		0.89333
54 	7 		0.84
54 	9 		0.88
54 	10 		0.76
54 	12 		0.41333
54 	13 		0.69333
54 	51 		0.17333
54 	58 		0.8
54 	61 		0.62667
54 	63 		0.0
54 	70 		0.0
55 	49 		0.66667
55 	53 		0.84
55 	58 		0.82667
55 	78 		0.0
56 	10 		0.56
56 	13 		0.36
56 	51 		0.73333
56 	57 		0.73333
56 	58 		0.28
56 	60 		0.26667
56 	61 		0.36
56 	62 		0.0
56 	63 		0.0
56 	64 		0.0
56 	69 		0.0
57 	17 		0.03896
57 	22 		0.19481
57 	23 		0.5974
57 	24 		0.05195
57 	26 		0.57143
57 	51 		0.01299
57 	52 		0.0
57 	56 		0.55844
57 	58 		0.37662
57 	60 		0.28571
57 	61 		0.31169
57 	76 		0.0
58 	1 		0.14085
58 	10 		0.46479
58 	12 		0.04225
58 	13 		0.17647
58 	49 		0.39437
58 	53 		0.05634
58 	54 		0.76056
58 	55 		0.57746
58 	56 		0.25352
58 	57 		0.56338
58 	61 		0.52113
60 	13 		0.01333
60 	15 		0.24
60 	51 		0.70667
60 	56 		0.25333
60 	57 		0.37333
60 	62 		0.0
60 	64 		0.0
60 	71 		0.0
60 	74 		0.0
60 	75 		0.0
61 	10 		0.0137
61 	54 		0.54795
61 	56 		0.21918
61 	57 		0.27397
61 	58 		0.56164
61 	63 		0.0
61 	64 		0.0
61 	69 		0.0
