------------------------------------------------------------------------------------------------------------------------------------------------------------------------------------------------------------
Group-Initiator	|	Packet_Sent
------------------------------------------------------------------------------------------------------------------------------------------------------------------------------------------------------------
27 		|	135
------------------------------------------------------------------------------------------------------------------------------------------------------------------------------------------------------------
15 		|	136
------------------------------------------------------------------------------------------------------------------------------------------------------------------------------------------------------------
SNo		Node:		Init_Id		R_Self_init		Nt recv		PRR		Duty Cycle(%)		hop-count		Latency
------------------------------------------------------------------------------------------------------------------------------------------------------------------------------------------------------------
1 		1 		15 			135 		1 		0.993 		1.539 			1.052 						2478
2 		2 		15 			133 		3 		0.978 		1.595 			1.391 						2478
3 		3 		15 			135 		1 		0.993 		1.706 			1.03 						2478
4 		4 		15 			135 		1 		0.993 		1.672 			1.037 						2478
5 		6 		27 			127 		8 		0.941 		1.902 			1.835 						2480
6 		7 		15 			104 		32 		0.765 		1.753 			3.452 						2478
7 		8 		15 			135 		1 		0.993 		1.56 			1.03 						2478
8 		10 		27 			64 		71 		0.474 		2.361 			2.375 						2480
9 		11 		15 			105 		31 		0.772 		1.682 			3.048 						2478
10 		13 		27 			116 		19 		0.859 		2.403 			2.138 						2480
11 		14 		15 			105 		31 		0.772 		1.973 			3.124 						2478
12 		15 		15 			0 		136 		0.0 		2.847 			0.0 						2478
13 		16 		27 			135 		0 		1.0 		3.06 			1.081 						2480
14 		17 		27 			115 		20 		0.852 		2.221 			2.113 						2480
15 		18 		27 			135 		0 		1.0 		1.95 			1.044 						2480
16 		20 		27 			135 		0 		1.0 		2.228 			1.104 						2480
17 		22 		27 			135 		0 		1.0 		1.947 			1.074 						2480
18 		23 		27 			135 		0 		1.0 		2.195 			1.037 						2480
19 		24 		27 			135 		0 		1.0 		2.531 			1.044 						2480
20 		25 		15 			107 		29 		0.787 		1.693 			2.523 						2478
21 		26 		15 			112 		24 		0.824 		1.949 			2.063 						2478
22 		27 		27 			0 		135 		0.0 		2.784 			0.0 						2480
23 		28 		27 			135 		0 		1.0 		1.874 			1.052 						2480
24 		31 		15 			135 		1 		0.993 		1.953 			1.074 						2478
25 		32 		15 			134 		2 		0.985 		1.983 			1.067 						2478
26 		33 		15 			135 		1 		0.993 		1.88 			1.074 						2478
------------------------------------------------------------------------------------------------------------------------------------------------------------------------------------------------------------
											0.915 		2.048 			1.619
------------------------------------------------------------------------------------------------------------------------------------------------------------------------------------------------------------
											0.127 		0.401 			0.772
------------------------------------------------------------------------------------------------------------------------------------------------------------------------------------------------------------
