%	avgtime	stdev
10	78.94936074074074	8.2482985425473
20	91.11321925925927	11.306050877636489
30	100.0154525925926	11.106180455771822
40	110.59945037037036	6.2550467838808
50	118.01378962962963	3.9704550096764617
60	128.85101037037037	6.2060395660162335
70	137.61955185185184	7.8861677645263155
80	146.76000962962962	10.362337244796135
90	157.43603185185185	9.148081526397327
100	178.1289659259259	11.800007005195562
