name,time,nodeid,value
test,1566309300658951168,41, | 41  |      0      10     51      1      3
test,1566309302665446144,41, | 41  |      0      10     51      1      3
test,1566309343435686144,41,=8`vxB;Yz800`0`K800`0`O800800`O800800`K | 41  |      0      10     56      1      4
test,1566309345420839936,41, | 41  |      0      10     56      1      3
test,1566309347425810944,41, | 41  |      0      10     56      1      3
test,1566309349430949888,41, | 41  |      0      10     56      1      3
test,1566309351434086912,41, | 41  |      0      10     56      1      3
test,1566309353420798976,41, | 41  |      0      10     56      1      6
test,1566309355429448960,41, | 41  |      0      10     56      1      3
test,1566309357430811904,41, | 41  |      0      10     56      1      3
test,1566309359434566144,41, | 41  |      0      10     56      1      3
test,1566309362406941952,41, | 41  |      0       9     56      1      4
test,1566309363427561984,41, | 41  |      0      10     56      1      3
test,1566309365442382080,41, | 41  |      0      10     56      1      3
test,1566309367434036992,41, | 41  |      0      10     56      1      4
test,1566309369421089024,41, | 41  |      0      10     56      1      3
test,1566309371430860032,41, | 41  |      0      10     56      1      4
test,1566309373428824064,41, | 41  |      0      10     56      1      4
test,1566309375417818112,41, | 41  |      0      10     56      1      3
test,1566309377421999872,41, | 41  |      0      10     56      1      3
test,1566309379428534016,41, | 41  |      0      10     56      1      5
test,1566309381429754880,41, | 41  |      0      10     56      1      3
test,1566309383434437888,41, | 41  |      0      10     56      1      4
test,1566309385421938944,41, | 41  |      0      10     56      1      3
test,1566309387425779968,41, | 41  |      0      10     56      1      3
test,1566309389431124992,41, | 41  |      0      10     56      1      4
test,1566309391434746112,41, | 41  |      0      10     56      1      3
test,1566309393421022976,41, | 41  |      0      10     56      1      3
test,1566309395429896192,41, | 41  |      0      10     56      1      4
test,1566309397431214080,41, | 41  |      0      10     56      1      3
test,1566309399416948992,41, | 41  |      0      10     56      1      3
test,1566309401421321984,41, | 41  |      0      10     56      1      3
test,1566309403426590976,41, | 41  |      0      10     56      1      3
test,1566309405430690048,41, | 41  |      0      10     56      1      3
test,1566309407437582080,41, | 41  |      0      10     56      1      3
test,1566309409421575936,41, | 41  |      0      10     56      1      3
test,1566309411426626816,41, | 41  |      0      10     56      1      4
test,1566309413431602944,41, | 41  |      0      10     56      1      3
test,1566309415417114880,41, | 41  |      0      10     56      1      3
test,1566309417423110912,41, | 41  |      0      10     56      1      5
test,1566309419426259968,41, | 41  |      0      10     56      1      6
test,1566309421428865792,41, | 41  |      0      10     56      1      3
test,1566309423416912128,41, | 41  |      0      10     56      1      3
test,1566309425422627840,41, | 41  |      0      10     56      1      4
test,1566309427429251840,41, | 41  |      0      10     56      1      3
test,1566309429429624064,41, | 41  |      0      10     56      1      3
test,1566309431434348032,41, | 41  |      0      10     56      1      3
test,1566309433422758144,41, | 41  |      0      10     56      1      3
test,1566309435425529856,41, | 41  |      0      10     56      1      5
test,1566309437430710016,41, | 41  |      0      10     56      1      3
test,1566309439417018880,41, | 41  |      0      10     56      1      3
test,1566309441423488000,41, | 41  |      0      10     56      1      3
test,1566309443425692928,41, | 41  |      0      10     56      1      3
test,1566309445430398976,41, | 41  |      0      10     56      1      5
test,1566309447417378816,41, | 41  |      0      10     56      1      4
test,1566309449421374208,41, | 41  |      0      10     56      1      3
test,1566309451427123968,41, | 41  |      0      10     56      1      4
test,1566309453435015936,41, | 41  |      0      10     56      1      3
test,1566309455417073920,41, | 41  |      0      10     56      1      3
test,1566309457425373952,41, | 41  |      0      10     56      1      3
test,1566309459426625024,41, | 41  |      0      10     56      1      3
test,1566309461429976832,41, | 41  |      0      10     56      1      3
test,1566309463417184000,41, | 41  |      0      10     56      1      3
test,1566309465421603072,41, | 41  |      0      10     56      1      7
test,1566309467431992064,41, | 41  |      0      10     56      1      3
test,1566309469432111872,41, | 41  |      0      10     56      1      4
test,1566309471417157888,41, | 41  |      0      10     56      1      3
test,1566309473422269184,41, | 41  |      0      10     56      1      4
test,1566309475426825984,41, | 41  |      0      10     56      1      3
test,1566309477430536960,41, | 41  |      0      10     56      1      4
test,1566309479418833920,41, | 41  |      0      10     56      1      3
test,1566309481422635008,41, | 41  |      0      10     56      1      3
test,1566309483430330112,41, | 41  |      0      10     56      1      3
test,1566309485436839936,41, | 41  |      0      10     56      1      3
test,1566309487417988096,41, | 41  |      0      10     56      1      3
test,1566309489427099904,41, | 41  |      0      10     56      1      8
test,1566309491426569984,41, | 41  |      0      10     56      1      3
test,1566309493431271168,41, | 41  |      0      10     56      1      3
test,1566309495417538816,41, | 41  |      0      10     56      1      3
test,1566309497424655872,41, | 41  |      0      10     56      1      3
test,1566309499428101120,41, | 41  |      0      10     56      1      4
test,1566309501427812096,41, | 41  |      0      10     56      1      3
test,1566309503436711168,41, | 41  |      0      10     56      1      5
test,1566309506407429888,41, | 41  |      0       9     56      1      3
test,1566309507426451968,41, | 41  |      0      10     56      1      3
test,1566309509413328896,41, | 41  |      0      10     56      1      3
test,1566309511417951232,41, | 41  |      0      10     56      1      3
test,1566309513423825920,41, | 41  |      0      10     56      1      2
test,1566309515428014080,41, | 41  |      0      10     56      1      3
test,1566309517413285888,41, | 41  |      0      10     56      1      3
test,1566309519418916096,41, | 41  |      0      10     56      1      3
test,1566309521423969024,41, | 41  |      0      10     56      1      6
test,1566309523432656896,41, | 41  |      0      10     56      1      3
test,1566309525413420800,41, | 41  |      0      10     56      1      5
test,1566309527417614080,41, | 41  |      0      10     56      1      4
test,1566309529422724096,41, | 41  |      0      10     56      1      5
test,1566309531431124992,41, | 41  |      0      10     56      1      3
test,1566309533413576960,41, | 41  |      0      10     56      1      3
test,1566309535417851904,41, | 41  |      0      10     56      1      3
test,1566309537425259008,41, | 41  |      0      10     56      1      3
test,1566309539429924096,41, | 41  |      0      10     56      1      3
test,1566309541434484992,41, | 41  |      0      10     56      1      6
test,1566309543418256128,41, | 41  |      0      10     56      1      3
test,1566309545427133952,41, | 41  |      0      10     56      1      3
test,1566309547428950016,41, | 41  |      0      10     56      1      3
test,1566309549413630976,41, | 41  |      0      10     56      1      4
test,1566309551418895872,41, | 41  |      0      10     56      1      4
test,1566309553425049088,41, | 41  |      0      10     56      1      3
test,1566309555434499072,41, | 41  |      0      10     56      1      3
test,1566309557413748992,41, | 41  |      0      10     56      1      4
test,1566309559419352064,41, | 41  |      0      10     56      1      3
test,1566309561429979136,41, | 41  |      0      10     56      1      3
test,1566309563435642880,41, | 41  |      0      10     56      1      4
test,1566309565414497024,41, | 41  |      0      10     56      1      3
test,1566309567423243008,41, | 41  |      0      10     56      1      4
test,1566309569424846848,41, | 41  |      0      10     56      1      3
test,1566309571410209024,41, | 41  |      0      10     56      1      3
test,1566309573417088000,41, | 41  |      0      10     56      1      4
test,1566309575419895040,41, | 41  |      0      10     56      1      3
test,1566309577423721984,41, | 41  |      0      10     56      1      3
test,1566309579410070784,41, | 41  |      0      10     56      1      3
test,1566309581414521088,41, | 41  |      0      10     56      1      4
test,1566309583419310080,41, | 41  |      0      10     56      1      3
test,1566309585426699008,41, | 41  |      0      10     56      1      3
test,1566309587429864960,41, | 41  |      0      10     56      1      3
test,1566309590400225024,41, | 41  |      0       9     56      1      5
test,1566309591422362112,41, | 41  |      0      10     56      1      3
test,1566309593428422912,41, | 41  |      0      10     56      1      3
test,1566309595410684160,41, | 41  |      0      10     56      1      3
test,1566309597415240960,41, | 41  |      0      10     56      1      3
test,1566309599419460096,41, | 41  |      0      10     56      1      3
test,1566309601427309056,41, | 41  |      0      10     56      1      3
test,1566309603410799104,41, | 41  |      0      10     56      1      3
test,1566309605415463936,41, | 41  |      0      10     56      1      3
test,1566309607420145920,41, | 41  |      0      10     56      1      3
test,1566309609424262144,41, | 41  |      0      10     56      1      3
test,1566309611410834176,41, | 41  |      0      10     56      1      3
test,1566309613415035136,41, | 41  |      0      10     56      1      3
test,1566309615422262784,41, | 41  |      0      10     56      1      3
test,1566309617429862912,41, | 41  |      0      10     56      1      3
test,1566309619432432896,41, | 41  |      0      10     56      1      3
test,1566309621415111936,41, | 41  |      0      10     56      1      3
test,1566309623419177984,41, | 41  |      0      10     56      1      3
test,1566309625423037952,41, | 41  |      0      10     56      1      5
test,1566309627412048128,41, | 41  |      0      10     56      1      3
test,1566309629418452992,41, | 41  |      0      10     56      1      3
test,1566309631420296960,41, | 41  |      0      10     56      1      3
test,1566309633424651008,41, | 41  |      0      10     56      1      5
test,1566309635411761920,41, | 41  |      0      10     56      1      3
test,1566309637425033984,41, | 41  |      0      10     56      1      4
test,1566309639420448000,41, | 41  |      0      10     56      1      3
test,1566309641427259904,41, | 41  |      0      10     56      1      3
test,1566309643412816128,41, | 41  |      0      10     56      1      3
test,1566309645418163968,41, | 41  |      0      10     56      1      4
test,1566309647425008128,41, | 41  |      0      10     56      1      3
test,1566309649408148992,41, | 41  |      0      10     56      1      4
test,1566309651412837120,41, | 41  |      0      10     56      1      3
test,1566309653419280896,41, | 41  |      0      10     56      1      3
test,1566309655422137088,41, | 41  |      0      10     56      1      4
test,1566309657427154176,41, | 41  |      0      10     56      1      3
test,1566309659412528896,41, | 41  |      0      10     56      1      5
test,1566309661422568192,41, | 41  |      0      10     56      1      3
test,1566309663421148928,41, | 41  |      0      10     56      1      3
test,1566309665408849920,41, | 41  |      0      10     56      1      3
test,1566309667413403904,41, | 41  |      0      10     56      1      3
test,1566309669423954944,41, | 41  |      0      10     56      1      4
test,1566309671424724992,41, | 41  |      0      10     56      1      3
test,1566309673409053184,41, | 41  |      0      10     56      1      3
test,1566309675413652992,41, | 41  |      0      10     56      1      3
test,1566309677417905920,41, | 41  |      0      10     56      1      3
test,1566309679428827136,41, | 41  |      0      10     56      1      3
test,1566309681409328896,41, | 41  |      0      10     56      1      3
test,1566309683414406144,41, | 41  |      0      10     56      1      3
test,1566309685422305024,41, | 41  |      0      10     56      1      4
test,1566309687422496000,41, | 41  |      0      10     56      1      3
test,1566309689409920000,41, | 41  |      0      10     56      1      4
test,1566309691415482880,41, | 41  |      0      10     56      1      3
test,1566309693418597888,41, | 41  |      0      10     56      1      4
test,1566309695406030848,41, | 41  |      0      10     56      1      3
test,1566309697410782976,41, | 41  |      0      10     56      1      3
test,1566309699415493888,41, | 41  |      0      10     56      1      3
test,1566309701424721920,41, | 41  |      0      10     56      1      2
test,1566309703422995968,41, | 41  |      0      10     56      1      3
test,1566309705411714048,41, | 41  |      0      10     56      1      5
test,1566309707416762112,41, | 41  |      0      10     56      1      5
test,1566309709419471872,41, | 41  |      0      10     56      1      3
test,1566309711406797824,41, | 41  |      0      10     56      1      3
test,1566309713411076096,41, | 41  |      0      10     56      1      4
test,1566309715416001024,41, | 41  |      0      10     56      1      3
test,1566309717422252800,41, | 41  |      0      10     56      1      4
test,1566309719407206144,41, | 41  |      0      10     56      1      3
test,1566309721412120064,41, | 41  |      0      10     56      1      8
test,1566309723419214080,41, | 41  |      0      10     56      1      3
test,1566309725419204096,41, | 41  |      0      10     56      1      3
test,1566309727407288064,41, | 41  |      0      10     56      1      3
test,1566309729413762048,41, | 41  |      0      10     56      1      3
test,1566309731418135040,41, | 41  |      0      10     56      1      3
test,1566309733420496896,41, | 41  |      0      10     56      1      3
test,1566309735408036864,41, | 41  |      0      10     56      1      3
test,1566309737412549120,41, | 41  |      0      10     56      1      3
test,1566309739418028032,41, | 41  |      0      10     56      1      3
test,1566309741411945216,41, | 41  |      0      10     56      1      3
test,1566309743408811008,41, | 41  |      0      10     56      1      3
test,1566309745412727040,41, | 41  |      0      10     56      1      3
test,1566309747417558784,41, | 41  |      0      10     56      1      3
test,1566309749421495040,41, | 41  |      0      10     56      1      4
test,1566309752394865152,41, | 41  |      0       9     56      1      8
test,1566309753417413120,41, | 41  |      0      10     56      1      3
test,1566309755418735104,41, | 41  |      0      10     56      1      3
test,1566309757404941056,41, | 41  |      0      10     56      1      3
test,1566309759409423104,41, | 41  |      0      10     56      1      3
test,1566309761413351168,41, | 41  |      0      10     56      1      6
test,1566309763425730048,41, | 41  |      0      10     56      1      3
test,1566309765405419008,41, | 41  |      0      10     56      1      3
test,1566309767409912064,41, | 41  |      0      10     56      1      3
test,1566309769415891968,41, | 41  |      0      10     56      1      4
test,1566309771417630976,41, | 41  |      0      10     56      1      5
test,1566309773409532928,41, | 41  |      0      10     56      1      3
test,1566309775410734848,41, | 41  |      0      10     56      1      3
test,1566309777416233984,41, | 41  |      0      10     56      1      3
test,1566309779402182144,41, | 41  |      0      10     56      1      3
test,1566309781406696192,41, | 41  |      0      10     56      1      4
test,1566309783413840128,41, | 41  |      0      10     56      1      4
test,1566309785419280128,41, | 41  |      0      10     56      1      3
test,1566309787402704896,41, | 41  |      0      10     56      1      3
test,1566309789424264960,41, | 41  |      0      10     56      1      5
test,1566309791412260096,41, | 41  |      0      10     56      1      3
test,1566309793421494016,41, | 41  |      0      10     56      1      3
test,1566309795404431104,41, | 41  |      0      10     56      1      3
test,1566309797409138944,41, | 41  |      0      10     56      1      3
test,1566309799413656064,41, | 41  |      0      10     56      1      4
test,1566309801416344832,41, | 41  |      0      10     56      1      3
test,1566309803421652992,41, | 41  |      0      10     56      1      4
test,1566309805411913984,41, | 41  |      0      10     56      1      3
test,1566309807418492160,41, | 41  |      0      10     56      1      3
test,1566309809419672064,41, | 41  |      0      10     56      1      3
test,1566309811404344064,41, | 41  |      0      10     56      1      3
test,1566309813411115776,41, | 41  |      0      10     56      1      4
test,1566309815421572864,41, | 41  |      0      10     56      1      3
test,1566309817421217024,41, | 41  |      0      10     56      1      5
test,1566309819404869120,41, | 41  |      0      10     56      1      3
test,1566309821411983872,41, | 41  |      0      10     56      1      3
test,1566309823416798976,41, | 41  |      0      10     56      1      3
test,1566309825401079040,41, | 41  |      0      10     56      1      2
test,1566309827405925888,41, | 41  |      0      10     56      1      3
test,1566309829410067968,41, | 41  |      0      10     56      1      3
test,1566309831415755008,41, | 41  |      0      10     56      1      4
test,1566309833401815808,41, | 41  |      0      10     56      1      3
test,1566309835406091008,41, | 41  |      0      10     56      1      3
test,1566309837411856896,41, | 41  |      0      10     56      1      6
test,1566309839414796032,41, | 41  |      0      10     56      1      3
test,1566309841420325120,41, | 41  |      0      10     56      1      6
test,1566309843406178048,41, | 41  |      0      10     56      1      3
test,1566309845411748864,41, | 41  |      0      10     56      1      4
test,1566309847414712832,41, | 41  |      0      10     56      1      3
test,1566309849402754048,41, | 41  |      0      10     56      1      3
test,1566309851407120896,41, | 41  |      0      10     56      1      4
test,1566309853412751872,41, | 41  |      0      10     56      1      4
test,1566309855422823936,41, | 41  |      0      10     56      1      5
test,1566309857404000000,41, | 41  |      0      10     56      1      4
test,1566309859408433920,41, | 41  |      0      10     56      1      5
test,1566309861412504832,41, | 41  |      0      10     56      1      4
test,1566309863416968192,41, | 41  |      0      10     56      1      4
test,1566309865404585984,41, | 41  |      0      10     56      1      3
test,1566309867410072064,41, | 41  |      0      10     56      1      3
test,1566309869413153024,41, | 41  |      0      10     56      1      3
test,1566309871400403968,41, | 41  |      0      10     56      1      4
test,1566309873406321920,41, | 41  |      0      10     56      1      3
test,1566309875412409088,41, | 41  |      0      10     56      1      3
test,1566309877416139008,41, | 41  |      0      10     56      1      3
test,1566309879400898048,41, | 41  |      0      10     56      1      3
test,1566309881405884928,41, | 41  |      0      10     56      1      4
test,1566309883410756096,41, | 41  |      0      10     56      1      3
test,1566309885414000896,41, | 41  |      0      10     56      1      3
test,1566309887404082944,41, | 41  |      0      10     56      1      3
test,1566309889407675904,41, | 41  |      0      10     56      1      3
test,1566309891411535104,41, | 41  |      0      10     56      1      3
test,1566309893414833152,41, | 41  |      0      10     56      1      4
test,1566309896387950848,41, | 41  |      0       9     56      1      5
test,1566309897411331840,41, | 41  |      0      10     56      1      3
