name,time,nodeid,value
test,1566956400415155968,30, | 30  |      0      10     40      1      3
test,1566956402305996032,30, | 30  |      0      10     40      1      3
test,1566956404329488896,30, | 30  |      0      10     40      1      3
test,1566956444640054016,30, | 30  |      0      10     48      1      2
test,1566956446646403072,30, | 30  |      0      10     48      1      2
test,1566956448632558080,30, | 30  |      0      10     48      1      2
test,1566956450639561984,30, | 30  |      0      10     48      1      2
test,1566956452648601088,30, | 30  |      0      10     48      1      2
test,1566956454635891968,30, | 30  |      0      10     48      1      4
test,1566956456650365184,30, | 30  |      0      10     48      1      2
test,1566956458630678784,30, | 30  |      0      10     48      1      2
test,1566956460639440128,30, | 30  |      0      10     48      1      2
test,1566956462643126016,30, | 30  |      0      10     48      1      2
test,1566956464634056192,30, | 30  |      0      10     48      1      2
test,1566956466641587968,30, | 30  |      0      10     48      1      2
test,1566956468628753920,30, | 30  |      0      10     48      1      2
test,1566956470635191040,30, | 30  |      0      10     48      1      2
test,1566956472642590976,30, | 30  |      0      10     48      1      2
test,1566956474630958080,30, | 30  |      0      10     48      1      2
test,1566956476637600000,30, | 30  |      0      10     48      1      2
test,1566956478645273856,30, | 30  |      0      10     48      1      2
test,1566956480632786944,30, | 30  |      0      10     48      1      2
test,1566956482644762112,30, | 30  |      0      10     48      1      2
test,1566956484628647168,30, | 30  |      0      10     48      1      2
test,1566956486638077952,30, | 30  |      0      10     48      1      2
test,1566956488642929152,30, | 30  |      0      10     48      1      2
test,1566956490631089920,30, | 30  |      0      10     48      1      2
test,1566956492637170176,30, | 30  |      0      10     48      1      2
test,1566956494644072960,30, | 30  |      0      10     48      1      2
test,1566956496634013952,30, | 30  |      0      10     48      1      2
test,1566956498641145088,30, | 30  |      0      10     48      1      2
test,1566956500649171200,30, | 30  |      0      10     48      1      2
test,1566956502636183040,30, | 30  |      0      10     48      1      2
test,1566956504647973120,30, | 30  |      0      10     48      1      2
test,1566956506663858944,30, | 30  |      0      10     48      1      2
test,1566956508636795904,30, | 30  |      0      10     48      1      2
test,1566956510649038080,30, | 30  |      0      10     48      1      2
test,1566956512632214016,30, | 30  |      0      10     48      1      2
test,1566956515624952064,30, | 30  |      0       9     48      1      2
test,1566956516628472064,30, | 30  |      0      10     48      1      2
test,1566956518635670016,30, | 30  |      0      10     48      1      2
test,1566956520640579072,30, | 30  |      0      10     48      1      2
test,1566956522630108160,30, | 30  |      0      10     48      1      2
test,1566956524651608832,30, | 30  |      0      10     48      1      2
test,1566956526642482944,30, | 30  |      0      10     48      1      2
test,1566956528631817216,30, | 30  |      0      10     48      1      2
test,1566956530638009088,30, | 30  |      0      10     48      1      2
test,1566956532627554816,30, | 30  |      0      10     48      1      2
test,1566956534635694080,30, | 30  |      0      10     48      1      2
test,1566956536641251072,30, | 30  |      0      10     48      1      2
test,1566956538630003968,30, | 30  |      0      10     48      1      2
test,1566956540647192064,30, | 30  |      0      10     48      1      2
test,1566956542644476928,30, | 30  |      0      10     48      1      2
test,1566956544635065088,30, | 30  |      0      10     48      1      2
test,1566956546642580992,30, | 30  |      0      10     48      1      2
test,1566956548627595776,30, | 30  |      0      10     48      1      2
test,1566956551619913216,30, | 30  |      0       9     48      1      2
test,1566956552640914944,30, | 30  |      0      10     48      1      2
test,1566956554629146112,30, | 30  |      0      10     48      1      2
test,1566956556637568000,30, | 30  |      0      10     48      1      2
test,1566956558625221120,30, | 30  |      0      10     48      1      2
test,1566956560634109952,30, | 30  |      0      10     48      1      2
test,1566956562638309888,30, | 30  |      0      10     48      1      2
test,1566956564627495936,30, | 30  |      0      10     48      1      2
test,1566956566634339072,30, | 30  |      0      10     48      1      2
test,1566956568642749184,30, | 30  |      0      10     48      1      3
test,1566956570630253056,30, | 30  |      0      10     48      1      2
test,1566956572640065792,30, | 30  |      0      10     48      1      2
test,1566956574625771008,30, | 30  |      0      10     48      1      2
test,1566956576631500032,30, | 30  |      0      10     48      1      2
test,1566956578637704960,30, | 30  |      0      10     48      1      2
test,1566956580627921152,30, | 30  |      0      10     48      1      2
test,1566956582637854208,30, | 30  |      0      10     48      1      2
test,1566956584647619840,30, | 30  |      0      10     48      1      2
test,1566956586630185984,30, | 30  |      0      10     48      1      2
test,1566956588638874112,30, | 30  |      0      10     48      1      2
test,1566956590625544192,30, | 30  |      0      10     48      1      2
test,1566956592631845120,30, | 30  |      0      10     48      1      2
test,1566956594639748096,30, | 30  |      0      10     48      1      6
test,1566956596627433984,30, | 30  |      0      10     48      1      2
test,1566956598634418944,30, | 30  |      0      10     48      1      2
test,1566956600639610880,30, | 30  |      0      10     48      1      2
test,1566956602631011840,30, | 30  |      0      10     48      1      3
test,1566956604642589184,30, | 30  |      0      10     48      1      5
test,1566956606626019840,30, | 30  |      0      10     48      1      2
test,1566956608633888000,30, | 30  |      0      10     48      1      2
test,1566956610639188992,30, | 30  |      0      10     48      1      2
test,1566956612629062912,30, | 30  |      0      10     48      1      2
test,1566956614635875840,30, | 30  |      0      10     48      1      2
test,1566956616624459008,30, | 30  |      0      10     48      1      2
test,1566956618631169024,30, | 30  |      0      10     48      1      2
test,1566956620636614144,30, | 30  |      0      10     48      1      2
test,1566956622628742912,30, | 30  |      0      10     48      1      2
test,1566956624635929088,30, | 30  |      0      10     48      1      2
test,1566956626623034880,30, | 30  |      0      10     48      1      2
test,1566956628629614080,30, | 30  |      0      10     48      1      2
test,1566956630636056064,30, | 30  |      0      10     48      1      2
test,1566956632625871872,30, | 30  |      0      10     48      1      2
test,1566956634632103936,30, | 30  |      0      10     48      1      2
test,1566956636642483968,30, | 30  |      0      10     48      1      2
test,1566956638627234048,30, | 30  |      0      10     48      1      2
test,1566956640634593024,30, | 30  |      0      10     48      1      2
test,1566956642623414016,30, | 30  |      0      10     48      1      2
test,1566956644629913088,30, | 30  |      0      10     48      1      2
test,1566956646644109056,30, | 30  |      0      10     48      1      2
test,1566956648626727168,30, | 30  |      0      10     48      1      2
test,1566956650632581888,30, | 30  |      0      10     48      1      2
test,1566956652639017216,30, | 30  |      0      10     48      1      2
test,1566956654627621888,30, | 30  |      0      10     48      1      2
test,1566956656636417024,30, | 30  |      0      10     48      1      2
test,1566956658623595008,30, | 30  |      0      10     48      1      2
test,1566956661616344064,30, | 30  |      0       9     48      1      2
test,1566956662636225024,30, | 30  |      0      10     48      1      4
test,1566956664625606144,30, | 30  |      0      10     48      1      2
test,1566956666635705856,30, | 30  |      0      10     48      1      4
test,1566956668621884160,30, | 30  |      0      10     48      1      2
test,1566956670628109824,30, | 30  |      0      10     48      1      2
test,1566956672636489984,30, | 30  |      0      10     48      1      2
test,1566956674624263936,30, | 30  |      0      10     48      1      2
test,1566956676634429952,30, | 30  |      0      10     48      1      2
test,1566956678638865920,30, | 30  |      0      10     48      1      2
test,1566956680627890944,30, | 30  |      0      10     48      1      4
test,1566956682636776960,30, | 30  |      0      10     48      1      2
test,1566956684622669824,30, | 30  |      0      10     48      1      2
test,1566956686629574144,30, | 30  |      0      10     48      1      2
test,1566956688636180992,30, | 30  |      0      10     48      1      2
test,1566956690626501120,30, | 30  |      0      10     48      1      2
test,1566956692633049088,30, | 30  |      0      10     48      1      2
test,1566956694620974080,30, | 30  |      0      10     48      1      2
test,1566956696633400064,30, | 30  |      0      10     48      1      2
test,1566956698638906880,30, | 30  |      0      10     48      1      4
test,1566956700623065088,30, | 30  |      0      10     48      1      2
test,1566956702632611072,30, | 30  |      0      10     48      1      2
test,1566956704638638848,30, | 30  |      0      10     48      1      2
test,1566956706625116160,30, | 30  |      0      10     48      1      2
test,1566956708632718080,30, | 30  |      0      10     48      1      2
test,1566956710640585984,30, | 30  |      0      10     48      1      2
test,1566956712627459072,30, | 30  |      0      10     48      1      2
test,1566956714632862976,30, | 30  |      0      10     48      1      5
test,1566956716622880000,30, | 30  |      0      10     48      1      2
test,1566956718629728000,30, | 30  |      0      10     48      1      4
test,1566956720636559872,30, | 30  |      0      10     48      1      4
test,1566956722626460160,30, | 30  |      0      10     48      1      2
test,1566956724633905920,30, | 30  |      0      10     48      1      2
test,1566956726640966912,30, | 30  |      0      10     48      1      5
test,1566956728628294912,30, | 30  |      0      10     48      1      3
test,1566956730636620032,30, | 30  |      0      10     48      1      2
test,1566956732623563008,30, | 30  |      0      10     48      1      2
test,1566956734630018048,30, | 30  |      0      10     48      1      2
test,1566956736638305792,30, | 30  |      0      10     48      1      4
test,1566956738625894144,30, | 30  |      0      10     48      1      2
test,1566956740636562176,30, | 30  |      0      10     48      1      4
test,1566956743609024000,30, | 30  |      0       8     48      1      2
test,1566956744630904064,30, | 30  |      0      10     48      1      2
test,1566956746641751040,30, | 30  |      0      10     48      1      2
test,1566956748626377216,30, | 30  |      0      10     48      1      5
test,1566956750633172992,30, | 30  |      0      10     48      1      3
test,1566956752620640000,30, | 30  |      0      10     48      1      2
test,1566956754627230976,30, | 30  |      0      10     48      1      2
test,1566956756637892096,30, | 30  |      0      10     48      1      2
test,1566956758623259904,30, | 30  |      0      10     48      1      2
test,1566956760638772992,30, | 30  |      0      10     48      1      2
test,1566956762675128832,30, | 30  |      0      10     48      1      2
test,1566956764628242944,30, | 30  |      0      10     48      1      2
test,1566956766639899136,30, | 30  |      0      10     48      1      2
test,1566956768621582080,30, | 30  |      0      10     48      1      2
test,1566956771615046912,30, | 30  |      0       9     48      1      2
test,1566956772646946048,30, | 30  |      0      10     48      1      2
test,1566956774623863808,30, | 30  |      0      10     48      1      2
test,1566956776629505024,30, | 30  |      0      10     48      1      4
test,1566956778620636928,30, | 30  |      0      10     48      1      2
test,1566956780627499008,30, | 30  |      0      10     48      1      2
test,1566956782654018048,30, | 30  |      0      10     48      1      2
test,1566956784620884992,30, | 30  |      0      10     48      1      2
test,1566956786627459072,30, | 30  |      0      10     48      1      2
test,1566956788638010112,30, | 30  |      0      10     48      1      3
test,1566956790625806080,30, | 30  |      0      10     48      1      2
test,1566956792655438848,30, | 30  |      0      10     48      1      2
test,1566956794618526976,30, | 30  |      0      10     48      1      2
test,1566956796650520064,30, | 30  |      0      10     48      1      2
test,1566956798655000832,30, | 30  |      0      10     48      1      2
test,1566956800620755968,30, | 30  |      0      10     48      1      2
test,1566956802627212032,30, | 30  |      0      10     48      1      2
test,1566956804620825088,30, | 30  |      0      10     48      1      2
test,1566956807609790208,30, | 30  |      0       9     48      1      2
test,1566956808629167104,30, | 30  |      0      10     48      1      2
test,1566956810640253952,30, | 30  |      0      10     48      1      5
test,1566956812628966144,30, | 30  |      0      10     48      1      2
test,1566956814632342016,30, | 30  |      0      10     48      1      2
test,1566956816626818816,30, | 30  |      0      10     48      1      2
test,1566956818627307008,30, | 30  |      0      10     48      1      5
test,1566956820616848896,30, | 30  |      0      10     48      1      2
test,1566956822622541056,30, | 30  |      0      10     48      1      4
test,1566956824628928000,30, | 30  |      0      10     48      1      3
test,1566956826619101952,30, | 30  |      0      10     48      1      2
test,1566956828627248128,30, | 30  |      0      10     48      1      2
test,1566956830634586112,30, | 30  |      0      10     48      1      2
test,1566956832622617088,30, | 30  |      0      10     48      1      2
test,1566956834629224960,30, | 30  |      0      10     48      1      4
test,1566956836617677056,30, | 30  |      0      10     48      1      3
test,1566956838624141824,30, | 30  |      0      10     48      1      2
test,1566956840630817024,30, | 30  |      0      10     48      1      2
test,1566956842619213056,30, | 30  |      0      10     48      1      3
test,1566956844625348096,30, | 30  |      0      10     48      1      2
test,1566956846637584896,30, | 30  |      0      10     48      1      4
test,1566956848623195904,30, | 30  |      0      10     48      1      2
test,1566956850631365120,30, | 30  |      0      10     48      1      2
test,1566956852617495040,30, | 30  |      0      10     48      1      2
test,1566956854623815168,30, | 30  |      0      10     48      1      2
test,1566956856630513920,30, | 30  |      0      10     48      1      2
test,1566956859606750976,30, | 30  |      0       9     48      1      2
test,1566956860628967168,30, | 30  |      0      10     48      1      2
test,1566956862615895040,30, | 30  |      0      10     48      1      2
test,1566956864622600960,30, | 30  |      0      10     48      1      2
test,1566956866628340992,30, | 30  |      0      10     48      1      2
test,1566956868617952000,30, | 30  |      0      10     48      1      2
test,1566956870624617216,30, | 30  |      0      10     48      1      2
test,1566956872631216896,30, | 30  |      0      10     48      1      2
test,1566956874621490944,30, | 30  |      0      10     48      1      2
test,1566956876626307840,30, | 30  |      0      10     48      1      2
test,1566956878618170112,30, | 30  |      0      10     48      1      2
test,1566956880622874880,30, | 30  |      0      10     48      1      3
test,1566956882629057024,30, | 30  |      0      10     48      1      2
test,1566956884618151936,30, | 30  |      0      10     48      1      2
test,1566956886624633088,30, | 30  |      0      10     48      1      2
test,1566956888630789888,30, | 30  |      0      10     48      1      2
test,1566956890626616832,30, | 30  |      0      10     48      1      2
test,1566956892632386816,30, | 30  |      0      10     48      1      2
test,1566956894616678912,30, | 30  |      0      10     48      1      2
test,1566956896623254016,30, | 30  |      0      10     48      1      2
test,1566956898629544960,30, | 30  |      0      10     48      1      2
test,1566956900619021824,30, | 30  |      0      10     48      1      2
test,1566956902626203904,30, | 30  |      0      10     48      1      2
test,1566956904614744832,30, | 30  |      0      10     48      1      2
test,1566956906621283072,30, | 30  |      0      10     48      1      2
test,1566956908626724864,30, | 30  |      0      10     48      1      2
test,1566956911604155904,30, | 30  |      0       9     48      1      3
test,1566956912623117056,30, | 30  |      0      10     48      1      2
test,1566956914631334144,30, | 30  |      0      10     48      1      2
test,1566956916618882816,30, | 30  |      0      10     48      1      2
test,1566956918624908032,30, | 30  |      0      10     48      1      2
test,1566956920614480896,30, | 30  |      0      10     48      1      2
test,1566956922620572928,30, | 30  |      0      10     48      1      2
test,1566956924627120128,30, | 30  |      0      10     48      1      4
test,1566956926616243968,30, | 30  |      0      10     48      1      2
test,1566956929609158144,30, | 30  |      0       9     48      1      3
test,1566956930631081984,30, | 30  |      0      10     48      1      2
test,1566956932648918016,30, | 30  |      0      10     48      1      2
test,1566956935595279104,30, | 30  |      0       9     48      1      2
test,1566956936633598976,30, | 30  |      0      10     48      1      2
test,1566956938621370112,30, | 30  |      0      10     48      1      2
test,1566956940627331072,30, | 30  |      0      10     48      1      2
test,1566956942617285120,30, | 30  |      0      10     48      1      2
test,1566956944622502144,30, | 30  |      0      10     48      1      2
test,1566956946612032768,30, | 30  |      0      10     48      1      2
test,1566956948617960960,30, | 30  |      0      10     48      1      4
test,1566956950625297920,30, | 30  |      0      10     48      1      2
test,1566956952635174912,30, | 30  |      0      10     48      1      4
test,1566956954620316928,30, | 30  |      0      10     48      1      4
test,1566956956634934784,30, | 30  |      0      10     48      1      2
test,1566956958616899072,30, | 30  |      0      10     48      1      2
test,1566956960622664960,30, | 30  |      0      10     48      1      2
test,1566956962613456896,30, | 30  |      0      10     48      1      2
test,1566956964619079168,30, | 30  |      0      10     48      1      2
test,1566956966625210112,30, | 30  |      0      10     48      1      2
test,1566956968615049984,30, | 30  |      0      10     48      1      2
test,1566956970625481984,30, | 30  |      0      10     48      1      2
test,1566956972634124032,30, | 30  |      0      10     48      1      2
test,1566956974615906048,30, | 30  |      0      10     48      1      2
test,1566956976625283840,30, | 30  |      0      10     48      1      2
test,1566956978612041984,30, | 30  |      0      10     48      1      2
test,1566956980618578944,30, | 30  |      0      10     48      1      2
test,1566956982625648896,30, | 30  |      0      10     48      1      2
test,1566956985600840192,30, | 30  |      0       9     48      1      2
test,1566956986621543936,30, | 30  |      0      10     48      1      2
test,1566956988626435072,30, | 30  |      0      10     48      1      2
test,1566956990616679936,30, | 30  |      0      10     48      1      2
test,1566956992666003968,30, | 30  |      0      10     48      1      2
test,1566956994639020032,30, | 30  |      0      10     48      1      2
test,1566956996628696064,30, | 30  |      0      10     48      1      2
test,1566956998633795072,30, | 30  |      0      10     48      1      2
