name,time,nodeid,value
test,1566894646099710976,34,<0`+X02<0`+X028     34      8      10      1      0      2
test,1566894648074287872,34,     34      9      10      1      0      3
test,1566894650081942016,34,     34     10      10      1      0      2
test,1566894652068463104,34,     34     11      10      1      0      4
test,1566894654084027136,34,     34     12      10      1      0      3
test,1566894656094844160,34,     34     13      10      1      0      5
test,1566894658071038976,34,     34     14      10      1      0      2
test,1566894660087954944,34,     34     15      10      1      0      2
test,1566894662068470016,34,     34     16      10      1      0      5
test,1566894664074862848,34,     34     17      10      1      0      3
test,1566894666089756928,34,     34     18      10      1      0      3
test,1566894668071078144,34,     34     19      10      1      0      4
test,1566894670088360192,34,     34     20      10      1      0      3
test,1566894672068017920,34,     34     21      10      1      0      5
test,1566894674073661952,34,     34     22      10      1      0      5
test,1566894676088741120,34,     34     23      10      1      0      6
test,1566894678071368960,34,     34     24      10      1      0      3
test,1566894680098352896,34,     34     25      10      1      0      3
test,1566894682066302976,34,     34     26      10      1      0     10
test,1566894684073227008,34,     34     27      10      1      0      3
test,1566894686083142144,34,     34     28      10      1      0      2
test,1566894688070899968,34,     34     29      10      1      0      6
test,1566894690083939072,34,     34     30      10      1      0      4
test,1566894692065615872,34,     34     31      10      1      0      5
test,1566894694072710912,34,     34     32      10      1      0      3
test,1566894696083430144,34,     34     33       6      1      0      6
test,1566894698075072000,34,     34     34      10      1      0      4
test,1566894700075300864,34,     34     35      10      1      0      4
test,1566894702088183040,34,     34     36      10      1      0      4
test,1566894704076660992,34,     34     37      10      1      0      2
test,1566894706078659072,34,     34     38      10      1      0      6
test,1566894708067857152,34,     34     39      10      1      0      6
test,1566894710074580992,34,     34     40      10      1      0      4
test,1566894712085659136,34,     34     41      10      1      0      2
test,1566894714073829888,34,     34     42      10      1      0      3
test,1566894716080201984,34,     34     43      10      1      0      3
test,1566894718067243008,34,     34     44      10      1      0      6
test,1566894720075272960,34,     34     45      10      1      0      3
test,1566894722082253824,34,     34     46      10      1      0      4
test,1566894724079301120,34,     34     47      10      1      0      4
test,1566894726077302016,34,     34     48      10      1      0      3
test,1566894728066042880,34,     34     49      10      1      0      3
test,1566894730075185152,34,     34     50      10      1      0     12
test,1566894732087420928,34,     34     51      10      1      0      7
test,1566894734089871872,34,     34     52      10      1      0      6
test,1566894736076873984,34,     34     53      10      1      0      4
test,1566894738065874944,34,     34     54      10      1      0      3
test,1566894740075685120,34,     34     55      10      1      0      7
test,1566894742087161088,34,     34     56      10      1      0      7
test,1566894744068316928,34,     34     57      10      1      0      2
test,1566894746081903872,34,     34     58      10      1      0      2
test,1566894748065125888,34,     34     59      10      1      0      3
test,1566894752084708864,34,     34     61      10      1      0      5
test,1566894754072113152,34,     34     62      10      1      0      2
test,1566894756076438016,34,     34     63      10      1      0      3
test,1566894758063687936,34,     34     64      10      1      0      3
test,1566894760071404032,34,     34     65      10      1      0      2
test,1566894762079971072,34,     34     66      10      1      0      3
test,1566894764066784000,34,     34     67      10      1      0      6
test,1566894766085966080,34,     34     68      10      1      0      3
test,1566894768063090176,34,     34     69      10      1      0      3
test,1566894770071399936,34,     34     70      10      1      0      5
test,1566894772084924928,34,     34     71      10      1      0      3
test,1566894774067362048,34,     34     72       7      1      0      2
test,1566894776077796096,34,     34     73      10      1      0      3
test,1566894778062289920,34,     34     74      10      1      0      3
test,1566894780069451008,34,     34     75      10      1      0      6
test,1566894782082743040,34,     34     76      10      1      0     13
test,1566894784064832000,34,     34     77      10      1      0      2
test,1566894786073133824,34,     34     78      10      1      0      5
test,1566894788080442880,34,     34     79       9      1      0      3
test,1566894790069540096,34,     34     80      10      1      0      4
test,1566894792075211008,34,     34     81      10      1      0      3
test,1566894794067403008,34,     34     82      10      1      0      3
test,1566894796072016128,34,     34     83       7      1      0      3
test,1566894798077875968,34,     34      0       0      0      0      0
test,1566894800067184896,34,     34     85      10      1      0      2
test,1566894802075138048,34,     34     86      10      1      0      3
test,1566894804065445888,34,     34     87      10      1      0      2
test,1566894806075074048,34,     34     88      10      1      0      2
test,1566894808082882048,34,     34     89      10      1      0      4
test,1566894810072333056,34,     34     90      10      1      0      2
test,1566894812087207936,34,     34     91      10      1      0      5
test,1566894814062989824,34,     34     92      10      1      0      5
test,1566894816070897152,34,     34     93      10      1      0      3
test,1566894818075119872,34,     34     94      10      1      0      3
test,1566894820066317056,34,     34     95      10      1      0      3
test,1566894822081278976,34,     34     96      10      1      0      2
test,1566894824062905088,34,     34     97      10      1      0      5
test,1566894826069188096,34,     34     98      10      1      0      3
test,1566894828079511808,34,     34     99      10      1      0      3
test,1566894830066836224,34,     34    100      10      1      0      5
test,1566894832076654080,34,     34    101      10      1      0      7
test,1566894834063252992,34,     34    102      10      1      0      5
test,1566894836070019840,34,     34    103      10      1      0      4
test,1566894838079702016,34,     34    104      10      1      0      4
test,1566894840064878848,34,     34    105      10      1      0      3
test,1566894842074013952,34,     34    106      10      1      0      3
test,1566894844061628160,34,     34    107      10      1      0      4
test,1566894846069209088,34,     34    108      10      1      0      5
test,1566894848085501952,34,     34    109      10      1      0      3
test,1566894850063929088,34,     34    110      10      1      0      2
test,1566894852070491904,34,     34    111      10      1      0      7
test,1566894854059681792,34,     34    112      10      1      0      4
test,1566894856066876928,34,     34    113      10      1      0      3
test,1566894858078176000,34,     34    114       8      1      0      5
test,1566894860063323904,34,     34    115      10      1      0      3
test,1566894862077698048,34,     34    116      10      1      0      2
test,1566894864074821120,34,     34    117      10      1      0      4
test,1566894866074264064,34,     34    118      10      1      0      5
test,1566894868076147200,34,     34    119      10      1      0      6
test,1566894870061929984,34,     34    120      10      1      0      3
test,1566894872070240000,34,     34    121      10      1      0      3
test,1566894874079879936,34,     34    122      10      1      0      7
test,1566894876066340096,34,     34    123      10      1      0      3
test,1566894878086391808,34,     34    124      10      1      0      2
test,1566894880061542912,34,     34    125      10      1      0      5
test,1566894882068811776,34,     34    126      10      1      0      2
test,1566894884077188096,34,     34    127      10      1      0      2
test,1566894886069605120,34,     34    128      10      1      0      6
test,1566894888079844864,34,     34    129      10      1      0      2
test,1566894890060237824,34,     34    130      10      1      0      3
test,1566894892069145088,34,     34    131      10      1      0      6
test,1566894894076487168,34,     34    132      10      1      0      3
test,1566894896076251904,34,     34    133      10      1      0      5
test,1566894898073385984,34,     34    134      10      1      0      6
test,1566894900060462848,34,     34    135      10      1      0      5
test,1566894904072078080,34,     34    137      10      1      0      2
test,1566894906064114944,34,     34    138      10      1      0      3
test,1566894908079344896,34,     34    139       9      1      0      6
test,1566894910069523200,34,     34    140      10      1      0      3
test,1566894912065460992,34,     34    141      10      1      0      3
test,1566894914074547968,34,     34    142      10      1      0      2
test,1566894916078605824,34,     34    143      10      1      0      3
test,1566894918072045056,34,     34    144      10      1      0      3
test,1566894920058437120,34,     34    145      10      1      0      2
test,1566894922065383936,34,     34    146      10      1      0      2
test,1566894924079032064,34,     34    147      10      1      0      2
test,1566894926063708160,34,     34    148      10      1      0      2
test,1566894928067851008,34,     34    149      10      1      0      2
test,1566894930058500096,34,     34    150      10      1      0      3
test,1566894932071814912,34,     34    151      10      1      0      3
test,1566894934071794944,34,     34    152      10      1      0      2
test,1566894936060468992,34,     34    153      10      1      0      5
test,1566894938072681984,34,     34    154      10      1      0      2
test,1566894940056585984,34,     34    155      10      1      0      3
test,1566894942064102912,34,     34    156      10      1      0      3
test,1566894944070180864,34,     34    157      10      1      0      3
test,1566894946059493120,34,     34    158      10      1      0      3
test,1566894948065643008,34,     34    159      10      1      0      6
test,1566894950071646976,34,     34    160      10      1      0      2
test,1566894952067303936,34,     34    161      10      1      0      6
test,1566894954073970944,34,     34    162      10      1      0      5
test,1566894956059516928,34,     34    163      10      1      0      2
test,1566894958071051008,34,     34    164      10      1      0      5
test,1566894960074475008,34,     34    165      10      1      0      3
test,1566894962067214848,34,     34    166      10      1      0      4
test,1566894966059390976,34,     34    168      10      1      0      4
test,1566894968068284160,34,     34    169      10      1      0      6
test,1566894970125673984,34,     34    170      10      1      0      5
test,1566894972063478016,34,     34    171      10      1      0      6
test,1566894974142638080,34,     34    172       9      1      0      7
test,1566894976070231808,34,     34    173      10      1      0     13
test,1566894978064730880,34,     34    174      10      1      0      3
test,1566894980069411072,34,     34    175      10      1      0      5
test,1566894982060188160,34,     34    176      10      1      0      6
test,1566894984067536128,34,     34    177      10      1      0      2
test,1566894986056392960,34,     34    178      10      1      0      4
test,1566894988063692032,34,     34    179      10      1      0      8
test,1566894990070396928,34,     34    180      10      1      0      2
test,1566894992059393792,34,     34    181      10      1      0      4
test,1566894994067611904,34,     34    182      10      1      0      3
test,1566894996055809024,34,     34    183      10      1      0      3
test,1566894998071366912,34,     34    184      10      1      0      3
test,1566895000075617024,34,     34    185      10      1      0      2
test,1566895002059776000,34,     34    186      10      1      0      7
test,1566895004068710144,34,     34    187      10      1      0      5
test,1566895006054917120,34,     34    188      10      1      0      4
test,1566895008060987904,34,     34    189      10      1      0      6
test,1566895010072478976,34,     34    190      10      1      0      3
test,1566895012057496064,34,     34    191      10      1      0      4
test,1566895014064248064,34,     34    192      10      1      0      4
test,1566895016054146048,34,     34    193      10      1      0      3
test,1566895018062213888,34,     34    194       9      1      0      2
test,1566895020068643072,34,     34    195      10      1      0      5
test,1566895022063095040,34,     34    196      10      1      0      5
test,1566895024063031040,34,     34    197      10      1      0      3
test,1566895026053540864,34,     34    198      10      1      0      4
test,1566895028059936000,34,     34    199      10      1      0     19
test,1566895030071513856,34,     34    200      10      1      0      3
test,1566895032060297984,34,     34    201      10      1      0      3
test,1566895034063680000,34,     34    202      10      1      0      2
test,1566895036074842880,34,     34    203      10      1      0      4
test,1566895038059124992,34,     34    204      10      1      0      5
test,1566895040069529088,34,     34    205      10      1      0      3
test,1566895042060868096,34,     34    206      10      1      0     11
test,1566895044066085120,34,     34    207      10      1      0      2
test,1566895046107198976,34,     34    208       8      1      0      2
test,1566895048060162048,34,     34    209      10      1      0      3
test,1566895050073961984,34,     34    210      10      1      0      3
test,1566895052059348224,34,     34    211      10      1      0      4
test,1566895054063389184,34,     34    212      10      1      0      7
test,1566895056075657984,34,     34    213      10      1      0      3
test,1566895058057316096,34,     34    214      10      1      0      3
test,1566895060065395968,34,     34    215      10      1      0      6
test,1566895062053857024,34,     34    216      10      1      0      3
test,1566895064064382976,34,     34    217      10      1      0      3
test,1566895066067961856,34,     34    218      10      1      0      5
test,1566895068059773952,34,     34    219       9      1      0      3
test,1566895070065239808,34,     34    220      10      1      0      2
test,1566895072053689856,34,     34    221      10      1      0      2
test,1566895074059362816,34,     34    222      10      1      0      2
test,1566895076071986944,34,     34    223      10      1      0      6
test,1566895078057883904,34,     34    224      10      1      0      2
test,1566895080067153920,34,     34    225      10      1      0      3
test,1566895082052728064,34,     34    226      10      1      0      4
test,1566895084065131008,34,     34    227      10      1      0      3
test,1566895086070451968,34,     34    228      10      1      0      2
test,1566895088054970880,34,     34    229       9      1      0      4
test,1566895090066152192,34,     34    230      10      1      0      5
test,1566895092051606784,34,     34    231      10      1      0      7
test,1566895094059155968,34,     34    232      10      1      0      5
test,1566895096065996800,34,     34    233      10      1      0      7
test,1566895098059428096,34,     34    234      10      1      0      6
test,1566895100066347008,34,     34    235      10      1      0      6
test,1566895102050944000,34,     34    236      10      1      0      2
test,1566895104058077184,34,     34    237      10      1      0      2
test,1566895106066781952,34,     34    238      10      1      0      3
test,1566895108081445888,34,     34    239      10      1      0      2
test,1566895110074256896,34,     34    240       9      1      0      7
test,1566895112050255104,34,     34    241      10      1      0      5
test,1566895114056977152,34,     34    242      10      1      0      4
test,1566895116074084096,34,     34    243      10      1      0      3
test,1566895118054245888,34,     34    244       8      1      0      3
test,1566895120061074944,34,     34    245      10      1      0      3
test,1566895122066638080,34,     34    246      10      1      0      3
test,1566895124062280960,34,     34    247      10      1      0      5
test,1566895126067423232,34,     34    248      10      1      0      2
test,1566895128052442112,34,     34    249      10      1      0      2
test,1566895130066958848,34,     34    250       5      1      0     10
test,1566895132066746880,34,     34    251      10      1      0      2
test,1566895134056683008,34,     34    252      10      1      0      3
test,1566895136063222784,34,     34    253      10      1      0      2
test,1566895138051369984,34,     34    254      10      1      0      5
test,1566895140058462976,34,     34    255      10      1      0      3
test,1566895142069668096,34,     34    256      10      1      0      2
test,1566895144056803840,34,     34    257      10      1      0      6
test,1566895146061997824,34,     34    258      10      1      0      5
test,1566895148050808064,34,     34    259      10      1      0      6
test,1566895150065808896,34,     34    260      10      1      0      3
test,1566895152064382976,34,     34    261      10      1      0      4
test,1566895154054397952,34,     34    262      10      1      0      2
test,1566895156067311104,34,     34    263      10      1      0      3
test,1566895158050836992,34,     34    264      10      1      0      4
test,1566895160058280960,34,     34    265      10      1      0      5
test,1566895162070925824,34,     34    266      10      1      0      2
test,1566895164054177024,34,     34    267      10      1      0      6
test,1566895166062501888,34,     34    268      10      1      0      5
test,1566895168053734912,34,     34    269      10      1      0      3
test,1566895170058587904,34,     34    270      10      1      0      5
test,1566895172065498112,34,     34    271      10      1      0      2
test,1566895174051942144,34,     34    272      10      1      0      3
test,1566895176060868864,34,     34    273      10      1      0      2
test,1566895178048801024,34,     34    274      10      1      0      2
test,1566895180057390080,34,     34    275       8      1      0      5
test,1566895182061698048,34,     34    276      10      1      0      2
test,1566895184051283968,34,     34    277      10      1      0     10
test,1566895186060967936,34,     34    278      10      1      0      3
test,1566895188048696064,34,     34    279      10      1      0      3
test,1566895190058361088,34,     34    280      10      1      0      4
test,1566895192061660928,34,     34    281      10      1      0      5
test,1566895194051613184,34,     34    282      10      1      0      5
test,1566895196057154816,34,     34    283      10      1      0      8
test,1566895198046971136,34,     34    284       9      1      0      6
