node	%	avgtime	stdev
1	10	83.05413333333334	0.22542833975264973
1	20	87.5198	12.747922906746952
1	30	121.38931111111111	8.377837586649841
1	40	123.17557777777778	0.016269727729864954
1	50	127.64273333333334	12.781675342600293
1	60	152.65795555555556	17.984014718829346
1	70	163.3778888888889	0.01909571848991482
1	80	164.27104444444444	5.988772108004791
1	90	183.02908888888888	20.32163678628612
1	100	216.08084444444444	26.86208594330032
2	10	61.31657777777777	0.013473018304088044
2	20	76.50546666666666	19.713133308671523
2	30	101.52233333333334	0.013751033019047093
2	40	103.30933333333334	8.381509909535175
2	50	120.2812888888889	20.28222069899715
2	60	139.9333777777778	8.375663396490642
2	70	141.7196888888889	0.011547967594149576
2	80	150.65255555555555	16.902551361414414
2	90	173.87655555555554	16.261817821001255
2	100	198.01006666666666	26.291317938195355
3	10	82.41971111111111	0.01597671917370841
3	20	82.41971111111111	0.01597671917370841
3	30	91.35260000000001	16.89988181427206
3	40	118.15062222222222	12.77507963378291
3	50	122.6164	0.014205312706552647
3	60	125.29653333333333	10.142169932335173
3	70	152.98760000000001	17.471881543054987
3	80	162.81364444444446	0.010814879387290099
3	90	168.2135111111111	13.923628807342084
3	100	204.07317777777777	27.750161318359027
4	10	71.68102222222223	10.132883376523301
4	20	92.22497777777778	11.03385426042976
4	30	94.90511111111111	11.577178691919995
4	40	111.88044444444444	11.81312411252755
4	50	126.17553333333333	14.402270484829181
4	60	133.3206888888889	10.144068369388497
4	70	149.3986888888889	12.118661066197612
4	80	160.1184888888889	14.59753430552606
4	90	172.62828888888887	13.977803406606395
4	100	203.96853333333334	26.429341806890587
5	10	70.34386666666667	16.80995369038021
5	20	98.0228	8.448523248043246
5	30	103.38308888888889	9.53659121447067
5	40	115.44157777777778	16.12045798820539
5	50	133.35055555555556	13.983246715518922
5	60	142.23997777777777	10.919048712912197
5	70	149.83406666666667	14.940101529106153
5	80	168.5920888888889	17.98768171027331
5	90	182.90424444444443	11.37655935596514
5	100	210.7930888888889	25.910441046404287
6	10	79.72011111111111	6.903611466676575
6	20	82.39957777777778	7.4209599859540605
6	30	102.05435555555556	18.913771738357923
6	40	119.92013333333334	9.190881718015168
6	50	124.38657777777777	7.200582247571398
6	60	127.95984444444444	11.654012793016745
6	70	151.185	16.859563526917945
6	80	161.01166666666666	7.196264529727784
6	90	166.37862222222222	13.765363851626907
6	100	203.9702	24.605529344955265
7	10	82.39562222222223	0.011176861018293594
7	20	82.39562222222223	0.011176861018293594
7	30	85.96891111111111	11.569818449157472
7	40	112.76826666666666	17.47190101719173
7	50	122.59431111111111	0.016218426980979826
7	60	122.59431111111111	0.016218426980979826
7	70	127.06137777777778	12.77343834840111
7	80	155.64731111111112	15.543749591252286
7	90	162.79446666666666	0.020272686506280734
7	100	189.65902222222223	25.747548962331866
8	10	78.82493333333333	7.766781977814822
8	20	83.29137777777778	8.52432272779936
8	30	85.97151111111111	7.776211009524266
8	40	101.15984444444445	18.389410475443288
8	50	121.71111111111111	8.522881115567728
8	60	124.39124444444444	8.379466413245359
8	70	128.85766666666666	11.98310143114423
8	80	145.8308888888889	19.140995697267904
8	90	164.5896888888889	8.37952867741113
8	100	183.39093333333332	29.877915422142948
9	10	65.8706	7.7714687344741415
9	20	87.31099999999999	17.752908404489155
9	30	98.92606666666667	7.772720859752799
9	40	99.81922222222222	8.131162001519183
9	50	109.64526666666666	12.96538202711709
9	60	129.2959111111111	17.14292466272658
9	70	138.2301111111111	9.475711146788598
9	80	143.589	10.454740058070225
9	90	162.34555555555553	18.42151180568714
9	100	189.24148888888888	24.3151694866527
10	10	77.03673333333333	18.384724257333364
10	20	96.24257777777778	9.414196729815917
10	30	99.81588888888889	11.007633733877226
10	40	108.74944444444444	11.189471781658206
10	50	124.83011111111111	17.787425321151893
10	60	136.44306666666665	9.415554037674235
10	70	142.69506666666666	14.213730326374884
10	80	154.30653333333333	16.862901225902544
10	90	172.16935555555554	15.213529750245867
10	100	194.12606666666667	26.685019526114104
11	10	65.4430888888889	7.370032240037484
11	20	92.23775555555555	15.813527103768346
11	30	100.27615555555555	7.684901894906883
11	40	106.52957777777777	9.193399439244166
11	50	117.2481111111111	17.873668063818222
11	60	136.90148888888888	11.828186173908762
11	70	141.36724444444442	7.895230067911417
11	80	147.61993333333334	13.656264527181792
11	90	166.39144444444443	18.335571908371737
11	100	190.55062222222222	22.850103069479985
12	10	71.24222222222222	10.092554793890237
12	20	82.85324444444444	15.143204893998366
12	30	92.67864444444444	11.031304928074535
12	40	97.14642222222223	12.424207321502514
12	50	115.0142	15.620449035566397
12	60	127.52033333333333	14.314496582454124
12	70	133.77373333333333	10.100749293538028
12	80	136.45384444444443	11.983829841907717
12	90	154.3195111111111	19.395879442460576
12	100	180.24584444444446	23.35021422128281
13	10	65.88733333333333	7.772414404920662
13	20	87.3306	17.75379545003879
13	30	98.94437777777777	7.77252406145253
13	40	98.94437777777777	7.77252406145253
13	50	103.41082222222222	8.525031277705587
13	60	114.12993333333333	16.314132419748553
13	70	133.78446666666665	14.574433181867732
13	80	139.14535555555554	7.774981409377232
13	90	142.71862222222222	13.55169936893003
13	100	182.91611111111112	27.107203041578703
14	10	64.9734	13.952594089858831
14	20	94.45219999999999	14.468639715228615
14	30	101.5988	7.365660282073093
14	40	102.49195555555555	7.424656474929131
14	50	105.17208888888888	6.910547889153425
14	60	114.10422222222222	16.86401152789962
14	70	133.75813333333332	16.35292805391021
14	80	141.79708888888888	7.364594146758166
14	90	147.15666666666667	10.395616386028033
14	100	181.14435555555556	28.099368546896983
15	10	84.17915555555555	17.57481635486046
15	20	93.55964444444444	11.780422048612445
15	30	104.28086666666667	14.743595103390735
15	40	112.32128888888889	11.024629671418412
15	50	116.78704444444445	12.582995715639342
15	60	128.39728888888888	13.965952634275554
15	70	135.54244444444444	12.964596734175652
15	80	148.04782222222224	13.820208422137243
15	90	156.9843111111111	15.244098974271115
15	100	188.30293333333333	26.62264668677949
16	10	77.05084444444445	19.35939622456749
16	20	97.59748888888889	9.728609212528836
16	30	100.27764444444445	8.803743315812145
16	40	109.20917777777778	12.119742037625464
16	50	122.60771111111112	18.171929820245264
16	60	136.00484444444444	12.122088531338818
16	70	140.48484444444443	8.811253991746616
16	80	145.84508888888888	12.088462231743245
16	90	156.5641777777778	17.02980365323326
16	100	184.29773333333333	19.40160633391894
17	10	70.34037777777777	17.877761103074004
17	20	96.24591111111111	12.731727044567585
17	30	99.81922222222222	6.9088811483641965
17	40	103.39386666666667	7.364829225940865
17	50	106.96646666666666	10.398986169115458
17	60	118.57811111111111	18.480095101612612
17	70	133.76295555555555	15.180908678869049
17	80	141.8012222222222	7.359379216312674
17	90	145.37382222222223	9.190688888239231
17	100	175.74988888888888	27.158197892769476
18	10	76.6046	20.376924566550986
18	20	96.25735555555555	10.33238725639731
18	30	97.15051111111111	8.980432254787528
18	40	100.72313333333334	10.342529428617457
18	50	106.08275555555555	9.860933807329063
18	60	110.54984444444445	12.424169039262209
18	70	122.16282222222222	17.400957975573547
18	80	137.35037777777777	10.837295589534754
18	90	143.60377777777776	10.461450155623067
18	100	164.1560888888889	27.912974077578255
19	10	81.04126666666667	18.878410202951653
19	20	90.86657777777778	10.04085778997919
19	30	97.12004444444445	14.471515199860654
19	40	108.73311111111111	14.100107722383838
19	50	114.09342222222222	10.039034856020976
19	60	114.09342222222222	10.039034856020976
19	70	121.23855555555556	13.132021857684641
19	80	134.63837777777778	13.139364764790658
19	90	141.78415555555557	15.425344485552982
19	100	166.8356222222222	25.28875455368982
20	10	81.05142222222223	14.472673399907983
20	20	94.91055555555556	16.776567927748015
20	30	108.30924444444445	17.482832600421002
20	40	119.02711111111111	7.77734702144113
20	50	119.92024444444445	8.133269895244405
20	60	122.60033333333334	8.56926419881491
20	70	127.06737777777778	9.46884066122547
20	80	139.57204444444446	18.14275794028565
20	90	157.42262222222223	12.416874812288333
20	100	182.89662222222222	27.447633937015482
21	10	84.18184444444445	13.43106367031895
21	20	91.32773333333334	13.240563252575567
21	30	114.55251111111112	12.41666111177423
21	40	119.01826666666666	9.853920951027106
21	50	123.48531111111112	10.454087114665256
21	60	127.95171111111111	8.989266158799468
21	70	137.77624444444444	16.677994719710973
21	80	153.85413333333332	14.56382641653316
21	90	162.78695555555555	10.496044217954328
21	100	190.54482222222222	21.614479780807805
22	10	85.07913333333333	14.595710689352288
22	20	92.22433333333333	12.584112647952718
22	30	102.05173333333333	16.31292414620996
22	40	115.44973333333333	9.72569288580978
22	50	115.44973333333333	9.72569288580978
22	60	119.91615555555555	11.814207119464943
22	70	127.06135555555555	11.251134878425606
22	80	135.09962222222222	14.398826900273523
22	90	152.07544444444446	13.277038541570311
22	100	174.45822222222222	22.965795163567698
23	10	81.95273333333334	13.201654012075359
23	20	89.99444444444445	13.750330173813602
23	30	104.28762222222223	18.59615540702492
23	40	116.7945111111111	11.836116953134708
23	50	119.47464444444444	7.369932367259541
23	60	119.47464444444444	7.369932367259541
23	70	123.04793333333333	8.006394601703178
23	80	127.51435555555555	12.238631079041843
23	90	145.37928888888888	18.48452639817008
23	100	170.40588888888888	21.990033189877614
24	10	84.61582222222222	11.512726719293362
24	20	94.4446	16.82287952516399
24	30	109.63031111111111	16.12776807082941
24	40	117.67211111111111	8.73539285743563
24	50	118.56526666666667	9.192461260085999
24	60	118.56526666666667	9.192461260085999
24	70	125.71242222222222	11.304477203320994
24	80	130.1794888888889	12.342992188470609
24	90	142.6835111111111	17.66667993790239
24	100	168.59317777777778	24.09839423383838
25	10	84.20431111111111	15.930674414791765
25	20	105.64137777777778	15.978884453451926
25	30	112.76677777777778	11.02535550012064
25	40	114.5530888888889	10.83448416530676
25	50	118.12635555555555	12.772747293208367
25	60	132.41666666666666	13.962326518821346
25	70	136.8830888888889	13.964511186351542
25	80	144.02897777777778	15.084820849704407
25	90	154.2998	13.872021250442465
25	100	179.3230888888889	25.4666845932826
26	10	85.214	12.54703101244564
26	20	108.3343111111111	14.558484823481994
26	30	112.77228888888888	12.580620073643976
26	40	117.23873333333333	12.4180983930713
26	50	128.85035555555555	11.98593480473819
26	60	137.81646666666666	14.376864136205402
26	70	150.3225111111111	13.096473877661992
26	80	153.89504444444444	11.806362739402154
26	90	164.1361777777778	16.270122134939815
26	100	196.39697777777778	23.584158347856462
27	10	89.0946	15.446918069193076
27	20	106.99153333333334	18.150804415682614
27	30	115.0306	13.762699902602355
27	40	119.49635555555555	7.381741541729086
27	50	121.28266666666667	7.910843694230436
27	60	128.40073333333333	11.828312143097401
27	70	135.54653333333334	17.222170500681543
27	80	153.41577777777778	17.47345308654465
27	90	161.45404444444443	11.671376759085677
27	100	187.4024222222222	24.97757470347505
28	10	85.9688	16.19575796536634
28	20	112.7675111111111	14.607743218491134
28	30	118.12846666666667	8.447103811366357
28	40	118.12846666666667	8.447103811366357
28	50	119.91544444444445	9.190974410592254
28	60	128.84964444444444	11.195603682930745
28	70	135.54786666666666	16.120025639501378
28	80	142.69366666666667	17.6627470992173
28	90	154.31942222222222	15.739795142031912
28	100	179.36917777777776	24.373935322471837
29	10	92.68693333333333	19.44734018200292
29	20	110.57291111111111	12.469412712754766
29	30	113.25237777777778	10.185601741247947
29	40	115.03868888888888	11.603972687329234
29	50	123.07764444444445	13.879892805054297
29	60	132.00913333333332	14.57252013457958
29	70	140.00675555555554	15.803222826021562
29	80	145.367	14.597472813656978
29	90	152.96282222222223	13.985794257500405
29	100	178.90966666666665	25.62796179601846
30	10	99.47124444444444	14.31025040622591
30	20	105.72466666666666	8.661621502089234
30	30	112.35444444444444	15.226244498406444
30	40	125.30546666666666	17.98769553889547
30	50	134.23835555555556	13.873535266102794
30	60	140.9366222222222	10.32133442149822
30	70	141.81484444444445	11.280750422240928
30	80	145.37317777777778	11.004597653396118
30	90	159.67975555555554	19.63680317108154
30	100	189.65084444444443	25.42408090316555
