%	avgtime	stdev
10	79.4574037037037	4.904701945515035
20	79.4574037037037	4.904701945515035
30	79.4574037037037	4.904701945515035
40	79.4574037037037	4.904701945515035
50	79.4574037037037	4.904701945515035
60	79.4574037037037	4.904701945515035
70	79.50702345679012	4.718773290782381
80	81.0948913580247	2.178716214409124
90	84.71728024691359	3.736768791705773
100	94.64074814814815	11.18268981883843
