node	%	avgtime	stdev
1	10	82.33696296296297	3.900121689240375
1	20	82.33696296296297	3.900121689240375
1	30	82.33696296296297	3.900121689240375
1	40	82.33696296296297	3.900121689240375
1	50	82.33696296296297	3.900121689240375
1	60	82.33696296296297	3.900121689240375
1	70	82.33696296296297	3.900121689240375
1	80	82.33696296296297	3.900121689240375
1	90	82.33696296296297	3.900121689240375
1	100	92.72577777777778	17.04749108843458
2	10	61.309	0.0
2	20	61.309	0.0
2	30	61.309	0.0
2	40	61.309	0.0
2	50	61.309	0.0
2	60	61.309	0.0
2	70	62.79759259259259	7.7349540064231475
2	80	73.21659259259259	18.700404574519567
2	90	97.03403703703704	12.871318659602718
2	100	101.49981481481483	0.010347935643392933
3	10	79.40837037037038	7.276562328399883
3	20	79.40837037037038	7.276562328399883
3	30	79.40837037037038	7.276562328399883
3	40	79.40837037037038	7.276562328399883
3	50	79.40837037037038	7.276562328399883
3	60	79.40837037037038	7.276562328399883
3	70	79.40837037037038	7.276562328399883
3	80	79.40837037037038	7.276562328399883
3	90	83.87414814814815	7.7342605767788575
3	100	88.34107407407407	12.23525113987614
4	10	82.39470370370371	0.014464319002862594
4	20	82.39470370370371	0.014464319002862594
4	30	82.39470370370371	0.014464319002862594
4	40	82.39470370370371	0.014464319002862594
4	50	82.39470370370371	0.014464319002862594
4	60	82.39470370370371	0.014464319002862594
4	70	82.39470370370371	0.014464319002862594
4	80	82.39470370370371	0.014464319002862594
4	90	83.88329629629631	7.729228918725507
4	100	118.12088888888889	12.870911716357018
5	10	81.64751851851852	3.8634993142961673
5	20	81.64751851851852	3.8634993142961673
5	30	81.64751851851852	3.8634993142961673
5	40	81.64751851851852	3.8634993142961673
5	50	81.64751851851852	3.8634993142961673
5	60	81.64751851851852	3.8634993142961673
5	70	81.64751851851852	3.8634993142961673
5	80	81.64751851851852	3.8634993142961673
5	90	83.13611111111112	3.8715672967589394
5	100	83.13611111111112	3.8715672967589394
6	10	82.39577777777778	0.01336278797871719
6	20	82.39577777777778	0.01336278797871719
6	30	82.39577777777778	0.01336278797871719
6	40	82.39577777777778	0.01336278797871719
6	50	82.39577777777778	0.01336278797871719
6	60	82.39577777777778	0.01336278797871719
6	70	82.39577777777778	0.01336278797871719
6	80	82.39577777777778	0.01336278797871719
6	90	82.39577777777778	0.01336278797871719
6	100	94.30562962962964	18.704765542807422
7	10	79.43651851851853	7.272479253324034
7	20	79.43651851851853	7.272479253324034
7	30	79.43651851851853	7.272479253324034
7	40	79.43651851851853	7.272479253324034
7	50	79.43651851851853	7.272479253324034
7	60	79.43651851851853	7.272479253324034
7	70	79.43651851851853	7.272479253324034
7	80	80.92511111111112	7.732211363129086
7	90	80.92511111111112	7.732211363129086
7	100	85.38977777777778	7.274906181437524
8	10	82.39466666666667	0.011825656592603886
8	20	82.39466666666667	0.011825656592603886
8	30	82.39466666666667	0.011825656592603886
8	40	82.39466666666667	0.011825656592603886
8	50	82.39466666666667	0.011825656592603886
8	60	82.39466666666667	0.011825656592603886
8	70	82.39466666666667	0.011825656592603886
8	80	82.39466666666667	0.011825656592603886
8	90	82.39466666666667	0.011825656592603886
8	100	83.88440740740741	7.735197786041012
9	10	82.38203703703704	0.01787667470688004
9	20	82.38203703703704	0.01787667470688004
9	30	82.38203703703704	0.01787667470688004
9	40	82.38203703703704	0.01787667470688004
9	50	82.38203703703704	0.01787667470688004
9	60	82.38203703703704	0.01787667470688004
9	70	82.38203703703704	0.01787667470688004
9	80	82.38203703703704	0.01787667470688004
9	90	82.38203703703704	0.01787667470688004
9	100	113.64362962962963	17.020286970255746
10	10	82.39237037037037	0.014041554122151335
10	20	82.39237037037037	0.014041554122151335
10	30	82.39237037037037	0.014041554122151335
10	40	82.39237037037037	0.014041554122151335
10	50	82.39237037037037	0.014041554122151335
10	60	82.39237037037037	0.014041554122151335
10	70	82.39237037037037	0.014041554122151335
10	80	82.39237037037037	0.014041554122151335
10	90	82.39237037037037	0.014041554122151335
10	100	107.69955555555556	19.778356006840742
11	10	82.38092592592592	0.025912464962947857
11	20	82.38092592592592	0.025912464962947857
11	30	82.38092592592592	0.025912464962947857
11	40	82.38092592592592	0.025912464962947857
11	50	82.38092592592592	0.025912464962947857
11	60	82.38092592592592	0.025912464962947857
11	70	82.38092592592592	0.025912464962947857
11	80	82.38092592592592	0.025912464962947857
11	90	83.86951851851852	7.738209161588359
11	100	118.10714814814816	12.858763987448414
12	10	80.89692592592593	5.364266212102266
12	20	80.89692592592593	5.364266212102266
12	30	80.89692592592593	5.364266212102266
12	40	80.89692592592593	5.364266212102266
12	50	80.89692592592593	5.364266212102266
12	60	80.89692592592593	5.364266212102266
12	70	80.89692592592593	5.364266212102266
12	80	80.89692592592593	5.364266212102266
12	90	82.38551851851852	5.573653106497295
12	100	83.87411111111112	5.362237932153478
13	10	81.64518518518518	3.869012595532285
13	20	81.64518518518518	3.869012595532285
13	30	81.64518518518518	3.869012595532285
13	40	81.64518518518518	3.869012595532285
13	50	81.64518518518518	3.869012595532285
13	60	81.64518518518518	3.869012595532285
13	70	81.64518518518518	3.869012595532285
13	80	83.13377777777778	3.866022248466893
13	90	83.13377777777778	3.866022248466893
13	100	100.99803703703704	20.039376271349596
14	10	73.46874074074074	10.174461942275613
14	20	73.46874074074074	10.174461942275613
14	30	73.46874074074074	10.174461942275613
14	40	73.46874074074074	10.174461942275613
14	50	73.46874074074074	10.174461942275613
14	60	73.46874074074074	10.174461942275613
14	70	73.46874074074074	10.174461942275613
14	80	77.93674074074075	12.871935260607719
14	90	89.8465925925926	11.355472229652294
14	100	95.80096296296297	13.65768160999933
15	10	74.21474074074075	10.058466952284501
15	20	74.21474074074075	10.058466952284501
15	30	74.21474074074075	10.058466952284501
15	40	74.21474074074075	10.058466952284501
15	50	74.21474074074075	10.058466952284501
15	60	74.21474074074075	10.058466952284501
15	70	74.21474074074075	10.058466952284501
15	80	80.168	12.867942343430284
15	90	89.09955555555555	11.147953614671694
15	100	98.03111111111112	15.096189502228016
16	10	82.39803703703704	0.013291065482212417
16	20	82.39803703703704	0.013291065482212417
16	30	82.39803703703704	0.013291065482212417
16	40	82.39803703703704	0.013291065482212417
16	50	82.39803703703704	0.013291065482212417
16	60	82.39803703703704	0.013291065482212417
16	70	82.39803703703704	0.013291065482212417
16	80	82.39803703703704	0.013291065482212417
16	90	82.39803703703704	0.013291065482212417
16	100	85.37522222222222	10.730483293773338
17	10	82.40362962962963	0.0152848546158219
17	20	82.40362962962963	0.0152848546158219
17	30	82.40362962962963	0.0152848546158219
17	40	82.40362962962963	0.0152848546158219
17	50	82.40362962962963	0.0152848546158219
17	60	82.40362962962963	0.0152848546158219
17	70	82.40362962962963	0.0152848546158219
17	80	82.40362962962963	0.0152848546158219
17	90	89.8465925925926	15.906684584836697
17	100	118.13318518518518	12.871739049432874
18	10	82.41140740740741	0.017493425708533558
18	20	82.41140740740741	0.017493425708533558
18	30	82.41140740740741	0.017493425708533558
18	40	82.41140740740741	0.017493425708533558
18	50	82.41140740740741	0.017493425708533558
18	60	82.41140740740741	0.017493425708533558
18	70	82.41140740740741	0.017493425708533558
18	80	82.41140740740741	0.017493425708533558
18	90	82.41140740740741	0.017493425708533558
18	100	97.29844444444444	19.775778250431923
19	10	82.39466666666667	0.011825656592603886
19	20	82.39466666666667	0.011825656592603886
19	30	82.39466666666667	0.011825656592603886
19	40	82.39466666666667	0.011825656592603886
19	50	82.39466666666667	0.011825656592603886
19	60	82.39466666666667	0.011825656592603886
19	70	82.39466666666667	0.011825656592603886
19	80	82.39466666666667	0.011825656592603886
19	90	82.39466666666667	0.011825656592603886
19	100	82.39466666666667	0.011825656592603886
20	10	82.39914814814816	0.014408073868239033
20	20	82.39914814814816	0.014408073868239033
20	30	82.39914814814816	0.014408073868239033
20	40	82.39914814814816	0.014408073868239033
20	50	82.39914814814816	0.014408073868239033
20	60	82.39914814814816	0.014408073868239033
20	70	82.39914814814816	0.014408073868239033
20	80	82.39914814814816	0.014408073868239033
20	90	82.39914814814816	0.014408073868239033
20	100	82.39914814814816	0.014408073868239033
21	10	73.453	10.180699552811458
21	20	73.453	10.180699552811458
21	30	73.453	10.180699552811458
21	40	73.453	10.180699552811458
21	50	73.453	10.180699552811458
21	60	73.453	10.180699552811458
21	70	73.453	10.180699552811458
21	80	82.38455555555555	13.654307095433667
21	90	89.82751851851852	11.347967945408923
21	100	97.27162962962963	14.311576954845782
22	10	82.40914814814815	0.019252779427126235
22	20	82.40914814814815	0.019252779427126235
22	30	82.40914814814815	0.019252779427126235
22	40	82.40914814814815	0.019252779427126235
22	50	82.40914814814815	0.019252779427126235
22	60	82.40914814814815	0.019252779427126235
22	70	82.40914814814815	0.019252779427126235
22	80	82.40914814814815	0.019252779427126235
22	90	82.40914814814815	0.019252779427126235
22	100	83.89888888888889	7.732315875264782
23	10	80.16351851851853	6.4410697174780775
23	20	80.16351851851853	6.4410697174780775
23	30	80.16351851851853	6.4410697174780775
23	40	80.16351851851853	6.4410697174780775
23	50	80.16351851851853	6.4410697174780775
23	60	80.16351851851853	6.4410697174780775
23	70	80.16351851851853	6.4410697174780775
23	80	80.16351851851853	6.4410697174780775
23	90	83.13955555555556	6.778973846405988
23	100	87.60644444444445	11.943730448467136
24	10	77.17955555555557	8.981766013315463
24	20	77.17955555555557	8.981766013315463
24	30	77.17955555555557	8.981766013315463
24	40	77.17955555555557	8.981766013315463
24	50	77.17955555555557	8.981766013315463
24	60	77.17955555555557	8.981766013315463
24	70	77.17955555555557	8.981766013315463
24	80	78.66814814814815	9.723584412312254
24	90	84.62251851851852	10.17656317370899
24	100	92.06544444444445	14.060275260828158
25	10	72.71492592592593	10.23196045177119
25	20	72.71492592592593	10.23196045177119
25	30	72.71492592592593	10.23196045177119
25	40	72.71492592592593	10.23196045177119
25	50	72.71492592592593	10.23196045177119
25	60	72.71492592592593	10.23196045177119
25	70	72.71492592592593	10.23196045177119
25	80	77.18181481481481	13.190352908432846
25	90	89.09277777777778	12.465572677558264
25	100	96.53911111111111	13.440501634220618
26	10	71.23418518518518	10.179013897521015
26	20	71.23418518518518	10.179013897521015
26	30	71.23418518518518	10.179013897521015
26	40	71.23418518518518	10.179013897521015
26	50	71.23418518518518	10.179013897521015
26	60	71.23418518518518	10.179013897521015
26	70	71.23418518518518	10.179013897521015
26	80	78.67714814814815	14.788179889315195
26	90	90.587	12.781136123810922
26	100	96.54025925925926	12.229036783858676
27	10	82.39351851851852	0.01303359673592431
27	20	82.39351851851852	0.01303359673592431
27	30	82.39351851851852	0.01303359673592431
27	40	82.39351851851852	0.01303359673592431
27	50	82.39351851851852	0.01303359673592431
27	60	82.39351851851852	0.01303359673592431
27	70	82.39351851851852	0.01303359673592431
27	80	82.39351851851852	0.01303359673592431
27	90	82.39351851851852	0.01303359673592431
27	100	82.39351851851852	0.01303359673592431
28	10	78.67377777777779	7.949743311450297
28	20	78.67377777777779	7.949743311450297
28	30	78.67377777777779	7.949743311450297
28	40	78.67377777777779	7.949743311450297
28	50	78.67377777777779	7.949743311450297
28	60	78.67377777777779	7.949743311450297
28	70	78.67377777777779	7.949743311450297
28	80	80.16237037037037	8.512033627338091
28	90	86.1178888888889	11.202135944450445
28	100	95.05055555555556	16.863781550396315
29	10	82.39007407407408	0.015605536310324084
29	20	82.39007407407408	0.015605536310324084
29	30	82.39007407407408	0.015605536310324084
29	40	82.39007407407408	0.015605536310324084
29	50	82.39007407407408	0.015605536310324084
29	60	82.39007407407408	0.015605536310324084
29	70	82.39007407407408	0.015605536310324084
29	80	82.39007407407408	0.015605536310324084
29	90	82.39007407407408	0.015605536310324084
29	100	83.87866666666667	7.73635378238055
30	10	82.39907407407408	0.025244840944281484
30	20	82.39907407407408	0.025244840944281484
30	30	82.39907407407408	0.025244840944281484
30	40	82.39907407407408	0.025244840944281484
30	50	82.39907407407408	0.025244840944281484
30	60	82.39907407407408	0.025244840944281484
30	70	82.39907407407408	0.025244840944281484
30	80	82.39907407407408	0.025244840944281484
30	90	82.39907407407408	0.025244840944281484
30	100	92.81922222222222	17.944796881061766
