name,time,nodeid,value
test,1566299701088529152,55, | 55  |      0      10     46      1      5
test,1566299703081225984,55, | 55  |      0      10     46      1      3
test,1566299749484091904,55, | 55  |      0      10     24      1      4
test,1566299751496384000,55, | 55  |      0      10     24      1      3
test,1566299753483472128,55, | 55  |      0      10     24      1      3
test,1566299755494155776,55, | 55  |      0      10     24      1      4
test,1566299757482361088,55, | 55  |      0      10     24      1      4
test,1566299759498590976,55, | 55  |      0      10     24      1      3
test,1566299761500328960,55, | 55  |      0      10     24      1      4
test,1566299763490204928,55, | 55  |      0      10     24      1      3
test,1566299765481131008,55, | 55  |      0      10     24      1      4
test,1566299767491916032,55, | 55  |      0      10     24      1      3
test,1566299769481659904,55, | 55  |      0      10     24      1      4
test,1566299771489276928,55, | 55  |      0      10     24      1      3
test,1566299773497564160,55, | 55  |      0      10     24      1      4
test,1566299775489743872,55, | 55  |      0      10     24      1      4
test,1566299777496967936,55, | 55  |      0      10     24      1      4
test,1566299779487444992,55, | 55  |      0      10     24      1      3
test,1566299781496640000,55, | 55  |      0      10     24      1      4
test,1566299783486684928,55, | 55  |      0      10     24      1      4
test,1566299785496871936,55, | 55  |      0      10     24      1      3
test,1566299787486174208,55, | 55  |      0      10     24      1      3
test,1566299789496141824,55, | 55  |      0      10     24      1      6
test,1566299791485108992,55, | 55  |      0      10     24      1      5
test,1566299793495467008,55, | 55  |      0      10     24      1      3
test,1566299795484371968,55, | 55  |      0      10     24      1      4
test,1566299797496123136,55, | 55  |      0      10     24      1      4
test,1566299799484379136,55, | 55  |      0      10     24      1      4
test,1566299801493104896,55, | 55  |      0      10     24      1      6
test,1566299803483140864,55, | 55  |      0      10     24      1      7
test,1566299805495086848,55, | 55  |      0      10     24      1      3
test,1566299807483225088,55, | 55  |      0      10     24      1      3
test,1566299809492593152,55, | 55  |      0      10     24      1      4
test,1566299811483653120,55, | 55  |      0      10     24      1      4
test,1566299813606460928,55, | 55  |      0      10     24      1      3
test,1566299815482731008,55, | 55  |      0      10     24      1      3
test,1566299817508619008,55, | 55  |      0      10     24      1      3
test,1566299819482780928,55, | 55  |      0      10     24      1      4
test,1566299821492207104,55, | 55  |      0      10     24      1      4
test,1566299823503123968,55, | 55  |      0      10     24      1      4
test,1566299825493839872,55, | 55  |      0      10     24      1      4
test,1566299827479554048,55, | 55  |      0      10     24      1      3
test,1566299829487566080,55, | 55  |      0      10     24      1      4
test,1566299831495826944,55, | 55  |      0      10     24      1      6
test,1566299833497992960,55, | 55  |      0      10     24      1      4
test,1566299835495224064,55, | 55  |      0      10     24      1      7
test,1566299837487030016,55, | 55  |      0      10     24      1      3
test,1566299839499604992,55, | 55  |      0      10     24      1      4
test,1566299841485193984,55, | 55  |      0      10     24      1      3
test,1566299843476992000,55, | 55  |      0      10     24      1      3
test,1566299845491744000,55, | 55  |      0      10     24      1      3
test,1566299847494996992,55, | 55  |      0      10     24      1      4
test,1566299849484436992,55, | 55  |      0      10     24      1      3
test,1566299851491433984,55, | 55  |      0      10     24      1      3
test,1566299853487920896,55, | 55  |      0      10     24      1      4
test,1566299855496669952,55, | 55  |      0      10     24      1      3
test,1566299857483134976,55, | 55  |      0      10     24      1      4
test,1566299859490284032,55, | 55  |      0      10     24      1      3
test,1566299861487379968,55, | 55  |      0      10     24      1      3
test,1566299863490575104,55, | 55  |      0      10     24      1      3
test,1566299865482381056,55, | 55  |      0      10     24      1      4
test,1566299867491575040,55, | 55  |      0      10     24      1      4
test,1566299869482050816,55, | 55  |      0      10     24      1      4
test,1566299871491578112,55, | 55  |      0      10     24      1      3
test,1566299873480222976,55, | 55  |      0      10     24      1      3
test,1566299875491334912,55, | 55  |      0      10     24      1      3
test,1566299877480557824,55, | 55  |      0      10     24      1      4
test,1566299879491367936,55, | 55  |      0      10     24      1      4
test,1566299881479366912,55, | 55  |      0      10     24      1      4
test,1566299883492434944,55, | 55  |      0      10     24      1      3
test,1566299885478478080,55, | 55  |      0      10     24      1      4
test,1566299887492494080,55, | 55  |      0      10     24      1      3
test,1566299889478096128,55, | 55  |      0      10     24      1      3
test,1566299891488526080,55, | 55  |      0      10     24      1      3
test,1566299893477179136,55, | 55  |      0      10     24      1      3
test,1566299895487820032,55, | 55  |      0      10     24      1      4
test,1566299897494752768,55, | 55  |      0      10     24      1      4
test,1566299899486905088,55, | 55  |      0      10     24      1      3
test,1566299901495809024,55, | 55  |      0      10     24      1      3
test,1566299903486808064,55, | 55  |      0      10     24      1      3
test,1566299905497524992,55, | 55  |      0      10     24      1      4
test,1566299907483185920,55, | 55  |      0      10     24      1      3
test,1566299909492743936,55, | 55  |      0      10     24      1      4
test,1566299911489527040,55, | 55  |      0      10     24      1      4
test,1566299913499958016,55, | 55  |      0      10     24      1      3
test,1566299915481957888,55, | 55  |      0      10     24      1      3
test,1566299917493846016,55, | 55  |      0      10     24      1      4
test,1566299919485507072,55, | 55  |      0      10     24      1      4
test,1566299921490586880,55, | 55  |      0      10     24      1      3
test,1566299923485181952,55, | 55  |      0      10     24      1      3
test,1566299925495255040,55, | 55  |      0      10     24      1      4
test,1566299927481203200,55, | 55  |      0      10     24      1      3
test,1566299929489305088,55, | 55  |      0      10     24      1      3
test,1566299931485652992,55, | 55  |      0      10     24      1      3
test,1566299933495104000,55, | 55  |      0      10     24      1      3
test,1566299935480133888,55, | 55  |      0      10     24      1      3
test,1566299937490190080,55, | 55  |      0      10     24      1      4
test,1566299939478116864,55, | 55  |      0      10     24      1      3
test,1566299941490847232,55, | 55  |      0      10     24      1      4
test,1566299943477579008,55, | 55  |      0      10     24      1      3
test,1566299945485660928,55, | 55  |      0      10     24      1      4
test,1566299947477243904,55, | 55  |      0      10     24      1      3
test,1566299949484612096,55, | 55  |      0      10     24      1      5
test,1566299951476478208,55, | 55  |      0      10     24      1      3
test,1566299953488915968,55, | 55  |      0      10     24      1      3
test,1566299955475603200,55, | 55  |      0      10     24      1      4
test,1566299957485382144,55, | 55  |      0      10     24      1      3
test,1566299959474978048,55, | 55  |      0      10     24      1      4
test,1566299961484032000,55, | 55  |      0      10     24      1      4
test,1566299963475591936,55, | 55  |      0      10     24      1      3
test,1566299965485019904,55, | 55  |      0      10     24      1      3
test,1566299967473658112,55, | 55  |      0      10     24      1      4
test,1566299969483958016,55, | 55  |      0      10     24      1      4
test,1566299971473006848,55, | 55  |      0      10     24      1      4
test,1566299973487734016,55, | 55  |      0      10     24      1      6
test,1566299975491977984,55, | 55  |      0      10     24      1      3
test,1566299977480313088,55, | 55  |      0      10     24      1      3
test,1566299979471837952,55, | 55  |      0      10     24      1      3
test,1566299981484678912,55, | 55  |      0      10     24      1      3
test,1566299983502661888,55, | 55  |      0      10     24      1      3
test,1566299985482327040,55, | 55  |      0      10     24      1      3
test,1566299987489486080,55, | 55  |      0      10     24      1      5
test,1566299989480292096,55, | 55  |      0      10     24      1      3
test,1566299991487396096,55, | 55  |      0      10     24      1      3
test,1566299993478561024,55, | 55  |      0      10     24      1      3
test,1566299995493251072,55, | 55  |      0      10     24      1      3
test,1566299997477549056,55, | 55  |      0      10     24      1      3
test,1566299999485250048,55, | 55  |      0      10     24      1      5
test,1566300001476279040,55, | 55  |      0      10     24      1      4
test,1566300003486354176,55, | 55  |      0      10     24      1      3
test,1566300005481260032,55, | 55  |      0      10     24      1      3
test,1566300007486323968,55, | 55  |      0      10     24      1      4
test,1566300009475360000,55, | 55  |      0      10     24      1      3
test,1566300011483549184,55, | 55  |      0      10     24      1      3
test,1566300013474859008,55, | 55  |      0      10     24      1      6
test,1566300015489851904,55, | 55  |      0      10     24      1      3
test,1566300017474019072,55, | 55  |      0      10     24      1      4
test,1566300019482750976,55, | 55  |      0      10     24      1      3
test,1566300021473905152,55, | 55  |      0      10     24      1      4
test,1566300023483768832,55, | 55  |      0      10     24      1      4
test,1566300025473038848,55, | 55  |      0      10     24      1      3
test,1566300027483197952,55, | 55  |      0      10     24      1      3
test,1566300029487996928,55, | 55  |      0      10     24      1      6
test,1566300031481529088,55, | 55  |      0      10     24      1      3
test,1566300033471441152,55, | 55  |      0      10     24      1      4
test,1566300035482840064,55, | 55  |      0      10     24      1      3
test,1566300037490797056,55, | 55  |      0      10     24      1      3
test,1566300039479278080,55, | 55  |      0      10     24      1      3
test,1566300041470118144,55, | 55  |      0      10     24      1      3
test,1566300043479819008,55, | 55  |      0      10     24      1      6
test,1566300045496489984,55, | 55  |      0      10     24      1      3
test,1566300047479060992,55, | 55  |      0      10     24      1      5
test,1566300049486774016,55, | 55  |      0      10     24      1      3
test,1566300051477076992,55, | 55  |      0      10     24      1      4
test,1566300054456224000,55, | 55  |      0       8     24      1      5
test,1566300055477885952,55, | 55  |      0      10     24      1      5
test,1566300057485970944,55, | 55  |      0      10     24      1      4
test,1566300059475318016,55, | 55  |      0      10     24      1      5
test,1566300061485816064,55, | 55  |      0      10     24      1      3
test,1566300063475041024,55, | 55  |      0      10     24      1      3
test,1566300065483369216,55, | 55  |      0      10     24      1      4
test,1566300067476356864,55, | 55  |      0      10     24      1      3
test,1566300069484268032,55, | 55  |      0      10     24      1      3
test,1566300071474499072,55, | 55  |      0      10     24      1      3
test,1566300073482192896,55, | 55  |      0      10     24      1      4
test,1566300075473916160,55, | 55  |      0      10     24      1      3
test,1566300077485574912,55, | 55  |      0      10     24      1      5
test,1566300079472270848,55, | 55  |      0      10     24      1      4
test,1566300081480526080,55, | 55  |      0      10     24      1      3
test,1566300083472640000,55, | 55  |      0      10     24      1      4
test,1566300085479890944,55, | 55  |      0      10     24      1      5
test,1566300087472257024,55, | 55  |      0      10     24      1      3
test,1566300089488101120,55, | 55  |      0      10     24      1      5
test,1566300091470515968,55, | 55  |      0      10     24      1      4
test,1566300093483448064,55, | 55  |      0      10     24      1      4
test,1566300095470892032,55, | 55  |      0      10     24      1      3
test,1566300097477920000,55, | 55  |      0      10     24      1      3
test,1566300099469906176,55, | 55  |      0      10     24      1      4
test,1566300101478512896,55, | 55  |      0      10     24      1      3
test,1566300103468641024,55, | 55  |      0      10     24      1      4
test,1566300105479443968,55, | 55  |      0      10     24      1      4
test,1566300107484914944,55, | 55  |      0      10     24      1      4
test,1566300109487046912,55, | 55  |      0      10     24      1      3
test,1566300111486100992,55, | 55  |      0      10     24      1      4
test,1566300113475398912,55, | 55  |      0      10     24      1      3
test,1566300115483900160,55, | 55  |      0      10     24      1      4
test,1566300117477209088,55, | 55  |      0      10     24      1      4
test,1566300119483735040,55, | 55  |      0      10     24      1      3
test,1566300121474630144,55, | 55  |      0      10     24      1      4
test,1566300123490156800,55, | 55  |      0      10     24      1      4
test,1566300125473612032,55, | 55  |      0      10     24      1      4
test,1566300127486551040,55, | 55  |      0      10     24      1      4
test,1566300129477008128,55, | 55  |      0      10     24      1      3
test,1566300131482616832,55, | 55  |      0      10     24      1      6
test,1566300133472044032,55, | 55  |      0      10     24      1      3
test,1566300135481876992,55, | 55  |      0      10     24      1      4
test,1566300137471844864,55, | 55  |      0      10     24      1      3
test,1566300139483390208,55, | 55  |      0      10     24      1      3
test,1566300141470880000,55, | 55  |      0      10     24      1      3
test,1566300143480509952,55, | 55  |      0      10     24      1      3
test,1566300145473584896,55, | 55  |      0      10     24      1      4
test,1566300147486767104,55, | 55  |      0      10     24      1      4
test,1566300149469492992,55, | 55  |      0      10     24      1      4
test,1566300151479868928,55, | 55  |      0      10     24      1      3
test,1566300153468847104,55, | 55  |      0      10     24      1      3
test,1566300155477540096,55, | 55  |      0      10     24      1      3
test,1566300157468389120,55, | 55  |      0      10     24      1      4
test,1566300159481990144,55, | 55  |      0      10     24      1      4
test,1566300161469278208,55, | 55  |      0      10     24      1      3
test,1566300163475665920,55, | 55  |      0      10     24      1      4
test,1566300165467088896,55, | 55  |      0      10     24      1      3
test,1566300167475693824,55, | 55  |      0      10     24      1      3
test,1566300169466434048,55, | 55  |      0      10     24      1      3
test,1566300171476207872,55, | 55  |      0      10     24      1      3
test,1566300173465917952,55, | 55  |      0      10     24      1      3
test,1566300175473860864,55, | 55  |      0      10     24      1      4
test,1566300177465262848,55, | 55  |      0      10     24      1      4
test,1566300179474136064,55, | 55  |      0      10     24      1      4
test,1566300181482764032,55, | 55  |      0      10     24      1      4
test,1566300183477190144,55, | 55  |      0      10     24      1      4
test,1566300185482470144,55, | 55  |      0      10     24      1      4
test,1566300187471739904,55, | 55  |      0      10     24      1      4
test,1566300189483881984,55, | 55  |      0      10     24      1      3
test,1566300191471149056,55, | 55  |      0      10     24      1      4
test,1566300193480752896,55, | 55  |      0      10     24      1      4
test,1566300195471215104,55, | 55  |      0      10     24      1      3
test,1566300197478763008,55, | 55  |      0      10     24      1      5
test,1566300199470469888,55, | 55  |      0      10     24      1      4
test,1566300201479038976,55, | 55  |      0      10     24      1      3
test,1566300203470536960,55, | 55  |      0      10     24      1      3
test,1566300205478352128,55, | 55  |      0      10     24      1      3
test,1566300207469644032,55, | 55  |      0      10     24      1      3
test,1566300209477400064,55, | 55  |      0      10     24      1      4
test,1566300211468843008,55, | 55  |      0      10     24      1      4
test,1566300213476072960,55, | 55  |      0      10     24      1      4
test,1566300215467438080,55, | 55  |      0      10     24      1      3
test,1566300217475842048,55, | 55  |      0      10     24      1      4
test,1566300219470882816,55, | 55  |      0      10     24      1      3
test,1566300221474326016,55, | 55  |      0      10     24      1      3
test,1566300223466244096,55, | 55  |      0      10     24      1      3
test,1566300225475235840,55, | 55  |      0      10     24      1      3
test,1566300227485820928,55, | 55  |      0      10     24      1      6
test,1566300229473687808,55, | 55  |      0      10     24      1      3
test,1566300231465275904,55, | 55  |      0      10     24      1      3
test,1566300233473169152,55, | 55  |      0      10     24      1      3
test,1566300235464380928,55, | 55  |      0      10     24      1      3
test,1566300237472989952,55, | 55  |      0      10     24      1      4
test,1566300239481777920,55, | 55  |      0      10     24      1      5
test,1566300241473686016,55, | 55  |      0      10     24      1      4
test,1566300243482606848,55, | 55  |      0      10     24      1      4
test,1566300245473048064,55, | 55  |      0      10     24      1      3
test,1566300247484612096,55, | 55  |      0      10     24      1      3
test,1566300249470402048,55, | 55  |      0      10     24      1      3
test,1566300251479728896,55, | 55  |      0      10     24      1      5
test,1566300253470215936,55, | 55  |      0      10     24      1      3
test,1566300255481967872,55, | 55  |      0      10     24      1      4
test,1566300257468660992,55, | 55  |      0      10     24      1      4
test,1566300259477227008,55, | 55  |      0      10     24      1      3
test,1566300261469851904,55, | 55  |      0      10     24      1      4
test,1566300263476588032,55, | 55  |      0      10     24      1      4
test,1566300265467747072,55, | 55  |      0      10     24      1      3
test,1566300267481201920,55, | 55  |      0      10     24      1      3
test,1566300269468153856,55, | 55  |      0      10     24      1      4
test,1566300271476356096,55, | 55  |      0      10     24      1      3
test,1566300273467851008,55, | 55  |      0      10     24      1      3
test,1566300275474009088,55, | 55  |      0      10     24      1      3
test,1566300277466678016,55, | 55  |      0      10     24      1      3
test,1566300279479936000,55, | 55  |      0      10     24      1      6
test,1566300281467504128,55, | 55  |      0      10     24      1      3
test,1566300283475218176,55, | 55  |      0      10     24      1      4
test,1566300285466639872,55, | 55  |      0      10     24      1      5
test,1566300287477707008,55, | 55  |      0      10     24      1      3
test,1566300289466969856,55, | 55  |      0      10     24      1      3
test,1566300291473632000,55, | 55  |      0      10     24      1      4
test,1566300293463107072,55, | 55  |      0      10     24      1      4
test,1566300295474006016,55, | 55  |      0      10     24      1      3
test,1566300297480860928,55, | 55  |      0      10     24      1      3
test,1566300299473480960,55, | 55  |      0      10     24      1      3
