------------------------------------------------------------------------------------------------------------------------------------------------------------------------------------------------------------
Group-Initiator	|	Packet_Sent
------------------------------------------------------------------------------------------------------------------------------------------------------------------------------------------------------------
27 		|	19
------------------------------------------------------------------------------------------------------------------------------------------------------------------------------------------------------------
15 		|	19
------------------------------------------------------------------------------------------------------------------------------------------------------------------------------------------------------------
SNo		Node:		Init_Id		R_Self_init		Nt recv		PRR		Duty Cycle(%)		hop-count		Latency
------------------------------------------------------------------------------------------------------------------------------------------------------------------------------------------------------------
set([1, 2, 3, 4, 6, 7, 8, 10, 11, 13, 14, 15, 16, 17, 18, 20, 22, 23, 24, 25, 26, 27, 28, 31, 32, 33])
1 		1 		15 			19 		0 		1.0 		1.308 			1.579 						2470
2 		2 		15 			19 		0 		1.0 		1.325 			1.526 						2470
3 		3 		15 			19 		0 		1.0 		1.923 			1.368 						2470
4 		4 		15 			19 		0 		1.0 		1.376 			1.316 						2470
5 		6 		27 			19 		0 		1.0 		0.635 			1.737 						2480
6 		7 		15 			13 		6 		0.684 		1.351 			3.385 						2470
7 		8 		15 			19 		0 		1.0 		1.314 			1.579 						2470
8 		10 		27 			3 		16 		0.158 		1.235 			2.0 						2480
9 		11 		15 			13 		6 		0.684 		3.109 			3.231 						2470
10 		13 		27 			19 		0 		1.0 		1.041 			1.0 						2480
11 		14 		15 			13 		6 		0.684 		1.845 			3.308 						2470
12 		15 		15 			0 		19 		0.0 		2.513 			0.0 						2470
13 		16 		27 			19 		0 		1.0 		0.836 			1.105 						2480
14 		17 		27 			15 		4 		0.789 		0.903 			1.733 						2480
15 		18 		27 			19 		0 		1.0 		0.722 			1.0 						2480
16 		20 		27 			19 		0 		1.0 		0.928 			1.105 						2480
17 		22 		27 			19 		0 		1.0 		0.669 			1.0 						2480
18 		23 		27 			19 		0 		1.0 		0.816 			1.053 						2480
19 		24 		27 			19 		0 		1.0 		0.98 			1.0 						2480
20 		25 		15 			13 		6 		0.684 		1.89 			2.462 						2470
21 		26 		15 			14 		5 		0.737 		2.401 			2.286 						2470
22 		27 		27 			0 		19 		0.0 		0.743 			0.0 						2480
23 		28 		27 			19 		0 		1.0 		0.659 			1.105 						2480
24 		31 		15 			18 		1 		0.947 		1.526 			1.333 						2470
25 		32 		15 			18 		1 		0.947 		1.091 			1.611 						2470
26 		33 		15 			18 		1 		0.947 		0.985 			1.5 						2470
------------------------------------------------------------------------------------------------------------------------------------------------------------------------------------------------------------
											0.886 		1.312 			1.68
------------------------------------------------------------------------------------------------------------------------------------------------------------------------------------------------------------
											0.196 		0.62 			0.728
------------------------------------------------------------------------------------------------------------------------------------------------------------------------------------------------------------
