name,time,nodeid,value
test,1566955843308311040,5, |  5  |      0       7     40      1      6
test,1566955845312131840,5, |  5  |      0       9     40      1      5
test,1566955847316006912,5, |  5  |      0       9     40      1      6
test,1566955849320060928,5, |  5  |      0       8     40      1      6
test,1566955850337775104,5, |  5  |      0      10     40      1      6
test,1566955855316359168,5, |  5  |      0       9     40      1      5
test,1566955857320359936,5, |  5  |      0       8     40      1      9
test,1566955859308492800,5, |  5  |      0       9     40      1      5
test,1566955860348301824,5, |  5  |      0      10     40      1      5
test,1566955862331200000,5, |  5  |      0      10     40      1      6
test,1566955864338108160,5, |  5  |      0      10     40      1      5
test,1566955866341411072,5, |  5  |      0      10     40      1      6
test,1566955869312994048,5, |  5  |      0       7     40      1      7
test,1566955870335827200,5, |  5  |      0      10     40      1      7
test,1566955873321022976,5, |  5  |      0       9     40      1      7
test,1566955874342510080,5, |  5  |      0      10     40      1      6
test,1566955877313328128,5, |  5  |      0       5     40      1      7
test,1566955878334359040,5, |  5  |      0      10     40      1      5
test,1566955880340817920,5, |  5  |      0      10     40      1      5
test,1566955882342268928,5, |  5  |      0      10     40      1      5
test,1566955884328780800,5, |  5  |      0      10     40      1      6
test,1566955886337869056,5, |  5  |      0      10     40      1      5
test,1566955889306062848,5, |  5  |      0       9     40      1      5
test,1566955891310149888,5, |  5  |      0       9     40      1      7
test,1566955892330193152,5, |  5  |      0      10     40      1      6
test,1566955894333260032,5, |  5  |      0      10     40      1      5
test,1566955896345154048,5, |  5  |      0      10     40      1      5
test,1566955898324296960,5, |  5  |      0      10     40      1      5
test,1566955901314542080,5, |  5  |      0       9     40      1      5
test,1566955903318572032,5, |  5  |      0       9     40      1      5
test,1566955904338937088,5, |  5  |      0      10     40      1      6
test,1566955906324796928,5, |  5  |      0      10     40      1      5
test,1566955908330915840,5, |  5  |      0      10     40      1      6
test,1566955911319291136,5, |  5  |      0       7     40      1      5
test,1566955912337892096,5, |  5  |      0      10     40      1      5
test,1566955914326365952,5, |  5  |      0      10     40      1      5
test,1566955917315584000,5, |  5  |      0       8     40      1      5
test,1566955918342659072,5, |  5  |      0      10     40      1      5
test,1566955921307599104,5, |  5  |      0       9     40      1      5
test,1566955923311712000,5, |  5  |      0       8     40      1      5
test,1566955925315848960,5, |  5  |      0       9     40      1     10
test,1566955926334916096,5, |  5  |      0      10     40      1      5
test,1566955929308631040,5, |  5  |      0       9     40      1      8
test,1566955931312102912,5, |  5  |      0       8     40      1      5
test,1566955932332022016,5, |  5  |      0      10     40      1      5
test,1566955934334323968,5, |  5  |      0      10     40      1      7
test,1566955937310825984,5, |  5  |      0       9     40      1      6
test,1566955938332890880,5, |  5  |      0      10     40      1      6
test,1566955941316692224,5, |  5  |      0       9     40      1      5
test,1566955943304840960,5, |  5  |      0       6     40      1     10
test,1566955944340205056,5, |  5  |      0      10     40      1      5
test,1566955946328225024,5, |  5  |      0      10     40      1      5
test,1566955951305388032,5, |  5  |      0       6     40      1      8
test,1566955952341017088,5, |  5  |      0      10     40      1      5
test,1566955954329067008,5, |  5  |      0      10     40      1      5
test,1566955957317500160,5, |  5  |      0       9     40      1      5
test,1566955958342572032,5, |  5  |      0      10     40      1      6
test,1566955960324224000,5, |  5  |      0      10     40      1      5
test,1566955962329509120,5, |  5  |      0      10     40      1      5
test,1566955965317769984,5, |  5  |      0       8     40      1      5
test,1566955966338275072,5, |  5  |      0      10     40      1      6
test,1566955968341128960,5, |  5  |      0      10     40      1      6
test,1566955970328572928,5, |  5  |      0      10     40      1      5
test,1566955972334321920,5, |  5  |      0      10     40      1      6
test,1566955974337192960,5, |  5  |      0      10     40      1      5
test,1566955977310547200,5, |  5  |      0       8     40      1      5
test,1566955979314516992,5, |  5  |      0       8     40      1     10
test,1566955980333648896,5, |  5  |      0      10     40      1      5
test,1566955982345421056,5, |  5  |      0      10     40      1      6
test,1566955985311038976,5, |  5  |      0       9     40      1      5
test,1566955986336272128,5, |  5  |      0      10     40      1      5
test,1566955988337649152,5, |  5  |      0      10     40      1      5
test,1566955991307600896,5, |  5  |      0       9     40      1      5
test,1566955992327258112,5, |  5  |      0      10     40      1      6
test,1566955994329842944,5, |  5  |      0      10     40      1      6
test,1566955997303592960,5, |  5  |      0       8     40      1      6
test,1566955999307719936,5, |  5  |      0       9     40      1      5
test,1566956000326270208,5, |  5  |      0      10     40      1      5
test,1566956003316091904,5, |  5  |      0       9     40      1      5
test,1566956005303940096,5, |  5  |      0       7     40      1      6
test,1566956006322052864,5, |  5  |      0      10     40      1      6
test,1566956008330117888,5, |  5  |      0      10     40      1      6
test,1566956011316267008,5, |  5  |      0       9     40      1      5
test,1566956012337938176,5, |  5  |      0      10     40      1      9
test,1566956014322882048,5, |  5  |      0      10     40      1      5
test,1566956016328293120,5, |  5  |      0      10     40      1      5
test,1566956019300792064,5, |  5  |      0       4     40      1      6
test,1566956021304832000,5, |  5  |      0       6     40      1      5
test,1566956022325944832,5, |  5  |      0      10     40      1      6
test,1566956025313544960,5, |  5  |      0       8     40      1      6
test,1566956026333882112,5, |  5  |      0      10     40      1      6
test,1566956028337115904,5, |  5  |      0      10     40      1      6
test,1566956030323939072,5, |  5  |      0      10     40      1      6
test,1566956033313905920,5, |  5  |      0       7     40      1      5
test,1566956034340641024,5, |  5  |      0      10     40      1      5
test,1566956036335367936,5, |  5  |      0      10     40      1      5
test,1566956039309776128,5, |  5  |      0       9     40      1      5
test,1566956040334352128,5, |  5  |      0      10     40      1      6
test,1566956042340253184,5, |  5  |      0      10     40      1      5
test,1566956044320302848,5, |  5  |      0      10     40      1      5
test,1566956047310345984,5, |  5  |      0       7     40      1     13
test,1566956048328582144,5, |  5  |      0      10     40      1      7
test,1566956050335668992,5, |  5  |      0      10     40      1      5
test,1566956053306541056,5, |  5  |      0       9     40      1      6
test,1566956054324444160,5, |  5  |      0      10     40      1      9
test,1566956056333036800,5, |  5  |      0      10     40      1      7
test,1566956059302878976,5, |  5  |      0       8     40      1      5
test,1566956060320729088,5, |  5  |      0      10     40      1      5
test,1566956062326168064,5, |  5  |      0      10     40      1      6
test,1566956064331958016,5, |  5  |      0      10     40      1      6
test,1566956067303457024,5, |  5  |      0       8     40      1      6
test,1566956068323513088,5, |  5  |      0      10     40      1      5
test,1566956071311342080,5, |  5  |      0       7     40      1      5
test,1566956073299578880,5, |  5  |      0       7     40      1      6
test,1566956074336152064,5, |  5  |      0      10     40      1      6
test,1566956076330957056,5, |  5  |      0      10     40      1      5
test,1566956079311875072,5, |  5  |      0       9     40      1      5
test,1566956081299902976,5, |  5  |      0       9     40      1      8
test,1566956083304061952,5, |  5  |      0       8     40      1      6
test,1566956085308089088,5, |  5  |      0       9     40      1      6
test,1566956088333664768,5, |  5  |      0      10     40      1      5
test,1566956090318546176,5, |  5  |      0      10     40      1      5
test,1566956093308641024,5, |  5  |      0       7     40      1      6
test,1566956094327843840,5, |  5  |      0      10     40      1      6
test,1566956097302525952,5, |  5  |      0       9     40      1      5
test,1566956099304914944,5, |  5  |      0       9     40      1      6
test,1566956100323762944,5, |  5  |      0      10     40      1      5
test,1566956102329624832,5, |  5  |      0      10     40      1      5
test,1566956105301236992,5, |  5  |      0       9     40      1      7
test,1566956107312505088,5, |  5  |      0       8     40      1      9
test,1566956108330045952,5, |  5  |      0      10     40      1      6
test,1566956110329067008,5, |  5  |      0      10     40      1      6
test,1566956113301996032,5, |  5  |      0       8     40      1      5
test,1566956115312087040,5, |  5  |      0       9     40      1      9
test,1566956116326036992,5, |  5  |      0      10     40      1      5
test,1566956118353025024,5, |  5  |      0      10     40      1      7
test,1566956121302460928,5, |  5  |      0       7     40      1      6
test,1566956122321078016,5, |  5  |      0      10     40      1      5
test,1566956124324805888,5, |  5  |      0      10     40      1      5
test,1566956127298362880,5, |  5  |      0       7     40      1      6
test,1566956128336787968,5, |  5  |      0      10     40      1      8
test,1566956130325072128,5, |  5  |      0      10     40      1      5
test,1566956132326057984,5, |  5  |      0      10     40      1      5
test,1566956135298811904,5, |  5  |      0       5     40      1     12
test,1566956136337862912,5, |  5  |      0      10     40      1      5
test,1566956139306963968,5, |  5  |      0       9     40      1      6
test,1566956141311158016,5, |  5  |      0       9     40      1      7
test,1566956143299259904,5, |  5  |      0       9     40      1      5
test,1566956144317417984,5, |  5  |      0      10     40      1      5
test,1566956147307329792,5, |  5  |      0       8     40      1      5
test,1566956148329401856,5, |  5  |      0      10     40      1      6
test,1566956150331362048,5, |  5  |      0      10     40      1      5
test,1566956152319726848,5, |  5  |      0      10     40      1      5
test,1566956155307725824,5, |  5  |      0       7     40      1      5
test,1566956156332413952,5, |  5  |      0      10     40      1      5
test,1566956159300035840,5, |  5  |      0       9     40      1      6
test,1566956161304510976,5, |  5  |      0       9     40      1      6
test,1566956163308564992,5, |  5  |      0       8     40      1      6
test,1566956164337793024,5, |  5  |      0      10     40      1      6
test,1566956167300689920,5, |  5  |      0       9     40      1      5
test,1566956169304526080,5, |  5  |      0       8     40      1      9
test,1566956171312755968,5, |  5  |      0       8     40      1      5
test,1566956172350302976,5, |  5  |      0      10     40      1      6
test,1566956175306044160,5, |  5  |      0       9     40      1     10
test,1566956176323247872,5, |  5  |      0      10     40      1      5
test,1566956178326401024,5, |  5  |      0      10     40      1      5
test,1566956181297123072,5, |  5  |      0       8     40      1      6
test,1566956182357872128,5, |  5  |      0      10     40      1      6
test,1566956184320205824,5, |  5  |      0      10     40      1      6
test,1566956187309381120,5, |  5  |      0       8     40      1      8
test,1566956189297591808,5, |  5  |      0       1     40      1     15
test,1566956191301719808,5, |  5  |      0       9     40      1      6
test,1566956192323260160,5, |  5  |      0      10     40      1      5
test,1566956195309765120,5, |  5  |      0       8     40      1      6
test,1566956196328763904,5, |  5  |      0      10     40      1      5
test,1566956198335404032,5, |  5  |      0      10     40      1      7
test,1566956200320718080,5, |  5  |      0      10     40      1      5
test,1566956203300195840,5, |  5  |      0       9     40      1      5
test,1566956205298392064,5, |  5  |      0       9     40      1      6
test,1566956206321580032,5, |  5  |      0      10     40      1      5
test,1566956209306572800,5, |  5  |      0       8     40      1      7
test,1566956210325053952,5, |  5  |      0      10     40      1      5
test,1566956212329816064,5, |  5  |      0      10     40      1      7
test,1566956215303715072,5, |  5  |      0       8     40      1      6
test,1566956216321740032,5, |  5  |      0      10     40      1      7
test,1566956218330106880,5, |  5  |      0      10     40      1      6
test,1566956221299187968,5, |  5  |      0       7     40      1     13
test,1566956223303288832,5, |  5  |      0       9     40      1      5
test,1566956224322521088,5, |  5  |      0      10     40      1      5
test,1566956226327753984,5, |  5  |      0      10     40      1      6
test,1566956229299633920,5, |  5  |      0       6     40      1      7
test,1566956230318209024,5, |  5  |      0      10     40      1      5
test,1566956232322566912,5, |  5  |      0      10     40      1      5
test,1566956235296890880,5, |  5  |      0       0      0      0      0
test,1566956237300167168,5, |  5  |      0       7     40      1     12
test,1566956238318003968,5, |  5  |      0      10     40      1      6
test,1566956240324964096,5, |  5  |      0      10     40      1      5
test,1566956242329936128,5, |  5  |      0      10     40      1      6
test,1566956244314688000,5, |  5  |      0      10     40      1      5
test,1566956246322726912,5, |  5  |      0      10     40      1      6
test,1566956248330370816,5, |  5  |      0      10     40      1      5
test,1566956250331835904,5, |  5  |      0      10     40      1      5
test,1566956252316456192,5, |  5  |      0      10     40      1      5
test,1566956255304982784,5, |  5  |      0       8     40      1      5
test,1566956256324855040,5, |  5  |      0      10     40      1      6
test,1566956258338684160,5, |  5  |      0      10     40      1      5
test,1566956261301286912,5, |  5  |      0       9     40      1      5
test,1566956262320689920,5, |  5  |      0      10     40      1      5
test,1566956265293602048,5, |  5  |      0       9     40      1      5
test,1566956267297861120,5, |  5  |      0       7     40      1      6
test,1566956268320880896,5, |  5  |      0      10     40      1      5
test,1566956271305774848,5, |  5  |      0       9     40      1      7
test,1566956272326874112,5, |  5  |      0      10     40      1      5
test,1566956274330509056,5, |  5  |      0      10     40      1      6
test,1566956276333387008,5, |  5  |      0      10     40      1      6
test,1566956279306184960,5, |  5  |      0       9     40      1      6
test,1566956280326725888,5, |  5  |      0      10     40      1      7
test,1566956283298481920,5, |  5  |      0       9     40      1      5
test,1566956284317003008,5, |  5  |      0      10     40      1      7
test,1566956286321588992,5, |  5  |      0      10     40      1      5
test,1566956288327721984,5, |  5  |      0      10     40      1      5
test,1566956291298882048,5, |  5  |      0       8     40      1      5
test,1566956292316961024,5, |  5  |      0      10     40      1      5
test,1566956294320823040,5, |  5  |      0      10     40      1     10
test,1566956297295179008,5, |  5  |      0       8     40      1      8
test,1566956299299428096,5, |  5  |      0       9     40      1      6
test,1566956301303531008,5, |  5  |      0       8     40      1      7
test,1566956303291579904,5, |  5  |      0       8     40      1      7
test,1566956305295633152,5, |  5  |      0       9     40      1      7
test,1566956306314735872,5, |  5  |      0      10     40      1      5
test,1566956308323222016,5, |  5  |      0      10     40      1      5
test,1566956311292235008,5, |  5  |      0       8     40      1      5
test,1566956312327134976,5, |  5  |      0      10     40      1      5
test,1566956315300347136,5, |  5  |      0       8     40      1      5
test,1566956317304147968,5, |  5  |      0       8     40      1      6
test,1566956318326109952,5, |  5  |      0      10     40      1      5
test,1566956320330969088,5, |  5  |      0      10     40      1      5
test,1566956322316282112,5, |  5  |      0      10     40      1      6
test,1566956325304519936,5, |  5  |      0       8     40      1      9
test,1566956326329197824,5, |  5  |      0      10     40      1      6
test,1566956328310646016,5, |  5  |      0      10     40      1      5
test,1566956331301368064,5, |  5  |      0       8     40      1      7
test,1566956332319279872,5, |  5  |      0      10     40      1      6
test,1566956334325946112,5, |  5  |      0      10     40      1      6
test,1566956337297327104,5, |  5  |      0       8     40      1      7
test,1566956338315728896,5, |  5  |      0      10     40      1      5
test,1566956341292818944,5, |  5  |      0       9     40      1      6
test,1566956343293486080,5, |  5  |      0       9     40      1      6
test,1566956345297661184,5, |  5  |      0       9     40      1      6
test,1566956346319084800,5, |  5  |      0      10     40      1      6
test,1566956349290462976,5, |  5  |      0       9     40      1      5
test,1566956351294631936,5, |  5  |      0       7     40      1     10
test,1566956352321193984,5, |  5  |      0      10     40      1      5
test,1566956355305767168,5, |  5  |      0       0      0      0      0
test,1566956357290288896,5, |  5  |      0       8     40      1      5
test,1566956359294446848,5, |  5  |      0       8     40      1     11
test,1566956360312576000,5, |  5  |      0      10     40      1      5
test,1566956363302593024,5, |  5  |      0       8     40      1      6
test,1566956365292328960,5, |  5  |      0       8     40      1      6
test,1566956366333428992,5, |  5  |      0      10     40      1      6
test,1566956369300975104,5, |  5  |      0       9     40      1      6
test,1566956371306193152,5, |  5  |      0       6     40      1      5
test,1566956373291217920,5, |  5  |      0       8     40      1      6
test,1566956375295838208,5, |  5  |      0       9     40      1      5
test,1566956376318830848,5, |  5  |      0      10     40      1      5
test,1566956379303247872,5, |  5  |      0       8     40      1      5
test,1566956380323111936,5, |  5  |      0      10     40      1      5
test,1566956382332532992,5, |  5  |      0      10     40      1      6
test,1566956385300162048,5, |  5  |      0       9     40      1      6
test,1566956387303670784,5, |  5  |      0       8     40      1      5
test,1566956388325069824,5, |  5  |      0      10     40      1      7
test,1566956390310945024,5, |  5  |      0      10     40      1      6
test,1566956393300216832,5, |  5  |      0       9     40      1      9
