name,time,nodeid,value
test,1566955844366702080,9, |  9  |      0      10     40      1      5
test,1566955846327593216,9, |  9  |      0      10     40      1      5
test,1566955848331836928,9, |  9  |      0      10     40      1      5
test,1566955850354998016,9, |  9  |      0      10     40      1      6
test,1566955852344420864,9, |  9  |      0      10     40      1      5
test,1566955854329647104,9, |  9  |      0      10     40      1      6
test,1566955856332429056,9, |  9  |      0      10     40      1      5
test,1566955858337281024,9, |  9  |      0      10     40      1      5
test,1566955860342180864,9, |  9  |      0      10     40      1      4
test,1566955862329870848,9, |  9  |      0      10     40      1      7
test,1566955864337328896,9, |  9  |      0      10     40      1      4
test,1566955866338886912,9, |  9  |      0      10     40      1      5
test,1566955869311790080,9, |  9  |      0       8     40      1      5
test,1566955870331130880,9, |  9  |      0      10     40      1      5
test,1566955872334813184,9, |  9  |      0      10     40      1      5
test,1566955874341923840,9, |  9  |      0      10     40      1      5
test,1566955876327780096,9, |  9  |      0      10     40      1      6
test,1566955878334187008,9, |  9  |      0      10     40      1      5
test,1566955880340105984,9, |  9  |      0      10     40      1      6
test,1566955882323646976,9, |  9  |      0      10     40      1      4
test,1566955884334008064,9, |  9  |      0      10     40      1      5
test,1566955886340621056,9, |  9  |      0      10     40      1      4
test,1566955888337112832,9, |  9  |      0      10     40      1      4
test,1566955890324804096,9, |  9  |      0      10     40      1      5
test,1566955892330831104,9, |  9  |      0      10     40      1      5
test,1566955894334930944,9, |  9  |      0      10     40      1      5
test,1566955896337744896,9, |  9  |      0      10     40      1      6
test,1566955898326615040,9, |  9  |      0      10     40      1      4
test,1566955901316813824,9, |  9  |      0       9     40      1      5
test,1566955902335881984,9, |  9  |      0      10     40      1      4
test,1566955904340163840,9, |  9  |      0      10     40      1      5
test,1566955906330624000,9, |  9  |      0      10     40      1      4
test,1566955908333411072,9, |  9  |      0      10     40      1      5
test,1566955910337393152,9, |  9  |      0      10     40      1      5
test,1566955912324049920,9, |  9  |      0      10     40      1      5
test,1566955914328967168,9, |  9  |      0      10     40      1      6
test,1566955916332890112,9, |  9  |      0      10     40      1      4
test,1566955919307296000,9, |  9  |      0       9     40      1      4
test,1566955920325180928,9, |  9  |      0      10     40      1      6
test,1566955922334944000,9, |  9  |      0      10     40      1      5
test,1566955924334952960,9, |  9  |      0      10     40      1      4
test,1566955926338885120,9, |  9  |      0      10     40      1      5
test,1566955928329211904,9, |  9  |      0      10     40      1      6
test,1566955930346417920,9, |  9  |      0      10     40      1      6
test,1566955932336674048,9, |  9  |      0      10     40      1      6
test,1566955934339337216,9, |  9  |      0      10     40      1      7
test,1566955936329006080,9, |  9  |      0      10     40      1      4
test,1566955938406043904,9, |  9  |      0      10     40      1      4
test,1566955940338860032,9, |  9  |      0      10     40      1      4
test,1566955942327511040,9, |  9  |      0      10     40      1      4
test,1566955944329585920,9, |  9  |      0      10     40      1      5
test,1566955946333349888,9, |  9  |      0      10     40      1      5
test,1566955948338886144,9, |  9  |      0      10     40      1      5
test,1566955950326811136,9, |  9  |      0      10     40      1      6
test,1566955952330368000,9, |  9  |      0      10     40      1      5
test,1566955954336764160,9, |  9  |      0      10     40      1      5
test,1566955956322864896,9, |  9  |      0      10     40      1      5
test,1566955958328530176,9, |  9  |      0      10     40      1      5
test,1566955960333647872,9, |  9  |      0      10     40      1      5
test,1566955962337260032,9, |  9  |      0      10     40      1      5
test,1566955964323766016,9, |  9  |      0      10     40      1      5
test,1566955966329963008,9, |  9  |      0      10     40      1      5
test,1566955968333682176,9, |  9  |      0      10     40      1      6
test,1566955970344839168,9, |  9  |      0      10     40      1      5
test,1566955972325496832,9, |  9  |      0      10     40      1      6
test,1566955974329054976,9, |  9  |      0      10     40      1      5
test,1566955976335186944,9, |  9  |      0      10     40      1      5
test,1566955978321710080,9, |  9  |      0      10     40      1      6
test,1566955980327940864,9, |  9  |      0      10     40      1      4
test,1566955982332099072,9, |  9  |      0      10     40      1      7
test,1566955984337886976,9, |  9  |      0      10     40      1      5
test,1566955986323124992,9, |  9  |      0      10     40      1      6
test,1566955988327660032,9, |  9  |      0      10     40      1      5
test,1566955990331953152,9, |  9  |      0      10     40      1      5
test,1566955992338237952,9, |  9  |      0      10     40      1      5
test,1566955994323920896,9, |  9  |      0      10     40      1      7
test,1566955996330956032,9, |  9  |      0      10     40      1      7
test,1566955998335828992,9, |  9  |      0      10     40      1      5
test,1566956000320931840,9, |  9  |      0      10     40      1      5
test,1566956002339678976,9, |  9  |      0      10     40      1      5
test,1566956004331640832,9, |  9  |      0      10     40      1      5
test,1566956006337198848,9, |  9  |      0      10     40      1      5
test,1566956008322705920,9, |  9  |      0      10     40      1      6
test,1566956010328075776,9, |  9  |      0      10     40      1      6
test,1566956012334223104,9, |  9  |      0      10     40      1      6
test,1566956014338429952,9, |  9  |      0      10     40      1      7
test,1566956016323725056,9, |  9  |      0      10     40      1      5
test,1566956018328801024,9, |  9  |      0      10     40      1      5
test,1566956020333211904,9, |  9  |      0      10     40      1      6
test,1566956022320406016,9, |  9  |      0      10     40      1      5
test,1566956024325463040,9, |  9  |      0      10     40      1      5
test,1566956027314816000,9, |  9  |      0       9     40      1      5
test,1566956028340131072,9, |  9  |      0      10     40      1      5
test,1566956030321808128,9, |  9  |      0      10     40      1      5
test,1566956033312134144,9, |  9  |      0       9     40      1      6
test,1566956034333005824,9, |  9  |      0      10     40      1      5
test,1566956036340014848,9, |  9  |      0      10     40      1      6
test,1566956038322546944,9, |  9  |      0      10     40      1      5
test,1566956040330919936,9, |  9  |      0      10     40      1      5
test,1566956042335779840,9, |  9  |      0      10     40      1      5
test,1566956044336997120,9, |  9  |      0      10     40      1      5
test,1566956046324101888,9, |  9  |      0      10     40      1      7
test,1566956048331522048,9, |  9  |      0      10     40      1      6
test,1566956050331981824,9, |  9  |      0      10     40      1      5
test,1566956052320476160,9, |  9  |      0      10     40      1      6
test,1566956054324815104,9, |  9  |      0      10     40      1      8
test,1566956056333688064,9, |  9  |      0      10     40      1      7
test,1566956058337019904,9, |  9  |      0      10     40      1      4
test,1566956060324017152,9, |  9  |      0      10     40      1      6
test,1566956062326718976,9, |  9  |      0      10     40      1      5
test,1566956064331429120,9, |  9  |      0      10     40      1      6
test,1566956066319246080,9, |  9  |      0      10     40      1      6
test,1566956068322788096,9, |  9  |      0      10     40      1      4
test,1566956070330269952,9, |  9  |      0      10     40      1      4
test,1566956072333355776,9, |  9  |      0      10     40      1      6
test,1566956074319732992,9, |  9  |      0      10     40      1      5
test,1566956076331912960,9, |  9  |      0      10     40      1      4
test,1566956078330195968,9, |  9  |      0      10     40      1      6
test,1566956080333564160,9, |  9  |      0      10     40      1      6
test,1566956082321379840,9, |  9  |      0      10     40      1      6
test,1566956084331080960,9, |  9  |      0      10     40      1      5
test,1566956086335174912,9, |  9  |      0      10     40      1      5
test,1566956088318635008,9, |  9  |      0      10     40      1      6
test,1566956090328057088,9, |  9  |      0      10     40      1      5
test,1566956092327601920,9, |  9  |      0      10     40      1      5
test,1566956094355539200,9, |  9  |      0      10     40      1      5
test,1566956096319309824,9, |  9  |      0      10     40      1      6
test,1566956098336690944,9, |  9  |      0      10     40      1      5
test,1566956100330678016,9, |  9  |      0      10     40      1      5
test,1566956102333408000,9, |  9  |      0      10     40      1      5
test,1566956104322562048,9, |  9  |      0      10     40      1      6
test,1566956106325447168,9, |  9  |      0      10     40      1      7
test,1566956108349437952,9, |  9  |      0      10     40      1      5
test,1566956110317873920,9, |  9  |      0      10     40      1      5
test,1566956112323849984,9, |  9  |      0      10     40      1      5
test,1566956114341607936,9, |  9  |      0      10     40      1      5
test,1566956116334660096,9, |  9  |      0      10     40      1      5
test,1566956118319426048,9, |  9  |      0      10     40      1      6
test,1566956120326614016,9, |  9  |      0      10     40      1      5
test,1566956122329498112,9, |  9  |      0      10     40      1      5
test,1566956124333250048,9, |  9  |      0      10     40      1      5
test,1566956126321981952,9, |  9  |      0      10     40      1      6
test,1566956128328325120,9, |  9  |      0      10     40      1      5
test,1566956130333523968,9, |  9  |      0      10     40      1      5
test,1566956132333112064,9, |  9  |      0      10     40      1      5
test,1566956134320886016,9, |  9  |      0      10     40      1      6
test,1566956136327691008,9, |  9  |      0      10     40      1      5
test,1566956138336338944,9, |  9  |      0      10     40      1      6
test,1566956140318091008,9, |  9  |      0      10     40      1      6
test,1566956142322585088,9, |  9  |      0      10     40      1      6
test,1566956144330573056,9, |  9  |      0      10     40      1      4
test,1566956146333374976,9, |  9  |      0      10     40      1      5
test,1566956148319702016,9, |  9  |      0      10     40      1      5
test,1566956150326263808,9, |  9  |      0      10     40      1      5
test,1566956152340081920,9, |  9  |      0      10     40      1      5
test,1566956154316432896,9, |  9  |      0      10     40      1      4
test,1566956156322541056,9, |  9  |      0      10     40      1      5
test,1566956158324579840,9, |  9  |      0      10     40      1      5
test,1566956160328922880,9, |  9  |      0      10     40      1      5
test,1566956162317486080,9, |  9  |      0      10     40      1      5
test,1566956164325433856,9, |  9  |      0      10     40      1      5
test,1566956166345364992,9, |  9  |      0      10     40      1      5
test,1566956168334181120,9, |  9  |      0      10     40      1      5
test,1566956170318829056,9, |  9  |      0      10     40      1      5
test,1566956172329328896,9, |  9  |      0      10     40      1      5
test,1566956174328835072,9, |  9  |      0      10     40      1     11
test,1566956176316211968,9, |  9  |      0      10     40      1      5
test,1566956178332817920,9, |  9  |      0      10     40      1      4
test,1566956180331062016,9, |  9  |      0      10     40      1      5
test,1566956182348929024,9, |  9  |      0      10     40      1      5
test,1566956184321760768,9, |  9  |      0      10     40      1      6
test,1566956186322663168,9, |  9  |      0      10     40      1      4
test,1566956188326204928,9, |  9  |      0      10     40      1      6
test,1566956190331021056,9, |  9  |      0      10     40      1      6
test,1566956192319220992,9, |  9  |      0      10     40      1      5
test,1566956194323642880,9, |  9  |      0      10     40      1      5
test,1566956197296967936,9, |  9  |      0       9     40      1      5
test,1566956198315624960,9, |  9  |      0      10     40      1      5
test,1566956200319992064,9, |  9  |      0      10     40      1      5
test,1566956202325800960,9, |  9  |      0      10     40      1      5
test,1566956204330476032,9, |  9  |      0      10     40      1      6
test,1566956206318209792,9, |  9  |      0      10     40      1      6
test,1566956208322107904,9, |  9  |      0      10     40      1      5
test,1566956210330593024,9, |  9  |      0      10     40      1      8
test,1566956212334675200,9, |  9  |      0      10     40      1      6
test,1566956214319729920,9, |  9  |      0      10     40      1      6
test,1566956216324225792,9, |  9  |      0      10     40      1      6
test,1566956218329865984,9, |  9  |      0      10     40      1      7
test,1566956220337143808,9, |  9  |      0      10     40      1     11
test,1566956222319238912,9, |  9  |      0      10     40      1      5
test,1566956224336507136,9, |  9  |      0      10     40      1      5
test,1566956226329040128,9, |  9  |      0      10     40      1      6
test,1566956228315805952,9, |  9  |      0      10     40      1      7
test,1566956230320229888,9, |  9  |      0      10     40      1      5
test,1566956232329072896,9, |  9  |      0      10     40      1      7
test,1566956235299709952,9, |  9  |      0       0      0      0      0
test,1566956238324012032,9, |  9  |      0      10     40      1      6
test,1566956240327441920,9, |  9  |      0      10     40      1      5
test,1566956242314123008,9, |  9  |      0      10     40      1      5
test,1566956244324071936,9, |  9  |      0      10     40      1      6
test,1566956246323813888,9, |  9  |      0      10     40      1      5
test,1566956248330672128,9, |  9  |      0      10     40      1      5
test,1566956250315443968,9, |  9  |      0      10     40      1      5
test,1566956252321886976,9, |  9  |      0      10     40      1      4
test,1566956254324475136,9, |  9  |      0      10     40      1      5
test,1566956256312044032,9, |  9  |      0      10     40      1      5
test,1566956258317451008,9, |  9  |      0      10     40      1      5
test,1566956260321646080,9, |  9  |      0      10     40      1      5
test,1566956262326018048,9, |  9  |      0      10     40      1      8
test,1566956264313862144,9, |  9  |      0      10     40      1      6
test,1566956266320399104,9, |  9  |      0      10     40      1      5
test,1566956268324112896,9, |  9  |      0      10     40      1      5
test,1566956270328052992,9, |  9  |      0      10     40      1      4
test,1566956272315897088,9, |  9  |      0      10     40      1      5
test,1566956274324271872,9, |  9  |      0      10     40      1      6
test,1566956276330641152,9, |  9  |      0      10     40      1      7
test,1566956278332480000,9, |  9  |      0      10     40      1      6
test,1566956280316004096,9, |  9  |      0      10     40      1      5
test,1566956282320285952,9, |  9  |      0      10     40      1      5
test,1566956284324544000,9, |  9  |      0      10     40      1      5
test,1566956286313848064,9, |  9  |      0      10     40      1      5
test,1566956288323132928,9, |  9  |      0      10     40      1      5
test,1566956290331005184,9, |  9  |      0      10     40      1      5
test,1566956292326572800,9, |  9  |      0      10     40      1      5
test,1566956294330921984,9, |  9  |      0      10     40      1     10
test,1566956296318854144,9, |  9  |      0      10     40      1      5
test,1566956298325030144,9, |  9  |      0      10     40      1      7
test,1566956300312097024,9, |  9  |      0      10     40      1      5
test,1566956302316488960,9, |  9  |      0      10     40      1      6
test,1566956304324523008,9, |  9  |      0      10     40      1      5
test,1566956306325625856,9, |  9  |      0      10     40      1      5
test,1566956308312499968,9, |  9  |      0      10     40      1      5
test,1566956310317817856,9, |  9  |      0      10     40      1      5
test,1566956312323667968,9, |  9  |      0      10     40      1      5
test,1566956314327667968,9, |  9  |      0      10     40      1      7
test,1566956316314448128,9, |  9  |      0      10     40      1      5
test,1566956318330260992,9, |  9  |      0      10     40      1      5
test,1566956320327550976,9, |  9  |      0      10     40      1      5
test,1566956322313586944,9, |  9  |      0      10     40      1      4
test,1566956324315727104,9, |  9  |      0      10     40      1      5
test,1566956326320276992,9, |  9  |      0      10     40      1      5
test,1566956328328391936,9, |  9  |      0      10     40      1      4
test,1566956330312103936,9, |  9  |      0      10     40      1      5
test,1566956332316482048,9, |  9  |      0      10     40      1      6
test,1566956334322938880,9, |  9  |      0      10     40      1      6
test,1566956336309039104,9, |  9  |      0      10     40      1      4
test,1566956338313435904,9, |  9  |      0      10     40      1      6
test,1566956340321170944,9, |  9  |      0      10     40      1      4
test,1566956342334518784,9, |  9  |      0      10     40      1      6
test,1566956344310286080,9, |  9  |      0      10     40      1      5
test,1566956346315270912,9, |  9  |      0      10     40      1      5
test,1566956348319564032,9, |  9  |      0      10     40      1      4
test,1566956350324992768,9, |  9  |      0      10     40      1      8
test,1566956352313165824,9, |  9  |      0      10     40      1      5
test,1566956355301920000,9, |  9  |      0       0      0      0      0
test,1566956356332034048,9, |  9  |      0      10     40      1      4
test,1566956358310179840,9, |  9  |      0      10     40      1      4
test,1566956360313297920,9, |  9  |      0      10     40      1      4
test,1566956362322253824,9, |  9  |      0      10     40      1      6
test,1566956364342961152,9, |  9  |      0      10     40      1      6
test,1566956366351088896,9, |  9  |      0      10     40      1      5
test,1566956368329721856,9, |  9  |      0      10     40      1      5
test,1566956370323708160,9, |  9  |      0      10     40      1      6
test,1566956372310519808,9, |  9  |      0      10     40      1      4
test,1566956374317751040,9, |  9  |      0      10     40      1      5
test,1566956376326509056,9, |  9  |      0      10     40      1      4
test,1566956378322674944,9, |  9  |      0      10     40      1      4
test,1566956380308445952,9, |  9  |      0      10     40      1      5
test,1566956382315035136,9, |  9  |      0      10     40      1      6
test,1566956384326637056,9, |  9  |      0      10     40      1      6
test,1566956386322467072,9, |  9  |      0      10     40      1      5
test,1566956388326228992,9, |  9  |      0      10     40      1      6
test,1566956390314161920,9, |  9  |      0      10     40      1      6
test,1566956392323926016,9, |  9  |      0      10     40      1      5
