test,1583575253506012928,10," | 10  |    122       5     94       0 |   5    0        94         0 |   1   9    0    0 6a0f |    2.014       0       5       0       5      9      9      0     92       2       1   9    06a0f a70f      8.100 "
test,1583575253512773888,12," | 12  |    122       5    120       0 |   5    0       120         0 |   1   9    0    0 6a0f |    2.044       0       5       0       5      9      9      0    119       1       1   9    06a0f a70f      9.000 "
test,1583575253508652800,13," | 13  |    122       5    118       0 |   5    0       118         0 |   1   9    0    0 6a0f |    2.075       0       5       0       5      9      9      0    116       2       1   9    06a0f a70f      8.250 "
test,1583575253510488064,15," | 15  |    122       5    120       0 |   4    2       113         7 |   2   9   24    0 6a0f |    2.807       0       5       0       5      9      9      0    111       9       2   9    06a0f a70f      9.750 "
test,1583575253508236032,16," | 16  |    122       5    118       0 |   5    0       113         5 |   1  23    0    0 de0f |    2.044       0       5       0       5     23     23      0    110       8       1  23    0de0f a70f      8.160 "
test,1583575253529218816,17," | 17  |    122       5    118       0 |   5    1       118         0 |   1  23   24    0 de0f |    2.044       0       4       0       4     23     23      0    111       7       1  23    0de0f a70f     30.240 "
test,1583575253530132992,18," | 18  |    122       5    117       0 |   5    1       109         8 |   2  23   24    0 de0f |    3.540       0       2       0       2     23     23      0    102      15       3  23    0de0f a70f     30.330 "
test,1583575253529566976,19," | 19  |    122       5    118       0 |   5    0       118         0 |   1  23    0    0 de0f |    4.241       0       3       0       3     23     23      0    112       6       4  23    0de0f a70f     30.390 "
test,1583575253507371008,1," |  1  |    122       4    119       0 |   5    0       115         4 |   1   9    0    0 6a0f |    2.746       0       5       0       5      9      9      0    115       4       1   9    06a0f a70f      8.820 "
test,1583575253528013056,22," | 22  |    122       5    116       0 |   5    1       116         0 |   1  23   24    0 de0f |    3.479       0       2       0       2     23     23      0    111       5       3  23    0de0f a70f     30.300 "
test,1583575253533780992,23," | 23  |    122       5     60       0 |   4    0        60         0 |   2  23    0    1 de0f |    3.234       0       3       0       3     23     23      0     60       0       4  23    1de0f a70f     30.300 "
test,1583575253524802816,24," | 24  |    122       5    118       0 |   0    3       116         2 |   0  24   23    1 530f |    0           0       0       0       8      0      0      0    114       4       0  24    1530f a70f     30.180 "
test,1583575253528940800,26," | 26  |    122       5    118       0 |   5    1       118         0 |   1  23   24    0 de0f |    2.807       0       3       0       3     23     23      0    113       5       2  23    0de0f a70f     30.270 "
test,1583575253507950080,27," | 27  |    122       5    120       0 |   5    1       116         4 |   1  23    9    0 de0f |    2.014       0       5       0       5     23     23      0    111       9       1  23    0de0f a70f      8.970 "
test,1583575253520091904,28," | 28  |    122       5    118       0 |   5    0       113         5 |   2  23    0    0 de0f |    2.777       0       5       0       5     23     23      0    110       8       2  23    0de0f a70f     10.410 "
test,1583575253530813952,29," | 29  |    122       4    120       0 |   5    0       104        16 |   2  23    0    0 de0f |    2.777       0       4       0       4     23     23      0     98      22       2  23    0de0f a70f     30.300 "
test,1583575253511636992,30," | 30  |    122       5    118       0 |   5    0       118         0 |   2  23    0    0 de0f |    3.540       0       5       0       5     23     23      0    115       3       3  23    0de0f a70f      9.720 "
test,1583575253513024000,35," | 35  |    122       5    118       0 |   5    0       113         5 |   2  23    0    0 de0f |    4.211       0       5       0       5     23     23      0    112       6       4  23    0de0f a70f     10.380 "
test,1583575253530343936,40," | 40  |    122       5    113       1 |   3    6        99        15 |   5  23   24    0 de0f |    4.974       0       4       0       4     23     23      0     94      20       5  23    0de0f a70f     30.360 "
test,1583575253510978048,41," | 41  |    122       5    107       1 |   5    0       108         0 |   2  23    0    0 de0f |    4.241       0       5       0       5     23     23      0    105       3       4  23    0de0f a70f     10.980 "
test,1583575253512586240,42," | 42  |    122       5    117       1 |   5    0       116         2 |   2  23    0    0 de0f |    4.974       0       5       0       5     23     23      0    111       7       5  23    0de0f a70f     10.950 "
test,1583575253516346880,44," | 44  |    122       5    117       1 |   5    0       118         0 |   3  23    0    0 de0f |    3.540       0       5       0       5     23     23      0    113       5       3  23    0de0f a70f      9.660 "
test,1583575253511441920,45," | 45  |    122       5    117       1 |   5    0       108        10 |   3  23    0    0 de0f |    4.272       0       5       0       5     23     23      0    106      12       4  23    0de0f a70f     10.350 "
test,1583575253512200192,46," | 46  |    122       5    110       1 |   5    0       108         3 |   3  23    0    0 de0f |    4.211       0       5       0       5     23     23      0    104       7       4  23    0de0f a70f     11.820 "
test,1583575253513441024,47," | 47  |    122       5    117       1 |   5    0       117         1 |   3  23    0    0 de0f |    4.211       0       5       0       5     23     23      0    113       5       4  23    0de0f a70f     11.160 "
test,1583575253511859968,48," | 48  |    122       5     51       0 |   5    0        51         0 |   2  23    0    0 de0f |    4.241       0       5       0       5     23     23      0     47       4       4  23    0de0f a70f     11.130 "
test,1583575253511117824,49," | 49  |    122       5    112       0 |   5    0       109         3 |   2  61    0    0 940f |    2.685       0       5       0       5     61     61      0    109       3       2  61    0940f a70f      8.940 "
test,1583575253509486080,51," | 51  |    122       5    113       0 |   5    0       113         0 |   2   9    0    0 6a0f |    2.807       0       5       0       5      9      9      0    113       0       2   9    06a0f a70f      8.910 "
test,1583575253507689984,52," | 52  |    122       5    114       0 |   5    0       110         4 |   1  23    0    0 de0f |    2.044       0       5       0       5     23     23      0    107       7       1  23    0de0f a70f      8.190 "
test,1583575253509288192,53," | 53  |    122       5     96       0 |   5    0        91         5 |   3  61    0    0 940f |    3.479       0       5       0       5     61     61      0     91       5       3  61    0940f a70f      9.540 "
test,1583575253511260928,54," | 54  |    122       5    114       0 |   5    0       114         0 |   1   9    0    0 6a0f |    2.044       0       5       0       5      9      9      0    112       2       1   9    06a0f a70f      8.250 "
test,1583575253508414976,55," | 55  |    122       5    101       0 |   5    0        97         4 |   2  61    0    0 940f |    2.716       0       5       0       5     61     61      0     97       4       2  61    0940f a70f      8.910 "
test,1583575253513658112,56," | 56  |    122       5    104       0 |   5    0       101         3 |   3   9    0    0 6a0f |    3.509       0       5       0       5      9      9      0    101       3       3   9    06a0f a70f      9.630 "
test,1583575253506210048,57," | 57  |    122       5     59       0 |   5    0        54         5 |   1  23    0    0 de0f |    2.075       0       5       0       5     23     23      0     56       3       1  23    0de0f a70f      8.130 "
test,1583575253530991104,58," | 58  |    122       5    113       0 |   5    0       112         1 |   1  61    0    0 940f |    2.014       0       4       0       4     61     61      0    110       3       1  61    0940f a70f     30.360 "
test,1583575253514318848,5," |  5  |    122       5    120       0 |   5    0       112         8 |   2   9    0    0 6a0f |    2.777       0       5       0       5      9      9      0    111       9       2   9    06a0f a70f      8.970 "
test,1583575253528708864,60," | 60  |    122       5    113       0 |   3    1       108         5 |   2  23    9    0 de0f |    2.777       0       2       0       2     23     23      0    107       6       2  23    0de0f a70f     30.390 "
test,1583575253509713920,61," | 61  |    122       5    112       0 |   4    1       107         5 |   5  61    9    1 940f |    1.739       0       4       0       4     61     61      0    105       7       2  61    1940f a70f      7.920 "
test,1583575253510707968,7," |  7  |    122       5    119       0 |   5    0       119         0 |   1   9    0    0 6a0f |    2.044       0       5       0       5      9      9      0    119       0       1   9    06a0f a70f      8.970 "
test,1583575253506522880,9," |  9  |    122       5    118       0 |   4    0       115         3 |   2   9    0    1 6a0f |    1.739       0       4       0       4      9      9      0    115       3       2   9    16a0f a70f      6.510 "
