test,1583575602266030080,10," | 10  |   1517       5   1489       0 |   5    0      1468        21 |   2   1    0    0 3a0f |    1.373       0       5       0       5      1      1      0   1450      39       1   1    03a0f a70f      7.620 "
test,1583575602286953984,12," | 12  |   1517       5   1515       0 |   5    7      1504        11 |   1  58    1    0 410f |    9.307       0       1       0       1     58     58      0   1478      37      11  58    0410f a70f     30.390 "
test,1583575602265757184,13," | 13  |   1517       5   1513       0 |   5    0      1498        15 |   3   1    0    0 3a0f |    1.373       0       5       0       5      1      1      0   1480      33       1   1    03a0f a70f      7.620 "
test,1583575602288837888,15," | 15  |   1517       4   1515       0 |   5    1      1457        58 |   2  58    1    0 410f |   10.070       0       1       0       1     58     58      0   1398     117      12  58    0410f a70f     30.360 "
test,1583575602272190208,16," | 16  |   1517       5   1513       0 |   5    0      1459        54 |   1  52    0    0 960f |    1.983       0       5       0       5     52     52      0   1417      96       1  52    0960f a70f      9.660 "
test,1583575602273530112,17," | 17  |   1517       5   1512       1 |   5    0      1495        18 |   2  52    0    0 960f |    2.777       0       5       0       5     52     52      0   1443      70       2  52    0960f a70f      9.510 "
test,1583575602283708928,18," | 18  |   1517       5   1512       0 |   0   10      1419        93 |   0  18   52    1 170f |    0           0       0       0       8      0      0      0   1336     176       0  18    1170f a70f     30.180 "
test,1583575602271197952,19," | 19  |   1517       5   1511       2 |   4    0      1496        17 |   2  52    0    0 960f |    2.716       0       5       0       5     52     52      0   1447      66       2  52    0960f a70f      9.510 "
test,1583575602264591872,1," |  1  |   1517       4   1514       0 |   5    0      1477        37 |   2   1    0    1 3a0f |    1.739       0       4       0       4      1      1      0   1467      47       2   1    13a0f a70f      6.480 "
test,1583575602288034816,22," | 22  |   1517       5   1511       0 |   5    0      1499        12 |   3  52    0    0 960f |    2.716       0       4       0       4     52     52      0   1413      98       2  52    0960f a70f     30.360 "
test,1583575602272672000,23," | 23  |   1517       5   1455       0 |   5    0      1446         9 |   1  52    0    0 960f |    1.953       0       5       0       5     52     52      0   1415      40       1  52    0960f a70f      8.910 "
test,1583575602269128192,24," | 24  |   1517       5   1513       0 |   5    0      1505         8 |   2  52    0    0 960f |    2.746       0       5       0       5     52     52      0   1465      48       2  52    0960f a70f      9.690 "
test,1583575602267749120,26," | 26  |   1517       5   1513       0 |   5    0      1506         7 |   1  52    0    0 960f |    2.014       0       5       0       5     52     52      0   1473      40       1  52    0960f a70f      8.940 "
test,1583575602275661056,27," | 27  |   1517       5   1515       0 |   5    0      1476        39 |   2  52    0    0 960f |    2.716       0       5       0       5     52     52      0   1402     113       2  52    0960f a70f      9.630 "
test,1583575602289647104,28," | 28  |   1517       5   1513       0 |   5    0      1394       119 |   1  35    0    0  b0f |    2.075       0       4       0       4     35     35      0   1348     165       1  35    0 b0f a70f     30.270 "
test,1583575602289260032,29," | 29  |   1517       5   1511       4 |   2    0      1338       177 |   3  52    0    0 960f |    3.479       0       4       0       4     52     52      0   1261     254       3  52    0960f a70f     30.360 "
test,1583575602269859072,30," | 30  |   1517       5   1513       0 |   5    0      1489        24 |   1  35    0    0  b0f |    2.044       0       5       0       5     35     35      0   1442      71       1  35    0 b0f a70f      8.250 "
test,1583575602268166912,35," | 35  |   1517       5   1513       0 |   5    0      1443        70 |   2  35    0    1  b0f |    1.770       0       4       0       4     35     35      0   1413     100       2  35    1 b0f a70f      6.510 "
test,1583575602291197184,40," | 40  |   1517       5   1477      32 |   5    0      1392       117 |   1  46    0    0 e80f |    2.075       0       2       0       2     46     46      0   1346     163       1  46    0e80f a70f     30.300 "
test,1583575602287831040,41," | 41  |   1517       5   1471      32 |   5    0      1487        16 |   1  46    0    0 e80f |    2.044       0       2       0       2     46     46      0   1442      61       1  46    0e80f a70f     30.390 "
test,1583575602288476928,42," | 42  |   1517       5   1478      35 |   5    1      1466        47 |   1  46   52    0 e80f |    2.044       0       2       0       2     46     46      0   1420      93       1  46    0e80f a70f     30.300 "
test,1583575602288335104,44," | 44  |   1517       5   1483      30 |   5    1      1472        41 |   1  46   52    0 e80f |    2.075       0       2       0       2     46     46      0   1429      84       1  46    0e80f a70f     30.390 "
test,1583575602289938944,45," | 45  |   1517       5   1489      24 |   5    0      1456        57 |   1  46    0    0 e80f |    2.746       0       2       0       2     46     46      0   1421      92       2  46    0e80f a70f     30.300 "
test,1583575602290996992,46," | 46  |   1517       5   1475      31 |   4    0      1434        72 |  10  46    0    1 e80f |    1.739       0       2       0       2     46     46      0   1403     103       2  46    1e80f a70f     30.300 "
test,1583575602290311168,47," | 47  |   1517       3   1481      32 |   5    0      1456        57 |   1  46    0    0 e80f |    2.838       0       2       0       2     46     46      0   1418      95       2  46    0e80f a70f     30.360 "
test,1583575602289448960,48," | 48  |   1517       5   1417      29 |   5    1      1401        45 |   1  46   52    0 e80f |    2.044       0       2       0       2     46     46      0   1361      85       1  46    0e80f a70f     30.300 "
test,1583575602266580224,49," | 49  |   1517       5   1507       0 |   5    0      1484        23 |   1  58    0    0 410f |    1.983       0       5       0       5     58     58      0   1470      37       1  58    0410f a70f      8.160 "
test,1583575602266343168,51," | 51  |   1517       5   1508       0 |   1    6      1499         9 |   2  51    1    1 490f |    1.739       0       4       0       4     51     51      0   1497      11       2  51    1490f a70f      6.480 "
test,1583575602270110976,52," | 52  |   1517       5   1496      13 |   4    0      1432        77 |   4  52    0    1 960f |    1.770       0       4       0       4     52     52      0   1402     107       2  52    1960f a70f      8.670 "
test,1583575602268378112,53," | 53  |   1517       5   1491       0 |   5    0      1413        78 |   2  58    0    0 410f |    1.983       0       5       0       5     58     58      0   1395      96       1  58    0410f a70f      8.760 "
test,1583575602290690816,54," | 54  |   1517       5   1509       0 |   5   11      1489        20 |   1  58    1    0 410f |    8.605       0       2       0       2     58     58      0   1458      51      10  58    0410f a70f     30.300 "
test,1583575602267014144,55," | 55  |   1517       5   1496       0 |   5    0      1444        52 |   1  58    0    0 410f |    2.014       0       5       0       5     58     58      0   1433      63       1  58    0410f a70f      8.130 "
test,1583575602269506048,56," | 56  |   1517       5   1499       0 |   1   13      1475        24 |   2  51   58    0 490f |    2.044       0       5       0       5     51     51      0   1466      33       1  51    0490f a70f      8.130 "
test,1583575602291918080,57," | 57  |   1517       5   1454       0 |   5    0      1415        39 |   2  52    0    0 960f |    6.378       0       3       0       3     52     52      0   1332     122       7  52    0960f a70f     30.360 "
test,1583575602269361920,58," | 58  |   1517       5   1508       0 |   4    1      1488        20 |   5  58   52    1 410f |    1.739       0       4       0       4     58     58      0   1429      79       2  58    1410f a70f      6.510 "
test,1583575602291431936,5," |  5  |   1517       5   1515       0 |   5    4      1387       128 |   2  58    1    0 410f |   10.101       0       1       0       1     58     58      0   1359     156      12  58    0410f a70f     30.360 "
test,1583575602267421952,60," | 60  |   1517       5   1508       0 |   2    4      1414        94 |   1  51   58    0 490f |    2.014       0       5       0       5     51     51      0   1396     112       1  51    0490f a70f      8.250 "
test,1583575602270526976,61," | 61  |   1517       5   1507       0 |   5    5      1442        65 |   1  58   52    0 410f |    2.014       0       5       0       5     58     58      0   1399     108       1  58    0410f a70f      8.250 "
test,1583575602265502976,7," |  7  |   1517       5   1514       0 |   5    0      1491        23 |   2   1    0    0 3a0f |    1.342       0       5       0       5      1      1      0   1483      31       1   1    03a0f a70f      7.560 "
test,1583575602265306112,9," |  9  |   1517       5   1513       0 |   5    0      1459        54 |   1   1    0    0 3a0f |    1.312       0       5       0       5      1      1      0   1449      64       1   1    03a0f a70f      7.560 "
