test,1583575650268238080,10," | 10  |   1709       5   1681       0 |   4    0      1659        22 |   1   9    0    0  40f |    2.014       0       5       0       5      9      9      0   1636      45       1   9    0 40f a70f      8.250 "
test,1583575650267859968,12," | 12  |   1709       5   1707       0 |   5    0      1694        13 |   3   9    0    0  40f |    2.716       0       5       0       5      9      9      0   1669      38       2   9    0 40f a70f      8.820 "
test,1583575650275491072,13," | 13  |   1709       5   1705       0 |   1   10      1688        17 |   1   5   15    0 3a0f |   10.528       0       5       0       5      5      5      0   1669      36      13   5    03a0f a70f     16.500 "
test,1583575650290023936,15," | 15  |   1709       5   1707       0 |   1    5      1644        63 |   5  15    9    1 180f |   16.754       0       1       0       1     15     15      0   1581     126      23  15    1180f a70f     30.210 "
test,1583575650269853184,16," | 16  |   1709       5   1705       0 |   5    0      1641        64 |   2  42    0    0 650f |    2.777       0       5       0       5     42     42      0   1595     110       2  42    0650f a70f      9.630 "
test,1583575650269027072,17," | 17  |   1709       5   1704       1 |   5    0      1687        18 |   2  42    0    0 650f |    2.716       0       5       0       5     42     42      0   1628      77       2  42    0650f a70f      9.630 "
test,1583575650271235840,18," | 18  |   1709       5   1704       0 |   5    0      1601       103 |   1  42    0    0 650f |    2.044       0       5       0       5     42     42      0   1517     187       1  42    0650f a70f      8.250 "
test,1583575650270093824,19," | 19  |   1709       5   1703       2 |   5    0      1685        20 |   3  42    0    0 650f |    3.479       0       5       0       5     42     42      0   1629      76       3  42    0650f a70f      9.690 "
test,1583575650266586112,1," |  1  |   1709       4   1706       0 |   5    0      1663        43 |   2   9    0    0  40f |    2.685       0       5       0       5      9      9      0   1649      57       1   9    0 40f a70f      8.910 "
test,1583575650269321984,22," | 22  |   1709       5   1703       0 |   5    0      1691        12 |   1  42    0    0 650f |    2.014       0       5       0       5     42     42      0   1598     105       1  42    0650f a70f      8.220 "
test,1583575650271389952,23," | 23  |   1709       5   1647       0 |   5    0      1638         9 |   2  42    0    0 650f |    2.777       0       5       0       5     42     42      0   1603      44       2  42    0650f a70f      8.910 "
test,1583575650272471808,24," | 24  |   1709       5   1705       0 |   5    0      1696         9 |   1  42    0    0 650f |    1.983       0       5       0       5     42     42      0   1650      55       1  42    0650f a70f      8.220 "
test,1583575650268775936,26," | 26  |   1709       5   1705       0 |   5    0      1698         7 |   2  42    0    0 650f |    2.777       0       5       0       5     42     42      0   1663      42       2  42    0650f a70f      8.850 "
test,1583575650287661056,27," | 27  |   1709       5   1707       0 |   0    9      1659        48 |   0  27   42    1 390f |    0           0       0       0       8      0      0      0   1574     133       0  27    1390f a70f     30.270 "
test,1583575650271076864,28," | 28  |   1709       4   1705       0 |   4    0      1573       132 |   4  28    0    1 d50f |    1.739       0       4       0       4     28     28      0   1522     183       2  28    1d50f a70f      7.200 "
test,1583575650291557120,29," | 29  |   1709       3   1703       4 |   4    1      1504       203 |   6  42   27    0 650f |    7.141       0       2       0       2     42     42      0   1415     292       8  42    0650f a70f     30.360 "
test,1583575650270298880,30," | 30  |   1709       5   1705       0 |   5    0      1678        27 |   1  28    0    0 d50f |    1.983       0       5       0       5     28     28      0   1627      78       1  28    0d50f a70f      8.130 "
test,1583575650270718976,35," | 35  |   1709       5   1705       0 |   5    0      1629        76 |   2  28    0    0 d50f |    2.777       0       5       0       5     28     28      0   1597     108       2  28    0d50f a70f      8.910 "
test,1583575650274786048,40," | 40  |   1709       5   1669      32 |   5    0      1572       129 |   1  42    0    0 650f |    2.014       0       5       0       5     42     42      0   1526     175       1  42    0650f a70f      8.970 "
test,1583575650289675008,41," | 41  |   1709       5   1663      32 |   5    0      1677        18 |   1  42    0    0 650f |    2.044       0       4       0       4     42     42      0   1630      65       1  42    0650f a70f     30.360 "
test,1583575650279437056,42," | 42  |   1709       5   1670      35 |   3    0      1658        47 |  14  42    0    1 650f |    1.770       0       4       0       4     42     42      0   1611      94       2  42    1650f a70f      7.230 "
test,1583575650291794176,44," | 44  |   1709       5   1675      30 |   5    0      1660        45 |   1  42    0    0 650f |    1.983       0       4       0       4     42     42      0   1615      90       1  42    0650f a70f     30.330 "
test,1583575650278098176,45," | 45  |   1709       5   1681      24 |   5    0      1643        62 |   1  42    0    0 650f |    2.044       0       5       0       5     42     42      0   1605     100       1  42    0650f a70f      8.850 "
test,1583575650272037120,46," | 46  |   1709       5   1667      31 |   5    0      1619        79 |   1  42    0    0 650f |    2.044       0       5       0       5     42     42      0   1587     111       1  42    0650f a70f      8.880 "
test,1583575650275828992,47," | 47  |   1709       5   1673      32 |   5    0      1647        58 |   1  42    0    0 650f |    2.014       0       5       0       5     42     42      0   1608      97       1  42    0650f a70f      8.910 "
test,1583575650274373120,48," | 48  |   1709       5   1609      29 |   5    0      1589        49 |   1  42    0    0 650f |    2.014       0       5       0       5     42     42      0   1551      87       1  42    0650f a70f      8.940 "
test,1583575650267636992,49," | 49  |   1709       5   1699       0 |   4    0      1670        29 |   2  49    0    1 170f |    1.770       0       4       0       4     49     49      0   1655      44       2  49    1170f a70f      6.510 "
test,1583575650272279040,51," | 51  |   1709       5   1700       0 |   3    2      1688        12 |   3  42    9    0 650f |    4.974       0       5       0       5     42     42      0   1683      17       5  42    0650f a70f     11.130 "
test,1583575650273679872,52," | 52  |   1709       5   1685      16 |   5    0      1613        88 |   2  42    0    0 650f |    2.746       0       5       0       5     42     42      0   1579     122       2  42    0650f a70f     10.410 "
test,1583575650268433152,53," | 53  |   1709       5   1683       0 |   5    0      1597        86 |   1  49    0    0 170f |    2.014       0       5       0       5     49     49      0   1578     105       1  49    0170f a70f      8.220 "
test,1583575650270475008,54," | 54  |   1709       5   1701       0 |   5    0      1679        22 |   1   9    0    0  40f |    1.983       0       5       0       5      9      9      0   1647      54       1   9    0 40f a70f      8.190 "
test,1583575650271846912,55," | 55  |   1709       5   1688       0 |   5    0      1631        57 |   1  49    0    0 170f |    2.044       0       5       0       5     49     49      0   1619      69       1  49    0170f a70f      8.280 "
test,1583575650269602048,56," | 56  |   1709       5   1691       0 |   5    0      1664        27 |   3  42    0    0 650f |    4.211       0       5       0       5     42     42      0   1651      40       4  42    0650f a70f     10.260 "
test,1583575650285799936,57," | 57  |   1709       5   1646       0 |   5    0      1606        40 |   2  42    0    0 650f |    3.479       0       5       0       5     42     42      0   1509     137       3  42    0650f a70f     10.260 "
test,1583575650267416832,58," | 58  |   1709       5   1700       0 |   4    3      1679        21 |   1  49    9    0 170f |    2.044       0       5       0       5     49     49      0   1610      90       1  49    0170f a70f      8.250 "
test,1583575650275330048,5," |  5  |   1709       5   1707       0 |   1    7      1559       148 |   2   5   15    1 3a0f |   10.253       0       4       0       4      5      5      0   1531     176      14   5    13a0f a70f     14.850 "
test,1583575650274519808,60," | 60  |   1709       5   1700       0 |   5    0      1591       109 |   3  42    0    0 650f |    4.241       0       5       0       5     42     42      0   1569     131       4  42    0650f a70f     10.320 "
test,1583575650290204928,61," | 61  |   1709       5   1699       0 |   1    1      1626        73 |   4  42    9    0 650f |    4.974       0       4       0       4     42     42      0   1580     119       5  42    0650f a70f     30.300 "
test,1583575650267201024,7," |  7  |   1709       5   1706       0 |   5    0      1680        26 |   2   9    0    0  40f |    2.014       0       5       0       5      9      9      0   1672      34       1   9    0 40f a70f      8.220 "
test,1583575650266969856,9," |  9  |   1709       5   1705       0 |   4    0      1644        61 |   2   9    0    1  40f |    1.770       0       4       0       4      9      9      0   1634      71       2   9    1 40f a70f      6.510 "
