test,1583575592268702976,10," | 10  |   1477       5   1449       0 |   4    0      1428        21 |   2   1    0    0 3a0f |    1.342       0       5       0       5      1      1      0   1410      39       1   1    03a0f a70f      7.410 "
test,1583575592265105920,12," | 12  |   1477       5   1475       0 |   5    0      1466         9 |   1   1    0    0 3a0f |    1.342       0       5       0       5      1      1      0   1439      36       1   1    03a0f a70f      7.500 "
test,1583575592267541760,13," | 13  |   1477       5   1473       0 |   5    0      1458        15 |   1   1    0    0 3a0f |    1.342       0       5       0       5      1      1      0   1440      33       1   1    03a0f a70f      7.500 "
test,1583575592271895040,15," | 15  |   1477       5   1475       0 |   4    5      1418        57 |   5   1    5    0 3a0f |    2.105       0       5       0       5      1      1      0   1360     115       2   1    03a0f a70f      8.220 "
test,1583575592288526080,16," | 16  |   1477       5   1473       0 |   1    8      1421        52 |   2  46   61    0 5c0f |    9.368       0       1       0       1     46     46      0   1380      93      11  46    05c0f a70f     30.360 "
test,1583575592267363072,17," | 17  |   1477       5   1472       1 |   5    0      1455        18 |   2  46    0    0 5c0f |    2.746       0       5       0       5     46     46      0   1403      70       2  46    05c0f a70f      8.970 "
test,1583575592271384832,18," | 18  |   1477       5   1472       0 |   5    0      1382        90 |   3  61    0    0 e00f |    3.448       0       5       0       5     61     61      0   1302     170       3  61    0e00f a70f     11.790 "
test,1583575592271565824,19," | 19  |   1477       5   1471       2 |   5    0      1456        17 |   3  46    0    0 5c0f |    3.448       0       5       0       5     46     46      0   1407      66       3  46    05c0f a70f      9.660 "
test,1583575592263997952,1," |  1  |   1477       4   1474       0 |   4    0      1440        34 |   3   1    0    1 3a0f |    1.739       0       4       0       4      1      1      0   1430      44       2   1    13a0f a70f      6.480 "
test,1583575592275377152,22," | 22  |   1477       5   1471       0 |   5    0      1459        12 |   3  61    0    0 e00f |    3.479       0       5       0       5     61     61      0   1375      96       3  61    0e00f a70f     10.950 "
test,1583575592274352128,23," | 23  |   1477       5   1415       0 |   5    0      1406         9 |   2  61    0    0 e00f |    2.746       0       5       0       5     61     61      0   1376      39       2  61    0e00f a70f     11.850 "
test,1583575592271202048,24," | 24  |   1477       5   1473       0 |   5    0      1465         8 |   3  61    0    0 e00f |    3.509       0       5       0       5     61     61      0   1425      48       3  61    0e00f a70f     11.850 "
test,1583575592269570048,26," | 26  |   1477       5   1473       0 |   5    0      1468         5 |   2  61    0    0 e00f |    2.777       0       5       0       5     61     61      0   1436      37       2  61    0e00f a70f     11.760 "
test,1583575592288935936,27," | 27  |   1477       4   1475       0 |   4    2      1437        38 |   3  61   46    0 e00f |    3.479       0       2       0       2     61     61      0   1364     111       3  61    0e00f a70f     30.360 "
test,1583575592289912064,28," | 28  |   1477       4   1473       0 |   5    0      1356       117 |   3  46    0    0 5c0f |    3.509       0       4       0       4     46     46      0   1312     161       3  46    05c0f a70f     30.270 "
test,1583575592289662976,29," | 29  |   1477       3   1471       4 |   2    1      1306       169 |  10  46   61    0 5c0f |    7.171       0       3       0       3     46     46      0   1230     245       8  46    05c0f a70f     30.360 "
test,1583575592270121984,30," | 30  |   1477       5   1473       0 |   5    0      1450        23 |   5  61    0    0 e00f |    4.943       0       5       0       5     61     61      0   1404      69       5  61    0e00f a70f     11.100 "
test,1583575592272416000,35," | 35  |   1477       5   1473       0 |   5    0      1405        68 |   4  61    0    0 e00f |    4.180       0       5       0       5     61     61      0   1376      97       4  61    0e00f a70f     10.350 "
test,1583575592276653056,40," | 40  |   1477       5   1437      32 |   5    0      1355       114 |   2  46    0    0 5c0f |    1.983       0       5       0       5     46     46      0   1309     160       1  46    05c0f a70f      9.630 "
test,1583575592270306048,41," | 41  |   1477       5   1431      32 |   5    0      1447        16 |   1  46    0    0 5c0f |    2.014       0       5       0       5     46     46      0   1402      61       1  46    05c0f a70f      8.850 "
test,1583575592276246016,42," | 42  |   1477       5   1438      35 |   5    0      1426        47 |   3  46    0    0 5c0f |    1.953       0       5       0       5     46     46      0   1381      92       1  46    05c0f a70f      8.880 "
test,1583575592266309120,44," | 44  |   1477       5   1443      30 |   5    0      1432        41 |   3  46    0    0 5c0f |    2.014       0       5       0       5     46     46      0   1389      84       1  46    05c0f a70f      8.100 "
test,1583575592273571072,45," | 45  |   1477       5   1449      24 |   5    0      1417        56 |   2  46    0    0 5c0f |    2.746       0       5       0       5     46     46      0   1382      91       2  46    05c0f a70f      8.820 "
test,1583575592266091008,46," | 46  |   1477       5   1435      31 |   4    0      1394        72 |   2  46    0    1 5c0f |    1.739       0       4       0       4     46     46      0   1363     103       2  46    15c0f a70f      6.480 "
test,1583575592268301056,47," | 47  |   1477       5   1441      32 |   5    0      1416        57 |   2  46    0    0 5c0f |    2.044       0       5       0       5     46     46      0   1378      95       1  46    05c0f a70f      8.940 "
test,1583575592270505984,48," | 48  |   1477       5   1377      29 |   5    0      1362        44 |   3  46    0    0 5c0f |    2.014       0       5       0       5     46     46      0   1322      84       1  46    05c0f a70f      8.970 "
test,1583575592266586112,49," | 49  |   1477       5   1467       0 |   4    0      1445        22 |   2  49    0    1 5d0f |    1.739       0       4       0       4     49     49      0   1431      36       2  49    15d0f a70f      6.480 "
test,1583575592265289984,51," | 51  |   1477       5   1468       0 |   4    0      1459         9 |   2  51    0    1 3c0f |    1.739       0       4       0       4     51     51      0   1458      10       2  51    13c0f a70f      6.480 "
test,1583575592272773120,52," | 52  |   1477       4   1457      12 |   5    0      1393        76 |   3  61    0    0 e00f |    3.479       0       5       0       5     61     61      0   1365     104       3  61    0e00f a70f     12.540 "
test,1583575592266823936,53," | 53  |   1477       5   1451       0 |   5    0      1374        77 |   1  49    0    0 5d0f |    2.014       0       5       0       5     49     49      0   1357      94       1  49    05d0f a70f      8.280 "
test,1583575592269356032,54," | 54  |   1477       5   1469       0 |   5    0      1449        20 |   1   1    0    0 3a0f |    1.373       0       5       0       5      1      1      0   1418      51       1   1    03a0f a70f      7.620 "
test,1583575592269053952,55," | 55  |   1477       5   1456       0 |   5    0      1406        50 |   1  49    0    0 5d0f |    2.014       0       5       0       5     49     49      0   1395      61       1  49    05d0f a70f      8.970 "
test,1583575592267853056,56," | 56  |   1477       5   1459       0 |   5    0      1435        24 |   1  51    0    0 3c0f |    2.014       0       5       0       5     51     51      0   1427      32       1  51    03c0f a70f      8.250 "
test,1583575592261913088,57," | 57  |   1477       5   1414       0 |   5    0      1376        38 |   1  61    0    0 e00f |    2.014       0       5       0       5     61     61      0   1297     117       1  61    0e00f a70f      8.250 "
test,1583575592289278976,58," | 58  |   1477       5   1468       0 |   3    9      1449        19 |   2  49   61    0 5d0f |    2.777       0       2       0       2     49     49      0   1393      75       2  49    05d0f a70f     30.360 "
test,1583575592287124992,5," |  5  |   1477       5   1475       0 |   0    2      1349       126 |   0   5    1    1 700f |    0           0       0       0       8      0      0      0   1322     153       0   5    1700f a70f     30.180 "
test,1583575592267045120,60," | 60  |   1477       5   1468       0 |   5    0      1377        91 |   1  51    0    0 3c0f |    2.014       0       5       0       5     51     51      0   1361     107       1  51    03c0f a70f      8.250 "
test,1583575592290307072,61," | 61  |   1477       5   1467       0 |   0    0      1404        63 |   0  61    0    1 e00f |    1.739       0       1       0       1     61     61      0   1361     106       2  61    1e00f a70f     30.300 "
test,1583575592264884992,7," |  7  |   1477       5   1474       0 |   5    0      1452        22 |   1   1    0    0 3a0f |    1.373       0       5       0       5      1      1      0   1444      30       1   1    03a0f a70f      7.590 "
test,1583575592265510912,9," |  9  |   1477       5   1473       0 |   5    0      1419        54 |   1   1    0    0 3a0f |    1.312       0       5       0       5      1      1      0   1409      64       1   1    03a0f a70f      7.560 "
