test,1583575548021444096,10," | 10  |   1300       5   1272       0 |   5    6      1254        18 |   1  56    1    0 3d0f |    8.605       0       5       0       5     56     56      0   1240      32      10  56    03d0f a70f     14.580 "
test,1583575548014420992,12," | 12  |   1300       5   1298       0 |   5    0      1290         8 |   1   1    0    0 220f |    1.342       0       5       0       5      1      1      0   1267      31       1   1    0220f a70f      8.310 "
test,1583575548033269760,13," | 13  |   1300       5   1296       0 |   5   10      1281        15 |   1  56    1    0 3d0f |    8.605       0       5       0       5     56     56      0   1268      28      10  56    03d0f a70f     14.580 "
test,1583575548030855936,15," | 15  |   1300       5   1298       0 |   5    0      1247        51 |   2   1    0    0 220f |    2.075       0       5       0       5      1      1      0   1195     103       2   1    0220f a70f      9.030 "
test,1583575548018932992,16," | 16  |   1300       5   1296       0 |   5    0      1251        45 |   2  18    0    0 a70f |    3.448       0       5       0       5     18     18      0   1216      80       3  18    0a70f a70f     11.070 "
test,1583575548022129920,17," | 17  |   1300       5   1295       1 |   5    0      1281        15 |   2  18    0    0 a70f |    2.716       0       5       0       5     18     18      0   1236      60       2  18    0a70f a70f     10.980 "
test,1583575548019161088,18," | 18  |   1300       5   1295       0 |   4    0      1216        79 |   2  18    0    1 a70f |    1.739       0       4       0       4     18     18      0   1150     145       2  18    1a70f a70f      6.480 "
test,1583575548022401024,19," | 19  |   1300       5   1294       2 |   5    0      1282        14 |   2  18    0    0 a70f |    4.913       0       5       0       5     18     18      0   1240      56       5  18    0a70f a70f     11.820 "
test,1583575548013297920,1," |  1  |   1300       4   1297       0 |   5    0      1268        29 |   2   1    0    1 220f |    1.739       0       4       0       4      1      1      0   1260      37       2   1    1220f a70f      6.480 "
test,1583575548017815040,22," | 22  |   1300       5   1294       0 |   5    0      1282        12 |   1  18    0    0 a70f |    1.983       0       5       0       5     18     18      0   1213      81       1  18    0a70f a70f      8.190 "
test,1583575548018547968,23," | 23  |   1300       5   1238       0 |   5    0      1230         8 |   3  18    0    0 a70f |    3.448       0       5       0       5     18     18      0   1207      31       3  18    0a70f a70f     11.670 "
test,1583575548017376000,24," | 24  |   1300       5   1296       0 |   5    0      1288         8 |   1  18    0    0 a70f |    1.983       0       5       0       5     18     18      0   1254      42       1  18    0a70f a70f      8.220 "
test,1583575548020823040,26," | 26  |   1300       5   1296       0 |   5    0      1291         5 |   1  18    0    0 a70f |    2.716       0       5       0       5     18     18      0   1264      32       2  18    0a70f a70f      8.940 "
test,1583575548023186944,27," | 27  |   1300       5   1298       0 |   5    0      1268        30 |   3  18    0    0 a70f |    3.479       0       5       0       5     18     18      0   1206      92       3  18    0a70f a70f     10.980 "
test,1583575548039414016,28," | 28  |   1300       5   1296       0 |   5    0      1195       101 |   5  18    0    0 a70f |    2.746       0       4       0       4     18     18      0   1159     137       2  18    0a70f a70f     30.180 "
test,1583575548019399936,29," | 29  |   1300       3   1294       4 |   5    0      1154       144 |   3  18    0    0 a70f |    4.211       0       5       0       5     18     18      0   1088     210       4  18    0a70f a70f     10.380 "
test,1583575548021166080,30," | 30  |   1300       5   1296       0 |   5    0      1277        19 |   2  18    0    0 a70f |    2.746       0       5       0       5     18     18      0   1238      58       2  18    0a70f a70f      9.660 "
test,1583575548018202112,35," | 35  |   1300       5   1296       0 |   5    0      1237        59 |   2  18    0    0 a70f |    2.746       0       5       0       5     18     18      0   1211      85       2  18    0a70f a70f      8.880 "
test,1583575548025324032,40," | 40  |   1300       5   1260      32 |   2    1      1189       103 |   1  46   18    0 5b0f |    2.014       0       5       0       5     46     46      0   1149     143       1  46    05b0f a70f      8.940 "
test,1583575548017201920,41," | 41  |   1300       5   1254      32 |   2    2      1270        16 |   1  46   18    0 5b0f |    2.014       0       5       0       5     46     46      0   1231      55       1  46    05b0f a70f      8.280 "
test,1583575548018374912,42," | 42  |   1300       5   1261      35 |   2    1      1251        45 |   1  46   18    0 5b0f |    2.014       0       5       0       5     46     46      0   1215      81       1  46    05b0f a70f      8.940 "
test,1583575548036744960,44," | 44  |   1300       5   1266      30 |   2    2      1258        38 |   1  46   18    0 5b0f |    2.044       0       4       0       4     46     46      0   1217      79       1  46    05b0f a70f     30.270 "
test,1583575548017616128,45," | 45  |   1300       5   1272      24 |   1    2      1242        54 |   2  46   18    0 5b0f |    2.044       0       5       0       5     46     46      0   1210      86       1  46    05b0f a70f      8.970 "
test,1583575548016890112,46," | 46  |   1300       5   1258      31 |   2    0      1226        63 |   2  46    0    1 5b0f |    1.770       0       4       0       4     46     46      0   1198      91       2  46    15b0f a70f      6.510 "
test,1583575548033858048,47," | 47  |   1300       5   1264      32 |   2    1      1244        52 |   1  18   46    0 a70f |    0           0       0       0       8      0      0      0   1211      85       0  18    0a70f a70f     30.390 "
test,1583575548023014144,48," | 48  |   1300       5   1200      29 |   2    2      1191        38 |   1  46   18    0 5b0f |    2.044       0       5       0       5     46     46      0   1155      74       1  46    05b0f a70f      8.910 "
test,1583575548016602880,49," | 49  |   1300       5   1290       0 |   5    4      1273        17 |   1  55   56    0 cc0f |    2.044       0       5       0       5     55     55      0   1261      29       1  55    0cc0f a70f      8.250 "
test,1583575548014930944,51," | 51  |   1300       5   1291       0 |   5    0      1283         8 |   1  56    0    0 3d0f |    2.014       0       5       0       5     56     56      0   1282       9       1  56    03d0f a70f      8.220 "
test,1583575548036448000,52," | 52  |   1300       5   1280      12 |   0    3      1223        69 |   0  52   18    1 6e0f |    0           0       0       0       8      0      0      0   1200      92       0  52    16e0f a70f     30.180 "
test,1583575548016169984,53," | 53  |   1300       5   1274       0 |   5    0      1208        66 |   1  55    0    0 cc0f |    2.014       0       5       0       5     55     55      0   1195      79       1  55    0cc0f a70f      8.250 "
test,1583575548015913984,54," | 54  |   1300       5   1292       0 |   5    0      1273        19 |   1   1    0    0 220f |    1.342       0       5       0       5      1      1      0   1247      45       1   1    0220f a70f      7.500 "
test,1583575548015151872,55," | 55  |   1300       5   1279       0 |   4    4      1234        45 |   5  55   56    1 cc0f |    1.739       0       4       0       4     55     55      0   1225      54       2  55    1cc0f a70f      6.480 "
test,1583575548014592768,56," | 56  |   1300       5   1282       0 |   4    0      1261        21 |   2  56    0    1 3d0f |    1.739       0       4       0       4     56     56      0   1253      29       2  56    13d0f a70f      6.480 "
test,1583575548029872896,57," | 57  |   1300       5   1237       0 |   5    0      1202        35 |   1  56    0    0 3d0f |    1.953       0       5       0       5     56     56      0   1132     105       1  56    03d0f a70f     14.520 "
test,1583575548039275776,58," | 58  |   1300       5   1291       0 |   5    2      1273        18 |   2  56    1    0 3d0f |    9.307       0       4       0       4     56     56      0   1226      65      11  56    03d0f a70f     30.330 "
test,1583575548022615040,5," |  5  |   1300       5   1298       0 |   5    2      1184       114 |   2  56    1    0 3d0f |    9.307       0       5       0       5     56     56      0   1161     137      11  56    03d0f a70f     15.330 "
test,1583575548023857152,60," | 60  |   1300       5   1291       0 |   5    0      1209        82 |   1  56    0    0 3d0f |    1.983       0       5       0       5     56     56      0   1195      96       1  56    03d0f a70f      8.880 "
test,1583575548021931776,61," | 61  |   1300       5   1290       0 |   5    0      1234        56 |   1  56    0    0 3d0f |    2.746       0       5       0       5     56     56      0   1196      94       2  56    03d0f a70f     14.730 "
test,1583575548015616000,7," |  7  |   1300       5   1297       0 |   5    0      1277        20 |   1   1    0    0 220f |    1.373       0       5       0       5      1      1      0   1272      25       1   1    0220f a70f      7.500 "
test,1583575548013952000,9," |  9  |   1300       5   1296       0 |   5    0      1247        49 |   1   1    0    0 220f |    1.312       0       5       0       5      1      1      0   1239      57       1   1    0220f a70f      7.590 "
