test,1583575487272418048,10," | 10  |   1057       5   1029       0 |   5    0      1016        13 |   1  13    0    0 560f |    2.075       0       5       0       5     13     13      0   1002      27       1  13    0560f a70f     11.070 "
test,1583575487264750080,12," | 12  |   1057       5   1055       0 |   5    0      1049         6 |   1  13    0    0 560f |    2.044       0       5       0       5     13     13      0   1029      26       1  13    0560f a70f      8.970 "
test,1583575487265722880,13," | 13  |   1057       5   1053       0 |   4    0      1041        12 |   2  13    0    1 560f |    1.770       0       4       0       4     13     13      0   1030      23       2  13    1560f a70f      7.950 "
test,1583575487279587072,15," | 15  |   1057       5   1055       0 |   5    0      1017        38 |   1  13    0    0 560f |    1.983       0       5       0       5     13     13      0    981      74       1  13    0560f a70f      9.570 "
test,1583575487286708224,16," | 16  |   1057       5   1053       0 |   5   10      1018        35 |   1  45   61    0 840f |    1.983       0       1       0       1     45     45      0    992      61       1  45    0840f a70f     30.390 "
test,1583575487273649920,17," | 17  |   1057       5   1052       1 |   5    0      1040        13 |   4  61    0    0 990f |    3.417       0       5       0       5     61     61      0   1009      44       3  61    0990f a70f     11.790 "
test,1583575487271219968,18," | 18  |   1057       5   1052       0 |   5    0       987        65 |   4  61    0    0 990f |    3.448       0       5       0       5     61     61      0    938     114       3  61    0990f a70f      9.540 "
test,1583575487267244032,19," | 19  |   1057       5   1051       2 |   5    0      1041        12 |   3  61    0    0 990f |    3.448       0       5       0       5     61     61      0   1010      43       3  61    0990f a70f     10.230 "
test,1583575487283984896,1," |  1  |   1057       4   1054       0 |   0   10      1033        21 |   0   1   13    1 e90f |    0           0       0       0       8      0      0      0   1026      28       0   1    1e90f a70f     30.210 "
test,1583575487271836928,22," | 22  |   1057       5   1051       0 |   5    0      1041        10 |   3  61    0    0 990f |    3.479       0       5       0       5     61     61      0    992      59       3  61    0990f a70f      9.690 "
test,1583575487268390912,23," | 23  |   1057       5    995       0 |   5    0       989         6 |   4  61    0    0 990f |    3.479       0       5       0       5     61     61      0    972      23       3  61    0990f a70f     11.850 "
test,1583575487265955840,24," | 24  |   1057       5   1053       0 |   5    0      1047         6 |   4  61    0    0 990f |    3.479       0       5       0       5     61     61      0   1021      32       3  61    0990f a70f      9.510 "
test,1583575487265479936,26," | 26  |   1057       5   1053       0 |   5    0      1049         4 |   2  61    0    0 990f |    2.746       0       5       0       5     61     61      0   1029      24       2  61    0990f a70f      8.940 "
test,1583575487266153984,27," | 27  |   1057       4   1055       0 |   5    0      1029        26 |   4  61    0    0 990f |    4.211       0       5       0       5     61     61      0    987      68       4  61    0990f a70f     11.010 "
test,1583575487285632000,28," | 28  |   1057       5   1053       0 |   1    2       969        84 |   1  30   61    0 720f |    2.044       0       4       0       4     30     30      0    940     113       1  30    0720f a70f     30.270 "
test,1583575487282042880,29," | 29  |   1057       5   1051       4 |   4    0       934       121 |   4  61    0    0 990f |    4.913       0       5       0       5     61     61      0    881     174       5  61    0990f a70f     11.070 "
test,1583575487262885120,30," | 30  |   1057       5   1053       0 |   4    0      1037        16 |   5  30    0    1 720f |    1.739       0       4       0       4     30     30      0   1004      49       2  30    1720f a70f      6.480 "
test,1583575487265250048,35," | 35  |   1057       5   1053       0 |   5    0      1007        46 |   1  30    0    0 720f |    1.983       0       5       0       5     30     30      0    986      67       1  30    0720f a70f      8.250 "
test,1583575487284997888,40," | 40  |   1057       5   1017      32 |   5    5       964        85 |   2  45   61    0 840f |    2.044       0       4       0       4     45     45      0    928     121       1  45    0840f a70f     30.300 "
test,1583575487269958144,41," | 41  |   1057       5   1012      31 |   5    5      1027        16 |   1  45   61    0 840f |    1.983       0       5       0       5     45     45      0    998      45       1  45    0840f a70f      8.190 "
test,1583575487267010048,42," | 42  |   1057       5   1019      34 |   5    7      1013        40 |   1  45   61    0 840f |    2.014       0       5       0       5     45     45      0    985      68       1  45    0840f a70f      8.250 "
test,1583575487270407936,44," | 44  |   1057       5   1024      29 |   5    4      1021        32 |   1  45   61    0 840f |    2.014       0       5       0       5     45     45      0    990      63       1  45    0840f a70f      8.160 "
test,1583575487263726080,45," | 45  |   1057       5   1029      24 |   3    0      1007        46 |   5  45    0    1 840f |    1.739       0       4       0       4     45     45      0    981      72       2  45    1840f a70f      6.510 "
test,1583575487264318976,46," | 46  |   1057       5   1016      30 |   5    0       993        53 |   1  45    0    0 840f |    2.746       0       5       0       5     45     45      0    972      74       2  45    0840f a70f      8.850 "
test,1583575487286322176,47," | 47  |   1057       5   1022      31 |   5    4      1009        44 |   1  45   61    0 840f |    2.044       0       4       0       4     45     45      0    988      65       1  45    0840f a70f     30.240 "
test,1583575487263108864,48," | 48  |   1057       5    958      28 |   5    3       951        35 |   1  45   61    0 840f |    2.014       0       5       0       5     45     45      0    922      64       1  45    0840f a70f      8.250 "
test,1583575487270598912,49," | 49  |   1057       5   1047       0 |   5    0      1033        14 |   2  61    0    0 990f |    2.716       0       5       0       5     61     61      0   1023      24       2  61    0990f a70f      8.940 "
test,1583575487267517952,51," | 51  |   1057       5   1048       0 |   5    0      1042         6 |   1  13    0    0 560f |    2.014       0       5       0       5     13     13      0   1041       7       1  13    0560f a70f     10.410 "
test,1583575487268593152,52," | 52  |   1057       4   1039      10 |   5    0       994        55 |   5  61    0    0 990f |    3.448       0       5       0       5     61     61      0    975      74       3  61    0990f a70f      9.630 "
test,1583575487269204992,53," | 53  |   1057       5   1031       0 |   5    0       975        56 |   3  61    0    0 990f |    3.448       0       5       0       5     61     61      0    965      66       3  61    0990f a70f      9.690 "
test,1583575487287348992,54," | 54  |   1057       5   1049       0 |   5    0      1033        16 |   2  13    0    0 560f |    2.777       0       3       0       3     13     13      0   1009      40       2  13    0560f a70f     30.390 "
test,1583575487264903936,55," | 55  |   1057       5   1036       0 |   5    0       994        42 |   2  61    0    0 990f |    2.716       0       5       0       5     61     61      0    988      48       2  61    0990f a70f      8.910 "
test,1583575487268887040,56," | 56  |   1057       5   1039       0 |   2    2      1020        19 |   1  61   13    0 990f |    2.014       0       5       0       5     61     61      0   1013      26       1  61    0990f a70f     10.410 "
test,1583575487266810880,57," | 57  |   1057       5    994       0 |   5    0       961        33 |   1  61    0    0 990f |    2.014       0       5       0       5     61     61      0    904      90       1  61    0990f a70f      9.630 "
test,1583575487266383872,58," | 58  |   1057       5   1048       0 |   4    0      1031        17 |   1  61    0    0 990f |    2.014       0       5       0       5     61     61      0    994      54       1  61    0990f a70f      8.070 "
test,1583575487264507904,5," |  5  |   1057       5   1055       0 |   5    0       968        87 |   1  13    0    0 560f |    2.044       0       5       0       5     13     13      0    947     108       1  13    0560f a70f      8.100 "
test,1583575487269517056,60," | 60  |   1057       5   1048       0 |   4    0       979        69 |   2  13    0    0 560f |    2.807       0       5       0       5     13     13      0    968      80       2  13    0560f a70f     11.130 "
test,1583575487262605824,61," | 61  |   1057       5   1047       0 |   4    0      1000        47 |   2  61    0    1 990f |    1.739       0       4       0       4     61     61      0    969      78       2  61    1990f a70f      6.510 "
test,1583575487269754880,7," |  7  |   1057       5   1054       0 |   5    0      1036        18 |   1  13    0    0 560f |    2.014       0       5       0       5     13     13      0   1031      23       1  13    0560f a70f     11.130 "
test,1583575487285795072,9," |  9  |   1057       5   1053       0 |   5    0      1011        42 |   1  13    0    0 560f |    2.044       0       4       0       4     13     13      0   1005      48       1  13    0560f a70f     30.270 "
