test,1583575558016936960,10," | 10  |   1340       5   1312       0 |   5    0      1293        19 |   2   5    0    0  10f |    2.746       0       5       0       5      5      5      0   1277      35       2   5    0 10f a70f      8.970 "
test,1583575558014625024,12," | 12  |   1340       5   1338       0 |   5    0      1330         8 |   1   5    0    0  10f |    2.014       0       5       0       5      5      5      0   1306      32       1   5    0 10f a70f      8.250 "
test,1583575558016006912,13," | 13  |   1340       5   1336       0 |   5    0      1321        15 |   1   5    0    0  10f |    2.014       0       5       0       5      5      5      0   1305      31       1   5    0 10f a70f      8.970 "
test,1583575558018718976,15," | 15  |   1340       5   1338       0 |   5    0      1284        54 |   2   5    0    0  10f |    2.014       0       5       0       5      5      5      0   1231     107       1   5    0 10f a70f      8.970 "
test,1583575558023181824,16," | 16  |   1340       5   1336       0 |   5    0      1289        47 |   1  17    0    0 940f |    2.014       0       5       0       5     17     17      0   1254      82       1  17    0940f a70f      8.220 "
test,1583575558024972800,17," | 17  |   1340       4   1335       1 |   4    0      1321        15 |   2  17    0    1 940f |    1.739       0       4       0       4     17     17      0   1275      61       2  17    1940f a70f      6.480 "
test,1583575558035015936,18," | 18  |   1340       5   1335       0 |   4    7      1255        80 |   1  47   17    0 ed0f |    0           0       0       0       8      0      0      0   1183     152       0  47    0ed0f a70f     30.360 "
test,1583575558017806080,19," | 19  |   1340       4   1334       2 |   5    0      1322        14 |   1  17    0    0 940f |    2.044       0       5       0       5     17     17      0   1279      57       1  17    0940f a70f      8.130 "
test,1583575558016557056,1," |  1  |   1340       4   1337       0 |   5    0      1307        30 |   2   5    0    0  10f |    3.417       0       5       0       5      5      5      0   1298      39       2   5    0 10f a70f      9.480 "
test,1583575558016763904,22," | 22  |   1340       5   1334       0 |   4    5      1322        12 |   4  17   47    0 940f |    2.716       0       5       0       5     17     17      0   1248      86       2  17    0940f a70f      8.910 "
test,1583575558018359808,23," | 23  |   1340       5   1278       0 |   5    0      1270         8 |   1  17    0    0 940f |    2.014       0       5       0       5     17     17      0   1247      31       1  17    0940f a70f      8.970 "
test,1583575558017995008,24," | 24  |   1340       5   1336       0 |   5    0      1328         8 |   1  17    0    0 940f |    2.777       0       5       0       5     17     17      0   1293      43       2  17    0940f a70f      8.850 "
test,1583575558015248128,26," | 26  |   1340       5   1336       0 |   5    0      1331         5 |   1  17    0    0 940f |    2.014       0       5       0       5     17     17      0   1303      33       1  17    0940f a70f      8.130 "
test,1583575558029787136,27," | 27  |   1340       5   1338       0 |   5    0      1307        31 |   1  17    0    0 940f |    1.983       0       5       0       5     17     17      0   1243      95       1  17    0940f a70f      8.250 "
test,1583575558021127936,28," | 28  |   1340       5   1336       0 |   5    0      1232       104 |   1  17    0    0 940f |    2.014       0       5       0       5     17     17      0   1194     142       1  17    0940f a70f      8.070 "
test,1583575558039516928,29," | 29  |   1340       5   1334       4 |   3    0      1185       153 |   4  17    0    0 940f |    5.706       0       2       0       2     17     17      0   1117     221       6  17    0940f a70f     30.330 "
test,1583575558017615104,30," | 30  |   1340       5   1336       0 |   5    0      1316        20 |   2  17    0    0 940f |    2.746       0       5       0       5     17     17      0   1276      60       2  17    0940f a70f      8.790 "
test,1583575558018554880,35," | 35  |   1340       5   1336       0 |   5    0      1277        59 |   3  17    0    0 940f |    3.479       0       5       0       5     17     17      0   1250      86       3  17    0940f a70f      9.630 "
test,1583575558040549888,40," | 40  |   1340       5   1300      32 |   5    1      1227       105 |   1  47   17    0 ed0f |    2.746       0       2       0       2     47     47      0   1185     147       2  47    0ed0f a70f     30.390 "
test,1583575558038407168,41," | 41  |   1340       5   1294      32 |   5    4      1310        16 |   1  47   17    0 ed0f |    1.983       0       2       0       2     47     47      0   1267      59       1  47    0ed0f a70f     30.390 "
test,1583575558037838080,42," | 42  |   1340       5   1301      35 |   5    1      1290        46 |   1  47   17    0 ed0f |    2.014       0       2       0       2     47     47      0   1250      86       1  47    0ed0f a70f     30.330 "
test,1583575558038789888,44," | 44  |   1340       5   1306      30 |   5    7      1297        39 |   1  47   17    0 ed0f |    2.014       0       2       0       2     47     47      0   1255      81       1  47    0ed0f a70f     30.390 "
test,1583575558037625088,45," | 45  |   1340       5   1312      24 |   5    4      1282        54 |   1  47   17    0 ed0f |    2.044       0       2       0       2     47     47      0   1248      88       1  47    0ed0f a70f     30.300 "
test,1583575558038577152,46," | 46  |   1340       5   1298      31 |   5    0      1264        65 |   1  47    0    0 ed0f |    2.044       0       1       0       1     47     47      0   1234      95       1  47    0ed0f a70f     30.390 "
test,1583575558039998976,47," | 47  |   1340       4   1304      32 |   4    0      1284        52 |   5  47    0    1 ed0f |    1.770       0       2       0       2     47     47      0   1248      88       2  47    1ed0f a70f     30.300 "
test,1583575558038067968,48," | 48  |   1340       4   1240      29 |   5    3      1228        41 |   1  47   17    0 ed0f |    2.014       0       2       0       2     47     47      0   1190      79       1  47    0ed0f a70f     30.360 "
test,1583575558014835968,49," | 49  |   1340       5   1330       0 |   4    0      1313        17 |   4  49    0    1 140f |    1.739       0       4       0       4     49     49      0   1301      29       2  49    1140f a70f      6.480 "
test,1583575558019238912,51," | 51  |   1340       5   1331       0 |   5    0      1323         8 |   2   5    0    0  10f |    2.746       0       5       0       5      5      5      0   1322       9       2   5    0 10f a70f      8.820 "
test,1583575558019564032,52," | 52  |   1340       5   1320      12 |   5    0      1262        70 |   2  17    0    0 940f |    2.746       0       5       0       5     17     17      0   1238      94       2  17    0940f a70f      8.940 "
test,1583575558017093888,53," | 53  |   1340       5   1314       0 |   5    0      1244        70 |   1  49    0    0 140f |    2.044       0       5       0       5     49     49      0   1231      83       1  49    0140f a70f      8.130 "
test,1583575558021936896,54," | 54  |   1340       5   1332       0 |   4    0      1313        19 |   3   5    0    0  10f |    3.448       0       5       0       5      5      5      0   1287      45       3   5    0 10f a70f      9.600 "
test,1583575558017378048,55," | 55  |   1340       5   1319       0 |   5    0      1274        45 |   1  49    0    0 140f |    2.044       0       5       0       5     49     49      0   1265      54       1  49    0140f a70f      8.220 "
test,1583575558036604928,56," | 56  |   1340       5   1322       0 |   5    0      1301        21 |   3   5    0    0  10f |    3.448       0       4       0       4      5      5      0   1293      29       3   5    0 10f a70f     30.270 "
test,1583575558022120960,57," | 57  |   1340       5   1277       0 |   4    0      1241        36 |   2  17    0    0 940f |    2.777       0       5       0       5     17     17      0   1169     108       2  17    0940f a70f      9.570 "
test,1583575558024189952,58," | 58  |   1340       4   1331       0 |   2    0      1313        18 |   1  49    0    0 140f |    2.075       0       5       0       5     49     49      0   1265      66       1  49    0140f a70f      9.660 "
test,1583575558014406912,5," |  5  |   1340       5   1338       0 |   4    0      1222       116 |   4   5    0    1  10f |    1.739       0       4       0       4      5      5      0   1198     140       2   5    1 10f a70f      6.480 "
test,1583575558023778816,60," | 60  |   1340       5   1331       0 |   4    0      1246        85 |   4   5    0    0  10f |    2.716       0       5       0       5      5      5      0   1232      99       2   5    0 10f a70f      9.660 "
test,1583575558020324864,61," | 61  |   1340       5   1330       0 |   2    1      1274        56 |   2  49    5    0 140f |    2.807       0       5       0       5     49     49      0   1236      94       2  49    0140f a70f     10.470 "
test,1583575558015693824,7," |  7  |   1340       5   1337       0 |   5    0      1316        21 |   2   5    0    0  10f |    2.716       0       5       0       5      5      5      0   1310      27       2   5    0 10f a70f      8.910 "
test,1583575558021730816,9," |  9  |   1340       5   1336       0 |   5    0      1287        49 |   2   5    0    0  10f |    2.685       0       5       0       5      5      5      0   1279      57       2   5    0 10f a70f      9.630 "
