test,1583575684271727104,10," | 10  |   1845       5   1817       0 |   5    0      1793        24 |   3   1    0    0 3a0f |    1.342       0       5       0       5      1      1      0   1769      48       1   1    03a0f a70f      8.310 "
test,1583575684267697152,12," | 12  |   1845       5   1843       0 |   5    0      1828        15 |   1   1    0    0 3a0f |    1.342       0       5       0       5      1      1      0   1801      42       1   1    03a0f a70f      8.310 "
test,1583575684267188992,13," | 13  |   1845       5   1841       0 |   5    0      1824        17 |   2   1    0    0 3a0f |    1.373       0       5       0       5      1      1      0   1804      37       1   1    03a0f a70f      7.620 "
test,1583575684268798208,15," | 15  |   1845       5   1843       0 |   5    0      1775        68 |   2   1    0    0 3a0f |    2.075       0       5       0       5      1      1      0   1704     139       2   1    03a0f a70f      9.030 "
test,1583575684270946048,16," | 16  |   1845       5   1841       0 |   5    1      1774        67 |   3  56   46    0 5e0f |    3.479       0       5       0       5     56     56      0   1726     115       3  56    05e0f a70f      9.660 "
test,1583575684274233088,17," | 17  |   1845       5   1840       1 |   5    0      1822        19 |   4  56    0    0 5e0f |    3.417       0       5       0       5     56     56      0   1763      78       3  56    05e0f a70f     11.040 "
test,1583575684288388864,18," | 18  |   1845       5   1840       0 |   1    7      1730       110 |   2  46   56    0 410f |    0           0       0       0       8      0      0      0   1644     196       0  46    0410f a70f     30.330 "
test,1583575684291207168,19," | 19  |   1845       5   1839       2 |   5    0      1819        22 |   3  56    0    0 5e0f |    3.448       0       3       0       3     56     56      0   1762      79       3  56    05e0f a70f     30.360 "
test,1583575684265757952,1," |  1  |   1845       4   1842       0 |   5    0      1798        44 |   2   1    0    1 3a0f |    1.739       0       4       0       4      1      1      0   1784      58       2   1    13a0f a70f      6.480 "
test,1583575684292960000,22," | 22  |   1845       5   1839       0 |   5    0      1826        13 |   5  56    0    0 5e0f |    3.448       0       4       0       4     56     56      0   1732     107       3  56    05e0f a70f     30.360 "
test,1583575684270461184,23," | 23  |   1845       5   1783       0 |   5    0      1772        11 |   2  56    0    0 5e0f |    2.685       0       5       0       5     56     56      0   1736      47       2  56    05e0f a70f      8.880 "
test,1583575684271279104,24," | 24  |   1845       5   1841       0 |   5    0      1829        12 |   5  56    0    0 5e0f |    3.479       0       5       0       5     56     56      0   1785      56       3  56    05e0f a70f      9.570 "
test,1583575684271975168,26," | 26  |   1845       5   1841       0 |   5    0      1834         7 |   3  56    0    0 5e0f |    2.655       0       5       0       5     56     56      0   1798      43       2  56    05e0f a70f      8.850 "
test,1583575684271544064,27," | 27  |   1845       5   1843       0 |   5    0      1791        52 |   3  56    0    0 5e0f |    3.479       0       5       0       5     56     56      0   1704     139       3  56    05e0f a70f     10.380 "
test,1583575684292306944,28," | 28  |   1845       5   1841       0 |   4    2      1701       140 |   1  30   56    0 940f |    2.014       0       2       0       2     30     30      0   1646     195       1  30    0940f a70f     30.360 "
test,1583575684294915072,29," | 29  |   1845       4   1839       4 |   3    0      1633       210 |   4  56    0    0 5e0f |    5.676       0       4       0       4     56     56      0   1542     301       6  56    05e0f a70f     30.270 "
test,1583575684293710848,30," | 30  |   1845       5   1841       0 |   2    2      1813        28 |   8  30   56    1 940f |    1.739       0       1       0       1     30     30      0   1757      84       2  30    1940f a70f     30.300 "
test,1583575684289092096,35," | 35  |   1845       5   1841       0 |   0    6      1760        81 |   0  35   30    1 cc0f |    0           0       0       0       8      0      0      0   1723     118       0  35    1cc0f a70f     30.180 "
test,1583575684297585920,40," | 40  |   1845       4   1805      32 |   5    0      1701       136 |   1  46    0    0 410f |    2.014       0       2       0       2     46     46      0   1656     181       1  46    0410f a70f     30.300 "
test,1583575684288796928,41," | 41  |   1845       5   1799      32 |   5    2      1813        18 |   1  46   56    0 410f |    1.983       0       3       0       3     46     46      0   1764      67       1  46    0410f a70f     30.390 "
test,1583575684288621824,42," | 42  |   1845       5   1806      35 |   5    0      1793        48 |   1  46    0    0 410f |    1.983       0       3       0       3     46     46      0   1745      96       1  46    0410f a70f     30.360 "
test,1583575684290744064,44," | 44  |   1845       5   1811      30 |   5    1      1793        48 |   1  46   56    0 410f |    1.983       0       3       0       3     46     46      0   1747      94       1  46    0410f a70f     30.360 "
test,1583575684292696832,45," | 45  |   1845       5   1817      24 |   5    1      1777        64 |   1  46   56    0 410f |    2.014       0       3       0       3     46     46      0   1738     103       1  46    0410f a70f     30.360 "
test,1583575684292019968,46," | 46  |   1845       5   1803      31 |   4    0      1748        86 |   8  46    0    1 410f |    1.770       0       3       0       3     46     46      0   1715     119       2  46    1410f a70f     30.300 "
test,1583575684290501120,47," | 47  |   1845       5   1809      32 |   5    0      1777        64 |   1  46    0    0 410f |    2.014       0       3       0       3     46     46      0   1733     108       1  46    0410f a70f     30.300 "
test,1583575684289825792,48," | 48  |   1845       5   1745      29 |   5    0      1722        52 |   1  46    0    0 410f |    1.983       0       2       0       2     46     46      0   1684      90       1  46    0410f a70f     30.270 "
test,1583575684268500992,49," | 49  |   1845       5   1835       0 |   4    0      1803        32 |   2  49    0    1 320f |    1.739       0       4       0       4     49     49      0   1786      49       2  49    1320f a70f      6.480 "
test,1583575684267420160,51," | 51  |   1845       5   1836       0 |   1    2      1824        12 |   1  56    1    0 5e0f |    2.014       0       5       0       5     56     56      0   1819      17       1  56    05e0f a70f      8.220 "
test,1583575684273016832,52," | 52  |   1845       5   1821      16 |   5    0      1741        96 |   3  56    0    0 5e0f |    3.448       0       5       0       5     56     56      0   1704     133       3  56    05e0f a70f     10.920 "
test,1583575684272497920,53," | 53  |   1845       5   1819       0 |   5    0      1728        91 |   1  49    0    0 320f |    2.044       0       5       0       5     49     49      0   1707     112       1  49    0320f a70f      8.250 "
test,1583575684269865984,54," | 54  |   1845       5   1837       0 |   5    0      1811        26 |   1   1    0    0 3a0f |    1.312       0       5       0       5      1      1      0   1777      60       1   1    03a0f a70f      8.280 "
test,1583575684268048128,55," | 55  |   1845       5   1824       0 |   5    0      1761        63 |   1  49    0    0 320f |    2.075       0       5       0       5     49     49      0   1746      78       1  49    0320f a70f      8.130 "
test,1583575684268352000,56," | 56  |   1845       5   1827       0 |   4    1      1799        28 |   4  56   61    1 5e0f |    1.739       0       4       0       4     56     56      0   1784      43       2  56    15e0f a70f      6.480 "
test,1583575684292473088,57," | 57  |   1845       5   1782       0 |   5    0      1740        42 |   1  56    0    0 5e0f |    2.014       0       3       0       3     56     56      0   1632     150       1  56    05e0f a70f     30.390 "
test,1583575684291766016,58," | 58  |   1845       5   1836       0 |   3    2      1813        23 |   5  49   61    0 320f |    2.777       0       3       0       3     49     49      0   1740      96       2  49    0320f a70f     30.270 "
test,1583575684272339200,5," |  5  |   1845       5   1843       0 |   5    0      1684       159 |   2   1    0    0 3a0f |    2.075       0       5       0       5      1      1      0   1654     189       2   1    03a0f a70f      8.280 "
test,1583575684269371136,60," | 60  |   1845       5   1836       0 |   3    0      1716       120 |   1  56    0    0 5e0f |    2.746       0       5       0       5     56     56      0   1688     148       2  56    05e0f a70f      8.850 "
test,1583575684289254912,61," | 61  |   1845       5   1835       0 |   0    0      1753        82 |   0  61    0    1 980f |    0           0       0       0       8      0      0      0   1707     128       0  61    1980f a70f     30.150 "
test,1583575684266968064,7," |  7  |   1845       5   1842       0 |   5    0      1814        28 |   1   1    0    0 3a0f |    1.342       0       5       0       5      1      1      0   1805      37       1   1    03a0f a70f      7.560 "
test,1583575684266760192,9," |  9  |   1845       5   1841       0 |   5    0      1776        65 |   1   1    0    0 3a0f |    1.342       0       5       0       5      1      1      0   1766      75       1   1    03a0f a70f      7.590 "
