test,1583575603021774080,10," | 10  |   1520       5   1492       0 |   5    0      1471        21 |   2   9    0    0 da0f |    2.014       0       5       0       5      9      9      0   1453      39       1   9    0da0f a70f      8.760 "
test,1583575603039405056,12," | 12  |   1520       5   1518       0 |   1   10      1507        11 |   2  49   16    0  80f |   10.833       0       1       0       1     49     49      0   1481      37      13  49    0 80f a70f     30.360 "
test,1583575603017393152,13," | 13  |   1520       5   1516       0 |   5    0      1501        15 |   1   9    0    0 da0f |    2.044       0       5       0       5      9      9      0   1483      33       1   9    0da0f a70f      9.000 "
test,1583575603037026816,15," | 15  |   1520       5   1518       0 |   2    0      1460        58 |   6  16    0    0 e90f |    0           0       0       0       8      0      0      0   1400     118       0  16    0e90f a70f     30.390 "
test,1583575603017244160,16," | 16  |   1520       5   1516       0 |   4    4      1462        54 |   5  16   52    1 e90f |    3.814       0       4       0       4     16     16      0   1420      96       5  16    1e90f a70f      8.490 "
test,1583575603036376832,17," | 17  |   1520       5   1515       1 |   5    0      1498        18 |   2  52    0    0 3d0f |    3.509       0       5       0       5     52     52      0   1446      70       3  52    03d0f a70f     24.210 "
test,1583575603020721920,18," | 18  |   1520       5   1515       0 |   1    7      1422        93 |   1  42   52    0 590f |    5.737       0       5       0       5     42     42      0   1339     176       6  42    0590f a70f     11.760 "
test,1583575603033308928,19," | 19  |   1520       5   1514       2 |   4    4      1499        17 |   2  52   16    0 3d0f |    3.509       0       5       0       5     52     52      0   1450      66       3  52    03d0f a70f     24.960 "
test,1583575603018246912,1," |  1  |   1520       4   1517       0 |   5    0      1479        38 |   1   9    0    0 da0f |    2.716       0       5       0       5      9      9      0   1468      49       1   9    0da0f a70f      8.940 "
test,1583575603025029888,22," | 22  |   1520       5   1514       0 |   1    9      1502        12 |   1  42   16    0 590f |    6.439       0       5       0       5     42     42      0   1416      98       7  42    0590f a70f     12.570 "
test,1583575603021014016,23," | 23  |   1520       5   1458       0 |   5    6      1449         9 |   1  16   52    0 e90f |    4.089       0       5       0       5     16     16      0   1418      40       4  16    0e90f a70f     10.260 "
test,1583575603032214016,24," | 24  |   1520       5   1516       0 |   5    0      1508         8 |   1  52    0    0 3d0f |    2.044       0       5       0       5     52     52      0   1468      48       1  52    03d0f a70f     23.520 "
test,1583575603032345088,26," | 26  |   1520       5   1516       0 |   5    0      1509         7 |   1  52    0    0 3d0f |    2.746       0       5       0       5     52     52      0   1476      40       2  52    03d0f a70f     24.120 "
test,1583575603038657024,27," | 27  |   1520       5   1518       0 |   5    6      1478        40 |   2  16   52    0 e90f |    4.821       0       4       0       4     16     16      0   1404     114       5  16    0e90f a70f     30.360 "
test,1583575603023755008,28," | 28  |   1520       5   1516       0 |   4    0      1396       120 |   5  42    0    0 590f |    7.904       0       5       0       5     42     42      0   1350     166       9  42    0590f a70f     14.010 "
test,1583575603035238912,29," | 29  |   1520       1   1514       4 |   3    4      1341       177 |   5  52   16    0 3d0f |    4.241       0       5       0       5     52     52      0   1264     254       4  52    03d0f a70f     25.620 "
test,1583575603024764928,30," | 30  |   1520       5   1516       0 |   5    0      1492        24 |   2  42    0    0 590f |    7.202       0       5       0       5     42     42      0   1445      71       8  42    0590f a70f     14.040 "
test,1583575603022561024,35," | 35  |   1520       5   1516       0 |   5    0      1446        70 |   2  42    0    0 590f |    7.141       0       5       0       5     42     42      0   1416     100       8  42    0590f a70f     13.140 "
test,1583575603019108096,40," | 40  |   1520       5   1480      32 |   3    1      1395       117 |   2  42   52    0 590f |    2.777       0       5       0       5     42     42      0   1349     163       2  42    0590f a70f      8.970 "
test,1583575603018081792,41," | 41  |   1520       5   1474      32 |   5    0      1490        16 |   1  42    0    0 590f |    2.044       0       5       0       5     42     42      0   1445      61       1  42    0590f a70f      8.220 "
test,1583575603015713024,42," | 42  |   1520       5   1481      35 |   4    0      1469        47 |   4  42    0    1 590f |    1.739       0       4       0       4     42     42      0   1423      93       2  42    1590f a70f      6.480 "
test,1583575603019560960,44," | 44  |   1520       5   1486      30 |   5    0      1475        41 |   1  42    0    0 590f |    2.014       0       5       0       5     42     42      0   1432      84       1  42    0590f a70f      8.190 "
test,1583575603020039936,45," | 45  |   1520       5   1492      24 |   5    0      1458        58 |   1  42    0    0 590f |    2.044       0       5       0       5     42     42      0   1423      93       1  42    0590f a70f      8.160 "
test,1583575603017957888,46," | 46  |   1520       5   1478      31 |   5    0      1437        72 |   1  42    0    0 590f |    2.014       0       5       0       5     42     42      0   1406     103       1  42    0590f a70f      8.220 "
test,1583575603016911872,47," | 47  |   1520       4   1484      32 |   5    0      1459        57 |   1  42    0    0 590f |    2.075       0       5       0       5     42     42      0   1421      95       1  42    0590f a70f      8.310 "
test,1583575603017716992,48," | 48  |   1520       5   1420      29 |   5    0      1404        45 |   1  42    0    0 590f |    2.014       0       5       0       5     42     42      0   1364      85       1  42    0590f a70f      8.250 "
test,1583575603015945984,49," | 49  |   1520       5   1510       0 |   5    0      1487        23 |   2  49    0    1  80f |    1.739       0       4       0       4     49     49      0   1473      37       2  49    1 80f a70f      6.480 "
test,1583575603016545024,51," | 51  |   1520       5   1511       0 |   2    8      1502         9 |   1  57    9    0 980f |    2.014       0       5       0       5     57     57      0   1500      11       1  57    0980f a70f      8.940 "
test,1583575603016339968,53," | 53  |   1520       5   1494       0 |   5    0      1416        78 |   1  49    0    0  80f |    2.014       0       5       0       5     49     49      0   1398      96       1  49    0 80f a70f      8.220 "
test,1583575603039150848,54," | 54  |   1520       5   1512       0 |   1    9      1492        20 |   2  49    9    0  80f |   10.070       0       2       0       2     49     49      0   1461      51      12  49    0 80f a70f     30.390 "
test,1583575603018594048,55," | 55  |   1520       5   1499       0 |   5    0      1447        52 |   1  49    0    0  80f |    2.044       0       5       0       5     49     49      0   1436      63       1  49    0 80f a70f      8.250 "
test,1583575603019680000,56," | 56  |   1520       5   1502       0 |   2    5      1478        24 |   1  57    9    0 980f |    2.014       0       5       0       5     57     57      0   1469      33       1  57    0980f a70f      8.250 "
test,1583575603020878080,57," | 57  |   1520       4   1457       0 |   1    8      1418        39 |   2  57   16    1 980f |    1.739       0       4       0       4     57     57      0   1335     122       2  57    1980f a70f      6.510 "
test,1583575603018703872,58," | 58  |   1520       5   1511       0 |   5    0      1491        20 |   1  49    0    0  80f |    2.075       0       5       0       5     49     49      0   1432      79       1  49    0 80f a70f      9.720 "
test,1583575603024135168,5," |  5  |   1520       5   1518       0 |   5    0      1390       128 |   2   9    0    0 da0f |    2.777       0       5       0       5      9      9      0   1362     156       2   9    0da0f a70f      9.690 "
test,1583575603019794944,60," | 60  |   1520       5   1511       0 |   2    0      1416        95 |   1  57    0    0 980f |    2.014       0       5       0       5     57     57      0   1398     113       1  57    0980f a70f      8.130 "
test,1583575603019395072,61," | 61  |   1520       5   1510       0 |   3    2      1445        65 |   3  49    9    0  80f |    2.807       0       5       0       5     49     49      0   1402     108       2  49    0 80f a70f     10.380 "
test,1583575603015496960,7," |  7  |   1520       5   1517       0 |   5    0      1494        23 |   1   9    0    0 da0f |    2.014       0       5       0       5      9      9      0   1486      31       1   9    0da0f a70f      8.220 "
test,1583575603017560064,9," |  9  |   1520       5   1516       0 |   4    0      1461        55 |   2   9    0    1 da0f |    1.770       0       4       0       4      9      9      0   1451      65       2   9    1da0f a70f      6.510 "
