test,1583575481013005056,10," | 10  |   1032       5   1004       0 |   5    0       991        13 |   1   9    0    0 9c0f |    2.014       0       5       0       5      9      9      0    977      27       1   9    09c0f a70f      8.190 "
test,1583575481015183872,12," | 12  |   1032       5   1030       0 |   5    0      1024         6 |   1   9    0    0 9c0f |    2.014       0       5       0       5      9      9      0   1004      26       1   9    09c0f a70f      8.250 "
test,1583575481014502912,13," | 13  |   1032       5   1028       0 |   5    0      1016        12 |   1   9    0    0 9c0f |    2.044       0       5       0       5      9      9      0   1005      23       1   9    09c0f a70f      9.000 "
test,1583575481014862080,15," | 15  |   1032       5   1030       0 |   5    0       993        37 |   2   9    0    0 9c0f |    2.746       0       5       0       5      9      9      0    956      74       2   9    09c0f a70f      9.000 "
test,1583575481013411072,16," | 16  |   1032       5   1028       0 |   5    0       994        34 |   2  17    0    0 b50f |    2.014       0       5       0       5     17     17      0    970      58       1  17    0b50f a70f      8.250 "
test,1583575481015886080,17," | 17  |   1032       5   1027       1 |   4    0      1015        13 |   5  17    0    1 b50f |    1.770       0       4       0       4     17     17      0    986      42       2  17    1b50f a70f      6.510 "
test,1583575481018007040,18," | 18  |   1032       5   1027       0 |   5    6       962        65 |   1  22   17    0 b00f |    2.044       0       5       0       5     22     22      0    915     112       1  22    0b00f a70f     10.830 "
test,1583575481017565952,19," | 19  |   1032       5   1026       2 |   5    0      1016        12 |   1  17    0    0 b50f |    2.044       0       5       0       5     17     17      0    986      42       1  17    0b50f a70f      8.940 "
test,1583575481013620992,1," |  1  |   1032       4   1029       0 |   5    0      1010        19 |   1   9    0    0 9c0f |    2.716       0       5       0       5      9      9      0   1003      26       1   9    09c0f a70f      8.940 "
test,1583575481036428032,22," | 22  |   1032       5   1026       0 |   4    5      1016        10 |   8  22   17    1 b00f |   10.253       0       1       0       1     22     22      0    968      58      14  22    1b00f a70f     30.240 "
test,1583575481018553856,23," | 23  |   1032       5    970       0 |   5    0       964         6 |   2  17    0    0 b50f |    2.746       0       5       0       5     17     17      0    948      22       2  17    0b50f a70f      9.660 "
test,1583575481015582976,24," | 24  |   1032       5   1028       0 |   5    0      1022         6 |   2  17    0    0 b50f |    2.716       0       5       0       5     17     17      0    997      31       2  17    0b50f a70f     10.350 "
test,1583575481017054208,26," | 26  |   1032       5   1028       0 |   5    0      1024         4 |   1  17    0    0 b50f |    1.983       0       5       0       5     17     17      0   1005      23       1  17    0b50f a70f      9.660 "
test,1583575481034456064,27," | 27  |   1032       5   1030       0 |   5    0      1004        26 |   1  17    0    0 b50f |    2.746       0       4       0       4     17     17      0    963      67       2  17    0b50f a70f     30.390 "
test,1583575481035607040,28," | 28  |   1032       5   1028       0 |   3    4       947        81 |   1  17   22    0 b50f |    2.014       0       4       0       4     17     17      0    918     110       1  17    0b50f a70f     30.300 "
test,1583575481034895872,29," | 29  |   1032       1   1026       4 |   0    5       910       120 |   0  29   17    1 770f |    0           0       0       0       8      0      0      0    856     174       0  29    1770f a70f     30.150 "
test,1583575481020370944,30," | 30  |   1032       5   1028       0 |   5    0      1013        15 |   2  22    0    0 b00f |    2.014       0       5       0       5     22     22      0    980      48       1  22    0b00f a70f      9.570 "
test,1583575481010038016,35," | 35  |   1032       5   1028       0 |   5    0       983        45 |   1  22    0    0 b00f |    2.044       0       5       0       5     22     22      0    962      66       1  22    0b00f a70f      8.760 "
test,1583575481023271168,40," | 40  |   1032       5    993      31 |   5    0       942        82 |   2  17    0    0 b50f |    2.716       0       5       0       5     17     17      0    907     117       2  17    0b50f a70f     10.350 "
test,1583575481014050048,41," | 41  |   1032       5    988      30 |   5    0      1002        16 |   1  17    0    0 b50f |    2.014       0       5       0       5     17     17      0    973      45       1  17    0b50f a70f      8.250 "
test,1583575481016822016,42," | 42  |   1032       5    995      33 |   4    4       989        39 |   5  17   22    0 b50f |    2.716       0       5       0       5     17     17      0    962      66       2  17    0b50f a70f      9.690 "
test,1583575481028145920,44," | 44  |   1032       5   1000      28 |   5    0       997        31 |   2  17    0    0 b50f |    2.716       0       5       0       5     17     17      0    967      61       2  17    0b50f a70f      9.660 "
test,1583575481021928192,45," | 45  |   1032       5   1005      23 |   5    0       983        45 |   2  17    0    0 b50f |    2.716       0       5       0       5     17     17      0    957      71       2  17    0b50f a70f      9.660 "
test,1583575481023472128,46," | 46  |   1032       5    992      29 |   5    0       968        53 |   2  17    0    0 b50f |    2.777       0       5       0       5     17     17      0    947      74       2  17    0b50f a70f      8.940 "
test,1583575481015388928,47," | 47  |   1032       5    998      30 |   5    0       986        42 |   2  17    0    0 b50f |    2.777       0       5       0       5     17     17      0    966      62       2  17    0b50f a70f     10.320 "
test,1583575481018171904,48," | 48  |   1032       5    934      27 |   3    4       927        34 |   6  17   22    0 b50f |    2.716       0       5       0       5     17     17      0    899      62       2  17    0b50f a70f      9.660 "
test,1583575481015036160,49," | 49  |   1032       5   1022       0 |   5    0      1008        14 |   1  53    0    0  e0f |    2.014       0       5       0       5     53     53      0    998      24       1  53    0 e0f a70f      8.100 "
test,1583575481021003008,51," | 51  |   1032       5   1023       0 |   5    0      1017         6 |   2   9    0    0 9c0f |    2.807       0       5       0       5      9      9      0   1016       7       2   9    09c0f a70f      8.910 "
test,1583575481020028160,52," | 52  |   1032       5   1014      10 |   5    0       969        55 |   2  17    0    0 b50f |    2.777       0       5       0       5     17     17      0    950      74       2  17    0b50f a70f      8.940 "
test,1583575481016651008,53," | 53  |   1032       5   1006       0 |   5    0       951        55 |   2  53    0    1  e0f |    1.739       0       4       0       4     53     53      0    941      65       2  53    1 e0f a70f      6.510 "
test,1583575481013225984,54," | 54  |   1032       5   1024       0 |   5    0      1009        15 |   1   9    0    0 9c0f |    2.044       0       5       0       5      9      9      0    985      39       1   9    09c0f a70f      8.130 "
test,1583575481012804864,55," | 55  |   1032       5   1011       0 |   5    0       969        42 |   1  53    0    0  e0f |    2.014       0       5       0       5     53     53      0    963      48       1  53    0 e0f a70f      8.250 "
test,1583575481017267968,56," | 56  |   1032       5   1014       0 |   5    1       995        19 |   2   9   17    0 9c0f |    2.716       0       5       0       5      9      9      0    988      26       2   9    09c0f a70f      9.660 "
test,1583575481036221952,57," | 57  |   1032       5    969       0 |   5    0       936        33 |   3  17    0    0 b50f |    2.777       0       4       0       4     17     17      0    881      88       2  17    0b50f a70f     30.390 "
test,1583575481033107968,58," | 58  |   1032       5   1023       0 |   0    3      1006        17 |   0  58   17    1 220f |    0           0       0       0       8      0      0      0    970      53       0  58    1220f a70f     30.150 "
test,1583575481013837056,5," |  5  |   1032       5   1030       0 |   5    0       946        84 |   2   9    0    0 9c0f |    2.807       0       5       0       5      9      9      0    925     105       2   9    09c0f a70f      8.850 "
test,1583575481017417984,60," | 60  |   1032       5   1023       0 |   5    0       958        65 |   3   9    0    0 9c0f |    3.509       0       5       0       5      9      9      0    947      76       3   9    09c0f a70f      9.630 "
test,1583575481035279104,61," | 61  |   1032       5   1022       0 |   2    8       976        46 |   4  17   58    0 b50f |    0           0       0       0       8      0      0      0    946      76       0  17    0b50f a70f     30.390 "
test,1583575481016179200,7," |  7  |   1032       5   1029       0 |   5    0      1011        18 |   1   9    0    0 9c0f |    2.044       0       5       0       5      9      9      0   1006      23       1   9    09c0f a70f      8.220 "
test,1583575481011899904,9," |  9  |   1032       5   1028       0 |   4    0       986        42 |   4   9    0    1 9c0f |    1.739       0       4       0       4      9      9      0    980      48       2   9    19c0f a70f      6.510 "
