test,1583575601521605888,10," | 10  |   1514       5   1486       0 |   1    5      1465        21 |   2  61    7    0 380f |    3.479       0       5       0       5     61     61      0   1447      39       3  61    0380f a70f      9.600 "
test,1583575601515995136,12," | 12  |   1514       5   1512       0 |   5    0      1501        11 |   1   7    0    0 270f |    2.014       0       5       0       5      7      7      0   1475      37       1   7    0270f a70f      8.250 "
test,1583575601515830016,13," | 13  |   1514       5   1510       0 |   5    0      1495        15 |   1   7    0    0 270f |    2.014       0       5       0       5      7      7      0   1477      33       1   7    0270f a70f      8.250 "
test,1583575601517957888,15," | 15  |   1514       5   1512       0 |   3    3      1454        58 |   6   7   16    0 270f |    2.746       0       5       0       5      7      7      0   1395     117       2   7    0270f a70f      8.910 "
test,1583575601524007936,16," | 16  |   1514       5   1510       0 |   4    0      1457        53 |   2  16    0    1 da0f |    1.739       0       4       0       4     16     16      0   1415      95       2  16    1da0f a70f      7.920 "
test,1583575601520435200,17," | 17  |   1514       5   1509       1 |   5    0      1492        18 |   2  16    0    0 da0f |    2.777       0       5       0       5     16     16      0   1440      70       2  16    0da0f a70f      8.940 "
test,1583575601535328000,18," | 18  |   1514       5   1509       0 |   0    4      1417        92 |   0  18   16    1 590f |    0           0       0       0       8      0      0      0   1334     175       0  18    1590f a70f     30.180 "
test,1583575601518793216,19," | 19  |   1514       5   1508       2 |   5    0      1493        17 |   2  16    0    0 da0f |    2.777       0       5       0       5     16     16      0   1444      66       2  16    0da0f a70f      9.720 "
test,1583575601517411840,1," |  1  |   1514       4   1511       0 |   5    0      1474        37 |   1   7    0    0 270f |    2.685       0       5       0       5      7      7      0   1464      47       1   7    0270f a70f      8.790 "
test,1583575601539396096,22," | 22  |   1514       5   1508       0 |   5    0      1496        12 |   3  16    0    0 da0f |    2.777       0       4       0       4     16     16      0   1410      98       2  16    0da0f a70f     30.360 "
test,1583575601519265792,23," | 23  |   1514       5   1452       0 |   5    0      1443         9 |   1  16    0    0 da0f |    2.014       0       5       0       5     16     16      0   1412      40       1  16    0da0f a70f      8.160 "
test,1583575601521018880,24," | 24  |   1514       5   1510       0 |   5    0      1502         8 |   2  16    0    0 da0f |    2.746       0       5       0       5     16     16      0   1462      48       2  16    0da0f a70f     10.260 "
test,1583575601521995008,26," | 26  |   1514       5   1510       0 |   5    1      1503         7 |   1  16   61    0 da0f |    2.044       0       5       0       5     16     16      0   1470      40       1  16    0da0f a70f      9.690 "
test,1583575601525638144,27," | 27  |   1514       5   1512       0 |   5    0      1473        39 |   2  16    0    0 da0f |    2.716       0       5       0       5     16     16      0   1399     113       2  16    0da0f a70f     10.380 "
test,1583575601525982976,28," | 28  |   1514       5   1510       0 |   5    0      1391       119 |   3  16    0    0 da0f |    3.448       0       5       0       5     16     16      0   1345     165       3  16    0da0f a70f      9.660 "
test,1583575601540265984,29," | 29  |   1514       5   1508       4 |   4    0      1336       176 |   5  16    0    0 da0f |    3.509       0       3       0       3     16     16      0   1259     253       3  16    0da0f a70f     30.270 "
test,1583575601519004160,30," | 30  |   1514       5   1510       0 |   5    0      1486        24 |   4  16    0    0 da0f |    3.479       0       5       0       5     16     16      0   1439      71       3  16    0da0f a70f      9.600 "
test,1583575601520281088,35," | 35  |   1514       5   1510       0 |   5    0      1440        70 |   4  16    0    0 da0f |    3.479       0       5       0       5     16     16      0   1410     100       3  16    0da0f a70f     10.260 "
test,1583575601539147008,40," | 40  |   1514       5   1474      32 |   5    0      1390       116 |   1  46    0    0 e60f |    4.089       0       4       0       4     46     46      0   1344     162       4  46    0e60f a70f     30.330 "
test,1583575601539625984,41," | 41  |   1514       5   1468      32 |   5    0      1484        16 |   1  46    0    0 e60f |    4.089       0       4       0       4     46     46      0   1439      61       4  46    0e60f a70f     30.270 "
test,1583575601539973888,42," | 42  |   1514       5   1475      35 |   5    0      1463        47 |   1  46    0    0 e60f |    4.058       0       4       0       4     46     46      0   1417      93       4  46    0e60f a70f     30.360 "
test,1583575601539796224,44," | 44  |   1514       5   1480      30 |   5    0      1469        41 |   1  46    0    0 e60f |    4.058       0       4       0       4     46     46      0   1426      84       4  46    0e60f a70f     30.390 "
test,1583575601540882944,45," | 45  |   1514       5   1486      24 |   5    0      1453        57 |   2  46    0    0 e60f |    4.821       0       4       0       4     46     46      0   1418      92       5  46    0e60f a70f     30.300 "
test,1583575601524276992,46," | 46  |   1514       5   1472      31 |   4    0      1431        72 |   4  46    0    1 e60f |    3.814       0       4       0       4     46     46      0   1400     103       5  46    1e60f a70f      8.520 "
test,1583575601541224960,47," | 47  |   1514       5   1478      32 |   5    0      1453        57 |   1  46    0    0 e60f |    6.286       0       3       0       3     46     46      0   1415      95       7  46    0e60f a70f     30.360 "
test,1583575601538832896,48," | 48  |   1514       5   1414      29 |   5    0      1398        45 |   1  46    0    0 e60f |    4.089       0       4       0       4     46     46      0   1358      85       4  46    0e60f a70f     30.240 "
test,1583575601515546112,49," | 49  |   1514       5   1504       0 |   4    0      1481        23 |  11  49    0    1 b90f |    1.739       0       4       0       4     49     49      0   1467      37       2  49    1b90f a70f      6.480 "
test,1583575601520102912,51," | 51  |   1514       5   1505       0 |   5    0      1496         9 |   2  61    0    0 380f |    2.716       0       5       0       5     61     61      0   1494      11       2  61    0380f a70f      8.910 "
test,1583575601522347008,52," | 52  |   1514       5   1493      13 |   5    0      1429        77 |   1  16    0    0 da0f |    2.014       0       5       0       5     16     16      0   1399     107       1  16    0da0f a70f      8.940 "
test,1583575601516856832,53," | 53  |   1514       5   1488       0 |   5    0      1410        78 |   1  49    0    0 b90f |    1.983       0       5       0       5     49     49      0   1392      96       1  49    0b90f a70f      8.190 "
test,1583575601536909056,54," | 54  |   1514       5   1506       0 |   1    6      1486        20 |   1  61    7    0 380f |   10.070       0       1       0       1     61     61      0   1455      51      12  61    0380f a70f     30.360 "
test,1583575601517108992,55," | 55  |   1514       5   1493       0 |   5    0      1441        52 |   1  49    0    0 b90f |    2.014       0       5       0       5     49     49      0   1430      63       1  49    0b90f a70f      8.250 "
test,1583575601519468032,56," | 56  |   1514       5   1496       0 |   5    0      1472        24 |   1  61    0    0 380f |    2.014       0       5       0       5     61     61      0   1463      33       1  61    0380f a70f      8.280 "
test,1583575601538029824,57," | 57  |   1514       5   1451       0 |   5    0      1412        39 |   2  61    0    0 380f |    1.983       0       2       0       2     61     61      0   1329     122       1  61    0380f a70f     30.360 "
test,1583575601537519872,58," | 58  |   1514       5   1505       0 |   2    5      1485        20 |   1  61   49    0 380f |    4.058       0       2       0       2     61     61      0   1426      79       4  61    0380f a70f     30.330 "
test,1583575601519694080,5," |  5  |   1514       5   1512       0 |   5    0      1384       128 |   2   7    0    0 270f |    2.716       0       5       0       5      7      7      0   1356     156       2   7    0270f a70f      8.910 "
test,1583575601524460032,60," | 60  |   1514       5   1505       0 |   5    0      1411        94 |   2  61    0    0 380f |    2.777       0       5       0       5     61     61      0   1393     112       2  61    0380f a70f      9.600 "
test,1583575601521794048,61," | 61  |   1514       5   1504       0 |   4    0      1439        65 |   4  61    0    1 380f |    3.814       0       4       0       4     61     61      0   1396     108       5  61    1380f a70f      9.360 "
test,1583575601514926080,7," |  7  |   1514       5   1511       0 |   5    0      1488        23 |   2   7    0    1 270f |    1.739       0       4       0       4      7      7      0   1480      31       2   7    1270f a70f      6.480 "
test,1583575601516280832,9," |  9  |   1514       5   1510       0 |   5    0      1456        54 |   1   7    0    0 270f |    1.983       0       5       0       5      7      7      0   1446      64       1   7    0270f a70f      8.160 "
