test,1583575695770344960,10," | 10  |   1891       5   1863       0 |   4    0      1839        24 |   2  10    0    1 6c0f |    1.739       0       4       0       4     10     10      0   1814      49       2  10    16c0f a70f      6.480 "
test,1583575695769577984,12," | 12  |   1891       5   1889       0 |   5    0      1874        15 |   1  10    0    0 6c0f |    2.807       0       5       0       5     10     10      0   1847      42       2  10    06c0f a70f      8.910 "
test,1583575695767613952,13," | 13  |   1891       5   1887       0 |   5    0      1870        17 |   1  10    0    0 6c0f |    2.075       0       5       0       5     10     10      0   1850      37       1  10    06c0f a70f      8.160 "
test,1583575695774132992,15," | 15  |   1891       4   1889       0 |   4    3      1821        68 |   5  10   19    0 6c0f |    3.540       0       5       0       5     10     10      0   1750     139       3  10    06c0f a70f      9.720 "
test,1583575695771354880,16," | 16  |   1891       5   1887       0 |   5    0      1818        69 |   3  19    0    0  c0f |    2.746       0       5       0       5     19     19      0   1770     117       2  19    0 c0f a70f      8.820 "
test,1583575695769732096,17," | 17  |   1891       5   1886       1 |   5    0      1867        20 |   1  19    0    0  c0f |    1.983       0       5       0       5     19     19      0   1807      80       1  19    0 c0f a70f      8.910 "
test,1583575695772161024,18," | 18  |   1891       5   1886       0 |   5    0      1773       113 |   3  19    0    0  c0f |    2.746       0       5       0       5     19     19      0   1686     200       2  19    0 c0f a70f      8.970 "
test,1583575695768377088,19," | 19  |   1891       5   1885       2 |   5    0      1864        23 |   2  19    0    1  c0f |    1.739       0       4       0       4     19     19      0   1805      82       2  19    1 c0f a70f      7.230 "
test,1583575695769888000,1," |  1  |   1891       4   1888       0 |   5    0      1842        46 |   1  10    0    0 6c0f |    2.716       0       5       0       5     10     10      0   1828      60       1  10    06c0f a70f      8.970 "
test,1583575695775708928,22," | 22  |   1891       5   1885       0 |   5    0      1870        15 |   3  19    0    0  c0f |    2.044       0       5       0       5     19     19      0   1778     107       1  19    0 c0f a70f      8.250 "
test,1583575695770071040,23," | 23  |   1891       5   1829       0 |   4    0      1818        11 |   3  19    0    0  c0f |    1.983       0       5       0       5     19     19      0   1782      47       1  19    0 c0f a70f      8.190 "
test,1583575695770862080,24," | 24  |   1891       5   1887       0 |   5    0      1874        13 |   3  19    0    0  c0f |    2.777       0       5       0       5     19     19      0   1829      58       2  19    0 c0f a70f      8.850 "
test,1583575695767427840,26," | 26  |   1891       5   1887       0 |   5    0      1880         7 |   2  19    0    0  c0f |    2.044       0       5       0       5     19     19      0   1844      43       1  19    0 c0f a70f      8.280 "
test,1583575695791026176,27," | 27  |   1891       5   1889       0 |   5    0      1834        55 |   1  19    0    0  c0f |    2.014       0       4       0       4     19     19      0   1744     145       1  19    0 c0f a70f     30.330 "
test,1583575695776843008,28," | 28  |   1891       5   1887       0 |   4    0      1742       145 |   2  19    0    0  c0f |    2.746       0       5       0       5     19     19      0   1685     202       2  19    0 c0f a70f      9.690 "
test,1583575695779702016,29," | 29  |   1891       4   1885       4 |   3    0      1676       213 |   1  19    0    0  c0f |    2.044       0       5       0       5     19     19      0   1581     308       1  19    0 c0f a70f      8.850 "
test,1583575695767218944,30," | 30  |   1891       5   1887       0 |   5    0      1859        28 |   3  19    0    0  c0f |    2.777       0       5       0       5     19     19      0   1801      86       2  19    0 c0f a70f      8.970 "
test,1583575695775304960,35," | 35  |   1891       5   1887       0 |   5    0      1804        83 |   4  19    0    0  c0f |    2.777       0       5       0       5     19     19      0   1768     119       2  19    0 c0f a70f      8.820 "
test,1583575695771508992,40," | 40  |   1891       5   1851      32 |   5    0      1742       141 |   1  44    0    0  60f |    2.044       0       5       0       5     44     44      0   1697     186       1  44    0 60f a70f      9.600 "
test,1583575695769123072,41," | 41  |   1891       5   1845      32 |   5    0      1859        18 |   2  44    0    0  60f |    2.075       0       5       0       5     44     44      0   1810      67       1  44    0 60f a70f      9.030 "
test,1583575695770534144,42," | 42  |   1891       5   1852      35 |   5    0      1838        49 |   1  44    0    0  60f |    2.075       0       5       0       5     44     44      0   1790      97       1  44    0 60f a70f      8.940 "
test,1583575695768520960,44," | 44  |   1891       5   1857      30 |   4    0      1837        50 |   2  44    0    1  60f |    1.739       0       4       0       4     44     44      0   1790      97       2  44    1 60f a70f      6.510 "
test,1583575695778722048,45," | 45  |   1891       5   1863      24 |   5    0      1822        65 |   1  44    0    0  60f |    2.044       0       5       0       5     44     44      0   1783     104       1  44    0 60f a70f      9.570 "
test,1583575695776424960,46," | 46  |   1891       5   1849      31 |   5    0      1792        88 |   1  44    0    0  60f |    2.075       0       5       0       5     44     44      0   1758     122       1  44    0 60f a70f      8.130 "
test,1583575695768932096,47," | 47  |   1891       4   1855      32 |   5    0      1823        64 |   1  44    0    0  60f |    2.044       0       5       0       5     44     44      0   1777     110       1  44    0 60f a70f      8.310 "
test,1583575695772825856,48," | 48  |   1891       4   1791      29 |   5    0      1768        52 |   1  44    0    0  60f |    2.075       0       5       0       5     44     44      0   1730      90       1  44    0 60f a70f      8.910 "
test,1583575695773895936,49," | 49  |   1891       5   1881       0 |   4    4      1849        32 |   5  49   10    1 510f |    1.739       0       4       0       4     49     49      0   1832      49       2  49    1510f a70f      6.480 "
test,1583575695769353984,51," | 51  |   1891       5   1882       0 |   5    0      1869        13 |   1  10    0    0 6c0f |    2.044       0       5       0       5     10     10      0   1864      18       1  10    06c0f a70f      8.250 "
test,1583575695791429888,52," | 52  |   1891       5   1866      17 |   5    0      1786        97 |   1  19    0    0  c0f |    2.014       0       2       0       2     19     19      0   1749     134       1  19    0 c0f a70f     30.360 "
test,1583575695772346112,53," | 53  |   1891       5   1865       0 |   5    0      1771        94 |   1  49    0    0 510f |    2.014       0       5       0       5     49     49      0   1750     115       1  49    0510f a70f      8.250 "
test,1583575695768201216,54," | 54  |   1891       5   1883       0 |   5    0      1857        26 |   1  10    0    0 6c0f |    2.014       0       5       0       5     10     10      0   1823      60       1  10    06c0f a70f      8.100 "
test,1583575695773282048,55," | 55  |   1891       5   1870       0 |   5    4      1805        65 |   1  49   10    0 510f |    2.044       0       5       0       5     49     49      0   1790      80       1  49    0510f a70f      8.130 "
test,1583575695767859968,56," | 56  |   1891       5   1873       0 |   5    0      1844        29 |   1  10    0    0 6c0f |    2.075       0       5       0       5     10     10      0   1830      43       1  10    06c0f a70f      8.280 "
test,1583575695779355904,57," | 57  |   1891       5   1828       0 |   2    2      1785        43 |   2  10   19    0 6c0f |    3.479       0       5       0       5     10     10      0   1675     153       3  10    06c0f a70f     11.820 "
test,1583575695790461184,58," | 58  |   1891       5   1882       0 |   4    9      1859        23 |   4  10   49    0 6c0f |    7.904       0       4       0       4     10     10      0   1784      98       9  10    06c0f a70f     30.360 "
test,1583575695773745920,5," |  5  |   1891       5   1889       0 |   5    0      1728       161 |   2  10    0    0 6c0f |    2.777       0       5       0       5     10     10      0   1698     191       2  10    06c0f a70f      8.970 "
test,1583575695774539008,60," | 60  |   1891       5   1882       0 |   5    0      1760       122 |   2  10    0    0 6c0f |    2.807       0       5       0       5     10     10      0   1731     151       2  10    06c0f a70f      8.880 "
test,1583575695775106816,61," | 61  |   1891       5   1881       0 |   5    0      1798        83 |   2  10    0    0 6c0f |    2.807       0       5       0       5     10     10      0   1752     129       2  10    06c0f a70f     10.320 "
test,1583575695768722176,7," |  7  |   1891       5   1888       0 |   5    0      1859        29 |   1  10    0    0 6c0f |    2.014       0       5       0       5     10     10      0   1851      37       1  10    06c0f a70f      8.130 "
test,1583575695771655936,9," |  9  |   1891       5   1887       0 |   5    0      1819        68 |   1  10    0    0 6c0f |    2.014       0       5       0       5     10     10      0   1809      78       1  10    06c0f a70f      8.250 "
