test,1583575598517862144,10," | 10  |   1502       5   1474       0 |   5    0      1453        21 |   1   9    0    0  60f |    2.075       0       5       0       5      9      9      0   1435      39       1   9    0 60f a70f      8.160 "
test,1583575598518688000,12," | 12  |   1502       5   1500       0 |   5    0      1490        10 |   2   9    0    0  60f |    2.777       0       5       0       5      9      9      0   1464      36       2   9    0 60f a70f      9.720 "
test,1583575598516221952,13," | 13  |   1502       5   1498       0 |   5    0      1483        15 |   1   9    0    0  60f |    2.044       0       5       0       5      9      9      0   1465      33       1   9    0 60f a70f      8.220 "
test,1583575598525444096,15," | 15  |   1502       5   1500       0 |   2    4      1442        58 |   8  15    9    1 ca0f |    8.117       0       4       0       4     15     15      0   1384     116      11  15    1ca0f a70f     15.630 "
test,1583575598523861760,16," | 16  |   1502       5   1498       0 |   5    0      1445        53 |   3  15    0    0 ca0f |    9.857       0       5       0       5     15     15      0   1403      95      12  15    0ca0f a70f     15.930 "
test,1583575598538278144,17," | 17  |   1502       5   1497       1 |   5    0      1480        18 |   2  15    0    0 ca0f |    9.155       0       4       0       4     15     15      0   1428      70      11  15    0ca0f a70f     30.390 "
test,1583575598538106880,18," | 18  |   1502       5   1497       0 |   5    0      1406        91 |   5  24    0    0 d40f |    2.075       0       3       0       3     24     24      0   1323     174       1  24    0d40f a70f     30.360 "
test,1583575598530700032,19," | 19  |   1502       5   1496       2 |   5    0      1481        17 |   2  15    0    0 ca0f |    9.185       0       5       0       5     15     15      0   1432      66      11  15    0ca0f a70f     18.120 "
test,1583575598516648960,1," |  1  |   1502       4   1499       0 |   5    0      1463        36 |   1   9    0    0  60f |    2.716       0       5       0       5      9      9      0   1453      46       1   9    0 60f a70f      8.940 "
test,1583575598530420992,22," | 22  |   1502       5   1496       0 |   1   11      1484        12 |   5  15   26    0 ca0f |    9.155       0       5       0       5     15     15      0   1399      97      11  15    0ca0f a70f     18.000 "
test,1583575598522493952,23," | 23  |   1502       5   1440       0 |   5    0      1431         9 |   2  15    0    0 ca0f |    9.124       0       5       0       5     15     15      0   1400      40      11  15    0ca0f a70f     15.240 "
test,1583575598536179968,24," | 24  |   1502       5   1498       0 |   2    7      1490         8 |  12  24   26    1 d40f |    1.770       0       1       0       1     24     24      0   1450      48       2  24    1d40f a70f     30.300 "
test,1583575598532908032,26," | 26  |   1502       5   1498       0 |   0    7      1491         7 |   0  26   24    1 590f |    0           0       0       0       8      0      0      0   1458      40       0  26    1590f a70f     30.150 "
test,1583575598524132096,27," | 27  |   1502       5   1500       0 |   5    0      1462        38 |   1  15    0    0 ca0f |    8.453       0       5       0       5     15     15      0   1388     112      10  15    0ca0f a70f     14.460 "
test,1583575598522219776,28," | 28  |   1502       5   1498       0 |   4    0      1379       119 |   3  15    0    0 ca0f |    9.918       0       5       0       5     15     15      0   1333     165      12  15    0ca0f a70f     15.960 "
test,1583575598526756096,29," | 29  |   1502       5   1496       4 |   5    0      1327       173 |   2  15    0    0 ca0f |    9.185       0       5       0       5     15     15      0   1250     250      11  15    0ca0f a70f     17.280 "
test,1583575598521393920,30," | 30  |   1502       5   1498       0 |   5    0      1474        24 |   2  15    0    0 ca0f |    9.124       0       5       0       5     15     15      0   1428      70      11  15    0ca0f a70f     15.240 "
test,1583575598523150848,35," | 35  |   1502       5   1498       0 |   5    0      1429        69 |   3  15    0    0 ca0f |    9.857       0       5       0       5     15     15      0   1400      98      12  15    0ca0f a70f     15.930 "
test,1583575598543816960,40," | 40  |   1502       5   1462      32 |   5    0      1379       115 |   1  24    0    0 d40f |    4.211       0       2       0       2     24     24      0   1333     161       4  24    0d40f a70f     30.390 "
test,1583575598538671104,41," | 41  |   1502       5   1456      32 |   5    0      1472        16 |   2  24    0    0 d40f |    3.540       0       2       0       2     24     24      0   1427      61       3  24    0d40f a70f     30.360 "
test,1583575598538981888,42," | 42  |   1502       5   1463      35 |   5    0      1451        47 |   2  24    0    0 d40f |    3.540       0       2       0       2     24     24      0   1405      93       3  24    0d40f a70f     30.330 "
test,1583575598537928192,44," | 44  |   1502       5   1468      30 |   5    0      1457        41 |   3  24    0    0 d40f |    3.509       0       2       0       2     24     24      0   1414      84       3  24    0d40f a70f     30.390 "
test,1583575598540247808,45," | 45  |   1502       5   1474      24 |   5    0      1441        57 |   3  24    0    0 d40f |    3.540       0       2       0       2     24     24      0   1406      92       3  24    0d40f a70f     30.360 "
test,1583575598539136768,46," | 46  |   1502       5   1460      31 |   5    0      1419        72 |   2  24    0    0 d40f |    4.241       0       2       0       2     24     24      0   1388     103       4  24    0d40f a70f     30.330 "
test,1583575598539856896,47," | 47  |   1502       5   1466      32 |   5    0      1441        57 |   2  24    0    0 d40f |    2.777       0       3       0       3     24     24      0   1403      95       2  24    0d40f a70f     30.360 "
test,1583575598537260032,48," | 48  |   1502       5   1402      29 |   5    0      1387        44 |   2  24    0    0 d40f |    3.540       0       2       0       2     24     24      0   1347      84       3  24    0d40f a70f     30.360 "
test,1583575598535825920,49," | 49  |   1502       5   1492       0 |   0    5      1469        23 |   0  49    9    1 6e0f |    0           0       0       0       8      0      0      0   1455      37       0  49    16e0f a70f     30.210 "
test,1583575598517374976,51," | 51  |   1502       5   1493       0 |   5    0      1484         9 |   2   9    0    0  60f |    2.746       0       5       0       5      9      9      0   1482      11       2   9    0 60f a70f      8.940 "
test,1583575598541254912,52," | 52  |   1502       5   1481      13 |   4    5      1417        77 |   5  15   26    0 ca0f |    9.887       0       4       0       4     15     15      0   1387     107      12  15    0ca0f a70f     30.360 "
test,1583575598535217920,53," | 53  |   1502       5   1476       0 |   1    5      1399        77 |  13   9   49    0  60f |    0           0       0       0       8      0      0      0   1381      95       0   9    0 60f a70f     30.360 "
test,1583575598518066944,54," | 54  |   1502       5   1494       0 |   5    0      1474        20 |   1   9    0    0  60f |    2.075       0       5       0       5      9      9      0   1443      51       1   9    0 60f a70f      8.220 "
test,1583575598534219008,55," | 55  |   1502       5   1481       0 |   0    5      1429        52 |   0  55    9    1 ab0f |    0           0       0       0       8      0      0      0   1418      63       0  55    1ab0f a70f     30.210 "
test,1583575598516839936,56," | 56  |   1502       5   1484       0 |   5    0      1460        24 |   2   9    0    0  60f |    2.807       0       5       0       5      9      9      0   1451      33       2   9    0 60f a70f      8.880 "
test,1583575598539371008,57," | 57  |   1502       5   1439       0 |   1    6      1401        38 |  13   9   15    0  60f |    3.509       0       3       0       3      9      9      0   1319     120       3   9    0 60f a70f     30.270 "
test,1583575598540692992,58," | 58  |   1502       5   1493       0 |   5    0      1473        20 |   3   9    0    0  60f |    2.777       0       4       0       4      9      9      0   1415      78       2   9    0 60f a70f     30.270 "
test,1583575598521922048,5," |  5  |   1502       5   1500       0 |   5    0      1372       128 |   2   9    0    0  60f |    2.807       0       5       0       5      9      9      0   1345     155       2   9    0 60f a70f      8.850 "
test,1583575598538452992,60," | 60  |   1502       5   1493       0 |   5    5      1400        93 |   1  15    9    0 ca0f |    2.044       0       2       0       2     15     15      0   1382     111       1  15    0ca0f a70f     30.330 "
test,1583575598518320128,61," | 61  |   1502       5   1492       0 |   5    0      1427        65 |   3   9    0    0  60f |    2.777       0       5       0       5      9      9      0   1384     108       2   9    0 60f a70f      9.000 "
test,1583575598515977984,7," |  7  |   1502       5   1499       0 |   5    0      1477        22 |   1   9    0    0  60f |    2.044       0       5       0       5      9      9      0   1469      30       1   9    0 60f a70f      8.790 "
test,1583575598515661056,9," |  9  |   1502       5   1498       0 |   4    0      1444        54 |   2   9    0    1  60f |    1.770       0       4       0       4      9      9      0   1434      64       2   9    1 60f a70f      6.510 "
