test,1583575484518028032,10," | 10  |   1046       5   1018       0 |   5    0      1005        13 |   4  42    0    0 190f |    4.943       0       5       0       5     42     42      0    991      27       5  42    0190f a70f     11.070 "
test,1583575484534651904,12," | 12  |   1046       5   1044       0 |   4    8      1038         6 |   5  12    7    1 620f |    8.117       0       2       0       2     12     12      0   1018      26      11  12    1620f a70f     30.300 "
test,1583575484513874944,13," | 13  |   1046       5   1042       0 |   5    0      1030        12 |   1   7    0    0 3b0f |    2.044       0       5       0       5      7      7      0   1019      23       1   7    03b0f a70f      8.250 "
test,1583575484517783040,15," | 15  |   1046       5   1044       0 |   5    0      1007        37 |   4  12    0    0 620f |    2.014       0       5       0       5     12     12      0    970      74       1  12    0620f a70f     10.170 "
test,1583575484517163008,16," | 16  |   1046       5   1042       0 |   5    0      1008        34 |   2  42    0    0 190f |    2.746       0       5       0       5     42     42      0    982      60       2  42    0190f a70f      9.630 "
test,1583575484521036032,17," | 17  |   1046       5   1041       1 |   5    0      1029        13 |   2  42    0    0 190f |    2.746       0       5       0       5     42     42      0    998      44       2  42    0190f a70f      9.690 "
test,1583575484516571904,18," | 18  |   1046       5   1041       0 |   5    0       976        65 |   1  42    0    0 190f |    2.777       0       5       0       5     42     42      0    928     113       2  42    0190f a70f      8.970 "
test,1583575484515578112,19," | 19  |   1046       5   1040       2 |   5    0      1030        12 |   3  42    0    0 190f |    3.479       0       5       0       5     42     42      0    999      43       3  42    0190f a70f      9.510 "
test,1583575484515200000,1," |  1  |   1046       4   1043       0 |   5    0      1024        19 |   1   7    0    0 3b0f |    2.716       0       5       0       5      7      7      0   1017      26       1   7    03b0f a70f      8.940 "
test,1583575484518745856,22," | 22  |   1046       5   1040       0 |   5    0      1030        10 |   1  42    0    0 190f |    1.983       0       5       0       5     42     42      0    981      59       1  42    0190f a70f      8.940 "
test,1583575484514276096,23," | 23  |   1046       5    984       0 |   5    0       978         6 |   2  42    0    0 190f |    2.716       0       5       0       5     42     42      0    961      23       2  42    0190f a70f      8.940 "
test,1583575484513505024,24," | 24  |   1046       5   1042       0 |   5    0      1036         6 |   2  42    0    0 190f |    2.014       0       5       0       5     42     42      0   1010      32       1  42    0190f a70f      8.220 "
test,1583575484519779840,26," | 26  |   1046       5   1042       0 |   5    0      1038         4 |   2  42    0    0 190f |    2.716       0       5       0       5     42     42      0   1018      24       2  42    0190f a70f      8.910 "
test,1583575484516777984,27," | 27  |   1046       5   1044       0 |   5    0      1018        26 |   3  42    0    0 190f |    3.479       0       5       0       5     42     42      0    976      68       3  42    0190f a70f      9.720 "
test,1583575484537072896,28," | 28  |   1046       4   1042       0 |   5    0       959        83 |   2  42    0    0 190f |    3.479       0       4       0       4     42     42      0    930     112       3  42    0190f a70f     30.360 "
test,1583575484536685056,29," | 29  |   1046       4   1040       4 |   3    0       923       121 |   8  42    0    0 190f |    8.605       0       2       0       2     42     42      0    870     174      10  42    0190f a70f     30.300 "
test,1583575484523996160,30," | 30  |   1046       5   1042       0 |   5    0      1027        15 |   2  42    0    0 190f |    2.746       0       5       0       5     42     42      0    994      48       2  42    0190f a70f      9.510 "
test,1583575484522153984,35," | 35  |   1046       5   1042       0 |   5    0       997        45 |   2  42    0    0 190f |    2.746       0       5       0       5     42     42      0    976      66       2  42    0190f a70f      8.940 "
test,1583575484521446912,40," | 40  |   1046       5   1006      32 |   5    0       954        84 |   3  42    0    0 190f |    2.716       0       5       0       5     42     42      0    918     120       2  42    0190f a70f      8.940 "
test,1583575484519556096,41," | 41  |   1046       5   1001      31 |   5    0      1016        16 |   1  42    0    0 190f |    1.983       0       5       0       5     42     42      0    987      45       1  42    0190f a70f      8.940 "
test,1583575484514646016,42," | 42  |   1046       5   1008      34 |   4    0      1002        40 |   3  42    0    1 190f |    1.739       0       4       0       4     42     42      0    974      68       2  42    1190f a70f      7.950 "
test,1583575484521253120,44," | 44  |   1046       5   1013      29 |   5    0      1010        32 |   1  42    0    0 190f |    2.044       0       5       0       5     42     42      0    979      63       1  42    0190f a70f      8.820 "
test,1583575484525047040,45," | 45  |   1046       5   1018      24 |   5    0       996        46 |   1  42    0    0 190f |    2.044       0       5       0       5     42     42      0    970      72       1  42    0190f a70f      9.000 "
test,1583575484524292864,46," | 46  |   1046       5   1005      30 |   5    0       982        53 |   1  42    0    0 190f |    1.953       0       5       0       5     42     42      0    961      74       1  42    0190f a70f      9.660 "
test,1583575484520808960,47," | 47  |   1046       5   1011      31 |   5    0       999        43 |   1  42    0    0 190f |    2.044       0       5       0       5     42     42      0    978      64       1  42    0190f a70f      9.540 "
test,1583575484519144960,48," | 48  |   1046       5    947      28 |   5    0       940        35 |   1  42    0    0 190f |    2.044       0       5       0       5     42     42      0    911      64       1  42    0190f a70f      9.660 "
test,1583575484522341120,49," | 49  |   1046       5   1036       0 |   5    0      1022        14 |   4  42    0    0 190f |    4.211       0       5       0       5     42     42      0   1012      24       4  42    0190f a70f     10.410 "
test,1583575484526437888,51," | 51  |   1046       5   1037       0 |   5    0      1031         6 |   3  42    0    0 190f |    4.241       0       5       0       5     42     42      0   1030       7       4  42    0190f a70f     10.380 "
test,1583575484535000064,52," | 52  |   1046       3   1028      10 |   5    0       983        55 |   3  42    0    0 190f |    2.746       0       4       0       4     42     42      0    964      74       2  42    0190f a70f     30.330 "
test,1583575484523150080,53," | 53  |   1046       5   1020       0 |   5    0       965        55 |   5  42    0    0 190f |    4.943       0       5       0       5     42     42      0    955      65       5  42    0190f a70f     11.010 "
test,1583575484512704000,54," | 54  |   1046       5   1038       0 |   5    0      1022        16 |   1   7    0    0 3b0f |    2.014       0       5       0       5      7      7      0    998      40       1   7    03b0f a70f      8.280 "
test,1583575484520625152,55," | 55  |   1046       5   1025       0 |   5    0       983        42 |   4  42    0    0 190f |    4.211       0       5       0       5     42     42      0    977      48       4  42    0190f a70f     10.380 "
test,1583575484517584128,56," | 56  |   1046       5   1028       0 |   5    0      1009        19 |   3  42    0    0 190f |    3.479       0       5       0       5     42     42      0   1002      26       3  42    0190f a70f      9.720 "
test,1583575484518992896,57," | 57  |   1046       5    983       0 |   5    0       950        33 |   2  42    0    0 190f |    2.746       0       5       0       5     42     42      0    894      89       2  42    0190f a70f      8.970 "
test,1583575484517428992,58," | 58  |   1046       5   1037       0 |   5    0      1020        17 |   3  42    0    0 190f |    3.448       0       5       0       5     42     42      0    984      53       3  42    0190f a70f     10.350 "
test,1583575484515977984,5," |  5  |   1046       5   1044       0 |   4    8       959        85 |   4   7   12    0 3b0f |    2.746       0       5       0       5      7      7      0    938     106       2   7    03b0f a70f      8.820 "
test,1583575484518366208,60," | 60  |   1046       5   1037       0 |   5    0       970        67 |   3  42    0    0 190f |    3.479       0       5       0       5     42     42      0    959      78       3  42    0190f a70f      9.690 "
test,1583575484515394048,61," | 61  |   1046       5   1036       0 |   5    0       990        46 |   3  42    0    0 190f |    3.509       0       5       0       5     42     42      0    959      77       3  42    0190f a70f      9.720 "
test,1583575484513253888,7," |  7  |   1046       5   1043       0 |   4    0      1025        18 |   2   7    0    1 3b0f |    1.739       0       4       0       4      7      7      0   1020      23       2   7    13b0f a70f      6.480 "
test,1583575484512924928,9," |  9  |   1046       5   1042       0 |   5    0      1000        42 |   1   7    0    0 3b0f |    2.044       0       5       0       5      7      7      0    994      48       1   7    03b0f a70f      8.250 "
