test,1583575686523732992,10," | 10  |   1854       5   1826       0 |   3    8      1802        24 |   4  13    9    0 970f |    2.746       0       5       0       5     13     13      0   1777      49       2  13    0970f a70f     11.850 "
test,1583575686521370880,12," | 12  |   1854       5   1852       0 |   5    0      1837        15 |   3  13    0    0 970f |    2.746       0       5       0       5     13     13      0   1810      42       2  13    0970f a70f      9.690 "
test,1583575686522993152,13," | 13  |   1854       5   1850       0 |   4    0      1833        17 |   2  13    0    1 970f |    1.739       0       4       0       4     13     13      0   1813      37       2  13    1970f a70f      9.360 "
test,1583575686522512896,15," | 15  |   1854       5   1852       0 |   5    0      1784        68 |   2  13    0    0 970f |    2.716       0       5       0       5     13     13      0   1713     139       2  13    0970f a70f      8.940 "
test,1583575686518832896,16," | 16  |   1854       5   1850       0 |   5    0      1783        67 |   1  45    0    0 400f |    1.983       0       5       0       5     45     45      0   1735     115       1  45    0400f a70f      8.190 "
test,1583575686518452992,17," | 17  |   1854       5   1849       1 |   5    6      1831        19 |   2  45   13    0 400f |    2.716       0       5       0       5     45     45      0   1772      78       2  45    0400f a70f      8.910 "
test,1583575686529180928,18," | 18  |   1854       5   1849       0 |   5    0      1739       110 |   4  13    0    0 970f |   11.535       0       5       0       5     13     13      0   1653     196      14  13    0970f a70f     17.580 "
test,1583575686540653824,19," | 19  |   1854       5   1848       2 |   4    5      1827        23 |   3  45   13    0 400f |    3.479       0       4       0       4     45     45      0   1770      80       3  45    0400f a70f     30.270 "
test,1583575686539108096,1," |  1  |   1854       4   1851       0 |   4    7      1806        45 |   4  13    9    0 970f |    3.417       0       3       0       3     13     13      0   1792      59       2  13    0970f a70f     30.390 "
test,1583575686531287040,22," | 22  |   1854       5   1848       0 |   5    0      1835        13 |   4  13    0    0 970f |   10.772       0       5       0       5     13     13      0   1741     107      13  13    0970f a70f     16.830 "
test,1583575686519331072,23," | 23  |   1854       5   1792       0 |   5    0      1781        11 |   2  45    0    0 400f |    2.746       0       5       0       5     45     45      0   1745      47       2  45    0400f a70f      8.910 "
test,1583575686532790784,24," | 24  |   1854       5   1850       0 |   5    0      1838        12 |   4  13    0    0 970f |   11.535       0       5       0       5     13     13      0   1794      56      14  13    0970f a70f     17.610 "
test,1583575686532238080,26," | 26  |   1854       5   1850       0 |   5    0      1843         7 |   3  13    0    0 970f |   10.742       0       5       0       5     13     13      0   1807      43      13  13    0970f a70f     16.860 "
test,1583575686538660096,27," | 27  |   1854       5   1852       0 |   1   10      1800        52 |   3  13   45    0 970f |    0           0       0       0       8      0      0      0   1712     140       0  13    0970f a70f     30.360 "
test,1583575686541313024,28," | 28  |   1854       5   1850       0 |   5    2      1709       141 |   1  35   13    0 340f |    2.075       0       4       0       4     35     35      0   1654     196       1  35    0340f a70f     30.300 "
test,1583575686538880000,29," | 29  |   1854       5   1848       4 |   1    2      1641       211 |   4  13   45    0 970f |    0           0       0       0       8      0      0      0   1549     303       0  13    0970f a70f     30.360 "
test,1583575686518136064,30," | 30  |   1854       5   1850       0 |   5    4      1822        28 |   1  35   13    0 340f |    2.075       0       5       0       5     35     35      0   1766      84       1  35    0340f a70f      8.160 "
test,1583575686519176960,35," | 35  |   1854       5   1850       0 |   4    5      1769        81 |   5  35   13    1 340f |    1.739       0       4       0       4     35     35      0   1732     118       2  35    1340f a70f      6.480 "
test,1583575686542896128,40," | 40  |   1854       3   1814      32 |   5    1      1709       137 |   1  48   45    0 d60f |    2.014       0       2       0       2     48     48      0   1664     182       1  48    0d60f a70f     30.390 "
test,1583575686519529216,41," | 41  |   1854       5   1808      32 |   5    6      1822        18 |   1  45   48    0 400f |    2.014       0       5       0       5     45     45      0   1773      67       1  45    0400f a70f      8.100 "
test,1583575686540293888,42," | 42  |   1854       5   1815      35 |   5    1      1802        48 |   1  48   45    0 d60f |    2.044       0       2       0       2     48     48      0   1754      96       1  48    0d60f a70f     30.360 "
test,1583575686541473024,44," | 44  |   1854       5   1820      30 |   5    8      1802        48 |   1  45   48    0 400f |    3.448       0       4       0       4     45     45      0   1756      94       3  45    0400f a70f     30.360 "
test,1583575686519715072,45," | 45  |   1854       5   1826      24 |   4    7      1786        64 |   8  45   48    1 400f |    1.739       0       4       0       4     45     45      0   1747     103       2  45    1400f a70f      6.480 "
test,1583575686542630912,46," | 46  |   1854       5   1812      31 |   5    1      1756        87 |   1  48   45    0 d60f |    2.014       0       1       0       1     48     48      0   1723     120       1  48    0d60f a70f     30.300 "
test,1583575686541940992,47," | 47  |   1854       5   1818      32 |   5    1      1786        64 |   1  48   45    0 d60f |    2.044       0       2       0       2     48     48      0   1740     110       1  48    0d60f a70f     30.330 "
test,1583575686543063040,48," | 48  |   1854       5   1754      29 |   4    1      1731        52 |   8  48   45    1 d60f |    1.770       0       1       0       1     48     48      0   1693      90       2  48    1d60f a70f     30.300 "
test,1583575686517736960,49," | 49  |   1854       5   1844       0 |   5    5      1812        32 |   1  53   13    0 a00f |    2.014       0       5       0       5     53     53      0   1795      49       1  53    0a00f a70f      8.190 "
test,1583575686517991168,51," | 51  |   1854       5   1845       0 |   5    0      1833        12 |   1  13    0    0 970f |    1.983       0       5       0       5     13     13      0   1828      17       1  13    0970f a70f      8.190 "
test,1583575686524556032,52," | 52  |   1854       3   1830      16 |   2    3      1750        96 |   2  45   13    0 400f |    2.746       0       5       0       5     45     45      0   1713     133       2  45    0400f a70f      8.910 "
test,1583575686519916032,53," | 53  |   1854       5   1828       0 |   4    1      1737        91 |   5  53   13    1 a00f |    1.739       0       4       0       4     53     53      0   1716     112       2  53    1a00f a70f      6.480 "
test,1583575686523929088,54," | 54  |   1854       5   1846       0 |   3    7      1820        26 |   4  13    9    0 970f |    3.479       0       5       0       5     13     13      0   1786      60       3  13    0970f a70f     11.760 "
test,1583575686517560064,55," | 55  |   1854       5   1833       0 |   5    5      1769        64 |   1  53   13    0 a00f |    2.044       0       5       0       5     53     53      0   1754      79       1  53    0a00f a70f      8.130 "
test,1583575686521046016,56," | 56  |   1854       5   1836       0 |   5    0      1808        28 |   1  13    0    0 970f |    2.716       0       5       0       5     13     13      0   1793      43       2  13    0970f a70f      8.970 "
test,1583575686522171136,57," | 57  |   1854       5   1791       0 |   4    0      1748        43 |   2  13    0    0 970f |    4.211       0       5       0       5     13     13      0   1639     152       4  13    0970f a70f     11.730 "
test,1583575686521789952,58," | 58  |   1854       5   1845       0 |   5    0      1822        23 |   4  13    0    0 970f |    3.448       0       5       0       5     13     13      0   1749      96       3  13    0970f a70f     11.070 "
test,1583575686527369984,5," |  5  |   1854       5   1852       0 |   5    0      1693       159 |   1  13    0    0 970f |    2.014       0       5       0       5     13     13      0   1663     189       1  13    0970f a70f      8.160 "
test,1583575686524722176,60," | 60  |   1854       5   1845       0 |   5    0      1725       120 |   2  13    0    0 970f |    2.716       0       5       0       5     13     13      0   1697     148       2  13    0970f a70f      8.910 "
test,1583575686520416000,61," | 61  |   1854       5   1844       0 |   5    0      1762        82 |   2  13    0    0 970f |    3.479       0       5       0       5     13     13      0   1716     128       3  13    0970f a70f     10.440 "
test,1583575686541677824,7," |  7  |   1854       5   1851       0 |   4    7      1822        29 |   4  13    9    0 970f |    2.777       0       4       0       4     13     13      0   1814      37       2  13    0970f a70f     30.240 "
test,1583575686543463936,9," |  9  |   1854       5   1850       0 |   0    3      1784        66 |   0   9   13    1 a20f |    0           0       0       0       8      0      0      0   1774      76       0   9    1a20f a70f     30.210 "
