test,1583575686038477056,10," | 10  |   1852       5   1824       0 |   2   14      1800        24 |   1  51   58    0 c20f |    2.044       0       1       0       1     51     51      0   1776      48       1  51    0c20f a70f     30.360 "
test,1583575686021231872,12," | 12  |   1852       5   1850       0 |   5    0      1835        15 |   2  13    0    0 340f |    2.777       0       5       0       5     13     13      0   1808      42       2  13    0340f a70f      9.000 "
test,1583575686022594048,13," | 13  |   1852       5   1848       0 |   4    0      1831        17 |   5  13    0    1 340f |    3.204       0       4       0       4     13     13      0   1811      37       4  13    1340f a70f      7.920 "
test,1583575686020494080,15," | 15  |   1852       5   1850       0 |   5    0      1782        68 |   1  13    0    0 340f |    3.509       0       5       0       5     13     13      0   1711     139       3  13    0340f a70f      9.720 "
test,1583575686021426944,16," | 16  |   1852       5   1848       0 |   5    0      1781        67 |   3  58    0    0 540f |    3.448       0       5       0       5     58     58      0   1733     115       3  58    0540f a70f      9.660 "
test,1583575686023302912,17," | 17  |   1852       5   1847       1 |   4    5      1829        19 |   2  24   19    0 650f |    2.716       0       5       0       5     24     24      0   1770      78       2  24    0650f a70f     11.670 "
test,1583575686018690048,18," | 18  |   1852       5   1847       0 |   3    6      1737       110 |   4  24   19    0 650f |    2.044       0       5       0       5     24     24      0   1651     196       1  24    0650f a70f      8.160 "
test,1583575686038898944,19," | 19  |   1852       5   1846       2 |   0    3      1825        23 |   0  19   24    1 a20f |    0           0       0       0       8      0      0      0   1768      80       0  19    1a20f a70f     30.150 "
test,1583575686019331840,1," |  1  |   1852       4   1849       0 |   5    0      1804        45 |   1  13    0    0 340f |    2.685       0       5       0       5     13     13      0   1790      59       1  13    0340f a70f      8.910 "
test,1583575686021966080,22," | 22  |   1852       5   1846       0 |   4    0      1833        13 |   1  24    0    0 650f |    1.983       0       5       0       5     24     24      0   1739     107       1  24    0650f a70f     10.350 "
test,1583575686024396800,23," | 23  |   1852       5   1790       0 |   5    0      1779        11 |   2  58    0    0 540f |    2.777       0       5       0       5     58     58      0   1743      47       2  58    0540f a70f      8.910 "
test,1583575686018402048,24," | 24  |   1852       5   1848       0 |   4    0      1836        12 |   3  24    0    1 650f |    1.739       0       4       0       4     24     24      0   1792      56       2  24    1650f a70f      6.510 "
test,1583575686020960000,26," | 26  |   1852       5   1848       0 |   5    0      1841         7 |   1  24    0    0 650f |    2.014       0       5       0       5     24     24      0   1805      43       1  24    0650f a70f     11.010 "
test,1583575686041209088,27," | 27  |   1852       5   1850       0 |   4    4      1798        52 |   3  58   19    0 540f |    3.509       0       4       0       4     58     58      0   1711     139       3  58    0540f a70f     30.270 "
test,1583575686038269952,28," | 28  |   1852       5   1848       0 |   0    7      1707       141 |   0  28   24    1 220f |    0           0       0       0       8      0      0      0   1652     196       0  28    1220f a70f     30.150 "
test,1583575686042624000,29," | 29  |   1852       5   1846       4 |   2    4      1639       211 |   6  58   19    0 540f |    5.645       0       2       0       2     58     58      0   1548     302       6  58    0540f a70f     30.360 "
test,1583575686022247168,30," | 30  |   1852       5   1848       0 |   5    0      1820        28 |   2  24    0    0 650f |    2.746       0       5       0       5     24     24      0   1764      84       2  24    0650f a70f      9.600 "
test,1583575686020032768,35," | 35  |   1852       5   1848       0 |   5    0      1767        81 |   2  24    0    0 650f |    2.716       0       5       0       5     24     24      0   1730     118       2  24    0650f a70f      8.850 "
test,1583575686042012928,40," | 40  |   1852       5   1812      32 |   4    0      1707       137 |   2  44    0    0 3e0f |    2.716       0       4       0       4     44     44      0   1662     182       2  44    03e0f a70f     30.360 "
test,1583575686038685184,41," | 41  |   1852       5   1806      32 |   5    0      1820        18 |   1  44    0    0 3e0f |    1.983       0       4       0       4     44     44      0   1771      67       1  44    03e0f a70f     30.360 "
test,1583575686039688960,42," | 42  |   1852       5   1813      35 |   5    0      1800        48 |   1  44    0    0 3e0f |    2.014       0       4       0       4     44     44      0   1752      96       1  44    03e0f a70f     30.360 "
test,1583575686041740800,44," | 44  |   1852       5   1818      30 |   4    0      1800        48 |   2  44    0    1 3e0f |    1.739       0       3       0       3     44     44      0   1754      94       2  44    13e0f a70f     30.300 "
test,1583575686042396928,45," | 45  |   1852       5   1824      24 |   5    0      1784        64 |   1  44    0    0 3e0f |    2.044       0       4       0       4     44     44      0   1745     103       1  44    03e0f a70f     30.240 "
test,1583575686040685824,46," | 46  |   1852       5   1810      31 |   5    0      1754        87 |   1  44    0    0 3e0f |    2.746       0       3       0       3     44     44      0   1721     120       2  44    03e0f a70f     30.300 "
test,1583575686042982144,47," | 47  |   1852       5   1816      32 |   5    0      1784        64 |   1  44    0    0 3e0f |    1.983       0       3       0       3     44     44      0   1738     110       1  44    03e0f a70f     30.360 "
test,1583575686039421184,48," | 48  |   1852       5   1752      29 |   5    0      1729        52 |   1  44    0    0 3e0f |    1.953       0       4       0       4     44     44      0   1691      90       1  44    03e0f a70f     30.360 "
test,1583575686018074112,49," | 49  |   1852       5   1842       0 |   5    0      1810        32 |   1  58    0    0 540f |    2.014       0       5       0       5     58     58      0   1793      49       1  58    0540f a70f      8.250 "
test,1583575686017081856,51," | 51  |   1852       5   1843       0 |   4    0      1831        12 |   2  51    0    1 c20f |    1.739       0       4       0       4     51     51      0   1826      17       2  51    1c20f a70f      6.480 "
test,1583575686026135040,52," | 52  |   1852       2   1828      16 |   2    7      1748        96 |   1  24   19    0 650f |    2.746       0       5       0       5     24     24      0   1711     133       2  24    0650f a70f     11.820 "
test,1583575686020734976,53," | 53  |   1852       5   1826       0 |   5    0      1735        91 |   2  58    0    0 540f |    2.716       0       5       0       5     58     58      0   1714     112       2  58    0540f a70f      8.940 "
test,1583575686039972096,54," | 54  |   1852       5   1844       0 |   5    8      1818        26 |   1  58   13    0 540f |    1.983       0       1       0       1     58     58      0   1784      60       1  58    0540f a70f     30.360 "
test,1583575686017488128,55," | 55  |   1852       5   1831       0 |   5    0      1767        64 |   1  58    0    0 540f |    2.044       0       5       0       5     58     58      0   1752      79       1  58    0540f a70f      8.160 "
test,1583575686022905088,56," | 56  |   1852       5   1834       0 |   5    0      1806        28 |   1  51    0    0 c20f |    2.044       0       5       0       5     51     51      0   1791      43       1  51    0c20f a70f      8.220 "
test,1583575686020242944,57," | 57  |   1852       3   1789       0 |   5    2      1746        43 |   1  58   51    0 540f |    2.044       0       5       0       5     58     58      0   1637     152       1  58    0540f a70f      8.280 "
test,1583575686040467968,58," | 58  |   1852       5   1843       0 |   4    0      1820        23 |  17  58    0    1 540f |    1.739       0       2       0       2     58     58      0   1747      96       2  58    1540f a70f     30.300 "
test,1583575686018999040,5," |  5  |   1852       5   1850       0 |   5    0      1691       159 |   1  13    0    0 340f |    2.075       0       5       0       5     13     13      0   1661     189       1  13    0340f a70f      8.220 "
test,1583575686019665920,60," | 60  |   1852       5   1843       0 |   5    0      1723       120 |   1  51    0    0 c20f |    2.014       0       5       0       5     51     51      0   1695     148       1  51    0c20f a70f      8.250 "
test,1583575686039213824,61," | 61  |   1852       5   1842       0 |   5    0      1760        82 |   1  58    0    0 540f |    2.014       0       3       0       3     58     58      0   1714     128       1  58    0540f a70f     30.390 "
test,1583575686019169024,7," |  7  |   1852       5   1849       0 |   5    0      1821        28 |   1  13    0    0 340f |    2.075       0       5       0       5     13     13      0   1812      37       1  13    0340f a70f      8.130 "
test,1583575686022419968,9," |  9  |   1852       5   1848       0 |   5    0      1783        65 |   1  13    0    0 340f |    2.777       0       5       0       5     13     13      0   1773      75       2  13    0340f a70f      8.910 "
