test,1583575606017065984,10," | 10  |   1532       5   1504       0 |   5    0      1483        21 |   1  56    0    0 e00f |    2.044       0       5       0       5     56     56      0   1463      41       1  56    0e00f a70f      8.280 "
test,1583575606028539904,12," | 12  |   1532       5   1530       0 |   5    0      1519        11 |   3  56    0    0 e00f |    2.746       0       5       0       5     56     56      0   1492      38       2  56    0e00f a70f      9.540 "
test,1583575606018571008,13," | 13  |   1532       5   1528       0 |   5    0      1513        15 |   1  56    0    0 e00f |    1.983       0       5       0       5     56     56      0   1494      34       1  56    0e00f a70f      8.220 "
test,1583575606021338880,15," | 15  |   1532       5   1530       0 |   4    0      1472        58 |   4  56    0    0 e00f |    3.479       0       5       0       5     56     56      0   1412     118       3  56    0e00f a70f     10.350 "
test,1583575606041999104,16," | 16  |   1532       5   1528       0 |   5    7      1474        54 |   1  26   44    0 1a0f |    2.014       0       4       0       4     26     26      0   1432      96       1  26    01a0f a70f     30.270 "
test,1583575606022809856,17," | 17  |   1532       4   1527       1 |   5    5      1510        18 |   1  26   56    0 1a0f |    2.044       0       5       0       5     26     26      0   1458      70       1  26    01a0f a70f      8.850 "
test,1583575606019277056,18," | 18  |   1532       5   1527       0 |   5    5      1434        93 |   1  26   44    0 1a0f |    2.014       0       5       0       5     26     26      0   1351     176       1  26    01a0f a70f      8.940 "
test,1583575606017905920,19," | 19  |   1532       4   1526       2 |   5    3      1511        17 |   1  26   56    0 1a0f |    2.044       0       5       0       5     26     26      0   1462      66       1  26    01a0f a70f      8.970 "
test,1583575606019633920,1," |  1  |   1532       4   1529       0 |   5    0      1491        38 |   2  56    0    0 e00f |    3.448       0       5       0       5     56     56      0   1478      51       2  56    0e00f a70f      9.630 "
test,1583575606040567040,22," | 22  |   1532       5   1526       0 |   5    4      1514        12 |   1  26   56    0 1a0f |    2.746       0       4       0       4     26     26      0   1428      98       2  26    01a0f a70f     30.180 "
test,1583575606022181888,23," | 23  |   1532       5   1470       0 |   5    0      1461         9 |   2  56    0    0 e00f |    7.110       0       5       0       5     56     56      0   1428      42       8  56    0e00f a70f     13.260 "
test,1583575606018145024,24," | 24  |   1532       5   1528       0 |   5    5      1520         8 |   1  26   44    0 1a0f |    2.044       0       5       0       5     26     26      0   1480      48       1  26    01a0f a70f      9.000 "
test,1583575606015960832,26," | 26  |   1532       5   1528       0 |   4    8      1521         7 |   5  26   56    1 1a0f |    1.739       0       4       0       4     26     26      0   1488      40       2  26    11a0f a70f      7.230 "
test,1583575606040889088,27," | 27  |   1532       5   1530       0 |   4    6      1490        40 |   5  56   26    0 e00f |   12.298       0       2       0       2     56     56      0   1416     114      15  56    0e00f a70f     30.300 "
test,1583575606036380928,28," | 28  |   1532       5   1528       0 |   0   10      1405       123 |   0  28   26    1  60f |    0           0       0       0       8      0      0      0   1360     168       0  28    1 60f a70f     30.180 "
test,1583575606037699072,29," | 29  |   1532       3   1526       4 |   0    4      1351       179 |   0  29   26    1 5d0f |    0           0       0       0       8      0      0      0   1274     256       0  29    15d0f a70f     30.180 "
test,1583575606020278016,30," | 30  |   1532       5   1528       0 |   5    0      1504        24 |   3  26    0    0 1a0f |    4.180       0       5       0       5     26     26      0   1457      71       4  26    01a0f a70f     10.380 "
test,1583575606021539840,35," | 35  |   1532       5   1528       0 |   5    0      1458        70 |   2  26    0    0 1a0f |    3.479       0       5       0       5     26     26      0   1428     100       3  26    01a0f a70f      9.630 "
test,1583575606039104000,40," | 40  |   1532       4   1492      32 |   5    0      1407       117 |   1  44    0    0 b80f |    2.777       0       2       0       2     44     44      0   1361     163       2  44    0b80f a70f     30.390 "
test,1583575606037992960,41," | 41  |   1532       5   1486      32 |   5    0      1502        16 |   2  44    0    0 b80f |    2.777       0       2       0       2     44     44      0   1457      61       2  44    0b80f a70f     30.390 "
test,1583575606038430976,42," | 42  |   1532       5   1493      35 |   5    0      1481        47 |   2  44    0    0 b80f |    2.777       0       3       0       3     44     44      0   1435      93       2  44    0b80f a70f     30.360 "
test,1583575606039482112,44," | 44  |   1532       5   1498      30 |   5    0      1487        41 |   2  44    0    1 b80f |    1.739       0       3       0       3     44     44      0   1444      84       2  44    1b80f a70f     30.300 "
test,1583575606040402944,45," | 45  |   1532       5   1504      24 |   5    0      1469        59 |   1  44    0    0 b80f |    2.044       0       4       0       4     44     44      0   1434      94       1  44    0b80f a70f     30.330 "
test,1583575606038713856,46," | 46  |   1532       5   1490      31 |   0   10      1448        73 |   0  46   44    1 ad0f |    0           0       0       0       8      0      0      0   1417     104       0  46    1ad0f a70f     30.240 "
test,1583575606038925056,47," | 47  |   1532       5   1496      32 |   5    0      1471        57 |   1  44    0    0 b80f |    2.075       0       4       0       4     44     44      0   1433      95       1  44    0b80f a70f     30.360 "
test,1583575606036814848,48," | 48  |   1532       5   1432      29 |   5    0      1416        45 |   1  44    0    0 b80f |    2.044       0       2       0       2     44     44      0   1376      85       1  44    0b80f a70f     30.300 "
test,1583575606018771968,49," | 49  |   1532       5   1522       0 |   5    0      1498        24 |   2  56    0    0 e00f |    2.777       0       5       0       5     56     56      0   1484      38       2  56    0e00f a70f      8.910 "
test,1583575606016825088,51," | 51  |   1532       5   1523       0 |   5    0      1514         9 |   1  56    0    0 e00f |    2.044       0       5       0       5     56     56      0   1510      13       1  56    0e00f a70f      8.250 "
test,1583575606019982080,52," | 52  |   1532       5   1510      14 |   5    3      1447        77 |   1  26   56    0 1a0f |    2.075       0       5       0       5     26     26      0   1417     107       1  26    01a0f a70f      8.850 "
test,1583575606021753088,53," | 53  |   1532       5   1506       0 |   5    0      1428        78 |   3  56    0    0 e00f |    3.448       0       5       0       5     56     56      0   1410      96       3  56    0e00f a70f      9.660 "
test,1583575606021091072,54," | 54  |   1532       5   1524       0 |   5    0      1504        20 |   2  56    0    0 e00f |    2.777       0       5       0       5     56     56      0   1473      51       2  56    0e00f a70f      8.850 "
test,1583575606019066112,55," | 55  |   1532       5   1511       0 |   5    0      1459        52 |   2  56    0    0 e00f |    2.777       0       5       0       5     56     56      0   1448      63       2  56    0e00f a70f      8.910 "
test,1583575606017330944,56," | 56  |   1532       5   1514       0 |   4    0      1490        24 |   4  56    0    1 e00f |    1.739       0       4       0       4     56     56      0   1479      35       2  56    1e00f a70f      6.480 "
test,1583575606023503104,57," | 57  |   1532       4   1469       0 |   5    0      1430        39 |   1  56    0    0 e00f |    6.408       0       5       0       5     56     56      0   1344     125       7  56    0e00f a70f     12.600 "
test,1583575606023282176,58," | 58  |   1532       5   1523       0 |   5    0      1503        20 |   1  56    0    0 e00f |    2.014       0       5       0       5     56     56      0   1444      79       1  56    0e00f a70f      9.690 "
test,1583575606024246016,5," |  5  |   1532       5   1530       0 |   5    0      1400       130 |   2  56    0    0 e00f |    2.777       0       5       0       5     56     56      0   1372     158       2  56    0e00f a70f      8.970 "
test,1583575606018385920,60," | 60  |   1532       5   1523       0 |   5    0      1427        96 |   1  56    0    0 e00f |    1.983       0       5       0       5     56     56      0   1407     116       1  56    0e00f a70f      8.940 "
test,1583575606016434944,61," | 61  |   1532       5   1522       0 |   5    0      1457        65 |   1  56    0    0 e00f |    2.014       0       5       0       5     56     56      0   1414     108       1  56    0e00f a70f      8.250 "
test,1583575606024014080,7," |  7  |   1532       5   1529       0 |   5    0      1506        23 |   2  56    0    0 e00f |    2.746       0       5       0       5     56     56      0   1498      31       2  56    0e00f a70f      8.940 "
test,1583575606020500992,9," |  9  |   1532       5   1528       0 |   5    0      1471        57 |   2  56    0    0 e00f |    2.777       0       5       0       5     56     56      0   1461      67       2  56    0e00f a70f      8.970 "
