test,1583575717768368896,10," | 10  |   1979       5   1951       0 |   5    1      1925        26 |   2  10   12    1 7c0f |    1.739       0       4       0       4     10     10      0   1896      55       2  10    17c0f a70f      7.230 "
test,1583575717767966976,12," | 12  |   1979       5   1977       0 |   5    0      1962        15 |   2  12    0    1 d90f |    1.770       0       4       0       4     12     12      0   1932      45       2  12    1d90f a70f      6.510 "
test,1583575717769388800,13," | 13  |   1979       5   1975       0 |   5    0      1958        17 |   1  10    0    0 7c0f |    2.014       0       5       0       5     10     10      0   1936      39       1  10    07c0f a70f      8.280 "
test,1583575717792823040,15," | 15  |   1979       5   1977       0 |   5    0      1907        70 |   1  12    0    0 d90f |    2.014       0       4       0       4     12     12      0   1829     148       1  12    0d90f a70f     30.390 "
test,1583575717775832064,16," | 16  |   1979       5   1975       0 |   2    4      1906        69 |   2  52   41    0 750f |    2.044       0       5       0       5     52     52      0   1858     117       1  52    0750f a70f      9.420 "
test,1583575717780826112,17," | 17  |   1979       5   1974       1 |   5    0      1953        22 |   1  41    0    0 4d0f |    2.014       0       5       0       5     41     41      0   1893      82       1  41    04d0f a70f     14.250 "
test,1583575717775448064,18," | 18  |   1979       5   1974       0 |   4    1      1859       115 |   2  52   45    0 750f |    2.807       0       5       0       5     52     52      0   1771     203       2  52    0750f a70f     10.260 "
test,1583575717779639040,19," | 19  |   1979       5   1973       2 |   4    0      1950        25 |   2  41    0    0 4d0f |    2.746       0       5       0       5     41     41      0   1891      84       2  41    04d0f a70f     15.060 "
test,1583575717788896000,1," |  1  |   1979       4   1976       0 |   5    4      1925        51 |   1  10   12    0 7c0f |    2.685       0       4       0       4     10     10      0   1909      67       1  10    07c0f a70f     30.390 "
test,1583575717773689088,22," | 22  |   1979       5   1973       0 |   4    0      1958        15 |   2  52    0    0 750f |    2.807       0       5       0       5     52     52      0   1862     111       2  52    0750f a70f      9.540 "
test,1583575717770788864,23," | 23  |   1979       5   1917       0 |   5    0      1906        11 |   1  52    0    0 750f |    2.075       0       5       0       5     52     52      0   1870      47       1  52    0750f a70f      8.850 "
test,1583575717771161088,24," | 24  |   1979       5   1975       0 |   5    0      1962        13 |   1  52    0    0 750f |    2.807       0       5       0       5     52     52      0   1917      58       2  52    0750f a70f      9.510 "
test,1583575717774300160,26," | 26  |   1979       5   1975       0 |   5    0      1968         7 |   1  52    0    0 750f |    2.044       0       5       0       5     52     52      0   1932      43       1  52    0750f a70f     10.320 "
test,1583575717772999168,27," | 27  |   1979       5   1977       0 |   1    2      1921        56 |   2  52   41    0 750f |    2.746       0       5       0       5     52     52      0   1828     149       2  52    0750f a70f      9.540 "
test,1583575717777779200,28," | 28  |   1979       4   1975       0 |   4    1      1824       151 |   2  41   52    0 4d0f |    2.746       0       5       0       5     41     41      0   1764     211       2  41    04d0f a70f     15.030 "
test,1583575717794720000,29," | 29  |   1979       4   1973       4 |   3    0      1753       224 |   5  41    0    0 4d0f |    4.943       0       4       0       4     41     41      0   1654     323       5  41    04d0f a70f     30.360 "
test,1583575717772016128,30," | 30  |   1979       5   1975       0 |   5    0      1947        28 |   4  52    0    0 750f |    4.272       0       5       0       5     52     52      0   1886      89       4  52    0750f a70f     10.350 "
test,1583575717773446144,35," | 35  |   1979       5   1975       0 |   5    0      1890        85 |   3  52    0    0 750f |    3.509       0       5       0       5     52     52      0   1852     123       3  52    0750f a70f      9.570 "
test,1583575717791045888,40," | 40  |   1979       5   1939      32 |   4    4      1825       146 |   3  45   41    0 c00f |    2.716       0       4       0       4     45     45      0   1779     192       2  45    0c00f a70f     30.390 "
test,1583575717788625920,41," | 41  |   1979       5   1933      32 |   0    7      1946        19 |   0  41   45    1 4d0f |   12.390       0       2       0       2     41     41      0   1897      68      17  41    14d0f a70f     30.210 "
test,1583575717789246976,42," | 42  |   1979       5   1940      35 |   5    0      1926        49 |   2  45    0    0 c00f |    2.746       0       3       0       3     45     45      0   1876      99       2  45    0c00f a70f     30.360 "
test,1583575717769603072,44," | 44  |   1979       5   1945      30 |   5    0      1925        50 |   1  45    0    0 c00f |    2.044       0       5       0       5     45     45      0   1876      99       1  45    0c00f a70f      8.160 "
test,1583575717772659968,45," | 45  |   1979       5   1951      24 |   4    1      1909        66 |   5  45   41    1 c00f |    1.739       0       4       0       4     45     45      0   1869     106       2  45    1c00f a70f      6.480 "
test,1583575717790553088,46," | 46  |   1979       5   1937      31 |   5    0      1876        92 |   2  45    0    0 c00f |    2.777       0       3       0       3     45     45      0   1839     129       2  45    0c00f a70f     30.300 "
test,1583575717790839808,47," | 47  |   1979       5   1943      32 |   5    0      1908        67 |   2  45    0    0 c00f |    2.716       0       3       0       3     45     45      0   1860     115       2  45    0c00f a70f     30.390 "
test,1583575717770093056,48," | 48  |   1979       5   1879      29 |   5    0      1856        52 |   2  45    0    0 c00f |    2.716       0       5       0       5     45     45      0   1816      92       2  45    0c00f a70f      8.910 "
test,1583575717768918016,49," | 49  |   1979       5   1969       0 |   5    0      1935        34 |   2  49    0    1 7c0f |    1.739       0       4       0       4     49     49      0   1917      52       2  49    17c0f a70f      6.510 "
test,1583575717769789952,51," | 51  |   1979       5   1970       0 |   5    0      1957        13 |   1  10    0    0 7c0f |    2.014       0       5       0       5     10     10      0   1952      18       1  10    07c0f a70f      8.220 "
test,1583575717772449024,52," | 52  |   1979       5   1954      17 |   2    0      1869       102 |   6  52    0    1 750f |    3.814       0       4       0       4     52     52      0   1831     140       5  52    1750f a70f      8.520 "
test,1583575717770551040,53," | 53  |   1979       5   1953       0 |   5    0      1856        97 |   1  49    0    0 7c0f |    1.983       0       5       0       5     49     49      0   1834     119       1  49    07c0f a70f      8.190 "
test,1583575717790107904,54," | 54  |   1979       5   1971       0 |   5    4      1943        28 |   1  10   12    0 7c0f |    2.014       0       4       0       4     10     10      0   1906      65       1  10    07c0f a70f     30.390 "
test,1583575717768745984,55," | 55  |   1979       5   1958       0 |   5    0      1892        66 |   1  49    0    0 7c0f |    1.983       0       5       0       5     49     49      0   1877      81       1  49    07c0f a70f      8.220 "
test,1583575717776370944,56," | 56  |   1979       5   1961       0 |   5    0      1931        30 |   1  10    0    0 7c0f |    2.014       0       5       0       5     10     10      0   1915      46       1  10    07c0f a70f      8.940 "
test,1583575717775116800,57," | 57  |   1979       5   1916       0 |   3    0      1870        46 |   1  52    0    0 750f |    4.241       0       5       0       5     52     52      0   1759     157       4  52    0750f a70f     10.950 "
test,1583575717776088832,58," | 58  |   1979       3   1970       0 |   5    0      1945        25 |   1  49    0    0 7c0f |    2.014       0       5       0       5     49     49      0   1867     103       1  49    07c0f a70f      8.220 "
test,1583575717770953984,5," |  5  |   1979       5   1977       0 |   5    0      1806       171 |   2  10    0    0 7c0f |    2.777       0       5       0       5     10     10      0   1772     205       2  10    07c0f a70f      8.820 "
test,1583575717791627008,60," | 60  |   1979       5   1970       0 |   1    4      1843       127 |   2  52   10    0 750f |    4.943       0       4       0       4     52     52      0   1813     157       5  52    0750f a70f     30.390 "
test,1583575717791228160,61," | 61  |   1979       5   1969       0 |   1    6      1884        85 |   2  52   10    0 750f |    5.004       0       3       0       3     52     52      0   1833     136       5  52    0750f a70f     30.360 "
test,1583575717771828992,7," |  7  |   1979       5   1976       0 |   5    0      1946        30 |   1  12    0    0 d90f |    1.983       0       5       0       5     12     12      0   1936      40       1  12    0d90f a70f      8.070 "
test,1583575717786906112,9," |  9  |   1979       5   1975       0 |   5    4      1904        71 |   1  10   12    0 7c0f |    2.014       0       4       0       4     10     10      0   1893      82       1  10    07c0f a70f     30.270 "
