test,1583575551015089152,10," | 10  |   1312       5   1284       0 |   5    0      1266        18 |   1  58    0    0 bb0f |    2.044       0       5       0       5     58     58      0   1252      32       1  58    0bb0f a70f      8.220 "
test,1583575551015897088,12," | 12  |   1312       5   1310       0 |   5    0      1302         8 |   2  58    0    0 bb0f |    2.716       0       5       0       5     58     58      0   1279      31       2  58    0bb0f a70f      8.820 "
test,1583575551023264000,13," | 13  |   1312       5   1308       0 |   5    0      1293        15 |   2  58    0    0 bb0f |    2.716       0       5       0       5     58     58      0   1279      29       2  58    0bb0f a70f      8.940 "
test,1583575551037946880,15," | 15  |   1312       5   1310       0 |   5    0      1258        52 |   3  58    0    0 bb0f |    3.448       0       4       0       4     58     58      0   1206     104       3  58    0bb0f a70f     30.390 "
test,1583575551021914880,16," | 16  |   1312       5   1308       0 |   5    0      1263        45 |   2  17    0    0 250f |    2.014       0       5       0       5     17     17      0   1228      80       1  17    0250f a70f      8.250 "
test,1583575551016124928,17," | 17  |   1312       5   1307       1 |   4    0      1293        15 |   5  17    0    1 250f |    1.770       0       4       0       4     17     17      0   1248      60       2  17    1250f a70f      6.510 "
test,1583575551038740992,18," | 18  |   1312       5   1307       0 |   1    5      1227        80 |   2  35   17    0 400f |    0           0       0       0       8      0      0      0   1160     147       0  35    0400f a70f     30.360 "
test,1583575551018333952,19," | 19  |   1312       5   1306       2 |   4    0      1294        14 |   1  17    0    0 250f |    2.075       0       5       0       5     17     17      0   1252      56       1  17    0250f a70f      9.030 "
test,1583575551016531968,1," |  1  |   1312       4   1309       0 |   5    0      1280        29 |   2  58    0    0 bb0f |    3.417       0       5       0       5     58     58      0   1272      37       2  58    0bb0f a70f      9.630 "
test,1583575551035634944,22," | 22  |   1312       5   1306       0 |   1    6      1294        12 |   1  35   17    0 400f |    0           0       0       0       8      0      0      0   1223      83       0  35    0400f a70f     30.360 "
test,1583575551017786880,23," | 23  |   1312       5   1250       0 |   5    0      1242         8 |   3  17    0    0 250f |    2.044       0       5       0       5     17     17      0   1219      31       1  17    0250f a70f      8.280 "
test,1583575551021326080,24," | 24  |   1312       5   1308       0 |   5    0      1300         8 |   2  17    0    0 250f |    2.014       0       5       0       5     17     17      0   1266      42       1  17    0250f a70f     10.410 "
test,1583575551017396992,26," | 26  |   1312       5   1308       0 |   5    0      1303         5 |   1  17    0    0 250f |    2.075       0       5       0       5     17     17      0   1276      32       1  17    0250f a70f      9.660 "
test,1583575551021644032,27," | 27  |   1312       5   1310       0 |   5    0      1280        30 |   1  17    0    0 250f |    2.014       0       5       0       5     17     17      0   1218      92       1  17    0250f a70f      8.280 "
test,1583575551038536960,28," | 28  |   1312       5   1308       0 |   1    1      1206       102 |   3  17   35    0 250f |    2.044       0       2       0       2     17     17      0   1169     139       1  17    0250f a70f     30.270 "
test,1583575551039465984,29," | 29  |   1312       5   1306       4 |   3    0      1161       149 |   2  17    0    0 250f |    4.211       0       3       0       3     17     17      0   1095     215       4  17    0250f a70f     30.360 "
test,1583575551020268800,30," | 30  |   1312       5   1308       0 |   5    1      1289        19 |   1  35   17    0 400f |    1.983       0       5       0       5     35     35      0   1250      58       1  35    0400f a70f      8.190 "
test,1583575551014295040,35," | 35  |   1312       5   1308       0 |   4    0      1249        59 |   8  35    0    1 400f |    1.739       0       4       0       4     35     35      0   1223      85       2  35    1400f a70f      6.480 "
test,1583575551038180096,40," | 40  |   1312       5   1272      32 |   2    2      1200       104 |   3  35   17    0 400f |    0           0       0       0       8      0      0      0   1159     145       0  35    0400f a70f     30.390 "
test,1583575551036829952,41," | 41  |   1312       5   1266      32 |   3    1      1282        16 |   3  35   17    0 400f |    0           0       0       0       8      0      0      0   1242      56       0  35    0400f a70f     30.390 "
test,1583575551035382016,42," | 42  |   1312       5   1273      35 |   3    2      1263        45 |   2  35   17    0 400f |    0           0       0       0       8      0      0      0   1226      82       0  35    0400f a70f     30.390 "
test,1583575551036624896,44," | 44  |   1312       5   1278      30 |   2    2      1269        39 |   4  35   17    0 400f |    0           0       0       0       8      0      0      0   1227      81       0  35    0400f a70f     30.390 "
test,1583575551035177984,45," | 45  |   1312       5   1284      24 |   3    1      1254        54 |   3  35   17    0 400f |    0           0       0       0       8      0      0      0   1221      87       0  35    0400f a70f     30.360 "
test,1583575551036247040,46," | 46  |   1312       5   1270      31 |   3    0      1236        65 |   3  35    0    0 400f |    0           0       0       0       8      0      0      0   1207      94       0  35    0400f a70f     30.390 "
test,1583575551037050880,47," | 47  |   1312       5   1276      32 |   3    0      1256        52 |   3  35    0    0 400f |    0           0       0       0       8      0      0      0   1222      86       0  35    0400f a70f     30.390 "
test,1583575551035985920,48," | 48  |   1312       5   1212      29 |   2    0      1202        39 |   2  35    0    0 400f |    0           0       0       0       8      0      0      0   1165      76       0  35    0400f a70f     30.390 "
test,1583575551015322880,49," | 49  |   1312       5   1302       0 |   5    0      1285        17 |   1  58    0    0 bb0f |    2.014       0       5       0       5     58     58      0   1273      29       1  58    0bb0f a70f      8.130 "
test,1583575551016891904,51," | 51  |   1312       5   1303       0 |   5    0      1295         8 |   2  58    0    0 bb0f |    2.746       0       5       0       5     58     58      0   1294       9       2  58    0bb0f a70f      8.970 "
test,1583575551018557952,52," | 52  |   1312       5   1292      12 |   5    0      1235        69 |   2  17    0    0 250f |    2.777       0       5       0       5     17     17      0   1211      93       2  17    0250f a70f      8.970 "
test,1583575551018939904,53," | 53  |   1312       5   1286       0 |   5    0      1218        68 |   2  58    0    0 bb0f |    2.716       0       5       0       5     58     58      0   1205      81       2  58    0bb0f a70f      8.790 "
test,1583575551016335104,54," | 54  |   1312       5   1304       0 |   5    0      1285        19 |   1  58    0    0 bb0f |    1.983       0       5       0       5     58     58      0   1259      45       1  58    0bb0f a70f      8.220 "
test,1583575551014851072,55," | 55  |   1312       5   1291       0 |   5    0      1246        45 |   1  58    0    0 bb0f |    2.014       0       5       0       5     58     58      0   1237      54       1  58    0bb0f a70f      8.220 "
test,1583575551020983808,56," | 56  |   1312       5   1294       0 |   5    0      1273        21 |   1  58    0    0 bb0f |    1.983       0       5       0       5     58     58      0   1265      29       1  58    0bb0f a70f      8.070 "
test,1583575551017102080,57," | 57  |   1312       5   1249       0 |   3    1      1214        35 |   1  58   17    0 bb0f |    2.014       0       5       0       5     58     58      0   1144     105       1  58    0bb0f a70f      9.690 "
test,1583575551019918080,58," | 58  |   1312       5   1303       0 |   4    0      1285        18 |   4  58    0    1 bb0f |    1.739       0       4       0       4     58     58      0   1237      66       2  58    1bb0f a70f      6.480 "
test,1583575551019412992,5," |  5  |   1312       5   1310       0 |   5    0      1196       114 |   3  58    0    0 bb0f |    3.479       0       5       0       5     58     58      0   1173     137       3  58    0bb0f a70f      9.510 "
test,1583575551019753984,60," | 60  |   1312       5   1303       0 |   5    0      1220        83 |   2  58    0    0 bb0f |    3.448       0       5       0       5     58     58      0   1206      97       3  58    0bb0f a70f      9.570 "
test,1583575551020756992,61," | 61  |   1312       5   1302       0 |   5    0      1246        56 |   1  58    0    0 bb0f |    2.014       0       5       0       5     58     58      0   1208      94       1  58    0bb0f a70f      8.220 "
test,1583575551018162944,7," |  7  |   1312       5   1309       0 |   5    0      1289        20 |   2  58    0    0 bb0f |    2.716       0       5       0       5     58     58      0   1284      25       2  58    0bb0f a70f      8.820 "
test,1583575551017977088,9," |  9  |   1312       5   1308       0 |   5    0      1259        49 |   2  58    0    0 bb0f |    2.716       0       5       0       5     58     58      0   1251      57       2  58    0bb0f a70f      8.940 "
