test,1583575714774683904,10," | 10  |   1967       5   1939       0 |   5    0      1913        26 |   2  15    0    0 790f |    3.448       0       5       0       5     15     15      0   1884      55       3  15    0790f a70f      9.690 "
test,1583575714772743936,12," | 12  |   1967       5   1965       0 |   5    0      1950        15 |   1  15    0    0 790f |    1.983       0       5       0       5     15     15      0   1921      44       1  15    0790f a70f      8.220 "
test,1583575714771598080,13," | 13  |   1967       5   1963       0 |   5    0      1946        17 |   1  15    0    0 790f |    2.716       0       5       0       5     15     15      0   1924      39       2  15    0790f a70f      8.940 "
test,1583575714775288064,15," | 15  |   1967       5   1965       0 |   4    0      1895        70 |   4  15    0    1 790f |    1.739       0       4       0       4     15     15      0   1819     146       2  15    1790f a70f      6.510 "
test,1583575714773221120,16," | 16  |   1967       5   1963       0 |   5    0      1894        69 |   2  19    0    0 d20f |    3.479       0       5       0       5     19     19      0   1846     117       3  19    0d20f a70f      9.660 "
test,1583575714772015104,17," | 17  |   1967       5   1962       1 |   5    0      1942        21 |   1  19    0    0 d20f |    1.983       0       5       0       5     19     19      0   1882      81       1  19    0d20f a70f      9.630 "
test,1583575714791339008,18," | 18  |   1967       5   1962       0 |   5    7      1847       115 |   1  22   19    0 c40f |    2.075       0       2       0       2     22     22      0   1759     203       1  22    0c40f a70f     30.360 "
test,1583575714769762048,19," | 19  |   1967       5   1961       2 |   5    0      1938        25 |   2  19    0    1 d20f |    1.739       0       4       0       4     19     19      0   1879      84       2  19    1d20f a70f      6.510 "
test,1583575714773030144,1," |  1  |   1967       4   1964       0 |   5    0      1913        51 |   2  15    0    0 790f |    3.417       0       5       0       5     15     15      0   1897      67       2  15    0790f a70f      9.630 "
test,1583575714792564992,22," | 22  |   1967       5   1961       0 |   4    9      1946        15 |   5  22   46    1 c40f |    1.770       0       1       0       1     22     22      0   1850     111       2  22    1c40f a70f     30.300 "
test,1583575714774487040,23," | 23  |   1967       5   1905       0 |   5    0      1894        11 |   1  19    0    0 d20f |    2.746       0       5       0       5     19     19      0   1858      47       2  19    0d20f a70f      8.910 "
test,1583575714772502784,24," | 24  |   1967       5   1963       0 |   5    0      1950        13 |   2  19    0    0 d20f |    3.479       0       5       0       5     19     19      0   1905      58       3  19    0d20f a70f      9.720 "
test,1583575714775474944,26," | 26  |   1967       5   1963       0 |   5    0      1956         7 |   1  19    0    0 d20f |    2.716       0       5       0       5     19     19      0   1920      43       2  19    0d20f a70f      8.940 "
test,1583575714775799040,27," | 27  |   1967       5   1965       0 |   5    0      1910        55 |   1  19    0    0 d20f |    2.014       0       5       0       5     19     19      0   1819     146       1  19    0d20f a70f      9.660 "
test,1583575714792290048,28," | 28  |   1967       5   1963       0 |   5    0      1814       149 |   2  19    0    0 d20f |    2.777       0       4       0       4     19     19      0   1754     209       2  19    0d20f a70f     30.300 "
test,1583575714774311936,29," | 29  |   1967       5   1961       4 |   5    0      1743       222 |   2  19    0    0 d20f |    1.983       0       5       0       5     19     19      0   1646     319       1  19    0d20f a70f     10.350 "
test,1583575714771425024,30," | 30  |   1967       5   1963       0 |   5    1      1935        28 |   1  22   19    0 c40f |    2.777       0       5       0       5     22     22      0   1874      89       2  22    0c40f a70f      8.910 "
test,1583575714769970944,35," | 35  |   1967       5   1963       0 |   5    0      1878        85 |   1  22    0    0 c40f |    2.044       0       5       0       5     22     22      0   1840     123       1  22    0c40f a70f      8.160 "
test,1583575714790100992,40," | 40  |   1967       5   1927      32 |   0    7      1813       146 |   0  40   46    1 4d0f |    0           0       0       0       8      0      0      0   1767     192       0  40    14d0f a70f     30.180 "
test,1583575714773778944,41," | 41  |   1967       5   1921      32 |   5    0      1935        18 |   1  46    0    0  c0f |    2.044       0       5       0       5     46     46      0   1885      68       1  46    0 c0f a70f      9.540 "
test,1583575714770149120,42," | 42  |   1967       5   1928      35 |   5    0      1914        49 |   1  46    0    0  c0f |    2.014       0       5       0       5     46     46      0   1864      99       1  46    0 c0f a70f      8.940 "
test,1583575714769478144,44," | 44  |   1967       5   1933      30 |   5    0      1913        50 |   3  46    0    0  c0f |    1.983       0       5       0       5     46     46      0   1865      98       1  46    0 c0f a70f      8.250 "
test,1583575714771004928,45," | 45  |   1967       5   1939      24 |   5    0      1897        66 |   2  46    0    0  c0f |    2.777       0       5       0       5     46     46      0   1857     106       2  46    0 c0f a70f      8.820 "
test,1583575714770565888,46," | 46  |   1967       5   1925      31 |   5    0      1865        91 |   5  46    0    1  c0f |    1.770       0       4       0       4     46     46      0   1828     128       2  46    1 c0f a70f      6.510 "
test,1583575714771131904,47," | 47  |   1967       5   1931      32 |   5    0      1896        67 |   2  46    0    0  c0f |    2.716       0       5       0       5     46     46      0   1849     114       2  46    0 c0f a70f      8.940 "
test,1583575714789561088,48," | 48  |   1967       5   1867      29 |   5    0      1844        52 |   4  46    0    0  c0f |    2.746       0       4       0       4     46     46      0   1804      92       2  46    0 c0f a70f     30.360 "
test,1583575714769184000,49," | 49  |   1967       5   1957       0 |   5    0      1923        34 |   1  55    0    0 420f |    1.983       0       5       0       5     55     55      0   1905      52       1  55    0420f a70f      8.220 "
test,1583575714788918016,51," | 51  |   1967       5   1958       0 |   5    0      1945        13 |   4  15    0    0 790f |    3.479       0       4       0       4     15     15      0   1940      18       3  15    0790f a70f     30.300 "
test,1583575714791902976,52," | 52  |   1967       5   1942      17 |   5    0      1858       101 |   2  19    0    0 d20f |    2.014       0       3       0       3     19     19      0   1820     139       1  19    0d20f a70f     30.360 "
test,1583575714768867072,53," | 53  |   1967       5   1941       0 |   5    0      1844        97 |   1  55    0    0 420f |    1.983       0       5       0       5     55     55      0   1822     119       1  55    0420f a70f      8.130 "
test,1583575714774002944,54," | 54  |   1967       5   1959       0 |   5    0      1932        27 |   2  15    0    0 790f |    3.479       0       5       0       5     15     15      0   1895      64       3  15    0790f a70f      9.570 "
test,1583575714768102912,55," | 55  |   1967       5   1946       0 |   5    0      1880        66 |   2  55    0    1 420f |    1.739       0       4       0       4     55     55      0   1865      81       2  55    1420f a70f      6.480 "
test,1583575714786597888,56," | 56  |   1967       5   1949       0 |   0    9      1919        30 |   0  56   15    1 ab0f |    0           0       0       0       8      0      0      0   1904      45       0  56    1ab0f a70f     30.240 "
test,1583575714778808064,57," | 57  |   1967       5   1904       0 |   4    7      1858        46 |   4  19   56    0 d20f |    3.448       0       5       0       5     19     19      0   1747     157       3  19    0d20f a70f      9.630 "
test,1583575714773512960,58," | 58  |   1967       5   1958       0 |   5    0      1933        25 |   1  55    0    0 420f |    1.983       0       5       0       5     55     55      0   1855     103       1  55    0420f a70f      8.220 "
test,1583575714777451008,5," |  5  |   1967       5   1965       0 |   5    0      1795       170 |   1  15    0    0 790f |    2.014       0       5       0       5     15     15      0   1763     202       1  15    0790f a70f      8.250 "
test,1583575714791717888,60," | 60  |   1967       5   1958       0 |   5    0      1831       127 |   1  15    0    0 790f |    3.448       0       4       0       4     15     15      0   1801     157       3  15    0790f a70f     30.330 "
test,1583575714774947840,61," | 61  |   1967       5   1957       0 |   3    5      1873        84 |   4  55   56    0 420f |    2.746       0       5       0       5     55     55      0   1822     135       2  55    0420f a70f      8.850 "
test,1583575714772248064,7," |  7  |   1967       5   1964       0 |   5    0      1934        30 |   2  15    0    0 790f |    2.716       0       5       0       5     15     15      0   1925      39       2  15    0790f a70f      8.910 "
test,1583575714776999936,9," |  9  |   1967       5   1963       0 |   5    0      1892        71 |   2  15    0    0 790f |    2.777       0       5       0       5     15     15      0   1881      82       2  15    0790f a70f      8.910 "
