test,1583575686770812160,10," | 10  |   1855       5   1827       0 |   1    0      1803        24 |  12  10    0    1 650f |    1.739       0       4       0       4     10     10      0   1778      49       2  10    1650f a70f      6.510 "
test,1583575686769404928,12," | 12  |   1855       5   1853       0 |   5    0      1838        15 |   1  10    0    0 650f |    2.075       0       5       0       5     10     10      0   1811      42       1  10    0650f a70f      8.940 "
test,1583575686768034048,13," | 13  |   1855       5   1851       0 |   5    0      1834        17 |   1  10    0    0 650f |    2.044       0       5       0       5     10     10      0   1814      37       1  10    0650f a70f      8.220 "
test,1583575686774327040,15," | 15  |   1855       5   1853       0 |   5    0      1785        68 |   2  10    0    0 650f |    2.777       0       5       0       5     10     10      0   1714     139       2  10    0650f a70f      9.750 "
test,1583575686770606080,16," | 16  |   1855       5   1851       0 |   5    0      1784        67 |   2  19    0    0 600f |    3.540       0       5       0       5     19     19      0   1736     115       3  19    0600f a70f      9.720 "
test,1583575686767854848,17," | 17  |   1855       5   1850       1 |   5    0      1832        19 |   1  19    0    0 600f |    2.014       0       5       0       5     19     19      0   1773      78       1  19    0600f a70f      8.250 "
test,1583575686765541120,18," | 18  |   1855       5   1850       0 |   5    0      1740       110 |   2  19    0    0 600f |    2.807       0       5       0       5     19     19      0   1654     196       2  19    0600f a70f      9.660 "
test,1583575686778589952,19," | 19  |   1855       5   1849       2 |   4    0      1828        23 |   2  19    0    1 600f |    1.739       0       4       0       4     19     19      0   1771      80       2  19    1600f a70f      7.950 "
test,1583575686772134912,1," |  1  |   1855       4   1852       0 |   5    0      1807        45 |   1  10    0    0 650f |    2.716       0       5       0       5     10     10      0   1793      59       1  10    0650f a70f      8.940 "
test,1583575686764699904,22," | 22  |   1855       5   1849       0 |   4    0      1836        13 |   2  19    0    0 600f |    2.777       0       5       0       5     19     19      0   1742     107       2  19    0600f a70f      8.940 "
test,1583575686770996992,23," | 23  |   1855       5   1793       0 |   5    0      1782        11 |   1  19    0    0 600f |    2.777       0       5       0       5     19     19      0   1746      47       2  19    0600f a70f      9.540 "
test,1583575686770077952,24," | 24  |   1855       5   1851       0 |   5    0      1839        12 |   2  19    0    0 600f |    2.777       0       5       0       5     19     19      0   1795      56       2  19    0600f a70f      8.850 "
test,1583575686767410944,26," | 26  |   1855       5   1851       0 |   5    0      1844         7 |   1  19    0    0 600f |    2.075       0       5       0       5     19     19      0   1808      43       1  19    0600f a70f      8.310 "
test,1583575686776905984,27," | 27  |   1855       5   1853       0 |   5    0      1801        52 |   1  19    0    0 600f |    2.746       0       5       0       5     19     19      0   1713     140       2  19    0600f a70f      8.790 "
test,1583575686776165888,28," | 28  |   1855       5   1851       0 |   3    0      1710       141 |   6  35    0    0 200f |    2.014       0       5       0       5     35     35      0   1655     196       1  35    0200f a70f      8.850 "
test,1583575686791641856,29," | 29  |   1855       4   1849       4 |   4    0      1642       211 |   1  19    0    0 600f |    3.540       0       3       0       3     19     19      0   1550     303       3  19    0600f a70f     30.360 "
test,1583575686768944128,30," | 30  |   1855       5   1851       0 |   5    0      1823        28 |   1  35    0    0 200f |    2.044       0       5       0       5     35     35      0   1767      84       1  35    0200f a70f      8.100 "
test,1583575686767602944,35," | 35  |   1855       5   1851       0 |   4    0      1770        81 |   2  35    0    1 200f |    1.739       0       4       0       4     35     35      0   1733     118       2  35    1200f a70f      6.510 "
test,1583575686774138880,40," | 40  |   1855       5   1815      32 |   5    0      1710       137 |   2  42    0    0 cc0f |    2.014       0       5       0       5     42     42      0   1665     182       1  42    0cc0f a70f      9.000 "
test,1583575686769871872,41," | 41  |   1855       5   1809      32 |   5    0      1823        18 |   1  42    0    0 cc0f |    2.044       0       5       0       5     42     42      0   1774      67       1  42    0cc0f a70f      8.280 "
test,1583575686771565824,42," | 42  |   1855       5   1816      35 |   4    0      1803        48 |   4  42    0    1 cc0f |    1.739       0       4       0       4     42     42      0   1755      96       2  42    1cc0f a70f      6.510 "
test,1583575686778791936,44," | 44  |   1855       5   1821      30 |   5    0      1803        48 |   1  42    0    0 cc0f |    2.044       0       5       0       5     42     42      0   1757      94       1  42    0cc0f a70f      8.220 "
test,1583575686769568000,45," | 45  |   1855       5   1827      24 |   5    0      1787        64 |   1  42    0    0 cc0f |    2.044       0       5       0       5     42     42      0   1748     103       1  42    0cc0f a70f      8.100 "
test,1583575686774832128,46," | 46  |   1855       5   1813      31 |   5    0      1757        87 |   1  42    0    0 cc0f |    2.044       0       5       0       5     42     42      0   1724     120       1  42    0cc0f a70f      8.160 "
test,1583575686773782016,47," | 47  |   1855       5   1819      32 |   5    0      1787        64 |   1  42    0    0 cc0f |    2.014       0       5       0       5     42     42      0   1741     110       1  42    0cc0f a70f      8.100 "
test,1583575686763664896,48," | 48  |   1855       5   1755      29 |   5    0      1732        52 |   1  42    0    0 cc0f |    2.014       0       5       0       5     42     42      0   1694      90       1  42    0cc0f a70f      8.250 "
test,1583575686769097984,49," | 49  |   1855       5   1845       0 |   5    2      1813        32 |   1  53   19    0 e80f |    2.014       0       5       0       5     53     53      0   1796      49       1  53    0e80f a70f      8.280 "
test,1583575686773454848,51," | 51  |   1855       5   1846       0 |   5    0      1834        12 |   4  19    0    0 600f |    4.211       0       5       0       5     19     19      0   1829      17       4  19    0600f a70f     10.230 "
test,1583575686771808000,52," | 52  |   1855       4   1831      16 |   3    0      1751        96 |   1  19    0    0 600f |    2.777       0       5       0       5     19     19      0   1714     133       2  19    0600f a70f      9.000 "
test,1583575686769236992,53," | 53  |   1855       5   1829       0 |   4    0      1738        91 |   5  53    0    1 e80f |    1.739       0       4       0       4     53     53      0   1717     112       2  53    1e80f a70f      6.480 "
test,1583575686773617152,54," | 54  |   1855       5   1847       0 |   5    0      1821        26 |   1  10    0    0 650f |    2.014       0       5       0       5     10     10      0   1787      60       1  10    0650f a70f      8.250 "
test,1583575686768292864,55," | 55  |   1855       5   1834       0 |   5    2      1770        64 |   1  53   19    0 e80f |    2.075       0       5       0       5     53     53      0   1755      79       1  53    0e80f a70f      8.190 "
test,1583575686770395136,56," | 56  |   1855       5   1837       0 |   5    0      1809        28 |   3  19    0    0 600f |    3.509       0       5       0       5     19     19      0   1794      43       3  19    0600f a70f      9.600 "
test,1583575686791328000,57," | 57  |   1855       5   1792       0 |   3    0      1749        43 |   2  19    0    0 600f |    2.777       0       4       0       4     19     19      0   1640     152       2  19    0600f a70f     30.330 "
test,1583575686791113984,58," | 58  |   1855       5   1846       0 |   2    3      1823        23 |   4  19   53    0 600f |    3.509       0       2       0       2     19     19      0   1750      96       3  19    0600f a70f     30.330 "
test,1583575686772922112,5," |  5  |   1855       5   1853       0 |   5    0      1694       159 |   2  10    0    0 650f |    2.807       0       5       0       5     10     10      0   1664     189       2  10    0650f a70f      9.000 "
test,1583575686773172992,60," | 60  |   1855       5   1846       0 |   5    0      1726       120 |   3  19    0    0 600f |    3.509       0       5       0       5     19     19      0   1698     148       3  19    0600f a70f      9.660 "
test,1583575686790854912,61," | 61  |   1855       5   1845       0 |   2    2      1763        82 |   3  19   10    0 600f |    3.540       0       2       0       2     19     19      0   1717     128       3  19    0600f a70f     30.330 "
test,1583575686784680960,7," |  7  |   1855       5   1852       0 |   5    0      1823        29 |   1  10    0    0 650f |    2.044       0       5       0       5     10     10      0   1815      37       1  10    0650f a70f      8.190 "
test,1583575686765804032,9," |  9  |   1855       5   1851       0 |   5    0      1785        66 |   1  10    0    0 650f |    2.075       0       5       0       5     10     10      0   1775      76       1  10    0650f a70f      8.310 "
