test,1583575530264328960,10," | 10  |   1229       5   1201       0 |   5    0      1184        17 |   1  13    0    0 b90f |    2.044       0       5       0       5     13     13      0   1171      30       1  13    0b90f a70f      8.250 "
test,1583575530270006016,12," | 12  |   1229       5   1227       0 |   5    0      1219         8 |   1  13    0    0 b90f |    2.044       0       5       0       5     13     13      0   1197      30       1  13    0b90f a70f      8.970 "
test,1583575530263845888,13," | 13  |   1229       5   1225       0 |   4    0      1212        13 |   3  13    0    1 b90f |    1.739       0       4       0       4     13     13      0   1199      26       2  13    1b90f a70f      6.480 "
test,1583575530274190848,15," | 15  |   1229       5   1227       0 |   4    1      1180        47 |   1  13   19    0 b90f |    2.777       0       5       0       5     13     13      0   1131      96       2  13    0b90f a70f      8.970 "
test,1583575530270200064,16," | 16  |   1229       5   1225       0 |   4    8      1182        43 |   5  44   19    0 eb0f |    4.211       0       5       0       5     44     44      0   1151      74       4  44    0eb0f a70f     11.850 "
test,1583575530277024000,17," | 17  |   1229       5   1224       1 |   5    0      1210        15 |   3  44    0    0 eb0f |    4.943       0       5       0       5     44     44      0   1170      55       5  44    0eb0f a70f     10.950 "
test,1583575530288417024,18," | 18  |   1229       5   1224       0 |   4    7      1147        77 |   1  19   44    0 b80f |    1.983       0       2       0       2     19     19      0   1084     140       1  19    0b80f a70f     30.330 "
test,1583575530289832960,19," | 19  |   1229       4   1223       2 |   4   10      1211        14 |   5  19   44    1 b80f |   12.451       0       1       0       1     19     19      0   1171      54      17  19    1b80f a70f     30.180 "
test,1583575530267911936,1," |  1  |   1229       4   1226       0 |   5    0      1201        25 |   1  13    0    0 b90f |    2.716       0       5       0       5     13     13      0   1193      33       1  13    0b90f a70f      8.850 "
test,1583575530279952128,22," | 22  |   1229       5   1223       0 |   4    6      1211        12 |   3  44   19    0 eb0f |    4.943       0       5       0       5     44     44      0   1147      76       5  44    0eb0f a70f     11.100 "
test,1583575530285975808,23," | 23  |   1229       5   1167       0 |   5    9      1159         8 |   2  19   13    0 b80f |   12.695       0       1       0       1     19     19      0   1136      31      16  19    0b80f a70f     30.300 "
test,1583575530270930944,24," | 24  |   1229       5   1225       0 |   5    0      1217         8 |   1  44    0    0 eb0f |    3.479       0       5       0       5     44     44      0   1185      40       3  44    0eb0f a70f      9.570 "
test,1583575530268392960,26," | 26  |   1229       5   1225       0 |   5    0      1220         5 |   2  44    0    0 eb0f |    4.211       0       5       0       5     44     44      0   1196      29       4  44    0eb0f a70f     10.380 "
test,1583575530269828096,27," | 27  |   1229       5   1227       0 |   5    3      1197        30 |   1  19   44    0 b80f |    2.014       0       5       0       5     19     19      0   1142      85       1  19    0b80f a70f     10.770 "
test,1583575530274851072,28," | 28  |   1229       5   1225       0 |   4    0      1127        98 |   4  28    0    1 e00f |    7.415       0       4       0       4     28     28      0   1095     130      10  28    1e00f a70f     12.780 "
test,1583575530276567808,29," | 29  |   1229       5   1223       4 |   5    0      1086       141 |   1  19    0    0 b80f |    2.746       0       5       0       5     19     19      0   1026     201       2  19    0b80f a70f     12.930 "
test,1583575530271604992,30," | 30  |   1229       5   1225       0 |   5    0      1208        17 |   1  28    0    0 e00f |    6.286       0       5       0       5     28     28      0   1171      54       7  28    0e00f a70f     12.420 "
test,1583575530278503936,35," | 35  |   1229       5   1225       0 |   5    0      1169        56 |   2  28    0    0 e00f |    7.019       0       5       0       5     28     28      0   1144      81       8  28    0e00f a70f     13.170 "
test,1583575530273520896,40," | 40  |   1229       5   1189      32 |   4    0      1121       100 |   1  44    0    0 eb0f |    1.983       0       5       0       5     44     44      0   1083     138       1  44    0eb0f a70f      8.820 "
test,1583575530270558976,41," | 41  |   1229       5   1183      32 |   5    0      1199        16 |   1  44    0    0 eb0f |    1.983       0       5       0       5     44     44      0   1165      50       1  44    0eb0f a70f      9.660 "
test,1583575530266611200,42," | 42  |   1229       5   1190      35 |   5    0      1180        45 |   1  44    0    0 eb0f |    1.983       0       5       0       5     44     44      0   1147      78       1  44    0eb0f a70f      8.910 "
test,1583575530267534848,44," | 44  |   1229       5   1195      30 |   5    0      1188        37 |   2  44    0    1 eb0f |    1.739       0       4       0       4     44     44      0   1152      73       2  44    1eb0f a70f      6.480 "
test,1583575530267748096,45," | 45  |   1229       5   1201      24 |   5    0      1173        52 |   1  44    0    0 eb0f |    1.983       0       5       0       5     44     44      0   1145      80       1  44    0eb0f a70f      8.040 "
test,1583575530269607168,46," | 46  |   1229       5   1187      31 |   5    0      1157        61 |   1  44    0    0 eb0f |    2.014       0       5       0       5     44     44      0   1133      85       1  44    0eb0f a70f     10.410 "
test,1583575530271137024,47," | 47  |   1229       5   1193      32 |   5    0      1174        51 |   1  44    0    0 eb0f |    2.014       0       5       0       5     44     44      0   1147      78       1  44    0eb0f a70f      9.660 "
test,1583575530268770816,48," | 48  |   1229       5   1129      29 |   4    0      1121        37 |   1  44    0    0 eb0f |    2.014       0       5       0       5     44     44      0   1087      71       1  44    0eb0f a70f      8.940 "
test,1583575530266158080,49," | 49  |   1229       5   1219       0 |   5    0      1203        16 |   1  55    0    0 920f |    1.983       0       5       0       5     55     55      0   1191      28       1  55    0920f a70f      8.100 "
test,1583575530264979968,51," | 51  |   1229       5   1220       0 |   5    0      1213         7 |   1  13    0    0 b90f |    2.044       0       5       0       5     13     13      0   1211       9       1  13    0b90f a70f      8.100 "
test,1583575530287190016,52," | 52  |   1229       5   1209      12 |   5    9      1159        62 |   1  19   44    0 b80f |   12.695       0       1       0       1     19     19      0   1137      84      16  19    0b80f a70f     30.360 "
test,1583575530265170944,53," | 53  |   1229       5   1203       0 |   5    0      1141        62 |   1  55    0    0 920f |    1.983       0       5       0       5     55     55      0   1128      75       1  55    0920f a70f      8.190 "
test,1583575530287367168,54," | 54  |   1229       5   1221       0 |   5    0      1202        19 |   2  13    0    0 b90f |    2.746       0       4       0       4     13     13      0   1176      45       2  13    0b90f a70f     30.390 "
test,1583575530265347072,55," | 55  |   1229       5   1208       0 |   4    0      1163        45 |   5  55    0    1 920f |    1.739       0       4       0       4     55     55      0   1154      54       2  55    1920f a70f      6.480 "
test,1583575530268142848,56," | 56  |   1229       5   1211       0 |   5    0      1191        20 |   2  13    0    0 b90f |    2.777       0       5       0       5     13     13      0   1183      28       2  13    0b90f a70f      8.910 "
test,1583575530289114880,57," | 57  |   1229       5   1166       0 |   2    9      1131        35 |   3  13   55    0 b90f |    3.479       0       1       0       1     13     13      0   1066     100       3  13    0b90f a70f     30.390 "
test,1583575530288167936,58," | 58  |   1229       5   1220       0 |   5    9      1203        17 |   1  55   61    0 920f |    2.746       0       3       0       3     55     55      0   1158      62       2  55    0920f a70f     30.390 "
test,1583575530267261952,5," |  5  |   1229       5   1227       0 |   5    0      1121       106 |   1  13    0    0 b90f |    2.044       0       5       0       5     13     13      0   1098     129       1  13    0b90f a70f      8.190 "
test,1583575530269185024,60," | 60  |   1229       5   1220       0 |   5    0      1141        79 |   2  13    0    0 b90f |    2.716       0       5       0       5     13     13      0   1128      92       2  13    0b90f a70f      8.970 "
test,1583575530286263040,61," | 61  |   1229       5   1219       0 |   0    9      1164        55 |   0  61   55    1 a70f |    0           0       0       0       8      0      0      0   1129      90       0  61    1a70f a70f     30.180 "
test,1583575530265903104,7," |  7  |   1229       5   1226       0 |   5    0      1206        20 |   1  13    0    0 b90f |    2.014       0       5       0       5     13     13      0   1201      25       1  13    0b90f a70f      8.250 "
test,1583575530267098880,9," |  9  |   1229       5   1225       0 |   5    0      1180        45 |   1  13    0    0 b90f |    1.983       0       5       0       5     13     13      0   1173      52       1  13    0b90f a70f      8.220 "
