test,1583575592015175936,10," | 10  |   1476       5   1448       0 |   5    0      1427        21 |   2   1    0    0 220f |    1.373       0       5       0       5      1      1      0   1409      39       1   1    0220f a70f      7.590 "
test,1583575592016952064,12," | 12  |   1476       5   1474       0 |   5    0      1465         9 |   4   1    0    0 220f |    1.342       0       5       0       5      1      1      0   1438      36       1   1    0220f a70f      7.500 "
test,1583575592014955008,13," | 13  |   1476       5   1472       0 |   5    0      1457        15 |   2   1    0    0 220f |    1.342       0       5       0       5      1      1      0   1439      33       1   1    0220f a70f      7.440 "
test,1583575592038827776,15," | 15  |   1476       5   1474       0 |   1    5      1417        57 |   2  15    1    1 3e0f |    8.117       0       2       0       2     15     15      0   1359     115      11  15    13e0f a70f     30.300 "
test,1583575592025264896,16," | 16  |   1476       5   1472       0 |   5    0      1420        52 |   2  48    0    0 c80f |    4.241       0       5       0       5     48     48      0   1379      93       4  48    0c80f a70f     10.320 "
test,1583575592022979072,17," | 17  |   1476       5   1471       1 |   4    4      1454        18 |   4  48   57    0 c80f |    4.241       0       5       0       5     48     48      0   1402      70       4  48    0c80f a70f     10.440 "
test,1583575592018923008,18," | 18  |   1476       5   1471       0 |   5    0      1381        90 |   2  48    0    0 c80f |    2.746       0       5       0       5     48     48      0   1301     170       2  48    0c80f a70f      8.940 "
test,1583575592039597056,19," | 19  |   1476       5   1470       2 |   1    6      1455        17 |   2  15   57    0 3e0f |   11.383       0       1       0       1     15     15      0   1406      66      14  15    03e0f a70f     30.360 "
test,1583575592013900032,1," |  1  |   1476       4   1473       0 |   4    0      1439        34 |   3   1    0    1 220f |    1.770       0       4       0       4      1      1      0   1429      44       2   1    1220f a70f      6.510 "
test,1583575592019803904,22," | 22  |   1476       5   1470       0 |   5    0      1458        12 |   1  48    0    0 c80f |    3.509       0       5       0       5     48     48      0   1374      96       3  48    0c80f a70f     10.260 "
test,1583575592038610944,23," | 23  |   1476       5   1414       0 |   5    9      1405         9 |   1  57   48    0 a50f |    2.014       0       2       0       2     57     57      0   1375      39       1  57    0a50f a70f     30.390 "
test,1583575592021039872,24," | 24  |   1476       5   1472       0 |   5    0      1464         8 |   2  48    0    0 c80f |    3.540       0       5       0       5     48     48      0   1424      48       3  48    0c80f a70f     10.350 "
test,1583575592020000000,26," | 26  |   1476       5   1472       0 |   5    0      1467         5 |   2  48    0    0 c80f |    3.509       0       5       0       5     48     48      0   1435      37       3  48    0c80f a70f      9.570 "
test,1583575592039169024,27," | 27  |   1476       5   1474       0 |   1    8      1436        38 |   1  15   57    0 3e0f |    8.392       0       3       0       3     15     15      0   1363     111      10  15    03e0f a70f     30.300 "
test,1583575592026958848,28," | 28  |   1476       5   1472       0 |   4    0      1355       117 |   3  48    0    0 c80f |    5.004       0       5       0       5     48     48      0   1311     161       5  48    0c80f a70f     11.730 "
test,1583575592039926016,29," | 29  |   1476       3   1470       4 |   1    0      1305       169 |   2  15    0    0 3e0f |    9.185       0       2       0       2     15     15      0   1229     245      11  15    03e0f a70f     30.270 "
test,1583575592022131968,30," | 30  |   1476       5   1472       0 |   5    0      1449        23 |   3  48    0    0 c80f |    4.943       0       5       0       5     48     48      0   1403      69       5  48    0c80f a70f     11.100 "
test,1583575592022646784,35," | 35  |   1476       5   1472       0 |   5    0      1404        68 |   2  48    0    0 c80f |    4.241       0       5       0       5     48     48      0   1375      97       4  48    0c80f a70f     10.440 "
test,1583575592036814848,40," | 40  |   1476       4   1436      32 |   0    3      1354       114 |   0  40   48    1 920f |    0           0       0       0       8      0      0      0   1308     160       0  40    1920f a70f     30.180 "
test,1583575592017209088,41," | 41  |   1476       5   1430      32 |   5    0      1446        16 |   1  48    0    0 c80f |    2.044       0       5       0       5     48     48      0   1401      61       1  48    0c80f a70f      8.940 "
test,1583575592019326976,42," | 42  |   1476       5   1437      35 |   5    0      1425        47 |   1  48    0    0 c80f |    2.014       0       5       0       5     48     48      0   1380      92       1  48    0c80f a70f      9.660 "
test,1583575592019661056,44," | 44  |   1476       5   1442      30 |   5    0      1431        41 |   1  48    0    0 c80f |    2.044       0       5       0       5     48     48      0   1388      84       1  48    0c80f a70f      9.750 "
test,1583575592025000192,45," | 45  |   1476       5   1448      24 |   5    0      1416        56 |   1  48    0    0 c80f |    2.014       0       5       0       5     48     48      0   1381      91       1  48    0c80f a70f      9.690 "
test,1583575592018244864,46," | 46  |   1476       5   1434      31 |   5    0      1393        72 |   1  48    0    0 c80f |    2.014       0       5       0       5     48     48      0   1362     103       1  48    0c80f a70f      8.250 "
test,1583575592017990144,47," | 47  |   1476       5   1440      32 |   5    0      1415        57 |   1  48    0    0 c80f |    2.044       0       5       0       5     48     48      0   1377      95       1  48    0c80f a70f      8.910 "
test,1583575592016752128,48," | 48  |   1476       5   1376      29 |   4    3      1361        44 |   2  48   40    1 c80f |    1.739       0       4       0       4     48     48      0   1321      84       2  48    1c80f a70f      6.480 "
test,1583575592015460096,49," | 49  |   1476       5   1466       0 |   5    0      1444        22 |   2  49    0    1 150f |    1.739       0       4       0       4     49     49      0   1430      36       2  49    1150f a70f      6.480 "
test,1583575592016130816,51," | 51  |   1476       5   1467       0 |   5    0      1458         9 |   1   1    0    0 220f |    1.373       0       5       0       5      1      1      0   1457      10       1   1    0220f a70f      7.530 "
test,1583575592018408960,52," | 52  |   1476       2   1456      12 |   4    3      1392        76 |   5  48   57    0 c80f |    4.241       0       5       0       5     48     48      0   1364     104       4  48    0c80f a70f     10.410 "
test,1583575592017523968,53," | 53  |   1476       5   1450       0 |   5    0      1373        77 |   1  49    0    0 150f |    1.983       0       5       0       5     49     49      0   1356      94       1  49    0150f a70f      8.190 "
test,1583575592024291072,54," | 54  |   1476       5   1468       0 |   1    9      1448        20 |   2  54    1    1 e80f |   10.284       0       4       0       4     54     54      0   1417      51      14  54    1e80f a70f     14.790 "
test,1583575592035214848,55," | 55  |   1476       5   1455       0 |   0   10      1405        50 |   0  55   49    1 480f |    0           0       0       0       8      0      0      0   1394      61       0  55    1480f a70f     30.180 "
test,1583575592015621888,56," | 56  |   1476       5   1458       0 |   5    0      1434        24 |   2   1    0    0 220f |    2.044       0       5       0       5      1      1      0   1426      32       2   1    0220f a70f      8.280 "
test,1583575592040185856,57," | 57  |   1476       3   1413       0 |   4    3      1375        38 |   5  57    1    1 a50f |    3.814       0       1       0       1     57     57      0   1296     117       5  57    1a50f a70f     30.240 "
test,1583575592037264128,58," | 58  |   1476       5   1467       0 |   4    5      1448        19 |   5  49   55    0 150f |    3.479       0       3       0       3     49     49      0   1392      75       3  49    0150f a70f     30.390 "
test,1583575592037720832,5," |  5  |   1476       5   1474       0 |   5    0      1349       125 |   3   1    0    0 220f |    2.075       0       4       0       4      1      1      0   1322     152       2   1    0220f a70f     30.300 "
test,1583575592017698048,60," | 60  |   1476       5   1467       0 |   4    4      1376        91 |   4   1   57    0 220f |    2.075       0       5       0       5      1      1      0   1360     107       2   1    0220f a70f      8.250 "
test,1583575592026639872,61," | 61  |   1476       5   1466       0 |   1   12      1404        62 |   1  54   57    0 e80f |    6.225       0       5       0       5     54     54      0   1360     106       7  54    0e80f a70f     15.180 "
test,1583575592016599040,7," |  7  |   1476       5   1473       0 |   5    0      1451        22 |   3   1    0    0 220f |    1.342       0       5       0       5      1      1      0   1443      30       1   1    0220f a70f      7.560 "
test,1583575592014753024,9," |  9  |   1476       5   1472       0 |   5    0      1418        54 |   4   1    0    0 220f |    1.312       0       5       0       5      1      1      0   1408      64       1   1    0220f a70f      7.560 "
