test,1583575643268733952,10," | 10  |   1681       5   1653       0 |   3    7      1631        22 |   1  56   20    0 390f |    2.044       0       5       0       5     56     56      0   1609      44       1  56    0390f a70f      8.940 "
test,1583575643275027968,12," | 12  |   1681       5   1679       0 |   5    0      1666        13 |   2  20    0    0 450f |    4.791       0       5       0       5     20     20      0   1641      38       5  20    0450f a70f     11.010 "
test,1583575643289438976,13," | 13  |   1681       5   1677       0 |   5    0      1661        16 |   6  20    0    0 450f |    6.286       0       4       0       4     20     20      0   1642      35       7  20    0450f a70f     30.360 "
test,1583575643271534080,15," | 15  |   1681       5   1679       0 |   5    0      1616        63 |   1  20    0    0 450f |    2.075       0       5       0       5     20     20      0   1553     126       1  20    0450f a70f      8.880 "
test,1583575643273036032,16," | 16  |   1681       5   1677       0 |   5    0      1614        63 |   2  42    0    0 c30f |    2.746       0       5       0       5     42     42      0   1569     108       2  42    0c30f a70f      8.940 "
test,1583575643271783168,17," | 17  |   1681       5   1676       1 |   5    0      1659        18 |   3  42    0    0 c30f |    2.746       0       5       0       5     42     42      0   1601      76       2  42    0c30f a70f      8.940 "
test,1583575643272294144,18," | 18  |   1681       5   1676       0 |   5    0      1577        99 |   2  42    0    0 c30f |    2.807       0       5       0       5     42     42      0   1494     182       2  42    0c30f a70f      8.850 "
test,1583575643275333888,19," | 19  |   1681       5   1675       2 |   5    0      1658        19 |   4  42    0    0 c30f |    3.540       0       5       0       5     42     42      0   1603      74       3  42    0c30f a70f     10.290 "
test,1583575643288669952,1," |  1  |   1681       4   1678       0 |   5    0      1636        42 |   7  20    0    0 450f |    7.720       0       4       0       4     20     20      0   1622      56       8  20    0450f a70f     30.300 "
test,1583575643277872128,22," | 22  |   1681       5   1675       0 |   5    0      1663        12 |   4  42    0    0 c30f |    3.479       0       5       0       5     42     42      0   1572     103       3  42    0c30f a70f      9.660 "
test,1583575643272634112,23," | 23  |   1681       5   1619       0 |   3    3      1610         9 |   6  42   20    0 c30f |    3.479       0       5       0       5     42     42      0   1575      44       3  42    0c30f a70f      9.720 "
test,1583575643268090880,24," | 24  |   1681       5   1677       0 |   5    0      1668         9 |   3  42    0    0 c30f |    2.807       0       5       0       5     42     42      0   1623      54       2  42    0c30f a70f      8.880 "
test,1583575643273473024,26," | 26  |   1681       5   1677       0 |   5    0      1670         7 |   2  42    0    0 c30f |    3.540       0       5       0       5     42     42      0   1637      40       3  42    0c30f a70f      9.660 "
test,1583575643288108032,27," | 27  |   1681       5   1679       0 |   5    7      1633        46 |   2  20   42    0 450f |    0           0       0       0       8      0      0      0   1550     129       0  20    0450f a70f     30.360 "
test,1583575643274194944,28," | 28  |   1681       4   1677       0 |   3    1      1545       132 |   2  20   42    0 450f |    2.777       0       5       0       5     20     20      0   1494     183       2  20    0450f a70f      8.820 "
test,1583575643289929984,29," | 29  |   1681       3   1675       4 |   5    4      1481       198 |   3  20   42    0 450f |    0           0       0       0       8      0      0      0   1395     284       0  20    0450f a70f     30.360 "
test,1583575643270006784,30," | 30  |   1681       5   1677       0 |   5    0      1650        27 |   1  20    0    0 450f |    2.044       0       5       0       5     20     20      0   1599      78       1  20    0450f a70f      8.160 "
test,1583575643273736960,35," | 35  |   1681       5   1677       0 |   5    0      1602        75 |   2  20    0    0 450f |    2.777       0       5       0       5     20     20      0   1570     107       2  20    0450f a70f      8.880 "
test,1583575643291585024,40," | 40  |   1681       5   1641      32 |   0    6      1544       129 |   0  40   42    1 800f |    0           0       0       0       8      0      0      0   1498     175       0  40    1800f a70f     30.180 "
test,1583575643276240128,41," | 41  |   1681       5   1635      32 |   5    0      1651        16 |   1  42    0    0 c30f |    2.044       0       5       0       5     42     42      0   1604      63       1  42    0c30f a70f      9.600 "
test,1583575643279237888,42," | 42  |   1681       5   1642      35 |   4    0      1630        47 |   3  42    0    1 c30f |    3.204       0       4       0       4     42     42      0   1583      94       4  42    1c30f a70f      8.640 "
test,1583575643282198784,44," | 44  |   1681       5   1647      30 |   5    0      1632        45 |   1  42    0    0 c30f |    2.075       0       5       0       5     42     42      0   1587      90       1  42    0c30f a70f      8.190 "
test,1583575643271975168,45," | 45  |   1681       5   1653      24 |   5    0      1617        60 |   1  42    0    0 c30f |    2.044       0       5       0       5     42     42      0   1580      97       1  42    0c30f a70f      9.000 "
test,1583575643280304896,46," | 46  |   1681       5   1639      31 |   5    0      1592        78 |   2  42    0    0 c30f |    2.014       0       5       0       5     42     42      0   1560     110       1  42    0c30f a70f      8.940 "
test,1583575643267772928,47," | 47  |   1681       5   1645      32 |   5    0      1619        58 |   1  42    0    0 c30f |    2.044       0       5       0       5     42     42      0   1580      97       1  42    0c30f a70f      8.310 "
test,1583575643274408192,48," | 48  |   1681       5   1581      29 |   5    0      1562        48 |   1  42    0    0 c30f |    2.075       0       5       0       5     42     42      0   1524      86       1  42    0c30f a70f      9.600 "
test,1583575643275975936,49," | 49  |   1681       5   1671       0 |   5    0      1643        28 |   2  56    0    0 390f |    2.807       0       5       0       5     56     56      0   1628      43       2  56    0390f a70f      8.940 "
test,1583575643270469888,51," | 51  |   1681       5   1672       0 |   5    0      1661        11 |   1  56    0    0 390f |    2.044       0       5       0       5     56     56      0   1656      16       1  56    0390f a70f      8.130 "
test,1583575643290746880,52," | 52  |   1681       1   1658      15 |   4    0      1586        87 |   4  42    0    0 c30f |    3.540       0       3       0       3     42     42      0   1553     120       3  42    0c30f a70f     30.360 "
test,1583575643274810112,53," | 53  |   1681       5   1655       0 |   5    0      1571        84 |   3  56    0    0 390f |    3.479       0       5       0       5     56     56      0   1552     103       3  56    0390f a70f      9.540 "
test,1583575643289026048,54," | 54  |   1681       5   1673       0 |   5    0      1651        22 |   8  20    0    0 450f |    9.948       0       2       0       2     20     20      0   1620      53      12  20    0450f a70f     30.300 "
test,1583575643279644928,55," | 55  |   1681       5   1660       0 |   5    0      1603        57 |   2  56    0    0 390f |    2.777       0       5       0       5     56     56      0   1591      69       2  56    0390f a70f      8.970 "
test,1583575643267014912,56," | 56  |   1681       5   1663       0 |   5    0      1636        27 |   2  56    0    1 390f |    1.739       0       4       0       4     56     56      0   1624      39       2  56    1390f a70f      6.480 "
test,1583575643268456960,57," | 57  |   1681       4   1618       0 |   4    0      1578        40 |   1  56    0    0 390f |    2.075       0       5       0       5     56     56      0   1481     137       1  56    0390f a70f      8.280 "
test,1583575643282679040,58," | 58  |   1681       5   1672       0 |   5    1      1651        21 |   1  56   20    0 390f |    2.075       0       5       0       5     56     56      0   1582      90       1  56    0390f a70f      8.880 "
test,1583575643277445120,5," |  5  |   1681       5   1679       0 |   5    0      1535       144 |   2  20    0    0 450f |    4.821       0       5       0       5     20     20      0   1507     172       5  20    0450f a70f     11.670 "
test,1583575643270875904,60," | 60  |   1681       5   1672       0 |   5    0      1565       107 |   2  56    0    0 390f |    2.014       0       5       0       5     56     56      0   1543     129       1  56    0390f a70f      8.970 "
test,1583575643269376000,61," | 61  |   1681       5   1671       0 |   5    0      1598        73 |   1  56    0    0 390f |    2.075       0       5       0       5     56     56      0   1552     119       1  56    0390f a70f      8.310 "
test,1583575643275762944,7," |  7  |   1681       5   1678       0 |   5    0      1652        26 |   3  20    0    0 450f |    5.554       0       5       0       5     20     20      0   1644      34       6  20    0450f a70f     11.610 "
test,1583575643289701888,9," |  9  |   1681       5   1677       0 |   2    9      1616        61 |   2  56   20    0 390f |    2.746       0       4       0       4     56     56      0   1606      71       2  56    0390f a70f     30.390 "
