test,1583575490513113856,10," | 10  |   1070       5   1042       0 |   4    0      1028        14 |   4  10    0    1 860f |    1.739       0       4       0       4     10     10      0   1014      28       2  10    1860f a70f      6.510 "
test,1583575490523514880,12," | 12  |   1070       5   1068       0 |   5    0      1062         6 |   1  10    0    0 860f |    2.014       0       5       0       5     10     10      0   1042      26       1  10    0860f a70f     11.130 "
test,1583575490515275008,13," | 13  |   1070       5   1066       0 |   5    0      1054        12 |   1  10    0    0 860f |    2.044       0       5       0       5     10     10      0   1042      24       1  10    0860f a70f     11.130 "
test,1583575490523046912,15," | 15  |   1070       5   1068       0 |   5    0      1030        38 |   2  10    0    0 860f |    2.777       0       5       0       5     10     10      0    993      75       2  10    0860f a70f     11.730 "
test,1583575490523246080,16," | 16  |   1070       5   1066       0 |   5    0      1030        36 |   4  10    0    0 860f |    5.676       0       5       0       5     10     10      0   1004      62       6  10    0860f a70f     11.880 "
test,1583575490522870016,17," | 17  |   1070       5   1065       1 |   5    0      1053        13 |   3  30    0    0 c10f |    3.509       0       5       0       5     30     30      0   1021      45       3  30    0c10f a70f      9.750 "
test,1583575490516637952,18," | 18  |   1070       5   1065       0 |   5    0       999        66 |   2  30    0    0 c10f |    2.777       0       5       0       5     30     30      0    947     118       2  30    0c10f a70f      8.850 "
test,1583575490524410880,19," | 19  |   1070       5   1064       2 |   5    0      1054        12 |   3  30    0    0 c10f |    3.509       0       5       0       5     30     30      0   1022      44       3  30    0c10f a70f      9.660 "
test,1583575490539064832,1," |  1  |   1070       4   1067       0 |   0   10      1045        22 |   0   1   10    1 820f |    0           0       0       0       8      0      0      0   1037      30       0   1    1820f a70f     30.210 "
test,1583575490514675968,22," | 22  |   1070       5   1064       0 |   5    0      1054        10 |   1  30    0    0 c10f |    2.075       0       5       0       5     30     30      0   1002      62       1  30    0c10f a70f      8.220 "
test,1583575490519438080,23," | 23  |   1070       5   1008       0 |   5    0      1002         6 |   3  10    0    0 860f |    5.004       0       5       0       5     10     10      0    982      26       5  10    0860f a70f     11.010 "
test,1583575490520226048,24," | 24  |   1070       5   1066       0 |   5    0      1060         6 |   2  30    0    0 c10f |    2.807       0       5       0       5     30     30      0   1032      34       2  30    0c10f a70f      9.720 "
test,1583575490516418048,26," | 26  |   1070       5   1066       0 |   5    0      1062         4 |   2  30    0    0 c10f |    2.777       0       5       0       5     30     30      0   1041      25       2  30    0c10f a70f      8.850 "
test,1583575490537571072,27," | 27  |   1070       5   1068       0 |   3    5      1042        26 |   6  10   29    0 860f |    3.509       0       2       0       2     10     10      0   1000      68       3  10    0860f a70f     30.390 "
test,1583575490515901184,28," | 28  |   1070       5   1066       0 |   5    0       981        85 |   1  30    0    0 c10f |    2.075       0       5       0       5     30     30      0    952     114       1  30    0c10f a70f      8.130 "
test,1583575490535588864,29," | 29  |   1070       4   1064       4 |   0    1       944       124 |   0  29   30    1 210f |    0           0       0       0       8      0      0      0    891     177       0  29    1210f a70f     30.150 "
test,1583575490513869056,30," | 30  |   1070       5   1066       0 |   5    0      1050        16 |   2  30    0    1 c10f |    1.770       0       4       0       4     30     30      0   1017      49       2  30    1c10f a70f      6.510 "
test,1583575490513648896,35," | 35  |   1070       5   1066       0 |   5    0      1020        46 |   1  30    0    0 c10f |    2.014       0       5       0       5     30     30      0    998      68       1  30    0c10f a70f      8.250 "
test,1583575490537074944,40," | 40  |   1070       5   1030      32 |   5    0       974        88 |   3  30    0    0 c10f |    3.479       0       4       0       4     30     30      0    938     124       3  30    0c10f a70f     30.360 "
test,1583575490517477888,41," | 41  |   1070       5   1025      31 |   5    0      1040        16 |   3  30    0    0 c10f |    2.777       0       5       0       5     30     30      0   1010      46       2  30    0c10f a70f      8.820 "
test,1583575490520025856,42," | 42  |   1070       5   1032      34 |   5    0      1026        40 |   3  30    0    0 c10f |    2.777       0       5       0       5     30     30      0    997      69       2  30    0c10f a70f      8.820 "
test,1583575490522181888,44," | 44  |   1070       5   1037      29 |   5    0      1034        32 |   3  30    0    0 c10f |    3.509       0       5       0       5     30     30      0   1003      63       3  30    0c10f a70f      9.720 "
test,1583575490517273856,45," | 45  |   1070       5   1042      24 |   5    0      1020        46 |   3  30    0    0 c10f |    3.540       0       5       0       5     30     30      0    994      72       3  30    0c10f a70f      9.750 "
test,1583575490520890880,46," | 46  |   1070       5   1029      30 |   5    0      1006        53 |   3  30    0    0 c10f |    3.509       0       5       0       5     30     30      0    984      75       3  30    0c10f a70f      9.660 "
test,1583575490518248960,47," | 47  |   1070       5   1035      31 |   5    0      1022        44 |   3  30    0    0 c10f |    3.509       0       5       0       5     30     30      0   1000      66       3  30    0c10f a70f      9.690 "
test,1583575490519222016,48," | 48  |   1070       5    971      28 |   5    0       963        36 |   2  30    0    0 c10f |    2.807       0       5       0       5     30     30      0    933      66       2  30    0c10f a70f      9.060 "
test,1583575490518518016,49," | 49  |   1070       5   1060       0 |   5    0      1046        14 |   2  10    0    0 860f |    2.746       0       5       0       5     10     10      0   1035      25       2  10    0860f a70f      9.000 "
test,1583575490512912128,51," | 51  |   1070       5   1061       0 |   5    0      1055         6 |   1  10    0    0 860f |    2.014       0       5       0       5     10     10      0   1054       7       1  10    0860f a70f      8.100 "
test,1583575490517829888,52," | 52  |   1070       5   1051      11 |   1    3      1007        55 |   3  30   10    0 c10f |    3.540       0       5       0       5     30     30      0    987      75       3  30    0c10f a70f      9.660 "
test,1583575490517643008,53," | 53  |   1070       5   1044       0 |   5    0       988        56 |   3  10    0    0 860f |    3.479       0       5       0       5     10     10      0    977      67       3  10    0860f a70f      9.630 "
test,1583575490535213824,54," | 54  |   1070       5   1062       0 |   5    0      1046        16 |   1  10    0    0 860f |    2.014       0       4       0       4     10     10      0   1022      40       1  10    0860f a70f     30.330 "
test,1583575490514875904,55," | 55  |   1070       5   1049       0 |   5    0      1007        42 |   2  10    0    0 860f |    2.746       0       5       0       5     10     10      0   1000      49       2  10    0860f a70f      8.940 "
test,1583575490513489920,56," | 56  |   1070       5   1052       0 |   5    0      1033        19 |   1  10    0    0 860f |    2.014       0       5       0       5     10     10      0   1026      26       1  10    0860f a70f      8.250 "
test,1583575490515678976,57," | 57  |   1070       5   1007       0 |   1    0       974        33 |   2  10    0    0 860f |    4.211       0       5       0       5     10     10      0    916      91       4  10    0860f a70f     10.260 "
test,1583575490516134912,58," | 58  |   1070       5   1061       0 |   4    0      1044        17 |   1  10    0    0 860f |    2.014       0       5       0       5     10     10      0   1006      55       1  10    0860f a70f      9.690 "
test,1583575490519630848,5," |  5  |   1070       5   1068       0 |   5    0       977        91 |   2  10    0    0 860f |    2.746       0       5       0       5     10     10      0    957     111       2  10    0860f a70f     10.980 "
test,1583575490516859136,60," | 60  |   1070       5   1061       0 |   5    0       992        69 |   2  10    0    0 860f |    2.807       0       5       0       5     10     10      0    980      81       2  10    0860f a70f      9.000 "
test,1583575490520715008,61," | 61  |   1070       5   1060       0 |   5    0      1012        48 |   2  10    0    0 860f |    2.716       0       5       0       5     10     10      0    980      80       2  10    0860f a70f      9.690 "
test,1583575490534519040,7," |  7  |   1070       5   1067       0 |   5    0      1048        19 |   1  10    0    0 860f |    2.014       0       4       0       4     10     10      0   1044      23       1  10    0860f a70f     30.360 "
test,1583575490534790912,9," |  9  |   1070       5   1066       0 |   5    0      1024        42 |   1  10    0    0 860f |    2.044       0       4       0       4     10     10      0   1017      49       1  10    0860f a70f     30.360 "
