test,1583575661519015168,10," | 10  |   1754       5   1726       0 |   5    0      1704        22 |   3  49    0    0 ad0f |    2.746       0       5       0       5     49     49      0   1678      48       2  49    0ad0f a70f      8.970 "
test,1583575661536112128,12," | 12  |   1754       5   1752       0 |   5    0      1739        13 |   2  27    0    0 b50f |    0           0       0       0       8      0      0      0   1713      39       0  27    0b50f a70f     30.390 "
test,1583575661536897024,13," | 13  |   1754       5   1750       0 |   5    0      1733        17 |   3  27    0    0 b50f |    0           0       0       0       8      0      0      0   1713      37       0  27    0b50f a70f     30.390 "
test,1583575661539331840,15," | 15  |   1754       5   1752       0 |   5    0      1687        65 |   1  27    0    0 b50f |    0           0       0       0       8      0      0      0   1622     130       0  27    0b50f a70f     30.390 "
test,1583575661518551040,16," | 16  |   1754       5   1750       0 |   5    0      1685        65 |   1  52    0    0 7a0f |    2.044       0       5       0       5     52     52      0   1638     112       1  52    07a0f a70f      9.000 "
test,1583575661540795136,17," | 17  |   1754       5   1749       1 |   1    5      1731        19 |   1  27   52    0 b50f |    1.983       0       4       0       4     27     27      0   1672      78       1  27    0b50f a70f     30.390 "
test,1583575661523832064,18," | 18  |   1754       5   1749       0 |   5    0      1645       104 |   2  52    0    0 7a0f |    2.777       0       5       0       5     52     52      0   1560     189       2  52    07a0f a70f      8.970 "
test,1583575661527555072,19," | 19  |   1754       5   1748       2 |   2    5      1730        20 |   1  27   52    0 b50f |    2.014       0       5       0       5     27     27      0   1674      76       1  27    0b50f a70f     12.330 "
test,1583575661519889152,1," |  1  |   1754       4   1751       0 |   1    9      1708        43 |   3  49   27    0 ad0f |    4.150       0       5       0       5     49     49      0   1694      57       3  49    0ad0f a70f     10.350 "
test,1583575661521208064,22," | 22  |   1754       5   1748       0 |   5    0      1736        12 |   3  52    0    0 7a0f |    2.746       0       5       0       5     52     52      0   1642     106       2  52    07a0f a70f      9.630 "
test,1583575661519195136,23," | 23  |   1754       5   1692       0 |   5    0      1682        10 |   1  52    0    0 7a0f |    2.014       0       5       0       5     52     52      0   1647      45       1  52    07a0f a70f      8.250 "
test,1583575661517935104,24," | 24  |   1754       5   1750       0 |   5    0      1740        10 |   1  52    0    0 7a0f |    2.075       0       5       0       5     52     52      0   1694      56       1  52    07a0f a70f      8.190 "
test,1583575661517700864,26," | 26  |   1754       5   1750       0 |   5    0      1743         7 |   1  52    0    0 7a0f |    2.044       0       5       0       5     52     52      0   1707      43       1  52    07a0f a70f      8.280 "
test,1583575661525175040,27," | 27  |   1754       5   1752       0 |   1    3      1703        49 |   5  27   52    1 b50f |    3.814       0       4       0       4     27     27      0   1617     135       5  27    1b50f a70f      8.520 "
test,1583575661541372160,28," | 28  |   1754       5   1750       0 |   1    4      1614       136 |   2  27   35    0 b50f |    2.746       0       3       0       3     27     27      0   1563     187       2  27    0b50f a70f     30.300 "
test,1583575661523602944,29," | 29  |   1754       5   1748       4 |   3    0      1546       206 |   1  27    0    0 b50f |    1.983       0       5       0       5     27     27      0   1457     295       1  27    0b50f a70f      8.790 "
test,1583575661536491008,30," | 30  |   1754       5   1750       0 |   1   10      1723        27 |   2  27   35    0 b50f |   11.413       0       1       0       1     27     27      0   1671      79      14  27    0b50f a70f     30.360 "
test,1583575661535453952,35," | 35  |   1754       5   1750       0 |   0    4      1673        77 |   0  35   52    1 950f |    0           0       0       0       8      0      0      0   1640     110       0  35    1950f a70f     30.180 "
test,1583575661525012992,40," | 40  |   1754       5   1714      32 |   5    0      1613       133 |   2  52    0    0 7a0f |    2.746       0       5       0       5     52     52      0   1567     179       2  52    07a0f a70f     10.980 "
test,1583575661539676928,41," | 41  |   1754       5   1708      32 |   5    0      1722        18 |   4  52    0    0 7a0f |    3.509       0       4       0       4     52     52      0   1674      66       3  52    07a0f a70f     30.390 "
test,1583575661540483840,42," | 42  |   1754       5   1715      35 |   4    5      1702        48 |   5  52   47    0 7a0f |    3.540       0       4       0       4     52     52      0   1654      96       3  52    07a0f a70f     30.240 "
test,1583575661525355008,44," | 44  |   1754       5   1720      30 |   5    0      1704        46 |   2  52    0    0 7a0f |    2.777       0       5       0       5     52     52      0   1658      92       2  52    07a0f a70f     10.320 "
test,1583575661529020928,45," | 45  |   1754       5   1726      24 |   5    0      1688        62 |   2  52    0    0 7a0f |    3.509       0       5       0       5     52     52      0   1649     101       3  52    07a0f a70f      9.720 "
test,1583575661522131968,46," | 46  |   1754       5   1712      31 |   5    0      1661        82 |   3  52    0    0 7a0f |    3.509       0       5       0       5     52     52      0   1629     114       3  52    07a0f a70f     11.070 "
test,1583575661538685952,47," | 47  |   1754       5   1718      32 |   0    9      1691        59 |   0  47   52    1 9b0f |    0           0       0       0       8      0      0      0   1650     100       0  47    19b0f a70f     30.150 "
test,1583575661531898880,48," | 48  |   1754       5   1654      29 |   5    0      1632        51 |   3  52    0    0 7a0f |    3.509       0       5       0       5     52     52      0   1594      89       3  52    07a0f a70f     11.130 "
test,1583575661516651008,49," | 49  |   1754       5   1744       0 |   4    0      1715        29 |   2  49    0    1 ad0f |    1.739       0       4       0       4     49     49      0   1700      44       2  49    1ad0f a70f      6.480 "
test,1583575661519630080,51," | 51  |   1754       5   1745       0 |   5    0      1733        12 |   4  49    0    0 ad0f |    3.448       0       5       0       5     49     49      0   1728      17       3  49    0ad0f a70f      9.630 "
test,1583575661529509120,52," | 52  |   1754       5   1730      16 |   4    0      1654        92 |   5  52    0    1 7a0f |    1.739       0       4       0       4     52     52      0   1618     128       2  52    17a0f a70f      7.230 "
test,1583575661519369984,53," | 53  |   1754       5   1728       0 |   5    0      1642        86 |   1  49    0    0 ad0f |    1.953       0       5       0       5     49     49      0   1623     105       1  49    0ad0f a70f      8.070 "
test,1583575661518210048,54," | 54  |   1754       5   1746       0 |   5    0      1723        23 |   2  49    0    0 ad0f |    2.746       0       5       0       5     49     49      0   1690      56       2  49    0ad0f a70f      8.880 "
test,1583575661517394944,55," | 55  |   1754       5   1733       0 |   5    0      1674        59 |   1  49    0    0 ad0f |    2.014       0       5       0       5     49     49      0   1662      71       1  49    0ad0f a70f      8.220 "
test,1583575661520884992,56," | 56  |   1754       5   1736       0 |   5    0      1708        28 |   3  49    0    0 ad0f |    2.716       0       5       0       5     49     49      0   1694      42       2  49    0ad0f a70f      8.910 "
test,1583575661522550016,57," | 57  |   1754       5   1691       0 |   2    4      1650        41 |   3  49   52    0 ad0f |    3.479       0       5       0       5     49     49      0   1550     141       3  49    0ad0f a70f      9.690 "
test,1583575661520559104,58," | 58  |   1754       5   1745       0 |   5    0      1723        22 |   1  49    0    0 ad0f |    2.044       0       5       0       5     49     49      0   1653      92       1  49    0ad0f a70f      8.850 "
test,1583575661540204032,5," |  5  |   1754       5   1752       0 |   5    0      1598       154 |   2  27    0    0 b50f |    0           0       0       0       8      0      0      0   1569     183       0  27    0b50f a70f     30.360 "
test,1583575661521647872,60," | 60  |   1754       5   1745       0 |   5    0      1631       114 |   4  49    0    0 ad0f |    4.211       0       5       0       5     49     49      0   1609     136       4  49    0ad0f a70f     10.410 "
test,1583575661521071872,61," | 61  |   1754       5   1744       0 |   5    0      1671        73 |   2  49    0    0 ad0f |    2.777       0       5       0       5     49     49      0   1624     120       2  49    0ad0f a70f      9.690 "
test,1583575661537122048,7," |  7  |   1754       5   1751       0 |   5    0      1724        27 |   3  27    0    0 b50f |    0           0       0       0       8      0      0      0   1715      36       0  27    0b50f a70f     30.360 "
test,1583575661520740096,9," |  9  |   1754       5   1750       0 |   1    5      1688        62 |   3  49   27    0 ad0f |    3.479       0       5       0       5     49     49      0   1678      72       3  49    0ad0f a70f      9.570 "
