test,1583575540516055040,10," | 10  |   1270       5   1242       0 |   5    0      1224        18 |   1  13    0    0 a00f |    2.075       0       5       0       5     13     13      0   1210      32       1  13    0a00f a70f      8.310 "
test,1583575540514648064,12," | 12  |   1270       5   1268       0 |   5    0      1260         8 |   1  13    0    0 a00f |    2.044       0       5       0       5     13     13      0   1238      30       1  13    0a00f a70f      8.280 "
test,1583575540521920000,13," | 13  |   1270       5   1266       0 |   4    0      1251        15 |   2  13    0    1 a00f |    1.770       0       4       0       4     13     13      0   1239      27       2  13    1a00f a70f      7.920 "
test,1583575540525603072,15," | 15  |   1270       5   1268       0 |   5    0      1218        50 |   1  13    0    0 a00f |    2.075       0       5       0       5     13     13      0   1167     101       1  13    0a00f a70f      8.940 "
test,1583575540524399104,16," | 16  |   1270       5   1266       0 |   5    0      1222        44 |   2  17    0    0 ac0f |    2.746       0       5       0       5     17     17      0   1188      78       2  17    0ac0f a70f      8.970 "
test,1583575540522759936,17," | 17  |   1270       5   1265       1 |   4    0      1251        15 |   4  17    0    1 ac0f |    1.739       0       4       0       4     17     17      0   1207      59       2  17    1ac0f a70f      6.480 "
test,1583575540537251840,18," | 18  |   1270       5   1265       0 |   4    0      1188        77 |   3  17    0    0 ac0f |    3.509       0       4       0       4     17     17      0   1122     143       3  17    0ac0f a70f     30.300 "
test,1583575540516252928,19," | 19  |   1270       5   1264       2 |   5    0      1252        14 |   1  17    0    0 ac0f |    2.044       0       5       0       5     17     17      0   1211      55       1  17    0ac0f a70f      8.250 "
test,1583575540519973888,1," |  1  |   1270       4   1267       0 |   5    0      1238        29 |   1  13    0    0 a00f |    2.716       0       5       0       5     13     13      0   1230      37       1  13    0a00f a70f     10.410 "
test,1583575540535072000,22," | 22  |   1270       5   1264       0 |   1    6      1252        12 |   3  13   17    0 a00f |    0           0       0       0       8      0      0      0   1184      80       0  13    0a00f a70f     30.360 "
test,1583575540514297856,23," | 23  |   1270       5   1208       0 |   5    0      1200         8 |   2  17    0    0 ac0f |    2.044       0       5       0       5     17     17      0   1177      31       1  17    0ac0f a70f      8.130 "
test,1583575540518227200,24," | 24  |   1270       5   1266       0 |   5    0      1258         8 |   2  17    0    0 ac0f |    2.746       0       5       0       5     17     17      0   1225      41       2  17    0ac0f a70f      8.970 "
test,1583575540520602112,26," | 26  |   1270       5   1266       0 |   5    0      1261         5 |   1  17    0    0 ac0f |    2.044       0       5       0       5     17     17      0   1235      31       1  17    0ac0f a70f      8.130 "
test,1583575540535942144,27," | 27  |   1270       5   1268       0 |   1    6      1238        30 |   2  13   17    0 a00f |    0           0       0       0       8      0      0      0   1179      89       0  13    0a00f a70f     30.360 "
test,1583575540538441984,28," | 28  |   1270       5   1266       0 |   1    5      1167        99 |   1  17   35    0 ac0f |    3.479       0       4       0       4     17     17      0   1133     133       3  17    0ac0f a70f     30.360 "
test,1583575540536832000,29," | 29  |   1270       4   1264       4 |   1    4      1125       143 |   3  13   17    0 a00f |    0           0       0       0       8      0      0      0   1061     207       0  13    0a00f a70f     30.360 "
test,1583575540518585856,30," | 30  |   1270       5   1266       0 |   5    0      1248        18 |   1  35    0    0 e10f |    1.983       0       5       0       5     35     35      0   1210      56       1  35    0e10f a70f      8.040 "
test,1583575540518994176,35," | 35  |   1270       5   1266       0 |   4    0      1208        58 |   2  35    0    1 e10f |    1.739       0       4       0       4     35     35      0   1182      84       2  35    1e10f a70f      6.480 "
test,1583575540520945152,40," | 40  |   1270       5   1230      32 |   5    0      1160       102 |   1  44    0    0 3d0f |    2.014       0       5       0       5     44     44      0   1122     140       1  44    03d0f a70f      8.910 "
test,1583575540528317952,41," | 41  |   1270       5   1224      32 |   5    0      1240        16 |   2  44    0    0 3d0f |    2.014       0       5       0       5     44     44      0   1203      53       1  44    03d0f a70f      8.880 "
test,1583575540522149120,42," | 42  |   1270       5   1231      35 |   5    0      1221        45 |   1  44    0    0 3d0f |    2.014       0       5       0       5     44     44      0   1188      78       1  44    03d0f a70f      8.220 "
test,1583575540516836864,44," | 44  |   1270       5   1236      30 |   3    0      1228        38 |   8  44    0    1 3d0f |    1.739       0       4       0       4     44     44      0   1190      76       2  44    13d0f a70f      6.480 "
test,1583575540517263872,45," | 45  |   1270       5   1242      24 |   5    0      1212        54 |   1  44    0    0 3d0f |    2.044       0       5       0       5     44     44      0   1183      83       1  44    03d0f a70f      8.190 "
test,1583575540516439040,46," | 46  |   1270       5   1228      31 |   5    0      1197        62 |   1  44    0    0 3d0f |    2.044       0       5       0       5     44     44      0   1171      88       1  44    03d0f a70f      8.280 "
test,1583575540519375104,47," | 47  |   1270       5   1234      32 |   5    0      1214        52 |   1  44    0    0 3d0f |    2.075       0       5       0       5     44     44      0   1185      81       1  44    03d0f a70f      8.250 "
test,1583575540518049024,48," | 48  |   1270       5   1170      29 |   5    0      1161        38 |   1  44    0    0 3d0f |    2.044       0       5       0       5     44     44      0   1127      72       1  44    03d0f a70f      9.000 "
test,1583575540519579904,49," | 49  |   1270       5   1260       0 |   5    0      1243        17 |   4  13    0    0 a00f |    4.974       0       5       0       5     13     13      0   1231      29       5  13    0a00f a70f     11.040 "
test,1583575540513868032,51," | 51  |   1270       5   1261       0 |   5    0      1253         8 |   1  13    0    0 a00f |    2.044       0       5       0       5     13     13      0   1252       9       1  13    0a00f a70f      8.250 "
test,1583575540517829888,52," | 52  |   1270       5   1250      12 |   5    0      1199        63 |   2  17    0    0 ac0f |    2.777       0       5       0       5     17     17      0   1175      87       2  17    0ac0f a70f      8.970 "
test,1583575540520456192,53," | 53  |   1270       5   1244       0 |   5    0      1180        64 |   4  13    0    0 a00f |    5.706       0       5       0       5     13     13      0   1167      77       6  13    0a00f a70f     11.880 "
test,1583575540516616960,54," | 54  |   1270       5   1262       0 |   5    0      1243        19 |   1  13    0    0 a00f |    2.075       0       5       0       5     13     13      0   1217      45       1  13    0a00f a70f      8.970 "
test,1583575540519772160,55," | 55  |   1270       5   1249       0 |   5    0      1204        45 |   4  13    0    0 a00f |    4.974       0       5       0       5     13     13      0   1195      54       5  13    0a00f a70f     11.130 "
test,1583575540525996032,56," | 56  |   1270       5   1252       0 |   5    0      1232        20 |   1  13    0    0 a00f |    2.075       0       5       0       5     13     13      0   1224      28       1  13    0a00f a70f      8.910 "
test,1583575540517092096,57," | 57  |   1270       5   1207       0 |   1    5      1172        35 |   2  13   17    0 a00f |    3.540       0       5       0       5     13     13      0   1103     104       3  13    0a00f a70f      9.750 "
test,1583575540521742080,58," | 58  |   1270       5   1261       0 |   5    0      1243        18 |   3  13    0    0 a00f |    4.211       0       5       0       5     13     13      0   1197      64       4  13    0a00f a70f     11.850 "
test,1583575540515433984,5," |  5  |   1270       5   1268       0 |   5    0      1158       110 |   1  13    0    0 a00f |    2.044       0       5       0       5     13     13      0   1135     133       1  13    0a00f a70f      8.160 "
test,1583575540517416960,60," | 60  |   1270       5   1261       0 |   5    0      1180        81 |   2  13    0    0 a00f |    2.777       0       5       0       5     13     13      0   1166      95       2  13    0a00f a70f      9.030 "
test,1583575540520199168,61," | 61  |   1270       5   1260       0 |   5    0      1204        56 |   2  13    0    0 a00f |    5.004       0       5       0       5     13     13      0   1167      93       5  13    0a00f a70f     12.540 "
test,1583575540518776064,7," |  7  |   1270       5   1267       0 |   5    0      1247        20 |   1  13    0    0 a00f |    2.044       0       5       0       5     13     13      0   1242      25       1  13    0a00f a70f      8.940 "
test,1583575540515726080,9," |  9  |   1270       5   1266       0 |   5    0      1221        45 |   1  13    0    0 a00f |    2.044       0       5       0       5     13     13      0   1214      52       1  13    0a00f a70f      9.000 "
