test,1583575721018664960,10," | 10  |   1992       5   1964       0 |   5    0      1938        26 |   1  12    0    0 720f |    2.075       0       5       0       5     12     12      0   1909      55       1  12    0720f a70f      8.250 "
test,1583575721017803008,12," | 12  |   1992       5   1990       0 |   4    0      1975        15 |   2  12    0    1 720f |    1.739       0       4       0       4     12     12      0   1945      45       2  12    1720f a70f      6.480 "
test,1583575721023407104,13," | 13  |   1992       5   1988       0 |   5    0      1971        17 |   1  12    0    0 720f |    2.044       0       5       0       5     12     12      0   1949      39       1  12    0720f a70f      9.000 "
test,1583575721043143936,15," | 15  |   1992       5   1990       0 |   1    2      1920        70 |  23  15   12    1 8a0f |   12.420       0       2       0       2     15     15      0   1842     148      17  15    18a0f a70f     30.240 "
test,1583575721041827840,16," | 16  |   1992       5   1988       0 |   5    0      1916        72 |   2  52    0    0  40f |    2.014       0       4       0       4     52     52      0   1867     121       1  52    0 40f a70f     30.360 "
test,1583575721040941056,17," | 17  |   1992       5   1987       1 |   4    6      1965        23 |   4  52   19    0  40f |    2.716       0       3       0       3     52     52      0   1904      84       2  52    0 40f a70f     30.330 "
test,1583575721024524032,18," | 18  |   1992       5   1987       0 |   5    0      1872       115 |   3  52    0    0  40f |    2.746       0       5       0       5     52     52      0   1784     203       2  52    0 40f a70f      9.480 "
test,1583575721039088128,19," | 19  |   1992       5   1986       2 |   0    6      1962        26 |   0  19   52    1 2d0f |    0           0       0       0       8      0      0      0   1903      85       0  19    12d0f a70f     30.210 "
test,1583575721020751104,1," |  1  |   1992       4   1989       0 |   5    0      1937        52 |   1  12    0    0 720f |    2.716       0       5       0       5     12     12      0   1921      68       1  12    0720f a70f      8.940 "
test,1583575721021155072,22," | 22  |   1992       5   1986       0 |   5    0      1971        15 |   2  52    0    0  40f |    2.716       0       5       0       5     52     52      0   1875     111       2  52    0 40f a70f      8.910 "
test,1583575721022865152,23," | 23  |   1992       5   1930       0 |   5    0      1919        11 |   1  52    0    0  40f |    2.044       0       5       0       5     52     52      0   1882      48       1  52    0 40f a70f     10.410 "
test,1583575721022573824,24," | 24  |   1992       5   1988       0 |   5    0      1975        13 |   2  52    0    0  40f |    2.746       0       5       0       5     52     52      0   1930      58       2  52    0 40f a70f      8.850 "
test,1583575721019572992,26," | 26  |   1992       5   1988       0 |   5    0      1981         7 |   1  52    0    0  40f |    1.983       0       5       0       5     52     52      0   1945      43       1  52    0 40f a70f      8.220 "
test,1583575721044564992,27," | 27  |   1992       5   1990       0 |   2   13      1934        56 |   1  15   19    0 8a0f |   14.190       0       1       0       1     15     15      0   1841     149      18  15    08a0f a70f     30.360 "
test,1583575721020375040,28," | 28  |   1992       5   1988       0 |   4    0      1835       153 |   4  28    0    1  b0f |    1.739       0       4       0       4     28     28      0   1774     214       2  28    1 b0f a70f      6.480 "
test,1583575721039706112,29," | 29  |   1992       1   1986       4 |   2    5      1765       225 |   2  15   19    0 8a0f |    0           0       0       0       8      0      0      0   1664     326       0  15    08a0f a70f     30.360 "
test,1583575721018867968,30," | 30  |   1992       5   1988       0 |   5    0      1960        28 |   1  28    0    0  b0f |    2.014       0       5       0       5     28     28      0   1898      90       1  28    0 b0f a70f      8.220 "
test,1583575721020195072,35," | 35  |   1992       5   1988       0 |   5    0      1903        85 |   2  28    0    0  b0f |    2.716       0       5       0       5     28     28      0   1864     124       2  28    0 b0f a70f      8.850 "
test,1583575721045163008,40," | 40  |   1992       5   1952      32 |   5    0      1838       146 |   1  46    0    0 6b0f |    5.554       0       3       0       3     46     46      0   1792     192       6  46    06b0f a70f     30.360 "
test,1583575721042052864,41," | 41  |   1992       5   1946      32 |   5    0      1959        19 |   1  46    0    0 6b0f |    4.089       0       4       0       4     46     46      0   1909      69       4  46    06b0f a70f     30.330 "
test,1583575721041636096,42," | 42  |   1992       5   1953      35 |   5    0      1939        49 |   1  46    0    0 6b0f |    4.089       0       4       0       4     46     46      0   1888     100       4  46    06b0f a70f     30.300 "
test,1583575721042684160,44," | 44  |   1992       4   1958      30 |   5    0      1938        50 |   1  46    0    0 6b0f |    4.119       0       4       0       4     46     46      0   1889      99       4  46    06b0f a70f     30.300 "
test,1583575721043572992,45," | 45  |   1992       5   1964      24 |   5    0      1922        66 |   1  46    0    0 6b0f |    4.119       0       4       0       4     46     46      0   1881     107       4  46    06b0f a70f     30.300 "
test,1583575721024843008,46," | 46  |   1992       5   1950      31 |   4    0      1889        92 |   2  46    0    1 6b0f |    3.814       0       4       0       4     46     46      0   1851     130       5  46    16b0f a70f      8.520 "
test,1583575721044334848,47," | 47  |   1992       5   1956      32 |   5    0      1920        68 |   1  46    0    0 6b0f |    4.058       0       4       0       4     46     46      0   1871     117       4  46    06b0f a70f     30.360 "
test,1583575721040591872,48," | 48  |   1992       5   1892      29 |   5    0      1869        52 |   1  46    0    0 6b0f |    4.089       0       4       0       4     46     46      0   1829      92       4  46    06b0f a70f     30.330 "
test,1583575721018263040,49," | 49  |   1992       5   1982       0 |   4    0      1948        34 |   2  49    0    1 e10f |    1.739       0       4       0       4     49     49      0   1930      52       2  49    1e10f a70f      6.480 "
test,1583575721020577024,51," | 51  |   1992       5   1983       0 |   5    0      1970        13 |   2  12    0    0 720f |    2.807       0       5       0       5     12     12      0   1965      18       2  12    0720f a70f      8.910 "
test,1583575721023571968,52," | 52  |   1992       1   1967      17 |   3    1      1882       102 |   6  52   19    1  40f |    3.814       0       4       0       4     52     52      0   1843     141       5  52    1 40f a70f      8.670 "
test,1583575721019951104,53," | 53  |   1992       5   1966       0 |   5    0      1869        97 |   1  49    0    0 e10f |    2.014       0       5       0       5     49     49      0   1847     119       1  49    0e10f a70f      8.070 "
test,1583575721040289024,54," | 54  |   1992       5   1984       0 |   4    1      1956        28 |   1  12   61    0 720f |    4.211       0       4       0       4     12     12      0   1919      65       4  12    0720f a70f     30.240 "
test,1583575721018050048,55," | 55  |   1992       5   1971       0 |   5    0      1905        66 |   1  49    0    0 e10f |    2.014       0       5       0       5     49     49      0   1890      81       1  49    0e10f a70f      8.220 "
test,1583575721020930048,56," | 56  |   1992       5   1974       0 |   5    0      1944        30 |   2  12    0    0 720f |    2.807       0       5       0       5     12     12      0   1928      46       2  12    0720f a70f      8.850 "
test,1583575721023841024,57," | 57  |   1992       5   1929       0 |   5    0      1881        48 |   2  52    0    0  40f |    2.716       0       5       0       5     52     52      0   1768     161       2  52    0 40f a70f     11.130 "
test,1583575721042231040,58," | 58  |   1992       5   1983       0 |   3    2      1958        25 |   1  49   61    0 e10f |    2.746       0       3       0       3     49     49      0   1880     103       2  49    0e10f a70f     30.390 "
test,1583575721021964032,5," |  5  |   1992       5   1990       0 |   5    0      1817       173 |   1  12    0    0 720f |    2.014       0       5       0       5     12     12      0   1783     207       1  12    0720f a70f      9.570 "
test,1583575721023191040,60," | 60  |   1992       5   1983       0 |   5    0      1854       129 |   3  12    0    0 720f |    3.479       0       5       0       5     12     12      0   1824     159       3  12    0720f a70f      9.690 "
test,1583575721039962880,61," | 61  |   1992       5   1982       0 |   0    2      1896        86 |   0  61   49    1 640f |    0           0       0       0       8      0      0      0   1845     137       0  61    1640f a70f     30.180 "
test,1583575721019088896,7," |  7  |   1992       5   1989       0 |   5    0      1959        30 |   1  12    0    0 720f |    2.014       0       5       0       5     12     12      0   1949      40       1  12    0720f a70f      8.220 "
test,1583575721025505024,9," |  9  |   1992       5   1988       0 |   5    0      1916        72 |   1  12    0    0 720f |    2.044       0       5       0       5     12     12      0   1905      83       1  12    0720f a70f      9.000 "
