test,1583575508017436928,10," | 10  |   1140       5   1112       0 |   5    0      1098        14 |   1  54    0    0 740f |    1.983       0       5       0       5     54     54      0   1084      28       1  54    0740f a70f      8.790 "
test,1583575508038609920,12," | 12  |   1140       5   1138       0 |   2    3      1132         6 |  14  12   54    1  60f |   10.284       0       1       0       1     12     12      0   1111      27      14  12    1 60f a70f     30.210 "
test,1583575508020091904,13," | 13  |   1140       5   1136       0 |   5    0      1124        12 |   1  54    0    0 740f |    1.983       0       5       0       5     54     54      0   1112      24       1  54    0740f a70f      8.100 "
test,1583575508021894912,15," | 15  |   1140       5   1138       0 |   5    0      1097        41 |   1  12    0    0  60f |    2.075       0       5       0       5     12     12      0   1053      85       1  12    0 60f a70f     10.830 "
test,1583575508037303040,16," | 16  |   1140       5   1136       0 |   2    2      1095        41 |   2  46   54    0 4d0f |    6.469       0       2       0       2     46     46      0   1067      69       7  46    04d0f a70f     30.360 "
test,1583575508022171136,17," | 17  |   1140       5   1135       1 |   5    0      1122        14 |   2  24    0    0 b60f |    2.014       0       5       0       5     24     24      0   1087      49       1  24    0b60f a70f      8.970 "
test,1583575508019646976,18," | 18  |   1140       5   1135       0 |   5    0      1064        71 |   1  24    0    0 b60f |    2.044       0       5       0       5     24     24      0   1007     128       1  24    0b60f a70f      8.970 "
test,1583575508022396160,19," | 19  |   1140       5   1134       2 |   5    0      1122        14 |   2  24    0    0 b60f |    2.044       0       5       0       5     24     24      0   1084      52       1  24    0b60f a70f     10.440 "
test,1583575508018168832,1," |  1  |   1140       4   1137       0 |   5    0      1114        23 |   1  54    0    0 740f |    2.685       0       5       0       5     54     54      0   1106      31       1  54    0740f a70f      8.760 "
test,1583575508015054848,22," | 22  |   1140       5   1134       0 |   5    0      1122        12 |   1  24    0    0 b60f |    2.044       0       5       0       5     24     24      0   1063      71       1  24    0b60f a70f      8.220 "
test,1583575508037072896,23," | 23  |   1140       5   1078       0 |   2    3      1072         6 |   3  54   46    0 740f |   10.040       0       1       0       1     54     54      0   1051      27      12  54    0740f a70f     30.390 "
test,1583575508013294848,24," | 24  |   1140       5   1136       0 |   5    0      1130         6 |   2  24    0    1 b60f |    1.770       0       4       0       4     24     24      0   1099      37       2  24    1b60f a70f      6.510 "
test,1583575508013797120,26," | 26  |   1140       5   1136       0 |   5    0      1131         5 |   1  24    0    0 b60f |    2.044       0       5       0       5     24     24      0   1109      27       1  24    0b60f a70f      8.220 "
test,1583575508035129088,27," | 27  |   1140       3   1138       0 |   1    7      1109        29 |   4  54   12    0 740f |    0           0       0       0       8      0      0      0   1061      77       0  54    0740f a70f     30.390 "
test,1583575508020807936,28," | 28  |   1140       5   1136       0 |   3    0      1044        92 |   6  24    0    0 b60f |    2.044       0       5       0       5     24     24      0   1014     122       1  24    0b60f a70f      8.910 "
test,1583575508037522176,29," | 29  |   1140       4   1134       4 |   3    0      1008       130 |   7  24    0    0 b60f |    2.777       0       4       0       4     24     24      0    952     186       2  24    0b60f a70f     30.360 "
test,1583575508017252864,30," | 30  |   1140       5   1136       0 |   5    0      1120        16 |   2  24    0    0 b60f |    2.746       0       5       0       5     24     24      0   1087      49       2  24    0b60f a70f      8.790 "
test,1583575508019148032,35," | 35  |   1140       5   1136       0 |   5    0      1087        49 |   2  24    0    0 b60f |    2.807       0       5       0       5     24     24      0   1065      71       2  24    0b60f a70f      8.910 "
test,1583575508022962944,40," | 40  |   1140       4   1100      32 |   5    1      1040        92 |   1  46   24    0 4d0f |    2.777       0       5       0       5     46     46      0   1003     129       2  46    04d0f a70f     10.320 "
test,1583575508021230080,41," | 41  |   1140       5   1095      31 |   5    1      1110        16 |   1  46   24    0 4d0f |    2.044       0       5       0       5     46     46      0   1079      47       1  46    04d0f a70f      8.970 "
test,1583575508017637888,42," | 42  |   1140       5   1102      34 |   5    2      1093        43 |   1  46   24    0 4d0f |    2.075       0       5       0       5     46     46      0   1062      74       1  46    04d0f a70f      9.750 "
test,1583575508020579072,44," | 44  |   1140       5   1107      29 |   5    2      1103        33 |   1  46   24    0 4d0f |    2.014       0       5       0       5     46     46      0   1070      66       1  46    04d0f a70f      9.690 "
test,1583575508016406016,45," | 45  |   1140       5   1112      24 |   5    0      1090        46 |   1  46    0    0 4d0f |    2.044       0       5       0       5     46     46      0   1063      73       1  46    04d0f a70f      9.000 "
test,1583575508018560768,46," | 46  |   1140       5   1099      30 |   4    0      1070        59 |   8  46    0    1 4d0f |    1.739       0       4       0       4     46     46      0   1047      82       2  46    14d0f a70f      7.230 "
test,1583575508024583168,47," | 47  |   1140       5   1105      31 |   5    0      1089        47 |   1  46    0    0 4d0f |    2.044       0       5       0       5     46     46      0   1066      70       1  46    04d0f a70f      9.630 "
test,1583575508016978944,48," | 48  |   1140       5   1041      28 |   5    1      1032        37 |   1  46   24    0 4d0f |    2.044       0       5       0       5     46     46      0   1001      68       1  46    04d0f a70f      9.690 "
test,1583575508016665856,49," | 49  |   1140       5   1130       0 |   5    0      1115        15 |   2  54    0    0 740f |    2.716       0       5       0       5     54     54      0   1103      27       2  54    0740f a70f      8.790 "
test,1583575508015738880,51," | 51  |   1140       5   1131       0 |   5    0      1125         6 |   2  54    0    0 740f |    2.746       0       5       0       5     54     54      0   1123       8       2  54    0740f a70f      8.940 "
test,1583575508020952832,52," | 52  |   1140       3   1120      12 |   5    0      1075        57 |   1  24    0    0 b60f |    2.044       0       5       0       5     24     24      0   1053      79       1  24    0b60f a70f      9.000 "
test,1583575508019880960,53," | 53  |   1140       5   1114       0 |   5    0      1056        58 |   3  54    0    0 740f |    3.448       0       5       0       5     54     54      0   1044      70       3  54    0740f a70f      9.630 "
test,1583575508014839808,54," | 54  |   1140       5   1132       0 |   4    0      1114        18 |   2  54    0    1 740f |    1.739       0       4       0       4     54     54      0   1089      43       2  54    1740f a70f      6.480 "
test,1583575508015980032,55," | 55  |   1140       5   1119       0 |   5    0      1074        45 |   2  54    0    0 740f |    2.746       0       5       0       5     54     54      0   1065      54       2  54    0740f a70f      8.970 "
test,1583575508024851968,56," | 56  |   1140       5   1122       0 |   5    0      1103        19 |   2  54    0    0 740f |    2.716       0       5       0       5     54     54      0   1095      27       2  54    0740f a70f      8.880 "
test,1583575508018949888,57," | 57  |   1140       3   1077       0 |   5    0      1044        33 |   2  54    0    0 740f |    3.479       0       5       0       5     54     54      0    983      94       3  54    0740f a70f      9.540 "
test,1583575508015505920,58," | 58  |   1140       5   1131       0 |   4    2      1114        17 |   1  54   12    0 740f |    2.014       0       5       0       5     54     54      0   1073      58       1  54    0740f a70f      8.970 "
test,1583575508020387840,5," |  5  |   1140       5   1138       0 |   3    5      1038       100 |   6  54   12    0 740f |    2.716       0       5       0       5     54     54      0   1018     120       2  54    0740f a70f      8.910 "
test,1583575508018362880,60," | 60  |   1140       5   1131       0 |   5    0      1057        74 |   3  54    0    0 740f |    3.448       0       5       0       5     54     54      0   1044      87       3  54    0740f a70f      9.600 "
test,1583575508013999104,61," | 61  |   1140       5   1130       0 |   5    0      1080        50 |   1  54    0    0 740f |    2.014       0       5       0       5     54     54      0   1046      84       1  54    0740f a70f      8.100 "
test,1583575508018006016,7," |  7  |   1140       5   1137       0 |   5    0      1117        20 |   2  54    0    0 740f |    2.746       0       5       0       5     54     54      0   1112      25       2  54    0740f a70f      8.880 "
test,1583575508014669056,9," |  9  |   1140       5   1136       0 |   5    0      1091        45 |   1  54    0    0 740f |    1.983       0       5       0       5     54     54      0   1084      52       1  54    0740f a70f      8.160 "
