test,1583575591016320000,10," | 10  |   1472       5   1444       0 |   5    0      1423        21 |   1   9    0    0 b30f |    2.075       0       5       0       5      9      9      0   1406      38       1   9    0b30f a70f      9.030 "
test,1583575591017837056,12," | 12  |   1472       5   1470       0 |   5    0      1461         9 |   1   9    0    0 b30f |    2.044       0       5       0       5      9      9      0   1434      36       1   9    0b30f a70f      8.910 "
test,1583575591016886016,13," | 13  |   1472       5   1468       0 |   5    0      1453        15 |   1   9    0    0 b30f |    2.044       0       5       0       5      9      9      0   1436      32       1   9    0b30f a70f      8.220 "
test,1583575591020338176,15," | 15  |   1472       5   1470       0 |   5    0      1413        57 |   2   9    0    0 b30f |    2.777       0       5       0       5      9      9      0   1356     114       2   9    0b30f a70f      9.600 "
test,1583575591019307008,16," | 16  |   1472       5   1468       0 |   5    0      1416        52 |   2  42    0    0 3b0f |    2.777       0       5       0       5     42     42      0   1375      93       2  42    03b0f a70f      9.660 "
test,1583575591028178944,17," | 17  |   1472       4   1467       1 |   5    0      1450        18 |   2  42    0    0 3b0f |    2.807       0       5       0       5     42     42      0   1398      70       2  42    03b0f a70f      9.690 "
test,1583575591022016000,18," | 18  |   1472       5   1467       0 |   5    0      1377        90 |   2  42    0    0 3b0f |    2.075       0       5       0       5     42     42      0   1297     170       1  42    03b0f a70f      8.130 "
test,1583575591022260992,19," | 19  |   1472       5   1466       2 |   5    0      1451        17 |   3  42    0    0 3b0f |    2.777       0       5       0       5     42     42      0   1402      66       2  42    03b0f a70f     11.850 "
test,1583575591015828992,1," |  1  |   1472       4   1469       0 |   5    0      1435        34 |   1   9    0    0 b30f |    2.746       0       5       0       5      9      9      0   1425      44       1   9    0b30f a70f      8.910 "
test,1583575591018300160,22," | 22  |   1472       5   1466       0 |   5    0      1454        12 |   2  42    0    0 3b0f |    2.044       0       5       0       5     42     42      0   1370      96       1  42    03b0f a70f      8.970 "
test,1583575591020998912,23," | 23  |   1472       5   1410       0 |   5    0      1401         9 |   3  42    0    0 3b0f |    2.777       0       5       0       5     42     42      0   1371      39       2  42    03b0f a70f     10.440 "
test,1583575591018071040,24," | 24  |   1472       5   1468       0 |   5    0      1460         8 |   2  42    0    0 3b0f |    2.044       0       5       0       5     42     42      0   1420      48       1  42    03b0f a70f      8.220 "
test,1583575591025206016,26," | 26  |   1472       5   1468       0 |   5    0      1463         5 |   2  42    0    0 3b0f |    2.807       0       5       0       5     42     42      0   1431      37       2  42    03b0f a70f      9.690 "
test,1583575591023315968,27," | 27  |   1472       5   1470       0 |   4    0      1432        38 |   4  42    0    0 3b0f |    4.241       0       5       0       5     42     42      0   1359     111       4  42    03b0f a70f     10.980 "
test,1583575591027640064,28," | 28  |   1472       5   1468       0 |   5    0      1351       117 |   3  42    0    0 3b0f |    3.509       0       5       0       5     42     42      0   1307     161       3  42    03b0f a70f      9.690 "
test,1583575591026479104,29," | 29  |   1472       4   1466       4 |   5    0      1301       169 |   4  42    0    0 3b0f |    3.509       0       5       0       5     42     42      0   1225     245       3  42    03b0f a70f     12.570 "
test,1583575591022625024,30," | 30  |   1472       5   1468       0 |   5    0      1446        22 |   3  42    0    0 3b0f |    2.807       0       5       0       5     42     42      0   1400      68       2  42    03b0f a70f      9.630 "
test,1583575591019664128,35," | 35  |   1472       5   1468       0 |   5    0      1400        68 |   3  42    0    0 3b0f |    2.777       0       5       0       5     42     42      0   1371      97       2  42    03b0f a70f      9.000 "
test,1583575591023821056,40," | 40  |   1472       5   1432      32 |   5    0      1351       113 |   2  42    0    0 3b0f |    2.044       0       5       0       5     42     42      0   1305     159       1  42    03b0f a70f      9.000 "
test,1583575591021699840,41," | 41  |   1472       5   1426      32 |   5    0      1442        16 |   1  42    0    0 3b0f |    2.044       0       5       0       5     42     42      0   1397      61       1  42    03b0f a70f      8.220 "
test,1583575591018472960,42," | 42  |   1472       5   1433      35 |   5    0      1421        47 |   8  42    0    1 3b0f |    1.739       0       4       0       4     42     42      0   1377      91       2  42    13b0f a70f      6.480 "
test,1583575591017623040,44," | 44  |   1472       5   1438      30 |   5    0      1427        41 |   1  42    0    0 3b0f |    2.014       0       5       0       5     42     42      0   1384      84       1  42    03b0f a70f      8.130 "
test,1583575591018834176,45," | 45  |   1472       5   1444      24 |   5    0      1412        56 |   1  42    0    0 3b0f |    1.983       0       5       0       5     42     42      0   1377      91       1  42    03b0f a70f      8.220 "
test,1583575591020122112,46," | 46  |   1472       5   1430      31 |   5    0      1389        72 |   1  42    0    0 3b0f |    2.044       0       5       0       5     42     42      0   1358     103       1  42    03b0f a70f      8.280 "
test,1583575591019510016,47," | 47  |   1472       5   1436      32 |   5    0      1411        57 |   1  42    0    0 3b0f |    2.044       0       5       0       5     42     42      0   1373      95       1  42    03b0f a70f      8.130 "
test,1583575591026290944,48," | 48  |   1472       5   1372      29 |   5    0      1357        44 |   1  42    0    0 3b0f |    2.075       0       5       0       5     42     42      0   1317      84       1  42    03b0f a70f      8.130 "
test,1583575591018640128,49," | 49  |   1472       5   1462       0 |   5    0      1440        22 |   5   9    0    0 b30f |    3.509       0       5       0       5      9      9      0   1426      36       3   9    0b30f a70f      9.600 "
test,1583575591020509952,51," | 51  |   1472       5   1463       0 |   5    0      1454         9 |   2   9    0    0 b30f |    2.807       0       5       0       5      9      9      0   1453      10       2   9    0b30f a70f      9.600 "
test,1583575591023586048,52," | 52  |   1472       1   1452      12 |   5    0      1388        76 |   3  42    0    0 3b0f |    2.777       0       5       0       5     42     42      0   1360     104       2  42    03b0f a70f      9.000 "
test,1583575591031961856,53," | 53  |   1472       5   1446       0 |   5    0      1369        77 |   6   9    0    0 b30f |    4.241       0       5       0       5      9      9      0   1352      94       4   9    0b30f a70f     10.320 "
test,1583575591017415168,54," | 54  |   1472       5   1464       0 |   5    0      1444        20 |   1   9    0    0 b30f |    2.044       0       5       0       5      9      9      0   1413      51       1   9    0b30f a70f      9.000 "
test,1583575591019073024,55," | 55  |   1472       5   1451       0 |   5    0      1402        49 |   5   9    0    0 b30f |    3.509       0       5       0       5      9      9      0   1391      60       3   9    0b30f a70f      9.570 "
test,1583575591017133824,56," | 56  |   1472       5   1454       0 |   5    0      1430        24 |   3   9    0    0 b30f |    2.807       0       5       0       5      9      9      0   1422      32       2   9    0b30f a70f      8.910 "
test,1583575591024421888,57," | 57  |   1472       4   1409       0 |   1    8      1371        38 |   3  42   60    0 3b0f |    2.807       0       5       0       5     42     42      0   1293     116       2  42    03b0f a70f     10.350 "
test,1583575591037370880,58," | 58  |   1472       5   1463       0 |   5    0      1444        19 |   4   9    0    0 b30f |    2.746       0       2       0       2      9      9      0   1388      75       2   9    0b30f a70f     30.360 "
test,1583575591033828096,5," |  5  |   1472       4   1470       0 |   5    0      1345       125 |   2   9    0    0 b30f |    2.807       0       5       0       5      9      9      0   1319     151       2   9    0b30f a70f     10.260 "
test,1583575591038222080,60," | 60  |   1472       5   1463       0 |   0    7      1372        91 |   0  60    9    1 a00f |    0           0       0       0       8      0      0      0   1356     107       0  60    1a00f a70f     30.180 "
test,1583575591039232000,61," | 61  |   1472       5   1462       0 |   5    0      1400        62 |   4   9    0    0 b30f |    2.777       0       2       0       2      9      9      0   1356     106       2   9    0b30f a70f     30.390 "
test,1583575591016030976,7," |  7  |   1472       5   1469       0 |   5    0      1447        22 |   1   9    0    0 b30f |    2.044       0       5       0       5      9      9      0   1439      30       1   9    0b30f a70f      8.250 "
test,1583575591014817024,9," |  9  |   1472       5   1468       0 |   5    0      1414        54 |   2   9    0    1 b30f |    1.739       0       4       0       4      9      9      0   1404      64       2   9    1b30f a70f      6.480 "
