test,1583575622017658112,10," | 10  |   1596       5   1568       0 |   5    0      1547        21 |   1  12    0    0 e20f |    2.014       0       5       0       5     12     12      0   1526      42       1  12    0e20f a70f      8.250 "
test,1583575622016136960,12," | 12  |   1596       5   1594       0 |   4    0      1581        13 |   2  12    0    1 e20f |    1.739       0       4       0       4     12     12      0   1556      38       2  12    1e20f a70f      6.480 "
test,1583575622017862144,13," | 13  |   1596       5   1592       0 |   5    0      1577        15 |   1  12    0    0 e20f |    2.044       0       5       0       5     12     12      0   1558      34       1  12    0e20f a70f      8.250 "
test,1583575622017303040,15," | 15  |   1596       5   1594       0 |   5    0      1535        59 |   1  12    0    0 e20f |    1.983       0       5       0       5     12     12      0   1473     121       1  12    0e20f a70f      8.250 "
test,1583575622020258816,16," | 16  |   1596       5   1592       0 |   5    0      1532        60 |   2  27    0    0 a60f |    2.777       0       5       0       5     27     27      0   1488     104       2  27    0a60f a70f      8.970 "
test,1583575622022414848,17," | 17  |   1596       5   1591       1 |   5    0      1574        18 |   2  27    0    0 a60f |    2.075       0       5       0       5     27     27      0   1516      76       1  27    0a60f a70f      8.130 "
test,1583575622025860096,18," | 18  |   1596       5   1591       0 |   4    0      1495        96 |   4  27    0    0 a60f |    3.540       0       5       0       5     27     27      0   1412     179       3  27    0a60f a70f      9.540 "
test,1583575622022067968,19," | 19  |   1596       5   1590       2 |   5    0      1575        17 |   1  27    0    0 a60f |    2.075       0       5       0       5     27     27      0   1521      71       1  27    0a60f a70f      8.250 "
test,1583575622021688832,1," |  1  |   1596       4   1593       0 |   5    0      1553        40 |   1  12    0    0 e20f |    2.716       0       5       0       5     12     12      0   1540      53       1  12    0e20f a70f      8.790 "
test,1583575622019494144,22," | 22  |   1596       5   1590       0 |   3    0      1578        12 |   4  27    0    0 a60f |    3.479       0       5       0       5     27     27      0   1488     102       3  27    0a60f a70f      9.660 "
test,1583575622017078016,23," | 23  |   1596       5   1534       0 |   5    0      1525         9 |   1  27    0    0 a60f |    2.014       0       5       0       5     27     27      0   1490      44       1  27    0a60f a70f      8.250 "
test,1583575622019109120,24," | 24  |   1596       5   1592       0 |   5    0      1584         8 |   4  27    0    0 a60f |    3.509       0       5       0       5     27     27      0   1541      51       3  27    0a60f a70f      9.750 "
test,1583575622020987136,26," | 26  |   1596       5   1592       0 |   5    0      1585         7 |   3  27    0    0 a60f |    2.746       0       5       0       5     27     27      0   1552      40       2  27    0a60f a70f      8.940 "
test,1583575622026227968,27," | 27  |   1596       5   1594       0 |   1    1      1552        42 |  13  27   12    1 a60f |    1.739       0       4       0       4     27     27      0   1473     121       2  27    1a60f a70f     10.080 "
test,1583575622041562112,28," | 28  |   1596       5   1592       0 |   3    2      1464       128 |   6  28   27    1 380f |    6.866       0       2       0       2     28     28      0   1418     174       9  28    1380f a70f     30.300 "
test,1583575622030371072,29," | 29  |   1596       5   1590       4 |   3    0      1408       186 |   1  27    0    0 a60f |    2.044       0       5       0       5     27     27      0   1327     267       1  27    0a60f a70f     10.320 "
test,1583575622029584896,30," | 30  |   1596       5   1592       0 |   5    0      1567        25 |   1  28    0    0 380f |    2.044       0       5       0       5     28     28      0   1518      74       1  28    0380f a70f      8.250 "
test,1583575622024102912,35," | 35  |   1596       5   1592       0 |   5    0      1520        72 |   2  28    0    0 380f |    2.746       0       5       0       5     28     28      0   1489     103       2  28    0380f a70f      9.000 "
test,1583575622042827008,40," | 40  |   1596       5   1556      32 |   3    6      1465       123 |   2  45   44    0 4e0f |    6.988       0       4       0       4     45     45      0   1419     169       8  45    04e0f a70f     30.240 "
test,1583575622022917888,41," | 41  |   1596       5   1550      32 |   3    7      1566        16 |   1  45   44    0 4e0f |    6.225       0       5       0       5     45     45      0   1521      61       7  45    04e0f a70f     12.390 "
test,1583575622019659008,42," | 42  |   1596       5   1557      35 |   4    6      1545        47 |   1  47   44    0 210f |    2.014       0       5       0       5     47     47      0   1498      94       1  47    0210f a70f      8.250 "
test,1583575622037587968,44," | 44  |   1596       5   1562      30 |   0    5      1550        42 |   0  44   27    1 d20f |    0           0       0       0       8      0      0      0   1506      86       0  44    1d20f a70f     30.120 "
test,1583575622039652096,45," | 45  |   1596       5   1568      24 |   2    7      1532        60 |   4  45   44    1 4e0f |    5.981       0       3       0       3     45     45      0   1497      95       8  45    14e0f a70f     30.210 "
test,1583575622023865088,46," | 46  |   1596       5   1554      31 |   3    7      1509        76 |   2  45   44    0 4e0f |    7.019       0       5       0       5     45     45      0   1478     107       8  45    04e0f a70f     13.020 "
test,1583575622016325120,47," | 47  |   1596       5   1560      32 |   4    6      1535        57 |   2  47   44    1 210f |    1.739       0       4       0       4     47     47      0   1496      96       2  47    1210f a70f      6.480 "
test,1583575622038716928,48," | 48  |   1596       5   1496      29 |   3    6      1478        47 |   4  47   44    0 210f |    2.777       0       3       0       3     47     47      0   1439      86       2  47    0210f a70f     30.300 "
test,1583575622018231040,49," | 49  |   1596       5   1586       0 |   5    0      1561        25 |   2  12    0    0 e20f |    2.746       0       5       0       5     12     12      0   1546      40       2  12    0e20f a70f      8.970 "
test,1583575622020829952,51," | 51  |   1596       5   1587       0 |   5    0      1577        10 |   2  12    0    0 e20f |    2.777       0       5       0       5     12     12      0   1572      15       2  12    0e20f a70f      8.820 "
test,1583575622027458048,52," | 52  |   1596       4   1574      14 |   3    0      1506        82 |   2  27    0    0 a60f |    2.777       0       5       0       5     27     27      0   1473     115       2  27    0a60f a70f      8.970 "
test,1583575622021214976,53," | 53  |   1596       5   1570       0 |   5    0      1492        78 |   3  12    0    0 e20f |    3.448       0       5       0       5     12     12      0   1473      97       3  12    0e20f a70f      9.690 "
test,1583575622041064960,54," | 54  |   1596       5   1588       0 |   5    0      1566        22 |   1  12    0    0 e20f |    1.983       0       3       0       3     12     12      0   1536      52       1  12    0e20f a70f     30.390 "
test,1583575622019849984,55," | 55  |   1596       5   1575       0 |   5    0      1520        55 |   2  12    0    0 e20f |    2.777       0       5       0       5     12     12      0   1508      67       2  12    0e20f a70f      8.970 "
test,1583575622018921984,56," | 56  |   1596       5   1578       0 |   5    0      1551        27 |   2  12    0    0 e20f |    2.777       0       5       0       5     12     12      0   1540      38       2  12    0e20f a70f      9.000 "
test,1583575622038275072,57," | 57  |   1596       3   1533       0 |   4    0      1494        39 |   2  12    0    0 e20f |    0           0       0       0       8      0      0      0   1404     129       0  12    0e20f a70f     30.360 "
test,1583575622016901120,58," | 58  |   1596       5   1587       0 |   5    0      1567        20 |   1  12    0    0 e20f |    2.044       0       5       0       5     12     12      0   1502      85       1  12    0e20f a70f      8.250 "
test,1583575622020025856,5," |  5  |   1596       5   1594       0 |   5    0      1455       139 |   1  12    0    0 e20f |    2.014       0       5       0       5     12     12      0   1427     167       1  12    0e20f a70f      8.130 "
test,1583575622023294976,60," | 60  |   1596       5   1587       0 |   5    0      1485       102 |   3  12    0    0 e20f |    3.509       0       5       0       5     12     12      0   1464     123       3  12    0e20f a70f      9.540 "
test,1583575622018048000,61," | 61  |   1596       5   1586       0 |   5    0      1519        67 |   2  12    0    0 e20f |    2.777       0       5       0       5     12     12      0   1475     111       2  12    0e20f a70f      8.970 "
test,1583575622018397184,7," |  7  |   1596       5   1593       0 |   5    0      1569        24 |   1  12    0    0 e20f |    2.044       0       5       0       5     12     12      0   1561      32       1  12    0e20f a70f      8.250 "
test,1583575622016704000,9," |  9  |   1596       5   1592       0 |   5    0      1535        57 |   1  12    0    0 e20f |    2.014       0       5       0       5     12     12      0   1525      67       1  12    0e20f a70f      8.250 "
