test,1583575602789501952,10," | 10  |   1519       5   1491       0 |   5    0      1470        21 |   2  49    0    0 ad0f |    2.716       0       4       0       4     49     49      0   1452      39       2  49    0ad0f a70f     30.390 "
test,1583575602786904064,12," | 12  |   1519       5   1517       0 |   5    1      1506        11 |   2  49    1    0 ad0f |    2.746       0       2       0       2     49     49      0   1480      37       2  49    0ad0f a70f     30.330 "
test,1583575602774554880,13," | 13  |   1519       5   1515       0 |   5    7      1500        15 |   1   1   49    0 590f |    1.373       0       5       0       5      1      1      0   1482      33       1   1    0590f a70f     10.170 "
test,1583575602789814016,15," | 15  |   1519       5   1517       0 |   5    1      1459        58 |   3  49   16    0 ad0f |    3.448       0       3       0       3     49     49      0   1400     117       3  49    0ad0f a70f     30.390 "
test,1583575602761858816,16," | 16  |   1519       5   1515       0 |   4    0      1461        54 |   3  16    0    1 ce0f |    1.739       0       4       0       4     16     16      0   1419      96       2  16    1ce0f a70f      6.480 "
test,1583575602788260096,17," | 17  |   1519       5   1514       1 |   5    0      1497        18 |   4  16    0    0 ce0f |    2.807       0       4       0       4     16     16      0   1445      70       2  16    0ce0f a70f     30.330 "
test,1583575602775393024,18," | 18  |   1519       5   1514       0 |   5    0      1421        93 |   3  16    0    0 ce0f |    3.479       0       5       0       5     16     16      0   1338     176       3  16    0ce0f a70f      9.660 "
test,1583575602766995968,19," | 19  |   1519       5   1513       2 |   2    5      1498        17 |   8  19   16    1 380f |    1.739       0       4       0       4     19     19      0   1449      66       2  19    1380f a70f      6.510 "
test,1583575602785495040,1," |  1  |   1519       4   1516       0 |   4    8      1478        38 |   5   1   49    1 590f |    0           0       0       0       8      0      0      0   1467      49       0   1    1590f a70f     30.210 "
test,1583575602774993920,22," | 22  |   1519       5   1513       0 |   5    0      1501        12 |   2  16    0    0 ce0f |    2.807       0       5       0       5     16     16      0   1415      98       2  16    0ce0f a70f      8.850 "
test,1583575602772536064,23," | 23  |   1519       5   1457       0 |   5    0      1448         9 |   1  16    0    0 ce0f |    2.014       0       5       0       5     16     16      0   1417      40       1  16    0ce0f a70f      9.690 "
test,1583575602771212032,24," | 24  |   1519       5   1515       0 |   5    0      1507         8 |   3  16    0    0 ce0f |    2.777       0       5       0       5     16     16      0   1467      48       2  16    0ce0f a70f      9.000 "
test,1583575602772980992,26," | 26  |   1519       5   1515       0 |   5    0      1508         7 |   2  16    0    0 ce0f |    2.777       0       5       0       5     16     16      0   1475      40       2  16    0ce0f a70f      8.970 "
test,1583575602770874112,27," | 27  |   1519       5   1517       0 |   4    8      1477        40 |   1  19   16    0 380f |    2.044       0       5       0       5     19     19      0   1403     114       1  19    0380f a70f      8.100 "
test,1583575602774283008,28," | 28  |   1519       4   1515       0 |   5    0      1395       120 |   4  16    0    0 ce0f |    3.540       0       5       0       5     16     16      0   1349     166       3  16    0ce0f a70f     10.380 "
test,1583575602776374016,29," | 29  |   1519       3   1513       4 |   4    0      1340       177 |   1  19    0    0 380f |    2.014       0       5       0       5     19     19      0   1263     254       1  19    0380f a70f      8.220 "
test,1583575602769922048,30," | 30  |   1519       5   1515       0 |   5    0      1491        24 |   3  16    0    0 ce0f |    3.540       0       5       0       5     16     16      0   1444      71       3  16    0ce0f a70f      9.630 "
test,1583575602769565952,35," | 35  |   1519       5   1515       0 |   5    0      1445        70 |   3  16    0    0 ce0f |    3.509       0       5       0       5     16     16      0   1415     100       3  16    0ce0f a70f      9.720 "
test,1583575602777079040,40," | 40  |   1519       5   1479      32 |   4    0      1394       117 |   3  16    0    0 ce0f |    2.777       0       5       0       5     16     16      0   1348     163       2  16    0ce0f a70f     10.290 "
test,1583575602770386944,41," | 41  |   1519       5   1473      32 |   5    0      1489        16 |   1  16    0    0 ce0f |    2.746       0       5       0       5     16     16      0   1444      61       2  16    0ce0f a70f      9.690 "
test,1583575602768955904,42," | 42  |   1519       5   1480      35 |   5    0      1468        47 |   2  16    0    0 ce0f |    2.746       0       5       0       5     16     16      0   1422      93       2  16    0ce0f a70f      9.690 "
test,1583575602778462976,44," | 44  |   1519       5   1485      30 |   5    0      1474        41 |   2  16    0    0 ce0f |    2.716       0       5       0       5     16     16      0   1431      84       2  16    0ce0f a70f      8.910 "
test,1583575602772756992,45," | 45  |   1519       5   1491      24 |   5    0      1457        58 |   1  16    0    0 ce0f |    2.014       0       5       0       5     16     16      0   1422      93       1  16    0ce0f a70f      8.220 "
test,1583575602777970944,46," | 46  |   1519       5   1477      31 |   5    0      1436        72 |   2  16    0    0 ce0f |    2.777       0       5       0       5     16     16      0   1405     103       2  16    0ce0f a70f      9.540 "
test,1583575602771462912,47," | 47  |   1519       5   1483      32 |   5    0      1458        57 |   2  16    0    0 ce0f |    2.807       0       5       0       5     16     16      0   1420      95       2  16    0ce0f a70f      9.630 "
test,1583575602772197120,48," | 48  |   1519       5   1419      29 |   5    0      1403        45 |   2  16    0    0 ce0f |    2.777       0       5       0       5     16     16      0   1363      85       2  16    0ce0f a70f      9.690 "
test,1583575602766003968,49," | 49  |   1519       5   1509       0 |   4    0      1486        23 |   2  49    0    1 ad0f |    1.739       0       4       0       4     49     49      0   1472      37       2  49    1ad0f a70f      6.480 "
test,1583575602773998080,51," | 51  |   1519       5   1510       0 |   5    0      1501         9 |   3  49    0    0 ad0f |    3.448       0       5       0       5     49     49      0   1499      11       3  49    0ad0f a70f      9.510 "
test,1583575602778202112,52," | 52  |   1519       4   1498      13 |   5    0      1434        77 |   1  16    0    0 ce0f |    2.075       0       5       0       5     16     16      0   1404     107       1  16    0ce0f a70f      9.570 "
test,1583575602767508992,53," | 53  |   1519       5   1493       0 |   5    0      1415        78 |   1  49    0    0 ad0f |    1.953       0       5       0       5     49     49      0   1397      96       1  49    0ad0f a70f      8.190 "
test,1583575602788893952,54," | 54  |   1519       5   1511       0 |   5    0      1491        20 |   2  49    0    0 ad0f |    2.716       0       3       0       3     49     49      0   1460      51       2  49    0ad0f a70f     30.390 "
test,1583575602766633984,55," | 55  |   1519       5   1498       0 |   5    0      1446        52 |   1  49    0    0 ad0f |    2.014       0       5       0       5     49     49      0   1435      63       1  49    0ad0f a70f      8.220 "
test,1583575602768343808,56," | 56  |   1519       5   1501       0 |   5    0      1477        24 |   2  49    0    0 ad0f |    2.746       0       5       0       5     49     49      0   1468      33       2  49    0ad0f a70f      8.970 "
test,1583575602773227008,57," | 57  |   1519       5   1456       0 |   5    0      1417        39 |   3  16    0    0 ce0f |    2.807       0       5       0       5     16     16      0   1334     122       2  16    0ce0f a70f     10.380 "
test,1583575602773748992,58," | 58  |   1519       5   1510       0 |   5    0      1490        20 |   1  49    0    0 ad0f |    2.014       0       5       0       5     49     49      0   1431      79       1  49    0ad0f a70f      9.000 "
test,1583575602790121984,5," |  5  |   1519       5   1517       0 |   5    0      1389       128 |   3  49    0    0 ad0f |    3.509       0       3       0       3     49     49      0   1361     156       3  49    0ad0f a70f     30.300 "
test,1583575602775798016,60," | 60  |   1519       5   1510       0 |   5    0      1415        95 |   3  49    0    0 ad0f |    4.211       0       5       0       5     49     49      0   1397     113       4  49    0ad0f a70f     10.260 "
test,1583575602771746048,61," | 61  |   1519       5   1509       0 |   5    0      1444        65 |   2  49    0    0 ad0f |    2.716       0       5       0       5     49     49      0   1401     108       2  49    0ad0f a70f      9.570 "
test,1583575602768619008,7," |  7  |   1519       5   1516       0 |   5    7      1493        23 |   1   1   49    0 590f |    1.342       0       5       0       5      1      1      0   1485      31       1   1    0590f a70f     10.170 "
test,1583575602786096128,9," |  9  |   1519       5   1515       0 |   0   16      1460        55 |   0   9    1    1 680f |    0           0       0       0       8      0      0      0   1450      65       0   9    1680f a70f     30.210 "
