test,1583575560766031872,10," | 10  |   1351       5   1323       0 |   5    0      1304        19 |   1   9    0    0 9e0f |    1.983       0       5       0       5      9      9      0   1288      35       1   9    09e0f a70f      8.220 "
test,1583575560765785088,12," | 12  |   1351       5   1349       0 |   5    0      1341         8 |   1   9    0    0 9e0f |    2.716       0       5       0       5      9      9      0   1317      32       2   9    09e0f a70f      8.940 "
test,1583575560766441216,13," | 13  |   1351       5   1347       0 |   5    0      1332        15 |   1   9    0    0 9e0f |    2.746       0       5       0       5      9      9      0   1316      31       2   9    09e0f a70f      8.820 "
test,1583575560786859008,15," | 15  |   1351       5   1349       0 |   4    2      1295        54 |   5   9    5    0 9e0f |    3.448       0       4       0       4      9      9      0   1242     107       3   9    09e0f a70f     30.390 "
test,1583575560769970944,16," | 16  |   1351       5   1347       0 |   5    0      1300        47 |   2  45    0    0 cb0f |    2.044       0       5       0       5     45     45      0   1265      82       1  45    0cb0f a70f      8.190 "
test,1583575560771080960,17," | 17  |   1351       5   1346       1 |   5    0      1332        15 |   2  45    0    0 cb0f |    2.777       0       5       0       5     45     45      0   1286      61       2  45    0cb0f a70f      9.000 "
test,1583575560768488960,18," | 18  |   1351       5   1346       0 |   5    0      1265        81 |   2  45    0    0 cb0f |    2.777       0       5       0       5     45     45      0   1193     153       2  45    0cb0f a70f      8.820 "
test,1583575560772795904,19," | 19  |   1351       5   1345       2 |   5    0      1333        14 |   4  45    0    0 cb0f |    3.540       0       5       0       5     45     45      0   1290      57       3  45    0cb0f a70f      9.570 "
test,1583575560765250816,1," |  1  |   1351       4   1348       0 |   5    0      1315        33 |   1   9    0    0 9e0f |    2.685       0       5       0       5      9      9      0   1306      42       1   9    09e0f a70f      8.910 "
test,1583575560770586880,22," | 22  |   1351       5   1345       0 |   5    0      1333        12 |   2  45    0    0 cb0f |    2.777       0       5       0       5     45     45      0   1259      86       2  45    0cb0f a70f     10.380 "
test,1583575560769494016,23," | 23  |   1351       5   1289       0 |   5    0      1281         8 |   3  45    0    0 cb0f |    2.807       0       5       0       5     45     45      0   1258      31       2  45    0cb0f a70f      8.910 "
test,1583575560767641088,24," | 24  |   1351       5   1347       0 |   5    0      1339         8 |   2  45    0    0 cb0f |    2.807       0       5       0       5     45     45      0   1304      43       2  45    0cb0f a70f      9.720 "
test,1583575560767836928,26," | 26  |   1351       5   1347       0 |   5    0      1342         5 |   2  45    0    0 cb0f |    2.807       0       5       0       5     45     45      0   1314      33       2  45    0cb0f a70f      8.850 "
test,1583575560771822848,27," | 27  |   1351       5   1349       0 |   5    0      1318        31 |   3  45    0    0 cb0f |    3.509       0       5       0       5     45     45      0   1254      95       3  45    0cb0f a70f     10.350 "
test,1583575560788630016,28," | 28  |   1351       5   1347       0 |   4    1      1242       105 |   2  20   45    0 780f |    7.720       0       3       0       3     20     20      0   1204     143       9  20    0780f a70f     30.360 "
test,1583575560789922048,29," | 29  |   1351       4   1345       4 |   4    0      1195       154 |   4  45    0    0 cb0f |    5.737       0       3       0       3     45     45      0   1127     222       6  45    0cb0f a70f     30.210 "
test,1583575560769166080,30," | 30  |   1351       5   1347       0 |   5    0      1326        21 |   1  20    0    0 780f |    4.058       0       5       0       5     20     20      0   1286      61       4  20    0780f a70f     10.110 "
test,1583575560770189056,35," | 35  |   1351       5   1347       0 |   5    0      1287        60 |   2  20    0    0 780f |    4.791       0       5       0       5     20     20      0   1260      87       5  20    0780f a70f     10.980 "
test,1583575560773272064,40," | 40  |   1351       4   1311      32 |   5    0      1237       106 |   1  45    0    0 cb0f |    2.075       0       5       0       5     45     45      0   1195     148       1  45    0cb0f a70f     10.320 "
test,1583575560775289088,41," | 41  |   1351       5   1305      32 |   5    0      1321        16 |   1  45    0    0 cb0f |    2.014       0       5       0       5     45     45      0   1277      60       1  45    0cb0f a70f      8.940 "
test,1583575560777564160,42," | 42  |   1351       5   1312      35 |   5    0      1301        46 |   1  45    0    0 cb0f |    2.075       0       5       0       5     45     45      0   1260      87       1  45    0cb0f a70f      9.750 "
test,1583575560776566016,44," | 44  |   1351       5   1317      30 |   5    0      1308        39 |   1  45    0    0 cb0f |    2.044       0       5       0       5     45     45      0   1266      81       1  45    0cb0f a70f      9.570 "
test,1583575560770778880,45," | 45  |   1351       5   1323      24 |   4    0      1293        54 |   4  45    0    1 cb0f |    1.739       0       4       0       4     45     45      0   1259      88       2  45    1cb0f a70f      6.480 "
test,1583575560773751040,46," | 46  |   1351       5   1309      31 |   5    0      1274        66 |   1  45    0    0 cb0f |    2.807       0       5       0       5     45     45      0   1244      96       2  45    0cb0f a70f      9.600 "
test,1583575560767267072,47," | 47  |   1351       5   1315      32 |   5    0      1295        52 |   1  45    0    0 cb0f |    2.075       0       5       0       5     45     45      0   1258      89       1  45    0cb0f a70f      9.690 "
test,1583575560772445952,48," | 48  |   1351       4   1251      29 |   5    0      1238        42 |   1  45    0    0 cb0f |    2.044       0       5       0       5     45     45      0   1200      80       1  45    0cb0f a70f      9.690 "
test,1583575560766253824,49," | 49  |   1351       5   1341       0 |   5    0      1324        17 |   1  53    0    0 7b0f |    2.044       0       5       0       5     53     53      0   1312      29       1  53    07b0f a70f      8.130 "
test,1583575560767431936,51," | 51  |   1351       5   1342       0 |   5    0      1334         8 |   2   9    0    0 9e0f |    2.777       0       5       0       5      9      9      0   1333       9       2   9    09e0f a70f      8.970 "
test,1583575560769341952,52," | 52  |   1351       5   1331      12 |   5    0      1273        70 |   3  45    0    0 cb0f |    2.807       0       5       0       5     45     45      0   1249      94       2  45    0cb0f a70f      8.850 "
test,1583575560769788928,53," | 53  |   1351       5   1325       0 |   5    0      1255        70 |   2  53    0    1 7b0f |    1.739       0       4       0       4     53     53      0   1242      83       2  53    17b0f a70f      6.510 "
test,1583575560765603072,54," | 54  |   1351       5   1343       0 |   5    0      1324        19 |   1   9    0    0 9e0f |    2.044       0       5       0       5      9      9      0   1298      45       1   9    09e0f a70f      8.280 "
test,1583575560766691072,55," | 55  |   1351       5   1330       0 |   5    0      1285        45 |   1  53    0    0 7b0f |    2.014       0       5       0       5     53     53      0   1276      54       1  53    07b0f a70f      8.130 "
test,1583575560772009984,56," | 56  |   1351       5   1333       0 |   4    0      1312        21 |   2   9    0    0 9e0f |    2.746       0       5       0       5      9      9      0   1304      29       2   9    09e0f a70f      8.820 "
test,1583575560789010944,57," | 57  |   1351       5   1288       0 |   2    0      1252        36 |   4  45    0    0 cb0f |   10.833       0       1       0       1     45     45      0   1180     108      13  45    0cb0f a70f     30.330 "
test,1583575560770379008,58," | 58  |   1351       5   1342       0 |   5    0      1323        19 |   2   9    0    0 9e0f |    3.417       0       5       0       5      9      9      0   1275      67       3   9    09e0f a70f      9.660 "
test,1583575560785964032,5," |  5  |   1351       5   1349       0 |   0    5      1232       117 |   0   5    9    1 880f |    0           0       0       0       8      0      0      0   1208     141       0   5    1880f a70f     30.210 "
test,1583575560768142848,60," | 60  |   1351       5   1342       0 |   5    0      1257        85 |   3   9    0    0 9e0f |    3.509       0       5       0       5      9      9      0   1243      99       3   9    09e0f a70f      9.570 "
test,1583575560768824064,61," | 61  |   1351       5   1341       0 |   5    0      1284        57 |   2   9    0    0 9e0f |    2.777       0       5       0       5      9      9      0   1246      95       2   9    09e0f a70f      8.820 "
test,1583575560765068032,7," |  7  |   1351       5   1348       0 |   5    0      1327        21 |   1   9    0    0 9e0f |    2.044       0       5       0       5      9      9      0   1321      27       1   9    09e0f a70f      8.250 "
test,1583575560764398080,9," |  9  |   1351       5   1347       0 |   4    0      1298        49 |   2   9    0    1 9e0f |    1.770       0       4       0       4      9      9      0   1290      57       2   9    19e0f a70f      6.510 "
