test,1583575582516737024,10," | 10  |   1438       5   1410       0 |   5    0      1390        20 |   1   9    0    0 6d0f |    2.044       0       5       0       5      9      9      0   1373      37       1   9    06d0f a70f      8.850 "
test,1583575582541316864,12," | 12  |   1438       5   1436       0 |   4    7      1427         9 |   8  12    9    1 8e0f |   10.284       0       1       0       1     12     12      0   1402      34      14  12    18e0f a70f     30.270 "
test,1583575582515450112,13," | 13  |   1438       5   1434       0 |   5    0      1419        15 |   1   9    0    0 6d0f |    2.044       0       5       0       5      9      9      0   1402      32       1   9    06d0f a70f      8.280 "
test,1583575582523112960,15," | 15  |   1438       5   1436       0 |   5    0      1380        56 |   1  12    0    0 8e0f |    2.014       0       5       0       5     12     12      0   1325     111       1  12    08e0f a70f     10.140 "
test,1583575582538262016,16," | 16  |   1438       5   1434       0 |   5    0      1384        50 |   1  26    0    0 ba0f |    2.014       0       2       0       2     26     26      0   1344      90       1  26    0ba0f a70f     30.360 "
test,1583575582540265984,17," | 17  |   1438       4   1433       1 |   1    4      1417        17 |  17  17   19    1 2b0f |    6.134       0       2       0       2     17     17      0   1366      68       8  17    12b0f a70f     30.300 "
test,1583575582540442880,18," | 18  |   1438       5   1433       0 |   5    1      1345        88 |   4  26   17    0 ba0f |    1.983       0       2       0       2     26     26      0   1268     165       1  26    0ba0f a70f     30.360 "
test,1583575582537926912,19," | 19  |   1438       5   1432       2 |   0    8      1417        17 |   0  19   17    1 5e0f |    0           0       0       0       8      0      0      0   1370      64       0  19    15e0f a70f     30.180 "
test,1583575582515811840,1," |  1  |   1438       4   1435       0 |   5    0      1401        34 |   1   9    0    0 6d0f |    2.716       0       5       0       5      9      9      0   1391      44       1   9    06d0f a70f      8.850 "
test,1583575582541138944,22," | 22  |   1438       5   1432       0 |   5    0      1420        12 |   5  26    0    0 ba0f |    2.014       0       2       0       2     26     26      0   1341      91       1  26    0ba0f a70f     30.300 "
test,1583575582537178112,23," | 23  |   1438       5   1376       0 |   5    0      1367         9 |   2  26    0    0 ba0f |    2.044       0       2       0       2     26     26      0   1338      38       1  26    0ba0f a70f     30.300 "
test,1583575582542339072,24," | 24  |   1438       5   1434       0 |   5    0      1426         8 |   6  26    0    0 ba0f |    1.983       0       2       0       2     26     26      0   1389      45       1  26    0ba0f a70f     30.390 "
test,1583575582538512896,26," | 26  |   1438       5   1434       0 |   5    0      1429         5 |   7  26    0    1 ba0f |    1.739       0       1       0       1     26     26      0   1399      35       2  26    1ba0f a70f     30.300 "
test,1583575582542145024,27," | 27  |   1438       5   1436       0 |   2    6      1400        36 |   3  26   17    0 ba0f |    2.716       0       1       0       1     26     26      0   1328     108       2  26    0ba0f a70f     30.330 "
test,1583575582519230976,28," | 28  |   1438       5   1434       0 |   5    1      1319       115 |   1  17   19    0 2b0f |    2.014       0       5       0       5     17     17      0   1276     158       1  17    02b0f a70f      8.730 "
test,1583575582537669888,29," | 29  |   1438       5   1432       4 |   0    4      1272       164 |   0  29   19    1 650f |    0           0       0       0       8      0      0      0   1197     239       0  29    1650f a70f     30.150 "
test,1583575582526392064,30," | 30  |   1438       5   1434       0 |   5    0      1412        22 |   2  17    0    0 2b0f |    4.791       0       5       0       5     17     17      0   1367      67       5  17    02b0f a70f     10.890 "
test,1583575582522726912,35," | 35  |   1438       5   1434       0 |   5    0      1366        68 |   3  17    0    0 2b0f |    5.493       0       5       0       5     17     17      0   1338      96       6  17    02b0f a70f     11.700 "
test,1583575582524493056,40," | 40  |   1438       5   1398      32 |   5    0      1318       112 |   2  17    0    0 2b0f |    2.746       0       5       0       5     17     17      0   1274     156       2  17    02b0f a70f      8.850 "
test,1583575582522417920,41," | 41  |   1438       5   1392      32 |   5    0      1408        16 |   1  17    0    0 2b0f |    1.983       0       5       0       5     17     17      0   1364      60       1  17    02b0f a70f      9.690 "
test,1583575582525201152,42," | 42  |   1438       5   1399      35 |   5    0      1388        46 |   2  17    0    0 2b0f |    2.746       0       5       0       5     17     17      0   1347      87       2  17    02b0f a70f      9.660 "
test,1583575582519926016,44," | 44  |   1438       5   1404      30 |   4    4      1394        40 |   3  17   26    0 2b0f |    3.479       0       5       0       5     17     17      0   1352      82       3  17    02b0f a70f      9.540 "
test,1583575582518022912,45," | 45  |   1438       5   1410      24 |   5    0      1378        56 |   2  17    0    0 2b0f |    2.777       0       5       0       5     17     17      0   1344      90       2  17    02b0f a70f      8.850 "
test,1583575582519661056,46," | 46  |   1438       5   1396      31 |   5    0      1356        71 |   2  17    0    0 2b0f |    2.746       0       5       0       5     17     17      0   1326     101       2  17    02b0f a70f      9.000 "
test,1583575582520240896,47," | 47  |   1438       5   1402      32 |   5    0      1377        57 |   2  17    0    0 2b0f |    2.716       0       5       0       5     17     17      0   1340      94       2  17    02b0f a70f      9.630 "
test,1583575582539417088,48," | 48  |   1438       5   1338      29 |   5    0      1323        44 |   2  17    0    0 2b0f |    2.746       0       4       0       4     17     17      0   1285      82       2  17    02b0f a70f     30.360 "
test,1583575582518871040,49," | 49  |   1438       5   1428       0 |   4    0      1407        21 |   5  49    0    1 950f |    1.739       0       4       0       4     49     49      0   1393      35       2  49    1950f a70f      6.480 "
test,1583575582516318976,51," | 51  |   1438       5   1429       0 |   5    0      1421         8 |   2   9    0    0 6d0f |    2.777       0       5       0       5      9      9      0   1420       9       2   9    06d0f a70f      8.820 "
test,1583575582539081216,52," | 52  |   1438       4   1418      12 |   5    0      1356        74 |   1  26    0    0 ba0f |    2.014       0       2       0       2     26     26      0   1328     102       1  26    0ba0f a70f     30.360 "
test,1583575582523854848,53," | 53  |   1438       5   1412       0 |   5    0      1336        76 |   1  49    0    0 950f |    2.014       0       5       0       5     49     49      0   1320      92       1  49    0950f a70f      8.280 "
test,1583575582537466112,54," | 54  |   1438       5   1430       0 |   5    0      1410        20 |   1   9    0    0 6d0f |    2.044       0       4       0       4      9      9      0   1380      50       1   9    06d0f a70f     30.330 "
test,1583575582518656000,55," | 55  |   1438       5   1417       0 |   5    0      1370        47 |   1  49    0    0 950f |    2.044       0       5       0       5     49     49      0   1359      58       1  49    0950f a70f      9.000 "
test,1583575582521478912,56," | 56  |   1438       5   1420       0 |   5    0      1396        24 |   3   9    0    0 6d0f |    3.509       0       5       0       5      9      9      0   1388      32       3   9    06d0f a70f      9.570 "
test,1583575582541490176,57," | 57  |   1438       5   1375       0 |   5    1      1338        37 |   1  26    9    0 ba0f |    2.014       0       2       0       2     26     26      0   1260     115       1  26    0ba0f a70f     30.390 "
test,1583575582517807872,58," | 58  |   1438       5   1429       0 |   5    7      1410        19 |   1  49   26    0 950f |    2.014       0       5       0       5     49     49      0   1356      73       1  49    0950f a70f      8.970 "
test,1583575582539870976,5," |  5  |   1438       5   1436       0 |   5    4      1312       124 |   1  12    9    0 8e0f |    4.821       0       3       0       3     12     12      0   1287     149       5  12    08e0f a70f     30.270 "
test,1583575582521157888,60," | 60  |   1438       5   1429       0 |   4    3      1341        88 |   4   9   12    0 6d0f |    3.509       0       5       0       5      9      9      0   1326     103       3   9    06d0f a70f      9.720 "
test,1583575582523642112,61," | 61  |   1438       5   1428       0 |   5    5      1369        59 |   2  49   26    0 950f |    2.807       0       5       0       5     49     49      0   1325     103       2  49    0950f a70f      9.630 "
test,1583575582518401024,7," |  7  |   1438       5   1435       0 |   5    0      1413        22 |   2   9    0    0 6d0f |    2.746       0       5       0       5      9      9      0   1406      29       2   9    06d0f a70f      8.850 "
test,1583575582514877184,9," |  9  |   1438       5   1434       0 |   4    0      1380        54 |   4   9    0    1 6d0f |    1.739       0       4       0       4      9      9      0   1370      64       2   9    16d0f a70f      6.510 "
