test,1583575698518246912,10," | 10  |   1902       5   1874       0 |   5    0      1850        24 |   1  56    0    0 b70f |    2.075       0       5       0       5     56     56      0   1824      50       1  56    0b70f a70f      8.190 "
test,1583575698521324032,12," | 12  |   1902       5   1900       0 |   5    0      1885        15 |   2  56    0    0 b70f |    3.509       0       5       0       5     56     56      0   1857      43       3  56    0b70f a70f      9.720 "
test,1583575698517995008,13," | 13  |   1902       5   1898       0 |   5    0      1881        17 |   1  56    0    0 b70f |    2.075       0       5       0       5     56     56      0   1860      38       1  56    0b70f a70f      8.130 "
test,1583575698524104960,15," | 15  |   1902       5   1900       0 |   5    0      1832        68 |   3  56    0    0 b70f |    2.746       0       5       0       5     56     56      0   1760     140       2  56    0b70f a70f      8.970 "
test,1583575698529630976,16," | 16  |   1902       5   1898       0 |   5    0      1829        69 |   2  56    0    0 b70f |    3.540       0       5       0       5     56     56      0   1781     117       3  56    0b70f a70f      9.660 "
test,1583575698522744832,17," | 17  |   1902       5   1897       1 |   5    0      1878        20 |   3  56    0    0 b70f |    3.509       0       5       0       5     56     56      0   1818      80       3  56    0b70f a70f      9.690 "
test,1583575698523374080,18," | 18  |   1902       5   1897       0 |   5    0      1783       114 |   3  56    0    0 b70f |    3.509       0       5       0       5     56     56      0   1696     201       3  56    0b70f a70f     10.380 "
test,1583575698528611840,19," | 19  |   1902       3   1896       2 |   4    4      1874        24 |   4  56   29    0 b70f |    3.509       0       5       0       5     56     56      0   1815      83       3  56    0b70f a70f      9.720 "
test,1583575698518956800,1," |  1  |   1902       4   1899       0 |   5    0      1853        46 |   2  56    0    0 b70f |    3.448       0       5       0       5     56     56      0   1837      62       2  56    0b70f a70f      9.660 "
test,1583575698520699136,22," | 22  |   1902       5   1896       0 |   5    0      1881        15 |   2  56    0    0 b70f |    3.479       0       5       0       5     56     56      0   1788     108       3  56    0b70f a70f      9.660 "
test,1583575698520514048,23," | 23  |   1902       5   1840       0 |   5    0      1829        11 |   2  56    0    0 b70f |    2.777       0       5       0       5     56     56      0   1793      47       2  56    0b70f a70f      9.000 "
test,1583575698535439104,24," | 24  |   1902       5   1898       0 |   5    0      1885        13 |   3  56    0    0 b70f |    3.479       0       5       0       5     56     56      0   1840      58       3  56    0b70f a70f      9.660 "
test,1583575698518598912,26," | 26  |   1902       5   1898       0 |   5    0      1891         7 |   2  56    0    0 b70f |    2.777       0       5       0       5     56     56      0   1855      43       2  56    0b70f a70f      9.000 "
test,1583575698541698048,27," | 27  |   1902       4   1900       0 |   5    0      1845        55 |   3  56    0    0 b70f |    3.509       0       4       0       4     56     56      0   1754     146       3  56    0b70f a70f     30.360 "
test,1583575698540958976,28," | 28  |   1902       5   1898       0 |   5    0      1752       146 |   3  56    0    0 b70f |    4.241       0       4       0       4     56     56      0   1695     203       4  56    0b70f a70f     30.360 "
test,1583575698539997184,29," | 29  |   1902       4   1896       4 |   0    8      1684       216 |   0  29   56    1  80f |    0           0       0       0       8      0      0      0   1589     311       0  29    1 80f a70f     30.180 "
test,1583575698541223936,30," | 30  |   1902       5   1898       0 |   5    0      1870        28 |   3  56    0    0 b70f |    4.241       0       4       0       4     56     56      0   1812      86       4  56    0b70f a70f     30.300 "
test,1583575698543232000,35," | 35  |   1902       5   1898       0 |   5    0      1815        83 |   3  56    0    0 b70f |    4.211       0       4       0       4     56     56      0   1779     119       4  56    0b70f a70f     30.360 "
test,1583575698522403072,40," | 40  |   1902       5   1862      32 |   3    2      1753       141 |   3  44   46    0 360f |    1.983       0       5       0       5     44     44      0   1708     186       1  44    0360f a70f      8.940 "
test,1583575698540264960,41," | 41  |   1902       5   1856      32 |   4    4      1870        18 |   2  44   46    0 360f |    2.777       0       4       0       4     44     44      0   1820      68       2  44    0360f a70f     30.390 "
test,1583575698520116992,42," | 42  |   1902       5   1863      35 |   5    0      1849        49 |   2  44    0    0 360f |    2.746       0       5       0       5     44     44      0   1800      98       2  44    0360f a70f      8.940 "
test,1583575698517780992,44," | 44  |   1902       5   1868      30 |   4    0      1848        50 |   2  44    0    1 360f |    1.739       0       4       0       4     44     44      0   1801      97       2  44    1360f a70f      6.480 "
test,1583575698524280064,45," | 45  |   1902       5   1874      24 |   5    0      1833        65 |   3  44    0    0 360f |    2.044       0       5       0       5     44     44      0   1794     104       1  44    0360f a70f      8.970 "
test,1583575698538882048,46," | 46  |   1902       5   1860      31 |   0    9      1802        89 |   0  46   44    1 6c0f |    0           0       0       0       8      0      0      0   1767     124       0  46    16c0f a70f     30.150 "
test,1583575698525208064,47," | 47  |   1902       5   1866      32 |   5    0      1833        65 |   1  44    0    0 360f |    2.014       0       5       0       5     44     44      0   1786     112       1  44    0360f a70f      8.250 "
test,1583575698533644032,48," | 48  |   1902       5   1802      29 |   5    0      1779        52 |   2  44    0    0 360f |    1.983       0       5       0       5     44     44      0   1741      90       1  44    0360f a70f      8.190 "
test,1583575698520880896,49," | 49  |   1902       5   1892       0 |   5    0      1860        32 |   2  56    0    0 b70f |    2.746       0       5       0       5     56     56      0   1843      49       2  56    0b70f a70f      8.970 "
test,1583575698519380992,51," | 51  |   1902       5   1893       0 |   5    0      1880        13 |   1  56    0    0 b70f |    2.044       0       5       0       5     56     56      0   1875      18       1  56    0b70f a70f      8.160 "
test,1583575698527875072,52," | 52  |   1902       3   1877      17 |   5    0      1796        98 |   3  56    0    0 b70f |    3.479       0       5       0       5     56     56      0   1759     135       3  56    0b70f a70f      9.690 "
test,1583575698521562112,53," | 53  |   1902       5   1876       0 |   5    0      1782        94 |   2  56    0    0 b70f |    3.479       0       5       0       5     56     56      0   1761     115       3  56    0b70f a70f      9.660 "
test,1583575698523663104,54," | 54  |   1902       5   1894       0 |   5    0      1868        26 |   2  56    0    0 b70f |    2.777       0       5       0       5     56     56      0   1832      62       2  56    0b70f a70f      9.030 "
test,1583575698519830016,55," | 55  |   1902       5   1881       0 |   5    0      1816        65 |   2  56    0    0 b70f |    2.746       0       5       0       5     56     56      0   1801      80       2  56    0b70f a70f      8.940 "
test,1583575698517564160,56," | 56  |   1902       5   1884       0 |   4    0      1855        29 |   2  56    0    1 b70f |    1.770       0       4       0       4     56     56      0   1841      43       2  56    1b70f a70f      6.510 "
test,1583575698541982976,57," | 57  |   1902       4   1839       0 |   5    0      1796        43 |   1  56    0    0 b70f |    2.075       0       3       0       3     56     56      0   1685     154       1  56    0b70f a70f     30.300 "
test,1583575698525552128,58," | 58  |   1902       5   1893       0 |   5    0      1870        23 |   1  56    0    0 b70f |    2.044       0       5       0       5     56     56      0   1795      98       1  56    0b70f a70f      8.940 "
test,1583575698533252864,5," |  5  |   1902       5   1900       0 |   5    0      1738       162 |   2  56    0    0 b70f |    2.746       0       5       0       5     56     56      0   1707     193       2  56    0b70f a70f      8.940 "
test,1583575698522115072,60," | 60  |   1902       5   1893       0 |   5    0      1771       122 |   1  56    0    0 b70f |    2.014       0       5       0       5     56     56      0   1742     151       1  56    0b70f a70f      8.970 "
test,1583575698526028032,61," | 61  |   1902       5   1892       0 |   5    0      1809        83 |   1  56    0    0 b70f |    2.044       0       5       0       5     56     56      0   1763     129       1  56    0b70f a70f      8.280 "
test,1583575698523940096,7," |  7  |   1902       5   1899       0 |   5    0      1870        29 |   2  56    0    0 b70f |    2.777       0       5       0       5     56     56      0   1861      38       2  56    0b70f a70f      9.630 "
test,1583575698521903104,9," |  9  |   1902       5   1898       0 |   5    0      1830        68 |   2  56    0    0 b70f |    2.746       0       5       0       5     56     56      0   1819      79       2  56    0b70f a70f      8.820 "
