test,1583575637266896896,10," | 10  |   1657       5   1629       0 |   5    0      1607        22 |   1  51    0    0 160f |    2.044       0       5       0       5     51     51      0   1585      44       1  51    0160f a70f      8.250 "
test,1583575637280204032,12," | 12  |   1657       5   1655       0 |   5    0      1642        13 |   2  51    0    0 160f |    2.716       0       5       0       5     51     51      0   1617      38       2  51    0160f a70f      8.940 "
test,1583575637271246848,13," | 13  |   1657       5   1653       0 |   5    0      1638        15 |   1  51    0    0 160f |    2.014       0       5       0       5     51     51      0   1619      34       1  51    0160f a70f      8.100 "
test,1583575637272212992,15," | 15  |   1657       5   1655       0 |   5    0      1594        61 |   2  51    0    0 160f |    3.448       0       5       0       5     51     51      0   1531     124       3  51    0160f a70f      9.660 "
test,1583575637269423872,16," | 16  |   1657       5   1653       0 |   5    0      1590        63 |   1  26    0    0 e10f |    2.014       0       5       0       5     26     26      0   1545     108       1  26    0e10f a70f      8.940 "
test,1583575637278767104,17," | 17  |   1657       5   1652       1 |   5    0      1635        18 |   1  26    0    0 e10f |    1.983       0       5       0       5     26     26      0   1577      76       1  26    0e10f a70f      8.100 "
test,1583575637269662976,18," | 18  |   1657       5   1652       0 |   5    0      1555        97 |   1  26    0    0 e10f |    2.716       0       5       0       5     26     26      0   1472     180       2  26    0e10f a70f      8.910 "
test,1583575637273149952,19," | 19  |   1657       5   1651       2 |   5    0      1635        18 |   1  26    0    0 e10f |    2.014       0       5       0       5     26     26      0   1580      73       1  26    0e10f a70f      8.820 "
test,1583575637266722048,1," |  1  |   1657       4   1654       0 |   5    0      1613        41 |   1  51    0    0 160f |    2.685       0       5       0       5     51     51      0   1599      55       1  51    0160f a70f      8.880 "
test,1583575637267164928,22," | 22  |   1657       5   1651       0 |   5    0      1639        12 |   1  26    0    0 e10f |    2.014       0       5       0       5     26     26      0   1548     103       1  26    0e10f a70f      8.160 "
test,1583575637270662912,23," | 23  |   1657       5   1595       0 |   4    0      1586         9 |   1  26    0    0 e10f |    1.983       0       5       0       5     26     26      0   1551      44       1  26    0e10f a70f      9.570 "
test,1583575637272811008,24," | 24  |   1657       5   1653       0 |   5    0      1645         8 |   1  26    0    0 e10f |    2.014       0       5       0       5     26     26      0   1601      52       1  26    0e10f a70f      8.160 "
test,1583575637266501888,26," | 26  |   1657       4   1653       0 |   4    0      1646         7 |   2  26    0    1 e10f |    1.739       0       4       0       4     26     26      0   1613      40       2  26    1e10f a70f      7.200 "
test,1583575637289707008,27," | 27  |   1657       5   1655       0 |   4    1      1610        45 |   4  26   51    0 e10f |    3.448       0       4       0       4     26     26      0   1529     126       3  26    0e10f a70f     30.360 "
test,1583575637274264064,28," | 28  |   1657       5   1653       0 |   5    0      1523       130 |   2  26    0    0 e10f |    2.716       0       5       0       5     26     26      0   1474     179       2  26    0e10f a70f      8.940 "
test,1583575637290476032,29," | 29  |   1657       5   1651       4 |   3    0      1460       195 |   4  26    0    0 e10f |    2.746       0       4       0       4     26     26      0   1376     279       2  26    0e10f a70f     30.210 "
test,1583575637271047168,30," | 30  |   1657       5   1653       0 |   5    0      1627        26 |   2  26    0    0 e10f |    2.716       0       5       0       5     26     26      0   1576      77       2  26    0e10f a70f      9.630 "
test,1583575637273581056,35," | 35  |   1657       5   1653       0 |   5    0      1578        75 |   2  26    0    0 e10f |    2.716       0       5       0       5     26     26      0   1546     107       2  26    0e10f a70f      8.910 "
test,1583575637280549888,40," | 40  |   1657       4   1617      32 |   4    0      1524       125 |   2  26    0    0 e10f |    3.448       0       5       0       5     26     26      0   1478     171       3  26    0e10f a70f     10.380 "
test,1583575637275744000,41," | 41  |   1657       5   1611      32 |   5    0      1627        16 |   2  26    0    0 e10f |    2.685       0       5       0       5     26     26      0   1581      62       2  26    0e10f a70f     10.380 "
test,1583575637270824960,42," | 42  |   1657       5   1618      35 |   4    0      1606        47 |   2  26    0    0 e10f |    2.716       0       5       0       5     26     26      0   1559      94       2  26    0e10f a70f     10.230 "
test,1583575637274930944,44," | 44  |   1657       5   1623      30 |   5    0      1610        43 |   1  26    0    0 e10f |    2.014       0       5       0       5     26     26      0   1566      87       1  26    0e10f a70f      8.220 "
test,1583575637269922048,45," | 45  |   1657       5   1629      24 |   5    0      1593        60 |   2  26    0    0 e10f |    2.716       0       5       0       5     26     26      0   1557      96       2  26    0e10f a70f      8.790 "
test,1583575637272532992,46," | 46  |   1657       5   1615      31 |   5    0      1569        77 |   2  26    0    0 e10f |    2.716       0       5       0       5     26     26      0   1538     108       2  26    0e10f a70f     10.980 "
test,1583575637273865984,47," | 47  |   1657       5   1621      32 |   5    0      1596        57 |   2  26    0    0 e10f |    2.746       0       5       0       5     26     26      0   1557      96       2  26    0e10f a70f     10.320 "
test,1583575637272022016,48," | 48  |   1657       5   1557      29 |   5    0      1538        48 |   2  26    0    0 e10f |    2.746       0       5       0       5     26     26      0   1500      86       2  26    0e10f a70f      9.570 "
test,1583575637269149952,49," | 49  |   1657       5   1647       0 |   5    0      1619        28 |   1  53    0    0 bb0f |    2.044       0       5       0       5     53     53      0   1604      43       1  53    0bb0f a70f      8.220 "
test,1583575637267357952,51," | 51  |   1657       5   1648       0 |   4    0      1638        10 |   2  51    0    1 160f |    1.770       0       4       0       4     51     51      0   1633      15       2  51    1160f a70f      6.510 "
test,1583575637270279936,52," | 52  |   1657       5   1634      15 |   5    0      1563        86 |   1  26    0    0 e10f |    2.014       0       5       0       5     26     26      0   1530     119       1  26    0e10f a70f      8.940 "
test,1583575637267656960,53," | 53  |   1657       5   1631       0 |   5    0      1550        81 |   2  53    0    1 bb0f |    1.770       0       4       0       4     53     53      0   1531     100       2  53    1bb0f a70f      6.510 "
test,1583575637271460096,54," | 54  |   1657       5   1649       0 |   5    0      1627        22 |   2  51    0    0 160f |    2.716       0       5       0       5     51     51      0   1597      52       2  51    0160f a70f      8.970 "
test,1583575637270499840,55," | 55  |   1657       5   1636       0 |   5    0      1580        56 |   1  53    0    0 bb0f |    2.044       0       5       0       5     53     53      0   1568      68       1  53    0bb0f a70f      8.250 "
test,1583575637268748032,56," | 56  |   1657       5   1639       0 |   5    0      1612        27 |   1  51    0    0 160f |    2.014       0       5       0       5     51     51      0   1600      39       1  51    0160f a70f      8.250 "
test,1583575637291217920,57," | 57  |   1657       5   1594       0 |   5    0      1554        40 |   1  26    0    0 e10f |    1.983       0       3       0       3     26     26      0   1461     133       1  26    0e10f a70f     30.330 "
test,1583575637290127872,58," | 58  |   1657       5   1648       0 |   1    0      1627        21 |   3  51    0    0 160f |    3.509       0       4       0       4     51     51      0   1558      90       3  51    0160f a70f     30.300 "
test,1583575637274450944,5," |  5  |   1657       5   1655       0 |   5    0      1513       142 |   2  51    0    0 160f |    2.777       0       5       0       5     51     51      0   1485     170       2  51    0160f a70f      8.880 "
test,1583575637268352000,60," | 60  |   1657       5   1648       0 |   5    0      1542       106 |   1  51    0    0 160f |    2.014       0       5       0       5     51     51      0   1520     128       1  51    0160f a70f      8.130 "
test,1583575637276382976,61," | 61  |   1657       5   1647       0 |   4    0      1574        73 |   3  51    0    0 160f |    2.746       0       5       0       5     51     51      0   1528     119       2  51    0160f a70f      9.000 "
test,1583575637270117888,7," |  7  |   1657       5   1654       0 |   5    0      1628        26 |   1  51    0    0 160f |    1.983       0       5       0       5     51     51      0   1620      34       1  51    0160f a70f      8.910 "
test,1583575637267963904,9," |  9  |   1657       5   1653       0 |   5    0      1594        59 |   2  51    0    0 160f |    2.746       0       5       0       5     51     51      0   1584      69       2  51    0160f a70f      9.000 "
