test,1583575262507642112,10," | 10  |    158       5    130       0 |   5    0       128         2 |   1   7    0    0 9a0f |    2.044       0       5       0       5      7      7      0    126       4       1   7    09a0f a70f      8.130 "
test,1583575262505908992,12," | 12  |    158       5    156       0 |   5    0       155         1 |   1   7    0    0 9a0f |    2.014       0       5       0       5      7      7      0    154       2       1   7    09a0f a70f      8.220 "
test,1583575262505294080,13," | 13  |    158       5    154       0 |   5    0       153         1 |   1   7    0    0 9a0f |    2.044       0       5       0       5      7      7      0    150       4       1   7    09a0f a70f      8.250 "
test,1583575262530923008,15," | 15  |    158       5    156       0 |   2    2       149         7 |   1  20    7    0 be0f |    2.014       0       1       0       1     20     20      0    147       9       1  20    0be0f a70f     30.360 "
test,1583575262510326016,16," | 16  |    158       5    154       0 |   5    0       148         6 |   2  24    0    0 230f |    2.716       0       5       0       5     24     24      0    145       9       2  24    0230f a70f      8.910 "
test,1583575262509003008,17," | 17  |    158       5    154       0 |   5    0       153         1 |   1  24    0    0 230f |    1.983       0       5       0       5     24     24      0    146       8       1  24    0230f a70f      8.190 "
test,1583575262528912896,18," | 18  |    158       5    153       0 |   0    7       141        12 |   0  18   24    1 a80f |    0           0       0       0       8      0      0      0    134      19       0  18    1a80f a70f     30.210 "
test,1583575262511028992,19," | 19  |    158       5    153       1 |   5    0       153         1 |   2  24    0    0 230f |    2.716       0       5       0       5     24     24      0    147       7       2  24    0230f a70f      8.970 "
test,1583575262508603136,1," |  1  |    158       4    155       0 |   5    0       151         4 |   1   7    0    0 9a0f |    2.716       0       5       0       5      7      7      0    151       4       1   7    09a0f a70f      8.880 "
test,1583575262530656000,22," | 22  |    158       5    152       0 |   5    0       152         0 |   2  24    0    0 230f |    2.746       0       4       0       4     24     24      0    146       6       2  24    0230f a70f     30.390 "
test,1583575262508148992,23," | 23  |    158       5     96       0 |   5    0        96         0 |   1  24    0    0 230f |    1.983       0       5       0       5     24     24      0     96       0       1  24    0230f a70f      8.220 "
test,1583575262510665984,24," | 24  |    158       5    154       0 |   5    0       152         2 |   2  24    0    1 230f |    1.739       0       4       0       4     24     24      0    150       4       2  24    1230f a70f      6.510 "
test,1583575262508326144,26," | 26  |    158       5    154       0 |   5    0       154         0 |   1  24    0    0 230f |    2.014       0       5       0       5     24     24      0    149       5       1  24    0230f a70f      8.070 "
test,1583575262515116032,27," | 27  |    158       5    156       0 |   5    0       151         5 |   2  24    0    0 230f |    2.746       0       5       0       5     24     24      0    145      11       2  24    0230f a70f      9.600 "
test,1583575262531245824,28," | 28  |    158       5    154       0 |   5    7       147         7 |   1  30   24    0 d80f |    3.448       0       4       0       4     30     30      0    142      12       3  30    0d80f a70f     30.360 "
test,1583575262530483968,29," | 29  |    158       4    156       0 |   5    0       137        19 |   3  24    0    0 230f |    4.943       0       4       0       4     24     24      0    130      26       5  24    0230f a70f     30.240 "
test,1583575262508786944,30," | 30  |    158       5    154       0 |   4    3       153         1 |   5  30   24    1 d80f |    1.770       0       4       0       4     30     30      0    149       5       2  30    1d80f a70f      6.510 "
test,1583575262511933952,35," | 35  |    158       5    154       0 |   5    5       147         7 |   1  30   24    0 d80f |    1.983       0       5       0       5     30     30      0    146       8       1  30    0d80f a70f      8.130 "
test,1583575262515467008,40," | 40  |    158       5    149       1 |   5    0       132        18 |   1  24    0    0 230f |    3.448       0       5       0       5     24     24      0    127      23       3  24    0230f a70f     11.820 "
test,1583575262517283840,41," | 41  |    158       5    142       2 |   4    4       143         1 |   2  24   48    0 230f |    2.716       0       5       0       5     24     24      0    140       4       2  24    0230f a70f     10.380 "
test,1583575262512940032,42," | 42  |    158       5    153       1 |   5    0       150         4 |   1  24    0    0 230f |    3.448       0       5       0       5     24     24      0    145       9       3  24    0230f a70f     11.100 "
test,1583575262513933056,44," | 44  |    158       5    152       2 |   5    0       153         1 |   1  24    0    0 230f |    3.448       0       5       0       5     24     24      0    148       6       3  24    0230f a70f     11.790 "
test,1583575262511673088,45," | 45  |    158       5    153       1 |   5    0       141        13 |   2  24    0    0 230f |    3.479       0       5       0       5     24     24      0    139      15       3  24    0230f a70f     11.010 "
test,1583575262515755008,46," | 46  |    158       5    145       2 |   4    5       142         5 |   3  24   48    0 230f |    3.479       0       5       0       5     24     24      0    138       9       3  24    0230f a70f     11.100 "
test,1583575262510510080,47," | 47  |    158       5    152       2 |   4    4       150         4 |   3  24   48    0 230f |    3.479       0       5       0       5     24     24      0    146       8       3  24    0230f a70f     11.130 "
test,1583575262527203072,48," | 48  |    158       5     87       0 |   0    6        84         3 |   0  48   24    1 b00f |    0           0       0       0       8      0      0      0     80       7       0  48    1b00f a70f     30.270 "
test,1583575262517651968,49," | 49  |    158       5    148       0 |   5    0       144         4 |   3   7    0    0 9a0f |    3.479       0       5       0       5      7      7      0    144       4       3   7    09a0f a70f      9.570 "
test,1583575262507164928,51," | 51  |    158       5    149       0 |   5    0       149         0 |   1   7    0    0 9a0f |    2.075       0       5       0       5      7      7      0    149       0       1   7    09a0f a70f      8.160 "
test,1583575262529628928,52," | 52  |    158       5    150       0 |   5    0       143         7 |   1  24    0    0 230f |    2.014       0       3       0       3     24     24      0    140      10       1  24    0230f a70f     30.330 "
test,1583575262509217024,53," | 53  |    158       5    132       0 |   5    0       124         8 |   4   7    0    0 9a0f |    4.211       0       5       0       5      7      7      0    124       8       4   7    09a0f a70f     10.290 "
test,1583575262507843072,54," | 54  |    158       5    150       0 |   5    0       150         0 |   1   7    0    0 9a0f |    2.014       0       5       0       5      7      7      0    147       3       1   7    09a0f a70f      8.130 "
test,1583575262514632960,55," | 55  |    158       5    137       0 |   5    0       131         6 |   3   7    0    0 9a0f |    3.509       0       5       0       5      7      7      0    131       6       3   7    09a0f a70f      9.690 "
test,1583575262509442048,56," | 56  |    158       5    140       0 |   5    0       135         5 |   2   7    0    0 9a0f |    2.746       0       5       0       5      7      7      0    135       5       2   7    09a0f a70f      8.970 "
test,1583575262513286144,57," | 57  |    158       5     95       0 |   4    0        90         5 |   2  24    0    0 230f |    2.777       0       5       0       5     24     24      0     90       5       2  24    0230f a70f     13.920 "
test,1583575262513139968,58," | 58  |    158       5    149       0 |   5    0       148         1 |   2   7    0    0 9a0f |    2.777       0       5       0       5      7      7      0    146       3       2   7    09a0f a70f      9.690 "
test,1583575262510864128,5," |  5  |    158       5    156       0 |   5    0       143        13 |   2   7    0    0 9a0f |    2.746       0       5       0       5      7      7      0    141      15       2   7    09a0f a70f      8.790 "
test,1583575262513659904,60," | 60  |    158       5    149       0 |   1    3       142         7 |   3  24    7    0 230f |    3.448       0       5       0       5     24     24      0    141       8       3  24    0230f a70f     14.610 "
test,1583575262509803008,61," | 61  |    158       5    148       0 |   5    0       142         6 |   2   7    0    0 9a0f |    2.746       0       5       0       5      7      7      0    140       8       2   7    09a0f a70f      9.720 "
test,1583575262506201088,7," |  7  |    158       5    155       0 |   5    0       154         1 |   2   7    0    1 9a0f |    1.739       0       4       0       4      7      7      0    155       0       2   7    19a0f a70f      6.480 "
test,1583575262506849024,9," |  9  |    158       5    154       0 |   5    0       150         4 |   1   7    0    0 9a0f |    2.014       0       5       0       5      7      7      0    150       4       1   7    09a0f a70f      8.250 "
