test,1583575272508760832,10," | 10  |    198       5    170       0 |   5    0       168         2 |   1   9    0    0 dc0f |    2.075       0       5       0       5      9      9      0    166       4       1   9    0dc0f a70f      8.310 "
test,1583575272516265984,12," | 12  |    198       5    196       0 |   5    0       195         1 |   2   9    0    0 dc0f |    2.807       0       5       0       5      9      9      0    191       5       2   9    0dc0f a70f      8.910 "
test,1583575272512999168,13," | 13  |    198       5    194       0 |   5    0       191         3 |   1   9    0    0 dc0f |    2.075       0       5       0       5      9      9      0    187       7       1   9    0dc0f a70f      8.250 "
test,1583575272532236032,15," | 15  |    198       5    196       0 |   4    4       186        10 |  11  15   52    1 9b0f |   10.253       0       2       0       2     15     15      0    180      16      14  15    19b0f a70f     30.300 "
test,1583575272509767168,16," | 16  |    198       5    194       0 |   5    1       186         8 |   1  52   46    0 8a0f |    2.014       0       5       0       5     52     52      0    183      11       1  52    08a0f a70f      8.250 "
test,1583575272514818048,17," | 17  |    198       4    194       0 |   5    0       192         2 |   1  52    0    0 8a0f |    3.509       0       5       0       5     52     52      0    184      10       3  52    08a0f a70f      9.690 "
test,1583575272511764992,18," | 18  |    198       5    193       0 |   5    0       177        16 |   2  52    0    0 8a0f |    2.777       0       5       0       5     52     52      0    169      24       2  52    08a0f a70f      9.570 "
test,1583575272529061120,19," | 19  |    198       5    193       1 |   5    0       191         3 |   1  52    0    0 8a0f |    2.044       0       4       0       4     52     52      0    183      11       1  52    08a0f a70f     30.300 "
test,1583575272512086016,1," |  1  |    198       4    195       0 |   5    0       190         5 |   1   9    0    0 dc0f |    2.716       0       5       0       5      9      9      0    189       6       1   9    0dc0f a70f      8.910 "
test,1583575272511548928,22," | 22  |    198       5    192       0 |   5    0       192         0 |   2  52    0    0 8a0f |    2.807       0       5       0       5     52     52      0    184       8       2  52    08a0f a70f      9.720 "
test,1583575272515358976,23," | 23  |    198       5    136       0 |   5    0       134         2 |   1  52    0    0 8a0f |    2.044       0       5       0       5     52     52      0    134       2       1  52    08a0f a70f      8.280 "
test,1583575272510831104,24," | 24  |    198       5    194       0 |   5    0       192         2 |   3  52    0    0 8a0f |    2.746       0       5       0       5     52     52      0    188       6       2  52    08a0f a70f      8.940 "
test,1583575272511120128,26," | 26  |    198       5    194       0 |   5    0       194         0 |   1  52    0    0 8a0f |    2.044       0       5       0       5     52     52      0    188       6       1  52    08a0f a70f      8.250 "
test,1583575272515604992,27," | 27  |    198       5    196       0 |   5    0       189         7 |   5  52    0    0 8a0f |    3.479       0       5       0       5     52     52      0    180      16       3  52    08a0f a70f      9.660 "
test,1583575272529905152,28," | 28  |    198       5    194       0 |   0    7       182        12 |   0  28   52    1 ea0f |    0           0       0       0       8      0      0      0    175      19       0  28    1ea0f a70f     30.210 "
test,1583575272510272000,29," | 29  |    198       4    196       0 |   5    0       173        23 |   2  52    0    0 8a0f |    2.807       0       5       0       5     52     52      0    163      33       2  52    08a0f a70f      8.970 "
test,1583575272508531968,30," | 30  |    198       5    194       0 |   5    0       193         1 |   1  35    0    0 940f |    2.014       0       5       0       5     35     35      0    188       6       1  35    0940f a70f      8.130 "
test,1583575272507173120,35," | 35  |    198       5    194       0 |   4    0       187         7 |   2  35    0    1 940f |    1.770       0       4       0       4     35     35      0    185       9       2  35    1940f a70f      6.510 "
test,1583575272530714880,41," | 41  |    198       2    176       8 |   5    0       182         2 |   1  46    0    0  70f |    1.983       0       2       0       2     46     46      0    178       6       1  46    0 70f a70f     30.390 "
test,1583575272531630080,45," | 45  |    198       2    188       6 |   3    0       177        17 |   2  46    0    0  70f |    4.180       0       1       0       1     46     46      0    174      20       4  46    0 70f a70f     30.330 "
test,1583575272531246848,46," | 46  |    198       2    179       8 |   4    0       182         5 |   2  46    0    1  70f |    1.739       0       2       0       2     46     46      0    178       9       2  46    1 70f a70f     30.300 "
test,1583575272508194816,49," | 49  |    198       5    188       0 |   5    0       184         4 |   1  53    0    0 8a0f |    2.014       0       5       0       5     53     53      0    184       4       1  53    08a0f a70f      8.250 "
test,1583575272510603008,51," | 51  |    198       5    189       0 |   5    0       188         1 |   2   9    0    0 dc0f |    2.746       0       5       0       5      9      9      0    188       1       2   9    0dc0f a70f      8.940 "
test,1583575272509475072,52," | 52  |    198       5    189       1 |   4    0       181         9 |   4  52    0    1 8a0f |    1.739       0       4       0       4     52     52      0    178      12       2  52    18a0f a70f      6.510 "
test,1583575272507373056,53," | 53  |    198       5    172       0 |   5    0       163         9 |   2  53    0    1 8a0f |    1.739       0       4       0       4     53     53      0    163       9       2  53    18a0f a70f      6.480 "
test,1583575272507587840,54," | 54  |    198       5    190       0 |   5    0       189         1 |   1   9    0    0 dc0f |    2.044       0       5       0       5      9      9      0    184       6       1   9    0dc0f a70f      8.160 "
test,1583575272507826944,55," | 55  |    198       5    177       0 |   5    0       169         8 |   1  53    0    0 8a0f |    2.044       0       5       0       5     53     53      0    169       8       1  53    08a0f a70f      8.160 "
test,1583575272513348096,56," | 56  |    198       5    180       0 |   5    0       173         7 |   2   9    0    0 dc0f |    2.746       0       5       0       5      9      9      0    172       8       2   9    0dc0f a70f      9.000 "
test,1583575272524684800,57," | 57  |    198       4    135       0 |   0    0       129         6 |   0   0    0    0    0 |    0           0       0       0       8      0      0      0    126       9       0   0    0   0 a70f     30.390 "
test,1583575272509020928,58," | 58  |    198       5    189       0 |   5    0       188         1 |   2   9    0    0 dc0f |    3.479       0       5       0       5      9      9      0    186       3       3   9    0dc0f a70f      9.690 "
test,1583575272510443008,5," |  5  |    198       5    196       0 |   5    0       182        14 |   3   9    0    0 dc0f |    2.777       0       5       0       5      9      9      0    176      20       2   9    0dc0f a70f      9.000 "
test,1583575272511328000,60," | 60  |    198       5    189       0 |   5    0       181         8 |   3   9    0    0 dc0f |    3.479       0       5       0       5      9      9      0    178      11       3   9    0dc0f a70f      9.690 "
test,1583575272510006016,61," | 61  |    198       5    188       0 |   5    0       181         7 |   2   9    0    0 dc0f |    2.746       0       5       0       5      9      9      0    178      10       2   9    0dc0f a70f      8.970 "
test,1583575272518224128,7," |  7  |    198       5    195       0 |   5    0       193         2 |   1   9    0    0 dc0f |    1.983       0       5       0       5      9      9      0    194       1       1   9    0dc0f a70f      8.940 "
test,1583575272506957056,9," |  9  |    198       5    194       0 |   4    0       188         6 |   3   9    0    1 dc0f |    1.739       0       4       0       4      9      9      0    188       6       2   9    1dc0f a70f      6.480 "
