test,1583575702017987840,10," | 10  |   1916       5   1888       0 |   5    0      1863        25 |   1   1    0    0 220f |    1.373       0       5       0       5      1      1      0   1837      51       1   1    0220f a70f      7.530 "
test,1583575702017513984,12," | 12  |   1916       5   1914       0 |   5    0      1899        15 |   2   1    0    0 220f |    1.342       0       5       0       5      1      1      0   1871      43       1   1    0220f a70f      7.440 "
test,1583575702017731072,13," | 13  |   1916       5   1912       0 |   5    0      1895        17 |   1   1    0    0 220f |    1.342       0       5       0       5      1      1      0   1874      38       1   1    0220f a70f      7.590 "
test,1583575702025367040,15," | 15  |   1916       5   1914       0 |   5    0      1846        68 |   2   1    0    0 220f |    2.105       0       5       0       5      1      1      0   1774     140       2   1    0220f a70f      8.220 "
test,1583575702024347904,16," | 16  |   1916       5   1912       0 |   5    0      1843        69 |   1  52    0    0 a30f |    2.044       0       5       0       5     52     52      0   1795     117       1  52    0a30f a70f      8.250 "
test,1583575702024946944,17," | 17  |   1916       5   1911       1 |   5    0      1891        21 |   2  52    0    0 a30f |    2.807       0       5       0       5     52     52      0   1831      81       2  52    0a30f a70f      9.720 "
test,1583575702023309056,18," | 18  |   1916       5   1911       0 |   5    0      1797       114 |   2  52    0    0 a30f |    3.509       0       5       0       5     52     52      0   1710     201       3  52    0a30f a70f      9.510 "
test,1583575702029989888,19," | 19  |   1916       5   1910       2 |   5    0      1887        25 |   2  52    0    0 a30f |    3.540       0       5       0       5     52     52      0   1828      84       3  52    0a30f a70f      9.750 "
test,1583575702017072896,1," |  1  |   1916       4   1913       0 |   4    0      1866        47 |   2   1    0    1 220f |    1.739       0       4       0       4      1      1      0   1850      63       2   1    1220f a70f      6.480 "
test,1583575702020428800,22," | 22  |   1916       5   1910       0 |   5    0      1895        15 |   2  52    0    0 a30f |    2.777       0       5       0       5     52     52      0   1802     108       2  52    0a30f a70f      9.690 "
test,1583575702018750976,23," | 23  |   1916       5   1854       0 |   5    0      1843        11 |   1  52    0    0 a30f |    2.075       0       5       0       5     52     52      0   1807      47       1  52    0a30f a70f      8.280 "
test,1583575702022546176,24," | 24  |   1916       5   1912       0 |   5    0      1899        13 |   2  52    0    0 a30f |    2.807       0       5       0       5     52     52      0   1854      58       2  52    0a30f a70f      9.030 "
test,1583575702019668992,26," | 26  |   1916       5   1912       0 |   5    0      1905         7 |   1  52    0    0 a30f |    2.044       0       5       0       5     52     52      0   1869      43       1  52    0a30f a70f      8.280 "
test,1583575702041153792,27," | 27  |   1916       5   1914       0 |   5    0      1859        55 |   2  52    0    0 a30f |    2.838       0       4       0       4     52     52      0   1768     146       2  52    0a30f a70f     30.330 "
test,1583575702021824000,28," | 28  |   1916       3   1912       0 |   5    1      1766       146 |   1  35   52    0 1c0f |    2.777       0       5       0       5     35     35      0   1709     203       2  35    01c0f a70f      8.970 "
test,1583575702042722048,29," | 29  |   1916       5   1910       4 |   4    0      1696       218 |   3  52    0    0 a30f |    3.540       0       4       0       4     52     52      0   1600     314       3  52    0a30f a70f     30.240 "
test,1583575702022056192,30," | 30  |   1916       5   1912       0 |   5    0      1884        28 |   1  35    0    0 1c0f |    2.014       0       5       0       5     35     35      0   1826      86       1  35    01c0f a70f      8.220 "
test,1583575702019471872,35," | 35  |   1916       5   1912       0 |   4    0      1829        83 |   2  35    0    1 1c0f |    1.739       0       4       0       4     35     35      0   1793     119       2  35    11c0f a70f      6.480 "
test,1583575702041366016,40," | 40  |   1916       5   1876      32 |   5    5      1767       141 |   1  48   52    0 cb0f |    2.044       0       3       0       3     48     48      0   1722     186       1  48    0cb0f a70f     30.390 "
test,1583575702039793920,41," | 41  |   1916       5   1870      32 |   2    6      1884        18 |   7  52   48    0 a30f |    6.500       0       2       0       2     52     52      0   1834      68       7  52    0a30f a70f     30.360 "
test,1583575702040854016,42," | 42  |   1916       5   1877      35 |   5    4      1863        49 |   1  48   52    0 cb0f |    2.044       0       3       0       3     48     48      0   1814      98       1  48    0cb0f a70f     30.270 "
test,1583575702040671232,44," | 44  |   1916       5   1882      30 |   5    6      1862        50 |   1  48   52    0 cb0f |    2.044       0       3       0       3     48     48      0   1815      97       1  48    0cb0f a70f     30.390 "
test,1583575702042104064,45," | 45  |   1916       5   1888      24 |   5    6      1847        65 |   1  48   52    0 cb0f |    2.044       0       3       0       3     48     48      0   1808     104       1  48    0cb0f a70f     30.360 "
test,1583575702039577088,46," | 46  |   1916       5   1874      31 |   5    2      1816        89 |   1  48   52    0 cb0f |    2.075       0       3       0       3     48     48      0   1781     124       1  48    0cb0f a70f     30.390 "
test,1583575702040209152,47," | 47  |   1916       5   1880      32 |   5    3      1847        65 |   1  48   52    0 cb0f |    2.014       0       3       0       3     48     48      0   1800     112       1  48    0cb0f a70f     30.360 "
test,1583575702040431104,48," | 48  |   1916       5   1816      29 |   4    6      1793        52 |   5  48   52    1 cb0f |    1.770       0       2       0       2     48     48      0   1755      90       2  48    1cb0f a70f     30.300 "
test,1583575702022383872,49," | 49  |   1916       5   1906       0 |   5    0      1874        32 |   3   1    0    0 220f |    2.777       0       5       0       5      1      1      0   1857      49       3   1    0220f a70f      9.000 "
test,1583575702018567168,51," | 51  |   1916       5   1907       0 |   5    0      1894        13 |   1   1    0    0 220f |    1.373       0       5       0       5      1      1      0   1889      18       1   1    0220f a70f      7.440 "
test,1583575702023483904,52," | 52  |   1916       5   1891      17 |   4    0      1809        99 |   2  52    0    1 a30f |    1.770       0       4       0       4     52     52      0   1772     136       2  52    1a30f a70f      6.510 "
test,1583575702021167104,53," | 53  |   1916       5   1890       0 |   5    0      1795        95 |   4   1    0    0 220f |    3.509       0       5       0       5      1      1      0   1774     116       4   1    0220f a70f      9.630 "
test,1583575702019119872,54," | 54  |   1916       5   1908       0 |   5    0      1881        27 |   1   1    0    0 220f |    1.342       0       5       0       5      1      1      0   1845      63       1   1    0220f a70f      7.440 "
test,1583575702020035072,55," | 55  |   1916       5   1895       0 |   5    0      1830        65 |   3   1    0    0 220f |    2.838       0       5       0       5      1      1      0   1815      80       3   1    0220f a70f      9.030 "
test,1583575702025711104,56," | 56  |   1916       5   1898       0 |   5    0      1869        29 |   2   1    0    0 220f |    2.044       0       5       0       5      1      1      0   1855      43       2   1    0220f a70f      8.280 "
test,1583575702041778944,57," | 57  |   1916       5   1853       0 |   1    5      1810        43 |   2   1   52    0 220f |    6.469       0       2       0       2      1      1      0   1699     154       8   1    0220f a70f     30.330 "
test,1583575702021364992,58," | 58  |   1916       5   1907       0 |   4    0      1884        23 |   2   1    0    0 220f |    2.105       0       5       0       5      1      1      0   1809      98       2   1    0220f a70f      8.910 "
test,1583575702026416128,5," |  5  |   1916       5   1914       0 |   5    0      1749       165 |   2   1    0    0 220f |    2.075       0       5       0       5      1      1      0   1718     196       2   1    0220f a70f      8.310 "
test,1583575702022726144,60," | 60  |   1916       5   1907       0 |   5    0      1782       125 |   2   1    0    0 220f |    2.105       0       5       0       5      1      1      0   1753     154       2   1    0220f a70f      8.250 "
test,1583575702018959104,61," | 61  |   1916       5   1906       0 |   5    0      1822        84 |   2   1    0    0 220f |    2.105       0       5       0       5      1      1      0   1776     130       2   1    0220f a70f      8.190 "
test,1583575702017255936,7," |  7  |   1916       5   1913       0 |   5    0      1884        29 |   1   1    0    0 220f |    1.342       0       5       0       5      1      1      0   1875      38       1   1    0220f a70f      7.470 "
test,1583575702018342912,9," |  9  |   1916       5   1912       0 |   5    0      1843        69 |   1   1    0    0 220f |    1.342       0       5       0       5      1      1      0   1832      80       1   1    0220f a70f      7.440 "
