test,1583575479016113152,10," | 10  |   1024       5    996       0 |   5    0       983        13 |   2  57    0    0 650f |    2.777       0       5       0       5     57     57      0    969      27       2  57    0650f a70f      8.910 "
test,1583575479020100096,12," | 12  |   1024       5   1022       0 |   5    0      1016         6 |   3  57    0    0 650f |    2.777       0       5       0       5     57     57      0    996      26       2  57    0650f a70f      9.720 "
test,1583575479016571136,13," | 13  |   1024       5   1020       0 |   5    0      1008        12 |   3  57    0    0 650f |    2.807       0       5       0       5     57     57      0    997      23       2  57    0650f a70f      9.630 "
test,1583575479017047808,15," | 15  |   1024       5   1022       0 |   5    0       986        36 |   4  57    0    0 650f |    2.777       0       5       0       5     57     57      0    948      74       2  57    0650f a70f     10.260 "
test,1583575479015276800,16," | 16  |   1024       5   1020       0 |   5    0       986        34 |   2  57    0    0 650f |    2.777       0       5       0       5     57     57      0    962      58       2  57    0650f a70f      9.000 "
test,1583575479019622144,17," | 17  |   1024       4   1019       1 |   5    0      1007        13 |   2  57    0    0 650f |    2.777       0       5       0       5     57     57      0    978      42       2  57    0650f a70f      9.030 "
test,1583575479032231168,18," | 18  |   1024       5   1019       0 |   5    0       955        64 |   2  42    0    0 bd0f |    0           0       0       0       8      0      0      0    908     111       0  42    0bd0f a70f     30.360 "
test,1583575479015480064,19," | 19  |   1024       4   1018       2 |   5    0      1008        12 |   2  57    0    0 650f |    2.777       0       5       0       5     57     57      0    978      42       2  57    0650f a70f      9.000 "
test,1583575479014383104,1," |  1  |   1024       4   1021       0 |   5    0      1002        19 |   2  57    0    0 650f |    3.479       0       5       0       5     57     57      0    995      26       2  57    0650f a70f      9.570 "
test,1583575479033628928,22," | 22  |   1024       5   1018       0 |   5    0      1008        10 |   3  42    0    0 bd0f |    0           0       0       0       8      0      0      0    960      58       0  42    0bd0f a70f     30.360 "
test,1583575479014868992,23," | 23  |   1024       5    962       0 |   5    0       956         6 |   1  57    0    0 650f |    2.014       0       5       0       5     57     57      0    940      22       1  57    0650f a70f      9.690 "
test,1583575479034663936,24," | 24  |   1024       5   1020       0 |   5    1      1015         5 |   1  42   57    0 bd0f |    0           0       0       0       8      0      0      0    990      30       0  42    0bd0f a70f     30.360 "
test,1583575479012943872,26," | 26  |   1024       5   1020       0 |   5    0      1016         4 |   1  57    0    0 650f |    2.075       0       5       0       5     57     57      0    997      23       1  57    0650f a70f      8.250 "
test,1583575479019323136,27," | 27  |   1024       5   1022       0 |   5    0       997        25 |   2  57    0    0 650f |    2.746       0       5       0       5     57     57      0    956      66       2  57    0650f a70f      9.660 "
test,1583575479021104128,28," | 28  |   1024       4   1020       0 |   2    7       940        80 |   3  57   42    0 650f |    3.509       0       5       0       5     57     57      0    911     109       3  57    0650f a70f      9.690 "
test,1583575479034464000,29," | 29  |   1024       5   1018       4 |   0    0       903       119 |   0   0    0    0    0 |    0           0       0       0       8      0      0      0    849     173       0   0    0   0 a70f     30.360 "
test,1583575479035342848,30," | 30  |   1024       5   1020       0 |   5    0      1006        14 |   5  42    0    0 bd0f |    0           0       0       0       8      0      0      0    973      47       0  42    0bd0f a70f     30.360 "
test,1583575479032965888,35," | 35  |   1024       5   1020       0 |   5    0       976        44 |   4  42    0    0 bd0f |    0           0       0       0       8      0      0      0    955      65       0  42    0bd0f a70f     30.390 "
test,1583575479035593984,40," | 40  |   1024       4    986      30 |   0    2       934        82 |   0  40   42    1 7b0f |    0           0       0       0       8      0      0      0    899     117       0  40    17b0f a70f     30.210 "
test,1583575479022238976,41," | 41  |   1024       5    981      29 |   5    0       995        15 |   1  42    0    0 bd0f |    1.983       0       5       0       5     42     42      0    966      44       1  42    0bd0f a70f      8.910 "
test,1583575479013176064,42," | 42  |   1024       5    988      32 |   1    0       982        38 |  11  42    0    1 bd0f |    1.739       0       4       0       4     42     42      0    955      65       2  42    1bd0f a70f      6.510 "
test,1583575479017265152,44," | 44  |   1024       5    993      27 |   3    0       989        31 |   1  42    0    0 bd0f |    1.983       0       5       0       5     42     42      0    959      61       1  42    0bd0f a70f      8.910 "
test,1583575479015081984,45," | 45  |   1024       5    998      22 |   5    0       975        45 |   1  42    0    0 bd0f |    2.044       0       5       0       5     42     42      0    949      71       1  42    0bd0f a70f      9.630 "
test,1583575479023464960,46," | 46  |   1024       5    985      28 |   5    0       962        51 |   1  42    0    0 bd0f |    2.044       0       5       0       5     42     42      0    940      73       1  42    0bd0f a70f      9.720 "
test,1583575479013560064,47," | 47  |   1024       5    991      29 |   5    0       979        41 |   1  42    0    0 bd0f |    2.044       0       5       0       5     42     42      0    959      61       1  42    0bd0f a70f      8.220 "
test,1583575479020313088,48," | 48  |   1024       4    927      26 |   5    0       920        33 |   1  42    0    0 bd0f |    2.014       0       5       0       5     42     42      0    892      61       1  42    0bd0f a70f      9.690 "
test,1583575479034187008,49," | 49  |   1024       5   1014       0 |   5    0      1000        14 |   2  57    0    0 650f |    2.807       0       3       0       3     57     57      0    991      23       2  57    0650f a70f     30.330 "
test,1583575479013377792,51," | 51  |   1024       5   1015       0 |   5    0      1009         6 |   1  57    0    0 650f |    2.044       0       5       0       5     57     57      0   1008       7       1  57    0650f a70f      8.250 "
test,1583575479015717888,52," | 52  |   1024       5   1008       8 |   3    2       961        55 |   2  57   42    0 650f |    2.807       0       5       0       5     57     57      0    942      74       2  57    0650f a70f      8.850 "
test,1583575479030710016,53," | 53  |   1024       5    998       0 |   0    4       943        55 |   0  53   57    1 720f |    0           0       0       0       8      0      0      0    934      64       0  53    1720f a70f     30.180 "
test,1583575479018364928,54," | 54  |   1024       5   1016       0 |   5    0      1001        15 |   2  57    0    0 650f |    2.807       0       5       0       5     57     57      0    977      39       2  57    0650f a70f      9.000 "
test,1583575479036321024,55," | 55  |   1024       5   1003       0 |   5    0       962        41 |   2  57    0    0 650f |    2.807       0       3       0       3     57     57      0    957      46       2  57    0650f a70f     30.300 "
test,1583575479017828096,56," | 56  |   1024       5   1006       0 |   5    0       987        19 |   1  57    0    0 650f |    2.075       0       5       0       5     57     57      0    980      26       1  57    0650f a70f      8.220 "
test,1583575479018138880,57," | 57  |   1024       5    961       0 |   4    0       928        33 |   2  57    0    1 650f |    1.739       0       4       0       4     57     57      0    874      87       2  57    1650f a70f      7.200 "
test,1583575479018604032,58," | 58  |   1024       5   1015       0 |   5    0      1000        15 |   1  57    0    0 650f |    2.044       0       5       0       5     57     57      0    965      50       1  57    0650f a70f      9.690 "
test,1583575479023233024,5," |  5  |   1024       5   1022       0 |   5    0       939        83 |   4  57    0    0 650f |    3.509       0       5       0       5     57     57      0    918     104       3  57    0650f a70f      9.690 "
test,1583575479014188032,60," | 60  |   1024       5   1015       0 |   5    0       951        64 |   1  57    0    0 650f |    2.014       0       5       0       5     57     57      0    940      75       1  57    0650f a70f      8.880 "
test,1583575479014585856,61," | 61  |   1024       5   1014       0 |   5    0       969        45 |   1  57    0    0 650f |    2.044       0       5       0       5     57     57      0    941      73       1  57    0650f a70f      8.940 "
test,1583575479021997056,7," |  7  |   1024       5   1021       0 |   5    0      1003        18 |   3  57    0    0 650f |    2.777       0       5       0       5     57     57      0    998      23       2  57    0650f a70f      9.570 "
test,1583575479017564160,9," |  9  |   1024       5   1020       0 |   5    0       978        42 |   3  57    0    0 650f |    3.509       0       5       0       5     57     57      0    972      48       3  57    0650f a70f      9.570 "
