test,1583575626524813824,10," | 10  |   1614       5   1586       0 |   5    0      1565        21 |   3  61    0    0 e50f |    9.338       0       5       0       5     61     61      0   1543      43      11  61    0e50f a70f     15.480 "
test,1583575626517913088,12," | 12  |   1614       5   1612       0 |   5    6      1599        13 |   1   9   61    0 240f |    2.075       0       5       0       5      9      9      0   1574      38       1   9    0240f a70f      8.880 "
test,1583575626518178816,13," | 13  |   1614       5   1610       0 |   5    9      1595        15 |   1   9   61    0 240f |    2.044       0       5       0       5      9      9      0   1576      34       1   9    0240f a70f      8.910 "
test,1583575626520349952,15," | 15  |   1614       5   1612       0 |   5    1      1553        59 |   2   9   35    0 240f |    2.777       0       5       0       5      9      9      0   1491     121       2   9    0240f a70f      9.720 "
test,1583575626521799168,16," | 16  |   1614       5   1610       0 |   5    0      1549        61 |   2  27    0    0 290f |    2.746       0       5       0       5     27     27      0   1504     106       2  27    0290f a70f      8.970 "
test,1583575626517196800,17," | 17  |   1614       5   1609       1 |   5    0      1592        18 |   1  27    0    0 290f |    2.075       0       5       0       5     27     27      0   1534      76       1  27    0290f a70f      8.160 "
test,1583575626522813952,18," | 18  |   1614       5   1609       0 |   5    0      1513        96 |   2  27    0    0 290f |    3.509       0       5       0       5     27     27      0   1430     179       3  27    0290f a70f     11.070 "
test,1583575626539972096,19," | 19  |   1614       5   1608       2 |   5    0      1592        18 |   1  27    0    0 290f |    2.014       0       4       0       4     27     27      0   1538      72       1  27    0290f a70f     30.390 "
test,1583575626517533184,1," |  1  |   1614       4   1611       0 |   5   11      1571        40 |   1   9   61    0 240f |    2.716       0       5       0       5      9      9      0   1557      54       1   9    0240f a70f      8.910 "
test,1583575626522116864,22," | 22  |   1614       5   1608       0 |   5    0      1596        12 |   2  27    0    0 290f |    3.479       0       5       0       5     27     27      0   1506     102       3  27    0290f a70f     10.380 "
test,1583575626523483136,23," | 23  |   1614       5   1552       0 |   5    0      1543         9 |   1  27    0    0 290f |    2.044       0       5       0       5     27     27      0   1508      44       1  27    0290f a70f      8.220 "
test,1583575626520150016,24," | 24  |   1614       5   1610       0 |   5    0      1602         8 |   2  27    0    0 290f |    3.540       0       5       0       5     27     27      0   1558      52       3  27    0290f a70f     10.290 "
test,1583575626520536832,26," | 26  |   1614       5   1610       0 |   5    0      1603         7 |   2  27    0    0 290f |    2.777       0       5       0       5     27     27      0   1570      40       2  27    0290f a70f      9.720 "
test,1583575626523937024,27," | 27  |   1614       5   1612       0 |   4    0      1569        43 |   2  27    0    1 290f |    1.739       0       4       0       4     27     27      0   1489     123       2  27    1290f a70f      6.480 "
test,1583575626538192896,28," | 28  |   1614       5   1610       0 |   1    4      1481       129 |   2  27   35    0 290f |    0           0       0       0       8      0      0      0   1433     177       0  27    0290f a70f     30.330 "
test,1583575626540177152,29," | 29  |   1614       1   1608       4 |   5    0      1424       188 |   1  27    0    0 290f |    2.044       0       3       0       3     27     27      0   1341     271       1  27    0290f a70f     30.360 "
test,1583575626517376000,30," | 30  |   1614       5   1610       0 |   5    0      1584        26 |   1  35    0    0 b50f |    2.075       0       5       0       5     35     35      0   1534      76       1  35    0b50f a70f      8.280 "
test,1583575626516283904,35," | 35  |   1614       5   1610       0 |   5    0      1537        73 |   2  35    0    1 b50f |    1.770       0       4       0       4     35     35      0   1506     104       2  35    1b50f a70f      6.510 "
test,1583575626530108928,40," | 40  |   1614       5   1574      32 |   5    0      1482       124 |   3  27    0    0 290f |   10.803       0       5       0       5     27     27      0   1436     170      13  27    0290f a70f     17.610 "
test,1583575626534351104,41," | 41  |   1614       5   1568      32 |   5    0      1584        16 |   2  27    0    0 290f |   10.803       0       5       0       5     27     27      0   1538      62      13  27    0290f a70f     16.890 "
test,1583575626521060864,42," | 42  |   1614       5   1575      35 |   2    8      1563        47 |   5  42   27    1 240f |    3.814       0       4       0       4     42     42      0   1516      94       5  42    1240f a70f      8.490 "
test,1583575626524280064,44," | 44  |   1614       5   1580      30 |   5    0      1568        42 |   5  27    0    0 290f |    3.509       0       5       0       5     27     27      0   1524      86       3  27    0290f a70f     15.360 "
test,1583575626535717888,45," | 45  |   1614       5   1586      24 |   5    0      1550        60 |   3  27    0    0 290f |    3.540       0       5       0       5     27     27      0   1514      96       3  27    0290f a70f     16.110 "
test,1583575626525806848,46," | 46  |   1614       5   1572      31 |   5    0      1527        76 |   3  27    0    0 290f |   11.566       0       5       0       5     27     27      0   1496     107      14  27    0290f a70f     17.490 "
test,1583575626519057152,47," | 47  |   1614       5   1578      32 |   4   10      1553        57 |   1  42   27    0 240f |    2.044       0       5       0       5     42     42      0   1514      96       1  42    0240f a70f      8.820 "
test,1583575626519407872,48," | 48  |   1614       5   1514      29 |   4    8      1495        48 |   1  42   27    0 240f |    2.044       0       5       0       5     42     42      0   1457      86       1  42    0240f a70f      9.510 "
test,1583575626531659008,49," | 49  |   1614       5   1604       0 |   5    0      1578        26 |   2  61    0    0 e50f |    2.746       0       5       0       5     61     61      0   1563      41       2  61    0e50f a70f      8.970 "
test,1583575626518680064,51," | 51  |   1614       5   1605       0 |   5    0      1595        10 |   2  61    0    0 e50f |    2.807       0       5       0       5     61     61      0   1590      15       2  61    0e50f a70f      9.000 "
test,1583575626540683008,52," | 52  |   1614       5   1591      15 |   5    0      1523        83 |   2  27    0    0 290f |    3.509       0       4       0       4     27     27      0   1490     116       3  27    0290f a70f     30.270 "
test,1583575626522609920,53," | 53  |   1614       5   1588       0 |   5    0      1509        79 |   3  61    0    0 e50f |    3.479       0       5       0       5     61     61      0   1490      98       3  61    0e50f a70f      9.570 "
test,1583575626528343040,54," | 54  |   1614       5   1606       0 |   5    0      1584        22 |   4  61    0    0 e50f |   10.131       0       5       0       5     61     61      0   1554      52      12  61    0e50f a70f     16.230 "
test,1583575626518849024,55," | 55  |   1614       5   1593       0 |   5    0      1538        55 |   2  61    0    0 e50f |    2.777       0       5       0       5     61     61      0   1526      67       2  61    0e50f a70f      8.880 "
test,1583575626518508800,56," | 56  |   1614       5   1596       0 |   5    0      1569        27 |   1  61    0    0 e50f |    2.075       0       5       0       5     61     61      0   1557      39       1  61    0e50f a70f      8.850 "
test,1583575626540489984,57," | 57  |   1614       2   1551       0 |   2    0      1512        39 |   4  27    0    0 290f |    3.540       0       3       0       3     27     27      0   1419     132       3  27    0290f a70f     30.390 "
test,1583575626522962944,58," | 58  |   1614       5   1605       0 |   5    0      1585        20 |   1  61    0    0 e50f |    2.075       0       5       0       5     61     61      0   1519      86       1  61    0e50f a70f      8.130 "
test,1583575626519670016,5," |  5  |   1614       5   1612       0 |   5    0      1472       140 |   2   9    0    0 240f |    2.777       0       5       0       5      9      9      0   1444     168       2   9    0240f a70f      9.720 "
test,1583575626523144960,60," | 60  |   1614       5   1605       0 |   5    0      1501       104 |   3  61    0    0 e50f |    2.777       0       5       0       5     61     61      0   1480     125       2  61    0e50f a70f      9.630 "
test,1583575626525101824,61," | 61  |   1614       5   1604       0 |   4    0      1536        68 |   4  61    0    1 e50f |    1.739       0       4       0       4     61     61      0   1491     113       2  61    1e50f a70f      6.510 "
test,1583575626517697024,7," |  7  |   1614       5   1611       0 |   5   10      1586        25 |   1   9   61    0 240f |    2.075       0       5       0       5      9      9      0   1578      33       1   9    0240f a70f      8.910 "
test,1583575626515631872,9," |  9  |   1614       5   1610       0 |   4   10      1552        58 |   5   9   61    1 240f |    1.770       0       4       0       4      9      9      0   1542      68       2   9    1240f a70f      6.510 "
