test,1583575721268315904,10," | 10  |   1993       5   1965       0 |   5    0      1939        26 |   1  56    0    0 890f |    2.014       0       5       0       5     56     56      0   1910      55       1  56    0890f a70f      8.130 "
test,1583575721297140992,12," | 12  |   1993       5   1991       0 |   2    3      1976        15 |  14  12   56    1 8d0f |    1.739       0       1       0       1     12     12      0   1946      45       2  12    18d0f a70f     30.300 "
test,1583575721269242880,13," | 13  |   1993       5   1989       0 |   5    0      1972        17 |   1  56    0    0 890f |    2.746       0       5       0       5     56     56      0   1950      39       2  56    0890f a70f      8.970 "
test,1583575721292418048,15," | 15  |   1993       5   1991       0 |   5    0      1921        70 |   4  12    0    0 8d0f |    1.983       0       2       0       2     12     12      0   1843     148       1  12    08d0f a70f     30.390 "
test,1583575721291693824,16," | 16  |   1993       5   1989       0 |   4    2      1917        72 |   1  41   56    0  10f |    2.044       0       1       0       1     41     41      0   1868     121       1  41    0 10f a70f     30.360 "
test,1583575721288858880,17," | 17  |   1993       5   1988       1 |   1   12      1966        23 |   1  41   19    0  10f |    0           0       0       0       8      0      0      0   1904      85       0  41    0 10f a70f     30.360 "
test,1583575721274949120,18," | 18  |   1993       5   1988       0 |   5    0      1873       115 |   5  56    0    0 890f |    3.479       0       5       0       5     56     56      0   1785     203       3  56    0890f a70f      9.660 "
test,1583575721292764928,19," | 19  |   1993       5   1987       2 |   4    8      1963        26 |   5  19   56    1  40f |    1.739       0       1       0       1     19     19      0   1904      85       2  19    1 40f a70f     30.300 "
test,1583575721269649152,1," |  1  |   1993       4   1990       0 |   5    0      1938        52 |   2  56    0    0 890f |    3.448       0       5       0       5     56     56      0   1922      68       2  56    0890f a70f      9.510 "
test,1583575721270178048,22," | 22  |   1993       5   1987       0 |   5    0      1972        15 |   5  56    0    0 890f |    3.479       0       5       0       5     56     56      0   1876     111       3  56    0890f a70f      9.510 "
test,1583575721274586880,23," | 23  |   1993       5   1931       0 |   5    0      1920        11 |   4  56    0    0 890f |    3.479       0       5       0       5     56     56      0   1883      48       3  56    0890f a70f      9.660 "
test,1583575721274252032,24," | 24  |   1993       5   1989       0 |   5    0      1976        13 |   5  56    0    0 890f |    3.509       0       5       0       5     56     56      0   1931      58       3  56    0890f a70f      9.720 "
test,1583575721272432128,26," | 26  |   1993       5   1989       0 |   5    0      1982         7 |   4  56    0    0 890f |    2.777       0       5       0       5     56     56      0   1946      43       2  56    0890f a70f      8.940 "
test,1583575721291917056,27," | 27  |   1993       5   1991       0 |   3    8      1935        56 |   7  56   19    0 890f |    5.676       0       4       0       4     56     56      0   1842     149       6  56    0890f a70f     30.360 "
test,1583575721288228864,28," | 28  |   1993       4   1989       0 |   1    9      1836       153 |   2  41   30    0  10f |    0           0       0       0       8      0      0      0   1774     215       0  41    0 10f a70f     30.360 "
test,1583575721291066880,29," | 29  |   1993       2   1987       4 |   5    2      1766       225 |   1  19   56    0  40f |    2.044       0       2       0       2     19     19      0   1665     326       1  19    0 40f a70f     30.360 "
test,1583575721286176000,30," | 30  |   1993       5   1989       0 |   0    4      1960        29 |   0  30   12    1 dc0f |    0           0       0       0       8      0      0      0   1898      91       0  30    1dc0f a70f     30.180 "
test,1583575721291277824,35," | 35  |   1993       5   1989       0 |   2    5      1904        85 |  10  56   30    0 890f |    5.645       0       1       0       1     56     56      0   1865     124       6  56    0890f a70f     30.360 "
test,1583575721293566976,40," | 40  |   1993       5   1953      32 |   2    3      1839       146 |   7  41   48    0  10f |    3.479       0       2       0       2     41     41      0   1793     192       3  41    0 10f a70f     30.390 "
test,1583575721275567104,41," | 41  |   1993       5   1947      32 |   4    0      1960        19 |   2  41    0    1  10f |    1.739       0       4       0       4     41     41      0   1910      69       2  41    1 10f a70f      6.510 "
test,1583575721273168128,42," | 42  |   1993       5   1954      35 |   5    0      1940        49 |   1  41    0    0  10f |    2.014       0       5       0       5     41     41      0   1889     100       1  41    0 10f a70f      8.760 "
test,1583575721291456000,44," | 44  |   1993       5   1959      30 |   5    0      1939        50 |   2  41    0    0  10f |    2.746       0       4       0       4     41     41      0   1890      99       2  41    0 10f a70f     30.390 "
test,1583575721274048000,45," | 45  |   1993       5   1965      24 |   5    0      1923        66 |   1  41    0    0  10f |    2.044       0       5       0       5     41     41      0   1882     107       1  41    0 10f a70f      8.100 "
test,1583575721272037120,46," | 46  |   1993       5   1951      31 |   5    0      1890        92 |   1  41    0    0  10f |    2.014       0       5       0       5     41     41      0   1852     130       1  41    0 10f a70f      8.250 "
test,1583575721279447040,47," | 47  |   1993       5   1957      32 |   4    5      1921        68 |   1  41   48    0  10f |    2.014       0       5       0       5     41     41      0   1872     117       1  41    0 10f a70f      9.540 "
test,1583575721289828096,48," | 48  |   1993       5   1893      29 |   0    6      1869        53 |   0  48   41    1 4b0f |    0           0       0       0       8      0      0      0   1829      93       0  48    14b0f a70f     30.180 "
test,1583575721267881984,49," | 49  |   1993       5   1983       0 |   5    0      1949        34 |   2  49    0    1 510f |    1.739       0       4       0       4     49     49      0   1931      52       2  49    1510f a70f      6.480 "
test,1583575721271565056,51," | 51  |   1993       5   1984       0 |   5    0      1971        13 |   1  56    0    0 890f |    2.044       0       5       0       5     56     56      0   1966      18       1  56    0890f a70f      8.280 "
test,1583575721272242944,53," | 53  |   1993       5   1967       0 |   5    0      1870        97 |   1  49    0    0 510f |    1.983       0       5       0       5     49     49      0   1848     119       1  49    0510f a70f      8.040 "
test,1583575721271815936,54," | 54  |   1993       5   1985       0 |   5    0      1957        28 |   2  56    0    0 890f |    2.716       0       5       0       5     56     56      0   1920      65       2  56    0890f a70f      8.850 "
test,1583575721269840896,55," | 55  |   1993       5   1972       0 |   5    0      1906        66 |   1  49    0    0 510f |    1.983       0       5       0       5     49     49      0   1891      81       1  49    0510f a70f      8.190 "
test,1583575721268111872,56," | 56  |   1993       5   1975       0 |   4    0      1945        30 |   2  56    0    1 890f |    1.739       0       4       0       4     56     56      0   1929      46       2  56    1890f a70f      6.480 "
test,1583575721271083008,57," | 57  |   1993       4   1930       0 |   5    0      1882        48 |   3  56    0    0 890f |    2.044       0       5       0       5     56     56      0   1769     161       1  56    0890f a70f      8.910 "
test,1583575721294116096,58," | 58  |   1993       4   1984       0 |   3    5      1959        25 |   2  56   49    0 890f |    5.706       0       2       0       2     56     56      0   1881     103       6  56    0890f a70f     30.390 "
test,1583575721272612096,5," |  5  |   1993       5   1991       0 |   5    0      1818       173 |   2  56    0    0 890f |    3.479       0       5       0       5     56     56      0   1784     207       3  56    0890f a70f      9.690 "
test,1583575721278925056,60," | 60  |   1993       5   1984       0 |   5    0      1855       129 |   1  56    0    0 890f |    2.044       0       5       0       5     56     56      0   1825     159       1  56    0890f a70f      8.880 "
test,1583575721277515776,61," | 61  |   1993       5   1983       0 |   5    0      1897        86 |   1  56    0    0 890f |    2.044       0       5       0       5     56     56      0   1846     137       1  56    0890f a70f      9.600 "
test,1583575721270375936,7," |  7  |   1993       5   1990       0 |   5    0      1960        30 |   3  56    0    0 890f |    2.746       0       5       0       5     56     56      0   1950      40       2  56    0890f a70f      8.940 "
test,1583575721272822016,9," |  9  |   1993       5   1989       0 |   5    0      1917        72 |   2  56    0    0 890f |    2.746       0       5       0       5     56     56      0   1906      83       2  56    0890f a70f      8.820 "
