test,1583575543536599040,10," | 10  |   1282       5   1254       0 |   5    0      1236        18 |   1  56    0    0 b00f |    2.807       0       4       0       4     56     56      0   1222      32       2  56    0b00f a70f     30.330 "
test,1583575543515368960,12," | 12  |   1282       5   1280       0 |   5    0      1272         8 |   4  56    0    0 b00f |    2.777       0       5       0       5     56     56      0   1250      30       2  56    0b00f a70f      8.880 "
test,1583575543535459072,13," | 13  |   1282       5   1278       0 |   5    0      1263        15 |   1  56    0    0 b00f |    2.777       0       4       0       4     56     56      0   1251      27       2  56    0b00f a70f     30.360 "
test,1583575543519643904,15," | 15  |   1282       5   1280       0 |   4    2      1230        50 |   4  56   19    0 b00f |    3.540       0       5       0       5     56     56      0   1179     101       3  56    0b00f a70f      9.690 "
test,1583575543534460160,16," | 16  |   1282       5   1278       0 |   0    9      1233        45 |   0  16   42    1 770f |    0           0       0       0       8      0      0      0   1199      79       0  16    1770f a70f     30.180 "
test,1583575543521435136,17," | 17  |   1282       5   1277       1 |   5    0      1263        15 |   3  42    0    0 180f |    3.509       0       5       0       5     42     42      0   1219      59       3  42    0180f a70f     10.320 "
test,1583575543517213184,18," | 18  |   1282       5   1277       0 |   5    0      1200        77 |   1  42    0    0 180f |    2.777       0       5       0       5     42     42      0   1134     143       2  42    0180f a70f      9.000 "
test,1583575543536097024,19," | 19  |   1282       4   1276       2 |   3    9      1264        14 |   5  19   42    1 e60f |    1.770       0       1       0       1     19     19      0   1223      55       2  19    1e60f a70f     30.300 "
test,1583575543536896000,1," |  1  |   1282       4   1279       0 |   5    0      1250        29 |   4  56    0    0 b00f |    3.448       0       4       0       4     56     56      0   1242      37       2  56    0b00f a70f     30.390 "
test,1583575543516571904,22," | 22  |   1282       5   1276       0 |   5    0      1264        12 |   1  42    0    0 180f |    2.014       0       5       0       5     42     42      0   1196      80       1  42    0180f a70f      9.660 "
test,1583575543535676928,23," | 23  |   1282       5   1220       0 |   5    0      1212         8 |   4  42    0    0 180f |    3.509       0       3       0       3     42     42      0   1189      31       3  42    0180f a70f     30.390 "
test,1583575543520441088,24," | 24  |   1282       5   1278       0 |   5    0      1270         8 |   1  42    0    0 180f |    2.777       0       5       0       5     42     42      0   1237      41       2  42    0180f a70f      9.660 "
test,1583575543523300864,26," | 26  |   1282       5   1278       0 |   5    0      1273         5 |   2  42    0    0 180f |    2.777       0       5       0       5     42     42      0   1247      31       2  42    0180f a70f      9.000 "
test,1583575543538392064,27," | 27  |   1282       4   1280       0 |   5    9      1250        30 |   1  19   56    0 e60f |    2.014       0       2       0       2     19     19      0   1190      90       1  19    0e60f a70f     30.390 "
test,1583575543518512896,28," | 28  |   1282       5   1278       0 |   5    0      1178       100 |   3  42    0    0 180f |    2.777       0       5       0       5     42     42      0   1143     135       2  42    0180f a70f     10.410 "
test,1583575543538146048,29," | 29  |   1282       4   1276       4 |   5    0      1136       144 |   1  19    0    0 e60f |    2.014       0       2       0       2     19     19      0   1071     209       1  19    0e60f a70f     30.360 "
test,1583575543518714880,30," | 30  |   1282       5   1278       0 |   5    0      1259        19 |   2  42    0    0 180f |    2.807       0       5       0       5     42     42      0   1220      58       2  42    0180f a70f      9.570 "
test,1583575543520844032,35," | 35  |   1282       5   1278       0 |   5    0      1219        59 |   2  42    0    0 180f |    2.807       0       5       0       5     42     42      0   1193      85       2  42    0180f a70f      9.030 "
test,1583575543522208000,40," | 40  |   1282       5   1242      32 |   5    0      1172       102 |   1  42    0    0 180f |    2.014       0       5       0       5     42     42      0   1133     141       1  42    0180f a70f      8.940 "
test,1583575543517356032,41," | 41  |   1282       5   1236      32 |   5    0      1252        16 |   1  42    0    0 180f |    2.044       0       5       0       5     42     42      0   1214      54       1  42    0180f a70f      8.130 "
test,1583575543518237184,42," | 42  |   1282       5   1243      35 |   4    0      1233        45 |   4  42    0    1 180f |    1.739       0       4       0       4     42     42      0   1198      80       2  42    1180f a70f      7.920 "
test,1583575543514955008,44," | 44  |   1282       5   1248      30 |   5    0      1240        38 |   1  42    0    0 180f |    2.044       0       5       0       5     42     42      0   1200      78       1  42    0180f a70f      8.100 "
test,1583575543516877824,45," | 45  |   1282       5   1254      24 |   5    0      1224        54 |   1  42    0    0 180f |    2.014       0       5       0       5     42     42      0   1194      84       1  42    0180f a70f      8.940 "
test,1583575543517057024,46," | 46  |   1282       5   1240      31 |   5    0      1208        63 |   1  42    0    0 180f |    2.044       0       5       0       5     42     42      0   1181      90       1  42    0180f a70f      8.130 "
test,1583575543524880896,47," | 47  |   1282       5   1246      32 |   5    0      1226        52 |   1  42    0    0 180f |    2.075       0       5       0       5     42     42      0   1195      83       1  42    0180f a70f      8.280 "
test,1583575543516024064,48," | 48  |   1282       5   1182      29 |   5    0      1173        38 |   1  42    0    0 180f |    2.044       0       5       0       5     42     42      0   1138      73       1  42    0180f a70f      8.250 "
test,1583575543518921984,49," | 49  |   1282       5   1272       0 |   5    0      1255        17 |   2  56    0    0 b00f |    2.777       0       5       0       5     56     56      0   1243      29       2  56    0b00f a70f     10.380 "
test,1583575543514038016,51," | 51  |   1282       5   1273       0 |   5    0      1265         8 |   1  56    0    0 b00f |    2.044       0       5       0       5     56     56      0   1264       9       1  56    0b00f a70f      8.160 "
test,1583575543519439104,52," | 52  |   1282       5   1262      12 |   5    0      1207        67 |   3  42    0    0 180f |    3.509       0       5       0       5     42     42      0   1184      90       3  42    0180f a70f      9.690 "
test,1583575543519084032,53," | 53  |   1282       5   1256       0 |   5    0      1191        65 |   3  56    0    0 b00f |    2.777       0       5       0       5     56     56      0   1178      78       2  56    0b00f a70f     11.100 "
test,1583575543537787904,54," | 54  |   1282       5   1274       0 |   5    0      1255        19 |   4  56    0    0 b00f |    2.777       0       4       0       4     56     56      0   1229      45       2  56    0b00f a70f     30.330 "
test,1583575543517872128,55," | 55  |   1282       5   1261       0 |   5    0      1216        45 |   2  56    0    0 b00f |    2.807       0       5       0       5     56     56      0   1207      54       2  56    0b00f a70f     10.320 "
test,1583575543514228992,56," | 56  |   1282       5   1264       0 |   5    0      1243        21 |   2  56    0    1 b00f |    1.739       0       4       0       4     56     56      0   1235      29       2  56    1b00f a70f      6.480 "
test,1583575543542149120,57," | 57  |   1282       5   1219       0 |   5    0      1184        35 |   1  56    0    0 b00f |    2.014       0       3       0       3     56     56      0   1115     104       1  56    0b00f a70f     30.330 "
test,1583575543524199936,58," | 58  |   1282       5   1273       0 |   5    0      1255        18 |   1  56    0    0 b00f |    2.014       0       5       0       5     56     56      0   1208      65       1  56    0b00f a70f     10.440 "
test,1583575543519848192,5," |  5  |   1282       5   1280       0 |   5    0      1169       111 |   2  56    0    0 b00f |    3.479       0       5       0       5     56     56      0   1146     134       3  56    0b00f a70f     10.320 "
test,1583575543517698048,60," | 60  |   1282       5   1273       0 |   5    0      1192        81 |   1  56    0    0 b00f |    2.777       0       5       0       5     56     56      0   1178      95       2  56    0b00f a70f      9.030 "
test,1583575543516352000,61," | 61  |   1282       5   1272       0 |   5    0      1216        56 |   1  56    0    0 b00f |    2.044       0       5       0       5     56     56      0   1179      93       1  56    0b00f a70f      8.970 "
test,1583575543535906048,7," |  7  |   1282       5   1279       0 |   5    0      1259        20 |   4  56    0    0 b00f |    2.807       0       4       0       4     56     56      0   1254      25       2  56    0b00f a70f     30.330 "
test,1583575543532946944,9," |  9  |   1282       5   1278       0 |   0   10      1230        48 |   0   9   56    1 a00f |    0           0       0       0       8      0      0      0   1223      55       0   9    1a00f a70f     30.180 "
