test,1583575603287309056,10," | 10  |   1521       5   1493       0 |   1   12      1472        21 |   1  58    9    0  30f |    0           0       0       0       8      0      0      0   1453      40       0  58    0 30f a70f     30.360 "
test,1583575603290575104,12," | 12  |   1521       5   1519       0 |   1   14      1508        11 |   1  58    9    0  30f |    4.943       0       1       0       1     58     58      0   1482      37       5  58    0 30f a70f     30.390 "
test,1583575603270548992,13," | 13  |   1521       5   1517       0 |   5    0      1502        15 |   1   1    0    0 e90f |    1.373       0       5       0       5      1      1      0   1484      33       1   1    0e90f a70f     10.200 "
test,1583575603292773888,15," | 15  |   1521       4   1519       0 |   1    1      1461        58 |   2  58   22    0  30f |    5.676       0       1       0       1     58     58      0   1401     118       6  58    0 30f a70f     30.390 "
test,1583575603270225920,16," | 16  |   1521       5   1517       0 |   5    0      1463        54 |   2  22    0    0 440f |    2.716       0       5       0       5     22     22      0   1421      96       2  22    0440f a70f      8.850 "
test,1583575603269937152,17," | 17  |   1521       5   1516       1 |   5    0      1499        18 |   3  22    0    0 440f |    2.716       0       5       0       5     22     22      0   1447      70       2  22    0440f a70f      8.940 "
test,1583575603273585920,18," | 18  |   1521       5   1516       0 |   5    0      1423        93 |   3  22    0    0 440f |    1.953       0       5       0       5     22     22      0   1340     176       1  22    0440f a70f      8.070 "
test,1583575603266472192,19," | 19  |   1521       5   1515       2 |   5    0      1500        17 |   1  22    0    0 440f |    2.014       0       5       0       5     22     22      0   1451      66       1  22    0440f a70f      8.190 "
test,1583575603285656832,1," |  1  |   1521       4   1518       0 |   4    0      1480        38 |   2   1    0    1 e90f |    0           0       0       0       8      0      0      0   1468      50       0   1    1e90f a70f     30.210 "
test,1583575603273785088,22," | 22  |   1521       5   1515       0 |   4    0      1503        12 |   3  22    0    1 440f |    1.739       0       4       0       4     22     22      0   1417      98       2  22    1440f a70f      6.480 "
test,1583575603267316992,23," | 23  |   1521       5   1459       0 |   5    0      1450         9 |   1  22    0    0 440f |    1.983       0       5       0       5     22     22      0   1419      40       1  22    0440f a70f      8.100 "
test,1583575603266185984,24," | 24  |   1521       5   1517       0 |   5    0      1509         8 |   2  22    0    0 440f |    1.983       0       5       0       5     22     22      0   1469      48       1  22    0440f a70f      8.100 "
test,1583575603265924864,26," | 26  |   1521       5   1517       0 |   5    0      1510         7 |   1  22    0    0 440f |    1.983       0       5       0       5     22     22      0   1477      40       1  22    0440f a70f      8.130 "
test,1583575603289787904,27," | 27  |   1521       5   1519       0 |   5    0      1479        40 |   2  22    0    0 440f |    4.180       0       1       0       1     22     22      0   1405     114       4  22    0440f a70f     30.360 "
test,1583575603271266048,28," | 28  |   1521       2   1517       0 |   5    0      1397       120 |   2  22    0    0 440f |    2.014       0       5       0       5     22     22      0   1351     166       1  22    0440f a70f      8.220 "
test,1583575603268672000,29," | 29  |   1521       3   1515       4 |   5    0      1342       177 |   2  22    0    0 440f |    2.716       0       5       0       5     22     22      0   1265     254       2  22    0440f a70f      8.940 "
test,1583575603270950912,30," | 30  |   1521       5   1517       0 |   5    0      1493        24 |   1  22    0    0 440f |    1.983       0       5       0       5     22     22      0   1446      71       1  22    0440f a70f      8.190 "
test,1583575603273415936,35," | 35  |   1521       5   1517       0 |   5    0      1447        70 |   1  22    0    0 440f |    2.014       0       5       0       5     22     22      0   1417     100       1  22    0440f a70f      8.190 "
test,1583575603291009024,40," | 40  |   1521       4   1481      32 |   5    0      1396       117 |   2  42    0    0 e50f |    2.777       0       4       0       4     42     42      0   1350     163       2  42    0e50f a70f     30.360 "
test,1583575603288003840,41," | 41  |   1521       5   1475      32 |   5    0      1491        16 |   1  42    0    0 e50f |    2.044       0       4       0       4     42     42      0   1446      61       1  42    0e50f a70f     30.330 "
test,1583575603266612992,42," | 42  |   1521       5   1482      35 |   4    0      1470        47 |   2  42    0    1 e50f |    1.739       0       4       0       4     42     42      0   1424      93       2  42    1e50f a70f      6.480 "
test,1583575603289148160,44," | 44  |   1521       5   1487      30 |   4    7      1476        41 |   2  42   45    0 e50f |    2.746       0       4       0       4     42     42      0   1433      84       2  42    0e50f a70f     30.300 "
test,1583575603285934080,45," | 45  |   1521       5   1493      24 |   0    2      1458        59 |   0  45   42    1 760f |    0           0       0       0       8      0      0      0   1423      94       0  45    1760f a70f     30.270 "
test,1583575603288769024,46," | 46  |   1521       5   1479      31 |   5    0      1438        72 |   1  42    0    0 e50f |    2.044       0       4       0       4     42     42      0   1407     103       1  42    0e50f a70f     30.390 "
test,1583575603266827008,47," | 47  |   1521       5   1485      32 |   5    0      1460        57 |   1  42    0    0 e50f |    2.075       0       5       0       5     42     42      0   1422      95       1  42    0e50f a70f      8.310 "
test,1583575603269190144,48," | 48  |   1521       5   1421      29 |   5    0      1405        45 |   1  42    0    0 e50f |    2.044       0       5       0       5     42     42      0   1365      85       1  42    0e50f a70f      9.000 "
test,1583575603269005056,49," | 49  |   1521       5   1511       0 |   5    0      1488        23 |   1  58    0    0  30f |    1.983       0       5       0       5     58     58      0   1474      37       1  58    0 30f a70f      8.220 "
test,1583575603269700096,51," | 51  |   1521       5   1512       0 |   5    2      1503         9 |   2  22    1    0 440f |    4.211       0       5       0       5     22     22      0   1501      11       4  22    0440f a70f     10.290 "
test,1583575603287139840,52," | 52  |   1521       4   1499      14 |   5    0      1436        77 |   2  22    0    0 440f |    3.479       0       4       0       4     22     22      0   1406     107       3  22    0440f a70f     30.360 "
test,1583575603267753984,53," | 53  |   1521       5   1495       0 |   5    0      1417        78 |   2  58    0    0  30f |    2.685       0       5       0       5     58     58      0   1399      96       2  58    0 30f a70f      8.910 "
test,1583575603289403904,54," | 54  |   1521       5   1513       0 |   1   14      1493        20 |   1  58    9    0  30f |    2.716       0       3       0       3     58     58      0   1462      51       2  58    0 30f a70f     30.390 "
test,1583575603269402112,55," | 55  |   1521       5   1500       0 |   5    0      1448        52 |   1  58    0    0  30f |    2.014       0       5       0       5     58     58      0   1437      63       1  58    0 30f a70f      8.220 "
test,1583575603285273088,56," | 56  |   1521       5   1503       0 |   1    4      1479        24 |   2   1   22    0 e90f |    0           0       0       0       8      0      0      0   1469      34       0   1    0e90f a70f     30.390 "
test,1583575603275237120,57," | 57  |   1521       5   1458       0 |   5    0      1419        39 |   1  22    0    0 440f |    2.746       0       5       0       5     22     22      0   1336     122       2  22    0440f a70f     11.040 "
test,1583575603268310016,58," | 58  |   1521       5   1512       0 |   1    0      1492        20 |  10  58    0    1  30f |    1.739       0       4       0       4     58     58      0   1433      79       2  58    1 30f a70f      7.230 "
test,1583575603290225152,5," |  5  |   1521       5   1519       0 |   1    4      1391       128 |   2  58    1    0  30f |    5.645       0       1       0       1     58     58      0   1363     156       6  58    0 30f a70f     30.360 "
test,1583575603271553024,60," | 60  |   1521       5   1512       0 |   5    0      1417        95 |   2  22    0    0 440f |    3.479       0       5       0       5     22     22      0   1399     113       3  22    0440f a70f      9.720 "
test,1583575603267488000,61," | 61  |   1521       5   1511       0 |   1    3      1446        65 |   1  58   22    0  30f |    2.014       0       5       0       5     58     58      0   1403     108       1  58    0 30f a70f      8.250 "
test,1583575603268846080,7," |  7  |   1521       5   1518       0 |   5    0      1495        23 |   1   1    0    0 e90f |    1.312       0       5       0       5      1      1      0   1487      31       1   1    0e90f a70f     10.140 "
test,1583575603284130048,9," |  9  |   1521       5   1517       0 |   0    9      1461        56 |   0   9    1    1 870f |    0           0       0       0       8      0      0      0   1451      66       0   9    1870f a70f     30.210 "
