test,1583575569264601088,10," | 10  |   1385       5   1357       0 |   5    0      1338        19 |   1   1    0    0 e90f |    1.373       0       5       0       5      1      1      0   1322      35       1   1    0e90f a70f      7.620 "
test,1583575569266347776,12," | 12  |   1385       5   1383       0 |   5    0      1375         8 |   1   1    0    0 e90f |    1.342       0       5       0       5      1      1      0   1350      33       1   1    0e90f a70f      8.310 "
test,1583575569264796928,13," | 13  |   1385       5   1381       0 |   5    0      1366        15 |   1   1    0    0 e90f |    1.342       0       5       0       5      1      1      0   1349      32       1   1    0e90f a70f      7.590 "
test,1583575569266729984,15," | 15  |   1385       5   1383       0 |   4    0      1328        55 |   2   1    0    0 e90f |    2.075       0       5       0       5      1      1      0   1273     110       2   1    0e90f a70f      8.910 "
test,1583575569270051072,16," | 16  |   1385       5   1381       0 |   5    0      1333        48 |   1  52    0    0 130f |    2.044       0       5       0       5     52     52      0   1295      86       1  52    0130f a70f      8.970 "
test,1583575569267796992,17," | 17  |   1385       5   1380       1 |   5    0      1366        15 |   1  52    0    0 130f |    2.777       0       5       0       5     52     52      0   1320      61       2  52    0130f a70f      8.910 "
test,1583575569269107200,18," | 18  |   1385       5   1380       0 |   5    0      1299        81 |   2  52    0    0 130f |    2.838       0       5       0       5     52     52      0   1225     155       2  52    0130f a70f      8.880 "
test,1583575569269431040,19," | 19  |   1385       5   1379       2 |   5    0      1366        15 |   2  52    0    0 130f |    2.807       0       5       0       5     52     52      0   1322      59       2  52    0130f a70f      9.060 "
test,1583575569263503104,1," |  1  |   1385       4   1382       0 |   4    0      1349        33 |   4   1    0    1 e90f |    1.739       0       4       0       4      1      1      0   1339      43       2   1    1e90f a70f      6.510 "
test,1583575569273341952,22," | 22  |   1385       5   1379       0 |   5    0      1367        12 |   3  52    0    0 130f |    2.838       0       5       0       5     52     52      0   1291      88       2  52    0130f a70f      9.720 "
test,1583575569267954944,23," | 23  |   1385       5   1323       0 |   5    0      1314         9 |   1  52    0    0 130f |    2.044       0       5       0       5     52     52      0   1289      34       1  52    0130f a70f      8.280 "
test,1583575569266962944,24," | 24  |   1385       5   1381       0 |   5    0      1373         8 |   1  52    0    0 130f |    2.075       0       5       0       5     52     52      0   1338      43       1  52    0130f a70f      9.000 "
test,1583575569265510912,26," | 26  |   1385       5   1381       0 |   5    0      1376         5 |   1  52    0    0 130f |    2.075       0       5       0       5     52     52      0   1347      34       1  52    0130f a70f      8.310 "
test,1583575569268379904,27," | 27  |   1385       5   1383       0 |   5    0      1348        35 |   4  52    0    0 130f |    2.777       0       5       0       5     52     52      0   1283     100       2  52    0130f a70f      8.820 "
test,1583575569274637824,28," | 28  |   1385       5   1381       0 |   5    0      1272       109 |   2  52    0    0 130f |    3.540       0       5       0       5     52     52      0   1232     149       3  52    0130f a70f     10.440 "
test,1583575569289861888,29," | 29  |   1385       4   1379       4 |   2    0      1225       158 |   5  52    0    0 130f |    3.540       0       1       0       1     52     52      0   1157     226       3  52    0130f a70f     30.270 "
test,1583575569276104960,30," | 30  |   1385       5   1381       0 |   5    0      1360        21 |   3  52    0    0 130f |    3.540       0       5       0       5     52     52      0   1319      62       3  52    0130f a70f     11.040 "
test,1583575569274259200,35," | 35  |   1385       5   1381       0 |   5    0      1319        62 |   4  52    0    0 130f |    3.540       0       5       0       5     52     52      0   1291      90       3  52    0130f a70f     10.440 "
test,1583575569271642880,40," | 40  |   1385       5   1345      32 |   5    0      1270       107 |   2  52    0    0 130f |    2.777       0       5       0       5     52     52      0   1226     151       2  52    0130f a70f      9.600 "
test,1583575569288243968,41," | 41  |   1385       5   1339      32 |   5    0      1355        16 |   3  52    0    0 130f |    3.509       0       4       0       4     52     52      0   1311      60       3  52    0130f a70f     30.270 "
test,1583575569286833152,42," | 42  |   1385       5   1346      35 |   5    0      1335        46 |   2  52    0    0 130f |    3.479       0       4       0       4     52     52      0   1294      87       3  52    0130f a70f     30.360 "
test,1583575569270349056,44," | 44  |   1385       5   1351      30 |   5    0      1341        40 |   2  52    0    0 130f |    3.540       0       5       0       5     52     52      0   1299      82       3  52    0130f a70f      9.600 "
test,1583575569278210048,45," | 45  |   1385       5   1357      24 |   5    0      1326        55 |   2  52    0    0 130f |    3.509       0       5       0       5     52     52      0   1292      89       3  52    0130f a70f     10.410 "
test,1583575569270699008,46," | 46  |   1385       5   1343      31 |   5    0      1307        67 |   3  52    0    0 130f |    4.241       0       5       0       5     52     52      0   1277      97       4  52    0130f a70f     10.440 "
test,1583575569286291968,47," | 47  |   1385       5   1349      32 |   0    8      1326        55 |   0  47   52    1 690f |    0           0       0       0       8      0      0      0   1290      91       0  47    1690f a70f     30.150 "
test,1583575569285944832,48," | 48  |   1385       5   1285      29 |   5    0      1271        43 |   3  52    0    0 130f |    3.509       0       4       0       4     52     52      0   1233      81       3  52    0130f a70f     30.330 "
test,1583575569267595008,49," | 49  |   1385       5   1375       0 |   4    0      1358        17 |   2  49    0    1 7d0f |    1.739       0       4       0       4     49     49      0   1345      30       2  49    17d0f a70f      6.480 "
test,1583575569263716864,51," | 51  |   1385       5   1376       0 |   5    0      1368         8 |   1   1    0    0 e90f |    1.373       0       5       0       5      1      1      0   1367       9       1   1    0e90f a70f      7.500 "
test,1583575569268760064,52," | 52  |   1385       5   1365      12 |   3    0      1305        72 |   4  52    0    1 130f |    1.739       0       4       0       4     52     52      0   1280      97       2  52    1130f a70f      6.510 "
test,1583575569266135808,53," | 53  |   1385       5   1359       0 |   5    0      1286        73 |   1  49    0    0 7d0f |    1.983       0       5       0       5     49     49      0   1273      86       1  49    07d0f a70f      8.220 "
test,1583575569267156992,54," | 54  |   1385       5   1377       0 |   5    0      1357        20 |   1   1    0    0 e90f |    1.342       0       5       0       5      1      1      0   1330      47       1   1    0e90f a70f      7.440 "
test,1583575569265309952,55," | 55  |   1385       5   1364       0 |   5    0      1318        46 |   1  49    0    0 7d0f |    2.014       0       5       0       5     49     49      0   1309      55       1  49    07d0f a70f      8.130 "
test,1583575569265774080,56," | 56  |   1385       5   1367       0 |   5    0      1345        22 |   2   1    0    0 e90f |    2.044       0       5       0       5      1      1      0   1337      30       2   1    0e90f a70f      8.280 "
test,1583575569285673984,57," | 57  |   1385       5   1322       0 |   3    0      1285        37 |   2  49    0    0 7d0f |    0           0       0       0       8      0      0      0   1211     111       0  49    07d0f a70f     30.390 "
test,1583575569287182080,58," | 58  |   1385       5   1376       0 |   5    0      1357        19 |   1  49    0    0 7d0f |    2.044       0       4       0       4     49     49      0   1306      70       1  49    07d0f a70f     30.390 "
test,1583575569273700864,5," |  5  |   1385       5   1383       0 |   5    0      1264       119 |   2   1    0    0 e90f |    2.044       0       5       0       5      1      1      0   1239     144       2   1    0e90f a70f      8.250 "
test,1583575569271821056,60," | 60  |   1385       5   1376       0 |   5    0      1291        85 |   2   1    0    0 e90f |    2.044       0       5       0       5      1      1      0   1277      99       2   1    0e90f a70f      8.250 "
test,1583575569288680192,61," | 61  |   1385       5   1375       0 |   5    0      1316        59 |   2  49    0    0 7d0f |    2.746       0       4       0       4     49     49      0   1276      99       2  49    07d0f a70f     30.390 "
test,1583575569264134912,7," |  7  |   1385       5   1382       0 |   5    0      1361        21 |   1   1    0    0 e90f |    1.312       0       5       0       5      1      1      0   1354      28       1   1    0e90f a70f      7.560 "
test,1583575569264348928,9," |  9  |   1385       5   1381       0 |   5    0      1329        52 |   1   1    0    0 e90f |    1.342       0       5       0       5      1      1      0   1320      61       1   1    0e90f a70f      7.440 "
