test,1583575521515980032,10," | 10  |   1194       5   1166       0 |   5    0      1150        16 |   1   9    0    0 2d0f |    2.075       0       5       0       5      9      9      0   1137      29       1   9    02d0f a70f      8.970 "
test,1583575521515053056,12," | 12  |   1194       5   1192       0 |   5    0      1184         8 |   1   9    0    0 2d0f |    2.014       0       5       0       5      9      9      0   1163      29       1   9    02d0f a70f      8.970 "
test,1583575521516984064,13," | 13  |   1194       5   1190       0 |   5    0      1178        12 |   1   9    0    0 2d0f |    2.044       0       5       0       5      9      9      0   1166      24       1   9    02d0f a70f      8.100 "
test,1583575521517828096,15," | 15  |   1194       5   1192       0 |   4    0      1145        47 |   2   9    0    0 2d0f |    2.807       0       5       0       5      9      9      0   1097      95       2   9    02d0f a70f      9.630 "
test,1583575521523662080,16," | 16  |   1194       5   1190       0 |   5    0      1148        42 |   1  26    0    0 d30f |    1.983       0       5       0       5     26     26      0   1116      74       1  26    0d30f a70f      8.160 "
test,1583575521524133888,17," | 17  |   1194       5   1189       1 |   5    0      1176        14 |   3  26    0    0 d30f |    1.983       0       5       0       5     26     26      0   1137      53       1  26    0d30f a70f      8.190 "
test,1583575521530164992,18," | 18  |   1194       5   1189       0 |   1    8      1115        74 |   2  35   26    0 e40f |    5.737       0       5       0       5     35     35      0   1054     135       6  35    0e40f a70f     14.700 "
test,1583575521519574016,19," | 19  |   1194       5   1188       2 |   5    0      1176        14 |   3  26    0    0 d30f |    2.014       0       5       0       5     26     26      0   1137      53       1  26    0d30f a70f      8.970 "
test,1583575521515707904,1," |  1  |   1194       4   1191       0 |   5    0      1166        25 |   1   9    0    0 2d0f |    2.716       0       5       0       5      9      9      0   1158      33       1   9    02d0f a70f      8.940 "
test,1583575521523325952,22," | 22  |   1194       5   1188       0 |   1    7      1176        12 |   1  35   26    0 e40f |    4.974       0       5       0       5     35     35      0   1114      74       5  35    0e40f a70f     15.360 "
test,1583575521514589952,23," | 23  |   1194       5   1132       0 |   5    0      1124         8 |   1  26    0    0 d30f |    2.014       0       5       0       5     26     26      0   1101      31       1  26    0d30f a70f      8.250 "
test,1583575521519706880,24," | 24  |   1194       5   1190       0 |   5    0      1184         6 |   1  26    0    0 d30f |    1.983       0       5       0       5     26     26      0   1152      38       1  26    0d30f a70f     10.380 "
test,1583575521518177024,26," | 26  |   1194       5   1190       0 |   4    0      1185         5 |   2  26    0    1 d30f |    1.770       0       4       0       4     26     26      0   1162      28       2  26    1d30f a70f      8.670 "
test,1583575521537574912,27," | 27  |   1194       5   1192       0 |   5    0      1163        29 |   2  26    0    0 d30f |    2.716       0       4       0       4     26     26      0   1111      81       2  26    0d30f a70f     30.390 "
test,1583575521523482112,28," | 28  |   1194       5   1190       0 |   5    0      1094        96 |   1  35    0    0 e40f |    2.044       0       5       0       5     35     35      0   1062     128       1  35    0e40f a70f     13.140 "
test,1583575521538132992,29," | 29  |   1194       5   1188       4 |   5    0      1055       137 |   3  26    0    0 d30f |    2.746       0       3       0       3     26     26      0    998     194       2  26    0d30f a70f     30.360 "
test,1583575521516545024,30," | 30  |   1194       5   1190       0 |   5    0      1173        17 |   1  35    0    0 e40f |    2.014       0       5       0       5     35     35      0   1138      52       1  35    0e40f a70f      8.220 "
test,1583575521513869056,35," | 35  |   1194       5   1190       0 |   5    0      1139        51 |   2  35    0    1 e40f |    1.739       0       4       0       4     35     35      0   1115      75       2  35    1e40f a70f      6.510 "
test,1583575521527395840,40," | 40  |   1194       5   1154      32 |   4    0      1088        98 |   3  35    0    0 e40f |    6.469       0       5       0       5     35     35      0   1050     136       7  35    0e40f a70f     12.450 "
test,1583575521524360960,41," | 41  |   1194       5   1148      32 |   3    1      1164        16 |   3  35   26    0 e40f |    8.666       0       5       0       5     35     35      0   1130      50      10  35    0e40f a70f     14.640 "
test,1583575521522102016,42," | 42  |   1194       5   1155      35 |   4    0      1145        45 |   2  35    0    0 e40f |    5.706       0       5       0       5     35     35      0   1112      78       6  35    0e40f a70f     11.760 "
test,1583575521536680960,44," | 44  |   1194       5   1160      30 |   5    0      1155        35 |   1  26    0    0 d30f |    2.014       0       2       0       2     26     26      0   1120      70       1  26    0d30f a70f     30.330 "
test,1583575521537947904,45," | 45  |   1194       5   1166      24 |   4    0      1141        49 |   2  26    0    0 d30f |    2.746       0       3       0       3     26     26      0   1113      77       2  26    0d30f a70f     30.360 "
test,1583575521522285824,46," | 46  |   1194       5   1152      31 |   5    0      1122        61 |   3  35    0    0 e40f |    7.904       0       5       0       5     35     35      0   1098      85       9  35    0e40f a70f     14.040 "
test,1583575521522521856,47," | 47  |   1194       5   1158      32 |   3    0      1141        49 |   3  35    0    0 e40f |    7.202       0       5       0       5     35     35      0   1115      75       8  35    0e40f a70f     14.040 "
test,1583575521522808064,48," | 48  |   1194       5   1094      29 |   4    0      1086        37 |   2  35    0    0 e40f |    5.676       0       5       0       5     35     35      0   1052      71       6  35    0e40f a70f     12.570 "
test,1583575521517980160,49," | 49  |   1194       5   1184       0 |   5    0      1169        15 |   1  53    0    0 170f |    2.075       0       5       0       5     53     53      0   1157      27       1  53    0170f a70f      8.160 "
test,1583575521516783104,51," | 51  |   1194       5   1185       0 |   5    0      1178         7 |   2   9    0    0 2d0f |    2.777       0       5       0       5      9      9      0   1176       9       2   9    02d0f a70f      8.880 "
test,1583575521519394048,52," | 52  |   1194       3   1174      12 |   5    0      1126        60 |   1  26    0    0 d30f |    2.014       0       5       0       5     26     26      0   1104      82       1  26    0d30f a70f      9.660 "
test,1583575521513626112,53," | 53  |   1194       5   1168       0 |   5    0      1106        62 |   2  53    0    1 170f |    1.739       0       4       0       4     53     53      0   1094      74       2  53    1170f a70f      6.510 "
test,1583575521515484160,54," | 54  |   1194       5   1186       0 |   5    0      1168        18 |   1   9    0    0 2d0f |    2.044       0       5       0       5      9      9      0   1143      43       1   9    02d0f a70f      9.000 "
test,1583575521516210944,55," | 55  |   1194       5   1173       0 |   5    0      1128        45 |   1  53    0    0 170f |    2.044       0       5       0       5     53     53      0   1119      54       1  53    0170f a70f      8.280 "
test,1583575521518364928,56," | 56  |   1194       5   1176       0 |   5    0      1157        19 |   2   9    0    0 2d0f |    3.479       0       5       0       5      9      9      0   1149      27       3   9    02d0f a70f      9.690 "
test,1583575521537100032,57," | 57  |   1194       4   1131       0 |   5    0      1097        34 |   2  26    0    0 d30f |    2.014       0       2       0       2     26     26      0   1033      98       1  26    0d30f a70f     30.390 "
test,1583575521521629184,58," | 58  |   1194       5   1185       0 |   4    1      1168        17 |   4   9   26    0 2d0f |    4.943       0       5       0       5      9      9      0   1126      59       5   9    02d0f a70f     11.130 "
test,1583575521520205056,5," |  5  |   1194       5   1192       0 |   5    0      1087       105 |   2   9    0    0 2d0f |    2.807       0       5       0       5      9      9      0   1065     127       2   9    02d0f a70f      8.850 "
test,1583575521518551040,60," | 60  |   1194       5   1185       0 |   2    0      1108        77 |   3   9    0    0 2d0f |    3.540       0       5       0       5      9      9      0   1095      90       3   9    02d0f a70f      9.690 "
test,1583575521520804864,61," | 61  |   1194       5   1184       0 |   2    1      1132        52 |   3   9   26    0 2d0f |    5.706       0       5       0       5      9      9      0   1098      86       6   9    02d0f a70f     11.730 "
test,1583575521514072832,7," |  7  |   1194       5   1191       0 |   5    0      1171        20 |   1   9    0    0 2d0f |    2.075       0       5       0       5      9      9      0   1166      25       1   9    02d0f a70f      8.280 "
test,1583575521513197056,9," |  9  |   1194       5   1190       0 |   4    0      1145        45 |   4   9    0    1 2d0f |    1.739       0       4       0       4      9      9      0   1138      52       2   9    12d0f a70f      6.510 "
