test,1583575712023876864,10," | 10  |   1956       5   1928       0 |   5    0      1903        25 |   2   5    0    0  30f |    2.807       0       5       0       5      5      5      0   1874      54       2   5    0 30f a70f      8.880 "
test,1583575712020175872,12," | 12  |   1956       5   1954       0 |   5    0      1939        15 |   1   5    0    0  30f |    2.044       0       5       0       5      5      5      0   1910      44       1   5    0 30f a70f      8.190 "
test,1583575712018368000,13," | 13  |   1956       5   1952       0 |   5    0      1935        17 |   1   5    0    0  30f |    2.044       0       5       0       5      5      5      0   1913      39       1   5    0 30f a70f      8.220 "
test,1583575712021944064,15," | 15  |   1956       5   1954       0 |   5    0      1885        69 |   2   5    0    0  30f |    2.044       0       5       0       5      5      5      0   1809     145       1   5    0 30f a70f      9.000 "
test,1583575712024838912,16," | 16  |   1956       5   1952       0 |   5    0      1883        69 |   2  42    0    0  10f |    3.479       0       5       0       5     42     42      0   1835     117       3  42    0 10f a70f      9.690 "
test,1583575712022138112,17," | 17  |   1956       5   1951       1 |   5    0      1931        21 |   2  42    0    0  10f |    2.746       0       5       0       5     42     42      0   1871      81       2  42    0 10f a70f      8.970 "
test,1583575712021060096,18," | 18  |   1956       5   1951       0 |   5    0      1837       114 |   1  42    0    0  10f |    2.044       0       5       0       5     42     42      0   1749     202       1  42    0 10f a70f      8.280 "
test,1583575712026714112,19," | 19  |   1956       5   1950       2 |   5    0      1927        25 |   3  42    0    0  10f |    3.540       0       5       0       5     42     42      0   1868      84       3  42    0 10f a70f      9.660 "
test,1583575712022630912,1," |  1  |   1956       4   1953       0 |   5    0      1904        49 |   2   5    0    0  30f |    3.448       0       5       0       5      5      5      0   1888      65       2   5    0 30f a70f      9.660 "
test,1583575712021737984,22," | 22  |   1956       5   1950       0 |   5    0      1935        15 |   1  42    0    0  10f |    2.746       0       5       0       5     42     42      0   1840     110       2  42    0 10f a70f      8.940 "
test,1583575712024450048,23," | 23  |   1956       5   1894       0 |   5    0      1883        11 |   2  42    0    0  10f |    2.807       0       5       0       5     42     42      0   1847      47       2  42    0 10f a70f      8.880 "
test,1583575712017746944,24," | 24  |   1956       5   1952       0 |   5    0      1939        13 |   1  42    0    0  10f |    2.044       0       5       0       5     42     42      0   1894      58       1  42    0 10f a70f      8.310 "
test,1583575712018828032,26," | 26  |   1956       5   1952       0 |   5    0      1945         7 |   2  42    0    0  10f |    2.807       0       5       0       5     42     42      0   1909      43       2  42    0 10f a70f      8.970 "
test,1583575712040764928,27," | 27  |   1956       5   1954       0 |   5    0      1899        55 |   3  42    0    0  10f |    3.509       0       4       0       4     42     42      0   1808     146       3  42    0 10f a70f     30.360 "
test,1583575712041912064,28," | 28  |   1956       4   1952       0 |   5    4      1803       149 |   1  30   42    0 320f |    4.943       0       3       0       3     30     30      0   1744     208       5  30    0320f a70f     30.360 "
test,1583575712039443968,29," | 29  |   1956       4   1950       4 |   0    0      1734       220 |   0   0    0    0    0 |    0           0       0       0       8      0      0      0   1637     317       0   0    0   0 a70f     30.360 "
test,1583575712017980928,30," | 30  |   1956       5   1952       0 |   4    3      1924        28 |   5  30   42    1 320f |    1.739       0       4       0       4     30     30      0   1864      88       2  30    1320f a70f      6.480 "
test,1583575712018618112,35," | 35  |   1956       5   1952       0 |   5    4      1869        83 |   1  30   42    0 320f |    2.014       0       5       0       5     30     30      0   1831     121       1  30    0320f a70f      8.100 "
test,1583575712022994944,40," | 40  |   1956       5   1916      32 |   5    0      1804       144 |   2  42    0    0  10f |    2.044       0       5       0       5     42     42      0   1758     190       1  42    0 10f a70f      9.540 "
test,1583575712019979008,41," | 41  |   1956       5   1910      32 |   5    0      1924        18 |   1  42    0    0  10f |    2.075       0       5       0       5     42     42      0   1874      68       1  42    0 10f a70f      9.030 "
test,1583575712024683008,42," | 42  |   1956       5   1917      35 |   4    0      1903        49 |   4  42    0    1  10f |    1.739       0       4       0       4     42     42      0   1853      99       2  42    1 10f a70f      7.920 "
test,1583575712024285952,44," | 44  |   1956       5   1922      30 |   5    0      1902        50 |   1  42    0    0  10f |    2.014       0       5       0       5     42     42      0   1854      98       1  42    0 10f a70f      9.000 "
test,1583575712023138048,45," | 45  |   1956       5   1928      24 |   5    0      1886        66 |   1  42    0    0  10f |    2.075       0       5       0       5     42     42      0   1846     106       1  42    0 10f a70f      9.570 "
test,1583575712022425856,46," | 46  |   1956       5   1914      31 |   5    0      1855        90 |   1  42    0    0  10f |    2.044       0       5       0       5     42     42      0   1818     127       1  42    0 10f a70f      9.690 "
test,1583575712023515904,47," | 47  |   1956       5   1920      32 |   5    0      1886        66 |   1  42    0    0  10f |    1.983       0       5       0       5     42     42      0   1839     113       1  42    0 10f a70f      8.910 "
test,1583575712026508032,48," | 48  |   1956       5   1856      29 |   5    0      1833        52 |   1  42    0    0  10f |    2.044       0       5       0       5     42     42      0   1793      92       1  42    0 10f a70f      9.540 "
test,1583575712019319040,49," | 49  |   1956       5   1946       0 |   5    0      1913        33 |   1  53    0    0 3b0f |    2.044       0       5       0       5     53     53      0   1895      51       1  53    03b0f a70f      8.130 "
test,1583575712020704000,51," | 51  |   1956       5   1947       0 |   5    0      1934        13 |   2   5    0    0  30f |    3.448       0       5       0       5      5      5      0   1929      18       3   5    0 30f a70f      9.630 "
test,1583575712023670784,52," | 52  |   1956       5   1931      17 |   5    0      1848       100 |   2  42    0    0  10f |    2.746       0       5       0       5     42     42      0   1810     138       2  42    0 10f a70f      9.660 "
test,1583575712019553792,53," | 53  |   1956       5   1930       0 |   5    0      1834        96 |   2  53    0    1 3b0f |    1.770       0       4       0       4     53     53      0   1812     118       2  53    13b0f a70f      6.510 "
test,1583575712021401856,54," | 54  |   1956       5   1948       0 |   5    0      1921        27 |   2   5    0    0  30f |    2.716       0       5       0       5      5      5      0   1884      64       2   5    0 30f a70f     10.320 "
test,1583575712019054848,55," | 55  |   1956       5   1935       0 |   5    0      1870        65 |   1  53    0    0 3b0f |    2.075       0       5       0       5     53     53      0   1854      81       1  53    03b0f a70f      8.280 "
test,1583575712020926976,56," | 56  |   1956       5   1938       0 |   5    0      1909        29 |   3   5    0    0  30f |    2.746       0       5       0       5      5      5      0   1894      44       2   5    0 30f a70f      8.940 "
test,1583575712038619136,57," | 57  |   1956       5   1893       0 |   2    2      1848        45 |   2  42    5    0  10f |    0           0       0       0       8      0      0      0   1736     157       0  42    0 10f a70f     30.390 "
test,1583575712026130944,58," | 58  |   1956       5   1947       0 |   1    0      1922        25 |  13   5    0    0  30f |    3.509       0       5       0       5      5      5      0   1846     101       3   5    0 30f a70f     11.160 "
test,1583575712018201088,5," |  5  |   1956       5   1954       0 |   4    0      1786       168 |   4   5    0    1  30f |    1.739       0       4       0       4      5      5      0   1754     200       2   5    1 30f a70f      6.480 "
test,1583575712040036864,60," | 60  |   1956       5   1947       0 |   2    5      1820       127 |   3  42    5    0  10f |    0           0       0       0       8      0      0      0   1790     157       0  42    0 10f a70f     30.360 "
test,1583575712038275072,61," | 61  |   1956       5   1946       0 |   1    7      1862        84 |   3  42    5    0  10f |    0           0       0       0       8      0      0      0   1812     134       0  42    0 10f a70f     30.390 "
test,1583575712025913856,7," |  7  |   1956       5   1953       0 |   5    0      1923        30 |   2   5    0    0  30f |    2.746       0       5       0       5      5      5      0   1914      39       2   5    0 30f a70f      9.660 "
test,1583575712020400896,9," |  9  |   1956       5   1952       0 |   5    0      1882        70 |   2   5    0    0  30f |    2.746       0       5       0       5      5      5      0   1871      81       2   5    0 30f a70f      8.910 "
