test,1583575666270339840,10," | 10  |   1773       5   1745       0 |   2    5      1723        22 |   1   7   57    0 520f |    2.044       0       5       0       5      7      7      0   1697      48       1   7    0520f a70f      9.000 "
test,1583575666266787072,12," | 12  |   1773       5   1771       0 |   5    0      1758        13 |   1   7    0    0 520f |    2.044       0       5       0       5      7      7      0   1732      39       1   7    0520f a70f      8.190 "
test,1583575666268111104,13," | 13  |   1773       5   1769       0 |   5    0      1752        17 |   1   7    0    0 520f |    2.044       0       5       0       5      7      7      0   1732      37       1   7    0520f a70f      8.280 "
test,1583575666288180992,15," | 15  |   1773       5   1771       0 |   1    3      1705        66 |   2  24    7    0 350f |    0           0       0       0       8      0      0      0   1639     132       0  24    0350f a70f     30.360 "
test,1583575666289947136,16," | 16  |   1773       5   1769       0 |   3    0      1703        66 |   4  41    0    0 270f |    2.014       0       1       0       1     41     41      0   1656     113       1  41    0270f a70f     30.360 "
test,1583575666272344064,17," | 17  |   1773       5   1768       1 |   5    0      1750        19 |   1  24    0    0 350f |    2.044       0       5       0       5     24     24      0   1691      78       1  24    0350f a70f      8.820 "
test,1583575666273562880,18," | 18  |   1773       5   1768       0 |   5    0      1664       104 |   1  24    0    0 350f |    2.746       0       5       0       5     24     24      0   1578     190       2  24    0350f a70f     11.130 "
test,1583575666272787968,19," | 19  |   1773       5   1767       2 |   5    0      1748        21 |   1  24    0    0 350f |    2.807       0       5       0       5     24     24      0   1692      77       2  24    0350f a70f     10.350 "
test,1583575666268358912,1," |  1  |   1773       4   1770       0 |   5    0      1727        43 |   1   7    0    0 520f |    2.746       0       5       0       5      7      7      0   1713      57       1   7    0520f a70f      8.970 "
test,1583575666272525056,22," | 22  |   1773       5   1767       0 |   5    0      1755        12 |   1  24    0    0 350f |    2.044       0       5       0       5     24     24      0   1661     106       1  24    0350f a70f     10.410 "
test,1583575666274035968,23," | 23  |   1773       5   1711       0 |   5    0      1701        10 |   1  24    0    0 350f |    3.540       0       5       0       5     24     24      0   1666      45       3  24    0350f a70f      9.600 "
test,1583575666268996096,24," | 24  |   1773       5   1769       0 |   4    0      1758        11 |   4  24    0    1 350f |    1.739       0       4       0       4     24     24      0   1713      56       2  24    1350f a70f      6.510 "
test,1583575666267714048,26," | 26  |   1773       5   1769       0 |   5    0      1762         7 |   1  24    0    0 350f |    2.044       0       5       0       5     24     24      0   1726      43       1  24    0350f a70f      8.310 "
test,1583575666274849024,27," | 27  |   1773       5   1771       0 |   4    0      1722        49 |   2  24    0    0 350f |    2.807       0       5       0       5     24     24      0   1635     136       2  24    0350f a70f      8.910 "
test,1583575666290721792,28," | 28  |   1773       5   1769       0 |   5    3      1633       136 |   1  24   30    0 350f |    2.777       0       3       0       3     24     24      0   1581     188       2  24    0350f a70f     30.360 "
test,1583575666278310144,29," | 29  |   1773       5   1767       4 |   5    0      1563       208 |   2  24    0    0 350f |    3.509       0       5       0       5     24     24      0   1473     298       3  24    0350f a70f     11.100 "
test,1583575666269169920,30," | 30  |   1773       5   1769       0 |   5    0      1742        27 |   2  30    0    1  80f |    1.739       0       4       0       4     30     30      0   1689      80       2  30    1 80f a70f      6.480 "
test,1583575666267905024,35," | 35  |   1773       5   1769       0 |   5    0      1692        77 |   1  30    0    0  80f |    2.075       0       5       0       5     30     30      0   1658     111       1  30    0 80f a70f      8.310 "
test,1583575666291332864,40," | 40  |   1773       5   1733      32 |   5    0      1631       134 |   2  41    0    0 270f |    2.746       0       4       0       4     41     41      0   1585     180       2  41    0270f a70f     30.330 "
test,1583575666271169792,41," | 41  |   1773       5   1727      32 |   5    0      1741        18 |   4  41    0    1 270f |    1.770       0       4       0       4     41     41      0   1692      67       2  41    1270f a70f      8.670 "
test,1583575666270040064,42," | 42  |   1773       5   1734      35 |   5    0      1721        48 |   4  41    0    0 270f |    2.044       0       5       0       5     41     41      0   1673      96       1  41    0270f a70f      8.850 "
test,1583575666269880064,44," | 44  |   1773       5   1739      30 |   5    0      1722        47 |   4  41    0    0 270f |    2.014       0       5       0       5     41     41      0   1676      93       1  41    0270f a70f      8.970 "
test,1583575666272134912,45," | 45  |   1773       5   1745      24 |   5    0      1706        63 |   1  41    0    0 270f |    2.014       0       5       0       5     41     41      0   1667     102       1  41    0270f a70f      8.220 "
test,1583575666273186816,46," | 46  |   1773       5   1731      31 |   5    0      1679        83 |   1  41    0    0 270f |    2.014       0       5       0       5     41     41      0   1646     116       1  41    0270f a70f      9.600 "
test,1583575666274318848,47," | 47  |   1773       5   1737      32 |   5    0      1708        61 |   1  41    0    0 270f |    1.953       0       5       0       5     41     41      0   1665     104       1  41    0270f a70f      8.190 "
test,1583575666273356800,48," | 48  |   1773       5   1673      29 |   5    0      1651        51 |   1  41    0    0 270f |    2.014       0       5       0       5     41     41      0   1613      89       1  41    0270f a70f      8.790 "
test,1583575666285468160,49," | 49  |   1773       5   1763       0 |   5    0      1733        30 |   2  57    0    0 9d0f |    2.777       0       5       0       5     57     57      0   1718      45       2  57    09d0f a70f     25.020 "
test,1583575666269645056,51," | 51  |   1773       5   1764       0 |   5    0      1752        12 |   2  57    0    0 9d0f |    2.746       0       5       0       5     57     57      0   1747      17       2  57    09d0f a70f      8.880 "
test,1583575666275293952,52," | 52  |   1773       5   1749      16 |   3    1      1672        93 |   1  24   41    0 350f |    2.807       0       5       0       5     24     24      0   1636     129       2  24    0350f a70f      8.820 "
test,1583575666285871872,53," | 53  |   1773       5   1747       0 |   5    0      1660        87 |   3  57    0    0 9d0f |    2.716       0       5       0       5     57     57      0   1641     106       2  57    09d0f a70f     25.590 "
test,1583575666270187008,54," | 54  |   1773       5   1765       0 |   5    0      1741        24 |   3   7    0    0 520f |    2.044       0       5       0       5      7      7      0   1708      57       1   7    0520f a70f      8.160 "
test,1583575666285159168,55," | 55  |   1773       5   1752       0 |   5    0      1692        60 |   2  57    0    0 9d0f |    2.746       0       5       0       5     57     57      0   1680      72       2  57    09d0f a70f     24.870 "
test,1583575666268834048,56," | 56  |   1773       5   1755       0 |   5    0      1727        28 |   1  57    0    0 9d0f |    1.983       0       5       0       5     57     57      0   1713      42       1  57    09d0f a70f      8.250 "
test,1583575666291766784,57," | 57  |   1773       5   1710       0 |   5    1      1668        42 |   6  57   24    1 9d0f |   21.636       0       2       0       2     57     57      0   1565     145       8  57    19d0f a70f     30.240 "
test,1583575666286123008,58," | 58  |   1773       5   1764       0 |   5    0      1742        22 |   1  57    0    0 9d0f |    2.044       0       5       0       5     57     57      0   1671      93       1  57    09d0f a70f     27.060 "
test,1583575666277762048,5," |  5  |   1773       5   1771       0 |   5    0      1616       155 |   2   7    0    0 520f |    2.807       0       5       0       5      7      7      0   1587     184       2   7    0520f a70f      8.910 "
test,1583575666270551040,60," | 60  |   1773       5   1764       0 |   5    0      1649       115 |   1  57    0    0 9d0f |    2.044       0       5       0       5     57     57      0   1626     138       1  57    09d0f a70f      8.280 "
test,1583575666286969856,61," | 61  |   1773       5   1763       0 |   5    0      1689        74 |   1  57    0    0 9d0f |    1.983       0       5       0       5     57     57      0   1642     121       1  57    09d0f a70f     26.370 "
test,1583575666266364160,7," |  7  |   1773       5   1770       0 |   5    0      1743        27 |   2   7    0    1 520f |    1.739       0       4       0       4      7      7      0   1734      36       2   7    1520f a70f      6.480 "
test,1583575666267162112,9," |  9  |   1773       5   1769       0 |   5    0      1707        62 |   1   7    0    0 520f |    2.044       0       5       0       5      7      7      0   1697      72       1   7    0520f a70f      8.190 "
