test,1583575708268847872,10," | 10  |   1941       5   1913       0 |   5    8      1888        25 |   1  51   49    0 a90f |    2.014       0       5       0       5     51     51      0   1861      52       1  51    0a90f a70f      8.250 "
test,1583575708287465216,12," | 12  |   1941       5   1939       0 |   2    9      1924        15 |   5  12   51    1 4c0f |    1.739       0       1       0       1     12     12      0   1896      43       2  12    14c0f a70f     30.300 "
test,1583575708269391104,13," | 13  |   1941       5   1937       0 |   5    7      1920        17 |   1  51    5    0 a90f |    2.777       0       5       0       5     51     51      0   1898      39       2  51    0a90f a70f      9.000 "
test,1583575708292215040,15," | 15  |   1941       5   1939       0 |   4    4      1870        69 |   1  12   51    0 4c0f |    1.983       0       2       0       2     12     12      0   1796     143       1  12    04c0f a70f     30.330 "
test,1583575708273103104,16," | 16  |   1941       5   1937       0 |   5    0      1868        69 |   2  17    0    0 bd0f |    3.509       0       5       0       5     17     17      0   1820     117       3  17    0bd0f a70f      9.540 "
test,1583575708271075072,17," | 17  |   1941       5   1936       1 |   4    0      1916        21 |   4  17    0    1 bd0f |    1.739       0       4       0       4     17     17      0   1856      81       2  17    1bd0f a70f      8.640 "
test,1583575708271930880,18," | 18  |   1941       5   1936       0 |   5    0      1822       114 |   3  17    0    0 bd0f |    2.777       0       5       0       5     17     17      0   1735     201       2  17    0bd0f a70f      8.970 "
test,1583575708272376064,19," | 19  |   1941       5   1935       2 |   5    0      1912        25 |   1  17    0    0 bd0f |    2.044       0       5       0       5     17     17      0   1853      84       1  17    0bd0f a70f     10.470 "
test,1583575708270407936,1," |  1  |   1941       4   1938       0 |   5    6      1891        47 |   1  51   12    0 a90f |    4.180       0       5       0       5     51     51      0   1875      63       3  51    0a90f a70f     10.380 "
test,1583575708274575872,22," | 22  |   1941       5   1935       0 |   5    0      1920        15 |   2  17    0    0 bd0f |    2.777       0       5       0       5     17     17      0   1827     108       2  17    0bd0f a70f      8.940 "
test,1583575708274787072,23," | 23  |   1941       5   1879       0 |   5    0      1868        11 |   1  17    0    0 bd0f |    2.746       0       5       0       5     17     17      0   1832      47       2  17    0bd0f a70f      8.820 "
test,1583575708269718016,24," | 24  |   1941       5   1937       0 |   5    0      1924        13 |   2  17    0    0 bd0f |    2.777       0       5       0       5     17     17      0   1879      58       2  17    0bd0f a70f      8.940 "
test,1583575708270100224,26," | 26  |   1941       5   1937       0 |   5    0      1930         7 |   1  17    0    0 bd0f |    2.014       0       5       0       5     17     17      0   1894      43       1  17    0bd0f a70f      8.280 "
test,1583575708274054912,27," | 27  |   1941       5   1939       0 |   4    0      1884        55 |   1  17    0    0 bd0f |    2.075       0       5       0       5     17     17      0   1793     146       1  17    0bd0f a70f      8.190 "
test,1583575708273824000,28," | 28  |   1941       5   1937       0 |   5    0      1789       148 |   1  17    0    0 bd0f |    2.044       0       5       0       5     17     17      0   1730     207       1  17    0bd0f a70f      9.570 "
test,1583575708291469056,29," | 29  |   1941       5   1935       4 |   5    0      1720       219 |   2  17    0    0 bd0f |    2.746       0       3       0       3     17     17      0   1623     316       2  17    0bd0f a70f     30.360 "
test,1583575708272160000,30," | 30  |   1941       5   1937       0 |   5    0      1909        28 |   2  17    0    0 bd0f |    2.807       0       5       0       5     17     17      0   1850      87       2  17    0bd0f a70f      8.970 "
test,1583575708273305856,35," | 35  |   1941       5   1937       0 |   5    0      1854        83 |   3  17    0    0 bd0f |    3.540       0       5       0       5     17     17      0   1817     120       3  17    0bd0f a70f      9.600 "
test,1583575708291815936,40," | 40  |   1941       4   1901      32 |   4    1      1789       144 |   2  42   17    0 530f |    2.014       0       2       0       2     42     42      0   1744     189       1  42    0530f a70f     30.390 "
test,1583575708291294208,41," | 41  |   1941       5   1895      32 |   5    0      1909        18 |   2  42    0    0 530f |    2.044       0       2       0       2     42     42      0   1859      68       1  42    0530f a70f     30.390 "
test,1583575708293231104,42," | 42  |   1941       5   1902      35 |   4    0      1888        49 |   4  42    0    1 530f |    1.770       0       1       0       1     42     42      0   1838      99       2  42    1530f a70f     30.300 "
test,1583575708293065984,44," | 44  |   1941       5   1907      30 |   2    0      1887        50 |   1  42    0    0 530f |    1.983       0       2       0       2     42     42      0   1840      97       1  42    0530f a70f     30.390 "
test,1583575708292869120,45," | 45  |   1941       5   1913      24 |   5    0      1871        66 |   1  42    0    0 530f |    2.014       0       2       0       2     42     42      0   1832     105       1  42    0530f a70f     30.360 "
test,1583575708291085056,46," | 46  |   1941       5   1899      31 |   5    0      1840        90 |   1  42    0    0 530f |    2.044       0       2       0       2     42     42      0   1804     126       1  42    0530f a70f     30.300 "
test,1583575708292645888,47," | 47  |   1941       5   1905      32 |   5    0      1871        66 |   1  42    0    0 530f |    1.983       0       2       0       2     42     42      0   1824     113       1  42    0530f a70f     30.360 "
test,1583575708290813952,48," | 48  |   1941       5   1841      29 |   5    0      1818        52 |   1  42    0    0 530f |    2.014       0       2       0       2     42     42      0   1779      91       1  42    0530f a70f     30.360 "
test,1583575708270792960,49," | 49  |   1941       5   1931       0 |   4    0      1898        33 |   2  49    0    1 ae0f |    1.739       0       4       0       4     49     49      0   1880      51       2  49    1ae0f a70f      6.480 "
test,1583575708271322112,51," | 51  |   1941       5   1932       0 |   4    1      1919        13 |   5  51   57    1 a90f |    1.739       0       4       0       4     51     51      0   1914      18       2  51    1a90f a70f      6.510 "
test,1583575708276901888,52," | 52  |   1941       5   1916      17 |   1    0      1833       100 |   2  17    0    0 bd0f |    2.746       0       5       0       5     17     17      0   1795     138       2  17    0bd0f a70f      8.940 "
test,1583575708271557120,53," | 53  |   1941       5   1915       0 |   5    0      1819        96 |   1  49    0    0 ae0f |    1.953       0       5       0       5     49     49      0   1797     118       1  49    0ae0f a70f      8.220 "
test,1583575708288791040,54," | 54  |   1941       5   1933       0 |   3   10      1906        27 |   4  12   51    0 4c0f |    2.014       0       1       0       1     12     12      0   1870      63       1  12    04c0f a70f     30.390 "
test,1583575708268140032,55," | 55  |   1941       5   1920       0 |   5    0      1855        65 |   1  49    0    0 ae0f |    2.014       0       5       0       5     49     49      0   1839      81       1  49    0ae0f a70f      8.250 "
test,1583575708270582016,56," | 56  |   1941       5   1923       0 |   5    5      1894        29 |   1  51   49    0 a90f |    2.075       0       5       0       5     51     51      0   1879      44       1  51    0a90f a70f      8.220 "
test,1583575708293852160,57," | 57  |   1941       5   1878       0 |   0   13      1834        44 |   0  57   51    1 490f |   10.284       0       3       0       3     57     57      0   1724     154      14  57    1490f a70f     30.150 "
test,1583575708269180160,58," | 58  |   1941       5   1932       0 |   5    0      1908        24 |   1  49    0    0 ae0f |    2.014       0       5       0       5     49     49      0   1832     100       1  49    0ae0f a70f      8.250 "
test,1583575708287802880,5," |  5  |   1941       5   1939       0 |   0    9      1772       167 |   0   5   51    1 dd0f |    0           0       0       0       8      0      0      0   1741     198       0   5    1dd0f a70f     30.210 "
test,1583575708274219008,60," | 60  |   1941       5   1932       0 |   5    3      1807       125 |   1  51   12    0 a90f |    2.044       0       5       0       5     51     51      0   1778     154       1  51    0a90f a70f      8.130 "
test,1583575708273648896,61," | 61  |   1941       5   1931       0 |   2    6      1847        84 |   1  57   51    0 490f |    2.014       0       5       0       5     57     57      0   1799     132       1  57    0490f a70f     13.590 "
test,1583575708272780800,7," |  7  |   1941       5   1938       0 |   5    6      1909        29 |   1  51   12    0 a90f |    4.241       0       5       0       5     51     51      0   1900      38       4  51    0a90f a70f     10.350 "
test,1583575708286802944,9," |  9  |   1941       5   1937       0 |   3    8      1867        70 |   4  12   51    0 4c0f |    1.983       0       1       0       1     12     12      0   1856      81       1  12    04c0f a70f     30.390 "
