test,1583575580266565120,10," | 10  |   1429       5   1401       0 |   5    0      1381        20 |   1  54    0    0 490f |    2.014       0       5       0       5     54     54      0   1364      37       1  54    0490f a70f      8.130 "
test,1583575580265006080,12," | 12  |   1429       5   1427       0 |   5    0      1418         9 |   2  12    0    1 d80f |    1.739       0       4       0       4     12     12      0   1393      34       2  12    1d80f a70f      6.510 "
test,1583575580267191040,13," | 13  |   1429       5   1425       0 |   5    1      1410        15 |   1  54   12    0 490f |    1.983       0       5       0       5     54     54      0   1393      32       1  54    0490f a70f      8.220 "
test,1583575580268518912,15," | 15  |   1429       5   1427       0 |   5    0      1371        56 |   1  12    0    0 d80f |    2.014       0       5       0       5     12     12      0   1316     111       1  12    0d80f a70f      8.250 "
test,1583575580266091008,16," | 16  |   1429       5   1425       0 |   4    0      1376        49 |   2  16    0    1 330f |    1.739       0       4       0       4     16     16      0   1335      90       2  16    1330f a70f      6.480 "
test,1583575580288161024,17," | 17  |   1429       5   1424       1 |   5    0      1408        17 |   1  16    0    0 330f |    3.540       0       4       0       4     16     16      0   1357      68       3  16    0330f a70f     30.390 "
test,1583575580285746176,18," | 18  |   1429       5   1424       0 |   0   13      1336        88 |   0  18   29    1 d90f |    0           0       0       0       8      0      0      0   1259     165       0  18    1d90f a70f     30.180 "
test,1583575580287631104,19," | 19  |   1429       5   1423       2 |   5    5      1409        16 |   1  29   16    0 c60f |    2.014       0       2       0       2     29     29      0   1362      63       1  29    0c60f a70f     30.240 "
test,1583575580273433088,1," |  1  |   1429       4   1426       0 |   5    5      1393        33 |   1  54   12    0 490f |    2.685       0       5       0       5     54     54      0   1383      43       1  54    0490f a70f     14.670 "
test,1583575580286932992,22," | 22  |   1429       5   1423       0 |   5    0      1411        12 |   2  16    0    0 330f |    3.479       0       4       0       4     16     16      0   1332      91       3  16    0330f a70f     30.360 "
test,1583575580265309184,23," | 23  |   1429       5   1367       0 |   5    0      1358         9 |   1  16    0    0 330f |    2.075       0       5       0       5     16     16      0   1329      38       1  16    0330f a70f      8.220 "
test,1583575580267884032,24," | 24  |   1429       5   1425       0 |   5    0      1417         8 |   2  16    0    0 330f |    2.777       0       5       0       5     16     16      0   1380      45       2  16    0330f a70f      9.000 "
test,1583575580266355968,26," | 26  |   1429       5   1425       0 |   5    0      1420         5 |   1  16    0    0 330f |    2.105       0       5       0       5     16     16      0   1390      35       1  16    0330f a70f      8.340 "
test,1583575580270157056,27," | 27  |   1429       5   1427       0 |   5    5      1391        36 |   1  29   16    0 c60f |    1.983       0       5       0       5     29     29      0   1320     107       1  29    0c60f a70f     10.890 "
test,1583575580287475968,28," | 28  |   1429       5   1425       0 |   0    7      1312       113 |   0  28   29    1 6c0f |    0           0       0       0       8      0      0      0   1269     156       0  28    16c0f a70f     30.180 "
test,1583575580290313984,29," | 29  |   1429       3   1423       4 |   4    0      1264       163 |   5  29    0    1 c60f |    5.981       0       3       0       3     29     29      0   1191     236       8  29    1c60f a70f     30.180 "
test,1583575580271300096,30," | 30  |   1429       5   1425       0 |   5    0      1403        22 |   3  12    0    0 d80f |    4.943       0       5       0       5     12     12      0   1358      67       5  12    0d80f a70f     11.100 "
test,1583575580269356032,35," | 35  |   1429       5   1425       0 |   5    0      1358        67 |   4  12    0    0 d80f |    5.615       0       5       0       5     12     12      0   1330      95       6  12    0d80f a70f     11.790 "
test,1583575580288534016,40," | 40  |   1429       5   1389      32 |   0    7      1310       111 |   0  40   42    1 b30f |    0           0       0       0       8      0      0      0   1266     155       0  40    1b30f a70f     30.180 "
test,1583575580275564800,41," | 41  |   1429       5   1383      32 |   5    0      1399        16 |   2  42    0    0 900f |    2.075       0       5       0       5     42     42      0   1355      60       1  42    0900f a70f      8.880 "
test,1583575580269916160,42," | 42  |   1429       5   1390      35 |   4    0      1379        46 |   3  42    0    1 900f |    3.814       0       4       0       4     42     42      0   1338      87       5  42    1900f a70f      8.520 "
test,1583575580277417984,44," | 44  |   1429       5   1395      30 |   5    0      1385        40 |   3  42    0    0 900f |    2.105       0       5       0       5     42     42      0   1343      82       1  42    0900f a70f      8.910 "
test,1583575580269583104,45," | 45  |   1429       5   1401      24 |   5    0      1369        56 |   3  42    0    0 900f |    2.075       0       5       0       5     42     42      0   1335      90       1  42    0900f a70f      8.880 "
test,1583575580278176000,46," | 46  |   1429       5   1387      31 |   5    0      1347        71 |   3  42    0    0 900f |    2.075       0       5       0       5     42     42      0   1317     101       1  42    0900f a70f      8.850 "
test,1583575580270419968,47," | 47  |   1429       5   1393      32 |   5    0      1369        56 |   1  42    0    0 900f |    2.044       0       5       0       5     42     42      0   1332      93       1  42    0900f a70f      8.790 "
test,1583575580268718080,48," | 48  |   1429       5   1329      29 |   5    0      1314        44 |   2  42    0    0 900f |    2.105       0       5       0       5     42     42      0   1276      82       1  42    0900f a70f      8.850 "
test,1583575580264683008,49," | 49  |   1429       5   1419       0 |   5    0      1399        20 |   2  54    0    0 490f |    2.716       0       5       0       5     54     54      0   1385      34       2  54    0490f a70f      8.940 "
test,1583575580270853120,51," | 51  |   1429       5   1420       0 |   5    0      1412         8 |   2  54    0    0 490f |    2.746       0       5       0       5     54     54      0   1411       9       2  54    0490f a70f      8.940 "
test,1583575580287250944,52," | 52  |   1429       5   1409      12 |   4    3      1347        74 |   1  16   29    0 330f |    2.075       0       4       0       4     16     16      0   1319     102       1  16    0330f a70f     30.360 "
test,1583575580266830848,53," | 53  |   1429       5   1403       0 |   5    0      1328        75 |   3  54    0    0 490f |    3.448       0       5       0       5     54     54      0   1312      91       3  54    0490f a70f      9.660 "
test,1583575580274146048,54," | 54  |   1429       5   1421       0 |   5    0      1401        20 |   4  54    0    1 490f |    7.598       0       4       0       4     54     54      0   1371      50      10  54    1490f a70f     12.240 "
test,1583575580265455872,55," | 55  |   1429       5   1408       0 |   5    0      1361        47 |   2  54    0    0 490f |    2.746       0       5       0       5     54     54      0   1350      58       2  54    0490f a70f      8.940 "
test,1583575580272870912,56," | 56  |   1429       5   1411       0 |   5    0      1387        24 |   2  54    0    0 490f |    2.716       0       5       0       5     54     54      0   1379      32       2  54    0490f a70f      8.910 "
test,1583575580273255168,57," | 57  |   1429       5   1366       0 |   1    0      1329        37 |   2  54    0    0 490f |    3.448       0       5       0       5     54     54      0   1252     114       3  54    0490f a70f      9.630 "
test,1583575580261800960,58," | 58  |   1429       4   1420       0 |   5    0      1401        19 |   1  54    0    0 490f |    2.014       0       5       0       5     54     54      0   1347      73       1  54    0490f a70f      8.220 "
test,1583575580268088064,5," |  5  |   1429       5   1427       0 |   5    0      1304       123 |   1  12    0    0 d80f |    1.983       0       5       0       5     12     12      0   1279     148       1  12    0d80f a70f      8.040 "
test,1583575580269010176,60," | 60  |   1429       5   1420       0 |   5    0      1332        88 |   3  54    0    0 490f |    3.448       0       5       0       5     54     54      0   1318     102       3  54    0490f a70f      9.660 "
test,1583575580270670848,61," | 61  |   1429       5   1419       0 |   5    0      1360        59 |   2  54    0    0 490f |    1.983       0       5       0       5     54     54      0   1316     103       1  54    0490f a70f      8.190 "
test,1583575580271023104,7," |  7  |   1429       5   1426       0 |   5    0      1404        22 |   1  12    0    0 d80f |    1.983       0       5       0       5     12     12      0   1397      29       1  12    0d80f a70f      8.130 "
test,1583575580272579072,9," |  9  |   1429       5   1425       0 |   5    2      1371        54 |   1  54   12    0 490f |    2.044       0       5       0       5     54     54      0   1361      64       1  54    0490f a70f     13.950 "
