test,1583575269029445888,10," | 10  |    184       5    156       0 |   5    0       154         2 |   2  57    0    0 310f |    2.746       0       4       0       4     57     57      0    152       4       2  57    0310f a70f     30.270 "
test,1583575269006774016,12," | 12  |    184       5    182       0 |   2    9       181         1 |   5  12   13    1  80f |    1.739       0       4       0       4     12     12      0    177       5       2  12    1 80f a70f      6.480 "
test,1583575269031731968,13," | 13  |    184       5    180       0 |   0    9       178         2 |   0  13   57    1 500f |    0           0       0       0       8      0      0      0    174       6       0  13    1500f a70f     30.150 "
test,1583575269010555904,15," | 15  |    184       5    182       0 |   4    1       173         9 |   4  12   13    0  80f |    2.014       0       5       0       5     12     12      0    169      13       1  12    0 80f a70f      8.220 "
test,1583575269015117056,16," | 16  |    184       5    180       0 |   5    0       173         7 |   2  57    0    0 310f |    2.746       0       5       0       5     57     57      0    170      10       2  57    0310f a70f     13.650 "
test,1583575269007621120,17," | 17  |    184       5    180       0 |   4    0       178         2 |   2  17    0    1 450f |    1.739       0       4       0       4     17     17      0    171       9       2  17    1450f a70f      7.200 "
test,1583575269031997952,18," | 18  |    184       5    179       0 |   0    4       165        14 |   0  18   17    1 380f |    0           0       0       0       8      0      0      0    157      22       0  18    1380f a70f     30.210 "
test,1583575269011610880,19," | 19  |    184       5    179       1 |   5    0       177         3 |   1  17    0    0 450f |    2.746       0       5       0       5     17     17      0    170      10       2  17    0450f a70f     10.290 "
test,1583575269009722880,1," |  1  |    184       4    181       0 |   1   13       176         5 |   1  12   13    0  80f |    4.882       0       5       0       5     12     12      0    175       6       4  12    0 80f a70f     11.070 "
test,1583575269039555072,22," | 22  |    184       5    178       0 |   5    0       178         0 |   2  17    0    0 450f |    2.746       0       4       0       4     17     17      0    170       8       2  17    0450f a70f     30.270 "
test,1583575269013380096,23," | 23  |    184       5    122       0 |   5    0       121         1 |   1  57    0    0 310f |    2.014       0       5       0       5     57     57      0    121       1       1  57    0310f a70f     13.050 "
test,1583575269008928000,24," | 24  |    184       5    180       0 |   5    0       178         2 |   2  17    0    0 450f |    2.746       0       5       0       5     17     17      0    174       6       2  17    0450f a70f      8.940 "
test,1583575269010728960,26," | 26  |    184       5    180       0 |   5    0       180         0 |   1  17    0    0 450f |    2.014       0       5       0       5     17     17      0    174       6       1  17    0450f a70f      9.660 "
test,1583575269017769216,27," | 27  |    184       5    182       0 |   1    1       177         5 |   1  17   57    0 450f |    3.509       0       5       0       5     17     17      0    169      13       3  17    0450f a70f     10.230 "
test,1583575269012626944,28," | 28  |    184       5    180       0 |   5    0       169        11 |   1  17    0    0 450f |    3.509       0       5       0       5     17     17      0    164      16       3  17    0450f a70f     11.070 "
test,1583575269014904064,29," | 29  |    184       4    182       0 |   3    0       160        22 |   2  17    0    0 450f |    3.479       0       5       0       5     17     17      0    151      31       3  17    0450f a70f     11.130 "
test,1583575269011378944,30," | 30  |    184       5    180       0 |   5    0       179         1 |   8  17    0    0 450f |    4.211       0       5       0       5     17     17      0    174       6       4  17    0450f a70f     10.380 "
test,1583575269009905152,35," | 35  |    184       5    180       0 |   5    0       173         7 |   8  17    0    0 450f |    3.509       0       5       0       5     17     17      0    171       9       3  17    0450f a70f      9.630 "
test,1583575269038553856,40," | 40  |    184       5    172       4 |   5    0       155        21 |   4  17    0    0 450f |    4.913       0       4       0       4     17     17      0    150      26       5  17    0450f a70f     30.390 "
test,1583575269014630144,41," | 41  |    184       5    164       6 |   5    0       168         2 |   1  17    0    0 450f |    3.479       0       5       0       5     17     17      0    164       6       3  17    0450f a70f     10.410 "
test,1583575269014349824,42," | 42  |    184       5    175       5 |   5    0       174         6 |   3  17    0    0 450f |    3.479       0       5       0       5     17     17      0    169      11       3  17    0450f a70f     11.640 "
test,1583575269010953984,44," | 44  |    184       5    175       5 |   5    0       178         2 |   3  17    0    0 450f |    2.777       0       5       0       5     17     17      0    173       7       2  17    0450f a70f      9.540 "
test,1583575269018713856,45," | 45  |    184       5    176       4 |   5    0       164        16 |   2  17    0    0 450f |    3.479       0       5       0       5     17     17      0    161      19       3  17    0450f a70f     10.380 "
test,1583575269012429056,46," | 46  |    184       5    167       6 |   5    0       168         5 |   2  17    0    0 450f |    3.509       0       5       0       5     17     17      0    164       9       3  17    0450f a70f     11.010 "
test,1583575269012183040,47," | 47  |    184       5    175       5 |   5    0       175         5 |   4  17    0    0 450f |    3.448       0       5       0       5     17     17      0    172       8       3  17    0450f a70f     10.380 "
test,1583575269012768000,48," | 48  |    184       5    110       3 |   5    0       108         5 |   3  17    0    0 450f |    3.448       0       5       0       5     17     17      0    104       9       3  17    0450f a70f     10.350 "
test,1583575269008537088,49," | 49  |    184       5    174       0 |   5    4       170         4 |   1  53   57    0 c90f |    2.044       0       5       0       5     53     53      0    170       4       1  53    0c90f a70f      8.160 "
test,1583575269014196992,51," | 51  |    184       5    175       0 |   5    0       174         1 |   2  57    0    0 310f |    2.777       0       5       0       5     57     57      0    174       1       2  57    0310f a70f     10.800 "
test,1583575269031092992,52," | 52  |    184       5    175       1 |   2    2       167         9 |   2  17   57    0 450f |    5.645       0       3       0       3     17     17      0    164      12       6  17    0450f a70f     30.390 "
test,1583575269007823872,53," | 53  |    184       5    158       0 |   4    1       149         9 |   5  53   57    1 c90f |    1.739       0       4       0       4     53     53      0    149       9       2  53    1c90f a70f      6.480 "
test,1583575269032224000,54," | 54  |    184       5    176       0 |   4    5       176         0 |   5  57   13    0 310f |    2.777       0       4       0       4     57     57      0    171       5       2  57    0310f a70f     30.360 "
test,1583575269008188928,55," | 55  |    184       5    163       0 |   5    4       155         8 |   1  53   57    0 c90f |    2.075       0       5       0       5     53     53      0    155       8       1  53    0c90f a70f      8.190 "
test,1583575269011197184,56," | 56  |    184       5    166       0 |   5    0       159         7 |   1  57    0    0 310f |    2.014       0       5       0       5     57     57      0    158       8       1  57    0310f a70f     10.170 "
test,1583575269013865984,57," | 57  |    184       5    121       0 |   1    2       116         5 |  14  57   17    1 310f |    8.117       0       4       0       4     57     57      0    113       8      11  57    1310f a70f     12.690 "
test,1583575269015391232,58," | 58  |    184       5    175       0 |   5    1       174         1 |   1  57   53    0 310f |    2.044       0       5       0       5     57     57      0    172       3       1  57    0310f a70f     12.330 "
test,1583575269013103872,60," | 60  |    184       5    175       0 |   5    0       167         8 |   3  57    0    0 310f |    1.983       0       5       0       5     57     57      0    164      11       1  57    0310f a70f     10.170 "
test,1583575269011974144,61," | 61  |    184       5    174       0 |   5    0       167         7 |   1  57    0    0 310f |    2.014       0       5       0       5     57     57      0    165       9       1  57    0310f a70f     10.050 "
test,1583575269014028032,7," |  7  |    184       5    181       0 |   1   11       180         1 |   1  12   13    0  80f |    3.479       0       5       0       5     12     12      0    181       0       3  12    0 80f a70f      9.720 "
test,1583575269010135040,9," |  9  |    184       5    180       0 |   2   11       174         6 |   1  12   13    0  80f |    4.241       0       5       0       5     12     12      0    174       6       4  12    0 80f a70f     10.380 "
