test,1583575619521587968,10," | 10  |   1586       5   1558       0 |   4    1      1537        21 |   4   1   49    0 c00f |    1.373       0       5       0       5      1      1      0   1516      42       1   1    0c00f a70f      7.560 "
test,1583575619515710976,12," | 12  |   1586       5   1584       0 |   5    0      1572        12 |   1   1    0    0 c00f |    1.403       0       5       0       5      1      1      0   1546      38       1   1    0c00f a70f      7.560 "
test,1583575619531708928,13," | 13  |   1586       5   1582       0 |   5    0      1567        15 |   1   1    0    0 c00f |    1.403       0       5       0       5      1      1      0   1548      34       1   1    0c00f a70f      7.530 "
test,1583575619539237888,15," | 15  |   1586       5   1584       0 |   2    0      1525        59 |   8   1    0    0 c00f |    2.136       0       4       0       4      1      1      0   1463     121       2   1    0c00f a70f     30.330 "
test,1583575619518512128,16," | 16  |   1586       5   1582       0 |   5    0      1522        60 |   2  27    0    0 ec0f |    2.746       0       5       0       5     27     27      0   1478     104       2  27    0ec0f a70f      8.940 "
test,1583575619519720192,17," | 17  |   1586       5   1581       1 |   5    0      1564        18 |   2  27    0    0 ec0f |    2.075       0       5       0       5     27     27      0   1507      75       1  27    0ec0f a70f      8.910 "
test,1583575619524596992,18," | 18  |   1586       5   1581       0 |   5    0      1485        96 |   3  27    0    0 ec0f |    3.540       0       5       0       5     27     27      0   1402     179       3  27    0ec0f a70f     10.320 "
test,1583575619530119936,19," | 19  |   1586       5   1580       2 |   5    0      1565        17 |   2  27    0    0 ec0f |    2.075       0       5       0       5     27     27      0   1512      70       1  27    0ec0f a70f      9.720 "
test,1583575619513585152,1," |  1  |   1586       4   1583       0 |   4    0      1543        40 |   2   1    0    1 c00f |    1.739       0       4       0       4      1      1      0   1530      53       2   1    1c00f a70f      6.480 "
test,1583575619524764928,22," | 22  |   1586       5   1580       0 |   5    0      1568        12 |   2  27    0    0 ec0f |    3.509       0       5       0       5     27     27      0   1479     101       3  27    0ec0f a70f      9.540 "
test,1583575619516391936,23," | 23  |   1586       5   1524       0 |   5    0      1515         9 |   1  27    0    0 ec0f |    2.014       0       5       0       5     27     27      0   1480      44       1  27    0ec0f a70f      8.250 "
test,1583575619520310016,24," | 24  |   1586       5   1582       0 |   5    0      1574         8 |   2  27    0    0 ec0f |    3.509       0       5       0       5     27     27      0   1532      50       3  27    0ec0f a70f      9.720 "
test,1583575619525295872,26," | 26  |   1586       5   1582       0 |   5    0      1575         7 |   2  27    0    0 ec0f |    2.746       0       5       0       5     27     27      0   1542      40       2  27    0ec0f a70f      9.660 "
test,1583575619519951104,27," | 27  |   1586       5   1584       0 |   4    0      1543        41 |   3  27    0    1 ec0f |    1.739       0       4       0       4     27     27      0   1464     120       2  27    1ec0f a70f      8.640 "
test,1583575619540820992,28," | 28  |   1586       5   1582       0 |   3    2      1454       128 |   6  28   27    1 740f |    3.936       0       3       0       3     28     28      0   1408     174       5  28    1740f a70f     30.300 "
test,1583575619540142080,29," | 29  |   1586       5   1580       4 |   5    0      1398       186 |   1  27    0    0 ec0f |    2.044       0       4       0       4     27     27      0   1318     266       1  27    0ec0f a70f     30.360 "
test,1583575619517515776,30," | 30  |   1586       5   1582       0 |   5    0      1557        25 |   1  28    0    0 740f |    2.014       0       5       0       5     28     28      0   1508      74       1  28    0740f a70f      8.220 "
test,1583575619521417984,35," | 35  |   1586       5   1582       0 |   5    0      1510        72 |   2  28    0    0 740f |    2.777       0       5       0       5     28     28      0   1479     103       2  28    0740f a70f      8.910 "
test,1583575619524229888,40," | 40  |   1586       5   1546      32 |   5    0      1457       121 |   4  27    0    0 ec0f |    4.211       0       5       0       5     27     27      0   1411     167       4  27    0ec0f a70f     11.160 "
test,1583575619521164032,41," | 41  |   1586       5   1540      32 |   5    0      1556        16 |   3  27    0    0 ec0f |    3.509       0       5       0       5     27     27      0   1511      61       3  27    0ec0f a70f     10.440 "
test,1583575619520598016,42," | 42  |   1586       5   1547      35 |   5    0      1535        47 |   3  27    0    0 ec0f |    4.241       0       5       0       5     27     27      0   1488      94       4  27    0ec0f a70f     10.350 "
test,1583575619520803072,44," | 44  |   1586       5   1552      30 |   5    0      1541        41 |   3  27    0    0 ec0f |    3.479       0       5       0       5     27     27      0   1497      85       3  27    0ec0f a70f      9.690 "
test,1583575619523202816,45," | 45  |   1586       5   1558      24 |   5    0      1522        60 |   3  27    0    0 ec0f |    3.479       0       5       0       5     27     27      0   1487      95       3  27    0ec0f a70f      9.660 "
test,1583575619523021824,46," | 46  |   1586       5   1544      31 |   5    0      1499        76 |   4  27    0    0 ec0f |    4.241       0       5       0       5     27     27      0   1468     107       4  27    0ec0f a70f     10.470 "
test,1583575619523642112,47," | 47  |   1586       5   1550      32 |   5    0      1525        57 |   4  27    0    0 ec0f |    4.272       0       5       0       5     27     27      0   1486      96       4  27    0ec0f a70f     10.410 "
test,1583575619521775872,48," | 48  |   1586       5   1486      29 |   5    0      1469        46 |   3  27    0    0 ec0f |    4.211       0       5       0       5     27     27      0   1430      85       4  27    0ec0f a70f     10.380 "
test,1583575619518817792,49," | 49  |   1586       5   1576       0 |   4    0      1551        25 |   2  49    0    1 210f |    1.739       0       4       0       4     49     49      0   1536      40       2  49    1210f a70f      6.510 "
test,1583575619517335808,51," | 51  |   1586       5   1577       0 |   1    6      1567        10 |   2  51    1    1 130f |    1.739       0       4       0       4     51     51      0   1562      15       2  51    1130f a70f      6.480 "
test,1583575619524030976,52," | 52  |   1586       5   1564      14 |   5    0      1499        79 |   2  27    0    0 ec0f |    2.746       0       5       0       5     27     27      0   1466     112       2  27    0ec0f a70f      9.660 "
test,1583575619523825920,53," | 53  |   1586       5   1560       0 |   5    0      1482        78 |   1  49    0    0 210f |    1.983       0       5       0       5     49     49      0   1463      97       1  49    0210f a70f      8.220 "
test,1583575619518001152,54," | 54  |   1586       5   1578       0 |   5    0      1556        22 |   1   1    0    0 c00f |    1.312       0       5       0       5      1      1      0   1526      52       1   1    0c00f a70f      7.560 "
test,1583575619525136896,55," | 55  |   1586       5   1565       0 |   5    0      1511        54 |   1  49    0    0 210f |    2.014       0       5       0       5     49     49      0   1499      66       1  49    0210f a70f      8.070 "
test,1583575619516129024,56," | 56  |   1586       5   1568       0 |   2    3      1541        27 |   1  51   49    0 130f |    2.014       0       5       0       5     51     51      0   1530      38       1  51    0130f a70f      8.250 "
test,1583575619519041024,57," | 57  |   1586       5   1523       0 |   4    5      1484        39 |   2  27   49    0 ec0f |    3.509       0       5       0       5     27     27      0   1396     127       3  27    0ec0f a70f     10.470 "
test,1583575619526906880,58," | 58  |   1586       5   1577       0 |   5    0      1557        20 |   1  49    0    0 210f |    2.014       0       5       0       5     49     49      0   1492      85       1  49    0210f a70f      8.220 "
test,1583575619521972992,5," |  5  |   1586       5   1584       0 |   5    0      1447       137 |   2   1    0    0 c00f |    2.105       0       5       0       5      1      1      0   1419     165       2   1    0c00f a70f      8.340 "
test,1583575619520133888,60," | 60  |   1586       5   1577       0 |   2    2      1475       102 |   1  51   27    0 130f |    2.044       0       5       0       5     51     51      0   1454     123       1  51    0130f a70f      8.310 "
test,1583575619538362112,61," | 61  |   1586       5   1576       0 |   5    0      1510        66 |   2  49    0    0 210f |    2.777       0       4       0       4     49     49      0   1466     110       2  49    0210f a70f     30.330 "
test,1583575619515503872,7," |  7  |   1586       5   1583       0 |   5    0      1560        23 |   1   1    0    0 c00f |    1.403       0       5       0       5      1      1      0   1552      31       1   1    0c00f a70f      7.530 "
test,1583575619517152000,9," |  9  |   1586       5   1582       0 |   5    0      1525        57 |   1   1    0    0 c00f |    1.373       0       5       0       5      1      1      0   1515      67       1   1    0c00f a70f      7.620 "
