test,1583575694538945024,10," | 10  |   1886       5   1858       0 |   3    9      1834        24 |   5  10   51    1 2a0f |    1.739       0       3       0       3     10     10      0   1809      49       2  10    12a0f a70f     30.300 "
test,1583575694522191104,12," | 12  |   1886       5   1884       0 |   5    0      1869        15 |   2  10    0    0 2a0f |    2.716       0       5       0       5     10     10      0   1842      42       2  10    02a0f a70f      8.970 "
test,1583575694518277888,13," | 13  |   1886       5   1882       0 |   5    0      1865        17 |   1  10    0    0 2a0f |    2.014       0       5       0       5     10     10      0   1845      37       1  10    02a0f a70f      8.220 "
test,1583575694520199168,15," | 15  |   1886       5   1884       0 |   5    0      1816        68 |   3  10    0    0 2a0f |    3.448       0       5       0       5     10     10      0   1745     139       3  10    02a0f a70f      9.570 "
test,1583575694544377088,16," | 16  |   1886       5   1882       0 |   5    0      1813        69 |   1  52    0    0 500f |    1.983       0       2       0       2     52     52      0   1765     117       1  52    0500f a70f     30.360 "
test,1583575694523444992,17," | 17  |   1886       5   1881       1 |   1    7      1862        20 |   2  29   41    0 830f |    5.676       0       5       0       5     29     29      0   1802      80       6  29    0830f a70f     13.200 "
test,1583575694524209920,18," | 18  |   1886       5   1881       0 |   2    6      1768       113 |   3  29   41    0 830f |    6.408       0       5       0       5     29     29      0   1681     200       7  29    0830f a70f     12.540 "
test,1583575694525250048,19," | 19  |   1886       5   1880       2 |   2    1      1859        23 |   1  29   52    0 830f |    4.943       0       5       0       5     29     29      0   1800      82       5  29    0830f a70f     14.010 "
test,1583575694521946880,1," |  1  |   1886       4   1883       0 |   5    0      1837        46 |   1  10    0    0 2a0f |    2.685       0       5       0       5     10     10      0   1823      60       1  10    02a0f a70f      8.910 "
test,1583575694524755968,22," | 22  |   1886       5   1880       0 |   1    9      1865        15 |   4  29   41    0 830f |    7.141       0       5       0       5     29     29      0   1773     107       8  29    0830f a70f     13.260 "
test,1583575694539324928,23," | 23  |   1886       5   1824       0 |   4    0      1813        11 |   2  52    0    0 500f |    1.983       0       2       0       2     52     52      0   1777      47       1  52    0500f a70f     30.360 "
test,1583575694523986176,24," | 24  |   1886       5   1882       0 |   2    6      1869        13 |   2  29   41    0 830f |    6.378       0       5       0       5     29     29      0   1824      58       7  29    0830f a70f     12.360 "
test,1583575694538223872,26," | 26  |   1886       5   1882       0 |   2    2      1875         7 |   1  52   29    0 500f |    2.014       0       2       0       2     52     52      0   1839      43       1  52    0500f a70f     30.390 "
test,1583575694522515968,27," | 27  |   1886       5   1884       0 |   3    2      1829        55 |   1  29   52    0 830f |    2.014       0       5       0       5     29     29      0   1739     145       1  29    0830f a70f      8.850 "
test,1583575694525889024,28," | 28  |   1886       5   1882       0 |   1    8      1738       144 |   2  29   35    0 830f |    6.378       0       5       0       5     29     29      0   1681     201       7  29    0830f a70f     13.860 "
test,1583575694526537984,29," | 29  |   1886       5   1880       4 |   2    0      1671       213 |   2  29    0    1 830f |    1.770       0       4       0       4     29     29      0   1576     308       2  29    1830f a70f      7.950 "
test,1583575694518116096,30," | 30  |   1886       5   1882       0 |   5    0      1854        28 |   1  35    0    0 4e0f |    2.075       0       5       0       5     35     35      0   1796      86       1  35    04e0f a70f      8.280 "
test,1583575694517689856,35," | 35  |   1886       5   1882       0 |   5    0      1800        82 |   2  35    0    1 4e0f |    1.739       0       4       0       4     35     35      0   1763     119       2  35    14e0f a70f      6.480 "
test,1583575694546191872,40," | 40  |   1886       5   1846      32 |   3    6      1737       141 |   2  40   41    1 280f |    1.739       0       1       0       1     40     40      0   1692     186       2  40    1280f a70f     30.300 "
test,1583575694540179968,41," | 41  |   1886       5   1840      32 |   4    4      1854        18 |   5  41   40    1 630f |    1.739       0       2       0       2     41     41      0   1805      67       2  41    1630f a70f     30.300 "
test,1583575694539923968,42," | 42  |   1886       5   1847      35 |   5    5      1833        49 |   1  41   40    0 630f |    2.014       0       2       0       2     41     41      0   1785      97       1  41    0630f a70f     30.270 "
test,1583575694538593024,44," | 44  |   1886       5   1852      30 |   2   10      1832        50 |   4  40   41    0 280f |    0           0       0       0       8      0      0      0   1785      97       0  40    0280f a70f     30.390 "
test,1583575694542501888,45," | 45  |   1886       5   1858      24 |   5    5      1817        65 |   1  41   40    0 630f |    2.044       0       3       0       3     41     41      0   1778     104       1  41    0630f a70f     30.270 "
test,1583575694541736960,46," | 46  |   1886       5   1844      31 |   5    4      1787        88 |   1  41   40    0 630f |    2.014       0       3       0       3     41     41      0   1753     122       1  41    0630f a70f     30.360 "
test,1583575694541975040,47," | 47  |   1886       5   1850      32 |   5    6      1818        64 |   1  41   40    0 630f |    2.014       0       2       0       2     41     41      0   1772     110       1  41    0630f a70f     30.390 "
test,1583575694541507072,48," | 48  |   1886       5   1786      29 |   4    7      1763        52 |   1  40   41    0 280f |    2.044       0       1       0       1     40     40      0   1725      90       1  40    0280f a70f     30.360 "
test,1583575694517900032,49," | 49  |   1886       5   1876       0 |   5    0      1844        32 |   1  53    0    0 de0f |    2.044       0       5       0       5     53     53      0   1827      49       1  53    0de0f a70f      8.130 "
test,1583575694535515904,51," | 51  |   1886       5   1877       0 |   0    3      1864        13 |   0  51   10    1 890f |    0           0       0       0       8      0      0      0   1859      18       0  51    1890f a70f     30.000 "
test,1583575694540815104,52," | 52  |   1886       4   1862      16 |   1    0      1781        97 |  11  52    0    1 500f |    1.770       0       1       0       1     52     52      0   1744     134       2  52    1500f a70f     30.300 "
test,1583575694519553024,53," | 53  |   1886       5   1860       0 |   5    0      1767        93 |   2  53    0    1 de0f |    1.739       0       4       0       4     53     53      0   1746     114       2  53    1de0f a70f      6.480 "
test,1583575694542196992,54," | 54  |   1886       5   1878       0 |   3    2      1852        26 |  17  54   10    1 4a0f |   10.284       0       2       0       2     54     54      0   1818      60      14  54    14a0f a70f     30.300 "
test,1583575694518877952,55," | 55  |   1886       5   1865       0 |   5    0      1800        65 |   1  53    0    0 de0f |    2.044       0       5       0       5     53     53      0   1785      80       1  53    0de0f a70f      8.250 "
test,1583575694540977920,56," | 56  |   1886       5   1868       0 |   1   12      1840        28 |   2  60   51    0 3c0f |    2.746       0       1       0       1     60     60      0   1825      43       2  60    03c0f a70f     30.360 "
test,1583575694547486976,57," | 57  |   1886       5   1823       0 |   1    9      1780        43 |   1  60   51    0 3c0f |    2.014       0       2       0       2     60     60      0   1670     153       1  60    03c0f a70f     30.390 "
test,1583575694537767936,58," | 58  |   1886       5   1877       0 |   2    7      1854        23 |   2  53   54    0 de0f |    0           0       0       0       8      0      0      0   1779      98       0  53    0de0f a70f     30.330 "
test,1583575694520441088,5," |  5  |   1886       5   1884       0 |   5    0      1723       161 |   2  10    0    0 2a0f |    2.746       0       5       0       5     10     10      0   1693     191       2  10    02a0f a70f      8.940 "
test,1583575694543059200,60," | 60  |   1886       5   1877       0 |   1   11      1756       121 |   2  60   51    1 3c0f |    1.739       0       1       0       1     60     60      0   1727     150       2  60    13c0f a70f     30.300 "
test,1583575694523254016,61," | 61  |   1886       5   1876       0 |   5    1      1793        83 |   1  54   53    0 4a0f |    2.014       0       5       0       5     54     54      0   1747     129       1  54    04a0f a70f     12.180 "
test,1583575694519390208,7," |  7  |   1886       5   1883       0 |   5    0      1854        29 |   2  10    0    0 2a0f |    2.777       0       5       0       5     10     10      0   1846      37       2  10    02a0f a70f      8.850 "
test,1583575694518529792,9," |  9  |   1886       5   1882       0 |   5    0      1814        68 |   1  10    0    0 2a0f |    1.983       0       5       0       5     10     10      0   1804      78       1  10    02a0f a70f      8.220 "
