test,1583575776268850176,10," | 10  |   2213       5   2185       0 |   5    0      2154        31 |   1   1    0    0 3a0f |    1.312       0       5       0       5      1      1      0   2123      62       1   1    03a0f a70f      7.590 "
test,1583575776272124160,12," | 12  |   2213       5   2211       0 |   5    0      2191        20 |   1   1    0    0 3a0f |    1.342       0       5       0       5      1      1      0   2156      55       1   1    03a0f a70f      8.250 "
test,1583575776269018880,13," | 13  |   2213       5   2209       0 |   5    0      2191        18 |   1   1    0    0 3a0f |    1.342       0       5       0       5      1      1      0   2164      45       1   1    03a0f a70f      7.590 "
test,1583575776291721216,15," | 15  |   2213       5   2211       0 |   5    0      2134        77 |   1   1    0    0 3a0f |    1.342       0       4       0       4      1      1      0   2045     166       1   1    03a0f a70f     30.330 "
test,1583575776271815936,16," | 16  |   2213       5   2209       0 |   5    0      2131        78 |   2  24    0    0 410f |    2.746       0       5       0       5     24     24      0   2076     133       2  24    0410f a70f      8.940 "
test,1583575776293761024,17," | 17  |   2213       5   2208       1 |   3    2      2183        26 |  17  17   24    1 4d0f |   10.284       0       3       0       3     17     17      0   2118      91      14  17    14d0f a70f     30.270 "
test,1583575776278230016,18," | 18  |   2213       5   2208       0 |   5    0      2083       125 |   1  24    0    0 410f |    2.044       0       5       0       5     24     24      0   1992     216       1  24    0410f a70f      8.250 "
test,1583575776292542976,19," | 19  |   2213       5   2207       2 |   4    6      2181        28 |   5  24   17    0 410f |    4.974       0       2       0       2     24     24      0   2116      93       5  24    0410f a70f     30.360 "
test,1583575776267958016,1," |  1  |   2213       4   2210       0 |   4    0      2155        55 |   2   1    0    1 3a0f |    1.739       0       4       0       4      1      1      0   2137      73       2   1    13a0f a70f      6.480 "
test,1583575776270013184,22," | 22  |   2213       5   2207       0 |   5    0      2191        16 |   1  24    0    0 410f |    2.014       0       5       0       5     24     24      0   2089     118       1  24    0410f a70f      8.220 "
test,1583575776272464128,23," | 23  |   2213       5   2151       0 |   5    0      2139        12 |   3  24    0    0 410f |    2.777       0       5       0       5     24     24      0   2099      52       2  24    0410f a70f      9.630 "
test,1583575776271431936,24," | 24  |   2213       5   2209       0 |   4    0      2193        16 |   2  24    0    1 410f |    1.770       0       4       0       4     24     24      0   2147      62       2  24    1410f a70f      6.510 "
test,1583575776270536960,26," | 26  |   2213       5   2209       0 |   5    0      2200         9 |   1  24    0    0 410f |    2.014       0       5       0       5     24     24      0   2162      47       1  24    0410f a70f      8.220 "
test,1583575776275588864,27," | 27  |   2213       5   2211       0 |   4    5      2149        62 |   1  17   24    0 4d0f |    1.983       0       5       0       5     17     17      0   2051     160       1  17    04d0f a70f     13.680 "
test,1583575776272779008,28," | 28  |   2213       5   2209       0 |   5    0      2036       173 |   2  35    0    0 a10f |    2.746       0       5       0       5     35     35      0   1972     237       2  35    0a10f a70f      8.940 "
test,1583575776288105984,29," | 29  |   2213       5   2207       4 |   3    4      1968       243 |   2  17   24    0 4d0f |    2.746       0       5       0       5     17     17      0   1856     355       2  17    04d0f a70f     14.460 "
test,1583575776278865152,30," | 30  |   2213       5   2209       0 |   5    0      2180        29 |   1  35    0    0 a10f |    2.044       0       5       0       5     35     35      0   2110      99       1  35    0a10f a70f      8.160 "
test,1583575776273091072,35," | 35  |   2213       5   2209       0 |   4    0      2113        96 |   2  35    0    1 a10f |    1.739       0       4       0       4     35     35      0   2071     138       2  35    1a10f a70f      6.480 "
test,1583575776274877184,40," | 40  |   2213       5   2173      32 |   5    0      2048       157 |   4  24    0    0 410f |    2.014       0       5       0       5     24     24      0   1999     206       1  24    0410f a70f      9.690 "
test,1583575776273638912,41," | 41  |   2213       5   2167      32 |   5    0      2177        22 |   3  24    0    0 410f |    2.746       0       5       0       5     24     24      0   2120      79       2  24    0410f a70f      9.690 "
test,1583575776279098880,42," | 42  |   2213       5   2174      35 |   5    0      2156        53 |   3  24    0    0 410f |    2.044       0       5       0       5     24     24      0   2099     110       1  24    0410f a70f      9.000 "
test,1583575776278683904,44," | 44  |   2213       5   2179      30 |   5    0      2155        54 |   3  24    0    0 410f |    2.044       0       5       0       5     24     24      0   2104     105       1  24    0410f a70f      8.850 "
test,1583575776277565952,45," | 45  |   2213       5   2185      24 |   4    0      2134        75 |   6  24    0    0 410f |    2.777       0       5       0       5     24     24      0   2092     117       2  24    0410f a70f      9.630 "
test,1583575776282407936,46," | 46  |   2213       5   2171      31 |   5    0      2101       101 |   4  24    0    0 410f |    2.746       0       5       0       5     24     24      0   2059     143       2  24    0410f a70f      9.660 "
test,1583575776277047040,47," | 47  |   2213       5   2177      32 |   5    0      2135        74 |   2  24    0    0 410f |    2.746       0       5       0       5     24     24      0   2081     128       2  24    0410f a70f      8.970 "
test,1583575776274391808,48," | 48  |   2213       5   2113      29 |   5    0      2085        57 |   3  24    0    0 410f |    2.746       0       5       0       5     24     24      0   2040     102       2  24    0410f a70f      8.970 "
test,1583575776269412096,49," | 49  |   2213       5   2203       0 |   4    0      2164        39 |   2  49    0    1 e70f |    1.770       0       4       0       4     49     49      0   2144      59       2  49    1e70f a70f      6.510 "
test,1583575776269185024,51," | 51  |   2213       5   2204       0 |   5    0      2190        14 |   1   1    0    0 3a0f |    1.342       0       5       0       5      1      1      0   2184      20       1   1    03a0f a70f      7.470 "
test,1583575776275034880,52," | 52  |   2213       2   2185      20 |   5    0      2091       114 |   1  24    0    0 410f |    2.014       0       5       0       5     24     24      0   2049     156       1  24    0410f a70f      9.660 "
test,1583575776270706944,53," | 53  |   2213       5   2187       0 |   5    0      2082       105 |   1  49    0    0 e70f |    2.014       0       5       0       5     49     49      0   2057     130       1  49    0e70f a70f      8.100 "
test,1583575776269815040,54," | 54  |   2213       5   2205       0 |   5    0      2172        33 |   1   1    0    0 3a0f |    1.312       0       5       0       5      1      1      0   2132      73       1   1    03a0f a70f      7.560 "
test,1583575776271236864,55," | 55  |   2213       5   2192       0 |   5    0      2119        73 |   1  49    0    0 e70f |    2.014       0       5       0       5     49     49      0   2102      90       1  49    0e70f a70f      8.250 "
test,1583575776270326016,56," | 56  |   2213       5   2195       0 |   5    0      2158        37 |   2   1    0    0 3a0f |    2.044       0       5       0       5      1      1      0   2142      53       2   1    03a0f a70f      8.280 "
test,1583575776292210176,57," | 57  |   2213       5   2150       0 |   4    1      2092        58 |   2   1   24    0 3a0f |    6.469       0       1       0       1      1      1      0   1971     179       8   1    03a0f a70f     30.330 "
test,1583575776276051968,58," | 58  |   2213       5   2204       0 |   5    0      2177        27 |   1  49    0    0 e70f |    2.014       0       5       0       5     49     49      0   2090     114       1  49    0e70f a70f      8.250 "
test,1583575776273300992,5," |  5  |   2213       5   2211       0 |   5    0      2022       189 |   2   1    0    0 3a0f |    1.342       0       5       0       5      1      1      0   1981     230       1   1    03a0f a70f      8.280 "
test,1583575776272285952,60," | 60  |   2213       5   2204       0 |   5    0      2056       148 |   2   1    0    0 3a0f |    2.105       0       5       0       5      1      1      0   2025     179       2   1    03a0f a70f      8.190 "
test,1583575776291933184,61," | 61  |   2213       5   2203       0 |   2    3      2110        93 |   2   1   49    0 3a0f |    5.004       0       2       0       2      1      1      0   2051     152       6   1    03a0f a70f     30.390 "
test,1583575776268156160,7," |  7  |   2213       5   2210       0 |   5    0      2175        35 |   1   1    0    0 3a0f |    1.373       0       5       0       5      1      1      0   2162      48       1   1    03a0f a70f      7.530 "
test,1583575776271053056,9," |  9  |   2213       5   2209       0 |   5    0      2127        82 |   2   1    0    0 3a0f |    1.312       0       5       0       5      1      1      0   2115      94       1   1    03a0f a70f      7.560 "
