test,1583575759771951872,10," | 10  |   2147       5   2119       0 |   5    0      2090        29 |   1  13    0    0 420f |    2.044       0       5       0       5     13     13      0   2060      59       1  13    0420f a70f      8.250 "
test,1583575759793275136,12," | 12  |   2147       5   2145       0 |   2    6      2125        20 |  11  12   13    1 960f |   10.284       0       1       0       1     12     12      0   2092      53      14  12    1960f a70f     30.210 "
test,1583575759768943104,13," | 13  |   2147       5   2143       0 |   4    0      2126        17 |   4  13    0    1 420f |    1.739       0       4       0       4     13     13      0   2099      44       2  13    1420f a70f      6.510 "
test,1583575759774903040,15," | 15  |   2147       5   2145       0 |   5    1      2071        74 |   1  12   13    0 960f |    1.983       0       5       0       5     12     12      0   1983     162       1  12    0960f a70f     10.800 "
test,1583575759793090048,16," | 16  |   2147       5   2143       0 |   4    5      2067        76 |   1  23   26    0 e20f |    1.983       0       2       0       2     23     23      0   2014     129       1  23    0e20f a70f     30.300 "
test,1583575759789878016,17," | 17  |   2147       5   2142       1 |   5    0      2117        26 |   2  23    0    0 e20f |    0           0       0       0       8      0      0      0   2052      91       0  23    0e20f a70f     30.390 "
test,1583575759794061056,18," | 18  |   2147       5   2142       0 |   1   10      2018       124 |   3  47   26    0 1b0f |    3.509       0       2       0       2     47     47      0   1929     213       3  47    01b0f a70f     30.360 "
test,1583575759789360128,19," | 19  |   2147       5   2141       2 |   5    0      2115        28 |   1  23    0    0 e20f |    0           0       0       0       8      0      0      0   2051      92       0  23    0e20f a70f     30.390 "
test,1583575759771124992,1," |  1  |   2147       4   2144       0 |   5    0      2090        54 |   1  13    0    0 420f |    2.716       0       5       0       5     13     13      0   2072      72       1  13    0420f a70f      8.940 "
test,1583575759789689088,22," | 22  |   2147       5   2141       0 |   5    0      2125        16 |   3  23    0    0 e20f |    0           0       0       0       8      0      0      0   2025     116       0  23    0e20f a70f     30.360 "
test,1583575759795566080,23," | 23  |   2147       5   2085       0 |   5    0      2074        11 |   2  23    0    1 e20f |    1.770       0       1       0       1     23     23      0   2035      50       2  23    1e20f a70f     30.300 "
test,1583575759789005056,24," | 24  |   2147       5   2143       0 |   5    0      2127        16 |   3  23    0    0 e20f |    0           0       0       0       8      0      0      0   2081      62       0  23    0e20f a70f     30.390 "
test,1583575759787379968,26," | 26  |   2147       5   2143       0 |   0   12      2134         9 |   0  26   23    1 710f |    0           0       0       0       8      0      0      0   2096      47       0  26    1710f a70f     30.180 "
test,1583575759794387200,27," | 27  |   2147       5   2145       0 |   0   10      2084        61 |   0  27   29    1 150f |    0           0       0       0       8      0      0      0   1988     157       0  27    1150f a70f     30.180 "
test,1583575759771550976,28," | 28  |   2147       5   2143       0 |   4    0      1976       167 |   3  28    0    1 180f |    1.739       0       4       0       4     28     28      0   1913     230       2  28    1180f a70f      6.510 "
test,1583575759791113984,29," | 29  |   2147       4   2141       4 |   0    4      1907       238 |   0  29   23    1 e90f |    0           0       0       0       8      0      0      0   1796     349       0  29    1e90f a70f     30.150 "
test,1583575759770086144,30," | 30  |   2147       5   2143       0 |   5    0      2114        29 |   1  28    0    0 180f |    1.983       0       5       0       5     28     28      0   2048      95       1  28    0180f a70f      8.190 "
test,1583575759772212992,35," | 35  |   2147       5   2143       0 |   5    0      2048        95 |   2  28    0    0 180f |    2.746       0       5       0       5     28     28      0   2007     136       2  28    0180f a70f      8.820 "
test,1583575759796741120,40," | 40  |   2147       5   2107      32 |   3    2      1986       153 |   2  47   23    0 1b0f |    2.014       0       3       0       3     47     47      0   1937     202       1  47    01b0f a70f     30.390 "
test,1583575759792175104,41," | 41  |   2147       5   2101      32 |   4    2      2111        22 |   1  47   23    0 1b0f |    2.044       0       3       0       3     47     47      0   2058      75       1  47    01b0f a70f     30.390 "
test,1583575759791313920,42," | 42  |   2147       5   2108      35 |   4    3      2090        53 |   1  47   23    0 1b0f |    2.014       0       3       0       3     47     47      0   2034     109       1  47    01b0f a70f     30.360 "
test,1583575759792589824,44," | 44  |   2147       5   2113      30 |   4    6      2090        53 |   1  47   26    0 1b0f |    2.014       0       3       0       3     47     47      0   2039     104       1  47    01b0f a70f     30.390 "
test,1583575759792859136,45," | 45  |   2147       5   2119      24 |   4    2      2070        73 |   1  47   23    0 1b0f |    2.044       0       3       0       3     47     47      0   2029     114       1  47    01b0f a70f     30.330 "
test,1583575759796477952,46," | 46  |   2147       5   2105      31 |   4    0      2036       100 |   1  47    0    0 1b0f |    2.044       0       3       0       3     47     47      0   1995     141       1  47    01b0f a70f     30.390 "
test,1583575759793859840,47," | 47  |   2147       5   2111      32 |   3    0      2071        72 |   2  47    0    1 1b0f |    1.739       0       2       0       2     47     47      0   2018     125       2  47    11b0f a70f     30.300 "
test,1583575759800034048,48," | 48  |   2147       5   2047      29 |   4    3      2020        56 |   1  47   23    0 1b0f |    2.044       0       3       0       3     47     47      0   1975     101       1  47    01b0f a70f     30.360 "
test,1583575759772813056,49," | 49  |   2147       5   2137       0 |   4    0      2098        39 |   2  49    0    1 b10f |    1.739       0       4       0       4     49     49      0   2078      59       2  49    1b10f a70f      6.480 "
test,1583575759769492992,51," | 51  |   2147       5   2138       0 |   5    0      2124        14 |   1  13    0    0 420f |    2.044       0       5       0       5     13     13      0   2118      20       1  13    0420f a70f      8.250 "
test,1583575759794539008,52," | 52  |   2147       5   2120      19 |   5    0      2029       110 |   2  23    0    0 e20f |    3.448       0       1       0       1     23     23      0   1987     152       3  23    0e20f a70f     30.360 "
test,1583575759770759936,53," | 53  |   2147       5   2121       0 |   5    0      2017       104 |   1  49    0    0 b10f |    2.044       0       5       0       5     49     49      0   1992     129       1  49    0b10f a70f      8.130 "
test,1583575759771753984,54," | 54  |   2147       5   2139       0 |   5    0      2106        33 |   2  13    0    0 420f |    2.807       0       5       0       5     13     13      0   2068      71       2  13    0420f a70f      8.940 "
test,1583575759769239040,55," | 55  |   2147       5   2126       0 |   5    0      2054        72 |   1  49    0    0 b10f |    2.075       0       5       0       5     49     49      0   2037      89       1  49    0b10f a70f      8.280 "
test,1583575759774339072,56," | 56  |   2147       5   2129       0 |   5    0      2093        36 |   1  13    0    0 420f |    2.014       0       5       0       5     13     13      0   2077      52       1  13    0420f a70f     11.130 "
test,1583575759794849024,57," | 57  |   2147       5   2084       0 |   4    5      2029        55 |   5  23   26    0 e20f |    2.014       0       2       0       2     23     23      0   1910     174       1  23    0e20f a70f     30.360 "
test,1583575759798022144,58," | 58  |   2147       5   2138       0 |   1   10      2111        27 |   3  13   12    0 420f |    8.636       0       3       0       3     13     13      0   2025     113      10  13    0420f a70f     30.390 "
test,1583575759770536960,5," |  5  |   2147       5   2145       0 |   5    1      1961       184 |   1  13   12    0 420f |    2.075       0       5       0       5     13     13      0   1921     224       1  13    0420f a70f      8.130 "
test,1583575759772644096,60," | 60  |   2147       5   2138       0 |   5    0      1995       143 |   2  13    0    0 420f |    2.746       0       5       0       5     13     13      0   1965     173       2  13    0420f a70f      8.940 "
test,1583575759773349888,61," | 61  |   2147       5   2137       0 |   3    2      2044        93 |   2  13   23    0 420f |    3.509       0       5       0       5     13     13      0   1987     150       3  13    0420f a70f      9.690 "
test,1583575759772422912,7," |  7  |   2147       5   2144       0 |   5    0      2110        34 |   2  13    0    0 420f |    2.777       0       5       0       5     13     13      0   2097      47       2  13    0420f a70f      8.880 "
test,1583575759767122944,9," |  9  |   2147       5   2143       0 |   5    0      2065        78 |   1  13    0    0 420f |    2.014       0       5       0       5     13     13      0   2053      90       1  13    0420f a70f      8.250 "
