test,1583575963273776896,10," | 10  |   2961       5   2933       0 |   5    0      2886        47 |   2   1    0    0 e90f |    1.373       0       5       0       5      1      1      0   2843      90       1   1    0e90f a70f      8.340 "
test,1583575963272562944,12," | 12  |   2961       5   2959       0 |   5    0      2935        24 |   2   1    0    0 e90f |    1.312       0       5       0       5      1      1      0   2886      73       1   1    0e90f a70f      7.560 "
test,1583575963271828992,13," | 13  |   2961       5   2957       0 |   5    0      2937        20 |   1   1    0    0 e90f |    1.342       0       5       0       5      1      1      0   2903      54       1   1    0e90f a70f      7.530 "
test,1583575963294772992,15," | 15  |   2961       5   2959       0 |   0    4      2846       113 |   0  15    1    1 790f |    0           0       0       0       8      0      0      0   2724     235       0  15    1790f a70f     30.240 "
test,1583575963277904128,16," | 16  |   2961       5   2957       0 |   4    0      2853       104 |   2  16    0    1 b30f |    1.770       0       4       0       4     16     16      0   2782     175       2  16    1b30f a70f      6.510 "
test,1583575963277225984,17," | 17  |   2961       5   2952       5 |   3    2      2925        32 |   2  17   16    1 9b0f |    3.814       0       4       0       4     17     17      0   2837     120       5  17    19b0f a70f      8.520 "
test,1583575963278300928,18," | 18  |   2961       5   2956       0 |   5    0      2795       161 |   1  26    0    0  60f |    2.044       0       5       0       5     26     26      0   2672     284       1  26    0 60f a70f      8.100 "
test,1583575963278088192,19," | 19  |   2961       5   2948       9 |   4    0      2910        47 |   1  17    0    0 9b0f |    4.089       0       5       0       5     17     17      0   2821     136       4  17    09b0f a70f     10.290 "
test,1583575963271598080,1," |  1  |   2961       4   2958       0 |   4    0      2890        68 |   2   1    0    1 e90f |    1.739       0       4       0       4      1      1      0   2869      89       2   1    1e90f a70f      6.480 "
test,1583575963279176960,22," | 22  |   2961       5   2955       0 |   5    0      2931        24 |   1  26    0    0  60f |    2.014       0       5       0       5     26     26      0   2796     159       1  26    0 60f a70f     10.410 "
test,1583575963274508032,23," | 23  |   2961       5   2899       0 |   5    0      2885        14 |   1  16    0    0 b30f |    2.014       0       5       0       5     16     16      0   2828      71       1  16    0b30f a70f      8.250 "
test,1583575963279373056,24," | 24  |   2961       5   2955       2 |   5    0      2932        25 |   1  26    0    0  60f |    2.014       0       5       0       5     26     26      0   2863      94       1  26    0 60f a70f      8.970 "
test,1583575963276146944,26," | 26  |   2961       5   2955       2 |   4    0      2946        11 |   2  26    0    1  60f |    1.739       0       4       0       4     26     26      0   2892      65       2  26    1 60f a70f      8.640 "
test,1583575963279602176,27," | 27  |   2961       5   2959       0 |   2    4      2874        85 |   5  17   15    0 9b0f |    2.044       0       5       0       5     17     17      0   2750     209       1  17    09b0f a70f     11.010 "
test,1583575963293209088,28," | 28  |   2961       4   2954       3 |   1    6      2729       228 |   1  17   26    0 9b0f |    0           0       0       0       8      0      0      0   2622     335       0  17    09b0f a70f     30.390 "
test,1583575963290373120,29," | 29  |   2961       4   2954       5 |   1    0      2631       328 |   2  17    0    0 9b0f |    2.807       0       5       0       5     17     17      0   2491     468       2  17    09b0f a70f      9.510 "
test,1583575963285505024,30," | 30  |   2961       5   2957       0 |   5    0      2916        41 |   3  26    0    0  60f |    3.448       0       5       0       5     26     26      0   2819     138       3  26    0 60f a70f      9.630 "
test,1583575963277051904,35," | 35  |   2961       5   2957       0 |   5    0      2821       136 |   2  26    0    0  60f |    2.746       0       5       0       5     26     26      0   2761     196       2  26    0 60f a70f      8.850 "
test,1583575963281348096,40," | 40  |   2961       5   2901      52 |   5    0      2759       194 |   3  26    0    0  60f |    3.509       0       5       0       5     26     26      0   2685     268       3  26    0 60f a70f     11.820 "
test,1583575963274797824,41," | 41  |   2961       5   2896      51 |   5    0      2919        28 |   2  16    0    0 b30f |    2.777       0       5       0       5     16     16      0   2841     106       2  16    0b30f a70f      8.940 "
test,1583575963295229952,42," | 42  |   2961       5   2903      54 |   2    0      2885        72 |   8  26    0    0  60f |   10.803       0       1       0       1     26     26      0   2811     146      13  26    0 60f a70f     30.390 "
test,1583575963275357952,44," | 44  |   2961       5   2908      49 |   5    0      2886        71 |   1  26    0    0  60f |    2.014       0       5       0       5     26     26      0   2826     131       1  26    0 60f a70f      9.720 "
test,1583575963279776000,45," | 45  |   2961       5   2921      36 |   5    0      2860        97 |   1  16    0    0 b30f |    2.014       0       5       0       5     16     16      0   2805     152       1  16    0b30f a70f      8.250 "
test,1583575963278548992,46," | 46  |   2961       5   2900      50 |   5    0      2818       132 |   2  26    0    0  60f |    2.777       0       5       0       5     26     26      0   2761     189       2  26    0 60f a70f     10.260 "
test,1583575963282181120,47," | 47  |   2961       5   2908      49 |   5    0      2852       105 |   2  26    0    0  60f |    2.716       0       5       0       5     26     26      0   2788     169       2  26    0 60f a70f     10.230 "
test,1583575963276721920,48," | 48  |   2961       5   2843      47 |   5    0      2818        72 |   2  26    0    0  60f |    2.716       0       5       0       5     26     26      0   2757     133       2  26    0 60f a70f      8.880 "
test,1583575963273314048,49," | 49  |   2961       5   2951       0 |   4    0      2899        52 |   2  49    0    1 b20f |    1.739       0       4       0       4     49     49      0   2870      81       2  49    1b20f a70f      6.480 "
test,1583575963277675008,51," | 51  |   2961       5   2952       0 |   1    8      2928        24 |   2  26    1    0  60f |    3.509       0       5       0       5     26     26      0   2919      33       3  26    0 60f a70f      9.660 "
test,1583575963296102912,52," | 52  |   2961       5   2930      23 |   2    3      2811       142 |   1  26   16    0  60f |    1.983       0       4       0       4     26     26      0   2754     199       1  26    0 60f a70f     30.390 "
test,1583575963275150080,53," | 53  |   2961       5   2935       0 |   5    0      2789       146 |   1  49    0    0 b20f |    2.014       0       5       0       5     49     49      0   2752     183       1  49    0b20f a70f      8.250 "
test,1583575963298966784,54," | 54  |   2961       5   2953       0 |   0    2      2903        50 |   0  54    1    1 3e0f |    0           0       0       0       8      0      0      0   2855      98       0  54    13e0f a70f     30.180 "
test,1583575963274189056,55," | 55  |   2961       5   2940       0 |   5    0      2839       101 |   1  49    0    0 b20f |    2.014       0       5       0       5     49     49      0   2812     128       1  49    0b20f a70f      8.220 "
test,1583575963275897088,56," | 56  |   2961       5   2943       0 |   1    5      2896        47 |   2  26    1    0  60f |    2.777       0       5       0       5     26     26      0   2869      74       2  26    0 60f a70f      8.880 "
test,1583575963275695104,57," | 57  |   2961       5   2898       0 |   4    3      2827        71 |   1  26   54    0  60f |    1.983       0       5       0       5     26     26      0   2657     241       1  26    0 60f a70f      8.190 "
test,1583575963295677952,58," | 58  |   2961       5   2952       0 |   5    0      2917        35 |   1  49    0    0 b20f |    2.044       0       4       0       4     49     49      0   2795     157       1  49    0b20f a70f     30.390 "
test,1583575963294994176,5," |  5  |   2961       5   2959       0 |   0    8      2710       249 |   0   5    1    1 d80f |    0           0       0       0       8      0      0      0   2655     304       0   5    1d80f a70f     30.210 "
test,1583575963276571904,60," | 60  |   2961       5   2952       0 |   3    2      2760       192 |   2  26   15    0  60f |    2.746       0       5       0       5     26     26      0   2712     240       2  26    0 60f a70f      8.970 "
test,1583575963297647872,61," | 61  |   2961       5   2951       0 |   4   10      2826       125 |   2  49   54    0 b20f |    2.746       0       4       0       4     49     49      0   2740     211       2  49    0b20f a70f     30.390 "
test,1583575963272185088,7," |  7  |   2961       5   2958       0 |   5    0      2910        48 |   1   1    0    0 e90f |    1.342       0       5       0       5      1      1      0   2894      64       1   1    0e90f a70f      7.440 "
test,1583575963273040896,9," |  9  |   2961       5   2957       0 |   5    0      2844       113 |   1   1    0    0 e90f |    1.312       0       5       0       5      1      1      0   2830     127       1   1    0e90f a70f      7.560 "
