test,1583575724038778112,10," | 10  |   2004       5   1976       0 |   5    0      1950        26 |   1  58    0    0 3b0f |    2.777       0       4       0       4     58     58      0   1921      55       2  58    03b0f a70f     30.330 "
test,1583575724021724928,12," | 12  |   2004       5   2002       0 |   5    0      1987        15 |   1  58    0    0 3b0f |    2.044       0       5       0       5     58     58      0   1957      45       1  58    03b0f a70f      8.220 "
test,1583575724021127936,13," | 13  |   2004       5   2000       0 |   5    0      1983        17 |   2  58    0    0 3b0f |    2.716       0       5       0       5     58     58      0   1961      39       2  58    03b0f a70f      9.660 "
test,1583575724025861888,15," | 15  |   2004       5   2002       0 |   5    0      1932        70 |   2  58    0    0 3b0f |    2.716       0       5       0       5     58     58      0   1854     148       2  58    03b0f a70f      8.940 "
test,1583575724024649984,16," | 16  |   2004       5   2000       0 |   4    2      1928        72 |  17  16   58    1 700f |    1.739       0       4       0       4     16     16      0   1879     121       2  16    1700f a70f      7.920 "
test,1583575724029583104,17," | 17  |   2004       3   1999       1 |   5    0      1977        23 |   3  58    0    0 3b0f |    6.408       0       5       0       5     58     58      0   1915      85       7  58    03b0f a70f     12.540 "
test,1583575724027270144,18," | 18  |   2004       5   1999       0 |   5    0      1884       115 |   3  58    0    0 3b0f |    7.110       0       5       0       5     58     58      0   1796     203       8  58    03b0f a70f     13.260 "
test,1583575724034212096,19," | 19  |   2004       3   1998       2 |   5    0      1974        26 |   3  58    0    0 3b0f |    6.439       0       5       0       5     58     58      0   1915      85       7  58    03b0f a70f     12.600 "
test,1583575724019706112,1," |  1  |   2004       4   2001       0 |   5    0      1949        52 |   3  58    0    0 3b0f |    3.417       0       5       0       5     58     58      0   1933      68       2  58    03b0f a70f      9.630 "
test,1583575724028742144,22," | 22  |   2004       5   1998       0 |   5    0      1983        15 |   3  58    0    0 3b0f |    6.408       0       5       0       5     58     58      0   1887     111       7  58    03b0f a70f     13.080 "
test,1583575724027725056,23," | 23  |   2004       5   1942       0 |   5    5      1931        11 |   1  16   58    0 700f |    2.044       0       5       0       5     16     16      0   1894      48       1  16    0700f a70f      9.630 "
test,1583575724030398976,24," | 24  |   2004       5   2000       0 |   5    0      1987        13 |   3  58    0    0 3b0f |    6.378       0       5       0       5     58     58      0   1942      58       7  58    03b0f a70f     12.510 "
test,1583575724028333056,26," | 26  |   2004       5   2000       0 |   5    0      1993         7 |   2  58    0    0 3b0f |    5.676       0       5       0       5     58     58      0   1957      43       6  58    03b0f a70f     11.730 "
test,1583575724042441984,27," | 27  |   2004       4   2002       0 |   5    6      1946        56 |   2  16   58    0 700f |    2.777       0       2       0       2     16     16      0   1853     149       2  16    0700f a70f     30.360 "
test,1583575724042962176,28," | 28  |   2004       4   2000       0 |   4    0      1847       153 |   1  35    0    0 980f |    2.777       0       4       0       4     35     35      0   1785     215       2  35    0980f a70f     30.360 "
test,1583575724042772992,29," | 29  |   2004       4   1998       4 |   4    4      1777       225 |   6  58   16    0 3b0f |   10.070       0       3       0       3     58     58      0   1675     327      12  58    03b0f a70f     30.360 "
test,1583575724018519040,30," | 30  |   2004       5   2000       0 |   5    0      1971        29 |   1  35    0    0 980f |    2.044       0       5       0       5     35     35      0   1909      91       1  35    0980f a70f      8.250 "
test,1583575724018904064,35," | 35  |   2004       5   2000       0 |   5    0      1914        86 |   2  35    0    1 980f |    1.739       0       4       0       4     35     35      0   1875     125       2  35    1980f a70f      6.480 "
test,1583575724031025920,40," | 40  |   2004       4   1964      32 |   5    2      1850       146 |   2  16   58    0 700f |    4.180       0       5       0       5     16     16      0   1803     193       4  16    0700f a70f     10.380 "
test,1583575724031408128,41," | 41  |   2004       5   1958      32 |   5    0      1971        19 |   1  16    0    0 700f |    3.509       0       5       0       5     16     16      0   1920      70       3  16    0700f a70f      9.660 "
test,1583575724025196032,42," | 42  |   2004       5   1965      35 |   5    2      1950        50 |   2  16   58    0 700f |    4.211       0       5       0       5     16     16      0   1898     102       4  16    0700f a70f     10.380 "
test,1583575724024080896,44," | 44  |   2004       5   1970      30 |   5    3      1950        50 |   2  16   58    0 700f |    4.211       0       5       0       5     16     16      0   1901      99       4  16    0700f a70f     10.410 "
test,1583575724024858112,45," | 45  |   2004       5   1976      24 |   5    0      1934        66 |   1  16    0    0 700f |    3.509       0       5       0       5     16     16      0   1893     107       3  16    0700f a70f      9.570 "
test,1583575724025437952,46," | 46  |   2004       5   1962      31 |   5    0      1901        92 |   2  16    0    0 700f |    4.211       0       5       0       5     16     16      0   1862     131       4  16    0700f a70f     10.410 "
test,1583575724021449216,47," | 47  |   2004       5   1968      32 |   5    0      1930        70 |   2  16    0    0 700f |    4.180       0       5       0       5     16     16      0   1880     120       4  16    0700f a70f     10.380 "
test,1583575724040591104,48," | 48  |   2004       5   1904      29 |   5    1      1880        53 |   2  16   58    0 700f |    4.241       0       4       0       4     16     16      0   1839      94       4  16    0700f a70f     30.360 "
test,1583575724022938880,49," | 49  |   2004       5   1994       0 |   5    0      1960        34 |   1  58    0    0 3b0f |    1.983       0       5       0       5     58     58      0   1942      52       1  58    03b0f a70f      8.220 "
test,1583575724040288000,51," | 51  |   2004       5   1995       0 |   0    9      1981        14 |   0  51   58    1 3a0f |    0           0       0       0       8      0      0      0   1976      19       0  51    13a0f a70f     28.050 "
test,1583575724029850880,52," | 52  |   2004       5   1978      18 |   5    5      1894       102 |   1  16   58    0 700f |    2.014       0       5       0       5     16     16      0   1855     141       1  16    0700f a70f     10.290 "
test,1583575724028985856,53," | 53  |   2004       5   1978       0 |   5    0      1881        97 |   2  58    0    0 3b0f |    2.716       0       5       0       5     58     58      0   1859     119       2  58    03b0f a70f      8.940 "
test,1583575724020775936,54," | 54  |   2004       5   1996       0 |   5    0      1968        28 |   1  58    0    0 3b0f |    2.014       0       5       0       5     58     58      0   1931      65       1  58    03b0f a70f      8.160 "
test,1583575724019426048,55," | 55  |   2004       5   1983       0 |   5    0      1916        67 |   1  58    0    0 3b0f |    2.014       0       5       0       5     58     58      0   1901      82       1  58    03b0f a70f      8.130 "
test,1583575724040911872,56," | 56  |   2004       5   1986       0 |   5    0      1956        30 |   1  58    0    0 3b0f |    2.746       0       3       0       3     58     58      0   1940      46       2  58    03b0f a70f     30.360 "
test,1583575724019938048,57," | 57  |   2004       3   1941       0 |   5    1      1892        49 |   1  58   16    0 3b0f |    2.014       0       5       0       5     58     58      0   1779     162       1  58    03b0f a70f      8.250 "
test,1583575724025646848,58," | 58  |   2004       5   1995       0 |   4    0      1970        25 |   2  58    0    1 3b0f |    1.770       0       4       0       4     58     58      0   1891     104       2  58    13b0f a70f      6.510 "
test,1583575724027006976,5," |  5  |   2004       5   2002       0 |   5    0      1829       173 |   2  58    0    0 3b0f |    2.746       0       5       0       5     58     58      0   1795     207       2  58    03b0f a70f      8.910 "
test,1583575724041903872,60," | 60  |   2004       5   1995       0 |   4    5      1864       131 |   3  58   51    0 3b0f |    2.746       0       3       0       3     58     58      0   1834     161       2  58    03b0f a70f     30.360 "
test,1583575724022298112,61," | 61  |   2004       5   1994       0 |   5    0      1908        86 |   1  58    0    0 3b0f |    1.953       0       5       0       5     58     58      0   1857     137       1  58    03b0f a70f      8.190 "
test,1583575724020372992,7," |  7  |   2004       5   2001       0 |   5    0      1970        31 |   2  58    0    0 3b0f |    2.685       0       5       0       5     58     58      0   1960      41       2  58    03b0f a70f      9.600 "
test,1583575724022695936,9," |  9  |   2004       5   2000       0 |   5    0      1928        72 |   2  58    0    0 3b0f |    2.746       0       5       0       5     58     58      0   1917      83       2  58    03b0f a70f      8.880 "
