test,1583575953773768960,10," | 10  |   2923       5   2895       0 |   5    0      2848        47 |   1   1    0    0 1b0f |    1.342       0       5       0       5      1      1      0   2807      88       1   1    01b0f a70f      7.530 "
test,1583575953772182016,12," | 12  |   2923       5   2921       0 |   5    0      2897        24 |   1   1    0    0 1b0f |    1.373       0       5       0       5      1      1      0   2849      72       1   1    01b0f a70f      7.590 "
test,1583575953772617216,13," | 13  |   2923       5   2919       0 |   5    0      2899        20 |   1   1    0    0 1b0f |    1.373       0       5       0       5      1      1      0   2865      54       1   1    01b0f a70f      7.560 "
test,1583575953794665984,15," | 15  |   2923       5   2921       0 |   3    2      2812       109 |  11  15    1    1  c0f |    0           0       0       0       8      0      0      0   2695     226       0  15    1 c0f a70f     30.180 "
test,1583575953795407104,16," | 16  |   2923       4   2919       0 |   1    9      2819       100 |   1  41   52    0 490f |    5.004       0       2       0       2     41     41      0   2748     171       5  41    0490f a70f     30.360 "
test,1583575953776418048,17," | 17  |   2923       5   2914       5 |   1    6      2887        32 |   1  41   24    0 490f |    2.075       0       5       0       5     41     41      0   2799     120       1  41    0490f a70f      8.310 "
test,1583575953778863872,18," | 18  |   2923       5   2918       0 |   5    0      2758       160 |   1  24    0    0 2a0f |    2.044       0       5       0       5     24     24      0   2636     282       1  24    02a0f a70f      9.690 "
test,1583575953776700928,19," | 19  |   2923       5   2910       9 |   1   10      2872        47 |   2  41   52    0 490f |    2.777       0       5       0       5     41     41      0   2783     136       2  41    0490f a70f      9.030 "
test,1583575953772356096,1," |  1  |   2923       4   2920       0 |   4    0      2852        68 |   4   1    0    1 1b0f |    1.739       0       4       0       4      1      1      0   2831      89       2   1    11b0f a70f      6.510 "
test,1583575953776081920,22," | 22  |   2923       5   2917       0 |   4    1      2893        24 |   1  24   15    0 2a0f |    2.014       0       5       0       5     24     24      0   2759     158       1  24    02a0f a70f      8.940 "
test,1583575953793554944,23," | 23  |   2923       5   2861       0 |   4    7      2847        14 |   6   1   52    0 1b0f |    2.777       0       3       0       3      1      1      0   2790      71       3   1    01b0f a70f     30.390 "
test,1583575953772824064,24," | 24  |   2923       5   2917       2 |   4    0      2894        25 |   3  24    0    1 2a0f |    1.739       0       4       0       4     24     24      0   2826      93       2  24    12a0f a70f      6.510 "
test,1583575953775841024,26," | 26  |   2923       5   2917       2 |   5    0      2908        11 |   2  24    0    0 2a0f |    2.044       0       5       0       5     24     24      0   2855      64       1  24    02a0f a70f      8.280 "
test,1583575953800556032,27," | 27  |   2923       5   2921       0 |   1    4      2839        82 |   3  41   15    0 490f |    2.807       0       4       0       4     41     41      0   2715     206       2  41    0490f a70f     30.360 "
test,1583575953787808000,28," | 28  |   2923       4   2916       3 |   5    0      2693       226 |   2  15    0    0  c0f |   12.023       0       5       0       5     15     15      0   2590     329      15  15    0 c0f a70f     18.090 "
test,1583575953796144896,29," | 29  |   2923       4   2916       5 |   1    0      2599       322 |   3  41    0    0 490f |    3.540       0       4       0       4     41     41      0   2459     462       3  41    0490f a70f     30.360 "
test,1583575953786957056,30," | 30  |   2923       5   2919       0 |   5    0      2879        40 |   2  15    0    0  c0f |   11.291       0       5       0       5     15     15      0   2785     134      14  15    0 c0f a70f     17.190 "
test,1583575953786700032,35," | 35  |   2923       5   2919       0 |   5    0      2786       133 |   3  15    0    0  c0f |   11.993       0       5       0       5     15     15      0   2727     192      15  15    0 c0f a70f     17.880 "
test,1583575953796637952,40," | 40  |   2923       5   2865      50 |   5    0      2723       192 |   1  41    0    0 490f |    2.044       0       4       0       4     41     41      0   2651     264       1  41    0490f a70f     30.360 "
test,1583575953781101056,41," | 41  |   2923       5   2860      49 |   5    0      2881        28 |   2  41    0    1 490f |    1.739       0       4       0       4     41     41      0   2804     105       2  41    1490f a70f      6.510 "
test,1583575953780345088,42," | 42  |   2923       5   2867      52 |   5    0      2849        70 |   1  41    0    0 490f |    2.044       0       5       0       5     41     41      0   2776     143       1  41    0490f a70f      8.280 "
test,1583575953779653120,44," | 44  |   2923       5   2872      47 |   5    0      2848        71 |   1  41    0    0 490f |    2.075       0       5       0       5     41     41      0   2788     131       1  41    0490f a70f      8.250 "
test,1583575953779017984,45," | 45  |   2923       5   2885      34 |   5    0      2822        97 |   1  41    0    0 490f |    2.044       0       5       0       5     41     41      0   2767     152       1  41    0490f a70f      8.250 "
test,1583575953780876032,46," | 46  |   2923       5   2864      48 |   5    0      2783       129 |   1  41    0    0 490f |    2.075       0       5       0       5     41     41      0   2726     186       1  41    0490f a70f      8.280 "
test,1583575953782205184,47," | 47  |   2923       5   2872      47 |   5    0      2814       105 |   1  41    0    0 490f |    2.044       0       5       0       5     41     41      0   2751     168       1  41    0490f a70f      8.280 "
test,1583575953777515008,48," | 48  |   2923       5   2807      45 |   5    0      2781        71 |   1  41    0    0 490f |    2.044       0       5       0       5     41     41      0   2720     132       1  41    0490f a70f      8.130 "
test,1583575953786322944,49," | 49  |   2923       5   2913       0 |   5    0      2861        52 |   3   1    0    0 1b0f |    4.241       0       5       0       5      1      1      0   2832      81       5   1    01b0f a70f     10.440 "
test,1583575953771934976,51," | 51  |   2923       5   2914       0 |   5    0      2893        21 |   1   1    0    0 1b0f |    1.373       0       5       0       5      1      1      0   2883      31       1   1    01b0f a70f      7.620 "
test,1583575953793874944,52," | 52  |   2923       5   2892      23 |   0    5      2773       142 |   0  52   24    1 8a0f |    0           0       0       0       8      0      0      0   2717     198       0  52    18a0f a70f     30.150 "
test,1583575953776964864,53," | 53  |   2923       5   2897       0 |   5    0      2754       143 |   4   1    0    0 1b0f |    4.974       0       5       0       5      1      1      0   2717     180       6   1    01b0f a70f     11.160 "
test,1583575953774671104,54," | 54  |   2923       5   2915       0 |   5    0      2866        49 |   1   1    0    0 1b0f |    1.373       0       5       0       5      1      1      0   2820      95       1   1    01b0f a70f      7.590 "
test,1583575953777272832,55," | 55  |   2923       5   2902       0 |   5    0      2801       101 |   3   1    0    0 1b0f |    4.241       0       5       0       5      1      1      0   2774     128       5   1    01b0f a70f     10.410 "
test,1583575953773124096,56," | 56  |   2923       5   2905       0 |   5    0      2858        47 |   2   1    0    0 1b0f |    2.105       0       5       0       5      1      1      0   2832      73       2   1    01b0f a70f      8.280 "
test,1583575953781855232,57," | 57  |   2923       5   2860       0 |   5    0      2790        70 |   3   1    0    0 1b0f |    2.105       0       5       0       5      1      1      0   2624     236       2   1    01b0f a70f     11.790 "
test,1583575953780499968,58," | 58  |   2923       5   2914       0 |   5    0      2880        34 |   2   1    0    0 1b0f |    3.570       0       5       0       5      1      1      0   2761     153       4   1    01b0f a70f     12.540 "
test,1583575953778093056,5," |  5  |   2923       5   2921       0 |   4    3      2678       243 |   4   1   15    0 1b0f |    2.075       0       5       0       5      1      1      0   2625     296       2   1    01b0f a70f      8.250 "
test,1583575953774536960,60," | 60  |   2923       5   2914       0 |   5    0      2722       192 |   3   1    0    0 1b0f |    2.075       0       5       0       5      1      1      0   2675     239       2   1    01b0f a70f      8.250 "
test,1583575953777904896,61," | 61  |   2923       5   2913       0 |   5    0      2788       125 |   2   1    0    0 1b0f |    2.807       0       5       0       5      1      1      0   2704     209       3   1    01b0f a70f      9.750 "
test,1583575953773325824,7," |  7  |   2923       5   2920       0 |   5    0      2873        47 |   1   1    0    0 1b0f |    1.342       0       5       0       5      1      1      0   2857      63       1   1    01b0f a70f      7.560 "
test,1583575953775608064,9," |  9  |   2923       5   2919       0 |   5    0      2808       111 |   1   1    0    0 1b0f |    1.342       0       5       0       5      1      1      0   2794     125       1   1    01b0f a70f      7.530 "
