test,1583575769022334208,10," | 10  |   2184       5   2156       0 |   5    0      2125        31 |   1  13    0    0 460f |    1.983       0       5       0       5     13     13      0   2095      61       1  13    0460f a70f      9.570 "
test,1583575769025248000,12," | 12  |   2184       5   2182       0 |   5    0      2162        20 |   1  13    0    0 460f |    2.014       0       5       0       5     13     13      0   2128      54       1  13    0460f a70f      8.970 "
test,1583575769019144960,13," | 13  |   2184       5   2180       0 |   4    0      2163        17 |   2  13    0    1 460f |    1.739       0       4       0       4     13     13      0   2136      44       2  13    1460f a70f      6.510 "
test,1583575769044570880,15," | 15  |   2184       5   2182       0 |   3    1      2105        77 |   3  13   60    0 460f |    2.716       0       4       0       4     13     13      0   2017     165       2  13    0460f a70f     30.300 "
test,1583575769021159936,16," | 16  |   2184       5   2180       0 |   4    0      2103        77 |   4  16    0    1 880f |    1.770       0       4       0       4     16     16      0   2048     132       2  16    1880f a70f      6.510 "
test,1583575769024632832,17," | 17  |   2184       5   2179       1 |   5    0      2154        26 |   2  16    0    0 880f |    2.777       0       5       0       5     16     16      0   2089      91       2  16    0880f a70f      8.940 "
test,1583575769039962880,18," | 18  |   2184       5   2179       0 |   5    0      2055       124 |   2  42    0    0 dc0f |    0           0       0       0       8      0      0      0   1965     214       0  42    0dc0f a70f     30.360 "
test,1583575769042466048,19," | 19  |   2184       5   2178       2 |   5    0      2152        28 |   3  16    0    0 880f |    3.479       0       4       0       4     16     16      0   2087      93       3  16    0880f a70f     30.390 "
test,1583575769019805952,1," |  1  |   2184       4   2181       0 |   5    0      2126        55 |   1  13    0    0 460f |    2.685       0       5       0       5     13     13      0   2108      73       1  13    0460f a70f      8.820 "
test,1583575769039341056,22," | 22  |   2184       5   2178       0 |   1    0      2162        16 |  11  42    0    0 dc0f |    0           0       0       0       8      0      0      0   2061     117       0  42    0dc0f a70f     30.360 "
test,1583575769020463104,23," | 23  |   2184       5   2122       0 |   5    0      2110        12 |   1  16    0    0 880f |    2.075       0       5       0       5     16     16      0   2070      52       1  16    0880f a70f      8.280 "
test,1583575769022501888,24," | 24  |   2184       5   2180       0 |   1    5      2164        16 |   3  16   40    0 880f |    2.777       0       5       0       5     16     16      0   2118      62       2  16    0880f a70f      9.000 "
test,1583575769019345920,26," | 26  |   2184       5   2180       0 |   5    0      2171         9 |   1  16    0    0 880f |    2.014       0       5       0       5     16     16      0   2133      47       1  16    0880f a70f      8.280 "
test,1583575769029289984,27," | 27  |   2184       5   2182       0 |   5    0      2120        62 |   2  16    0    0 880f |    2.807       0       5       0       5     16     16      0   2023     159       2  16    0880f a70f      8.970 "
test,1583575769027635968,28," | 28  |   2184       5   2180       0 |   5    0      2012       168 |   2  20    0    0 750f |    2.716       0       5       0       5     20     20      0   1948     232       2  20    0750f a70f      8.850 "
test,1583575769025819904,29," | 29  |   2184       5   2178       4 |   4    0      1941       241 |   3  16    0    0 880f |    3.509       0       5       0       5     16     16      0   1830     352       3  16    0880f a70f      9.690 "
test,1583575769022038016,30," | 30  |   2184       5   2180       0 |   5    0      2151        29 |   1  20    0    0 750f |    1.983       0       5       0       5     20     20      0   2084      96       1  20    0750f a70f      8.070 "
test,1583575769022907904,35," | 35  |   2184       5   2180       0 |   5    0      2085        95 |   2  20    0    0 750f |    2.716       0       5       0       5     20     20      0   2044     136       2  20    0750f a70f      8.790 "
test,1583575769042032896,40," | 40  |   2184       5   2144      32 |   0    6      2020       156 |   0  40   42    1 ad0f |    0           0       0       0       8      0      0      0   1971     205       0  40    1ad0f a70f     30.150 "
test,1583575769041358848,41," | 41  |   2184       5   2138      32 |   1   10      2148        22 |   1  16   46    0 880f |    0           0       0       0       8      0      0      0   2093      77       0  16    0880f a70f     30.390 "
test,1583575769030508032,42," | 42  |   2184       5   2145      35 |   4    0      2127        53 |   3  42    0    1 dc0f |    1.739       0       4       0       4     42     42      0   2071     109       2  42    1dc0f a70f      6.480 "
test,1583575769026329088,44," | 44  |   2184       5   2150      30 |   5    0      2127        53 |   2  42    0    0 dc0f |    2.075       0       5       0       5     42     42      0   2076     104       1  42    0dc0f a70f      8.310 "
test,1583575769040544000,45," | 45  |   2184       5   2156      24 |   1   12      2106        74 |   1  16   46    0 880f |    0           0       0       0       8      0      0      0   2064     116       0  16    0880f a70f     30.360 "
test,1583575769042864128,46," | 46  |   2184       5   2142      31 |   0    4      2072       101 |   0  46   40    1 650f |    0           0       0       0       8      0      0      0   2030     143       0  46    1650f a70f   1994.460 "
test,1583575769015333888,47," | 47  |   2184       5   2148      32 |   5    0      2108        72 |   1  42    0    0 dc0f |    2.044       0       5       0       5     42     42      0   2055     125       1  42    0dc0f a70f      8.280 "
test,1583575769043287040,48," | 48  |   2184       5   2084      29 |   5    0      2057        56 |   1  42    0    0 dc0f |    2.746       0       4       0       4     42     42      0   2012     101       2  42    0dc0f a70f     30.360 "
test,1583575769021842944,49," | 49  |   2184       5   2174       0 |   5    0      2135        39 |   3  13    0    0 460f |    3.448       0       5       0       5     13     13      0   2115      59       3  13    0460f a70f      9.540 "
test,1583575769021434112,51," | 51  |   2184       5   2175       0 |   5    0      2161        14 |   1  13    0    0 460f |    2.746       0       5       0       5     13     13      0   2155      20       2  13    0460f a70f      8.940 "
test,1583575769041809152,52," | 52  |   2184       5   2157      19 |   4    0      2063       113 |   1  16    0    0 880f |    2.014       0       4       0       4     16     16      0   2021     155       1  16    0880f a70f     30.360 "
test,1583575769026622976,53," | 53  |   2184       5   2158       0 |   5    0      2053       105 |   4  13    0    0 460f |    4.150       0       5       0       5     13     13      0   2028     130       4  13    0460f a70f     10.350 "
test,1583575769027847168,54," | 54  |   2184       5   2176       0 |   5    0      2143        33 |   1  13    0    0 460f |    1.983       0       5       0       5     13     13      0   2104      72       1  13    0460f a70f      9.630 "
test,1583575769023791104,55," | 55  |   2184       5   2163       0 |   5    0      2091        72 |   3  13    0    0 460f |    3.479       0       5       0       5     13     13      0   2074      89       3  13    0460f a70f      9.630 "
test,1583575769023577088,56," | 56  |   2184       5   2166       0 |   5    0      2129        37 |   1  13    0    0 460f |    2.716       0       5       0       5     13     13      0   2113      53       2  13    0460f a70f      9.660 "
test,1583575769039705088,57," | 57  |   2184       5   2121       0 |   1    1      2066        55 |  12  42   60    0 dc0f |    0           0       0       0       8      0      0      0   1945     176       0  42    0dc0f a70f     30.360 "
test,1583575769021612032,58," | 58  |   2184       5   2175       0 |   5    0      2148        27 |   2  13    0    0 460f |    2.746       0       5       0       5     13     13      0   2061     114       2  13    0460f a70f      8.850 "
test,1583575769019639040,5," |  5  |   2184       5   2182       0 |   5    0      1995       187 |   1  13    0    0 460f |    2.014       0       5       0       5     13     13      0   1955     227       1  13    0460f a70f      8.070 "
test,1583575769039064832,60," | 60  |   2184       5   2175       0 |   0    2      2029       146 |   0  60   13    1 190f |    0           0       0       0       8      0      0      0   1998     177       0  60    1190f a70f     30.240 "
test,1583575769022706944,61," | 61  |   2184       5   2174       0 |   5    0      2081        93 |   2  13    0    0 460f |    2.716       0       5       0       5     13     13      0   2022     152       2  13    0460f a70f      9.660 "
test,1583575769020008960,7," |  7  |   2184       5   2181       0 |   5    0      2146        35 |   1  13    0    0 460f |    2.014       0       5       0       5     13     13      0   2133      48       1  13    0460f a70f      8.250 "
test,1583575769020793856,9," |  9  |   2184       5   2180       0 |   5    0      2099        81 |   1  13    0    0 460f |    1.983       0       5       0       5     13     13      0   2087      93       1  13    0460f a70f      8.940 "
