test,1583575852792884992,10," | 10  |   2519       5   2491       0 |   5    0      2451        40 |   6   9    0    0  a0f |    2.014       0       4       0       4      9      9      0   2418      73       1   9    0 a0f a70f     30.390 "
test,1583575852776128000,12," | 12  |   2519       5   2517       0 |   3    9      2496        21 |  11  12    9    1 1c0f |    8.117       0       4       0       4     12     12      0   2457      60      11  12    11c0f a70f     14.160 "
test,1583575852770680832,13," | 13  |   2519       5   2515       0 |   5    0      2496        19 |   5   9    0    0  a0f |    2.014       0       5       0       5      9      9      0   2465      50       1   9    0 a0f a70f      8.250 "
test,1583575852773305856,15," | 15  |   2519       5   2517       0 |   5    0      2426        91 |   1  12    0    0 1c0f |    2.044       0       5       0       5     12     12      0   2324     193       1  12    01c0f a70f     10.200 "
test,1583575852770908160,16," | 16  |   2519       5   2515       0 |   4    0      2429        86 |   4  16    0    1 250f |    1.770       0       4       0       4     16     16      0   2367     148       2  16    1250f a70f      6.510 "
test,1583575852775897088,17," | 17  |   2519       5   2511       4 |   5    0      2484        31 |   2  16    0    0 250f |    3.448       0       5       0       5     16     16      0   2407     108       3  16    0250f a70f      9.570 "
test,1583575852793634816,18," | 18  |   2519       5   2514       0 |   5    0      2373       141 |   1  24    0    0 ad0f |    2.014       0       2       0       2     24     24      0   2261     253       1  24    0ad0f a70f     30.360 "
test,1583575852774139904,19," | 19  |   2519       5   2509       6 |   5    0      2477        38 |   3  16    0    0 250f |    2.746       0       5       0       5     16     16      0   2398     117       2  16    0250f a70f      8.940 "
test,1583575852770178048,1," |  1  |   2519       4   2516       0 |   5    0      2455        61 |   4   9    0    0  a0f |    2.716       0       5       0       5      9      9      0   2435      81       1   9    0 a0f a70f      8.940 "
test,1583575852794301952,22," | 22  |   2519       5   2513       0 |   5    1      2492        21 |   1  24   16    0 ad0f |    2.014       0       2       0       2     24     24      0   2371     142       1  24    0ad0f a70f     30.360 "
test,1583575852771789056,23," | 23  |   2519       5   2457       0 |   5    0      2444        13 |   1  16    0    0 250f |    1.983       0       5       0       5     16     16      0   2398      59       1  16    0250f a70f      8.970 "
test,1583575852792224768,24," | 24  |   2519       5   2513       2 |   4    0      2492        23 |   8  24    0    1 ad0f |    1.770       0       1       0       1     24     24      0   2432      83       2  24    1ad0f a70f     30.300 "
test,1583575852791919104,26," | 26  |   2519       5   2513       2 |   5    0      2506         9 |   7  24    0    0 ad0f |    2.014       0       2       0       2     24     24      0   2458      57       1  24    0ad0f a70f     30.330 "
test,1583575852778491136,27," | 27  |   2519       5   2517       0 |   5    0      2445        72 |   2  16    0    0 250f |    2.746       0       5       0       5     16     16      0   2336     181       2  16    0250f a70f      8.910 "
test,1583575852796253952,28," | 28  |   2519       5   2513       2 |   5    1      2317       198 |   3  24   16    0 ad0f |    3.448       0       1       0       1     24     24      0   2231     284       3  24    0ad0f a70f     30.390 "
test,1583575852796443904,29," | 29  |   2519       3   2513       4 |   5    0      2240       277 |   3  16    0    0 250f |    3.479       0       1       0       1     16     16      0   2115     402       3  16    0250f a70f     30.390 "
test,1583575852795424000,30," | 30  |   2519       5   2515       0 |   5    0      2481        34 |   2  24    0    0 ad0f |    2.746       0       1       0       1     24     24      0   2399     116       2  24    0ad0f a70f     30.360 "
test,1583575852794838784,35," | 35  |   2519       5   2515       0 |   5    0      2405       110 |   2  24    0    0 ad0f |    2.716       0       1       0       1     24     24      0   2354     161       2  24    0ad0f a70f     30.360 "
test,1583575852777831936,40," | 40  |   2519       4   2479      32 |   3    0      2341       170 |   6  16    0    0 250f |    2.746       0       5       0       5     16     16      0   2279     232       2  16    0250f a70f     11.070 "
test,1583575852777102080,41," | 41  |   2519       5   2473      32 |   5    0      2481        24 |   1  16    0    0 250f |    2.014       0       5       0       5     16     16      0   2415      90       1  16    0250f a70f      8.100 "
test,1583575852775693824,42," | 42  |   2519       5   2480      35 |   5    0      2458        57 |   3  16    0    0 250f |    2.716       0       5       0       5     16     16      0   2393     122       2  16    0250f a70f      9.600 "
test,1583575852777998848,44," | 44  |   2519       5   2485      30 |   5    0      2454        61 |   3  16    0    0 250f |    2.746       0       5       0       5     16     16      0   2400     115       2  16    0250f a70f      9.690 "
test,1583575852766324992,45," | 45  |   2519       5   2491      24 |   5    0      2432        83 |   1  16    0    0 250f |    2.014       0       5       0       5     16     16      0   2384     131       1  16    0250f a70f      8.130 "
test,1583575852780119808,46," | 46  |   2519       5   2477      31 |   5    0      2396       112 |   2  16    0    0 250f |    2.716       0       5       0       5     16     16      0   2346     162       2  16    0250f a70f      8.790 "
test,1583575852773627904,47," | 47  |   2519       5   2483      32 |   5    0      2428        87 |   2  16    0    0 250f |    2.746       0       5       0       5     16     16      0   2368     147       2  16    0250f a70f      8.850 "
test,1583575852776390144,48," | 48  |   2519       5   2419      29 |   5    0      2388        60 |   2  16    0    0 250f |    2.746       0       5       0       5     16     16      0   2337     111       2  16    0250f a70f     10.410 "
test,1583575852778744832,49," | 49  |   2519       5   2509       0 |   5    0      2466        43 |   2  12    0    0 1c0f |   12.084       0       5       0       5     12     12      0   2441      68      15  12    01c0f a70f     18.030 "
test,1583575852774393088,51," | 51  |   2519       5   2510       0 |   5    0      2493        17 |   3  16    0    0 250f |    4.180       0       5       0       5     16     16      0   2484      26       4  16    0250f a70f     10.260 "
test,1583575852793932800,52," | 52  |   2519       5   2490      21 |   4    4      2385       126 |   1  16   24    0 250f |    4.943       0       3       0       3     16     16      0   2337     174       5  16    0250f a70f     30.360 "
test,1583575852782469888,53," | 53  |   2519       5   2493       0 |   5    0      2368       125 |   3  12    0    0 1c0f |   12.756       0       5       0       5     12     12      0   2337     156      16  12    01c0f a70f     18.720 "
test,1583575852771133952,54," | 54  |   2519       5   2511       0 |   5    0      2468        43 |   5   9    0    0  a0f |    2.014       0       5       0       5      9      9      0   2424      87       1   9    0 a0f a70f      8.220 "
test,1583575852784146944,55," | 55  |   2519       5   2498       0 |   5    0      2412        86 |   2  12    0    0 1c0f |   12.054       0       5       0       5     12     12      0   2390     108      15  12    01c0f a70f     17.940 "
test,1583575852772773888,56," | 56  |   2519       5   2501       0 |   5    0      2457        44 |   4  16    0    0 250f |    3.448       0       5       0       5     16     16      0   2436      65       3  16    0250f a70f      9.630 "
test,1583575852776788992,57," | 57  |   2519       5   2456       0 |   4    3      2394        62 |   2  16   12    0 250f |    2.746       0       5       0       5     16     16      0   2251     205       2  16    0250f a70f     10.410 "
test,1583575852784625920,58," | 58  |   2519       5   2510       0 |   5    2      2481        29 |   1  12    9    0 1c0f |   11.352       0       5       0       5     12     12      0   2376     134      14  12    01c0f a70f     17.250 "
test,1583575852775304192,5," |  5  |   2519       5   2517       0 |   5    5      2309       208 |   1  12    9    0 1c0f |    2.044       0       5       0       5     12     12      0   2265     252       1  12    01c0f a70f     11.610 "
test,1583575852775031040,60," | 60  |   2519       5   2510       0 |   5    0      2349       161 |   4  16    0    0 250f |    3.448       0       5       0       5     16     16      0   2308     202       3  16    0250f a70f      9.600 "
test,1583575852779738880,61," | 61  |   2519       5   2509       0 |   5    5      2402       107 |   2  12    9    0 1c0f |   12.023       0       5       0       5     12     12      0   2327     182      15  12    01c0f a70f     18.090 "
test,1583575852791051008,7," |  7  |   2519       5   2516       0 |   5    0      2477        39 |   5   9    0    0  a0f |    2.777       0       4       0       4      9      9      0   2464      52       2   9    0 a0f a70f     30.330 "
test,1583575852770375936,9," |  9  |   2519       5   2515       0 |   4    0      2418        97 |   5   9    0    1  a0f |    1.739       0       4       0       4      9      9      0   2405     110       2   9    1 a0f a70f      6.510 "
