test,1583575295262128128,10," | 10  |    289       5    261       0 |   5    0       257         4 |   1   9    0    0 570f |    2.044       0       5       0       5      9      9      0    253       8       1   9    0570f a70f      8.160 "
test,1583575295258343936,12," | 12  |    289       5    287       0 |   5    0       285         2 |   2   9    0    0 570f |    2.014       0       5       0       5      9      9      0    280       7       1   9    0570f a70f      8.070 "
test,1583575295259918080,13," | 13  |    289       5    285       0 |   5    0       280         5 |   2   9    0    0 570f |    1.953       0       5       0       5      9      9      0    274      11       1   9    0570f a70f      8.100 "
test,1583575295261135104,15," | 15  |    289       5    287       0 |   5    0       277        10 |   2   9    0    0 570f |    2.685       0       5       0       5      9      9      0    267      20       2   9    0570f a70f      8.760 "
test,1583575295261966080,16," | 16  |    289       5    285       0 |   5    0       276         9 |   2  17    0    0  60f |    2.716       0       5       0       5     17     17      0    273      12       2  17    0 60f a70f      8.940 "
test,1583575295260375040,17," | 17  |    289       5    285       0 |   4    0       282         3 |   4  17    0    1  60f |    1.739       0       4       0       4     17     17      0    273      12       2  17    1 60f a70f      7.230 "
test,1583575295279812096,18," | 18  |    289       5    284       0 |   0    3       263        21 |   0  18   17    1 d20f |    0           0       0       0       8      0      0      0    251      33       0  18    1d20f a70f     30.270 "
test,1583575295259581952,19," | 19  |    289       5    284       1 |   5    0       282         3 |   1  17    0    0  60f |    1.983       0       5       0       5     17     17      0    274      11       1  17    0 60f a70f      8.850 "
test,1583575295258158848,1," |  1  |    289       4    286       0 |   5    0       280         6 |   1   9    0    0 570f |    2.685       0       5       0       5      9      9      0    277       9       1   9    0570f a70f      8.850 "
test,1583575295280894976,22," | 22  |    289       5    283       0 |   3    4       281         2 |   5  17   30    0  60f |    2.716       0       4       0       4     17     17      0    270      13       2  17    0 60f a70f     30.270 "
test,1583575295262545152,23," | 23  |    289       5    227       0 |   5    0       225         2 |   1  17    0    0  60f |    1.953       0       5       0       5     17     17      0    225       2       1  17    0 60f a70f      8.190 "
test,1583575295260576000,24," | 24  |    289       5    285       0 |   5    0       283         2 |   1  17    0    0  60f |    2.746       0       5       0       5     17     17      0    278       7       2  17    0 60f a70f      8.940 "
test,1583575295259400960,26," | 26  |    289       5    285       0 |   5    0       283         2 |   1  17    0    0  60f |    2.014       0       5       0       5     17     17      0    277       8       1  17    0 60f a70f      8.250 "
test,1583575295261662976,27," | 27  |    289       5    287       0 |   5    0       279         8 |   1  17    0    0  60f |    2.044       0       5       0       5     17     17      0    267      20       1  17    0 60f a70f      8.850 "
test,1583575295281649152,28," | 28  |    289       5    285       0 |   5    0       265        20 |   1  17    0    0  60f |    7.110       0       3       0       3     17     17      0    257      28       8  17    0 60f a70f     30.300 "
test,1583575295281299968,29," | 29  |    289       5    285       2 |   3    0       257        30 |   5  17    0    0  60f |    4.211       0       2       0       2     17     17      0    243      44       4  17    0 60f a70f     30.270 "
test,1583575295257442048,30," | 30  |    289       5    285       0 |   4    4       283         2 |   8  30   17    1 e80f |    1.739       0       4       0       4     30     30      0    276       9       2  30    1e80f a70f      6.510 "
test,1583575295265379072,35," | 35  |    289       5    285       0 |   5    2       273        12 |   1  30   17    0 e80f |    2.044       0       5       0       5     30     30      0    270      15       1  30    0e80f a70f      8.310 "
test,1583575295267868928,40," | 40  |    289       5    273       8 |   5    0       254        27 |   2  17    0    0  60f |    3.479       0       5       0       5     17     17      0    246      35       3  17    0 60f a70f     11.160 "
test,1583575295258827008,41," | 41  |    289       5    266       9 |   5    0       273         2 |   1  17    0    0  60f |    3.448       0       5       0       5     17     17      0    268       7       3  17    0 60f a70f     11.010 "
test,1583575295264487936,42," | 42  |    289       5    275      10 |   5    0       274        11 |   2  17    0    0  60f |    3.448       0       5       0       5     17     17      0    268      17       3  17    0 60f a70f     10.290 "
test,1583575295273466112,44," | 44  |    289       5    276       9 |   5    0       281         4 |   2  17    0    0  60f |    2.746       0       5       0       5     17     17      0    274      11       2  17    0 60f a70f      9.000 "
test,1583575295265701888,45," | 45  |    289       5    278       7 |   5    0       266        19 |   2  17    0    0  60f |    3.479       0       5       0       5     17     17      0    262      23       3  17    0 60f a70f      9.660 "
test,1583575295263143936,46," | 46  |    289       5    269       9 |   5    0       270         8 |   2  17    0    0  60f |    3.509       0       5       0       5     17     17      0    265      13       3  17    0 60f a70f     11.040 "
test,1583575295264264192,47," | 47  |    289       5    276       9 |   4    3       276         9 |   2  17   18    0  60f |    3.479       0       5       0       5     17     17      0    273      12       3  17    0 60f a70f     11.010 "
test,1583575295266285056,48," | 48  |    289       5    211       7 |   5    0       209         9 |   2  17    0    0  60f |    3.479       0       5       0       5     17     17      0    204      14       3  17    0 60f a70f     10.380 "
test,1583575295261307904,49," | 49  |    289       5    279       0 |   5    0       275         4 |   3   9    0    0 570f |    3.479       0       5       0       5      9      9      0    275       4       3   9    0570f a70f      9.660 "
test,1583575295268192000,51," | 51  |    289       5    280       0 |   5    0       278         2 |   2   9    0    0 570f |    2.716       0       5       0       5      9      9      0    278       2       2   9    0570f a70f      8.790 "
test,1583575295264000768,52," | 52  |    289       5    277       4 |   5    0       267        14 |   2  17    0    0  60f |    2.685       0       5       0       5     17     17      0    260      21       2  17    0 60f a70f      8.790 "
test,1583575295262929920,53," | 53  |    289       5    263       0 |   5    0       250        13 |   4   9    0    0 570f |    4.180       0       5       0       5      9      9      0    250      13       4   9    0570f a70f     10.230 "
test,1583575295263561984,54," | 54  |    289       5    281       0 |   5    0       280         1 |   1   9    0    0 570f |    1.983       0       5       0       5      9      9      0    272       9       1   9    0570f a70f      8.040 "
test,1583575295265083904,55," | 55  |    289       5    268       0 |   5    0       257        11 |   3   9    0    0 570f |    3.479       0       5       0       5      9      9      0    257      11       3   9    0570f a70f      9.690 "
test,1583575295261476096,56," | 56  |    289       5    271       0 |   5    0       262         9 |   2   9    0    0 570f |    2.716       0       5       0       5      9      9      0    260      11       2   9    0570f a70f      8.910 "
test,1583575295263730176,57," | 57  |    289       5    226       0 |   5    0       216        10 |   5   9    0    0 570f |    3.448       0       5       0       5      9      9      0    205      21       3   9    0570f a70f      9.660 "
test,1583575295260186880,58," | 58  |    289       5    280       0 |   5    0       276         4 |   2   9    0    0 570f |    2.716       0       5       0       5      9      9      0    271       9       2   9    0570f a70f      9.660 "
test,1583575295265882112,5," |  5  |    289       5    287       0 |   5    0       265        22 |   3   9    0    0 570f |    2.746       0       5       0       5      9      9      0    258      29       2   9    0570f a70f      8.940 "
test,1583575295272005120,60," | 60  |    289       5    280       0 |   5    0       266        14 |   3   9    0    0 570f |    3.448       0       5       0       5      9      9      0    263      17       3   9    0570f a70f      9.660 "
test,1583575295267205120,61," | 61  |    289       5    279       0 |   5    0       269        10 |   2   9    0    0 570f |    2.716       0       5       0       5      9      9      0    261      18       2   9    0570f a70f      9.660 "
test,1583575295257741824,7," |  7  |    289       5    286       0 |   5    0       281         5 |   1   9    0    0 570f |    2.014       0       5       0       5      9      9      0    281       5       1   9    0570f a70f      8.160 "
test,1583575295263333120,9," |  9  |    289       5    285       0 |   4    0       275        10 |   2   9    0    1 570f |    1.739       0       4       0       4      9      9      0    274      11       2   9    1570f a70f      6.480 "
