test,1583575788038310144,10," | 10  |   2260       5   2232       0 |   5    8      2200        32 |   1  56    9    0 190f |    0           0       0       0       8      0      0      0   2168      64       0  56    0190f a70f     30.390 "
test,1583575788025378048,12," | 12  |   2260       5   2258       0 |   5   10      2238        20 |   1  15   56    0 6b0f |    2.044       0       5       0       5     15     15      0   2202      56       1  15    06b0f a70f     12.600 "
test,1583575788020055040,13," | 13  |   2260       5   2256       0 |   5    0      2238        18 |   2   9    0    0 2c0f |    2.044       0       5       0       5      9      9      0   2210      46       1   9    02c0f a70f      8.130 "
test,1583575788026351872,15," | 15  |   2260       5   2258       0 |   4    0      2180        78 |  23  15    0    1 6b0f |    1.739       0       4       0       4     15     15      0   2088     170       2  15    16b0f a70f     10.800 "
test,1583575788042150912,16," | 16  |   2260       5   2256       0 |   5    0      2178        78 |   1  41    0    0 8a0f |    2.014       0       4       0       4     41     41      0   2122     134       1  41    08a0f a70f     30.240 "
test,1583575788044250112,17," | 17  |   2260       5   2255       1 |   2    7      2229        27 |   7  41   15    0 8a0f |    2.044       0       2       0       2     41     41      0   2164      92       1  41    08a0f a70f     30.270 "
test,1583575788041555968,18," | 18  |   2260       5   2255       0 |   0    6      2124       131 |   0  18   56    1 da0f |    0           0       0       0       8      0      0      0   2031     224       0  18    1da0f a70f     30.180 "
test,1583575788042639872,19," | 19  |   2260       5   2254       2 |   4    4      2228        28 |   4  56   15    0 190f |    7.873       0       4       0       4     56     56      0   2163      93       9  56    0190f a70f     30.270 "
test,1583575788020503040,1," |  1  |   2260       4   2257       0 |   5    0      2201        56 |   1   9    0    0 2c0f |    2.716       0       5       0       5      9      9      0   2182      75       1   9    02c0f a70f      8.970 "
test,1583575788042802944,22," | 22  |   2260       5   2254       0 |   5    0      2238        16 |   4  56    0    0 190f |    7.110       0       4       0       4     56     56      0   2133     121       8  56    0190f a70f     30.330 "
test,1583575788041134080,23," | 23  |   2260       5   2198       0 |   5    0      2186        12 |   2  56    0    0 190f |    5.676       0       4       0       4     56     56      0   2145      53       6  56    0190f a70f     30.390 "
test,1583575788032377856,24," | 24  |   2260       5   2256       0 |   5    0      2237        19 |   3  56    0    0 190f |    6.378       0       5       0       5     56     56      0   2190      66       7  56    0190f a70f     12.450 "
test,1583575788027892224,26," | 26  |   2260       5   2256       0 |   5    0      2247         9 |   2  56    0    0 190f |    5.676       0       5       0       5     56     56      0   2209      47       6  56    0190f a70f     11.850 "
test,1583575788043411968,27," | 27  |   2260       5   2258       0 |   5    4      2196        62 |   1  15   56    0 6b0f |    3.509       0       2       0       2     15     15      0   2097     161       3  15    06b0f a70f     30.300 "
test,1583575788026514944,28," | 28  |   2260       5   2256       0 |   5    0      2078       178 |   3  15    0    0 6b0f |    6.408       0       5       0       5     15     15      0   2009     247       7  15    06b0f a70f     12.390 "
test,1583575788041935872,29," | 29  |   2260       3   2254       4 |   0    5      2010       248 |   0  29   15    1 790f |    0           0       0       0       8      0      0      0   1898     360       0  29    1790f a70f     30.180 "
test,1583575788036222976,30," | 30  |   2260       5   2256       0 |   5    0      2227        29 |   2  15    0    0 6b0f |    5.676       0       5       0       5     15     15      0   2156     100       6  15    06b0f a70f     11.700 "
test,1583575788025937920,35," | 35  |   2260       5   2256       0 |   5    0      2156       100 |   3  15    0    0 6b0f |    6.347       0       5       0       5     15     15      0   2115     141       7  15    06b0f a70f     12.480 "
test,1583575788023604992,40," | 40  |   2260       5   2220      32 |   5    0      2095       157 |   1  41    0    0 8a0f |    1.983       0       5       0       5     41     41      0   2043     209       1  41    08a0f a70f      8.910 "
test,1583575788022219776,41," | 41  |   2260       5   2214      32 |   5    0      2224        22 |   2  41    0    1 8a0f |    1.739       0       4       0       4     41     41      0   2164      82       2  41    18a0f a70f      7.200 "
test,1583575788030777856,42," | 42  |   2260       5   2221      35 |   5    0      2203        53 |   1  41    0    0 8a0f |    2.044       0       5       0       5     41     41      0   2143     113       1  41    08a0f a70f      8.970 "
test,1583575788027729920,44," | 44  |   2260       5   2226      30 |   5    0      2201        55 |   1  41    0    0 8a0f |    2.014       0       5       0       5     41     41      0   2149     107       1  41    08a0f a70f      8.190 "
test,1583575788022440960,45," | 45  |   2260       5   2232      24 |   5    0      2179        77 |   1  41    0    0 8a0f |    2.014       0       5       0       5     41     41      0   2134     122       1  41    08a0f a70f      8.940 "
test,1583575788030342144,46," | 46  |   2260       5   2218      31 |   5    0      2148       101 |   1  41    0    0 8a0f |    2.014       0       5       0       5     41     41      0   2103     146       1  41    08a0f a70f      9.000 "
test,1583575788022622208,47," | 47  |   2260       5   2224      32 |   5    0      2181        75 |   1  41    0    0 8a0f |    2.014       0       5       0       5     41     41      0   2125     131       1  41    08a0f a70f      8.250 "
test,1583575788024380928,48," | 48  |   2260       5   2160      29 |   5    0      2131        58 |   1  41    0    0 8a0f |    1.983       0       5       0       5     41     41      0   2084     105       1  41    08a0f a70f      8.220 "
test,1583575788021102848,49," | 49  |   2260       5   2250       0 |   5    0      2210        40 |   4  53    0    0 7c0f |    2.044       0       5       0       5     53     53      0   2190      60       1  53    07c0f a70f      8.250 "
test,1583575788019525120,51," | 51  |   2260       5   2251       0 |   5    1      2236        15 |   1  56    9    0 190f |    2.044       0       5       0       5     56     56      0   2230      21       1  56    0190f a70f      8.130 "
test,1583575788028881152,52," | 52  |   2260       5   2232      20 |   5    0      2138       114 |   2  56    0    0 190f |    5.645       0       5       0       5     56     56      0   2096     156       6  56    0190f a70f     11.790 "
test,1583575788027479808,53," | 53  |   2260       5   2234       0 |   4    0      2127       107 |   5  53    0    1 7c0f |    1.739       0       4       0       4     53     53      0   2102     132       2  53    17c0f a70f      6.480 "
test,1583575788019804928,54," | 54  |   2260       5   2252       0 |   5    0      2219        33 |   2   9    0    0 2c0f |    2.014       0       5       0       5      9      9      0   2179      73       1   9    02c0f a70f      8.220 "
test,1583575788020941056,55," | 55  |   2260       5   2239       0 |   5    0      2164        75 |   4  53    0    0 7c0f |    2.075       0       5       0       5     53     53      0   2147      92       1  53    07c0f a70f      8.220 "
test,1583575788028233984,56," | 56  |   2260       5   2242       0 |   4    0      2205        37 |  15  56    0    1 190f |    1.739       0       4       0       4     56     56      0   2187      55       2  56    1190f a70f      6.480 "
test,1583575788026149120,57," | 57  |   2260       5   2197       0 |   5    0      2139        58 |   1  56    0    0 190f |    2.014       0       5       0       5     56     56      0   2015     182       1  56    0190f a70f     11.040 "
test,1583575788041348096,58," | 58  |   2260       5   2251       0 |   0   12      2223        28 |   0  58   53    1 560f |    0           0       0       0       8      0      0      0   2134     117       0  58    1560f a70f     30.270 "
test,1583575788024668928,5," |  5  |   2260       5   2258       0 |   5    4      2064       194 |   1  15    9    0 6b0f |    2.044       0       5       0       5     15     15      0   2022     236       1  15    06b0f a70f     12.570 "
test,1583575788021817088,60," | 60  |   2260       5   2251       0 |   5    0      2102       149 |   2  56    0    0 190f |    2.746       0       5       0       5     56     56      0   2067     184       2  56    0190f a70f      8.940 "
test,1583575788042382848,61," | 61  |   2260       5   2250       0 |   2    8      2154        96 |   9   9   58    0 2c0f |    2.807       0       2       0       2      9      9      0   2093     157       2   9    02c0f a70f     30.330 "
test,1583575788020229120,7," |  7  |   2260       5   2257       0 |   5    0      2221        36 |   2   9    0    0 2c0f |    2.044       0       5       0       5      9      9      0   2209      48       1   9    02c0f a70f      8.130 "
test,1583575788018596864,9," |  9  |   2260       5   2256       0 |   5    0      2171        85 |   2   9    0    1 2c0f |    1.770       0       4       0       4      9      9      0   2159      97       2   9    12c0f a70f      6.510 "
