test,1583575873290607872,10," | 10  |   2601       5   2573       0 |   1   17      2530        43 |   1  56    9    0 b10f |    0           0       0       0       8      0      0      0   2494      79       0  56    0b10f a70f     30.390 "
test,1583575873275283968,12," | 12  |   2601       5   2599       0 |   4    0      2578        21 |   2  12    0    1 e10f |    1.739       0       4       0       4     12     12      0   2538      61       2  12    1e10f a70f      6.510 "
test,1583575873290822912,13," | 13  |   2601       5   2597       0 |   1   11      2577        20 |   1  56   19    0 b10f |    0           0       0       0       8      0      0      0   2545      52       0  56    0b10f a70f     30.390 "
test,1583575873272794112,15," | 15  |   2601       5   2599       0 |   5    0      2504        95 |   1  12    0    0 e10f |    2.014       0       5       0       5     12     12      0   2397     202       1  12    0e10f a70f      8.250 "
test,1583575873278234880,16," | 16  |   2601       5   2597       0 |   5    0      2508        89 |   2  19    0    0 d00f |    2.746       0       5       0       5     19     19      0   2442     155       2  19    0d00f a70f     12.390 "
test,1583575873272374016,17," | 17  |   2601       5   2592       5 |   5    0      2565        32 |   1  19    0    0 d00f |    2.044       0       5       0       5     19     19      0   2485     112       1  19    0d00f a70f      8.220 "
test,1583575873277559040,18," | 18  |   2601       5   2596       0 |   5    0      2448       148 |   2  19    0    0 d00f |    3.417       0       5       0       5     19     19      0   2333     263       3  19    0d00f a70f     10.320 "
test,1583575873273186816,19," | 19  |   2601       5   2589       8 |   4    0      2557        40 |   4  19    0    1 d00f |    1.770       0       4       0       4     19     19      0   2473     124       2  19    1d00f a70f      7.230 "
test,1583575873292781056,1," |  1  |   2601       4   2598       0 |   5    0      2537        61 |   6  19    0    0 d00f |    6.347       0       1       0       1     19     19      0   2516      82       6  19    0d00f a70f     30.390 "
test,1583575873275588096,22," | 22  |   2601       5   2595       0 |   5    0      2573        22 |   3  19    0    0 d00f |    2.746       0       5       0       5     19     19      0   2448     147       2  19    0d00f a70f     10.410 "
test,1583575873272567040,23," | 23  |   2601       5   2539       0 |   5    0      2526        13 |   1  19    0    0 d00f |    2.014       0       5       0       5     19     19      0   2475      64       1  19    0d00f a70f      8.130 "
test,1583575873273392896,24," | 24  |   2601       5   2595       2 |   5    0      2573        24 |   2  19    0    0 d00f |    3.479       0       5       0       5     19     19      0   2511      86       3  19    0d00f a70f      9.690 "
test,1583575873275084032,26," | 26  |   2601       5   2595       2 |   5    0      2587        10 |   1  19    0    0 d00f |    2.746       0       5       0       5     19     19      0   2537      60       2  19    0d00f a70f      8.970 "
test,1583575873273825024,27," | 27  |   2601       5   2599       0 |   5    0      2527        72 |   1  19    0    0 d00f |    2.746       0       5       0       5     19     19      0   2413     186       2  19    0d00f a70f      8.970 "
test,1583575873295144192,28," | 28  |   2601       5   2594       3 |   5    6      2392       205 |   1  30   19    0 a40f |    2.014       0       4       0       4     30     30      0   2303     294       1  30    0a40f a70f     30.390 "
test,1583575873295670016,29," | 29  |   2601       4   2595       4 |   2    0      2310       289 |   1  19    0    0 d00f |    6.408       0       3       0       3     19     19      0   2182     417       7  19    0d00f a70f     30.330 "
test,1583575873271766784,30," | 30  |   2601       5   2597       0 |   4    4      2561        36 |   5  30   19    1 a40f |    1.739       0       4       0       4     30     30      0   2478     119       2  30    1a40f a70f      6.480 "
test,1583575873271353088,35," | 35  |   2601       5   2597       0 |   5    5      2478       119 |   1  30   19    0 a40f |    2.014       0       5       0       5     30     30      0   2426     171       1  30    0a40f a70f      8.220 "
test,1583575873292370944,40," | 40  |   2601       5   2561      32 |   5    0      2421       172 |   2  42    0    0 4b0f |    0           0       0       0       8      0      0      0   2357     236       0  42    04b0f a70f     30.360 "
test,1583575873295886080,41," | 41  |   2601       5   2555      32 |   5    0      2561        26 |   1  42    0    0 4b0f |    2.044       0       3       0       3     42     42      0   2494      93       1  42    04b0f a70f     30.330 "
test,1583575873298435072,42," | 42  |   2601       5   2562      35 |   4    0      2539        58 |   2  42    0    1 4b0f |    1.770       0       2       0       2     42     42      0   2474     123       2  42    14b0f a70f     30.300 "
test,1583575873278878976,44," | 44  |   2601       5   2567      30 |   5    0      2534        63 |   2  19    0    0 d00f |    6.408       0       5       0       5     19     19      0   2480     117       7  19    0d00f a70f     12.600 "
test,1583575873277764096,45," | 45  |   2601       5   2573      24 |   5    0      2509        88 |   3  19    0    0 d00f |    7.110       0       5       0       5     19     19      0   2462     135       8  19    0d00f a70f     13.230 "
test,1583575873295304960,46," | 46  |   2601       5   2559      31 |   5    0      2475       115 |   1  42    0    0 4b0f |    2.014       0       3       0       3     42     42      0   2425     165       1  42    04b0f a70f     30.390 "
test,1583575873296155904,47," | 47  |   2601       5   2565      32 |   5    0      2505        92 |   1  42    0    0 4b0f |    2.075       0       3       0       3     42     42      0   2445     152       1  42    04b0f a70f     30.330 "
test,1583575873294922240,48," | 48  |   2601       5   2501      29 |   3    0      2469        61 |   2  42    0    0 4b0f |    2.044       0       3       0       3     42     42      0   2417     113       1  42    04b0f a70f     30.360 "
test,1583575873270914048,49," | 49  |   2601       5   2591       0 |   5    0      2547        44 |   1  53    0    0 9b0f |    2.014       0       5       0       5     53     53      0   2520      71       1  53    09b0f a70f      8.220 "
test,1583575873292598016,51," | 51  |   2601       5   2592       0 |   5    0      2574        18 |   5  19    0    0 d00f |    3.448       0       4       0       4     19     19      0   2565      27       3  19    0d00f a70f     30.360 "
test,1583575873268235008,52," | 52  |   2601       5   2572      21 |   5    0      2464       129 |   1  19    0    0 d00f |    1.983       0       5       0       5     19     19      0   2414     179       1  19    0d00f a70f      8.190 "
test,1583575873271112960,53," | 53  |   2601       5   2575       0 |   4    0      2448       127 |   2  53    0    1 9b0f |    1.739       0       4       0       4     53     53      0   2416     159       2  53    19b0f a70f      6.480 "
test,1583575873293945088,54," | 54  |   2601       5   2593       0 |   5    0      2550        43 |   7  19    0    0 d00f |    5.676       0       1       0       1     19     19      0   2505      88       6  19    0d00f a70f     30.360 "
test,1583575873271933184,55," | 55  |   2601       5   2580       0 |   5    0      2493        87 |   1  53    0    0 9b0f |    2.044       0       5       0       5     53     53      0   2469     111       1  53    09b0f a70f      8.250 "
test,1583575873289110784,56," | 56  |   2601       5   2583       0 |   0   12      2538        45 |   0  56   19    1 b10f |    0           0       0       0       8      0      0      0   2517      66       0  56    1b10f a70f     30.240 "
test,1583575873276225024,57," | 57  |   2601       5   2538       0 |   5    0      2472        66 |   2  19    0    0 d00f |    2.746       0       5       0       5     19     19      0   2321     217       2  19    0d00f a70f      8.940 "
test,1583575873293739008,58," | 58  |   2601       5   2592       0 |   5    0      2562        30 |   7  19    0    0 d00f |    3.479       0       3       0       3     19     19      0   2450     142       3  19    0d00f a70f     30.390 "
test,1583575873294214912,5," |  5  |   2601       5   2599       0 |   0    7      2379       220 |   0   5   12    1 d30f |    0           0       0       0       8      0      0      0   2333     266       0   5    1d30f a70f     30.180 "
test,1583575873277081856,60," | 60  |   2601       5   2592       0 |   5    0      2426       166 |   3  19    0    0 d00f |    3.479       0       5       0       5     19     19      0   2384     208       3  19    0d00f a70f      9.720 "
test,1583575873296654080,61," | 61  |   2601       5   2591       0 |   5    0      2478       113 |   7  19    0    0 d00f |    3.448       0       3       0       3     19     19      0   2400     191       3  19    0d00f a70f     30.390 "
test,1583575873296348160,7," |  7  |   2601       5   2598       0 |   5    0      2558        40 |   6  19    0    0 d00f |    5.645       0       1       0       1     19     19      0   2544      54       6  19    0d00f a70f     30.330 "
test,1583575873291651840,9," |  9  |   2601       5   2597       0 |   0   10      2494       103 |   0   9   19    1 d20f |    0           0       0       0       8      0      0      0   2481     116       0   9    1d20f a70f     30.210 "
