test,1583575903522851072,10," | 10  |   2722       5   2694       0 |   5    0      2649        45 |   1  58    0    0 a40f |    2.014       0       5       0       5     58     58      0   2610      84       1  58    0a40f a70f      8.820 "
test,1583575903525481984,12," | 12  |   2722       5   2720       0 |   5    0      2699        21 |   2  58    0    0 a40f |    2.746       0       5       0       5     58     58      0   2656      64       2  58    0a40f a70f      9.690 "
test,1583575903522684160,13," | 13  |   2722       5   2718       0 |   5    0      2698        20 |   2  58    0    0 a40f |    2.777       0       5       0       5     58     58      0   2665      53       2  58    0a40f a70f      8.910 "
test,1583575903529366016,15," | 15  |   2722       5   2720       0 |   5    0      2622        98 |   3  58    0    0 a40f |    3.448       0       5       0       5     58     58      0   2514     206       3  58    0a40f a70f     10.290 "
test,1583575903545605888,16," | 16  |   2722       5   2718       0 |   5    0      2627        91 |   3  58    0    0 a40f |    3.448       0       4       0       4     58     58      0   2559     159       3  58    0a40f a70f     30.240 "
test,1583575903531066880,17," | 17  |   2722       5   2713       5 |   5    0      2686        32 |   3  58    0    0 a40f |    3.479       0       5       0       5     58     58      0   2602     116       3  58    0a40f a70f      9.720 "
test,1583575903545234944,18," | 18  |   2722       5   2717       0 |   1    6      2564       153 |   2  48   58    0 b60f |    2.777       0       2       0       2     48     48      0   2445     272       2  48    0b60f a70f     30.360 "
test,1583575903526253824,19," | 19  |   2722       4   2709       9 |   5    0      2674        44 |   3  58    0    0 a40f |    3.479       0       5       0       5     58     58      0   2587     131       3  58    0a40f a70f     10.290 "
test,1583575903521976064,1," |  1  |   2722       4   2719       0 |   5    0      2654        65 |   1  58    0    0 a40f |    2.685       0       5       0       5     58     58      0   2634      85       1  58    0a40f a70f      8.880 "
test,1583575903545825024,22," | 22  |   2722       5   2716       0 |   1    7      2694        22 |   1  48   58    0 b60f |    2.044       0       2       0       2     48     48      0   2565     151       1  48    0b60f a70f     30.360 "
test,1583575903524467968,23," | 23  |   2722       5   2660       0 |   5    0      2647        13 |   2  58    0    0 a40f |    2.716       0       5       0       5     58     58      0   2594      66       2  58    0a40f a70f      9.690 "
test,1583575903525809152,24," | 24  |   2722       5   2716       2 |   5    0      2694        24 |   4  58    0    0 a40f |    4.180       0       5       0       5     58     58      0   2628      90       4  58    0a40f a70f     10.290 "
test,1583575903527671040,26," | 26  |   2722       5   2716       2 |   5    0      2708        10 |   4  58    0    0 a40f |    3.448       0       5       0       5     58     58      0   2656      62       3  58    0a40f a70f      9.660 "
test,1583575903529978880,27," | 27  |   2722       5   2720       0 |   5    0      2643        77 |   3  58    0    0 a40f |    3.509       0       5       0       5     58     58      0   2528     192       3  58    0a40f a70f      9.690 "
test,1583575903528340224,28," | 28  |   2722       5   2715       3 |   5    0      2507       211 |   4  58    0    0 a40f |    4.180       0       5       0       5     58     58      0   2412     306       4  58    0a40f a70f     10.260 "
test,1583575903546422016,29," | 29  |   2722       5   2716       4 |   4    0      2423       297 |   7  58    0    0 a40f |    4.211       0       4       0       4     58     58      0   2288     432       4  58    0a40f a70f     30.360 "
test,1583575903543113984,30," | 30  |   2722       5   2718       0 |   1    7      2682        36 |   2  48   58    0 b60f |    2.807       0       2       0       2     48     48      0   2591     127       2  48    0b60f a70f     30.360 "
test,1583575903544044032,35," | 35  |   2722       5   2718       0 |   1    0      2593       125 |   2  48    0    0 b60f |    2.746       0       2       0       2     48     48      0   2537     181       2  48    0b60f a70f     30.360 "
test,1583575903546225920,40," | 40  |   2722       5   2682      32 |   3    6      2538       176 |   1  48   44    0 b60f |    2.044       0       3       0       3     48     48      0   2473     241       1  48    0b60f a70f     30.330 "
test,1583575903544414976,41," | 41  |   2722       5   2676      32 |   3    8      2681        27 |   4  45   44    0 4b0f |    1.983       0       2       0       2     45     45      0   2611      97       1  45    04b0f a70f     30.330 "
test,1583575903545042944,42," | 42  |   2722       5   2683      35 |   2    5      2657        61 |   5  45   44    0 4b0f |    3.448       0       1       0       1     45     45      0   2591     127       3  45    04b0f a70f     30.390 "
test,1583575903542081024,44," | 44  |   2722       5   2688      30 |   0    2      2654        64 |   0  44   58    1 6b0f |    0           0       0       0       8      0      0      0   2600     118       0  44    16b0f a70f     30.210 "
test,1583575903545395968,45," | 45  |   2722       5   2694      24 |   2    8      2629        89 |   5  45   44    1 4b0f |    1.739       0       1       0       1     45     45      0   2580     138       2  45    14b0f a70f     30.300 "
test,1583575903544655104,46," | 46  |   2722       5   2680      31 |   2   11      2591       120 |   1  48   44    0 b60f |    2.044       0       2       0       2     48     48      0   2540     171       1  48    0b60f a70f     30.330 "
test,1583575903547017216,47," | 47  |   2722       5   2686      32 |   2   11      2624        94 |   1  48   44    0 b60f |    5.554       0       1       0       1     48     48      0   2562     156       6  48    0b60f a70f     30.390 "
test,1583575903546840064,48," | 48  |   2722       5   2622      29 |   1    8      2589        62 |  11  48   44    1 b60f |    3.814       0       1       0       1     48     48      0   2536     115       5  48    1b60f a70f     30.300 "
test,1583575903527862016,49," | 49  |   2722       5   2712       0 |   5    0      2666        46 |   1  58    0    0 a40f |    1.983       0       5       0       5     58     58      0   2638      74       1  58    0a40f a70f      8.190 "
test,1583575903523293952,51," | 51  |   2722       5   2713       0 |   5    0      2695        18 |   2  58    0    0 a40f |    2.716       0       5       0       5     58     58      0   2686      27       2  58    0a40f a70f      8.730 "
test,1583575903546051072,52," | 52  |   2722       5   2692      22 |   5    0      2580       134 |   3  58    0    0 a40f |    4.943       0       4       0       4     58     58      0   2527     187       5  58    0a40f a70f     30.210 "
test,1583575903523948032,53," | 53  |   2722       5   2696       0 |   5    0      2565       131 |   2  58    0    0 a40f |    1.983       0       5       0       5     58     58      0   2531     165       1  58    0a40f a70f      8.820 "
test,1583575903521527040,54," | 54  |   2722       5   2714       0 |   5    0      2668        46 |   1  58    0    0 a40f |    1.983       0       5       0       5     58     58      0   2623      91       1  58    0a40f a70f      8.190 "
test,1583575903522221056,55," | 55  |   2722       5   2701       0 |   5    0      2609        92 |   1  58    0    0 a40f |    2.014       0       5       0       5     58     58      0   2584     117       1  58    0a40f a70f      8.220 "
test,1583575903522386176,56," | 56  |   2722       5   2704       0 |   5    0      2658        46 |   1  58    0    0 a40f |    2.014       0       5       0       5     58     58      0   2636      68       1  58    0a40f a70f      8.220 "
test,1583575903526781184,57," | 57  |   2722       5   2659       0 |   5    0      2590        69 |   1  58    0    0 a40f |    2.014       0       5       0       5     58     58      0   2433     226       1  58    0a40f a70f      8.190 "
test,1583575903521133824,58," | 58  |   2722       5   2713       0 |   4    0      2682        31 |   5  58    0    1 a40f |    1.739       0       4       0       4     58     58      0   2568     145       2  58    1a40f a70f      6.510 "
test,1583575903527335936,5," |  5  |   2722       5   2720       0 |   5    0      2490       230 |   3  58    0    0 a40f |    3.479       0       5       0       5     58     58      0   2442     278       3  58    0a40f a70f      9.660 "
test,1583575903529558016,60," | 60  |   2722       5   2713       0 |   5    0      2541       172 |   2  58    0    0 a40f |    2.746       0       5       0       5     58     58      0   2497     216       2  58    0a40f a70f      9.660 "
test,1583575903524808960,61," | 61  |   2722       5   2712       0 |   5    0      2597       115 |   1  58    0    0 a40f |    2.014       0       5       0       5     58     58      0   2516     196       1  58    0a40f a70f      8.250 "
test,1583575903523062016,7," |  7  |   2722       5   2719       0 |   5    0      2677        42 |   2  58    0    0 a40f |    2.716       0       5       0       5     58     58      0   2663      56       2  58    0a40f a70f      8.910 "
test,1583575903524980992,9," |  9  |   2722       5   2718       0 |   5    0      2610       108 |   2  58    0    0 a40f |    2.746       0       5       0       5     58     58      0   2597     121       2  58    0a40f a70f      8.970 "
