test,1583575764540193024,10," | 10  |   2166       5   2138       0 |   1   20      2108        30 |   5  10   51    1  40f |   14.526       0       2       0       2     10     10      0   2078      60      20  10    1 40f a70f     30.240 "
test,1583575764539963904,12," | 12  |   2166       5   2164       0 |   5    0      2144        20 |   4  22    0    0 250f |    0           0       0       0       8      0      0      0   2110      54       0  22    0250f a70f     30.390 "
test,1583575764523036928,13," | 13  |   2166       5   2162       0 |   5    0      2145        17 |   3   9    0    0 260f |    2.807       0       5       0       5      9      9      0   2118      44       2   9    0260f a70f      9.030 "
test,1583575764540496128,15," | 15  |   2166       5   2164       0 |   5    0      2088        76 |   3  22    0    0 250f |    0           0       0       0       8      0      0      0   1999     165       0  22    0250f a70f     30.390 "
test,1583575764529985024,16," | 16  |   2166       5   2162       0 |   5    0      2086        76 |   2  22    0    0 250f |    2.716       0       5       0       5     22     22      0   2032     130       2  22    0250f a70f     12.390 "
test,1583575764521922048,17," | 17  |   2166       5   2161       1 |   5    0      2136        26 |   2  22    0    0 250f |    2.044       0       5       0       5     22     22      0   2071      91       1  22    0250f a70f      8.130 "
test,1583575764531081984,18," | 18  |   2166       5   2161       0 |   5    0      2037       124 |   1  22    0    0 250f |    1.983       0       5       0       5     22     22      0   1948     213       1  22    0250f a70f      9.630 "
test,1583575764522191104,19," | 19  |   2166       5   2160       2 |   5    0      2134        28 |   2  22    0    0 250f |    2.716       0       5       0       5     22     22      0   2070      92       2  22    0250f a70f      8.940 "
test,1583575764519421184,1," |  1  |   2166       4   2163       0 |   5    0      2108        55 |   3   9    0    0 260f |    2.746       0       5       0       5      9      9      0   2090      73       1   9    0260f a70f      8.850 "
test,1583575764525556992,22," | 22  |   2166       5   2160       0 |   5    0      2144        16 |   4  22    0    1 250f |    3.204       0       4       0       4     22     22      0   2044     116       4  22    1250f a70f      7.920 "
test,1583575764533165824,23," | 23  |   2166       5   2104       0 |   5    0      2092        12 |   1  22    0    0 250f |    2.716       0       5       0       5     22     22      0   2053      51       2  22    0250f a70f     11.850 "
test,1583575764526416128,24," | 24  |   2166       5   2162       0 |   5    0      2146        16 |   4  22    0    0 250f |    2.014       0       5       0       5     22     22      0   2100      62       1  22    0250f a70f      8.970 "
test,1583575764519682048,26," | 26  |   2166       5   2162       0 |   5    0      2153         9 |   4  22    0    0 250f |    1.983       0       5       0       5     22     22      0   2115      47       1  22    0250f a70f      8.220 "
test,1583575764524561920,27," | 27  |   2166       5   2164       0 |   5    0      2103        61 |   2  22    0    0 250f |    2.746       0       5       0       5     22     22      0   2006     158       2  22    0250f a70f     11.100 "
test,1583575764534285056,28," | 28  |   2166       5   2162       0 |   5    0      1994       168 |   2  22    0    0 250f |    1.983       0       5       0       5     22     22      0   1930     232       1  22    0250f a70f      8.190 "
test,1583575764539629824,29," | 29  |   2166       5   2160       4 |   0    4      1924       240 |   0  29   22    1 360f |    0           0       0       0       8      0      0      0   1813     351       0  29    1360f a70f     30.180 "
test,1583575764523472128,30," | 30  |   2166       5   2162       0 |   5    0      2133        29 |   1  22    0    0 250f |    2.044       0       5       0       5     22     22      0   2067      95       1  22    0250f a70f      8.880 "
test,1583575764524880896,35," | 35  |   2166       5   2162       0 |   5    0      2067        95 |   1  22    0    0 250f |    1.983       0       5       0       5     22     22      0   2026     136       1  22    0250f a70f      9.480 "
test,1583575764527416832,40," | 40  |   2166       5   2126      32 |   5    0      2004       154 |   2  22    0    0 250f |    2.716       0       5       0       5     22     22      0   1955     203       2  22    0250f a70f      9.690 "
test,1583575764532137984,41," | 41  |   2166       5   2120      32 |   5    0      2130        22 |   2  22    0    0 250f |    1.983       0       5       0       5     22     22      0   2077      75       1  22    0250f a70f      9.660 "
test,1583575764525975040,42," | 42  |   2166       5   2127      35 |   5    0      2109        53 |   1  22    0    0 250f |    2.014       0       5       0       5     22     22      0   2053     109       1  22    0250f a70f      8.250 "
test,1583575764525298176,44," | 44  |   2166       5   2132      30 |   5    0      2109        53 |   2  22    0    0 250f |    2.777       0       5       0       5     22     22      0   2058     104       2  22    0250f a70f      8.910 "
test,1583575764527650048,45," | 45  |   2166       5   2138      24 |   5    0      2088        74 |   2  22    0    0 250f |    2.716       0       5       0       5     22     22      0   2047     115       2  22    0250f a70f      8.940 "
test,1583575764524204032,46," | 46  |   2166       5   2124      31 |   5    0      2055       100 |   2  22    0    0 250f |    2.716       0       5       0       5     22     22      0   2014     141       2  22    0250f a70f      8.940 "
test,1583575764530199040,47," | 47  |   2166       5   2130      32 |   5    0      2090        72 |   2  22    0    0 250f |    2.777       0       5       0       5     22     22      0   2037     125       2  22    0250f a70f      8.850 "
test,1583575764528175104,48," | 48  |   2166       5   2066      29 |   5    0      2039        56 |   1  22    0    0 250f |    1.983       0       5       0       5     22     22      0   1994     101       1  22    0250f a70f      8.850 "
test,1583575764530864128,49," | 49  |   2166       5   2156       0 |   5    0      2117        39 |   1  53    0    0 450f |    2.014       0       5       0       5     53     53      0   2097      59       1  53    0450f a70f      8.250 "
test,1583575764520101120,51," | 51  |   2166       5   2157       0 |   4    8      2143        14 |   8  51   10    1 b10f |    1.770       0       4       0       4     51     51      0   2137      20       2  51    1b10f a70f      6.510 "
test,1583575764541657088,52," | 52  |   2166       4   2139      19 |   0    9      2046       112 |   0  52   22    1 5e0f |    0           0       0       0       8      0      0      0   2004     154       0  52    15e0f a70f     30.180 "
test,1583575764521521152,53," | 53  |   2166       5   2140       0 |   5    0      2036       104 |   2  53    0    1 450f |    1.739       0       4       0       4     53     53      0   2011     129       2  53    1450f a70f      6.510 "
test,1583575764521200896,54," | 54  |   2166       5   2158       0 |   5    0      2125        33 |   3   9    0    0 260f |    2.807       0       5       0       5      9      9      0   2086      72       2   9    0260f a70f      9.750 "
test,1583575764521682944,55," | 55  |   2166       5   2145       0 |   5    0      2073        72 |   1  53    0    0 450f |    2.075       0       5       0       5     53     53      0   2056      89       1  53    0450f a70f      8.130 "
test,1583575764520567808,56," | 56  |   2166       5   2148       0 |   5    7      2112        36 |   1  51   10    0 b10f |    2.014       0       5       0       5     51     51      0   2096      52       1  51    0b10f a70f      8.160 "
test,1583575764527083008,57," | 57  |   2166       5   2103       0 |   5    0      2048        55 |   2  22    0    0 250f |    3.448       0       5       0       5     22     22      0   1929     174       3  22    0250f a70f     12.540 "
test,1583575764530498048,58," | 58  |   2166       5   2157       0 |   3    5      2130        27 |   1  10   51    0  40f |    1.983       0       5       0       5     10     10      0   2043     114       1  10    0 40f a70f     16.290 "
test,1583575764527904000,5," |  5  |   2166       5   2164       0 |   2    3      1979       185 |   4   9   22    0 260f |    3.540       0       5       0       5      9      9      0   1939     225       3   9    0260f a70f      9.720 "
test,1583575764529357824,60," | 60  |   2166       5   2157       0 |   5    7      2013       144 |   1  51   22    0 b10f |    2.014       0       5       0       5     51     51      0   1983     174       1  51    0b10f a70f      8.070 "
test,1583575764535762944,61," | 61  |   2166       5   2156       0 |   3    8      2063        93 |   2  10   51    0  40f |    2.716       0       5       0       5     10     10      0   2005     151       2  10    0 40f a70f     17.040 "
test,1583575764528621056,7," |  7  |   2166       5   2163       0 |   5    0      2129        34 |   1   9    0    0 260f |    2.044       0       5       0       5      9      9      0   2116      47       1   9    0260f a70f      8.970 "
test,1583575764518788096,9," |  9  |   2166       5   2162       0 |   5    0      2082        80 |   2   9    0    1 260f |    1.770       0       4       0       4      9      9      0   2070      92       2   9    1260f a70f      6.510 "
