test,1583575937025885952,10," | 10  |   2856       5   2828       0 |   5    0      2782        46 |   1  51    0    0 e80f |    2.014       0       5       0       5     51     51      0   2741      87       1  51    0e80f a70f      8.970 "
test,1583575937030027008,12," | 12  |   2856       5   2854       0 |   5    0      2830        24 |   2  51    0    0 e80f |    2.746       0       5       0       5     51     51      0   2784      70       2  51    0e80f a70f      8.970 "
test,1583575937027586816,13," | 13  |   2856       5   2852       0 |   5    0      2832        20 |   1  51    0    0 e80f |    2.777       0       5       0       5     51     51      0   2798      54       2  51    0e80f a70f      8.880 "
test,1583575937028579840,15," | 15  |   2856       5   2854       0 |   5    0      2750       104 |   2  51    0    0 e80f |    3.509       0       5       0       5     51     51      0   2635     219       3  51    0e80f a70f      9.540 "
test,1583575937023650816,16," | 16  |   2856       5   2852       0 |   5    0      2755        97 |   1  41    0    0  30f |    2.044       0       5       0       5     41     41      0   2685     167       1  41    0 30f a70f      8.100 "
test,1583575937024679936,17," | 17  |   2856       5   2847       5 |   5    0      2820        32 |   1  41    0    0  30f |    2.075       0       5       0       5     41     41      0   2733     119       1  41    0 30f a70f      8.880 "
test,1583575937028079104,18," | 18  |   2856       5   2851       0 |   5    0      2693       158 |   2  41    0    0  30f |    2.777       0       5       0       5     41     41      0   2573     278       2  41    0 30f a70f      8.910 "
test,1583575937028832000,19," | 19  |   2856       5   2843       9 |   4    0      2806        46 |   2  41    0    0  30f |    2.746       0       5       0       5     41     41      0   2718     134       2  41    0 30f a70f      9.720 "
test,1583575937023197952,1," |  1  |   2856       4   2853       0 |   5    0      2787        66 |   1  51    0    0 e80f |    2.716       0       5       0       5     51     51      0   2766      87       1  51    0e80f a70f      8.940 "
test,1583575937032780032,22," | 22  |   2856       5   2850       0 |   5    0      2826        24 |   3  41    0    0  30f |    2.044       0       5       0       5     41     41      0   2694     156       1  41    0 30f a70f      8.160 "
test,1583575937024125184,23," | 23  |   2856       5   2794       0 |   5    0      2780        14 |   2  41    0    0  30f |    2.777       0       5       0       5     41     41      0   2724      70       2  41    0 30f a70f      8.850 "
test,1583575937028300032,24," | 24  |   2856       5   2850       2 |   5    0      2828        24 |   2  41    0    0  30f |    2.777       0       5       0       5     41     41      0   2761      91       2  41    0 30f a70f      9.000 "
test,1583575937027313920,26," | 26  |   2856       5   2850       2 |   5    0      2842        10 |   2  41    0    0  30f |    2.807       0       5       0       5     41     41      0   2790      62       2  41    0 30f a70f      9.000 "
test,1583575937032190976,27," | 27  |   2856       5   2854       0 |   4    0      2774        80 |   2  41    0    0  30f |    2.777       0       5       0       5     41     41      0   2654     200       2  41    0 30f a70f     10.410 "
test,1583575937030980096,28," | 28  |   2856       5   2849       3 |   5    0      2634       218 |   2  41    0    0  30f |    2.777       0       5       0       5     41     41      0   2533     319       2  41    0 30f a70f     10.440 "
test,1583575937046395904,29," | 29  |   2856       5   2850       4 |   2    0      2542       312 |   5  41    0    0  30f |    4.974       0       4       0       4     41     41      0   2403     451       5  41    0 30f a70f     30.240 "
test,1583575937031436800,30," | 30  |   2856       5   2852       0 |   5    0      2814        38 |   3  41    0    0  30f |    2.777       0       5       0       5     41     41      0   2720     132       2  41    0 30f a70f     11.130 "
test,1583575937029480960,35," | 35  |   2856       5   2852       0 |   5    0      2724       128 |   4  41    0    0  30f |    2.746       0       5       0       5     41     41      0   2665     187       2  41    0 30f a70f     10.380 "
test,1583575937031922176,40," | 40  |   2856       5   2801      47 |   5    0      2661       187 |   2  41    0    0  30f |    2.014       0       5       0       5     41     41      0   2592     256       1  41    0 30f a70f      9.570 "
test,1583575937024350976,41," | 41  |   2856       5   2796      46 |   5    0      2815        27 |   5  41    0    1  30f |    1.739       0       4       0       4     41     41      0   2740     102       2  41    1 30f a70f      6.510 "
test,1583575937026397952,42," | 42  |   2856       5   2803      49 |   5    0      2785        67 |   1  41    0    0  30f |    2.014       0       5       0       5     41     41      0   2713     139       1  41    0 30f a70f      9.660 "
test,1583575937033113856,44," | 44  |   2856       5   2808      44 |   5    0      2782        70 |   1  41    0    0  30f |    2.014       0       5       0       5     41     41      0   2724     128       1  41    0 30f a70f      9.000 "
test,1583575937022910208,45," | 45  |   2856       5   2821      31 |   5    0      2756        96 |   1  41    0    0  30f |    2.014       0       5       0       5     41     41      0   2703     149       1  41    0 30f a70f      8.220 "
test,1583575937026173952,46," | 46  |   2856       5   2800      45 |   5    0      2721       124 |   1  41    0    0  30f |    2.044       0       5       0       5     41     41      0   2666     179       1  41    0 30f a70f      8.280 "
test,1583575937043951104,47," | 47  |   2856       5   2808      44 |   5    0      2752       100 |   1  41    0    0  30f |    2.044       0       4       0       4     41     41      0   2691     161       1  41    0 30f a70f     30.330 "
test,1583575937032478208,48," | 48  |   2856       5   2743      42 |   5    0      2717        68 |   1  41    0    0  30f |    2.014       0       5       0       5     41     41      0   2661     124       1  41    0 30f a70f      9.540 "
test,1583575937025291008,49," | 49  |   2856       5   2846       0 |   5    5      2795        51 |   1  53   51    0 510f |    1.953       0       5       0       5     53     53      0   2767      79       1  53    0510f a70f      8.220 "
test,1583575937022643200,51," | 51  |   2856       5   2847       0 |   4    0      2826        21 |   2  51    0    1 e80f |    1.739       0       4       0       4     51     51      0   2818      29       2  51    1e80f a70f      6.480 "
test,1583575937033396992,52," | 52  |   2856       5   2825      23 |   5    0      2711       137 |   2  41    0    0  30f |    3.479       0       5       0       5     41     41      0   2657     191       3  41    0 30f a70f      9.660 "
test,1583575937029647104,53," | 53  |   2856       5   2830       0 |   4    0      2693       137 |   5  53    0    1 510f |    1.770       0       4       0       4     53     53      0   2657     173       2  53    1510f a70f      6.510 "
test,1583575937026882816,54," | 54  |   2856       5   2848       0 |   5    0      2800        48 |   2  51    0    0 e80f |    2.777       0       5       0       5     51     51      0   2754      94       2  51    0e80f a70f      8.970 "
test,1583575937026612992,55," | 55  |   2856       5   2835       0 |   5    5      2736        99 |   1  53   51    0 510f |    2.044       0       5       0       5     53     53      0   2709     126       1  53    0510f a70f      8.100 "
test,1583575937025602048,56," | 56  |   2856       5   2838       0 |   5    0      2792        46 |   1  51    0    0 e80f |    2.014       0       5       0       5     51     51      0   2768      70       1  51    0e80f a70f      8.250 "
test,1583575937030507008,57," | 57  |   2856       5   2793       0 |   3    3      2723        70 |   1  51   41    0 e80f |    2.807       0       5       0       5     51     51      0   2561     232       2  51    0e80f a70f      8.850 "
test,1583575937034589952,58," | 58  |   2856       5   2847       0 |   5    0      2813        34 |   4  51    0    0 e80f |    4.974       0       5       0       5     51     51      0   2695     152       5  51    0e80f a70f     11.160 "
test,1583575937044678912,5," |  5  |   2856       5   2854       0 |   0    4      2615       239 |   0   5   51    1 e00f |    0           0       0       0       8      0      0      0   2564     290       0   5    1e00f a70f     30.180 "
test,1583575937038278144,60," | 60  |   2856       5   2847       0 |   5    0      2660       187 |   1  51    0    0 e80f |    2.014       0       5       0       5     51     51      0   2614     233       1  51    0e80f a70f      8.220 "
test,1583575937034321920,61," | 61  |   2856       5   2846       0 |   5    0      2724       122 |   2  51    0    0 e80f |    4.241       0       5       0       5     51     51      0   2642     204       4  51    0e80f a70f     10.470 "
test,1583575937021004032,7," |  7  |   2856       5   2853       0 |   5    0      2808        45 |   1  51    0    0 e80f |    2.014       0       5       0       5     51     51      0   2793      60       1  51    0e80f a70f      8.100 "
test,1583575937025052160,9," |  9  |   2856       5   2852       0 |   5    0      2742       110 |   2  51    0    0 e80f |    2.746       0       5       0       5     51     51      0   2728     124       2  51    0e80f a70f      8.820 "
