test,1583575292262749952,10," | 10  |    277       5    249       0 |   3    9       245         4 |  13  13    1    0 3e0f |    9.094       0       5       0       5     13     13      0    241       8      11  13    03e0f a70f     15.210 "
test,1583575292277575936,12," | 12  |    277       5    275       0 |   5   11       273         2 |   1   1   13    0 3a0f |    1.342       0       4       0       4      1      1      0    269       6       1   1    03a0f a70f     30.270 "
test,1583575292262382080,13," | 13  |    277       5    273       0 |   4    0       268         5 |   5  13    0    1 3e0f |    8.117       0       4       0       4     13     13      0    263      10      11  13    13e0f a70f     12.720 "
test,1583575292280536064,15," | 15  |    277       5    275       0 |   5    0       265        10 |   2   1    0    0 3a0f |    2.105       0       4       0       4      1      1      0    257      18       2   1    03a0f a70f     30.390 "
test,1583575292278604032,16," | 16  |    277       5    273       0 |   4    1       264         9 |   3  48   13    0 3b0f |    4.943       0       4       0       4     48     48      0    261      12       5  48    03b0f a70f     30.270 "
test,1583575292262981888,17," | 17  |    277       5    273       0 |   4    1       270         3 |   2  48   13    0 3b0f |    3.479       0       5       0       5     48     48      0    261      12       3  48    03b0f a70f      9.690 "
test,1583575292260651008,18," | 18  |    277       5    272       0 |   5    0       253        19 |   2  48    0    0 3b0f |    4.211       0       5       0       5     48     48      0    241      31       4  48    03b0f a70f     10.230 "
test,1583575292280233984,19," | 19  |    277       5    272       1 |   1    0       270         3 |   4  27    0    0 d90f |    2.075       0       2       0       2     27     27      0    262      11       1  27    0d90f a70f     30.390 "
test,1583575292256759040,1," |  1  |    277       4    274       0 |   4   12       269         5 |   8   1   13    1 3a0f |    1.770       0       4       0       4      1      1      0    266       8       2   1    13a0f a70f      6.510 "
test,1583575292263485952,22," | 22  |    277       5    271       0 |   5    0       269         2 |   1  48    0    0 3b0f |    3.479       0       5       0       5     48     48      0    258      13       3  48    03b0f a70f      9.600 "
test,1583575292277246976,23," | 23  |    277       5    215       0 |   2    2       213         2 |   7  13   48    0 3e0f |    3.448       0       1       0       1     13     13      0    213       2       3  13    03e0f a70f     30.390 "
test,1583575292261051904,24," | 24  |    277       5    273       0 |   5    0       271         2 |   2  48    0    0 3b0f |    2.746       0       5       0       5     48     48      0    266       7       2  48    03b0f a70f      8.970 "
test,1583575292267437056,26," | 26  |    277       5    273       0 |   5    0       271         2 |   2  48    0    0 3b0f |    3.448       0       5       0       5     48     48      0    265       8       3  48    03b0f a70f      9.660 "
test,1583575292282396160,27," | 27  |    277       5    275       0 |   4    0       267         8 |   2  27    0    1 d90f |    1.770       0       1       0       1     27     27      0    256      19       2  27    1d90f a70f     30.300 "
test,1583575292264532992,28," | 28  |    277       5    273       0 |   5    0       255        18 |   2  48    0    0 3b0f |    4.211       0       5       0       5     48     48      0    247      26       4  48    03b0f a70f     11.100 "
test,1583575292281217024,29," | 29  |    277       4    273       2 |   5    0       246        29 |   1  27    0    0 d90f |    2.044       0       2       0       2     27     27      0    234      41       1  27    0d90f a70f     30.390 "
test,1583575292265274880,30," | 30  |    277       5    273       0 |   5    0       271         2 |   2  48    0    0 3b0f |    4.913       0       5       0       5     48     48      0    264       9       5  48    03b0f a70f     11.070 "
test,1583575292265492992,35," | 35  |    277       5    273       0 |   5    0       261        12 |   2  48    0    0 3b0f |    4.180       0       5       0       5     48     48      0    258      15       4  48    03b0f a70f     10.380 "
test,1583575292281925888,40," | 40  |    277       5    261       8 |   5    0       242        27 |   1  48    0    0 3b0f |    2.014       0       4       0       4     48     48      0    234      35       1  48    03b0f a70f     30.270 "
test,1583575292259595008,41," | 41  |    277       5    254       9 |   5    0       261         2 |   1  48    0    0 3b0f |    2.014       0       5       0       5     48     48      0    256       7       1  48    03b0f a70f      8.250 "
test,1583575292267278848,42," | 42  |    277       5    263      10 |   5    0       262        11 |   1  48    0    0 3b0f |    2.014       0       5       0       5     48     48      0    256      17       1  48    03b0f a70f      9.510 "
test,1583575292264345856,44," | 44  |    277       5    264       9 |   5    0       269         4 |   1  48    0    0 3b0f |    2.014       0       5       0       5     48     48      0    262      11       1  48    03b0f a70f      9.690 "
test,1583575292263783936,45," | 45  |    277       5    266       7 |   5    0       254        19 |   1  48    0    0 3b0f |    2.014       0       5       0       5     48     48      0    250      23       1  48    03b0f a70f      8.760 "
test,1583575292260814848,46," | 46  |    277       5    257       9 |   5    0       258         8 |   1  48    0    0 3b0f |    1.983       0       5       0       5     48     48      0    253      13       1  48    03b0f a70f      8.910 "
test,1583575292262542848,47," | 47  |    277       5    264       9 |   5    0       264         9 |   1  48    0    0 3b0f |    2.044       0       5       0       5     48     48      0    261      12       1  48    03b0f a70f      8.880 "
test,1583575292261506048,48," | 48  |    277       5    199       7 |   4    0       197         9 |   4  48    0    1 3b0f |    1.739       0       4       0       4     48     48      0    192      14       2  48    13b0f a70f      8.640 "
test,1583575292258781952,49," | 49  |    277       5    267       0 |   5    0       263         4 |   1  53    0    0 940f |    2.075       0       5       0       5     53     53      0    263       4       1  53    0940f a70f      8.280 "
test,1583575292257821184,51," | 51  |    277       5    268       0 |   5    0       266         2 |   2  13    0    0 3e0f |    2.014       0       5       0       5     13     13      0    266       2       1  13    03e0f a70f      8.250 "
test,1583575292279051008,52," | 52  |    277       5    266       3 |   5    0       255        14 |   3  48    0    0 3b0f |    4.913       0       4       0       4     48     48      0    249      20       5  48    03b0f a70f     30.270 "
test,1583575292258193920,53," | 53  |    277       5    251       0 |   4    0       239        12 |   2  53    0    1 940f |    1.770       0       4       0       4     53     53      0    239      12       2  53    1940f a70f      6.510 "
test,1583575292259768064,54," | 54  |    277       5    269       0 |   5   11       268         1 |   1   1   13    0 3a0f |    1.312       0       5       0       5      1      1      0    260       9       1   1    03a0f a70f      7.530 "
test,1583575292258594048,55," | 55  |    277       5    256       0 |   5    0       245        11 |   1  53    0    0 940f |    2.044       0       5       0       5     53     53      0    245      11       1  53    0940f a70f      8.250 "
test,1583575292262063872,56," | 56  |    277       5    259       0 |   5    0       250         9 |   1  13    0    0 3e0f |    2.746       0       5       0       5     13     13      0    248      11       2  13    03e0f a70f      8.940 "
test,1583575292264887040,57," | 57  |    277       5    214       0 |   5    1       204        10 |   2  13   48    0 3e0f |    2.746       0       5       0       5     13     13      0    193      21       2  13    03e0f a70f      9.630 "
test,1583575292266611200,58," | 58  |    277       5    268       0 |   5    0       264         4 |   5  13    0    0 3e0f |    6.439       0       5       0       5     13     13      0    259       9       7  13    03e0f a70f     12.450 "
test,1583575292261678080,5," |  5  |    277       5    275       0 |   5    0       254        21 |   1  13    0    0 3e0f |    2.044       0       5       0       5     13     13      0    248      27       1  13    03e0f a70f     10.140 "
test,1583575292260029952,60," | 60  |    277       5    268       0 |   5    0       254        14 |   2  13    0    0 3e0f |    2.746       0       5       0       5     13     13      0    251      17       2  13    03e0f a70f      8.940 "
test,1583575292264013056,61," | 61  |    277       5    267       0 |   5    0       257        10 |   3  13    0    0 3e0f |    5.706       0       5       0       5     13     13      0    249      18       6  13    03e0f a70f     11.730 "
test,1583575292273481984,7," |  7  |    277       5    274       0 |   5    0       270         4 |   4  13    0    0 3e0f |    8.392       0       5       0       5     13     13      0    270       4      10  13    03e0f a70f     14.490 "
test,1583575292257502976,9," |  9  |    277       5    273       0 |   5   13       263        10 |   1   1   13    0 3a0f |    1.373       0       5       0       5      1      1      0    262      11       1   1    03a0f a70f      7.620 "
