test,1583575917522298112,10," | 10  |   2778       5   2750       0 |   5    0      2704        46 |   1   7    0    0 e40f |    2.014       0       5       0       5      7      7      0   2664      86       1   7    0e40f a70f      8.250 "
test,1583575917523217920,12," | 12  |   2778       5   2776       0 |   5    0      2753        23 |   1   7    0    0 e40f |    2.014       0       5       0       5      7      7      0   2708      68       1   7    0e40f a70f      8.160 "
test,1583575917522818048,13," | 13  |   2778       5   2774       0 |   5    0      2754        20 |   1   7    0    0 e40f |    2.014       0       5       0       5      7      7      0   2720      54       1   7    0e40f a70f      8.280 "
test,1583575917527738112,15," | 15  |   2778       5   2776       0 |   3    1      2675       101 |   4   7   58    0 e40f |    2.746       0       5       0       5      7      7      0   2562     214       2   7    0e40f a70f      8.970 "
test,1583575917545697024,16," | 16  |   2778       5   2774       0 |   1    4      2681        93 |   1  45   58    0 210f |    2.075       0       2       0       2     45     45      0   2613     161       1  45    0210f a70f     30.270 "
test,1583575917527350016,17," | 17  |   2778       5   2769       5 |   4    0      2742        32 |   3  58    0    0 b10f |    5.676       0       5       0       5     58     58      0   2657     117       6  58    0b10f a70f     11.850 "
test,1583575917526272000,18," | 18  |   2778       5   2773       0 |   1    4      2619       154 |   2  45   58    0 210f |    4.241       0       5       0       5     45     45      0   2499     274       4  45    0210f a70f     10.260 "
test,1583575917531405056,19," | 19  |   2778       5   2765       9 |   3    0      2729        45 |   5  58    0    0 b10f |    6.408       0       5       0       5     58     58      0   2641     133       7  58    0b10f a70f     12.570 "
test,1583575917537349888,1," |  1  |   2778       4   2775       0 |   5    0      2709        66 |   1   7    0    0 e40f |    2.685       0       5       0       5      7      7      0   2688      87       1   7    0e40f a70f      8.910 "
test,1583575917546725888,22," | 22  |   2778       5   2772       0 |   4    0      2749        23 |   3  58    0    0 b10f |   11.505       0       1       0       1     58     58      0   2619     153      14  58    0b10f a70f     30.360 "
test,1583575917524208896,23," | 23  |   2778       5   2716       0 |   4    0      2703        13 |   4  58    0    0 b10f |    3.448       0       5       0       5     58     58      0   2649      67       3  58    0b10f a70f      9.600 "
test,1583575917530259968,24," | 24  |   2778       5   2772       2 |   1    7      2750        24 |   2  45   58    0 210f |    3.479       0       5       0       5     45     45      0   2684      90       3  45    0210f a70f      9.720 "
test,1583575917529902848,26," | 26  |   2778       5   2772       2 |   5    0      2764        10 |   2  58    0    0 b10f |    4.913       0       5       0       5     58     58      0   2712      62       5  58    0b10f a70f     11.100 "
test,1583575917546988032,27," | 27  |   2778       5   2776       0 |   1    5      2697        79 |   2  27   58    1 bb0f |    3.814       0       1       0       1     27     27      0   2581     195       5  27    1bb0f a70f     30.300 "
test,1583575917533019136,28," | 28  |   2778       5   2771       3 |   4    0      2559       215 |   5  58    0    0 b10f |    6.378       0       5       0       5     58     58      0   2462     312       7  58    0b10f a70f     13.140 "
test,1583575917546096128,29," | 29  |   2778       4   2772       4 |   2    1      2473       303 |   1  27   58    0 bb0f |    2.014       0       3       0       3     27     27      0   2335     441       1  27    0bb0f a70f     30.300 "
test,1583575917528873984,30," | 30  |   2778       5   2774       0 |   5    0      2736        38 |   5  58    0    0 b10f |    7.141       0       5       0       5     58     58      0   2645     129       8  58    0b10f a70f     13.110 "
test,1583575917535837952,35," | 35  |   2778       5   2774       0 |   5    0      2649       125 |   4  58    0    0 b10f |    7.843       0       5       0       5     58     58      0   2593     181       9  58    0b10f a70f     13.950 "
test,1583575917549267968,45," | 45  |   2778       1   2746      28 |   1    0      2683        91 |   4  45    0    1 210f |    8.117       0       1       0       1     45     45      0   2632     142      11  45    1210f a70f     30.300 "
test,1583575917521573120,49," | 49  |   2778       5   2768       0 |   4    0      2720        48 |   2  49    0    1 ab0f |    1.739       0       4       0       4     49     49      0   2692      76       2  49    1ab0f a70f      6.510 "
test,1583575917523890944,51," | 51  |   2778       5   2769       0 |   5    0      2750        19 |   1  60    0    0 280f |    1.983       0       5       0       5     60     60      0   2742      27       1  60    0280f a70f      8.190 "
test,1583575917545906944,52," | 52  |   2778       4   2747      23 |   1    5      2636       134 |   2  45   58    0 210f |    2.807       0       1       0       1     45     45      0   2582     188       2  45    0210f a70f     30.360 "
test,1583575917523471104,53," | 53  |   2778       5   2752       0 |   5    0      2619       133 |   1  49    0    0 ab0f |    2.014       0       5       0       5     49     49      0   2585     167       1  49    0ab0f a70f      8.250 "
test,1583575917528136960,54," | 54  |   2778       5   2770       0 |   5    0      2723        47 |   1   7    0    0 e40f |    2.044       0       5       0       5      7      7      0   2678      92       1   7    0e40f a70f      8.250 "
test,1583575917525556992,55," | 55  |   2778       5   2757       0 |   5    0      2663        94 |   2  49    0    0 ab0f |    2.746       0       5       0       5     49     49      0   2638     119       2  49    0ab0f a70f      8.910 "
test,1583575917522990848,56," | 56  |   2778       5   2760       0 |   5    0      2714        46 |   1  58    0    0 b10f |    1.983       0       5       0       5     58     58      0   2692      68       1  58    0b10f a70f      8.190 "
test,1583575917527913984,57," | 57  |   2778       5   2715       0 |   5    0      2646        69 |   1  58    0    0 b10f |    2.746       0       5       0       5     58     58      0   2488     227       2  58    0b10f a70f     10.350 "
test,1583575917522536960,58," | 58  |   2778       3   2769       0 |   4    0      2736        33 |   2  58    0    1 b10f |    1.739       0       4       0       4     58     58      0   2622     147       2  58    1b10f a70f      6.510 "
test,1583575917527528960,5," |  5  |   2778       5   2776       0 |   5    0      2543       233 |   2   7    0    0 e40f |    2.777       0       5       0       5      7      7      0   2492     284       2   7    0e40f a70f      8.940 "
test,1583575917524372224,60," | 60  |   2778       5   2769       0 |   4    0      2594       175 |   2  60    0    1 280f |    1.739       0       4       0       4     60     60      0   2549     220       2  60    1280f a70f      6.480 "
test,1583575917530065920,61," | 61  |   2778       5   2768       0 |   5    0      2649       119 |   1  58    0    0 b10f |    1.983       0       5       0       5     58     58      0   2567     201       1  58    0b10f a70f      8.130 "
test,1583575917524507904,7," |  7  |   2778       5   2775       0 |   4    0      2732        43 |   2   7    0    1 e40f |    1.739       0       4       0       4      7      7      0   2718      57       2   7    1e40f a70f      6.510 "
test,1583575917525751040,9," |  9  |   2778       5   2774       0 |   5    0      2665       109 |   1   7    0    0 e40f |    2.014       0       5       0       5      7      7      0   2651     123       1   7    0e40f a70f      8.100 "
