test,1583575864022059008,10," | 10  |   2564       5   2536       0 |   1    1      2495        41 |  11   9   56    0 690f |    2.014       0       5       0       5      9      9      0   2463      73       1   9    0690f a70f      8.280 "
test,1583575864025063936,12," | 12  |   2564       5   2562       0 |   5    0      2541        21 |   1   9    0    0 690f |    2.044       0       5       0       5      9      9      0   2501      61       1   9    0690f a70f      9.030 "
test,1583575864022262016,13," | 13  |   2564       5   2560       0 |   5    0      2541        19 |   2   9    0    0 690f |    2.014       0       5       0       5      9      9      0   2510      50       1   9    0690f a70f      8.820 "
test,1583575864025369856,15," | 15  |   2564       5   2562       0 |   4    1      2469        93 |   5   9   27    0 690f |    2.777       0       5       0       5      9      9      0   2364     198       2   9    0690f a70f      9.780 "
test,1583575864027043072,16," | 16  |   2564       5   2560       0 |   5    0      2473        87 |   1  52    0    0 450f |    2.014       0       5       0       5     52     52      0   2408     152       1  52    0450f a70f      8.940 "
test,1583575864024281856,17," | 17  |   2564       5   2555       5 |   5    0      2528        32 |   3  52    0    0 450f |    2.746       0       5       0       5     52     52      0   2449     111       2  52    0450f a70f      8.970 "
test,1583575864023834112,18," | 18  |   2564       5   2559       0 |   5    0      2414       145 |   2  52    0    0 450f |    2.746       0       5       0       5     52     52      0   2302     257       2  52    0450f a70f      8.940 "
test,1583575864026045184,19," | 19  |   2564       5   2552       8 |   5    0      2521        39 |   4  52    0    0 450f |    2.685       0       5       0       5     52     52      0   2440     120       2  52    0450f a70f      9.600 "
test,1583575864021573120,1," |  1  |   2564       4   2561       0 |   5    0      2500        61 |   1   9    0    0 690f |    2.716       0       5       0       5      9      9      0   2480      81       1   9    0690f a70f      8.940 "
test,1583575864030850048,22," | 22  |   2564       5   2558       0 |   5    0      2537        21 |   2  52    0    0 450f |    3.479       0       5       0       5     52     52      0   2415     143       3  52    0450f a70f      9.570 "
test,1583575864021260032,23," | 23  |   2564       5   2502       0 |   5    0      2489        13 |   1  52    0    0 450f |    1.983       0       5       0       5     52     52      0   2441      61       1  52    0450f a70f      8.190 "
test,1583575864022913024,24," | 24  |   2564       5   2558       2 |   5    0      2537        23 |   1  52    0    0 450f |    2.014       0       5       0       5     52     52      0   2476      84       1  52    0450f a70f      8.250 "
test,1583575864024617984,26," | 26  |   2564       5   2558       2 |   5    0      2550        10 |   1  52    0    0 450f |    2.014       0       5       0       5     52     52      0   2501      59       1  52    0450f a70f      8.130 "
test,1583575864045402112,27," | 27  |   2564       5   2562       0 |   1    9      2490        72 |   5  27   52    1 850f |   10.284       0       2       0       2     27     27      0   2379     183      14  27    1850f a70f     30.300 "
test,1583575864028701952,28," | 28  |   2564       5   2557       3 |   5    0      2357       203 |   3  52    0    0 450f |    3.448       0       5       0       5     52     52      0   2269     291       3  52    0450f a70f      9.660 "
test,1583575864035324160,29," | 29  |   2564       5   2558       4 |   3    5      2280       282 |   1  27   52    0 850f |    2.014       0       5       0       5     27     27      0   2155     407       1  27    0850f a70f     12.210 "
test,1583575864028337920,30," | 30  |   2564       5   2560       0 |   5    0      2524        36 |   3  52    0    0 450f |    4.974       0       5       0       5     52     52      0   2441     119       5  52    0450f a70f     11.070 "
test,1583575864031296000,35," | 35  |   2564       5   2560       0 |   5    0      2442       118 |   3  52    0    0 450f |    4.241       0       5       0       5     52     52      0   2390     170       4  52    0450f a70f     10.260 "
test,1583575864029572096,40," | 40  |   2564       5   2524      32 |   5    0      2384       172 |   3  52    0    0 450f |    4.211       0       5       0       5     52     52      0   2322     234       4  52    0450f a70f     11.130 "
test,1583575864026865920,41," | 41  |   2564       5   2518      32 |   5    0      2524        26 |   2  52    0    0 450f |    3.448       0       5       0       5     52     52      0   2458      92       3  52    0450f a70f     10.380 "
test,1583575864027472896,42," | 42  |   2564       5   2525      35 |   5    0      2502        58 |   3  52    0    0 450f |    4.211       0       5       0       5     52     52      0   2437     123       4  52    0450f a70f     11.130 "
test,1583575864019570176,44," | 44  |   2564       5   2530      30 |   5    0      2497        63 |   2  52    0    0 450f |    4.211       0       5       0       5     52     52      0   2443     117       4  52    0450f a70f     11.160 "
test,1583575864043895040,45," | 45  |   2564       5   2536      24 |   5    0      2473        87 |   2  52    0    0 450f |    4.180       0       4       0       4     52     52      0   2426     134       4  52    0450f a70f     30.360 "
test,1583575864031676160,46," | 46  |   2564       5   2522      31 |   5    0      2438       115 |   3  52    0    0 450f |    4.211       0       5       0       5     52     52      0   2388     165       4  52    0450f a70f     11.130 "
test,1583575864025549056,47," | 47  |   2564       5   2528      32 |   5    0      2469        91 |   3  52    0    0 450f |    3.479       0       5       0       5     52     52      0   2409     151       3  52    0450f a70f     10.980 "
test,1583575864030652928,48," | 48  |   2564       5   2464      29 |   5    0      2432        61 |   3  52    0    0 450f |    4.211       0       5       0       5     52     52      0   2381     112       4  52    0450f a70f     10.950 "
test,1583575864023347968,49," | 49  |   2564       5   2554       0 |   5    0      2511        43 |   2  56    0    0 990f |    2.716       0       5       0       5     56     56      0   2485      69       2  56    0990f a70f      8.820 "
test,1583575864022733824,51," | 51  |   2564       5   2555       0 |   5    0      2537        18 |   1  56    0    0 990f |    2.044       0       5       0       5     56     56      0   2528      27       1  56    0990f a70f      8.100 "
test,1583575864023133952,52," | 52  |   2564       5   2535      21 |   4    0      2428       128 |   2  52    0    1 450f |    1.770       0       4       0       4     52     52      0   2378     178       2  52    1450f a70f      6.510 "
test,1583575864026195968,53," | 53  |   2564       5   2538       0 |   5    0      2412       126 |   3  56    0    0 990f |    3.448       0       5       0       5     56     56      0   2381     157       3  56    0990f a70f      9.660 "
test,1583575864017970944,54," | 54  |   2564       5   2556       0 |   3    1      2513        43 |   1   9   56    0 690f |    2.075       0       5       0       5      9      9      0   2469      87       1   9    0690f a70f      8.850 "
test,1583575864022558976,55," | 55  |   2564       5   2543       0 |   5    0      2457        86 |   2  56    0    0 990f |    2.746       0       5       0       5     56     56      0   2434     109       2  56    0990f a70f      8.850 "
test,1583575864020265216,56," | 56  |   2564       5   2546       0 |   4    0      2502        44 |   2  56    0    1 990f |    1.739       0       4       0       4     56     56      0   2481      65       2  56    1990f a70f      6.510 "
test,1583575864029253888,57," | 57  |   2564       5   2501       0 |   5    0      2436        65 |   1  56    0    0 990f |    2.014       0       5       0       5     56     56      0   2289     212       1  56    0990f a70f      8.070 "
test,1583575864042792960,58," | 58  |   2564       5   2555       0 |   5    0      2525        30 |   1  56    0    0 990f |    1.983       0       4       0       4     56     56      0   2416     139       1  56    0990f a70f     30.390 "
test,1583575864024043008,5," |  5  |   2564       5   2562       0 |   5    0      2347       215 |   2   9    0    0 690f |    2.777       0       5       0       5      9      9      0   2302     260       2   9    0690f a70f      9.720 "
test,1583575864026587136,60," | 60  |   2564       5   2555       0 |   5    0      2390       165 |   1  56    0    0 990f |    1.983       0       5       0       5     56     56      0   2348     207       1  56    0990f a70f      8.940 "
test,1583575864024445184,61," | 61  |   2564       5   2554       0 |   5    0      2444       110 |   1  56    0    0 990f |    2.014       0       5       0       5     56     56      0   2367     187       1  56    0990f a70f      8.220 "
test,1583575864023532032,7," |  7  |   2564       5   2561       0 |   5    0      2521        40 |   1   9    0    0 690f |    2.014       0       5       0       5      9      9      0   2508      53       1   9    0690f a70f      8.160 "
test,1583575864019884032,9," |  9  |   2564       5   2560       0 |   4    0      2461        99 |   3   9    0    1 690f |    1.770       0       4       0       4      9      9      0   2448     112       2   9    1690f a70f      6.510 "
