test,1583575924772147968,10," | 10  |   2807       5   2779       0 |   5    0      2733        46 |   4   9    0    0 7e0f |    2.014       0       5       0       5      9      9      0   2692      87       1   9    07e0f a70f      8.250 "
test,1583575924778430976,12," | 12  |   2807       5   2805       0 |   5    8      2782        23 |   1  54    9    0 4c0f |    2.014       0       5       0       5     54     54      0   2737      68       1  54    04c0f a70f     10.950 "
test,1583575924771905792,13," | 13  |   2807       5   2803       0 |   5    0      2783        20 |   5   9    0    0 7e0f |    2.014       0       5       0       5      9      9      0   2749      54       1   9    07e0f a70f      8.130 "
test,1583575924782654976,15," | 15  |   2807       5   2805       0 |   4    0      2704       101 |   2  54    0    0 4c0f |    2.716       0       5       0       5     54     54      0   2591     214       2  54    04c0f a70f     11.670 "
test,1583575924775497984,16," | 16  |   2807       5   2803       0 |   5    0      2708        95 |   1  17    0    0 d30f |    4.211       0       5       0       5     17     17      0   2638     165       4  17    0d30f a70f     10.380 "
test,1583575924792443136,17," | 17  |   2807       5   2798       5 |   4    0      2771        32 |   3  17    0    1 d30f |    0           0       0       0       8      0      0      0   2684     119       0  17    1d30f a70f     30.210 "
test,1583575924794953984,18," | 18  |   2807       5   2802       0 |   5    7      2646       156 |   1  22   17    0 590f |    2.044       0       4       0       4     22     22      0   2526     276       1  22    0590f a70f     30.330 "
test,1583575924797800192,19," | 19  |   2807       5   2794       9 |   5    0      2758        45 |   1  17    0    0 d30f |    5.706       0       2       0       2     17     17      0   2669     134       6  17    0d30f a70f     30.390 "
test,1583575924772547072,1," |  1  |   2807       4   2804       0 |   5    0      2738        66 |   4   9    0    0 7e0f |    2.685       0       5       0       5      9      9      0   2717      87       1   9    07e0f a70f      8.760 "
test,1583575924798220032,22," | 22  |   2807       5   2801       0 |   4    7      2778        23 |   8  22   17    1 590f |    3.814       0       2       0       2     22     22      0   2647     154       5  22    1590f a70f     30.300 "
test,1583575924780459776,23," | 23  |   2807       5   2745       0 |   5    0      2731        14 |   2  17    0    0 d30f |    4.974       0       5       0       5     17     17      0   2676      69       5  17    0d30f a70f     11.160 "
test,1583575924787960064,24," | 24  |   2807       5   2801       2 |   5    0      2779        24 |   2  17    0    0 d30f |    2.807       0       5       0       5     17     17      0   2713      90       2  17    0d30f a70f     21.930 "
test,1583575924773490944,26," | 26  |   2807       5   2801       2 |   5    0      2793        10 |   1  17    0    0 d30f |    2.014       0       5       0       5     17     17      0   2741      62       1  17    0d30f a70f      8.250 "
test,1583575924778245888,27," | 27  |   2807       5   2805       0 |   5    0      2726        79 |   1  17    0    0 d30f |    2.075       0       5       0       5     17     17      0   2607     198       1  17    0d30f a70f      8.880 "
test,1583575924797533952,28," | 28  |   2807       5   2800       3 |   4    0      2585       218 |   2  22    0    0 590f |    6.256       0       1       0       1     22     22      0   2487     316       7  22    0590f a70f     30.390 "
test,1583575924796036864,29," | 29  |   2807       3   2801       4 |   5    0      2497       308 |   2  17    0    0 d30f |    2.777       0       4       0       4     17     17      0   2358     447       2  17    0d30f a70f     30.300 "
test,1583575924793700864,30," | 30  |   2807       5   2803       0 |   5    0      2765        38 |   2  22    0    0 590f |    1.983       0       4       0       4     22     22      0   2673     130       1  22    0590f a70f     30.300 "
test,1583575924795286016,35," | 35  |   2807       5   2803       0 |   5    0      2677       126 |   1  22    0    0 590f |    1.983       0       4       0       4     22     22      0   2620     183       1  22    0590f a70f     30.300 "
test,1583575924796887040,40," | 40  |   2807       4   2756      43 |   4    4      2615       184 |   6  17   22    0 d30f |    4.241       0       4       0       4     17     17      0   2547     252       4  17    0d30f a70f     30.360 "
test,1583575924777699840,41," | 41  |   2807       5   2751      42 |   5    0      2766        27 |   1  17    0    0 d30f |    2.014       0       5       0       5     17     17      0   2691     102       1  17    0d30f a70f      8.220 "
test,1583575924792764928,42," | 42  |   2807       5   2757      46 |   5    9      2736        67 |   1  22   17    0 590f |    0           0       0       0       8      0      0      0   2665     138       0  22    0590f a70f     30.360 "
test,1583575924775720960,44," | 44  |   2807       5   2763      40 |   5    0      2733        70 |   3  17    0    0 d30f |    3.448       0       5       0       5     17     17      0   2675     128       3  17    0d30f a70f      9.660 "
test,1583575924776783872,45," | 45  |   2807       5   2773      30 |   5    0      2710        93 |   2  17    0    0 d30f |    2.777       0       5       0       5     17     17      0   2658     145       2  17    0d30f a70f      9.000 "
test,1583575924779891968,46," | 46  |   2807       5   2755      41 |   5    0      2672       124 |   2  17    0    0 d30f |    2.807       0       5       0       5     17     17      0   2617     179       2  17    0d30f a70f      8.880 "
test,1583575924794713088,47," | 47  |   2807       4   2762      41 |   5    0      2704        99 |   3  17    0    0 d30f |    4.272       0       4       0       4     17     17      0   2643     160       4  17    0d30f a70f     30.390 "
test,1583575924795627008,48," | 48  |   2807       4   2697      39 |   5    7      2669        67 |   1  22   17    0 590f |    2.044       0       1       0       1     22     22      0   2614     122       1  22    0590f a70f     30.360 "
test,1583575924773924096,49," | 49  |   2807       5   2797       0 |   5    0      2747        50 |   2  54    0    0 4c0f |    2.716       0       5       0       5     54     54      0   2719      78       2  54    04c0f a70f      8.910 "
test,1583575924781270016,51," | 51  |   2807       5   2798       0 |   5    0      2777        21 |   3  54    0    0 4c0f |    9.918       0       5       0       5     54     54      0   2769      29      12  54    04c0f a70f     15.960 "
test,1583575924782417920,52," | 52  |   2807       4   2776      23 |   5    0      2664       135 |   2  17    0    0 d30f |    2.777       0       5       0       5     17     17      0   2610     189       2  17    0d30f a70f     10.380 "
test,1583575924776056064,53," | 53  |   2807       5   2781       0 |   5    0      2647       134 |   3  54    0    0 4c0f |    3.417       0       5       0       5     54     54      0   2611     170       3  54    04c0f a70f      9.600 "
test,1583575924792167936,54," | 54  |   2807       5   2799       0 |   4    8      2752        47 |   8  54    9    1 4c0f |    8.148       0       2       0       2     54     54      0   2707      92      11  54    14c0f a70f     30.300 "
test,1583575924773725952,55," | 55  |   2807       5   2786       0 |   5    0      2691        95 |   2  54    0    0 4c0f |    2.716       0       5       0       5     54     54      0   2664     122       2  54    04c0f a70f      8.910 "
test,1583575924779017984,56," | 56  |   2807       5   2789       0 |   5    0      2743        46 |   2  54    0    0 4c0f |    9.155       0       5       0       5     54     54      0   2720      69      11  54    04c0f a70f     15.240 "
test,1583575924796364032,57," | 57  |   2807       5   2744       0 |   2    5      2674        70 |   3  17   22    0 d30f |    2.777       0       4       0       4     17     17      0   2514     230       2  17    0d30f a70f     30.240 "
test,1583575924776990976,58," | 58  |   2807       5   2798       0 |   5    1      2765        33 |   1  54    9    0 4c0f |    1.983       0       5       0       5     54     54      0   2649     149       1  54    04c0f a70f     10.170 "
test,1583575924777362944,5," |  5  |   2807       5   2805       0 |   4    5      2572       233 |   2  54    9    0 4c0f |    3.448       0       5       0       5     54     54      0   2521     284       3  54    04c0f a70f     11.490 "
test,1583575924779247872,60," | 60  |   2807       5   2798       0 |   5    0      2618       180 |   4  54    0    0 4c0f |   10.559       0       5       0       5     54     54      0   2572     226      13  54    04c0f a70f     16.650 "
test,1583575924780625152,61," | 61  |   2807       5   2797       0 |   5    0      2677       120 |   1  54    0    0 4c0f |    1.983       0       5       0       5     54     54      0   2595     202       1  54    04c0f a70f      9.450 "
test,1583575924772928000,7," |  7  |   2807       5   2804       0 |   5    0      2759        45 |   4   9    0    0 7e0f |    1.983       0       5       0       5      9      9      0   2745      59       1   9    07e0f a70f      8.130 "
test,1583575924771702016,9," |  9  |   2807       5   2803       0 |   4    0      2694       109 |   5   9    0    1 7e0f |    1.739       0       4       0       4      9      9      0   2680     123       2   9    17e0f a70f      6.480 "
