test,1583575286507985152,10," | 10  |    254       5    226       0 |   5    0       224         2 |   1   1    0    0 820f |    1.312       0       5       0       5      1      1      0    221       5       1   1    0820f a70f      7.440 "
test,1583575286510976000,12," | 12  |    254       5    252       0 |   5    0       250         2 |   5   1    0    0 820f |    1.342       0       5       0       5      1      1      0    247       5       1   1    0820f a70f      9.570 "
test,1583575286509819136,13," | 13  |    254       5    250       0 |   5    0       245         5 |   1   1    0    0 820f |    1.373       0       5       0       5      1      1      0    241       9       1   1    0820f a70f      9.570 "
test,1583575286514817024,15," | 15  |    254       5    252       0 |   4    0       242        10 |   6   1    0    0 820f |    2.105       0       5       0       5      1      1      0    234      18       2   1    0820f a70f     10.260 "
test,1583575286512100096,16," | 16  |    254       5    250       0 |   5    0       241         9 |   3  30    0    0 500f |    6.408       0       5       0       5     30     30      0    238      12       7  30    0500f a70f     12.390 "
test,1583575286517733120,17," | 17  |    254       5    250       0 |   4    0       247         3 |   2  30    0    0 500f |    6.408       0       5       0       5     30     30      0    238      12       7  30    0500f a70f     14.700 "
test,1583575286516143104,18," | 18  |    254       5    249       0 |   4    0       230        19 |   3  30    0    0 500f |    5.706       0       5       0       5     30     30      0    219      30       6  30    0500f a70f     11.880 "
test,1583575286517239040,19," | 19  |    254       5    249       1 |   5    0       247         3 |   2  30    0    0 500f |    6.439       0       5       0       5     30     30      0    239      11       7  30    0500f a70f     14.010 "
test,1583575286511423232,1," |  1  |    254       4    251       0 |   5    0       246         5 |   4   1    0    1 820f |    3.814       0       4       0       4      1      1      0    244       7       5   1    1820f a70f      8.520 "
test,1583575286512429056,22," | 22  |    254       5    248       0 |   5    0       246         2 |   1  30    0    0 500f |    4.974       0       5       0       5     30     30      0    237      11       5  30    0500f a70f     10.980 "
test,1583575286513259008,23," | 23  |    254       5    192       0 |   5    0       190         2 |   2  30    0    0 500f |    5.676       0       5       0       5     30     30      0    190       2       6  30    0500f a70f     11.730 "
test,1583575286512738816,24," | 24  |    254       5    250       0 |   5    0       248         2 |   2  30    0    0 500f |    5.706       0       5       0       5     30     30      0    243       7       6  30    0500f a70f     11.760 "
test,1583575286517039104,26," | 26  |    254       5    250       0 |   5    0       249         1 |   2  30    0    0 500f |    5.706       0       5       0       5     30     30      0    243       7       6  30    0500f a70f     11.880 "
test,1583575286530967040,27," | 27  |    254       5    252       0 |   4    1       245         7 |   3  30    1    0 500f |    7.141       0       4       0       4     30     30      0    235      17       8  30    0500f a70f     30.240 "
test,1583575286512572160,28," | 28  |    254       5    250       0 |   5    0       235        15 |   1  30    0    0 500f |    2.014       0       5       0       5     30     30      0    227      23       1  30    0500f a70f      8.220 "
test,1583575286531634176,29," | 29  |    254       5    250       2 |   2    0       226        26 |   3  30    0    0 500f |    7.141       0       4       0       4     30     30      0    214      38       8  30    0500f a70f     30.240 "
test,1583575286507729152,30," | 30  |    254       5    250       0 |   4    0       248         2 |   2  30    0    1 500f |    1.739       0       4       0       4     30     30      0    242       8       2  30    1500f a70f      6.510 "
test,1583575286513809920,35," | 35  |    254       5    250       0 |   5    0       240        10 |   1  30    0    0 500f |    2.014       0       5       0       5     30     30      0    237      13       1  30    0500f a70f      8.250 "
test,1583575286515453184,40," | 40  |    254       5    238       8 |   3    1       219        27 |   2  47   30    0 8a0f |    2.777       0       5       0       5     47     47      0    214      32       2  47    08a0f a70f      9.000 "
test,1583575286511862016,41," | 41  |    254       5    231       9 |   3    1       238         2 |   2  47   30    0 8a0f |    2.075       0       5       0       5     47     47      0    233       7       1  47    08a0f a70f      8.160 "
test,1583575286509972992,42," | 42  |    254       5    240      10 |   3    2       239        11 |   1  47   30    0 8a0f |    2.044       0       5       0       5     47     47      0    233      17       1  47    08a0f a70f      8.280 "
test,1583575286515809024,44," | 44  |    254       5    241       9 |   3    2       246         4 |   2  47   30    0 8a0f |    2.044       0       5       0       5     47     47      0    239      11       1  47    08a0f a70f      8.910 "
test,1583575286511691008,45," | 45  |    254       5    243       7 |   3    1       231        19 |   2  47   30    0 8a0f |    2.075       0       5       0       5     47     47      0    227      23       1  47    08a0f a70f      8.820 "
test,1583575286510224128,46," | 46  |    254       5    234       9 |   3    0       236         7 |   2  47    0    0 8a0f |    2.075       0       5       0       5     47     47      0    231      12       1  47    08a0f a70f      9.000 "
test,1583575286513452032,47," | 47  |    254       5    241       9 |   2    0       241         9 |   3  47    0    1 8a0f |    1.739       0       4       0       4     47     47      0    238      12       2  47    18a0f a70f      6.510 "
test,1583575286510402048,48," | 48  |    254       5    176       7 |   3    0       174         9 |   1  47    0    0 8a0f |    2.075       0       5       0       5     47     47      0    169      14       1  47    08a0f a70f      8.310 "
test,1583575286510620160,49," | 49  |    254       5    244       0 |   5    0       240         4 |   1  55    0    0 580f |    2.014       0       5       0       5     55     55      0    240       4       1  55    0580f a70f      8.220 "
test,1583575286507344128,51," | 51  |    254       5    245       0 |   5    0       243         2 |   1   1    0    0 820f |    1.373       0       5       0       5      1      1      0    243       2       1   1    0820f a70f      7.440 "
test,1583575286530407936,52," | 52  |    254       4    243       3 |   4    0       235        11 |   4  30    0    0 500f |    6.439       0       4       0       4     30     30      0    230      16       7  30    0500f a70f     30.390 "
test,1583575286509555968,53," | 53  |    254       5    228       0 |   5    0       217        11 |   1  55    0    0 580f |    1.983       0       5       0       5     55     55      0    217      11       1  55    0580f a70f      8.040 "
test,1583575286508568064,54," | 54  |    254       5    246       0 |   5    0       245         1 |   1   1    0    0 820f |    1.312       0       5       0       5      1      1      0    239       7       1   1    0820f a70f      8.850 "
test,1583575286508301056,55," | 55  |    254       5    233       0 |   4    0       222        11 |   8  55    0    1 580f |    1.739       0       4       0       4     55     55      0    222      11       2  55    1580f a70f      6.480 "
test,1583575286508992000,56," | 56  |    254       5    236       0 |   5    0       228         8 |   2   1    0    0 820f |    2.075       0       5       0       5      1      1      0    227       9       2   1    0820f a70f      8.340 "
test,1583575286515077120,57," | 57  |    254       5    191       0 |   1    1       183         8 |   4  30   55    0 500f |    6.439       0       5       0       5     30     30      0    174      17       7  30    0500f a70f     12.510 "
test,1583575286508773120,58," | 58  |    254       5    245       0 |   2    0       242         3 |   1  55    0    0 580f |    1.983       0       5       0       5     55     55      0    239       6       1  55    0580f a70f      8.160 "
test,1583575286513046016,5," |  5  |    254       5    252       0 |   5    0       233        19 |   2   1    0    0 820f |    2.075       0       5       0       5      1      1      0    227      25       2   1    0820f a70f     10.260 "
test,1583575286510807040,60," | 60  |    254       5    245       0 |   5    0       232        13 |   2   1    0    0 820f |    2.105       0       5       0       5      1      1      0    229      16       2   1    0820f a70f      8.250 "
test,1583575286529815808,61," | 61  |    254       5    244       0 |   1    7       235         9 |   5  30   55    0 500f |   10.070       0       3       0       3     30     30      0    231      13      12  30    0500f a70f     30.390 "
test,1583575286533310976,7," |  7  |    254       5    251       0 |   0   10       247         4 |   0   7    1    1 560f |    0           0       0       0       8      0      0      0    248       3       0   7    1560f a70f     30.210 "
test,1583575286507531776,9," |  9  |    254       5    250       0 |   5    0       241         9 |   1   1    0    0 820f |    1.342       0       5       0       5      1      1      0    241       9       1   1    0820f a70f      8.130 "
