test,1583575752521761792,10," | 10  |   2118       5   2090       0 |   5    0      2063        27 |   1   9    0    0 630f |    1.983       0       5       0       5      9      9      0   2033      57       1   9    0630f a70f      8.040 "
test,1583575752519893760,12," | 12  |   2118       5   2116       0 |   5    0      2098        18 |   1   9    0    0 630f |    1.983       0       5       0       5      9      9      0   2066      50       1   9    0630f a70f      8.790 "
test,1583575752520292096,13," | 13  |   2118       5   2114       0 |   5    0      2097        17 |   1   9    0    0 630f |    1.953       0       5       0       5      9      9      0   2072      42       1   9    0630f a70f      8.790 "
test,1583575752542416128,15," | 15  |   2118       5   2116       0 |   5    0      2042        74 |   2   9    0    0 630f |    2.716       0       4       0       4      9      9      0   1956     160       2   9    0630f a70f     30.360 "
test,1583575752524413952,16," | 16  |   2118       5   2114       0 |   5    0      2039        75 |   3  18    0    0  10f |    2.777       0       5       0       5     18     18      0   1987     127       2  18    0 10f a70f      8.910 "
test,1583575752522366976,17," | 17  |   2118       5   2113       1 |   5    0      2088        26 |   5  18    0    0  10f |    4.211       0       5       0       5     18     18      0   2024      90       4  18    0 10f a70f     10.320 "
test,1583575752523863040,18," | 18  |   2118       5   2113       0 |   3    0      1991       122 |   7  18    0    1  10f |    1.739       0       4       0       4     18     18      0   1903     210       2  18    1 10f a70f      6.480 "
test,1583575752527003904,19," | 19  |   2118       3   2112       2 |   5    0      2087        27 |   4  18    0    0  10f |    4.974       0       5       0       5     18     18      0   2024      90       5  18    0 10f a70f     11.010 "
test,1583575752520823040,1," |  1  |   2118       4   2115       0 |   5    0      2061        54 |   1   9    0    0 630f |    2.685       0       5       0       5      9      9      0   2044      71       1   9    0630f a70f      8.850 "
test,1583575752522980096,22," | 22  |   2118       5   2112       0 |   5    0      2097        15 |   1  18    0    0  10f |    2.044       0       5       0       5     18     18      0   1998     114       1  18    0 10f a70f      8.250 "
test,1583575752523465984,23," | 23  |   2118       5   2056       0 |   5    0      2045        11 |   3  18    0    0  10f |    3.509       0       5       0       5     18     18      0   2006      50       3  18    0 10f a70f      9.720 "
test,1583575752525309952,24," | 24  |   2118       5   2114       0 |   5    0      2098        16 |   1  18    0    0  10f |    2.014       0       5       0       5     18     18      0   2053      61       1  18    0 10f a70f      8.250 "
test,1583575752518408960,26," | 26  |   2118       5   2114       0 |   5    0      2106         8 |   1  18    0    0  10f |    2.044       0       5       0       5     18     18      0   2068      46       1  18    0 10f a70f      8.280 "
test,1583575752541153792,27," | 27  |   2118       5   2116       0 |   5    3      2056        60 |   1  29   18    0 560f |    2.044       0       2       0       2     29     29      0   1961     155       1  29    0560f a70f     30.330 "
test,1583575752524025856,28," | 28  |   2118       5   2114       0 |   5    0      1948       166 |   1  30    0    0  d0f |    1.983       0       5       0       5     30     30      0   1886     228       1  30    0 d0f a70f      8.190 "
test,1583575752544320000,29," | 29  |   2118       5   2112       4 |   4    1      1881       235 |  23  29   18    1 560f |   12.451       0       1       0       1     29     29      0   1773     343      17  29    1560f a70f     30.270 "
test,1583575752518841088,30," | 30  |   2118       5   2114       0 |   5    0      2085        29 |   2  30    0    1  d0f |    1.739       0       4       0       4     30     30      0   2019      95       2  30    1 d0f a70f      6.480 "
test,1583575752519282176,35," | 35  |   2118       5   2114       0 |   5    0      2020        94 |   1  30    0    0  d0f |    2.014       0       5       0       5     30     30      0   1979     135       1  30    0 d0f a70f      8.190 "
test,1583575752526601984,40," | 40  |   2118       3   2078      32 |   4    0      1959       151 |   1  41    0    0 bb0f |    2.014       0       5       0       5     41     41      0   1910     200       1  41    0bb0f a70f      8.250 "
test,1583575752520616960,41," | 41  |   2118       5   2072      32 |   4    1      2083        21 |   2  41   18    1 bb0f |    1.770       0       4       0       4     41     41      0   2029      75       2  41    1bb0f a70f      6.510 "
test,1583575752527838976,42," | 42  |   2118       5   2079      35 |   5    0      2061        53 |   1  41    0    0 bb0f |    2.014       0       5       0       5     41     41      0   2005     109       1  41    0bb0f a70f      8.160 "
test,1583575752515026176,44," | 44  |   2118       5   2084      30 |   4    0      2061        53 |   2  41    0    0 bb0f |    2.014       0       5       0       5     41     41      0   2010     104       1  41    0bb0f a70f      8.220 "
test,1583575752519692800,45," | 45  |   2118       5   2090      24 |   5    0      2043        71 |   1  41    0    0 bb0f |    2.044       0       5       0       5     41     41      0   2002     112       1  41    0bb0f a70f      8.190 "
test,1583575752532592128,46," | 46  |   2118       5   2076      31 |   5    0      2008        99 |   1  41    0    0 bb0f |    1.983       0       5       0       5     41     41      0   1967     140       1  41    0bb0f a70f      8.250 "
test,1583575752524593152,47," | 47  |   2118       5   2082      32 |   4    1      2042        72 |   2  41   18    0 bb0f |    1.983       0       5       0       5     41     41      0   1989     125       1  41    0bb0f a70f      8.250 "
test,1583575752521083136,48," | 48  |   2118       5   2018      29 |   4    0      1991        56 |   1  41    0    0 bb0f |    1.983       0       5       0       5     41     41      0   1946     101       1  41    0bb0f a70f      8.190 "
test,1583575752541459200,49," | 49  |   2118       5   2108       0 |   5    0      2072        36 |   3   9    0    0 630f |    3.448       0       4       0       4      9      9      0   2052      56       3   9    0630f a70f     30.300 "
test,1583575752521336064,51," | 51  |   2118       5   2109       0 |   5    0      2095        14 |   2   9    0    0 630f |    2.746       0       5       0       5      9      9      0   2090      19       2   9    0630f a70f      8.940 "
test,1583575752527699968,52," | 52  |   2118       5   2091      19 |   5    0      2002       108 |   2  18    0    0  10f |    4.241       0       5       0       5     18     18      0   1962     148       4  18    0 10f a70f     10.410 "
test,1583575752539138048,53," | 53  |   2118       5   2092       0 |   0    4      1988       104 |   0  53    9    1 550f |    0           0       0       0       8      0      0      0   1964     128       0  53    1550f a70f     30.210 "
test,1583575752522114048,54," | 54  |   2118       5   2110       0 |   5    0      2077        33 |   1   9    0    0 630f |    2.044       0       5       0       5      9      9      0   2040      70       1   9    0630f a70f      8.940 "
test,1583575752540150016,55," | 55  |   2118       5   2097       0 |   5    0      2027        70 |   3   9    0    0 630f |    3.479       0       4       0       4      9      9      0   2010      87       3   9    0630f a70f     30.330 "
test,1583575752524275968,56," | 56  |   2118       5   2100       0 |   5    0      2065        35 |   2   9    0    0 630f |    2.716       0       5       0       5      9      9      0   2050      50       2   9    0630f a70f      8.790 "
test,1583575752529972992,57," | 57  |   2118       5   2055       0 |   1    1      2001        54 |   4   9   18    0 630f |    3.479       0       5       0       5      9      9      0   1884     171       3   9    0630f a70f      9.600 "
test,1583575752521584896,58," | 58  |   2118       5   2109       0 |   5    0      2082        27 |   2   9    0    0 630f |    2.746       0       5       0       5      9      9      0   1999     110       2   9    0630f a70f      9.540 "
test,1583575752522753024,5," |  5  |   2118       5   2116       0 |   5    0      1933       183 |   2   9    0    0 630f |    2.716       0       5       0       5      9      9      0   1894     222       2   9    0630f a70f      9.630 "
test,1583575752527177216,60," | 60  |   2118       5   2109       0 |   5    0      1970       139 |   3   9    0    0 630f |    3.448       0       5       0       5      9      9      0   1940     169       3   9    0630f a70f      9.510 "
test,1583575752523164928,61," | 61  |   2118       5   2108       0 |   5    0      2018        90 |   2   9    0    0 630f |    2.746       0       5       0       5      9      9      0   1962     146       2   9    0630f a70f      9.690 "
test,1583575752524792064,7," |  7  |   2118       5   2115       0 |   5    0      2081        34 |   1   9    0    0 630f |    1.983       0       5       0       5      9      9      0   2069      46       1   9    0630f a70f      8.040 "
test,1583575752521921024,9," |  9  |   2118       5   2114       0 |   4    0      2039        75 |   2   9    0    1 630f |    1.770       0       4       0       4      9      9      0   2028      86       2   9    1630f a70f      6.510 "
