test,1583575279279789824,10," | 10  |    225       5    197       0 |   5    0       195         2 |   3  12    0    0 7e0f |    7.141       0       4       0       4     12     12      0    193       4       8  12    07e0f a70f     30.390 "
test,1583575279259346944,12," | 12  |    225       5    223       0 |   4    0       222         1 |   3  12    0    1 7e0f |    1.739       0       4       0       4     12     12      0    218       5       2  12    17e0f a70f      6.480 "
test,1583575279278579968,13," | 13  |    225       5    221       0 |   2   19       217         4 |   1   5   51    0 ba0f |    2.014       0       4       0       4      5      5      0    213       8       1   5    0ba0f a70f     30.330 "
test,1583575279262096896,15," | 15  |    225       5    223       0 |   3    4       213        10 |   4  12   51    0 7e0f |    2.044       0       5       0       5     12     12      0    206      17       1  12    07e0f a70f      8.280 "
test,1583575279255356928,16," | 16  |    225       5    221       0 |   5    0       212         9 |   2  24    0    0  80f |    2.746       0       5       0       5     24     24      0    209      12       2  24    0 80f a70f      8.940 "
test,1583575279266205952,17," | 17  |    225       5    221       0 |   5    0       219         2 |   1  24    0    0  80f |    2.044       0       5       0       5     24     24      0    210      11       1  24    0 80f a70f      8.880 "
test,1583575279269982976,18," | 18  |    225       5    220       0 |   5    0       202        18 |   2  24    0    0  80f |    1.983       0       5       0       5     24     24      0    192      28       1  24    0 80f a70f      8.250 "
test,1583575279263659008,19," | 19  |    225       5    220       1 |   5    0       218         3 |   2  24    0    0  80f |    2.746       0       5       0       5     24     24      0    210      11       2  24    0 80f a70f      8.970 "
test,1583575279267595008,1," |  1  |    225       4    222       0 |   5    0       217         5 |   2  12    0    0 7e0f |    2.716       0       5       0       5     12     12      0    215       7       1  12    07e0f a70f      9.540 "
test,1583575279260943872,22," | 22  |    225       5    219       0 |   5    0       218         1 |   1  24    0    0  80f |    2.014       0       5       0       5     24     24      0    209      10       1  24    0 80f a70f      8.250 "
test,1583575279256846848,23," | 23  |    225       5    163       0 |   5    0       161         2 |   1  24    0    0  80f |    2.014       0       5       0       5     24     24      0    161       2       1  24    0 80f a70f      8.250 "
test,1583575279259013888,24," | 24  |    225       5    221       0 |   4    0       219         2 |   3  24    0    1  80f |    1.739       0       4       0       4     24     24      0    214       7       2  24    1 80f a70f      6.510 "
test,1583575279262936064,26," | 26  |    225       5    221       0 |   5    0       221         0 |   1  24    0    0  80f |    2.044       0       5       0       5     24     24      0    214       7       1  24    0 80f a70f      8.190 "
test,1583575279281158912,27," | 27  |    225       5    223       0 |   5    0       216         7 |   2  24    0    0  80f |    2.746       0       4       0       4     24     24      0    206      17       2  24    0 80f a70f     30.210 "
test,1583575279268027136,28," | 28  |    225       5    221       0 |   5    0       208        13 |   2  24    0    0  80f |    2.716       0       5       0       5     24     24      0    201      20       2  24    0 80f a70f     10.380 "
test,1583575279282330880,29," | 29  |    225       5    222       1 |   5    0       198        25 |   3  24    0    0  80f |    3.479       0       4       0       4     24     24      0    186      37       3  24    0 80f a70f     30.390 "
test,1583575279266488064,30," | 30  |    225       5    221       0 |   5    0       219         2 |   2  24    0    0  80f |    3.479       0       5       0       5     24     24      0    213       8       3  24    0 80f a70f      9.720 "
test,1583575279267144960,35," | 35  |    225       5    221       0 |   5    0       212         9 |   2  24    0    0  80f |    2.746       0       5       0       5     24     24      0    209      12       2  24    0 80f a70f      8.850 "
test,1583575279269462016,40," | 40  |    225       5    209       8 |   5    0       191        26 |   2  24    0    0  80f |    3.417       0       5       0       5     24     24      0    186      31       3  24    0 80f a70f     10.230 "
test,1583575279265944832,41," | 41  |    225       5    202       9 |   5    0       209         2 |   2  24    0    0  80f |    2.716       0       5       0       5     24     24      0    205       6       2  24    0 80f a70f      9.570 "
test,1583575279264815104,42," | 42  |    225       5    211      10 |   5    0       211        10 |   2  24    0    0  80f |    2.716       0       5       0       5     24     24      0    206      15       2  24    0 80f a70f      9.660 "
test,1583575279265321984,44," | 44  |    225       5    212       9 |   5    0       218         3 |   1  24    0    0  80f |    2.746       0       5       0       5     24     24      0    213       8       2  24    0 80f a70f      8.970 "
test,1583575279275909888,45," | 45  |    225       5    214       7 |   5    0       203        18 |   2  24    0    0  80f |    3.479       0       5       0       5     24     24      0    200      21       3  24    0 80f a70f      9.540 "
test,1583575279264427776,46," | 46  |    225       5    205       9 |   5    0       208         6 |   2  24    0    0  80f |    3.479       0       5       0       5     24     24      0    204      10       3  24    0 80f a70f     10.380 "
test,1583575279271097856,47," | 47  |    225       4    212       9 |   5    0       212         9 |   2  24    0    0  80f |    2.746       0       5       0       5     24     24      0    209      12       2  24    0 80f a70f      9.660 "
test,1583575279266840064,48," | 48  |    225       5    147       7 |   5    0       145         9 |   2  24    0    0  80f |    2.716       0       5       0       5     24     24      0    141      13       2  24    0 80f a70f      9.540 "
test,1583575279260234240,49," | 49  |    225       5    215       0 |   5    0       211         4 |   1  53    0    0 9a0f |    2.044       0       5       0       5     53     53      0    211       4       1  53    09a0f a70f      8.220 "
test,1583575279257943040,51," | 51  |    225       5    216       0 |   4    8       214         2 |   8  51    5    1 920f |    1.739       0       4       0       4     51     51      0    214       2       2  51    1920f a70f      6.480 "
test,1583575279263953920,52," | 52  |    225       5    216       1 |   5    0       207        10 |   1  24    0    0  80f |    2.014       0       5       0       5     24     24      0    203      14       1  24    0 80f a70f      9.690 "
test,1583575279263191040,53," | 53  |    225       5    199       0 |   4    0       189        10 |   2  53    0    1 9a0f |    1.739       0       4       0       4     53     53      0    189      10       2  53    19a0f a70f      6.480 "
test,1583575279272624896,54," | 54  |    225       5    217       0 |   5    0       216         1 |   1  12    0    0 7e0f |    2.044       0       5       0       5     12     12      0    211       6       1  12    07e0f a70f     11.130 "
test,1583575279262671104,55," | 55  |    225       5    204       0 |   5    0       196         8 |   1  53    0    0 9a0f |    2.014       0       5       0       5     53     53      0    196       8       1  53    09a0f a70f      8.250 "
test,1583575279259654144,56," | 56  |    225       5    207       0 |   5    2       199         8 |   4  51    5    0 920f |    2.014       0       5       0       5     51     51      0    198       9       1  51    0920f a70f      8.280 "
test,1583575279277956864,57," | 57  |    225       5    162       0 |   5    0       155         7 |   2  24    0    0  80f |    0           0       0       0       8      0      0      0    149      13       0  24    0 80f a70f     30.330 "
test,1583575279270880000,58," | 58  |    225       5    216       0 |   5    0       214         2 |   2  12    0    0 7e0f |    3.479       0       5       0       5     12     12      0    211       5       3  12    07e0f a70f      9.540 "
test,1583575279258279936,5," |  5  |    225       5    223       0 |   1    4       207        16 |   5   5   12    1 ba0f |    1.739       0       4       0       4      5      5      0    201      22       2   5    1ba0f a70f      6.510 "
test,1583575279260504064,60," | 60  |    225       5    216       0 |   5    4       205        11 |   1  51   24    0 920f |    2.044       0       5       0       5     51     51      0    202      14       1  51    0920f a70f      8.130 "
test,1583575279261619200,61," | 61  |    225       5    215       0 |   5    0       206         9 |   2  12    0    0 7e0f |    2.746       0       5       0       5     12     12      0    202      13       2  12    07e0f a70f      8.850 "
test,1583575279258600960,7," |  7  |    225       5    222       0 |   5    0       219         3 |   1  12    0    0 7e0f |    2.014       0       5       0       5     12     12      0    220       2       1  12    07e0f a70f      8.160 "
test,1583575279259907840,9," |  9  |    225       5    221       0 |   5    0       213         8 |   2  12    0    0 7e0f |    2.014       0       5       0       5     12     12      0    213       8       1  12    07e0f a70f      8.280 "
