test,1583575935021824000,10," | 10  |   2848       5   2820       0 |   4    0      2774        46 |   3   9    0    0 890f |    2.075       0       5       0       5      9      9      0   2733      87       1   9    0890f a70f      8.160 "
test,1583575935030482944,12," | 12  |   2848       5   2846       0 |   5    0      2822        24 |   1   9    0    0 890f |    2.075       0       5       0       5      9      9      0   2776      70       1   9    0890f a70f      8.310 "
test,1583575935022012928,13," | 13  |   2848       5   2844       0 |   5    0      2824        20 |   1   9    0    0 890f |    2.075       0       5       0       5      9      9      0   2790      54       1   9    0890f a70f      9.000 "
test,1583575935025379840,15," | 15  |   2848       4   2846       0 |   5    0      2742       104 |   2   9    0    0 890f |    2.807       0       5       0       5      9      9      0   2627     219       2   9    0890f a70f      8.880 "
test,1583575935026707968,16," | 16  |   2848       5   2844       0 |   5    0      2748        96 |   2  42    0    0 de0f |    2.716       0       5       0       5     42     42      0   2678     166       2  42    0de0f a70f      8.760 "
test,1583575935045409024,17," | 17  |   2848       4   2839       5 |   3    3      2812        32 |   2  29   42    0 500f |    2.777       0       1       0       1     29     29      0   2725     119       2  29    0500f a70f     30.390 "
test,1583575935023622144,18," | 18  |   2848       5   2843       0 |   5    0      2685       158 |   1  42    0    0 de0f |    2.044       0       5       0       5     42     42      0   2565     278       1  42    0de0f a70f      8.190 "
test,1583575935043330816,19," | 19  |   2848       5   2835       9 |   4    4      2798        46 |   1  29   42    0 500f |    2.014       0       1       0       1     29     29      0   2710     134       1  29    0500f a70f     30.360 "
test,1583575935022629120,1," |  1  |   2848       4   2845       0 |   5    0      2779        66 |   1   9    0    0 890f |    2.685       0       5       0       5      9      9      0   2758      87       1   9    0890f a70f      8.940 "
test,1583575935028338944,22," | 22  |   2848       5   2842       0 |   5    0      2818        24 |   1  42    0    0 de0f |    2.746       0       5       0       5     42     42      0   2686     156       2  42    0de0f a70f      8.790 "
test,1583575935029126912,23," | 23  |   2848       5   2786       0 |   5    0      2772        14 |   3  42    0    0 de0f |    3.448       0       5       0       5     42     42      0   2716      70       3  42    0de0f a70f      9.510 "
test,1583575935024014080,24," | 24  |   2848       5   2842       2 |   5    0      2820        24 |   1  42    0    0 de0f |    2.014       0       5       0       5     42     42      0   2753      91       1  42    0de0f a70f      8.970 "
test,1583575935024252928,26," | 26  |   2848       5   2842       2 |   5    0      2834        10 |   2  42    0    0 de0f |    2.716       0       5       0       5     42     42      0   2782      62       2  42    0de0f a70f      9.540 "
test,1583575935045632000,27," | 27  |   2848       5   2846       0 |   1    5      2766        80 |   1  29   42    0 500f |    2.014       0       1       0       1     29     29      0   2646     200       1  29    0500f a70f     30.330 "
test,1583575935045069056,28," | 28  |   2848       5   2841       3 |   4    0      2626       218 |   2  35    0    0 230f |    2.014       0       4       0       4     35     35      0   2526     318       1  35    0230f a70f     30.300 "
test,1583575935048310016,29," | 29  |   2848       5   2842       4 |   2    0      2535       311 |   4  29    0    1 500f |    1.739       0       1       0       1     29     29      0   2396     450       2  29    1500f a70f     30.300 "
test,1583575935024788992,30," | 30  |   2848       5   2844       0 |   5    0      2806        38 |   1  35    0    0 230f |    2.014       0       5       0       5     35     35      0   2713     131       1  35    0230f a70f      8.070 "
test,1583575935028006144,35," | 35  |   2848       5   2844       0 |   5    0      2716       128 |   2  35    0    1 230f |    1.739       0       4       0       4     35     35      0   2658     186       2  35    1230f a70f      6.480 "
test,1583575935026278912,40," | 40  |   2848       5   2795      45 |   5    0      2653       187 |   2  42    0    0 de0f |    2.716       0       5       0       5     42     42      0   2585     255       2  42    0de0f a70f     10.350 "
test,1583575935030941952,41," | 41  |   2848       5   2790      44 |   5    0      2807        27 |   1  42    0    0 de0f |    2.044       0       5       0       5     42     42      0   2732     102       1  42    0de0f a70f      8.130 "
test,1583575935025223936,42," | 42  |   2848       5   2796      48 |   4    0      2777        67 |   4  42    0    1 de0f |    1.770       0       4       0       4     42     42      0   2706     138       2  42    1de0f a70f      6.510 "
test,1583575935026469888,44," | 44  |   2848       5   2802      42 |   5    0      2774        70 |   1  42    0    0 de0f |    2.044       0       5       0       5     42     42      0   2716     128       1  42    0de0f a70f      8.190 "
test,1583575935036645888,45," | 45  |   2848       5   2814      30 |   5    0      2749        95 |   1  42    0    0 de0f |    1.983       0       5       0       5     42     42      0   2696     148       1  42    0de0f a70f      9.600 "
test,1583575935025700096,46," | 46  |   2848       5   2794      43 |   5    0      2713       124 |   1  42    0    0 de0f |    1.983       0       5       0       5     42     42      0   2658     179       1  42    0de0f a70f      8.220 "
test,1583575935031537920,47," | 47  |   2848       5   2801      43 |   5    0      2744       100 |   1  42    0    0 de0f |    1.983       0       5       0       5     42     42      0   2683     161       1  42    0de0f a70f      8.160 "
test,1583575935028635136,48," | 48  |   2848       5   2736      41 |   5    0      2709        68 |   1  42    0    0 de0f |    1.983       0       5       0       5     42     42      0   2654     123       1  42    0de0f a70f      8.190 "
test,1583575935023827200,49," | 49  |   2848       5   2838       0 |   5    0      2787        51 |   1  53    0    0 240f |    2.075       0       5       0       5     53     53      0   2759      79       1  53    0240f a70f      8.130 "
test,1583575935025940992,51," | 51  |   2848       5   2839       0 |   5    0      2818        21 |   1  60    0    0 b90f |    2.044       0       5       0       5     60     60      0   2810      29       1  60    0b90f a70f      8.190 "
test,1583575935030775040,52," | 52  |   2848       4   2817      23 |   5    0      2703       137 |   4  42    0    0 de0f |    2.746       0       5       0       5     42     42      0   2649     191       2  42    0de0f a70f     10.380 "
test,1583575935034800896,53," | 53  |   2848       5   2822       0 |   4    0      2685       137 |   2  53    0    1 240f |    1.739       0       4       0       4     53     53      0   2649     173       2  53    1240f a70f      6.510 "
test,1583575935022445824,54," | 54  |   2848       5   2840       0 |   5    0      2792        48 |   1   9    0    0 890f |    2.075       0       5       0       5      9      9      0   2746      94       1   9    0890f a70f      8.190 "
test,1583575935027152128,55," | 55  |   2848       5   2827       0 |   5    0      2728        99 |   1  53    0    0 240f |    2.044       0       5       0       5     53     53      0   2701     126       1  53    0240f a70f      8.250 "
test,1583575935030070016,56," | 56  |   2848       5   2830       0 |   5    0      2784        46 |   1  60    0    0 b90f |    2.044       0       5       0       5     60     60      0   2760      70       1  60    0b90f a70f      8.910 "
test,1583575935044406784,57," | 57  |   2848       5   2785       0 |   1    7      2715        70 |   1  60    9    0 b90f |    2.044       0       2       0       2     60     60      0   2554     231       1  60    0b90f a70f     30.360 "
test,1583575935046246144,58," | 58  |   2848       5   2839       0 |   4    0      2805        34 |   9   9    0    0 890f |    4.974       0       3       0       3      9      9      0   2687     152       5   9    0890f a70f     30.300 "
test,1583575935024488960,5," |  5  |   2848       5   2846       0 |   5    0      2608       238 |   2   9    0    0 890f |    2.746       0       5       0       5      9      9      0   2557     289       2   9    0890f a70f      8.970 "
test,1583575935027539968,60," | 60  |   2848       5   2839       0 |   5    0      2653       186 |   2  60    0    1 b90f |    1.739       0       4       0       4     60     60      0   2607     232       2  60    1b90f a70f      6.480 "
test,1583575935046088960,61," | 61  |   2848       5   2838       0 |   5    0      2716       122 |   4   9    0    0 890f |    4.241       0       4       0       4      9      9      0   2634     204       4   9    0890f a70f     30.360 "
test,1583575935022845952,7," |  7  |   2848       5   2845       0 |   5    0      2800        45 |   1   9    0    0 890f |    2.014       0       5       0       5      9      9      0   2786      59       1   9    0890f a70f      8.250 "
test,1583575935023091968,9," |  9  |   2848       5   2844       0 |   5    0      2734       110 |   2   9    0    1 890f |    1.739       0       4       0       4      9      9      0   2720     124       2   9    1890f a70f      6.480 "
