test,1583575766771614976,10," | 10  |   2175       5   2147       0 |   4    0      2116        31 |   3   5    0    0 c60f |    2.716       0       5       0       5      5      5      0   2086      61       2   5    0c60f a70f      8.970 "
test,1583575766770185984,12," | 12  |   2175       5   2173       0 |   5    0      2153        20 |   1   5    0    0 c60f |    1.983       0       5       0       5      5      5      0   2119      54       1   5    0c60f a70f      8.130 "
test,1583575766769388800,13," | 13  |   2175       5   2171       0 |   5    0      2154        17 |   1   5    0    0 c60f |    2.044       0       5       0       5      5      5      0   2127      44       1   5    0c60f a70f      8.280 "
test,1583575766782857984,15," | 15  |   2175       5   2173       0 |   5    0      2097        76 |   1   5    0    0 c60f |    2.746       0       5       0       5      5      5      0   2008     165       2   5    0c60f a70f      8.970 "
test,1583575766791532032,16," | 16  |   2175       5   2171       0 |   0    6      2094        77 |   0  16   49    1 120f |    0           0       0       0       8      0      0      0   2039     132       0  16    1120f a70f     30.150 "
test,1583575766776293120,17," | 17  |   2175       5   2170       1 |   5    0      2145        26 |   6  49    0    0 770f |    4.211       0       5       0       5     49     49      0   2080      91       4  49    0770f a70f     12.450 "
test,1583575766779617024,18," | 18  |   2175       5   2170       0 |   5    0      2046       124 |   4  49    0    0 770f |    4.974       0       5       0       5     49     49      0   1957     213       5  49    0770f a70f     14.610 "
test,1583575766790905856,19," | 19  |   2175       4   2169       2 |   5    0      2143        28 |   5  49    0    0 770f |    4.974       0       4       0       4     49     49      0   2079      92       5  49    0770f a70f     30.360 "
test,1583575766770728192,1," |  1  |   2175       4   2172       0 |   5    0      2117        55 |   2   5    0    0 c60f |    3.448       0       5       0       5      5      5      0   2099      73       2   5    0c60f a70f      9.540 "
test,1583575766777473024,22," | 22  |   2175       5   2169       0 |   5    0      2153        16 |   3  49    0    0 770f |    4.211       0       5       0       5     49     49      0   2053     116       4  49    0770f a70f     13.860 "
test,1583575766798130944,23," | 23  |   2175       5   2113       0 |   5    0      2101        12 |   5  49    0    0 770f |    3.540       0       4       0       4     49     49      0   2061      52       3  49    0770f a70f     30.240 "
test,1583575766780865792,24," | 24  |   2175       5   2171       0 |   5    0      2155        16 |   4  49    0    0 770f |    4.272       0       5       0       5     49     49      0   2109      62       4  49    0770f a70f     13.920 "
test,1583575766774564096,26," | 26  |   2175       5   2171       0 |   5    0      2162         9 |   3  49    0    0 770f |    3.509       0       5       0       5     49     49      0   2124      47       3  49    0770f a70f     14.040 "
test,1583575766800295168,27," | 27  |   2175       5   2173       0 |   2    8      2112        61 |   2   5   49    0 c60f |    3.479       0       3       0       3      5      5      0   2015     158       3   5    0c60f a70f     30.360 "
test,1583575766795286016,28," | 28  |   2175       5   2171       0 |   5    0      2003       168 |   5  49    0    0 770f |    6.439       0       4       0       4     49     49      0   1939     232       7  49    0770f a70f     30.240 "
test,1583575766793561856,29," | 29  |   2175       4   2169       4 |   2    4      1932       241 |   3   5   49    0 c60f |    4.211       0       2       0       2      5      5      0   1821     352       4   5    0c60f a70f     30.360 "
test,1583575766787174912,30," | 30  |   2175       5   2171       0 |   5    0      2142        29 |   5  49    0    0 770f |    5.004       0       5       0       5     49     49      0   2076      95       5  49    0770f a70f     15.420 "
test,1583575766788576000,35," | 35  |   2175       5   2171       0 |   5    0      2076        95 |   4  49    0    0 770f |    4.974       0       5       0       5     49     49      0   2035     136       5  49    0770f a70f     14.730 "
test,1583575766779345152,40," | 40  |   2175       5   2135      32 |   4    0      2012       155 |   3  40    0    1 580f |    1.770       0       4       0       4     40     40      0   1963     204       2  40    1580f a70f      7.950 "
test,1583575766781999104,41," | 41  |   2175       5   2129      32 |   5    0      2139        22 |   2  40    0    0 580f |    1.983       0       5       0       5     40     40      0   2086      75       1  40    0580f a70f      8.250 "
test,1583575766778456832,42," | 42  |   2175       5   2136      35 |   4    0      2118        53 |   4  40    0    0 580f |    2.044       0       5       0       5     40     40      0   2062     109       1  40    0580f a70f      9.630 "
test,1583575766765394944,44," | 44  |   2175       5   2141      30 |   3    0      2118        53 |   7  40    0    0 580f |    2.044       0       5       0       5     40     40      0   2067     104       1  40    0580f a70f      8.250 "
test,1583575766784854784,45," | 45  |   2175       5   2147      24 |   5    0      2097        74 |   3  40    0    0 580f |    2.777       0       5       0       5     40     40      0   2056     115       2  40    0580f a70f      8.970 "
test,1583575766783116032,46," | 46  |   2175       5   2133      31 |   5    0      2064       100 |   1  40    0    0 580f |    2.014       0       5       0       5     40     40      0   2023     141       1  40    0580f a70f      8.970 "
test,1583575766785805056,47," | 47  |   2175       5   2139      32 |   5    0      2099        72 |   1  40    0    0 580f |    1.953       0       5       0       5     40     40      0   2046     125       1  40    0580f a70f      8.910 "
test,1583575766776724992,48," | 48  |   2175       5   2075      29 |   4    0      2048        56 |   4  40    0    0 580f |    2.044       0       5       0       5     40     40      0   2003     101       1  40    0580f a70f      9.630 "
test,1583575766768982784,49," | 49  |   2175       5   2165       0 |   4    0      2126        39 |   2  49    0    1 770f |    1.770       0       4       0       4     49     49      0   2106      59       2  49    1770f a70f      6.510 "
test,1583575766797494016,51," | 51  |   2175       5   2166       0 |   4    0      2152        14 |   4   5    0    0 c60f |    2.777       0       4       0       4      5      5      0   2146      20       2   5    0c60f a70f     30.360 "
test,1583575766795497984,52," | 52  |   2175       4   2148      19 |   0   10      2054       113 |   0  52   49    1 140f |    0           0       0       0       8      0      0      0   2012     155       0  52    1140f a70f     30.180 "
test,1583575766775515136,53," | 53  |   2175       5   2149       0 |   5    0      2045       104 |   1  49    0    0 770f |    2.075       0       5       0       5     49     49      0   2020     129       1  49    0770f a70f      8.160 "
test,1583575766775134976,54," | 54  |   2175       5   2167       0 |   4    0      2134        33 |   3   5    0    0 c60f |    3.479       0       5       0       5      5      5      0   2095      72       3   5    0c60f a70f      9.570 "
test,1583575766774155008,55," | 55  |   2175       5   2154       0 |   5    0      2082        72 |   1  49    0    0 770f |    2.044       0       5       0       5     49     49      0   2065      89       1  49    0770f a70f      8.280 "
test,1583575766796338176,56," | 56  |   2175       5   2157       0 |   1    3      2121        36 |   2  49    5    0 770f |    2.777       0       4       0       4     49     49      0   2105      52       2  49    0770f a70f     30.360 "
test,1583575766773129984,57," | 57  |   2175       5   2112       0 |   5    0      2057        55 |   2  49    0    0 770f |    2.777       0       5       0       5     49     49      0   1937     175       2  49    0770f a70f      9.720 "
test,1583575766781186048,58," | 58  |   2175       5   2166       0 |   5    0      2139        27 |   1  49    0    0 770f |    2.044       0       5       0       5     49     49      0   2052     114       1  49    0770f a70f      9.030 "
test,1583575766769846016,5," |  5  |   2175       5   2173       0 |   4    0      1987       186 |   4   5    0    1 c60f |    1.739       0       4       0       4      5      5      0   1947     226       2   5    1c60f a70f      6.480 "
test,1583575766790365952,60," | 60  |   2175       5   2166       0 |   0    0      2021       145 |   0   0    0    0    0 |    0           0       0       0       8      0      0      0   1990     176       0   0    0   0 a70f     30.360 "
test,1583575766772748032,61," | 61  |   2175       5   2165       0 |   2    0      2072        93 |   2  49    0    0 770f |    2.777       0       5       0       5     49     49      0   2014     151       2  49    0770f a70f      9.690 "
test,1583575766773667072,7," |  7  |   2175       5   2172       0 |   5    0      2138        34 |   2   5    0    0 c60f |    2.746       0       5       0       5      5      5      0   2125      47       2   5    0c60f a70f      8.940 "
test,1583575766771145216,9," |  9  |   2175       5   2171       0 |   5    0      2090        81 |   2   5    0    0 c60f |    2.777       0       5       0       5      5      5      0   2078      93       2   5    0c60f a70f      9.000 "
