test,1583575769290853888,10," | 10  |   2185       5   2157       0 |   5    0      2126        31 |   1  56    0    0 8e0f |    2.746       0       4       0       4     56     56      0   2096      61       2  56    08e0f a70f     30.300 "
test,1583575769270360832,12," | 12  |   2185       5   2183       0 |   5    0      2163        20 |   4  56    0    0 8e0f |    2.777       0       5       0       5     56     56      0   2129      54       2  56    08e0f a70f      9.000 "
test,1583575769286704896,13," | 13  |   2185       5   2181       0 |   0    9      2163        18 |   0  13   56    1 1d0f |    0           0       0       0       8      0      0      0   2136      45       0  13    11d0f a70f     30.150 "
test,1583575769293273088,15," | 15  |   2185       5   2183       0 |   4    4      2106        77 |   5  56   29    0 8e0f |    3.448       0       4       0       4     56     56      0   2018     165       3  56    08e0f a70f     30.390 "
test,1583575769274791936,16," | 16  |   2185       5   2181       0 |   5    0      2104        77 |   5  56    0    0 8e0f |    3.448       0       5       0       5     56     56      0   2049     132       3  56    08e0f a70f      9.630 "
test,1583575769291395840,17," | 17  |   2185       5   2180       1 |   1    8      2155        26 |   2  42   56    0  a0f |    2.777       0       1       0       1     42     42      0   2090      91       2  42    0 a0f a70f     30.360 "
test,1583575769293908224,18," | 18  |   2185       5   2180       0 |   1    7      2056       124 |   2  42   56    0  a0f |    2.777       0       1       0       1     42     42      0   1966     214       2  42    0 a0f a70f     30.360 "
test,1583575769276207872,19," | 19  |   2185       5   2179       2 |   5    0      2153        28 |   4  56    0    0 8e0f |    4.180       0       5       0       5     56     56      0   2088      93       4  56    08e0f a70f     10.380 "
test,1583575769273864960,1," |  1  |   2185       4   2182       0 |   5    0      2127        55 |   3  56    0    0 8e0f |    3.448       0       5       0       5     56     56      0   2109      73       2  56    08e0f a70f      9.510 "
test,1583575769273366016,22," | 22  |   2185       5   2179       0 |   5    0      2163        16 |   4  56    0    0 8e0f |    4.241       0       5       0       5     56     56      0   2062     117       4  56    08e0f a70f     10.260 "
test,1583575769270978048,23," | 23  |   2185       5   2123       0 |   5    0      2111        12 |   2  56    0    0 8e0f |    2.746       0       5       0       5     56     56      0   2071      52       2  56    08e0f a70f      8.790 "
test,1583575769274353152,24," | 24  |   2185       5   2181       0 |   5    0      2165        16 |   3  56    0    0 8e0f |    3.479       0       5       0       5     56     56      0   2119      62       3  56    08e0f a70f      9.690 "
test,1583575769271155968,26," | 26  |   2185       5   2181       0 |   5    0      2172         9 |   2  56    0    0 8e0f |    2.716       0       5       0       5     56     56      0   2134      47       2  56    08e0f a70f      8.970 "
test,1583575769292577024,27," | 27  |   2185       5   2183       0 |   5    0      2121        62 |   3  56    0    0 8e0f |    3.509       0       4       0       4     56     56      0   2024     159       3  56    08e0f a70f     30.300 "
test,1583575769293735936,28," | 28  |   2185       5   2181       0 |   5    0      2013       168 |   3  42    0    0  a0f |    3.479       0       1       0       1     42     42      0   1949     232       3  42    0 a0f a70f     30.360 "
test,1583575769291106048,29," | 29  |   2185       5   2179       4 |   0    7      1941       242 |   0  29   56    1 180f |    0           0       0       0       8      0      0      0   1830     353       0  29    1180f a70f     30.150 "
test,1583575769288760064,30," | 30  |   2185       5   2181       0 |   5    0      2152        29 |   4  42    0    0  a0f |    0           0       0       0       8      0      0      0   2084      97       0  42    0 a0f a70f     30.360 "
test,1583575769289433088,35," | 35  |   2185       5   2181       0 |   0    0      2085        96 |   0   0    0    0    0 |    0           0       0       0       8      0      0      0   2044     137       0   0    0   0 a70f     30.360 "
test,1583575769273626112,40," | 40  |   2185       4   2145      32 |   5    0      2021       156 |   1  42    0    0  a0f |    2.777       0       5       0       5     42     42      0   1972     205       2  42    0 a0f a70f      9.630 "
test,1583575769283559168,41," | 41  |   2185       5   2139      32 |   5    0      2149        22 |   1  42    0    0  a0f |    1.983       0       5       0       5     42     42      0   2094      77       1  42    0 a0f a70f     10.380 "
test,1583575769270164992,42," | 42  |   2185       5   2146      35 |   3    0      2128        53 |   9  42    0    1  a0f |    1.739       0       4       0       4     42     42      0   2072     109       2  42    1 a0f a70f      6.480 "
test,1583575769275682048,44," | 44  |   2185       5   2151      30 |   5    0      2128        53 |   1  42    0    0  a0f |    2.044       0       5       0       5     42     42      0   2077     104       1  42    0 a0f a70f      8.970 "
test,1583575769275027968,45," | 45  |   2185       5   2157      24 |   5    0      2107        74 |   1  42    0    0  a0f |    2.014       0       5       0       5     42     42      0   2065     116       1  42    0 a0f a70f      8.850 "
test,1583575769277198080,46," | 46  |   2185       5   2143      31 |   5    0      2073       101 |   1  42    0    0  a0f |    2.716       0       5       0       5     42     42      0   2031     143       2  42    0 a0f a70f      9.660 "
test,1583575769269912064,47," | 47  |   2185       5   2149      32 |   5    0      2109        72 |   1  42    0    0  a0f |    1.983       0       5       0       5     42     42      0   2056     125       1  42    0 a0f a70f      8.940 "
test,1583575769277776128,48," | 48  |   2185       5   2085      29 |   5    0      2058        56 |   1  42    0    0  a0f |    2.014       0       5       0       5     42     42      0   2013     101       1  42    0 a0f a70f      9.660 "
test,1583575769271708928,49," | 49  |   2185       5   2175       0 |   5    0      2136        39 |   2  56    0    0 8e0f |    2.746       0       5       0       5     56     56      0   2116      59       2  56    08e0f a70f      8.850 "
test,1583575769269683968,51," | 51  |   2185       5   2176       0 |   5    0      2162        14 |   1  56    0    0 8e0f |    2.014       0       5       0       5     56     56      0   2156      20       1  56    08e0f a70f      8.220 "
test,1583575769294425856,52," | 52  |   2185       5   2158      19 |   5    0      2064       113 |   3  56    0    0 8e0f |    3.448       0       3       0       3     56     56      0   2022     155       3  56    08e0f a70f     30.360 "
test,1583575769272130048,53," | 53  |   2185       5   2159       0 |   5    0      2054       105 |   3  56    0    0 8e0f |    3.448       0       5       0       5     56     56      0   2029     130       3  56    08e0f a70f      9.660 "
test,1583575769270811136,54," | 54  |   2185       5   2177       0 |   5    0      2144        33 |   2  56    0    0 8e0f |    2.746       0       5       0       5     56     56      0   2105      72       2  56    08e0f a70f      8.880 "
test,1583575769271323904,55," | 55  |   2185       5   2164       0 |   5    0      2092        72 |   2  56    0    0 8e0f |    2.746       0       5       0       5     56     56      0   2075      89       2  56    08e0f a70f      8.970 "
test,1583575769271485952,56," | 56  |   2185       5   2167       0 |   4    0      2130        37 |   4  56    0    1 8e0f |    1.739       0       4       0       4     56     56      0   2114      53       2  56    18e0f a70f      6.480 "
test,1583575769293004032,57," | 57  |   2185       5   2122       0 |   5    0      2067        55 |   1  56    0    0 8e0f |    2.014       0       4       0       4     56     56      0   1946     176       1  56    08e0f a70f     30.390 "
test,1583575769271884800,58," | 58  |   2185       5   2176       0 |   5    0      2149        27 |   1  56    0    0 8e0f |    2.044       0       5       0       5     56     56      0   2062     114       1  56    08e0f a70f      8.910 "
test,1583575769290118912,5," |  5  |   2185       5   2183       0 |   4    0      1996       187 |   5  56    0    0 8e0f |    3.448       0       3       0       3     56     56      0   1956     227       3  56    08e0f a70f     30.360 "
test,1583575769275377920,60," | 60  |   2185       5   2176       0 |   5    0      2030       146 |   1  56    0    0 8e0f |    2.044       0       5       0       5     56     56      0   1999     177       1  56    08e0f a70f      8.970 "
test,1583575769274168064,61," | 61  |   2185       5   2175       0 |   5    0      2082        93 |   1  56    0    0 8e0f |    2.014       0       5       0       5     56     56      0   2023     152       1  56    08e0f a70f      8.190 "
test,1583575769272506880,7," |  7  |   2185       5   2182       0 |   5    0      2147        35 |   4  56    0    0 8e0f |    2.746       0       5       0       5     56     56      0   2134      48       2  56    08e0f a70f      9.660 "
test,1583575769275932160,9," |  9  |   2185       5   2181       0 |   5    0      2100        81 |   2  56    0    0 8e0f |    3.509       0       5       0       5     56     56      0   2088      93       3  56    08e0f a70f      9.720 "
