test,1583575273511516160,10," | 10  |    202       5    174       0 |   5    0       172         2 |   2   9    0    0 880f |    2.014       0       5       0       5      9      9      0    170       4       1   9    0880f a70f      8.250 "
test,1583575273506964992,12," | 12  |    202       5    200       0 |   5    0       199         1 |   2   9    0    0 880f |    2.014       0       5       0       5      9      9      0    195       5       1   9    0880f a70f      8.190 "
test,1583575273508384000,13," | 13  |    202       5    198       0 |   5    0       195         3 |   1   9    0    0 880f |    2.044       0       5       0       5      9      9      0    191       7       1   9    0880f a70f      8.850 "
test,1583575273514568192,15," | 15  |    202       5    200       0 |   5    0       190        10 |   3   9    0    0 880f |    2.746       0       5       0       5      9      9      0    184      16       2   9    0880f a70f      8.940 "
test,1583575273508166144,16," | 16  |    202       5    198       0 |   4    0       190         8 |   3  16    0    1 d70f |    1.739       0       4       0       4     16     16      0    187      11       2  16    1d70f a70f      6.480 "
test,1583575273519090944,17," | 17  |    202       5    198       0 |   5    0       196         2 |   1  16    0    0 d70f |    2.746       0       5       0       5     16     16      0    188      10       2  16    0d70f a70f      9.480 "
test,1583575273517287936,18," | 18  |    202       5    197       0 |   5    0       181        16 |   3  16    0    0 d70f |    3.448       0       5       0       5     16     16      0    173      24       3  16    0d70f a70f     10.290 "
test,1583575273518556160,19," | 19  |    202       5    197       1 |   5    0       195         3 |   2  16    0    0 d70f |    2.746       0       5       0       5     16     16      0    187      11       2  16    0d70f a70f      9.690 "
test,1583575273508645120,1," |  1  |    202       4    199       0 |   5    0       194         5 |   1   9    0    0 880f |    2.716       0       5       0       5      9      9      0    193       6       1   9    0880f a70f      8.910 "
test,1583575273512381184,22," | 22  |    202       5    196       0 |   4    2       195         1 |   4  16   57    0 d70f |    2.777       0       5       0       5     16     16      0    188       8       2  16    0d70f a70f      9.690 "
test,1583575273509048064,23," | 23  |    202       5    140       0 |   4    2       138         2 |   1  16   57    0 d70f |    2.014       0       5       0       5     16     16      0    138       2       1  16    0d70f a70f      8.130 "
test,1583575273509349120,24," | 24  |    202       5    198       0 |   5    0       196         2 |   2  16    0    0 d70f |    2.716       0       5       0       5     16     16      0    192       6       2  16    0d70f a70f      8.850 "
test,1583575273509933056,26," | 26  |    202       5    198       0 |   5    0       198         0 |   2  16    0    0 d70f |    2.746       0       5       0       5     16     16      0    192       6       2  16    0d70f a70f      9.690 "
test,1583575273527857152,27," | 27  |    202       5    200       0 |   5    0       193         7 |   2  16    0    0 d70f |    2.746       0       4       0       4     16     16      0    184      16       2  16    0d70f a70f     30.360 "
test,1583575273534354944,28," | 28  |    202       5    198       0 |   3    0       186        12 |   2  16    0    0 d70f |    3.509       0       4       0       4     16     16      0    179      19       3  16    0d70f a70f     30.360 "
test,1583575273519664896,30," | 30  |    202       5    198       0 |   5    0       197         1 |   3  16    0    0 d70f |    3.479       0       5       0       5     16     16      0    192       6       3  16    0d70f a70f     10.260 "
test,1583575273513068800,35," | 35  |    202       5    198       0 |   5    0       191         7 |   4  16    0    0 d70f |    3.448       0       5       0       5     16     16      0    189       9       3  16    0d70f a70f     10.260 "
test,1583575273513967872,40," | 40  |    202       5    187       7 |   5    0       171        23 |   2  16    0    0 d70f |    4.211       0       5       0       5     16     16      0    165      29       4  16    0d70f a70f     11.790 "
test,1583575273512552960,41," | 41  |    202       5    180       8 |   5    0       186         2 |   1  16    0    0 d70f |    3.509       0       5       0       5     16     16      0    182       6       3  16    0d70f a70f      9.600 "
test,1583575273511344896,42," | 42  |    202       5    190       8 |   5    0       191         7 |   2  16    0    0 d70f |    3.479       0       5       0       5     16     16      0    186      12       3  16    0d70f a70f      9.630 "
test,1583575273510627072,44," | 44  |    202       5    190       8 |   5    0       196         2 |   3  16    0    0 d70f |    3.479       0       5       0       5     16     16      0    190       8       3  16    0d70f a70f      9.630 "
test,1583575273515175168,45," | 45  |    202       5    192       6 |   5    0       181        17 |   1  16    0    0 d70f |    4.241       0       5       0       5     16     16      0    178      20       4  16    0d70f a70f     10.440 "
test,1583575273511697152,46," | 46  |    202       5    183       8 |   5    0       186         5 |   2  16    0    0 d70f |    4.241       0       5       0       5     16     16      0    182       9       4  16    0d70f a70f     10.290 "
test,1583575273513394944,47," | 47  |    202       5    190       8 |   5    0       192         6 |   2  16    0    0 d70f |    4.241       0       5       0       5     16     16      0    189       9       4  16    0d70f a70f     11.760 "
test,1583575273513581056,48," | 48  |    202       5    125       6 |   5    0       125         6 |   2  16    0    0 d70f |    3.509       0       5       0       5     16     16      0    120      11       3  16    0d70f a70f     11.160 "
test,1583575273522824960,49," | 49  |    202       5    192       0 |   4    1       188         4 |  17  49   53    1 a70f |    5.981       0       4       0       4     49     49      0    188       4       8  49    1a70f a70f     10.530 "
test,1583575273515467008,51," | 51  |    202       5    193       0 |   5    5       192         1 |   1  57    9    0 190f |    2.014       0       5       0       5     57     57      0    192       1       1  57    0190f a70f      9.480 "
test,1583575273528392960,52," | 52  |    202       5    193       1 |   5    0       185         9 |   1  16    0    0 d70f |    2.746       0       4       0       4     16     16      0    182      12       2  16    0d70f a70f     30.330 "
test,1583575273536257024,53," | 53  |    202       5    176       0 |   1    8       167         9 |   2  53   49    1 cc0f |    1.770       0       1       0       1     53     53      0    167       9       2  53    1cc0f a70f     30.300 "
test,1583575273507590144,54," | 54  |    202       5    194       0 |   5    0       193         1 |   2   9    0    0 880f |    2.075       0       5       0       5      9      9      0    188       6       1   9    0880f a70f      8.190 "
test,1583575273531302912,55," | 55  |    202       5    181       0 |   2   12       173         8 |   1  53   49    0 cc0f |    2.075       0       2       0       2     53     53      0    173       8       1  53    0cc0f a70f     30.330 "
test,1583575273510440192,56," | 56  |    202       5    184       0 |   5    2       177         7 |   1  57    9    0 190f |    2.044       0       5       0       5     57     57      0    176       8       1  57    0190f a70f      8.850 "
test,1583575273511140096,57," | 57  |    202       5    139       0 |   4    0       133         6 |  14  57    0    1 190f |    3.814       0       4       0       4     57     57      0    130       9       5  57    1190f a70f      8.370 "
test,1583575273514915840,58," | 58  |    202       5    193       0 |   5    5       191         2 |   1  49   57    0 a70f |    2.044       0       5       0       5     49     49      0    189       4       1  49    0a70f a70f     10.950 "
test,1583575273511950848,5," |  5  |    202       5    200       0 |   5    0       185        15 |   2   9    0    0 880f |    2.746       0       5       0       5      9      9      0    179      21       2   9    0880f a70f      8.970 "
test,1583575273512724992,60," | 60  |    202       5    193       0 |   5    0       185         8 |   1  57    0    0 190f |    2.014       0       5       0       5     57     57      0    182      11       1  57    0190f a70f      8.820 "
test,1583575273528081920,61," | 61  |    202       5    192       0 |   2    7       185         7 |   3   9   49    0 880f |    0           0       0       0       8      0      0      0    181      11       0   9    0880f a70f     30.390 "
test,1583575273508857856,7," |  7  |    202       5    199       0 |   5    0       197         2 |   1   9    0    0 880f |    2.044       0       5       0       5      9      9      0    198       1       1   9    0880f a70f      8.970 "
test,1583575273506707968,9," |  9  |    202       5    198       0 |   5    0       192         6 |   2   9    0    1 880f |    1.739       0       4       0       4      9      9      0    192       6       2   9    1880f a70f      6.480 "
