test,1583575768270724096,10," | 10  |   2181       5   2153       0 |   5    0      2122        31 |   3   5    0    0 eb0f |    2.807       0       5       0       5      5      5      0   2092      61       2   5    0eb0f a70f      9.030 "
test,1583575768269801984,12," | 12  |   2181       5   2179       0 |   5    0      2159        20 |   1   5    0    0 eb0f |    2.044       0       5       0       5      5      5      0   2125      54       1   5    0eb0f a70f      8.190 "
test,1583575768268773120,13," | 13  |   2181       5   2177       0 |   5    0      2160        17 |   1   5    0    0 eb0f |    2.075       0       5       0       5      5      5      0   2133      44       1   5    0eb0f a70f      8.310 "
test,1583575768291702016,15," | 15  |   2181       5   2179       0 |   5    0      2103        76 |   1   5    0    0 eb0f |    2.075       0       4       0       4      5      5      0   2014     165       1   5    0eb0f a70f     30.390 "
test,1583575768274408960,16," | 16  |   2181       5   2177       0 |   5    0      2100        77 |   1  23    0    0 d70f |    2.014       0       5       0       5     23     23      0   2045     132       1  23    0d70f a70f      8.940 "
test,1583575768273030144,17," | 17  |   2181       5   2176       1 |   5    0      2151        26 |   1  23    0    0 d70f |    2.777       0       5       0       5     23     23      0   2086      91       2  23    0d70f a70f      9.000 "
test,1583575768277391872,18," | 18  |   2181       5   2176       0 |   5    0      2052       124 |   2  23    0    0 d70f |    2.777       0       5       0       5     23     23      0   1963     213       2  23    0d70f a70f      8.940 "
test,1583575768292390144,19," | 19  |   2181       5   2175       2 |   5    0      2149        28 |   1  23    0    0 d70f |    2.746       0       1       0       1     23     23      0   2084      93       2  23    0d70f a70f     30.390 "
test,1583575768273477120,1," |  1  |   2181       4   2178       0 |   5    0      2123        55 |   2   5    0    0 eb0f |    3.479       0       5       0       5      5      5      0   2105      73       2   5    0eb0f a70f      9.630 "
test,1583575768270510848,22," | 22  |   2181       5   2175       0 |   5    0      2159        16 |   1  23    0    0 d70f |    2.044       0       5       0       5     23     23      0   2059     116       1  23    0d70f a70f      8.130 "
test,1583575768271934976,23," | 23  |   2181       5   2119       0 |   4    0      2107        12 |   4  23    0    1 d70f |    1.739       0       4       0       4     23     23      0   2067      52       2  23    1d70f a70f      7.230 "
test,1583575768269601024,24," | 24  |   2181       5   2177       0 |   5    0      2161        16 |   1  23    0    0 d70f |    2.044       0       5       0       5     23     23      0   2115      62       1  23    0d70f a70f      8.280 "
test,1583575768268974080,26," | 26  |   2181       5   2177       0 |   5    0      2168         9 |   1  23    0    0 d70f |    2.014       0       5       0       5     23     23      0   2130      47       1  23    0d70f a70f      8.190 "
test,1583575768272818944,27," | 27  |   2181       5   2179       0 |   5    0      2117        62 |   1  23    0    0 d70f |    2.044       0       5       0       5     23     23      0   2020     159       1  23    0d70f a70f      8.130 "
test,1583575768294134016,28," | 28  |   2181       5   2177       0 |   5    0      2009       168 |   2  35    0    0 be0f |    2.014       0       4       0       4     35     35      0   1945     232       1  35    0be0f a70f     30.360 "
test,1583575768275023104,29," | 29  |   2181       5   2175       4 |   4    0      1938       241 |   2  23    0    0 d70f |    2.777       0       5       0       5     23     23      0   1827     352       2  23    0d70f a70f      8.820 "
test,1583575768270339072,30," | 30  |   2181       5   2177       0 |   5    0      2148        29 |   1  35    0    0 be0f |    2.014       0       5       0       5     35     35      0   2082      95       1  35    0be0f a70f      8.250 "
test,1583575768269968128,35," | 35  |   2181       5   2177       0 |   4    1      2082        95 |   8  35   23    1 be0f |    1.739       0       4       0       4     35     35      0   2041     136       2  35    1be0f a70f      6.480 "
test,1583575768281634048,40," | 40  |   2181       5   2141      32 |   5    4      2018       155 |   1  47   23    0 ba0f |    1.983       0       5       0       5     47     47      0   1969     204       1  47    0ba0f a70f     14.400 "
test,1583575768273646080,41," | 41  |   2181       5   2135      32 |   5    0      2145        22 |   3  23    0    0 d70f |    3.479       0       5       0       5     23     23      0   2091      76       3  23    0d70f a70f      9.540 "
test,1583575768277826048,42," | 42  |   2181       5   2142      35 |   5    0      2124        53 |   4  23    0    0 d70f |    4.241       0       5       0       5     23     23      0   2068     109       4  23    0d70f a70f     11.790 "
test,1583575768274715904,44," | 44  |   2181       5   2147      30 |   4    8      2124        53 |   6  23   47    0 d70f |    4.241       0       5       0       5     23     23      0   2073     104       4  23    0d70f a70f     11.010 "
test,1583575768272157952,45," | 45  |   2181       5   2153      24 |   5    0      2103        74 |   2  23    0    0 d70f |    4.241       0       5       0       5     23     23      0   2062     115       4  23    0d70f a70f     10.320 "
test,1583575768283620096,46," | 46  |   2181       5   2139      31 |   5    0      2070       100 |   4  23    0    0 d70f |    4.241       0       5       0       5     23     23      0   2028     142       4  23    0d70f a70f     10.320 "
test,1583575768292839168,47," | 47  |   2181       5   2145      32 |   3   10      2105        72 |   8  47   23    1 ba0f |   12.451       0       2       0       2     47     47      0   2052     125      17  47    1ba0f a70f     30.300 "
test,1583575768275954944,48," | 48  |   2181       5   2081      29 |   5    5      2054        56 |   2  47   23    0 ba0f |    2.044       0       5       0       5     47     47      0   2009     101       1  47    0ba0f a70f     14.340 "
test,1583575768291218944,49," | 49  |   2181       5   2171       0 |   2    5      2132        39 |   2  55   53    0 480f |    2.746       0       1       0       1     55     55      0   2112      59       2  55    0480f a70f     30.330 "
test,1583575768275721984,51," | 51  |   2181       5   2172       0 |   5    0      2158        14 |   2   5    0    0 eb0f |    2.777       0       5       0       5      5      5      0   2152      20       2   5    0eb0f a70f      8.970 "
test,1583575768278129152,52," | 52  |   2181       4   2154      19 |   5    0      2060       113 |   1  23    0    0 d70f |    2.044       0       5       0       5     23     23      0   2018     155       1  23    0d70f a70f      8.160 "
test,1583575768289787904,53," | 53  |   2181       5   2155       0 |   0    2      2050       105 |   0  53   55    1 210f |    0           0       0       0       8      0      0      0   2025     130       0  53    1210f a70f     30.210 "
test,1583575768275358976,54," | 54  |   2181       5   2173       0 |   5    0      2140        33 |   3   5    0    0 eb0f |    3.509       0       5       0       5      5      5      0   2101      72       3   5    0eb0f a70f      9.570 "
test,1583575768290914048,55," | 55  |   2181       5   2160       0 |   2    5      2088        72 |   2  55   53    1 480f |    1.739       0       1       0       1     55     55      0   2071      89       2  55    1480f a70f     30.300 "
test,1583575768271260928,56," | 56  |   2181       5   2163       0 |   5    0      2126        37 |   3   5    0    0 eb0f |    3.509       0       5       0       5      5      5      0   2110      53       3   5    0eb0f a70f      9.690 "
test,1583575768293159936,57," | 57  |   2181       4   2118       0 |   3    1      2063        55 |   1  23    5    0 d70f |    2.044       0       4       0       4     23     23      0   1943     175       1  23    0d70f a70f     30.360 "
test,1583575768293605120,58," | 58  |   2181       5   2172       0 |   2    4      2145        27 |   1  55    5    0 480f |    2.014       0       1       0       1     55     55      0   2058     114       1  55    0480f a70f     30.390 "
test,1583575768269177856,5," |  5  |   2181       5   2179       0 |   5    0      1992       187 |   2   5    0    1 eb0f |    1.739       0       4       0       4      5      5      0   1952     227       2   5    1eb0f a70f      6.480 "
test,1583575768271523840,60," | 60  |   2181       5   2172       0 |   5    0      2027       145 |   3   5    0    0 eb0f |    3.509       0       5       0       5      5      5      0   1996     176       3   5    0eb0f a70f      9.570 "
test,1583575768290009088,61," | 61  |   2181       5   2171       0 |   1    1      2078        93 |   2  23    5    0 d70f |    0           0       0       0       8      0      0      0   2019     152       0  23    0d70f a70f     30.390 "
test,1583575768266021888,7," |  7  |   2181       5   2178       0 |   5    0      2143        35 |   2   5    0    0 eb0f |    2.807       0       5       0       5      5      5      0   2130      48       2   5    0eb0f a70f      9.000 "
test,1583575768271755008,9," |  9  |   2181       5   2177       0 |   5    0      2096        81 |   2   5    0    0 eb0f |    2.807       0       5       0       5      5      5      0   2084      93       2   5    0eb0f a70f      9.750 "
