test,1583575971524221952,10," | 10  |   2994       5   2966       0 |   5    0      2919        47 |   1   7    0    0 820f |    2.014       0       5       0       5      7      7      0   2875      91       1   7    0820f a70f      8.250 "
test,1583575971522425856,12," | 12  |   2994       5   2992       0 |   5    0      2966        26 |   1   7    0    0 820f |    2.044       0       5       0       5      7      7      0   2916      76       1   7    0820f a70f      8.280 "
test,1583575971524854784,13," | 13  |   2994       5   2990       0 |   5    0      2968        22 |   1   7    0    0 820f |    2.044       0       5       0       5      7      7      0   2933      57       1   7    0820f a70f      8.160 "
test,1583575971526863104,15," | 15  |   2994       5   2992       0 |   5    0      2877       115 |   2   7    0    0 820f |    2.746       0       5       0       5      7      7      0   2754     238       2   7    0820f a70f      8.970 "
test,1583575971544585984,16," | 16  |   2994       5   2990       0 |   0    6      2883       107 |   0  16   22    1  80f |    0           0       0       0       8      0      0      0   2812     178       0  16    1 80f a70f     30.150 "
test,1583575971529033984,17," | 17  |   2994       5   2985       5 |   5    0      2958        32 |   1  22    0    0 380f |    2.014       0       5       0       5     22     22      0   2868     122       1  22    0380f a70f      9.480 "
test,1583575971529709056,18," | 18  |   2994       5   2989       0 |   5    0      2825       164 |   1  22    0    0 380f |    2.014       0       5       0       5     22     22      0   2699     290       1  22    0380f a70f      8.070 "
test,1583575971528050944,19," | 19  |   2994       5   2981       9 |   5    0      2941        49 |   2  22    0    0 380f |    4.211       0       5       0       5     22     22      0   2851     139       4  22    0380f a70f     10.410 "
test,1583575971525060864,1," |  1  |   2994       4   2991       0 |   5    0      2923        68 |   1   7    0    0 820f |    2.716       0       5       0       5      7      7      0   2901      90       1   7    0820f a70f      8.880 "
test,1583575971526562816,22," | 22  |   2994       5   2988       0 |   4    0      2964        24 |   4  22    0    1 380f |    1.739       0       4       0       4     22     22      0   2825     163       2  22    1380f a70f      6.480 "
test,1583575971545802240,23," | 23  |   2994       5   2932       0 |   5    0      2918        14 |   1  22    0    0 380f |    3.479       0       4       0       4     22     22      0   2861      71       3  22    0380f a70f     30.270 "
test,1583575971526371840,24," | 24  |   2994       5   2988       2 |   5    0      2963        27 |   1  22    0    0 380f |    2.014       0       5       0       5     22     22      0   2893      97       1  22    0380f a70f      8.250 "
test,1583575971524667136,26," | 26  |   2994       5   2988       2 |   5    0      2979        11 |   1  22    0    0 380f |    2.014       0       5       0       5     22     22      0   2924      66       1  22    0380f a70f      8.910 "
test,1583575971528248064,27," | 27  |   2994       5   2992       0 |   5    0      2906        86 |   2  22    0    0 380f |    2.716       0       5       0       5     22     22      0   2782     210       2  22    0380f a70f      9.630 "
test,1583575971527791104,28," | 28  |   2994       5   2987       3 |   4    0      2762       228 |   1  22    0    0 380f |    1.953       0       5       0       5     22     22      0   2653     337       1  22    0380f a70f      8.910 "
test,1583575971547340032,29," | 29  |   2994       5   2987       5 |   1    0      2662       330 |  11  22    0    0 380f |    3.479       0       4       0       4     22     22      0   2522     470       3  22    0380f a70f     30.210 "
test,1583575971527395072,30," | 30  |   2994       5   2990       0 |   5    0      2949        41 |   1  22    0    0 380f |    1.983       0       5       0       5     22     22      0   2849     141       1  22    0380f a70f      8.040 "
test,1583575971531243008,35," | 35  |   2994       5   2990       0 |   5    0      2853       137 |   1  22    0    0 380f |    1.983       0       5       0       5     22     22      0   2793     197       1  22    0380f a70f      8.190 "
test,1583575971522924800,49," | 49  |   2994       5   2984       0 |   4    0      2932        52 |   2  49    0    1 6c0f |    1.739       0       4       0       4     49     49      0   2903      81       2  49    16c0f a70f      6.480 "
test,1583575971523092992,51," | 51  |   2994       5   2985       0 |   5    0      2961        24 |   1   7    0    0 820f |    2.014       0       5       0       5      7      7      0   2950      35       1   7    0820f a70f      8.130 "
test,1583575971527623936,52," | 52  |   2994       5   2963      23 |   4    3      2842       144 |   2  22   16    0 380f |    2.746       0       5       0       5     22     22      0   2786     200       2  22    0380f a70f      9.690 "
test,1583575971523792896,53," | 53  |   2994       5   2968       0 |   5    0      2820       148 |   1  49    0    0 6c0f |    2.014       0       5       0       5     49     49      0   2783     185       1  49    06c0f a70f      8.070 "
test,1583575971523991040,54," | 54  |   2994       5   2986       0 |   5    0      2936        50 |   1   7    0    0 820f |    2.044       0       5       0       5      7      7      0   2888      98       1   7    0820f a70f      8.250 "
test,1583575971527086848,55," | 55  |   2994       5   2973       0 |   5    0      2869       104 |   1  49    0    0 6c0f |    2.044       0       5       0       5     49     49      0   2842     131       1  49    06c0f a70f      8.250 "
test,1583575971526020096,56," | 56  |   2994       5   2976       0 |   5    0      2928        48 |   2   7    0    0 820f |    2.807       0       5       0       5      7      7      0   2899      77       2   7    0820f a70f      8.850 "
test,1583575971548451072,57," | 57  |   2994       5   2931       0 |   1    0      2860        71 |  11  22    0    0 380f |    1.983       0       4       0       4     22     22      0   2688     243       1  22    0380f a70f     30.360 "
test,1583575971531750912,58," | 58  |   2994       5   2985       0 |   5    0      2948        37 |   1  49    0    0 6c0f |    2.075       0       5       0       5     49     49      0   2825     160       1  49    06c0f a70f      8.160 "
test,1583575971525561088,5," |  5  |   2994       5   2992       0 |   5    0      2740       252 |   2   7    0    0 820f |    2.746       0       5       0       5      7      7      0   2684     308       2   7    0820f a70f      8.880 "
test,1583575971524424192,60," | 60  |   2994       5   2985       0 |   5    0      2792       193 |   2   7    0    0 820f |    2.746       0       5       0       5      7      7      0   2742     243       2   7    0820f a70f      8.970 "
test,1583575971545200128,61," | 61  |   2994       5   2984       0 |   1    3      2857       127 |   3   7   49    0 820f |    3.509       0       3       0       3      7      7      0   2768     216       3   7    0820f a70f     30.390 "
test,1583575971522663168,7," |  7  |   2994       5   2991       0 |   4    0      2942        49 |   2   7    0    1 820f |    1.739       0       4       0       4      7      7      0   2925      66       2   7    1820f a70f      6.480 "
test,1583575971523431936,9," |  9  |   2994       5   2990       0 |   5    0      2877       113 |   1   7    0    0 820f |    2.014       0       5       0       5      7      7      0   2863     127       1   7    0820f a70f      8.250 "
