test,1583575275507010816,10," | 10  |    210       5    182       0 |   4    0       180         2 |   2  10    0    1 e80f |    1.739       0       4       0       4     10     10      0    178       4       2  10    1e80f a70f      6.480 "
test,1583575275517054976,12," | 12  |    210       5    208       0 |   5    0       207         1 |   1  10    0    0 e80f |    1.983       0       5       0       5     10     10      0    203       5       1  10    0e80f a70f      8.940 "
test,1583575275511507968,13," | 13  |    210       5    206       0 |   5    0       203         3 |   1  10    0    0 e80f |    2.014       0       5       0       5     10     10      0    199       7       1  10    0e80f a70f      8.100 "
test,1583575275513778944,15," | 15  |    210       4    208       0 |   5    0       198        10 |   2  10    0    0 e80f |    2.777       0       5       0       5     10     10      0    192      16       2  10    0e80f a70f      9.570 "
test,1583575275510404096,16," | 16  |    210       5    206       0 |   5    0       198         8 |   2  22    0    0 680f |    2.716       0       5       0       5     22     22      0    195      11       2  22    0680f a70f      8.940 "
test,1583575275529542912,17," | 17  |    210       5    206       0 |   5    0       204         2 |   2  22    0    0 680f |    2.716       0       4       0       4     22     22      0    196      10       2  22    0680f a70f     30.360 "
test,1583575275507296000,18," | 18  |    210       5    205       0 |   5    0       188        17 |   1  22    0    0 680f |    2.044       0       5       0       5     22     22      0    180      25       1  22    0680f a70f      8.280 "
test,1583575275530843136,19," | 19  |    210       5    205       1 |   5    0       203         3 |   2  22    0    0 680f |    2.777       0       4       0       4     22     22      0    195      11       2  22    0680f a70f     30.300 "
test,1583575275507992064,1," |  1  |    210       4    207       0 |   5    0       202         5 |   1  10    0    0 e80f |    2.685       0       5       0       5     10     10      0    200       7       1  10    0e80f a70f      8.880 "
test,1583575275511985920,22," | 22  |    210       5    204       0 |   4    0       203         1 |   4  22    0    1 680f |    1.770       0       4       0       4     22     22      0    196       8       2  22    1680f a70f      6.510 "
test,1583575275508568064,23," | 23  |    210       5    148       0 |   5    0       146         2 |   1  22    0    0 680f |    2.014       0       5       0       5     22     22      0    146       2       1  22    0680f a70f      8.190 "
test,1583575275508770048,24," | 24  |    210       5    206       0 |   5    0       204         2 |   1  22    0    0 680f |    2.014       0       5       0       5     22     22      0    200       6       1  22    0680f a70f      8.100 "
test,1583575275508225024,26," | 26  |    210       5    206       0 |   5    0       206         0 |   1  22    0    0 680f |    2.014       0       5       0       5     22     22      0    200       6       1  22    0680f a70f      8.220 "
test,1583575275531099136,27," | 27  |    210       5    208       0 |   1    9       201         7 |   2  27   22    1 c60f |   12.420       0       1       0       1     27     27      0    191      17      17  27    1c60f a70f     30.210 "
test,1583575275532092928,28," | 28  |    210       5    206       0 |   5    0       194        12 |   1  22    0    0 680f |    2.746       0       4       0       4     22     22      0    187      19       2  22    0680f a70f     30.330 "
test,1583575275513425152,29," | 29  |    210       1    207       1 |   2    4       184        24 |   1  27   22    0 c60f |    2.044       0       5       0       5     27     27      0    173      35       1  27    0c60f a70f     12.930 "
test,1583575275511102976,30," | 30  |    210       5    206       0 |   5    0       204         2 |   1  22    0    0 680f |    2.044       0       5       0       5     22     22      0    199       7       1  22    0680f a70f      8.910 "
test,1583575275514705920,35," | 35  |    210       5    206       0 |   5    0       199         7 |   1  22    0    0 680f |    2.044       0       5       0       5     22     22      0    197       9       1  22    0680f a70f      8.130 "
test,1583575275526644992,40," | 40  |    210       5    195       7 |   2    0       179        23 |   8  48    0    0 8d0f |    2.044       0       3       0       3     48     48      0    173      29       1  48    08d0f a70f     30.300 "
test,1583575275529235968,41," | 41  |    210       5    188       8 |   5    0       194         2 |   5  48    0    0 8d0f |    2.746       0       4       0       4     48     48      0    190       6       2  48    08d0f a70f     30.390 "
test,1583575275530628864,42," | 42  |    210       5    198       8 |   5    0       199         7 |   4  48    0    0 8d0f |    3.479       0       4       0       4     48     48      0    194      12       3  48    08d0f a70f     30.390 "
test,1583575275531425024,44," | 44  |    210       5    198       8 |   5    0       204         2 |   1  48    0    0 8d0f |    3.509       0       4       0       4     48     48      0    198       8       3  48    08d0f a70f     30.390 "
test,1583575275530301952,45," | 45  |    210       5    200       6 |   5    0       189        17 |   2  48    0    0 8d0f |    3.509       0       4       0       4     48     48      0    186      20       3  48    08d0f a70f     30.390 "
test,1583575275529774848,46," | 46  |    210       5    191       8 |   5    0       193         6 |   5  48    0    0 8d0f |    3.540       0       4       0       4     48     48      0    189      10       3  48    08d0f a70f     30.180 "
test,1583575275530471936,47," | 47  |    210       5    198       8 |   5    0       200         6 |   1  48    0    0 8d0f |    3.509       0       4       0       4     48     48      0    197       9       3  48    08d0f a70f     30.390 "
test,1583575275510097152,48," | 48  |    210       5    133       6 |   4    0       133         6 |   5  48    0    1 8d0f |    1.770       0       4       0       4     48     48      0    128      11       2  48    18d0f a70f      7.230 "
test,1583575275510585088,49," | 49  |    210       5    200       0 |   5    0       196         4 |   2  10    0    0 e80f |    2.716       0       5       0       5     10     10      0    196       4       2  10    0e80f a70f      8.940 "
test,1583575275505455104,51," | 51  |    210       5    201       0 |   5    0       199         2 |   1  10    0    0 e80f |    2.014       0       5       0       5     10     10      0    199       2       1  10    0e80f a70f      8.220 "
test,1583575275513014016,52," | 52  |    210       2    201       1 |   5    0       193         9 |   2  22    0    0 680f |    3.509       0       5       0       5     22     22      0    189      13       3  22    0680f a70f      9.660 "
test,1583575275511315968,53," | 53  |    210       5    184       0 |   5    0       175         9 |   3  10    0    0 e80f |    2.746       0       5       0       5     10     10      0    175       9       2  10    0e80f a70f      9.540 "
test,1583575275506793984,54," | 54  |    210       5    202       0 |   5    0       201         1 |   1  10    0    0 e80f |    2.044       0       5       0       5     10     10      0    196       6       1  10    0e80f a70f      8.100 "
test,1583575275513200896,55," | 55  |    210       5    189       0 |   5    0       181         8 |   2  10    0    0 e80f |    2.777       0       5       0       5     10     10      0    181       8       2  10    0e80f a70f      8.850 "
test,1583575275512370176,56," | 56  |    210       5    192       0 |   5    0       184         8 |   1  10    0    0 e80f |    1.983       0       5       0       5     10     10      0    183       9       1  10    0e80f a70f      8.250 "
test,1583575275528356096,57," | 57  |    210       5    147       0 |   5    0       141         6 |   2  10    0    0 e80f |    0           0       0       0       8      0      0      0    137      10       0  10    0e80f a70f     30.390 "
test,1583575275509670912,58," | 58  |    210       5    201       0 |   5    0       199         2 |   1  10    0    0 e80f |    2.014       0       5       0       5     10     10      0    196       5       1  10    0e80f a70f      8.190 "
test,1583575275514504960,5," |  5  |    210       5    208       0 |   5    0       193        15 |   2  10    0    0 e80f |    2.746       0       5       0       5     10     10      0    187      21       2  10    0e80f a70f      8.970 "
test,1583575275509485056,60," | 60  |    210       5    201       0 |   5    0       193         8 |   2  10    0    0 e80f |    2.716       0       5       0       5     10     10      0    190      11       2  10    0e80f a70f      8.970 "
test,1583575275512179968,61," | 61  |    210       5    200       0 |   5    0       193         7 |   2  10    0    0 e80f |    2.716       0       5       0       5     10     10      0    189      11       2  10    0e80f a70f      8.940 "
test,1583575275507565056,7," |  7  |    210       5    207       0 |   5    0       205         2 |   1  10    0    0 e80f |    2.014       0       5       0       5     10     10      0    206       1       1  10    0e80f a70f      8.250 "
test,1583575275508999936,9," |  9  |    210       5    206       0 |   5    0       198         8 |   1  10    0    0 e80f |    2.014       0       5       0       5     10     10      0    198       8       1  10    0e80f a70f      8.280 "
