test,1583575936026217984,10," | 10  |   2852       5   2824       0 |   5    0      2778        46 |   1  12    0    0 8d0f |    2.044       0       5       0       5     12     12      0   2737      87       1  12    08d0f a70f      8.280 "
test,1583575936022434048,12," | 12  |   2852       5   2850       0 |   4    0      2826        24 |   2  12    0    1 8d0f |    1.739       0       4       0       4     12     12      0   2780      70       2  12    18d0f a70f      6.480 "
test,1583575936023554048,13," | 13  |   2852       5   2848       0 |   5    0      2828        20 |   1  12    0    0 8d0f |    2.044       0       5       0       5     12     12      0   2794      54       1  12    08d0f a70f      8.280 "
test,1583575936026073856,15," | 15  |   2852       5   2850       0 |   5    0      2746       104 |   1  12    0    0 8d0f |    2.044       0       5       0       5     12     12      0   2631     219       1  12    08d0f a70f      8.250 "
test,1583575936026967040,16," | 16  |   2852       5   2848       0 |   5    0      2752        96 |   3  30    0    0 cb0f |    3.479       0       5       0       5     30     30      0   2682     166       3  30    0cb0f a70f      9.660 "
test,1583575936025118208,17," | 17  |   2852       5   2843       5 |   5    0      2816        32 |   3  30    0    0 cb0f |    3.509       0       5       0       5     30     30      0   2729     119       3  30    0cb0f a70f      9.600 "
test,1583575936039607040,18," | 18  |   2852       5   2847       0 |   5    0      2689       158 |   2  30    0    0 cb0f |    2.746       0       5       0       5     30     30      0   2569     278       2  30    0cb0f a70f      8.940 "
test,1583575936045821952,19," | 19  |   2852       5   2839       9 |   2    6      2802        46 |   1  27   30    0 b00f |    2.014       0       4       0       4     27     27      0   2714     134       1  27    0b00f a70f     30.330 "
test,1583575936025904896,1," |  1  |   2852       4   2849       0 |   5    0      2783        66 |   1  12    0    0 8d0f |    2.716       0       5       0       5     12     12      0   2762      87       1  12    08d0f a70f      9.690 "
test,1583575936024141056,22," | 22  |   2852       5   2846       0 |   5    0      2822        24 |   1  30    0    0 cb0f |    2.044       0       5       0       5     30     30      0   2690     156       1  30    0cb0f a70f      8.250 "
test,1583575936024764928,23," | 23  |   2852       5   2790       0 |   5    0      2776        14 |   4  30    0    0 cb0f |    2.746       0       5       0       5     30     30      0   2720      70       2  30    0cb0f a70f      8.880 "
test,1583575936025576192,24," | 24  |   2852       5   2846       2 |   5    0      2824        24 |   2  30    0    0 cb0f |    2.777       0       5       0       5     30     30      0   2757      91       2  30    0cb0f a70f      9.000 "
test,1583575936029539072,26," | 26  |   2852       5   2846       2 |   5    0      2838        10 |   2  30    0    0 cb0f |    2.777       0       5       0       5     30     30      0   2786      62       2  30    0cb0f a70f      8.850 "
test,1583575936046347008,27," | 27  |   2852       5   2850       0 |   2    9      2770        80 |   8  27   30    1 b00f |   12.420       0       1       0       1     27     27      0   2650     200      17  27    1b00f a70f     30.150 "
test,1583575936026447104,28," | 28  |   2852       5   2845       3 |   5    0      2630       218 |   1  30    0    0 cb0f |    2.014       0       5       0       5     30     30      0   2529     319       1  30    0cb0f a70f      8.250 "
test,1583575936033468928,29," | 29  |   2852       4   2846       4 |   4    0      2539       311 |   1  27    0    0 b00f |    2.044       0       5       0       5     27     27      0   2400     450       1  27    0b00f a70f     10.980 "
test,1583575936022833152,30," | 30  |   2852       5   2848       0 |   5    0      2810        38 |   2  30    0    1 cb0f |    1.739       0       4       0       4     30     30      0   2717     131       2  30    1cb0f a70f      6.480 "
test,1583575936023032064,35," | 35  |   2852       5   2848       0 |   5    0      2720       128 |   1  30    0    0 cb0f |    2.044       0       5       0       5     30     30      0   2662     186       1  30    0cb0f a70f      8.250 "
test,1583575936030935040,40," | 40  |   2852       5   2797      47 |   4    0      2657       187 |   3  30    0    0 cb0f |    3.479       0       5       0       5     30     30      0   2588     256       3  30    0cb0f a70f     10.260 "
test,1583575936025329152,41," | 41  |   2852       5   2792      46 |   5    0      2811        27 |   3  30    0    0 cb0f |    2.746       0       5       0       5     30     30      0   2736     102       2  30    0cb0f a70f     10.440 "
test,1583575936027201792,42," | 42  |   2852       5   2799      49 |   5    0      2781        67 |   2  30    0    0 cb0f |    2.777       0       5       0       5     30     30      0   2709     139       2  30    0cb0f a70f      9.690 "
test,1583575936028868864,44," | 44  |   2852       5   2804      44 |   5    0      2778        70 |   3  30    0    0 cb0f |    3.479       0       5       0       5     30     30      0   2720     128       3  30    0cb0f a70f     10.440 "
test,1583575936028690176,45," | 45  |   2852       5   2817      31 |   5    0      2753        95 |   3  30    0    0 cb0f |    3.479       0       5       0       5     30     30      0   2700     148       3  30    0cb0f a70f     10.380 "
test,1583575936033278976,46," | 46  |   2852       5   2796      45 |   5    0      2717       124 |   3  30    0    0 cb0f |    3.479       0       5       0       5     30     30      0   2662     179       3  30    0cb0f a70f      9.690 "
test,1583575936029746176,47," | 47  |   2852       5   2804      44 |   5    0      2748       100 |   3  30    0    0 cb0f |    3.479       0       5       0       5     30     30      0   2687     161       3  30    0cb0f a70f      9.600 "
test,1583575936034272000,48," | 48  |   2852       5   2739      42 |   5    0      2713        68 |   2  30    0    0 cb0f |    2.746       0       5       0       5     30     30      0   2657     124       2  30    0cb0f a70f      9.570 "
test,1583575936023258880,49," | 49  |   2852       5   2842       0 |   4    0      2791        51 |   2  49    0    1 830f |    1.770       0       4       0       4     49     49      0   2763      79       2  49    1830f a70f      6.510 "
test,1583575936024573952,51," | 51  |   2852       5   2843       0 |   5    0      2822        21 |   2  12    0    0 8d0f |    2.807       0       5       0       5     12     12      0   2814      29       2  12    08d0f a70f      8.940 "
test,1583575936026778880,52," | 52  |   2852       5   2821      23 |   5    0      2707       137 |   3  30    0    0 cb0f |    3.479       0       5       0       5     30     30      0   2653     191       3  30    0cb0f a70f      9.660 "
test,1583575936031159040,53," | 53  |   2852       5   2826       0 |   5    0      2689       137 |   1  49    0    0 830f |    1.983       0       5       0       5     49     49      0   2653     173       1  49    0830f a70f      8.190 "
test,1583575936045490944,54," | 54  |   2852       5   2844       0 |   5    0      2796        48 |   1  12    0    0 8d0f |    2.075       0       4       0       4     12     12      0   2750      94       1  12    08d0f a70f     30.270 "
test,1583575936022664192,55," | 55  |   2852       5   2831       0 |   5    0      2732        99 |   1  49    0    0 830f |    2.044       0       5       0       5     49     49      0   2705     126       1  49    0830f a70f      8.190 "
test,1583575936024347136,56," | 56  |   2852       5   2834       0 |   5    0      2788        46 |   2  12    0    0 8d0f |    2.807       0       5       0       5     12     12      0   2764      70       2  12    08d0f a70f      8.970 "
test,1583575936044156928,57," | 57  |   2852       5   2789       0 |   1    3      2719        70 |   3  12   30    0 8d0f |    0           0       0       0       8      0      0      0   2557     232       0  12    08d0f a70f     30.360 "
test,1583575936027595008,58," | 58  |   2852       4   2843       0 |   1    5      2809        34 |   2  12   49    0 8d0f |    3.509       0       5       0       5     12     12      0   2691     152       3  12    08d0f a70f      9.720 "
test,1583575936028081920,5," |  5  |   2852       5   2850       0 |   5    0      2612       238 |   1  12    0    0 8d0f |    2.044       0       5       0       5     12     12      0   2561     289       1  12    08d0f a70f      8.220 "
test,1583575936027815936,60," | 60  |   2852       5   2843       0 |   5    0      2657       186 |   3  12    0    0 8d0f |    2.777       0       5       0       5     12     12      0   2611     232       2  12    08d0f a70f      9.750 "
test,1583575936038245888,61," | 61  |   2852       5   2842       0 |   5    0      2720       122 |   2  12    0    0 8d0f |    2.746       0       5       0       5     12     12      0   2638     204       2  12    08d0f a70f      8.970 "
test,1583575936023916032,7," |  7  |   2852       5   2849       0 |   5    0      2804        45 |   1  12    0    0 8d0f |    2.044       0       5       0       5     12     12      0   2790      59       1  12    08d0f a70f      8.280 "
test,1583575936030211840,9," |  9  |   2852       5   2848       0 |   5    0      2738       110 |   1  12    0    0 8d0f |    2.014       0       5       0       5     12     12      0   2724     124       1  12    08d0f a70f      9.690 "
