test,1583575949776243968,10," | 10  |   2907       5   2879       0 |   5    0      2832        47 |   2  10    0    1 150f |    1.739       0       4       0       4     10     10      0   2791      88       2  10    1150f a70f      6.480 "
test,1583575949778599936,12," | 12  |   2907       5   2905       0 |   5    0      2881        24 |   1  10    0    0 150f |    2.014       0       5       0       5     10     10      0   2833      72       1  10    0150f a70f      8.970 "
test,1583575949772631808,13," | 13  |   2907       5   2903       0 |   5    0      2883        20 |   1  10    0    0 150f |    2.044       0       5       0       5     10     10      0   2849      54       1  10    0150f a70f      8.280 "
test,1583575949777404928,15," | 15  |   2907       5   2905       0 |   5    0      2797       108 |   2  10    0    0 150f |    2.777       0       5       0       5     10     10      0   2681     224       2  10    0150f a70f      9.600 "
test,1583575949778182912,16," | 16  |   2907       5   2903       0 |   5    0      2803       100 |   1  23    0    0 9c0f |    2.044       0       5       0       5     23     23      0   2732     171       1  23    09c0f a70f      8.970 "
test,1583575949779671808,17," | 17  |   2907       5   2898       5 |   5    0      2871        32 |   1  23    0    0 9c0f |    2.075       0       5       0       5     23     23      0   2783     120       1  23    09c0f a70f      9.000 "
test,1583575949779854080,18," | 18  |   2907       5   2902       0 |   5    0      2742       160 |   2  23    0    0 9c0f |    2.777       0       5       0       5     23     23      0   2620     282       2  23    09c0f a70f      9.540 "
test,1583575949795300096,19," | 19  |   2907       5   2894       9 |   5    0      2856        47 |   1  23    0    0 9c0f |    2.075       0       4       0       4     23     23      0   2767     136       1  23    09c0f a70f     30.240 "
test,1583575949773089792,1," |  1  |   2907       4   2904       0 |   5    0      2837        67 |   1  10    0    0 150f |    2.716       0       5       0       5     10     10      0   2816      88       1  10    0150f a70f      8.940 "
test,1583575949769505024,22," | 22  |   2907       5   2901       0 |   5    0      2877        24 |   1  23    0    0 9c0f |    2.075       0       5       0       5     23     23      0   2743     158       1  23    09c0f a70f      8.970 "
test,1583575949774717952,23," | 23  |   2907       5   2845       0 |   4    0      2831        14 |   4  23    0    1 9c0f |    1.739       0       4       0       4     23     23      0   2774      71       2  23    19c0f a70f      7.950 "
test,1583575949780627968,24," | 24  |   2907       5   2901       2 |   5    0      2878        25 |   1  23    0    0 9c0f |    2.807       0       5       0       5     23     23      0   2810      93       2  23    09c0f a70f      8.880 "
test,1583575949781796864,26," | 26  |   2907       5   2901       2 |   5    0      2892        11 |   1  23    0    0 9c0f |    2.044       0       5       0       5     23     23      0   2839      64       1  23    09c0f a70f      8.280 "
test,1583575949796796928,27," | 27  |   2907       5   2905       0 |   4    5      2824        81 |   1  23   29    0 9c0f |    2.075       0       4       0       4     23     23      0   2700     205       1  23    09c0f a70f     30.360 "
test,1583575949775975936,28," | 28  |   2907       5   2900       3 |   5    0      2680       223 |   2  23    0    0 9c0f |    2.777       0       5       0       5     23     23      0   2578     325       2  23    09c0f a70f      9.540 "
test,1583575949793835008,29," | 29  |   2907       4   2900       5 |   0    3      2585       320 |   0  29   23    1  e0f |    0           0       0       0       8      0      0      0   2445     460       0  29    1 e0f a70f     30.180 "
test,1583575949777786112,30," | 30  |   2907       5   2903       0 |   5    0      2863        40 |   2  23    0    0 9c0f |    2.777       0       5       0       5     23     23      0   2769     134       2  23    09c0f a70f      9.690 "
test,1583575949777216000,35," | 35  |   2907       5   2903       0 |   5    0      2770       133 |   2  23    0    0 9c0f |    2.777       0       5       0       5     23     23      0   2711     192       2  23    09c0f a70f      9.690 "
test,1583575949796425984,40," | 40  |   2907       4   2851      48 |   5    0      2709       190 |   3  23    0    0 9c0f |    3.509       0       4       0       4     23     23      0   2637     262       3  23    09c0f a70f     30.240 "
test,1583575949796987136,41," | 41  |   2907       5   2846      47 |   5    0      2865        28 |   2  23    0    0 9c0f |    3.479       0       4       0       4     23     23      0   2788     105       3  23    09c0f a70f     30.240 "
test,1583575949775440896,42," | 42  |   2907       5   2853      50 |   5    0      2835        68 |   2  23    0    0 9c0f |    2.777       0       5       0       5     23     23      0   2761     142       2  23    09c0f a70f      8.850 "
test,1583575949784946944,44," | 44  |   2907       5   2858      45 |   5    0      2832        71 |   2  23    0    0 9c0f |    2.807       0       5       0       5     23     23      0   2772     131       2  23    09c0f a70f      8.970 "
test,1583575949796029952,45," | 45  |   2907       5   2871      32 |   5    0      2806        97 |   3  23    0    0 9c0f |    2.807       0       4       0       4     23     23      0   2751     152       2  23    09c0f a70f     30.360 "
test,1583575949795526912,46," | 46  |   2907       5   2850      46 |   5    0      2769       127 |   3  23    0    0 9c0f |    3.509       0       4       0       4     23     23      0   2712     184       3  23    09c0f a70f     30.240 "
test,1583575949795707904,47," | 47  |   2907       5   2858      45 |   5    0      2800       103 |   3  23    0    0 9c0f |    3.509       0       4       0       4     23     23      0   2737     166       3  23    09c0f a70f     30.270 "
test,1583575949795001088,48," | 48  |   2907       5   2793      43 |   5    0      2766        70 |   2  23    0    0 9c0f |    2.807       0       4       0       4     23     23      0   2705     131       2  23    09c0f a70f     30.270 "
test,1583575949777985024,49," | 49  |   2907       5   2897       0 |   5    0      2846        51 |   3  10    0    0 150f |    2.777       0       5       0       5     10     10      0   2817      80       2  10    0150f a70f      8.970 "
test,1583575949774131968,51," | 51  |   2907       5   2898       0 |   5    0      2877        21 |   1  10    0    0 150f |    2.044       0       5       0       5     10     10      0   2867      31       1  10    0150f a70f      8.160 "
test,1583575949775019776,52," | 52  |   2907       5   2876      23 |   5    0      2759       140 |   1  23    0    0 9c0f |    2.075       0       5       0       5     23     23      0   2703     196       1  23    09c0f a70f      9.030 "
test,1583575949779473152,53," | 53  |   2907       5   2881       0 |   5    0      2739       142 |   4  10    0    0 150f |    3.479       0       5       0       5     10     10      0   2703     178       3  10    0150f a70f      9.690 "
test,1583575949772905216,54," | 54  |   2907       5   2899       0 |   5    0      2851        48 |   1  10    0    0 150f |    2.014       0       5       0       5     10     10      0   2805      94       1  10    0150f a70f      8.160 "
test,1583575949780244224,55," | 55  |   2907       5   2886       0 |   5    0      2786       100 |   3  10    0    0 150f |    2.746       0       5       0       5     10     10      0   2759     127       2  10    0150f a70f      8.940 "
test,1583575949773249024,56," | 56  |   2907       5   2889       0 |   5    0      2842        47 |   2  10    0    0 150f |    2.014       0       5       0       5     10     10      0   2816      73       1  10    0150f a70f      8.250 "
test,1583575949774362112,57," | 57  |   2907       5   2844       0 |   3    5      2774        70 |   1  23   60    0 9c0f |    2.014       0       5       0       5     23     23      0   2609     235       1  23    09c0f a70f      9.690 "
test,1583575949773690112,58," | 58  |   2907       5   2898       0 |   4    0      2864        34 |   2  10    0    0 150f |    2.044       0       5       0       5     10     10      0   2745     153       1  10    0150f a70f      8.820 "
test,1583575949775207936,5," |  5  |   2907       5   2905       0 |   5    0      2662       243 |   2  10    0    0 150f |    2.777       0       5       0       5     10     10      0   2609     296       2  10    0150f a70f      9.000 "
test,1583575949793127168,60," | 60  |   2907       5   2898       0 |   0    3      2706       192 |   0  60   10    1  30f |    0           0       0       0       8      0      0      0   2659     239       0  60    1 30f a70f     30.210 "
test,1583575949783837952,61," | 61  |   2907       5   2897       0 |   3    0      2773       124 |   5  10    0    0 150f |    2.746       0       5       0       5     10     10      0   2689     208       2  10    0150f a70f      9.690 "
test,1583575949773437952,7," |  7  |   2907       5   2904       0 |   5    0      2857        47 |   1  10    0    0 150f |    2.044       0       5       0       5     10     10      0   2841      63       1  10    0150f a70f      8.190 "
test,1583575949774554112,9," |  9  |   2907       5   2903       0 |   5    0      2793       110 |   1  10    0    0 150f |    2.014       0       5       0       5     10     10      0   2779     124       1  10    0150f a70f      8.100 "
