test,1583575971774668032,10," | 10  |   2995       5   2967       0 |   3    5      2920        47 |   1  13    7    0 dc0f |    2.014       0       5       0       5     13     13      0   2876      91       1  13    0dc0f a70f      8.250 "
test,1583575971791826944,12," | 12  |   2995       5   2993       0 |   5    0      2967        26 |   5  13    0    0 dc0f |    3.479       0       4       0       4     13     13      0   2917      76       3  13    0dc0f a70f     30.300 "
test,1583575971775958016,13," | 13  |   2995       5   2991       0 |   4    0      2969        22 |   5  13    0    1 dc0f |    1.739       0       4       0       4     13     13      0   2934      57       2  13    1dc0f a70f      8.640 "
test,1583575971795663104,15," | 15  |   2995       5   2993       0 |   4    0      2878       115 |   8  13    0    0 dc0f |    4.180       0       4       0       4     13     13      0   2755     238       4  13    0dc0f a70f     30.390 "
test,1583575971777312000,16," | 16  |   2995       5   2991       0 |   5    0      2884       107 |   1  52    0    0 430f |    2.014       0       5       0       5     52     52      0   2813     178       1  52    0430f a70f      8.970 "
test,1583575971779810048,17," | 17  |   2995       5   2986       5 |   5    0      2959        32 |   2  52    0    0 430f |    2.716       0       5       0       5     52     52      0   2869     122       2  52    0430f a70f      8.910 "
test,1583575971782955008,18," | 18  |   2995       5   2990       0 |   5    0      2826       164 |   2  52    0    0 430f |    2.716       0       5       0       5     52     52      0   2700     290       2  52    0430f a70f      8.910 "
test,1583575971775054848,19," | 19  |   2995       5   2982       9 |   5    0      2942        49 |   5  52    0    0 430f |    2.716       0       5       0       5     52     52      0   2852     139       2  52    0430f a70f      8.880 "
test,1583575971794818048,1," |  1  |   2995       4   2992       0 |   5    0      2924        68 |   4  13    0    0 dc0f |    3.417       0       4       0       4     13     13      0   2902      90       2  13    0dc0f a70f     30.300 "
test,1583575971775795968,22," | 22  |   2995       5   2989       0 |   5    0      2965        24 |   2  52    0    0 430f |    2.716       0       5       0       5     52     52      0   2826     163       2  52    0430f a70f      9.540 "
test,1583575971778085120,23," | 23  |   2995       5   2933       0 |   5    0      2919        14 |   1  52    0    0 430f |    1.983       0       5       0       5     52     52      0   2862      71       1  52    0430f a70f      8.220 "
test,1583575971773562880,24," | 24  |   2995       5   2989       2 |   5    0      2964        27 |   2  52    0    0 430f |    2.044       0       5       0       5     52     52      0   2894      97       1  52    0430f a70f      8.130 "
test,1583575971773349120,26," | 26  |   2995       5   2989       2 |   5    0      2980        11 |   1  52    0    0 430f |    1.983       0       5       0       5     52     52      0   2925      66       1  52    0430f a70f      8.220 "
test,1583575971775276800,27," | 27  |   2995       5   2993       0 |   5    0      2907        86 |   4  52    0    0 430f |    2.777       0       5       0       5     52     52      0   2783     210       2  52    0430f a70f      8.820 "
test,1583575971774477056,28," | 28  |   2995       5   2988       3 |   4    0      2763       228 |   3  52    0    0 430f |    2.716       0       5       0       5     52     52      0   2654     337       2  52    0430f a70f      8.850 "
test,1583575971795038976,29," | 29  |   2995       5   2988       5 |   0    9      2662       331 |   0  29   52    1 970f |    0           0       0       0       8      0      0      0   2522     471       0  29    1970f a70f     30.180 "
test,1583575971780188928,30," | 30  |   2995       5   2991       0 |   4    0      2950        41 |   3  52    0    0 430f |    4.943       0       5       0       5     52     52      0   2850     141       5  52    0430f a70f     11.100 "
test,1583575971779670016,35," | 35  |   2995       5   2991       0 |   4    0      2854       137 |   3  52    0    0 430f |    4.913       0       5       0       5     52     52      0   2794     197       5  52    0430f a70f     11.820 "
test,1583575971795409920,40," | 40  |   2995       4   2932      55 |   1    0      2791       196 |   6  52    0    0 430f |    0           0       0       0       8      0      0      0   2715     272       0  52    0430f a70f     30.360 "
test,1583575971793005824,41," | 41  |   2995       5   2927      54 |   1    0      2952        29 |   5  52    0    0 430f |    0           0       0       0       8      0      0      0   2872     109       0  52    0430f a70f     30.390 "
test,1583575971800332032,42," | 42  |   2995       5   2934      57 |   1    0      2918        73 |   5  52    0    0 430f |    0           0       0       0       8      0      0      0   2841     150       0  52    0430f a70f     30.390 "
test,1583575971793723136,44," | 44  |   2995       5   2939      52 |   1    0      2918        73 |   4  52    0    0 430f |    0           0       0       0       8      0      0      0   2856     135       0  52    0430f a70f     30.390 "
test,1583575971794137088,45," | 45  |   2995       4   2952      39 |   1    0      2892        99 |   5  52    0    0 430f |    0           0       0       0       8      0      0      0   2835     156       0  52    0430f a70f     30.360 "
test,1583575971796680960,46," | 46  |   2995       5   2931      53 |   1    0      2850       134 |   5  52    0    0 430f |    0           0       0       0       8      0      0      0   2791     193       0  52    0430f a70f     30.360 "
test,1583575971794370816,47," | 47  |   2995       4   2939      52 |   1    0      2885       106 |   5  52    0    0 430f |    0           0       0       0       8      0      0      0   2819     172       0  52    0430f a70f     30.360 "
test,1583575971793932032,48," | 48  |   2995       4   2874      50 |   1    0      2851        73 |   5  52    0    0 430f |    0           0       0       0       8      0      0      0   2788     136       0  52    0430f a70f     30.360 "
test,1583575971774004992,49," | 49  |   2995       5   2985       0 |   5    0      2933        52 |   1  53    0    0 ad0f |    2.044       0       5       0       5     53     53      0   2904      81       1  53    0ad0f a70f      8.100 "
test,1583575971776192000,51," | 51  |   2995       5   2986       0 |   5    0      2962        24 |   1  13    0    0 dc0f |    1.983       0       5       0       5     13     13      0   2951      35       1  13    0dc0f a70f      8.130 "
test,1583575971776819968,52," | 52  |   2995       5   2964      23 |   4    0      2843       144 |   3  52    0    1 430f |    1.770       0       4       0       4     52     52      0   2787     200       2  52    1430f a70f      7.950 "
test,1583575971773806080,53," | 53  |   2995       5   2969       0 |   4    0      2821       148 |   4  53    0    1 ad0f |    1.770       0       4       0       4     53     53      0   2784     185       2  53    1ad0f a70f      6.510 "
test,1583575971775485952,54," | 54  |   2995       5   2987       0 |   5    0      2937        50 |   6  13    0    0 dc0f |    2.716       0       5       0       5     13     13      0   2889      98       2  13    0dc0f a70f      8.910 "
test,1583575971777018112,55," | 55  |   2995       5   2974       0 |   5    0      2870       104 |   1  53    0    0 ad0f |    2.044       0       5       0       5     53     53      0   2843     131       1  53    0ad0f a70f      8.100 "
test,1583575971777769216,56," | 56  |   2995       5   2977       0 |   5    1      2929        48 |   1  13   53    0 dc0f |    1.983       0       5       0       5     13     13      0   2900      77       1  13    0dc0f a70f      8.940 "
test,1583575971782747904,57," | 57  |   2995       5   2932       0 |   5    0      2861        71 |   4  52    0    0 430f |    7.141       0       5       0       5     52     52      0   2689     243       8  52    0430f a70f     13.140 "
test,1583575971795869952,58," | 58  |   2995       5   2986       0 |   1    1      2949        37 |   2  53   13    0 ad0f |    0           0       0       0       8      0      0      0   2825     161       0  53    0ad0f a70f     30.390 "
test,1583575971777505024,5," |  5  |   2995       5   2993       0 |   5    0      2741       252 |   1  13    0    0 dc0f |    1.983       0       5       0       5     13     13      0   2685     308       1  13    0dc0f a70f     10.260 "
test,1583575971778469120,60," | 60  |   2995       5   2986       0 |   5    0      2793       193 |   2  13    0    0 dc0f |    2.716       0       5       0       5     13     13      0   2743     243       2  13    0dc0f a70f      8.850 "
test,1583575971798752000,61," | 61  |   2995       5   2985       0 |   3    0      2858       127 |   7  52    0    0 430f |   10.772       0       3       0       3     52     52      0   2769     216      13  52    0430f a70f     30.390 "
test,1583575971800833024,7," |  7  |   2995       5   2992       0 |   0   11      2942        50 |   0   7   13    1  d0f |    0           0       0       0       8      0      0      0   2925      67       0   7    1 d0f a70f     26.070 "
test,1583575971796425984,9," |  9  |   2995       5   2991       0 |   5    0      2878       113 |   5  13    0    0 dc0f |    2.716       0       4       0       4     13     13      0   2864     127       2  13    0dc0f a70f     30.270 "
