test,1583575815272474880,10," | 10  |   2369       5   2341       0 |   4    3      2306        35 |   1   9   60    0  b0f |    2.044       0       5       0       5      9      9      0   2273      68       1   9    0 b0f a70f      8.220 "
test,1583575815270700032,12," | 12  |   2369       5   2367       0 |   5    0      2347        20 |   1   9    0    0  b0f |    2.075       0       5       0       5      9      9      0   2310      57       1   9    0 b0f a70f      8.280 "
test,1583575815269630976,13," | 13  |   2369       5   2365       0 |   5    0      2346        19 |   1   9    0    0  b0f |    2.014       0       5       0       5      9      9      0   2317      48       1   9    0 b0f a70f      8.250 "
test,1583575815271450880,15," | 15  |   2369       5   2367       0 |   4    0      2284        83 |   4   9    0    0  b0f |    2.807       0       5       0       5      9      9      0   2191     176       2   9    0 b0f a70f      9.030 "
test,1583575815274816000,16," | 16  |   2369       5   2365       0 |   1    6      2285        80 |   3  60   35    0 550f |    3.540       0       5       0       5     60     60      0   2225     140       3  60    0550f a70f      9.690 "
test,1583575815293689856,17," | 17  |   2369       5   2364       1 |   2    4      2336        29 |   2  29   35    0 700f |    2.777       0       3       0       3     29     29      0   2269      96       2  29    0700f a70f     30.300 "
test,1583575815289963008,18," | 18  |   2369       5   2364       0 |   5    0      2230       134 |   2  35    0    0  30f |    0           0       0       0       8      0      0      0   2128     236       0  35    0 30f a70f     30.360 "
test,1583575815293523200,19," | 19  |   2369       5   2363       2 |   3    7      2333        32 |   1  29   35    0 700f |    2.014       0       4       0       4     29     29      0   2263     102       1  29    0700f a70f     30.390 "
test,1583575815269871104,1," |  1  |   2369       4   2366       0 |   5    0      2305        61 |   1   9    0    0  b0f |    2.716       0       5       0       5      9      9      0   2286      80       1   9    0 b0f a70f      8.940 "
test,1583575815289767936,22," | 22  |   2369       5   2363       0 |   5    0      2345        18 |   1  35    0    0  30f |    0           0       0       0       8      0      0      0   2235     128       0  35    0 30f a70f     30.360 "
test,1583575815276293888,23," | 23  |   2369       5   2307       0 |   1    6      2295        12 |   2  60   35    0 550f |    2.746       0       5       0       5     60     60      0   2253      54       2  60    0550f a70f      8.970 "
test,1583575815289146880,24," | 24  |   2369       5   2365       0 |   5    0      2344        21 |   2  35    0    0  30f |    0           0       0       0       8      0      0      0   2294      71       0  35    0 30f a70f     30.390 "
test,1583575815289331968,26," | 26  |   2369       5   2365       0 |   5    0      2356         9 |   2  35    0    0  30f |    0           0       0       0       8      0      0      0   2317      48       0  35    0 30f a70f     30.390 "
test,1583575815294391040,27," | 27  |   2369       5   2367       0 |   2    0      2302        65 |   1  29    0    0 700f |    2.014       0       4       0       4     29     29      0   2199     168       1  29    0700f a70f     30.330 "
test,1583575815273008128,28," | 28  |   2369       5   2365       0 |   4    0      2181       184 |   1  35    0    0  30f |    2.014       0       5       0       5     35     35      0   2107     258       1  35    0 30f a70f      8.940 "
test,1583575815265319168,29," | 29  |   2369       5   2363       4 |   1    0      2105       262 |   5  29    0    1 700f |    1.739       0       4       0       4     29     29      0   1989     378       2  29    1700f a70f      6.480 "
test,1583575815271627776,30," | 30  |   2369       5   2365       0 |   5    0      2335        30 |   1  35    0    0  30f |    2.014       0       5       0       5     35     35      0   2260     105       1  35    0 30f a70f      8.220 "
test,1583575815271943168,35," | 35  |   2369       5   2365       0 |   4    0      2263       102 |   2  35    0    1  30f |    1.739       0       4       0       4     35     35      0   2219     146       2  35    1 30f a70f      6.480 "
test,1583575815293297920,40," | 40  |   2369       5   2329      32 |   2    0      2199       162 |   3  42    0    0 e80f |    2.777       0       3       0       3     42     42      0   2142     219       2  42    0e80f a70f     30.360 "
test,1583575815295314176,41," | 41  |   2369       5   2323      32 |   5    0      2331        24 |   1  42    0    0 e80f |    2.014       0       4       0       4     42     42      0   2268      87       1  42    0e80f a70f     30.390 "
test,1583575815291937024,42," | 42  |   2369       5   2330      35 |   5    0      2311        54 |   2  42    0    1 e80f |    1.739       0       3       0       3     42     42      0   2247     118       2  42    1e80f a70f     30.300 "
test,1583575815291742208,44," | 44  |   2369       5   2335      30 |   5    0      2307        58 |   1  42    0    0 e80f |    2.075       0       4       0       4     42     42      0   2254     111       1  42    0e80f a70f     30.300 "
test,1583575815292758016,45," | 45  |   2369       5   2341      24 |   5    0      2286        79 |   1  42    0    0 e80f |    2.075       0       4       0       4     42     42      0   2240     125       1  42    0e80f a70f     30.360 "
test,1583575815295130112,46," | 46  |   2369       5   2327      31 |   5    0      2254       104 |   1  42    0    0 e80f |    2.044       0       4       0       4     42     42      0   2206     152       1  42    0e80f a70f     30.390 "
test,1583575815292193792,47," | 47  |   2369       5   2333      32 |   5    0      2286        79 |   1  42    0    0 e80f |    2.075       0       4       0       4     42     42      0   2228     137       1  42    0e80f a70f     30.390 "
test,1583575815294223104,48," | 48  |   2369       5   2269      29 |   5    0      2240        58 |   1  42    0    0 e80f |    2.044       0       4       0       4     42     42      0   2191     107       1  42    0e80f a70f     30.270 "
test,1583575815270124032,49," | 49  |   2369       5   2359       0 |   5    0      2318        41 |   2  49    0    1 7a0f |    1.739       0       4       0       4     49     49      0   2297      62       2  49    17a0f a70f      6.510 "
test,1583575815271784960,51," | 51  |   2369       5   2360       0 |   4    2      2345        15 |   1  60    9    0 550f |    2.044       0       5       0       5     60     60      0   2339      21       1  60    0550f a70f      8.250 "
test,1583575815291554816,52," | 52  |   2369       5   2340      21 |   5    0      2244       117 |   3  35    0    0  30f |    0           0       0       0       8      0      0      0   2200     161       0  35    0 30f a70f     30.360 "
test,1583575815272878848,53," | 53  |   2369       5   2343       0 |   5    0      2229       114 |   1  49    0    0 7a0f |    1.983       0       5       0       5     49     49      0   2203     140       1  49    07a0f a70f      8.040 "
test,1583575815270263808,54," | 54  |   2369       5   2361       0 |   5    0      2323        38 |   1   9    0    0  b0f |    2.014       0       5       0       5      9      9      0   2282      79       1   9    0 b0f a70f      8.220 "
test,1583575815290483968,55," | 55  |   2369       5   2348       0 |   0   10      2270        78 |   0  55   49    1 3c0f |    0           0       0       0       8      0      0      0   2252      96       0  55    13c0f a70f     30.150 "
test,1583575815274624000,56," | 56  |   2369       5   2351       0 |   5    0      2312        39 |   1  60    0    0 550f |    2.044       0       5       0       5     60     60      0   2293      58       1  60    0550f a70f      8.790 "
test,1583575815269111040,57," | 57  |   2369       3   2306       0 |   5    0      2245        61 |   1  60    0    0 550f |    2.075       0       5       0       5     60     60      0   2115     191       1  60    0550f a70f      8.280 "
test,1583575815293970944,58," | 58  |   2369       5   2360       0 |   5    0      2332        28 |   4  60    0    0 550f |    9.368       0       1       0       1     60     60      0   2239     121      11  60    0550f a70f     30.300 "
test,1583575815272148992,5," |  5  |   2369       5   2367       0 |   5    0      2164       203 |   2   9    0    0  b0f |    2.746       0       5       0       5      9      9      0   2121     246       2   9    0 b0f a70f      8.940 "
test,1583575815274288896,60," | 60  |   2369       5   2360       0 |   4    0      2207       153 |   4  60    0    1 550f |    1.770       0       4       0       4     60     60      0   2169     191       2  60    1550f a70f      6.510 "
test,1583575815292325120,61," | 61  |   2369       5   2359       0 |   5    0      2258       101 |   4  60    0    0 550f |    9.399       0       1       0       1     60     60      0   2195     164      11  60    0550f a70f     30.390 "
test,1583575815271286016,7," |  7  |   2369       5   2366       0 |   5    0      2329        37 |   1   9    0    0  b0f |    2.044       0       5       0       5      9      9      0   2316      50       1   9    0 b0f a70f      8.220 "
test,1583575815269275904,9," |  9  |   2369       5   2365       0 |   4    0      2271        94 |   4   9    0    1  b0f |    1.739       0       4       0       4      9      9      0   2259     106       2   9    1 b0f a70f      6.480 "
