test,1583575928777387008,10," | 10  |   2823       5   2795       0 |   5   11      2749        46 |   1  54   57    0 eb0f |    2.075       0       5       0       5     54     54      0   2708      87       1  54    0eb0f a70f     13.710 "
test,1583575928777169920,12," | 12  |   2823       5   2821       0 |   4    0      2798        23 |   8  12    0    1 750f |    1.739       0       4       0       4     12     12      0   2753      68       2  12    1750f a70f      6.480 "
test,1583575928772491008,13," | 13  |   2823       5   2819       0 |   5    0      2799        20 |   7   5    0    0 5d0f |    2.075       0       5       0       5      5      5      0   2765      54       1   5    05d0f a70f      8.160 "
test,1583575928776765952,15," | 15  |   2823       5   2821       0 |   5    0      2719       102 |   1  12    0    0 750f |    2.044       0       5       0       5     12     12      0   2605     216       1  12    0750f a70f      8.310 "
test,1583575928794495232,16," | 16  |   2823       5   2819       0 |   5    9      2724        95 |   1  41   57    0 a00f |   10.498       0       3       0       3     41     41      0   2654     165      13  41    0a00f a70f     30.270 "
test,1583575928797633024,17," | 17  |   2823       5   2814       5 |   4    8      2787        32 |   1  41   27    0 a00f |   10.498       0       4       0       4     41     41      0   2700     119      13  41    0a00f a70f     30.330 "
test,1583575928791728896,18," | 18  |   2823       5   2818       0 |   0   10      2660       158 |   0  18   57    1 700f |    0           0       0       0       8      0      0      0   2540     278       0  18    1700f a70f     30.180 "
test,1583575928798656000,19," | 19  |   2823       5   2810       9 |   3   11      2774        45 |   2  41   27    0 a00f |   11.260       0       3       0       3     41     41      0   2685     134      14  41    0a00f a70f     30.390 "
test,1583575928778907904,1," |  1  |   2823       4   2820       0 |   5    8      2754        66 |   1  54    5    0 eb0f |    2.716       0       5       0       5     54     54      0   2733      87       1  54    0eb0f a70f     14.340 "
test,1583575928796237824,22," | 22  |   2823       5   2817       0 |   5    0      2794        23 |   3  57    0    0 de0f |    2.807       0       4       0       4     57     57      0   2662     155       2  57    0de0f a70f     30.270 "
test,1583575928775148032,23," | 23  |   2823       5   2761       0 |   5    0      2747        14 |   1  57    0    0 de0f |    2.746       0       5       0       5     57     57      0   2692      69       2  57    0de0f a70f      8.910 "
test,1583575928774646016,24," | 24  |   2823       5   2817       2 |   5    0      2795        24 |   2  57    0    0 de0f |    2.807       0       5       0       5     57     57      0   2728      91       2  57    0de0f a70f      8.910 "
test,1583575928773145856,26," | 26  |   2823       5   2817       2 |   5    0      2809        10 |   1  57    0    0 de0f |    2.014       0       5       0       5     57     57      0   2757      62       1  57    0de0f a70f      8.250 "
test,1583575928797926912,27," | 27  |   2823       4   2821       0 |   4    5      2742        79 |   5  27   57    1 be0f |    5.981       0       3       0       3     27     27      0   2622     199       8  27    1be0f a70f     30.300 "
test,1583575928798257152,28," | 28  |   2823       5   2816       3 |   3    4      2601       218 |   7  30   41    0 a10f |    2.044       0       3       0       3     30     30      0   2502     317       1  30    0a10f a70f     30.390 "
test,1583575928777607936,29," | 29  |   2823       5   2817       4 |   5    0      2512       309 |   1  27    0    0 be0f |    4.119       0       5       0       5     27     27      0   2373     448       4  27    0be0f a70f     10.980 "
test,1583575928795496960,30," | 30  |   2823       5   2819       0 |   1    3      2781        38 |  17  30   35    1 a10f |    5.950       0       1       0       1     30     30      0   2689     130       8  30    1a10f a70f     30.300 "
test,1583575928793065984,35," | 35  |   2823       5   2819       0 |   0    3      2692       127 |   0  35   30    1  50f |    0           0       0       0       8      0      0      0   2635     184       0  35    1 50f a70f     30.210 "
test,1583575928797467904,40," | 40  |   2823       3   2771      44 |   4    0      2629       186 |   4  40    0    1  e0f |    1.770       0       1       0       1     40     40      0   2561     254       2  40    1 e0f a70f     30.300 "
test,1583575928802588928,41," | 41  |   2823       5   2766      43 |   2    6      2782        27 |  11  41   40    1 a00f |   10.284       0       2       0       2     41     41      0   2707     102      14  41    1a00f a70f     30.210 "
test,1583575928795746048,42," | 42  |   2823       5   2772      47 |   5    0      2752        67 |   2  40    0    0  e0f |    2.777       0       1       0       1     40     40      0   2681     138       2  40    0 e0f a70f     30.360 "
test,1583575928796830976,44," | 44  |   2823       5   2778      41 |   5    0      2749        70 |   2  40    0    0  e0f |    2.777       0       1       0       1     40     40      0   2691     128       2  40    0 e0f a70f     30.360 "
test,1583575928798964992,45," | 45  |   2823       5   2789      30 |   5    0      2725        94 |   2  40    0    0  e0f |    2.746       0       1       0       1     40     40      0   2673     146       2  40    0 e0f a70f     30.330 "
test,1583575928796642048,46," | 46  |   2823       5   2770      42 |   5    0      2688       124 |   2  40    0    0  e0f |    2.716       0       1       0       1     40     40      0   2633     179       2  40    0 e0f a70f     30.390 "
test,1583575928796466944,47," | 47  |   2823       5   2777      42 |   5    0      2719       100 |   2  40    0    0  e0f |    2.777       0       1       0       1     40     40      0   2658     161       2  40    0 e0f a70f     30.360 "
test,1583575928795979008,48," | 48  |   2823       5   2712      40 |   5    0      2684        68 |   1  40    0    0  e0f |    2.044       0       2       0       2     40     40      0   2629     123       1  40    0 e0f a70f     30.300 "
test,1583575928775324160,49," | 49  |   2823       5   2813       0 |   5    0      2763        50 |   1  53    0    0 810f |    1.983       0       5       0       5     53     53      0   2735      78       1  53    0810f a70f      8.190 "
test,1583575928774797824,51," | 51  |   2823       5   2814       0 |   5    1      2793        21 |   1  57    5    0 de0f |    2.044       0       5       0       5     57     57      0   2785      29       1  57    0de0f a70f      9.630 "
test,1583575928776523008,52," | 52  |   2823       5   2792      23 |   5    0      2678       137 |   1  57    0    0 de0f |    2.746       0       5       0       5     57     57      0   2624     191       2  57    0de0f a70f      8.940 "
test,1583575928774979072,53," | 53  |   2823       5   2797       0 |   4    0      2661       136 |   2  53    0    1 810f |    1.739       0       4       0       4     53     53      0   2625     172       2  53    1810f a70f      6.510 "
test,1583575928799267072,54," | 54  |   2823       5   2815       0 |   3   11      2767        48 |  11  54   57    1 eb0f |   10.253       0       3       0       3     54     54      0   2721      94      14  54    1eb0f a70f     30.270 "
test,1583575928774108928,55," | 55  |   2823       5   2802       0 |   5    0      2707        95 |   1  53    0    0 810f |    2.044       0       5       0       5     53     53      0   2680     122       1  53    0810f a70f      8.190 "
test,1583575928773716992,56," | 56  |   2823       5   2805       0 |   5    0      2759        46 |   1  57    0    0 de0f |    2.014       0       5       0       5     57     57      0   2736      69       1  57    0de0f a70f      8.970 "
test,1583575928775571200,57," | 57  |   2823       5   2760       0 |   4    0      2690        70 |  13  57    0    1 de0f |    1.770       0       4       0       4     57     57      0   2530     230       2  57    1de0f a70f      7.230 "
test,1583575928797071104,58," | 58  |   2823       5   2814       0 |   3    6      2781        33 |  16  57   54    0 de0f |    3.479       0       2       0       2     57     57      0   2663     151       3  57    0de0f a70f     30.390 "
test,1583575928767748096,5," |  5  |   2823       5   2821       0 |   4    0      2585       236 |   8   5    0    1 5d0f |    1.739       0       4       0       4      5      5      0   2534     287       2   5    15d0f a70f      6.480 "
test,1583575928774477056,60," | 60  |   2823       5   2814       0 |   5    0      2631       183 |   1  57    0    0 de0f |    2.014       0       5       0       5     57     57      0   2585     229       1  57    0de0f a70f      8.970 "
test,1583575928780569088,61," | 61  |   2823       5   2813       0 |   5    8      2692       121 |   1  54   57    0 eb0f |    2.044       0       5       0       5     54     54      0   2610     203       1  54    0eb0f a70f     12.270 "
test,1583575928772283904,7," |  7  |   2823       5   2820       0 |   5    0      2775        45 |   1  12    0    0 750f |    2.044       0       5       0       5     12     12      0   2761      59       1  12    0750f a70f      8.280 "
test,1583575928780890880,9," |  9  |   2823       5   2819       0 |   5    8      2710       109 |   1  54    5    0 eb0f |    2.044       0       5       0       5     54     54      0   2696     123       1  54    0eb0f a70f     13.770 "
