test,1583575733270824960,10," | 10  |   2041       5   2013       0 |   5    0      1987        26 |   1  56    0    0 a70f |    2.044       0       5       0       5     56     56      0   1958      55       1  56    0a70f a70f     10.440 "
test,1583575733272672768,12," | 12  |   2041       5   2039       0 |   5    0      2024        15 |   3  56    0    0 a70f |    2.746       0       5       0       5     56     56      0   1993      46       2  56    0a70f a70f      9.540 "
test,1583575733268657920,13," | 13  |   2041       5   2037       0 |   5    0      2020        17 |   1  56    0    0 a70f |    2.014       0       5       0       5     56     56      0   1998      39       1  56    0a70f a70f      8.250 "
test,1583575733290704896,15," | 15  |   2041       4   2039       0 |   0    5      1967        72 |   0  15   56    1 200f |    0           0       0       0       8      0      0      0   1886     153       0  15    1200f a70f     30.210 "
test,1583575733272878848,16," | 16  |   2041       5   2037       0 |   5    0      1965        72 |   1  26    0    0 480f |    2.014       0       5       0       5     26     26      0   1914     123       1  26    0480f a70f      8.160 "
test,1583575733271686144,17," | 17  |   2041       5   2036       1 |   5    0      2014        23 |   1  26    0    0 480f |    2.014       0       5       0       5     26     26      0   1951      86       1  26    0480f a70f      8.220 "
test,1583575733277136128,18," | 18  |   2041       5   2036       0 |   5    0      1920       116 |   1  26    0    0 480f |    2.014       0       5       0       5     26     26      0   1831     205       1  26    0480f a70f      8.130 "
test,1583575733293620992,19," | 19  |   2041       5   2035       2 |   5    0      2011        26 |   1  26    0    0 480f |    2.746       0       4       0       4     26     26      0   1951      86       2  26    0480f a70f     30.390 "
test,1583575733271343104,1," |  1  |   2041       4   2038       0 |   5    0      1986        52 |   2  56    0    0 a70f |    3.448       0       5       0       5     56     56      0   1970      68       2  56    0a70f a70f      9.540 "
test,1583575733279149056,22," | 22  |   2041       5   2035       0 |   5    0      2020        15 |   1  26    0    0 480f |    2.044       0       5       0       5     26     26      0   1923     112       1  26    0480f a70f      8.190 "
test,1583575733270603776,23," | 23  |   2041       5   1979       0 |   5    0      1968        11 |   1  26    0    0 480f |    2.777       0       5       0       5     26     26      0   1930      49       2  26    0480f a70f      8.970 "
test,1583575733269148160,24," | 24  |   2041       5   2037       0 |   5    0      2023        14 |   1  26    0    0 480f |    2.014       0       5       0       5     26     26      0   1977      60       1  26    0480f a70f      8.250 "
test,1583575733267902976,26," | 26  |   2041       5   2037       0 |   4    0      2029         8 |   2  26    0    1 480f |    1.739       0       4       0       4     26     26      0   1992      45       2  26    1480f a70f      6.510 "
test,1583575733291742976,27," | 27  |   2041       5   2039       0 |   5    0      1982        57 |   2  26    0    0 480f |    5.706       0       3       0       3     26     26      0   1887     152       6  26    0480f a70f     30.360 "
test,1583575733277565952,28," | 28  |   2041       5   2037       0 |   5    0      1878       159 |   2  26    0    0 480f |    2.746       0       5       0       5     26     26      0   1816     221       2  26    0480f a70f     10.290 "
test,1583575733293893120,29," | 29  |   2041       2   2035       4 |   4    2      1809       230 |   2  26   15    0 480f |    9.368       0       1       0       1     26     26      0   1705     334      11  26    0480f a70f     30.360 "
test,1583575733273765120,30," | 30  |   2041       5   2037       0 |   5    0      2008        29 |   2  26    0    0 480f |    2.777       0       5       0       5     26     26      0   1944      93       2  26    0480f a70f      9.690 "
test,1583575733272286976,35," | 35  |   2041       5   2037       0 |   5    0      1948        89 |   2  26    0    0 480f |    2.777       0       5       0       5     26     26      0   1908     129       2  26    0480f a70f      8.820 "
test,1583575733292748032,40," | 40  |   2041       5   2001      32 |   1    6      1885       148 |   3  45   42    0 d20f |    3.479       0       4       0       4     45     45      0   1837     196       3  45    0d20f a70f     30.390 "
test,1583575733291284992,41," | 41  |   2041       5   1995      32 |   5    0      2008        19 |   7  42    0    0 200f |    1.983       0       2       0       2     42     42      0   1955      72       1  42    0200f a70f     30.360 "
test,1583575733292571904,42," | 42  |   2041       5   2002      35 |   4    0      1986        51 |   8  42    0    1 200f |    1.739       0       1       0       1     42     42      0   1931     106       2  42    1200f a70f     30.300 "
test,1583575733270019072,44," | 44  |   2041       5   2007      30 |   2    9      1986        51 |   1  45   42    0 d20f |    2.044       0       5       0       5     45     45      0   1936     101       1  45    0d20f a70f      8.280 "
test,1583575733268915968,45," | 45  |   2041       5   2013      24 |   2    8      1967        70 |   2  45   42    1 d20f |    1.739       0       4       0       4     45     45      0   1926     111       2  45    1d20f a70f      6.510 "
test,1583575733292265984,46," | 46  |   2041       5   1999      31 |   1    9      1935        95 |   2  45   42    0 d20f |    3.509       0       4       0       4     45     45      0   1895     135       3  45    0d20f a70f     30.270 "
test,1583575733293008128,47," | 47  |   2041       5   2005      32 |   1   10      1967        70 |   2  45   42    0 d20f |    4.974       0       3       0       3     45     45      0   1915     122       5  45    0d20f a70f     30.360 "
test,1583575733290971136,48," | 48  |   2041       5   1941      29 |   1    9      1917        53 |   2  45   42    0 d20f |    2.807       0       4       0       4     45     45      0   1873      97       2  45    0d20f a70f     30.300 "
test,1583575733269447936,49," | 49  |   2041       5   2031       0 |   5    0      1997        34 |   2  55    0    0 ed0f |    2.044       0       5       0       5     55     55      0   1978      53       1  55    0ed0f a70f      8.220 "
test,1583575733270322944,51," | 51  |   2041       5   2032       0 |   5    0      2018        14 |   1  56    0    0 a70f |    2.044       0       5       0       5     56     56      0   2013      19       1  56    0a70f a70f      8.100 "
test,1583575733295790080,52," | 52  |   2041       5   2015      18 |   5    0      1929       104 |   1  26    0    0 480f |    1.983       0       3       0       3     26     26      0   1890     143       1  26    0480f a70f     30.360 "
test,1583575733274885888,53," | 53  |   2041       5   2015       0 |   5    0      1915       100 |   1  55    0    0 ed0f |    2.044       0       5       0       5     55     55      0   1892     123       1  55    0ed0f a70f      8.130 "
test,1583575733274157056,54," | 54  |   2041       5   2033       0 |   5    0      2004        29 |   2  56    0    0 a70f |    3.479       0       5       0       5     56     56      0   1966      67       3  56    0a70f a70f     11.820 "
test,1583575733268194816,55," | 55  |   2041       5   2020       0 |   4    0      1953        67 |   5  55    0    1 ed0f |    1.739       0       4       0       4     55     55      0   1937      83       2  55    1ed0f a70f      6.480 "
test,1583575733269790976,56," | 56  |   2041       5   2023       0 |   4    0      1993        30 |   2  56    0    1 a70f |    1.739       0       4       0       4     56     56      0   1977      46       2  56    1a70f a70f      6.480 "
test,1583575733291481856,57," | 57  |   2041       2   1978       0 |   4    0      1928        50 |   2  26    0    0 480f |    9.368       0       1       0       1     26     26      0   1812     166      11  26    0480f a70f     30.390 "
test,1583575733290450944,58," | 58  |   2041       5   2032       0 |   1    4      2005        27 |   1  56   55    0 a70f |    8.605       0       3       0       3     56     56      0   1923     109      10  56    0a70f a70f     30.300 "
test,1583575733281575936,5," |  5  |   2041       5   2039       0 |   5    0      1862       177 |   2  56    0    0 a70f |    2.777       0       5       0       5     56     56      0   1827     212       2  56    0a70f a70f      8.880 "
test,1583575733297719040,60," | 60  |   2041       5   2032       0 |   5    1      1899       133 |   1  56   26    0 a70f |    2.716       0       4       0       4     56     56      0   1869     163       2  56    0a70f a70f     30.390 "
test,1583575733271936000,61," | 61  |   2041       5   2031       0 |   2    0      1943        88 |   1  56    0    0 a70f |    2.014       0       5       0       5     56     56      0   1888     143       1  56    0a70f a70f      8.130 "
test,1583575733273309952,7," |  7  |   2041       5   2038       0 |   5    0      2006        32 |   2  56    0    0 a70f |    2.777       0       5       0       5     56     56      0   1996      42       2  56    0a70f a70f      8.820 "
test,1583575733273981952,9," |  9  |   2041       5   2037       0 |   5    0      1963        74 |   2  56    0    0 a70f |    2.746       0       5       0       5     56     56      0   1953      84       2  56    0a70f a70f      8.910 "
