test,1583575816277108992,10," | 10  |   2373       5   2345       0 |   5    0      2310        35 |   4  10    0    1 340f |    1.770       0       4       0       4     10     10      0   2277      68       2  10    1340f a70f      6.510 "
test,1583575816277456128,12," | 12  |   2373       5   2371       0 |   5    0      2351        20 |   3  10    0    0 340f |    2.807       0       5       0       5     10     10      0   2314      57       2  10    0340f a70f     10.320 "
test,1583575816299307008,13," | 13  |   2373       5   2369       0 |   3    4      2350        19 |  20  13   10    1 9c0f |   10.284       0       1       0       1     13     13      0   2321      48      14  13    19c0f a70f     30.240 "
test,1583575816275151872,15," | 15  |   2373       5   2371       0 |   5    0      2288        83 |   4  10    0    0 340f |    3.509       0       5       0       5     10     10      0   2195     176       3  10    0340f a70f     11.160 "
test,1583575816284146944,16," | 16  |   2373       5   2369       0 |   4    0      2289        80 |   6  35    0    0 850f |    8.605       0       5       0       5     35     35      0   2229     140      10  35    0850f a70f     15.270 "
test,1583575816277935872,17," | 17  |   2373       5   2368       1 |   5    0      2340        29 |   3  35    0    0 850f |    8.605       0       5       0       5     35     35      0   2273      96      10  35    0850f a70f     15.420 "
test,1583575816280723968,18," | 18  |   2373       5   2368       0 |   5    0      2234       134 |   3  35    0    0 850f |    7.904       0       5       0       5     35     35      0   2131     237       9  35    0850f a70f     14.010 "
test,1583575816278790912,19," | 19  |   2373       5   2367       2 |   5    0      2337        32 |   4  35    0    0 850f |    9.338       0       5       0       5     35     35      0   2266     103      11  35    0850f a70f     15.450 "
test,1583575816272499200,1," |  1  |   2373       4   2370       0 |   5    0      2309        61 |   2  10    0    0 340f |    3.448       0       5       0       5     10     10      0   2290      80       2  10    0340f a70f      9.660 "
test,1583575816285777152,22," | 22  |   2373       5   2367       0 |   5    0      2349        18 |   2  35    0    0 850f |    7.110       0       5       0       5     35     35      0   2238     129       8  35    0850f a70f     13.770 "
test,1583575816280324096,23," | 23  |   2373       5   2311       0 |   5    0      2299        12 |   3  35    0    0 850f |    9.368       0       5       0       5     35     35      0   2257      54      11  35    0850f a70f     15.480 "
test,1583575816276161024,24," | 24  |   2373       5   2369       0 |   5    0      2348        21 |   3  35    0    0 850f |    7.873       0       5       0       5     35     35      0   2297      72       9  35    0850f a70f     14.010 "
test,1583575816279375104,26," | 26  |   2373       5   2369       0 |   5    0      2360         9 |   3  35    0    0 850f |    7.873       0       5       0       5     35     35      0   2320      49       9  35    0850f a70f     14.700 "
test,1583575816265965056,27," | 27  |   2373       5   2371       0 |   3    6      2306        65 |   5  27   35    1 4b0f |    1.739       0       4       0       4     27     27      0   2203     168       2  27    14b0f a70f      6.480 "
test,1583575816275928064,28," | 28  |   2373       5   2369       0 |   5    0      2185       184 |   1  35    0    0 850f |    2.014       0       5       0       5     35     35      0   2111     258       1  35    0850f a70f      8.850 "
test,1583575816292890112,29," | 29  |   2373       4   2367       4 |   5    4      2108       263 |   1  27   35    0 4b0f |    2.075       0       4       0       4     27     27      0   1992     379       1  27    04b0f a70f     30.240 "
test,1583575816271555840,30," | 30  |   2373       5   2369       0 |   5    0      2339        30 |   1  35    0    0 850f |    2.014       0       5       0       5     35     35      0   2264     105       1  35    0850f a70f      8.220 "
test,1583575816270801920,35," | 35  |   2373       5   2369       0 |   4    0      2267       102 |   2  35    0    1 850f |    1.739       0       4       0       4     35     35      0   2223     146       2  35    1850f a70f      6.510 "
test,1583575816273745152,40," | 40  |   2373       5   2333      32 |   3    0      2203       162 |   1  41    0    0 370f |    3.448       0       5       0       5     41     41      0   2146     219       3  41    0370f a70f      9.450 "
test,1583575816273255168,41," | 41  |   2373       5   2327      32 |   3    2      2335        24 |   2  41   35    1 370f |    1.770       0       4       0       4     41     41      0   2272      87       2  41    1370f a70f      6.510 "
test,1583575816274970112,42," | 42  |   2373       5   2334      35 |   3    0      2315        54 |   2  41    0    0 370f |    2.716       0       5       0       5     41     41      0   2251     118       2  41    0370f a70f      8.970 "
test,1583575816276402944,44," | 44  |   2373       5   2339      30 |   3    0      2311        58 |   2  41    0    0 370f |    2.746       0       5       0       5     41     41      0   2258     111       2  41    0370f a70f      8.940 "
test,1583575816266264832,45," | 45  |   2373       5   2345      24 |   4    1      2290        79 |   1  41   35    0 370f |    2.014       0       5       0       5     41     41      0   2244     125       1  41    0370f a70f      8.190 "
test,1583575816277656064,46," | 46  |   2373       5   2331      31 |   4    0      2257       105 |   1  41    0    0 370f |    1.983       0       5       0       5     41     41      0   2209     153       1  41    0370f a70f      9.690 "
test,1583575816273444864,47," | 47  |   2373       5   2337      32 |   4    0      2290        79 |   1  41    0    0 370f |    2.044       0       5       0       5     41     41      0   2232     137       1  41    0370f a70f      8.130 "
test,1583575816274760960,48," | 48  |   2373       5   2273      29 |   2    0      2244        58 |   2  41    0    0 370f |    2.777       0       5       0       5     41     41      0   2195     107       2  41    0370f a70f      8.910 "
test,1583575816272044800,49," | 49  |   2373       5   2363       0 |   5    0      2322        41 |   2  10    0    0 340f |    2.777       0       5       0       5     10     10      0   2301      62       2  10    0340f a70f      8.970 "
test,1583575816270468096,51," | 51  |   2373       5   2364       0 |   5    0      2349        15 |   1  10    0    0 340f |    2.075       0       5       0       5     10     10      0   2343      21       1  10    0340f a70f      8.130 "
test,1583575816289289984,52," | 52  |   2373       3   2344      21 |   4    0      2247       118 |   4  35    0    0 850f |    8.636       0       5       0       5     35     35      0   2203     162      10  35    0850f a70f     14.730 "
test,1583575816278592000,53," | 53  |   2373       5   2347       0 |   5    0      2233       114 |   3  10    0    0 340f |    3.509       0       5       0       5     10     10      0   2207     140       3  10    0340f a70f      9.720 "
test,1583575816271395072,54," | 54  |   2373       5   2365       0 |   5    0      2327        38 |   1  10    0    0 340f |    2.044       0       5       0       5     10     10      0   2286      79       1  10    0340f a70f      8.970 "
test,1583575816271702016,55," | 55  |   2373       5   2352       0 |   5    0      2274        78 |   2  10    0    0 340f |    2.777       0       5       0       5     10     10      0   2256      96       2  10    0340f a70f      8.970 "
test,1583575816269939968,56," | 56  |   2373       5   2355       0 |   5    0      2316        39 |   1  10    0    0 340f |    2.044       0       5       0       5     10     10      0   2297      58       1  10    0340f a70f      8.250 "
test,1583575816293064192,57," | 57  |   2373       5   2310       0 |   5    0      2249        61 |   2  10    0    0 340f |    2.746       0       4       0       4     10     10      0   2119     191       2  10    0340f a70f     30.300 "
test,1583575816278095104,58," | 58  |   2373       5   2364       0 |   5    0      2336        28 |   1  10    0    0 340f |    2.075       0       5       0       5     10     10      0   2242     122       1  10    0340f a70f      8.910 "
test,1583575816279942912,5," |  5  |   2373       5   2371       0 |   5    3      2168       203 |   1  13   10    0 9c0f |    1.983       0       5       0       5     13     13      0   2125     246       1  13    09c0f a70f     10.800 "
test,1583575816273938944,60," | 60  |   2373       5   2364       0 |   5    0      2211       153 |   2  10    0    0 340f |    2.746       0       5       0       5     10     10      0   2173     191       2  10    0340f a70f      8.970 "
test,1583575816278413056,61," | 61  |   2373       5   2363       0 |   5    0      2262       101 |   1  10    0    0 340f |    2.777       0       5       0       5     10     10      0   2198     165       2  10    0340f a70f      9.000 "
test,1583575816274418944,7," |  7  |   2373       5   2370       0 |   5    0      2333        37 |   4  10    0    0 340f |    2.746       0       5       0       5     10     10      0   2320      50       2  10    0340f a70f      9.690 "
test,1583575816270152960,9," |  9  |   2373       5   2369       0 |   5    0      2275        94 |   1  10    0    0 340f |    2.014       0       5       0       5     10     10      0   2263     106       1  10    0340f a70f      8.250 "
