test,1583575858524802048,10," | 10  |   2542       5   2514       0 |   5    0      2474        40 |   3  54    0    0 6c0f |    2.777       0       5       0       5     54     54      0   2441      73       2  54    06c0f a70f     10.440 "
test,1583575858520459776,12," | 12  |   2542       5   2540       0 |   5    0      2519        21 |   1  54    0    0 6c0f |    2.014       0       5       0       5     54     54      0   2479      61       1  54    06c0f a70f      8.970 "
test,1583575858522844928,13," | 13  |   2542       5   2538       0 |   5    0      2519        19 |   2  54    0    0 6c0f |    2.746       0       5       0       5     54     54      0   2488      50       2  54    06c0f a70f      8.970 "
test,1583575858529032960,15," | 15  |   2542       5   2540       0 |   5    0      2448        92 |   2  54    0    0 6c0f |    2.777       0       5       0       5     54     54      0   2344     196       2  54    06c0f a70f      9.720 "
test,1583575858521362944,16," | 16  |   2542       5   2538       0 |   5    0      2452        86 |   1  41    0    0 390f |    2.044       0       5       0       5     41     41      0   2389     149       1  41    0390f a70f      8.100 "
test,1583575858524246016,17," | 17  |   2542       5   2534       4 |   5    0      2506        32 |   1  41    0    0 390f |    2.777       0       5       0       5     41     41      0   2428     110       2  41    0390f a70f      9.570 "
test,1583575858525537024,18," | 18  |   2542       5   2537       0 |   5    0      2393       144 |   2  41    0    0 390f |    2.746       0       5       0       5     41     41      0   2281     256       2  41    0390f a70f     11.070 "
test,1583575858545399808,19," | 19  |   2542       5   2532       6 |   2    6      2500        38 |   5  19   41    1 860f |    1.770       0       1       0       1     19     19      0   2420     118       2  19    1860f a70f     30.300 "
test,1583575858521859840,1," |  1  |   2542       4   2539       0 |   5    0      2478        61 |   1  54    0    0 6c0f |    2.685       0       5       0       5     54     54      0   2458      81       1  54    06c0f a70f      8.760 "
test,1583575858529381888,22," | 22  |   2542       5   2536       0 |   5    0      2515        21 |   2  41    0    0 390f |    2.746       0       5       0       5     41     41      0   2393     143       2  41    0390f a70f     10.410 "
test,1583575858525837056,23," | 23  |   2542       5   2480       0 |   4    3      2467        13 |   2  41   19    0 390f |    2.746       0       5       0       5     41     41      0   2420      60       2  41    0390f a70f      8.940 "
test,1583575858524083968,24," | 24  |   2542       5   2536       2 |   5    0      2515        23 |   3  41    0    0 390f |    2.777       0       5       0       5     41     41      0   2454      84       2  41    0390f a70f      9.720 "
test,1583575858528182016,26," | 26  |   2542       5   2536       2 |   5    0      2528        10 |   2  41    0    0 390f |    2.716       0       5       0       5     41     41      0   2479      59       2  41    0390f a70f      8.940 "
test,1583575858525981952,27," | 27  |   2542       5   2540       0 |   4    5      2468        72 |   3  41   19    0 390f |    3.509       0       5       0       5     41     41      0   2358     182       3  41    0390f a70f      9.690 "
test,1583575858541872128,28," | 28  |   2542       4   2536       2 |   3    4      2338       200 |   6  41   30    0 390f |    0           0       0       0       8      0      0      0   2251     287       0  41    0390f a70f     30.390 "
test,1583575858543955200,29," | 29  |   2542       5   2536       4 |   4    3      2261       279 |   1  19   41    0 860f |    2.014       0       2       0       2     19     19      0   2137     403       1  19    0860f a70f     30.360 "
test,1583575858545998080,30," | 30  |   2542       5   2538       0 |   3    7      2504        34 |   5  30   41    1 230f |   12.420       0       3       0       3     30     30      0   2422     116      17  30    1230f a70f     30.120 "
test,1583575858544753152,35," | 35  |   2542       5   2538       0 |   4    4      2425       113 |   5  41   30    0 390f |    3.448       0       1       0       1     41     41      0   2374     164       3  41    0390f a70f     30.360 "
test,1583575858525288960,40," | 40  |   2542       5   2502      32 |   5    0      2363       171 |   2  41    0    0 390f |    2.014       0       5       0       5     41     41      0   2301     233       1  41    0390f a70f      9.570 "
test,1583575858527832064,41," | 41  |   2542       5   2496      32 |   4    0      2504        24 |   8  41    0    1 390f |    1.739       0       4       0       4     41     41      0   2438      90       2  41    1390f a70f      8.670 "
test,1583575858527399936,42," | 42  |   2542       5   2503      35 |   3    2      2480        58 |   1  41   45    0 390f |    1.983       0       5       0       5     41     41      0   2415     123       1  41    0390f a70f      8.940 "
test,1583575858544934912,44," | 44  |   2542       5   2508      30 |   1    3      2476        62 |  15  41   45    0 390f |    2.777       0       4       0       4     41     41      0   2422     116       2  41    0390f a70f     30.390 "
test,1583575858543144960,45," | 45  |   2542       5   2514      24 |   0    6      2453        85 |   0  45   41    1 e60f |    0           0       0       0       8      0      0      0   2406     132       0  45    1e60f a70f     30.240 "
test,1583575858523595008,46," | 46  |   2542       5   2500      31 |   5    0      2419       112 |   1  41    0    0 390f |    2.014       0       5       0       5     41     41      0   2369     162       1  41    0390f a70f      9.510 "
test,1583575858525087232,47," | 47  |   2542       5   2506      32 |   5    0      2449        89 |   1  41    0    0 390f |    2.014       0       5       0       5     41     41      0   2389     149       1  41    0390f a70f      9.540 "
test,1583575858530109952,48," | 48  |   2542       5   2442      29 |   5    0      2411        60 |   1  41    0    0 390f |    1.983       0       5       0       5     41     41      0   2360     111       1  41    0390f a70f      9.660 "
test,1583575858523025152,49," | 49  |   2542       5   2532       0 |   5    0      2489        43 |   1  53    0    0 840f |    2.105       0       5       0       5     53     53      0   2463      69       1  53    0840f a70f      8.160 "
test,1583575858520844032,51," | 51  |   2542       5   2533       0 |   4   10      2515        18 |   5  51   54    1 ca0f |    1.739       0       4       0       4     51     51      0   2506      27       2  51    1ca0f a70f      6.480 "
test,1583575858543600128,52," | 52  |   2542       5   2513      21 |   5    0      2406       128 |   3  41    0    0 390f |    2.746       0       4       0       4     41     41      0   2357     177       2  41    0390f a70f     30.360 "
test,1583575858522141952,53," | 53  |   2542       5   2516       0 |   4    0      2390       126 |   8  53    0    1 840f |    1.739       0       4       0       4     53     53      0   2359     157       2  53    1840f a70f      6.480 "
test,1583575858522355200,54," | 54  |   2542       5   2534       0 |   4    0      2491        43 |   4  54    0    1 6c0f |    1.770       0       4       0       4     54     54      0   2447      87       2  54    16c0f a70f      6.510 "
test,1583575858521619968,55," | 55  |   2542       5   2521       0 |   5    0      2435        86 |   1  53    0    0 840f |    2.044       0       5       0       5     53     53      0   2412     109       1  53    0840f a70f      8.250 "
test,1583575858523399168,56," | 56  |   2542       5   2524       0 |   5   10      2480        44 |   1  51   54    0 ca0f |    2.014       0       5       0       5     51     51      0   2459      65       1  51    0ca0f a70f      8.220 "
test,1583575858523804928,57," | 57  |   2542       5   2479       0 |   5    0      2414        65 |   3  41    0    0 390f |    3.509       0       5       0       5     41     41      0   2269     210       3  41    0390f a70f      9.570 "
test,1583575858532115968,58," | 58  |   2542       5   2533       0 |   4    4      2504        29 |   4  54   51    0 6c0f |    2.014       0       5       0       5     54     54      0   2397     136       1  54    06c0f a70f      9.570 "
test,1583575858529773056,5," |  5  |   2542       5   2540       0 |   5    0      2326       214 |   2  54    0    0 6c0f |    2.746       0       5       0       5     54     54      0   2281     259       2  54    06c0f a70f      9.600 "
test,1583575858526155008,60," | 60  |   2542       5   2533       0 |   5    4      2371       162 |   1  51   41    0 ca0f |    2.014       0       5       0       5     51     51      0   2330     203       1  51    0ca0f a70f      8.160 "
test,1583575858526387968,61," | 61  |   2542       5   2532       0 |   4    4      2423       109 |   1  54   51    0 6c0f |    2.014       0       5       0       5     54     54      0   2347     185       1  54    06c0f a70f     10.350 "
test,1583575858520637952,7," |  7  |   2542       5   2539       0 |   5    0      2500        39 |   1  54    0    0 6c0f |    2.044       0       5       0       5     54     54      0   2487      52       1  54    06c0f a70f      8.220 "
test,1583575858521101824,9," |  9  |   2542       5   2538       0 |   5    0      2440        98 |   1  54    0    0 6c0f |    2.075       0       5       0       5     54     54      0   2427     111       1  54    06c0f a70f      8.250 "
