test,1583575755022516992,10," | 10  |   2128       5   2100       0 |   5    0      2072        28 |   1  51    0    0 1a0f |    2.014       0       5       0       5     51     51      0   2042      58       1  51    01a0f a70f      8.790 "
test,1583575755023425024,12," | 12  |   2128       5   2126       0 |   5    0      2106        20 |   2  51    0    0 1a0f |    3.479       0       5       0       5     51     51      0   2074      52       3  51    01a0f a70f      9.720 "
test,1583575755019305984,13," | 13  |   2128       5   2124       0 |   5    0      2107        17 |   1  51    0    0 1a0f |    1.983       0       5       0       5     51     51      0   2082      42       1  51    01a0f a70f      8.250 "
test,1583575755042841856,15," | 15  |   2128       5   2126       0 |   5    0      2052        74 |   3  51    0    0 1a0f |    4.241       0       4       0       4     51     51      0   1965     161       4  51    01a0f a70f     30.240 "
test,1583575755031912960,16," | 16  |   2128       5   2124       0 |   5    0      2049        75 |   4  51    0    0 1a0f |    4.211       0       5       0       5     51     51      0   1997     127       4  51    01a0f a70f     10.290 "
test,1583575755020827136,17," | 17  |   2128       5   2123       1 |   5    0      2098        26 |   2  42    0    0 5d0f |    2.777       0       5       0       5     42     42      0   2034      90       2  42    05d0f a70f      8.970 "
test,1583575755022336000,18," | 18  |   2128       5   2123       0 |   5    0      2000       123 |   1  42    0    0 5d0f |    2.777       0       5       0       5     42     42      0   1911     212       2  42    05d0f a70f      9.630 "
test,1583575755042464000,19," | 19  |   2128       5   2122       2 |   5    0      2096        28 |   3  42    0    0 5d0f |    3.540       0       4       0       4     42     42      0   2034      90       3  42    05d0f a70f     30.270 "
test,1583575755023922944,1," |  1  |   2128       4   2125       0 |   5    0      2071        54 |   1  51    0    0 1a0f |    3.417       0       5       0       5     51     51      0   2054      71       2  51    01a0f a70f      9.630 "
test,1583575755025712128,22," | 22  |   2128       5   2122       0 |   5    0      2107        15 |   2  42    0    0 5d0f |    3.479       0       5       0       5     42     42      0   2008     114       3  42    05d0f a70f     10.380 "
test,1583575755021224960,23," | 23  |   2128       5   2066       0 |   5    0      2055        11 |   3  51    0    0 1a0f |    3.479       0       5       0       5     51     51      0   2016      50       3  51    01a0f a70f      9.660 "
test,1583575755027138048,24," | 24  |   2128       5   2124       0 |   5    0      2108        16 |   2  42    0    0 5d0f |    2.746       0       5       0       5     42     42      0   2063      61       2  42    05d0f a70f      8.820 "
test,1583575755023055104,26," | 26  |   2128       5   2124       0 |   4    5      2116         8 |   6  42   52    0 5d0f |    2.746       0       5       0       5     42     42      0   2078      46       2  42    05d0f a70f      9.690 "
test,1583575755042009088,27," | 27  |   2128       5   2126       0 |   3    4      2066        60 |   4  42   29    0 5d0f |    3.509       0       4       0       4     42     42      0   1971     155       3  42    05d0f a70f     30.360 "
test,1583575755026508032,28," | 28  |   2128       5   2124       0 |   4    1      1957       167 |   1  30   42    0 9e0f |    2.044       0       5       0       5     30     30      0   1895     229       1  30    09e0f a70f      8.250 "
test,1583575755040889856,29," | 29  |   2128       5   2122       4 |   0    7      1890       236 |   0  29   42    1 270f |    0           0       0       0       8      0      0      0   1782     344       0  29    1270f a70f     30.180 "
test,1583575755019006976,30," | 30  |   2128       5   2124       0 |   4    0      2095        29 |   2  30    0    1 9e0f |    1.739       0       4       0       4     30     30      0   2029      95       2  30    19e0f a70f      6.480 "
test,1583575755024588032,35," | 35  |   2128       5   2124       0 |   5    0      2029        95 |   1  30    0    0 9e0f |    2.044       0       5       0       5     30     30      0   1988     136       1  30    09e0f a70f      8.250 "
test,1583575755041312000,40," | 40  |   2128       5   2088      32 |   0    6      1968       152 |   0  40   42    1 620f |    0           0       0       0       8      0      0      0   1919     201       0  40    1620f a70f     30.180 "
test,1583575755020417024,41," | 41  |   2128       5   2082      32 |   5    0      2093        21 |   1  42    0    0 5d0f |    2.014       0       5       0       5     42     42      0   2039      75       1  42    05d0f a70f      8.250 "
test,1583575755019912960,42," | 42  |   2128       5   2089      35 |   4    0      2071        53 |   3  42    0    1 5d0f |    1.739       0       4       0       4     42     42      0   2015     109       2  42    15d0f a70f      6.510 "
test,1583575755022669056,44," | 44  |   2128       5   2094      30 |   5    0      2071        53 |   1  42    0    0 5d0f |    2.044       0       5       0       5     42     42      0   2020     104       1  42    05d0f a70f      8.250 "
test,1583575755040744192,45," | 45  |   2128       5   2100      24 |   5    0      2053        71 |   1  42    0    0 5d0f |    3.540       0       3       0       3     42     42      0   2012     112       3  42    05d0f a70f     30.240 "
test,1583575755025396992,46," | 46  |   2128       5   2086      31 |   5    0      2017       100 |   1  42    0    0 5d0f |    2.044       0       5       0       5     42     42      0   1976     141       1  42    05d0f a70f      8.910 "
test,1583575755020272128,47," | 47  |   2128       5   2092      32 |   5    0      2052        72 |   1  42    0    0 5d0f |    2.044       0       5       0       5     42     42      0   1999     125       1  42    05d0f a70f      8.310 "
test,1583575755020640000,48," | 48  |   2128       5   2028      29 |   5    0      2001        56 |   1  42    0    0 5d0f |    2.014       0       5       0       5     42     42      0   1956     101       1  42    05d0f a70f      8.160 "
test,1583575755020102144,49," | 49  |   2128       5   2118       0 |   5    2      2081        37 |   1  53   54    0 3d0f |    1.983       0       5       0       5     53     53      0   2061      57       1  53    03d0f a70f      8.220 "
test,1583575755019713024,51," | 51  |   2128       5   2119       0 |   4    0      2105        14 |   2  51    0    1 1a0f |    1.739       0       4       0       4     51     51      0   2100      19       2  51    11a0f a70f      6.480 "
test,1583575755040379904,52," | 52  |   2128       2   2101      19 |   0    4      2011       109 |   0  52   42    1 aa0f |    0           0       0       0       8      0      0      0   1971     149       0  52    1aa0f a70f     30.180 "
test,1583575755021410816,53," | 53  |   2128       5   2102       0 |   4    0      1998       104 |   5  53    0    1 3d0f |    1.739       0       4       0       4     53     53      0   1973     129       2  53    13d0f a70f      6.510 "
test,1583575755038461952,54," | 54  |   2128       5   2120       0 |   3    1      2087        33 |  14  54   51    1 5e0f |    6.011       0       2       0       2     54     54      0   2050      70       8  54    15e0f a70f     30.300 "
test,1583575755024975104,55," | 55  |   2128       5   2107       0 |   5    2      2036        71 |   1  53   54    0 3d0f |    2.044       0       5       0       5     53     53      0   2019      88       1  53    03d0f a70f      8.160 "
test,1583575755022022912,56," | 56  |   2128       5   2110       0 |   5    0      2075        35 |   1  51    0    0 1a0f |    1.983       0       5       0       5     51     51      0   2060      50       1  51    01a0f a70f      8.190 "
test,1583575755041785856,57," | 57  |   2128       5   2065       0 |   3    4      2011        54 |   2  51   54    0 1a0f |    2.716       0       3       0       3     51     51      0   1893     172       2  51    01a0f a70f     30.270 "
test,1583575755026312960,58," | 58  |   2128       5   2119       0 |   5    3      2092        27 |   4  54   53    0 5e0f |    2.044       0       5       0       5     54     54      0   2007     112       1  54    05e0f a70f      9.600 "
test,1583575755026753024,5," |  5  |   2128       5   2126       0 |   5    0      1943       183 |   2  51    0    0 1a0f |    2.716       0       5       0       5     51     51      0   1904     222       2  51    01a0f a70f      8.760 "
test,1583575755040532992,60," | 60  |   2128       5   2119       0 |   0    3      1978       141 |   0  60   51    1 560f |    0           0       0       0       8      0      0      0   1948     171       0  60    1560f a70f     30.270 "
test,1583575755023724032,61," | 61  |   2128       5   2118       0 |   4    0      2027        91 |   4  54    0    0 5e0f |    2.075       0       5       0       5     54     54      0   1970     148       1  54    05e0f a70f      8.880 "
test,1583575755021799168,7," |  7  |   2128       5   2125       0 |   5    0      2091        34 |   1  51    0    0 1a0f |    2.746       0       5       0       5     51     51      0   2079      46       2  51    01a0f a70f      8.940 "
test,1583575755021544960,9," |  9  |   2128       5   2124       0 |   5    0      2048        76 |   2  51    0    0 1a0f |    2.716       0       5       0       5     51     51      0   2037      87       2  51    01a0f a70f      8.820 "
