test,1583575757019347968,10," | 10  |   2136       5   2108       0 |   5    0      2079        29 |   1   1    0    0 a10f |    1.403       0       5       0       5      1      1      0   2049      59       1   1    0a10f a70f      7.560 "
test,1583575757020144896,12," | 12  |   2136       5   2134       0 |   5    0      2114        20 |   1   1    0    0 a10f |    1.373       0       5       0       5      1      1      0   2081      53       1   1    0a10f a70f      7.560 "
test,1583575757018987008,13," | 13  |   2136       5   2132       0 |   5    0      2115        17 |   1   1    0    0 a10f |    1.403       0       5       0       5      1      1      0   2089      43       1   1    0a10f a70f      7.500 "
test,1583575757020891904,15," | 15  |   2136       5   2134       0 |   5    0      2060        74 |   2   1    0    0 a10f |    2.075       0       5       0       5      1      1      0   1972     162       2   1    0a10f a70f      8.310 "
test,1583575757040332032,16," | 16  |   2136       5   2132       0 |   1    5      2057        75 |   1  45   30    0 bb0f |    0           0       0       0       8      0      0      0   2004     128       0  45    0bb0f a70f     30.360 "
test,1583575757026609920,17," | 17  |   2136       5   2131       1 |   5    0      2106        26 |   2  30    0    0  c0f |    3.479       0       5       0       5     30     30      0   2042      90       3  30    0 c0f a70f     10.440 "
test,1583575757024301056,18," | 18  |   2136       5   2131       0 |   5    0      2007       124 |   2  30    0    0  c0f |    2.777       0       5       0       5     30     30      0   1918     213       2  30    0 c0f a70f     10.320 "
test,1583575757023222016,19," | 19  |   2136       5   2130       2 |   5    0      2104        28 |   3  30    0    0  c0f |    4.211       0       5       0       5     30     30      0   2042      90       4  30    0 c0f a70f     11.010 "
test,1583575757018727168,1," |  1  |   2136       4   2133       0 |   5    0      2079        54 |   2   1    0    1 a10f |    1.739       0       4       0       4      1      1      0   2061      72       2   1    1a10f a70f      6.480 "
test,1583575757027373056,22," | 22  |   2136       5   2130       0 |   5    0      2114        16 |   1  30    0    0  c0f |    2.014       0       5       0       5     30     30      0   2015     115       1  30    0 c0f a70f      9.660 "
test,1583575757026429952,23," | 23  |   2136       5   2074       0 |   5    0      2063        11 |   4  30    0    0  c0f |    2.777       0       5       0       5     30     30      0   2024      50       2  30    0 c0f a70f      9.000 "
test,1583575757021752064,24," | 24  |   2136       5   2132       0 |   5    0      2116        16 |   3  30    0    0  c0f |    2.777       0       5       0       5     30     30      0   2071      61       2  30    0 c0f a70f      9.690 "
test,1583575757029208064,26," | 26  |   2136       5   2132       0 |   5    0      2124         8 |   2  30    0    0  c0f |    2.746       0       5       0       5     30     30      0   2086      46       2  30    0 c0f a70f      9.570 "
test,1583575757023556864,27," | 27  |   2136       5   2134       0 |   5    0      2074        60 |   3  30    0    0  c0f |    3.509       0       5       0       5     30     30      0   1979     155       3  30    0 c0f a70f     11.700 "
test,1583575757028722944,28," | 28  |   2136       5   2132       0 |   5    0      1965       167 |   1  30    0    0  c0f |    2.014       0       5       0       5     30     30      0   1902     230       1  30    0 c0f a70f     10.950 "
test,1583575757042620928,29," | 29  |   2136       5   2130       4 |   4    0      1897       237 |   6  30    0    0  c0f |    4.241       0       4       0       4     30     30      0   1789     345       4  30    0 c0f a70f     30.360 "
test,1583575757019164160,30," | 30  |   2136       5   2132       0 |   4    0      2103        29 |   2  30    0    1  c0f |    1.739       0       4       0       4     30     30      0   2037      95       2  30    1 c0f a70f      6.480 "
test,1583575757022010112,35," | 35  |   2136       5   2132       0 |   5    0      2037        95 |   1  30    0    0  c0f |    2.014       0       5       0       5     30     30      0   1996     136       1  30    0 c0f a70f      8.070 "
test,1583575757041523968,40," | 40  |   2136       5   2096      32 |   0    3      1975       153 |   0  40   30    1 2b0f |    0           0       0       0       8      0      0      0   1926     202       0  40    12b0f a70f     30.180 "
test,1583575757023040000,41," | 41  |   2136       5   2090      32 |   5    0      2100        22 |   1  45    0    0 bb0f |    1.983       0       5       0       5     45     45      0   2047      75       1  45    0bb0f a70f      9.690 "
test,1583575757032815872,42," | 42  |   2136       5   2097      35 |   5    0      2079        53 |   1  45    0    0 bb0f |    2.014       0       5       0       5     45     45      0   2023     109       1  45    0bb0f a70f      9.570 "
test,1583575757021361152,44," | 44  |   2136       5   2102      30 |   5    0      2079        53 |   1  45    0    0 bb0f |    1.983       0       5       0       5     45     45      0   2028     104       1  45    0bb0f a70f      8.250 "
test,1583575757020692992,45," | 45  |   2136       5   2108      24 |   4    0      2061        71 |   2  45    0    1 bb0f |    1.739       0       4       0       4     45     45      0   2020     112       2  45    1bb0f a70f      6.510 "
test,1583575757024908032,46," | 46  |   2136       5   2094      31 |   5    0      2025       100 |   2  45    0    0 bb0f |    2.716       0       5       0       5     45     45      0   1984     141       2  45    0bb0f a70f      8.940 "
test,1583575757025733120,47," | 47  |   2136       5   2100      32 |   4    2      2060        72 |   3  45   40    0 bb0f |    2.777       0       5       0       5     45     45      0   2007     125       2  45    0bb0f a70f     10.290 "
test,1583575757024113920,48," | 48  |   2136       5   2036      29 |   3    2      2009        56 |   2  45   40    0 bb0f |    2.777       0       5       0       5     45     45      0   1964     101       2  45    0bb0f a70f     10.260 "
test,1583575757019956992,49," | 49  |   2136       5   2126       0 |   5    0      2088        38 |   1  55    0    0 950f |    2.044       0       5       0       5     55     55      0   2068      58       1  55    0950f a70f      8.250 "
test,1583575757020329984,51," | 51  |   2136       5   2127       0 |   5    0      2113        14 |   1   1    0    0 a10f |    1.373       0       5       0       5      1      1      0   2107      20       1   1    0a10f a70f      7.620 "
test,1583575757039404032,52," | 52  |   2136       5   2109      19 |   1    9      2019       109 |   2  45   30    0 bb0f |    0           0       0       0       8      0      0      0   1977     151       0  45    0bb0f a70f     30.360 "
test,1583575757025435904,53," | 53  |   2136       5   2110       0 |   5    0      2006       104 |   1  55    0    0 950f |    2.044       0       5       0       5     55     55      0   1981     129       1  55    0950f a70f      8.190 "
test,1583575757022611968,54," | 54  |   2136       5   2128       0 |   5    0      2095        33 |   1   1    0    0 a10f |    1.403       0       5       0       5      1      1      0   2057      71       1   1    0a10f a70f      7.650 "
test,1583575757023741952,55," | 55  |   2136       5   2115       0 |   4    0      2044        71 |   2  55    0    1 950f |    1.739       0       4       0       4     55     55      0   2027      88       2  55    1950f a70f      6.480 "
test,1583575757025862912,56," | 56  |   2136       5   2118       0 |   2    8      2083        35 |   2  55   30    0 950f |    2.807       0       5       0       5     55     55      0   2067      51       2  55    0950f a70f      9.720 "
test,1583575757041996032,57," | 57  |   2136       5   2073       0 |   4    0      2018        55 |   7  30    0    0  c0f |    9.307       0       1       0       1     30     30      0   1900     173      11  30    0 c0f a70f     30.390 "
test,1583575757025569024,58," | 58  |   2136       5   2127       0 |   5    0      2100        27 |   1  55    0    0 950f |    2.014       0       5       0       5     55     55      0   2015     112       1  55    0950f a70f      8.970 "
test,1583575757020515072,5," |  5  |   2136       5   2134       0 |   5    0      1951       183 |   2   1    0    0 a10f |    2.136       0       5       0       5      1      1      0   1911     223       2   1    0a10f a70f      8.220 "
test,1583575757019755008,60," | 60  |   2136       5   2127       0 |   5    0      1985       142 |   2   1    0    0 a10f |    2.075       0       5       0       5      1      1      0   1955     172       2   1    0a10f a70f      8.310 "
test,1583575757025122048,61," | 61  |   2136       5   2126       0 |   5    0      2034        92 |   2  55    0    0 950f |    2.777       0       5       0       5     55     55      0   1977     149       2  55    0950f a70f      9.630 "
test,1583575757018513920,7," |  7  |   2136       5   2133       0 |   5    0      2099        34 |   1   1    0    0 a10f |    1.342       0       5       0       5      1      1      0   2086      47       1   1    0a10f a70f      7.560 "
test,1583575757021070848,9," |  9  |   2136       5   2132       0 |   5    0      2055        77 |   1   1    0    0 a10f |    1.403       0       5       0       5      1      1      0   2043      89       1   1    0a10f a70f      7.590 "
