test,1583575728023195904,10," | 10  |   2020       5   1992       0 |   5    0      1966        26 |   4   9    0    0 640f |    2.044       0       5       0       5      9      9      0   1937      55       1   9    0640f a70f      8.280 "
test,1583575728039880960,12," | 12  |   2020       5   2018       0 |   1   13      2003        15 |   3  24   13    0 320f |    0           0       0       0       8      0      0      0   1972      46       0  24    0320f a70f     30.390 "
test,1583575728042980864,13," | 13  |   2020       5   2016       0 |   4    8      1999        17 |   8  13    9    1 d70f |    9.643       0       2       0       2     13     13      0   1977      39      13  13    1d70f a70f     30.210 "
test,1583575728039072000,15," | 15  |   2020       5   2018       0 |   2    2      1947        71 |   2  24   13    0 320f |    0           0       0       0       8      0      0      0   1866     152       0  24    0320f a70f     30.390 "
test,1583575728022882048,16," | 16  |   2020       5   2016       0 |   5    0      1944        72 |   2  24    0    0 320f |    2.777       0       5       0       5     24     24      0   1894     122       2  24    0320f a70f      8.820 "
test,1583575728024517888,17," | 17  |   2020       5   2015       1 |   5    0      1993        23 |   1  24    0    0 320f |    2.044       0       5       0       5     24     24      0   1931      85       1  24    0320f a70f     10.380 "
test,1583575728020844032,18," | 18  |   2020       5   2015       0 |   5    0      1900       115 |   1  24    0    0 320f |    2.075       0       5       0       5     24     24      0   1811     204       1  24    0320f a70f      8.160 "
test,1583575728022004992,19," | 19  |   2020       5   2014       2 |   5    0      1990        26 |   1  24    0    0 320f |    2.075       0       5       0       5     24     24      0   1931      85       1  24    0320f a70f     11.160 "
test,1583575728019459840,1," |  1  |   2020       4   2017       0 |   5    0      1965        52 |   4   9    0    0 640f |    2.716       0       5       0       5      9      9      0   1949      68       1   9    0640f a70f      8.790 "
test,1583575728023747072,22," | 22  |   2020       5   2014       0 |   5    0      1999        15 |   1  24    0    0 320f |    2.075       0       5       0       5     24     24      0   1902     112       1  24    0320f a70f      8.130 "
test,1583575728020588032,23," | 23  |   2020       5   1958       0 |   5    0      1947        11 |   1  24    0    0 320f |    2.075       0       5       0       5     24     24      0   1910      48       1  24    0320f a70f      8.130 "
test,1583575728025562112,24," | 24  |   2020       5   2016       0 |   4    0      2003        13 |   4  24    0    1 320f |    1.739       0       4       0       4     24     24      0   1957      59       2  24    1320f a70f      6.510 "
test,1583575728018475008,26," | 26  |   2020       5   2016       0 |   5    0      2009         7 |   1  24    0    0 320f |    2.075       0       5       0       5     24     24      0   1973      43       1  24    0320f a70f      8.310 "
test,1583575728023931136,27," | 27  |   2020       5   2018       0 |   5    0      1962        56 |   3  24    0    0 320f |    4.272       0       5       0       5     24     24      0   1868     150       4  24    0320f a70f     11.070 "
test,1583575728021709824,28," | 28  |   2020       5   2016       0 |   5    0      1861       155 |   1  24    0    0 320f |    2.044       0       5       0       5     24     24      0   1799     217       1  24    0320f a70f      8.880 "
test,1583575728026835968,29," | 29  |   2020       5   2014       4 |   4    0      1790       228 |   2  24    0    0 320f |    5.004       0       5       0       5     24     24      0   1686     332       5  24    0320f a70f     11.850 "
test,1583575728021206016,30," | 30  |   2020       5   2016       0 |   5    0      1987        29 |   3  24    0    0 320f |    2.777       0       5       0       5     24     24      0   1923      93       2  24    0320f a70f      9.510 "
test,1583575728024160000,35," | 35  |   2020       5   2016       0 |   5    0      1929        87 |   2  24    0    0 320f |    2.777       0       5       0       5     24     24      0   1889     127       2  24    0320f a70f      8.970 "
test,1583575728023028992,40," | 40  |   2020       5   1980      32 |   4    0      1864       148 |   1  24    0    0 320f |    2.014       0       5       0       5     24     24      0   1817     195       1  24    0320f a70f     10.410 "
test,1583575728024822016,41," | 41  |   2020       5   1974      32 |   5    0      1987        19 |   2  24    0    0 320f |    2.807       0       5       0       5     24     24      0   1935      71       2  24    0320f a70f     10.290 "
test,1583575728022230016,42," | 42  |   2020       5   1981      35 |   5    0      1965        51 |   1  24    0    0 320f |    2.044       0       5       0       5     24     24      0   1912     104       1  24    0320f a70f     10.410 "
test,1583575728027976960,44," | 44  |   2020       5   1986      30 |   5    0      1965        51 |   1  24    0    0 320f |    2.044       0       5       0       5     24     24      0   1915     101       1  24    0320f a70f     10.440 "
test,1583575728021451008,45," | 45  |   2020       5   1992      24 |   5    0      1948        68 |   2  24    0    0 320f |    2.777       0       5       0       5     24     24      0   1906     110       2  24    0320f a70f      9.690 "
test,1583575728025804032,46," | 46  |   2020       5   1978      31 |   5    0      1915        94 |   2  24    0    0 320f |    2.807       0       5       0       5     24     24      0   1875     134       2  24    0320f a70f     10.410 "
test,1583575728024344832,47," | 47  |   2020       5   1984      32 |   5    0      1946        70 |   2  24    0    0 320f |    2.807       0       5       0       5     24     24      0   1895     121       2  24    0320f a70f     10.290 "
test,1583575728026043904,48," | 48  |   2020       5   1920      29 |   5    0      1896        53 |   2  24    0    0 320f |    2.746       0       5       0       5     24     24      0   1853      96       2  24    0320f a70f     10.380 "
test,1583575728018647040,49," | 49  |   2020       5   2010       0 |   5    0      1976        34 |   1  53    0    0 db0f |    2.075       0       5       0       5     53     53      0   1958      52       1  53    0db0f a70f      8.310 "
test,1583575728026384128,51," | 51  |   2020       5   2011       0 |   5    4      1997        14 |   1  13    9    0 d70f |    2.014       0       5       0       5     13     13      0   1992      19       1  13    0d70f a70f     10.830 "
test,1583575728042232064,52," | 52  |   2020       5   1994      18 |   5    0      1908       104 |   1  24    0    0 320f |    2.044       0       4       0       4     24     24      0   1869     143       1  24    0320f a70f     30.180 "
test,1583575728018953984,53," | 53  |   2020       5   1994       0 |   4    0      1896        98 |   2  53    0    1 db0f |    1.739       0       4       0       4     53     53      0   1874     120       2  53    1db0f a70f      6.480 "
test,1583575728025010176,54," | 54  |   2020       5   2012       0 |   5    0      1984        28 |   5   9    0    0 640f |    2.014       0       5       0       5      9      9      0   1946      66       1   9    0640f a70f      8.220 "
test,1583575728019682048,55," | 55  |   2020       5   1999       0 |   5    0      1932        67 |   1  53    0    0 db0f |    2.044       0       5       0       5     53     53      0   1917      82       1  53    0db0f a70f      8.250 "
test,1583575728028603904,56," | 56  |   2020       5   2002       0 |   5    4      1972        30 |   1  13   24    0 d70f |    1.953       0       5       0       5     13     13      0   1956      46       1  13    0d70f a70f     11.580 "
test,1583575728041309952,57," | 57  |   2020       5   1957       0 |   3    6      1907        50 |   6  24   13    0 320f |    4.211       0       4       0       4     24     24      0   1793     164       4  24    0320f a70f     30.390 "
test,1583575728041870080,58," | 58  |   2020       5   2011       0 |   4    4      1986        25 |   3  13    9    0 d70f |   10.620       0       2       0       2     13     13      0   1906     105      13  13    0d70f a70f     30.390 "
test,1583575728022641920,5," |  5  |   2020       5   2018       0 |   5    1      1843       175 |   1  13   24    0 d70f |    2.014       0       5       0       5     13     13      0   1808     210       1  13    0d70f a70f     11.580 "
test,1583575728042650880,60," | 60  |   2020       5   2011       0 |   5    3      1880       131 |   2  13   24    0 d70f |    6.927       0       4       0       4     13     13      0   1850     161       8  13    0d70f a70f     30.390 "
test,1583575728042818048,61," | 61  |   2020       5   2010       0 |   5    3      1924        86 |   2  13    9    0 d70f |   10.620       0       2       0       2     13     13      0   1871     139      13  13    0d70f a70f     30.360 "
test,1583575728019136000,7," |  7  |   2020       5   2017       0 |   5    0      1985        32 |   4   9    0    0 640f |    2.746       0       5       0       5      9      9      0   1975      42       2   9    0640f a70f      8.910 "
test,1583575728017495040,9," |  9  |   2020       5   2016       0 |   4    0      1942        74 |   5   9    0    1 640f |    1.739       0       4       0       4      9      9      0   1932      84       2   9    1640f a70f      6.480 "
