test,1583575889773355008,10," | 10  |   2667       5   2639       0 |   5    0      2594        45 |   1  13    0    0 300f |    2.014       0       5       0       5     13     13      0   2556      83       1  13    0300f a70f      8.160 "
test,1583575889774027008,12," | 12  |   2667       5   2665       0 |   5    0      2644        21 |   1  13    0    0 300f |    2.746       0       5       0       5     13     13      0   2604      61       2  13    0300f a70f      9.690 "
test,1583575889771729920,13," | 13  |   2667       5   2663       0 |   4    0      2643        20 |   4  13    0    1 300f |    1.739       0       4       0       4     13     13      0   2611      52       2  13    1300f a70f      7.200 "
test,1583575889776187904,15," | 15  |   2667       5   2665       0 |   5    0      2568        97 |   2  13    0    0 300f |    3.448       0       5       0       5     13     13      0   2461     204       3  13    0300f a70f     10.230 "
test,1583575889781757952,16," | 16  |   2667       5   2663       0 |   4    2      2573        90 |   2  52   41    0 1e0f |    2.044       0       5       0       5     52     52      0   2506     157       1  52    01e0f a70f      8.130 "
test,1583575889777911040,17," | 17  |   2667       5   2658       5 |   4    2      2631        32 |   4  52   41    0 1e0f |    2.746       0       5       0       5     52     52      0   2549     114       2  52    01e0f a70f     10.260 "
test,1583575889792150016,18," | 18  |   2667       5   2662       0 |   0    6      2511       151 |   0  18   52    1  b0f |    0           0       0       0       8      0      0      0   2393     269       0  18    1 b0f a70f     30.180 "
test,1583575889775933952,19," | 19  |   2667       5   2655       8 |   3    0      2623        40 |   5  52    0    0 1e0f |    2.044       0       5       0       5     52     52      0   2536     127       1  52    01e0f a70f     10.950 "
test,1583575889775139072,1," |  1  |   2667       4   2664       0 |   5    0      2600        64 |   1  13    0    0 300f |    2.685       0       5       0       5     13     13      0   2579      85       1  13    0300f a70f      8.910 "
test,1583575889779403008,22," | 22  |   2667       5   2661       0 |   4    6      2639        22 |   2  52   18    0 1e0f |    2.777       0       5       0       5     52     52      0   2510     151       2  52    01e0f a70f     11.760 "
test,1583575889774925824,23," | 23  |   2667       5   2605       0 |   4    0      2592        13 |   1  52    0    0 1e0f |    2.014       0       5       0       5     52     52      0   2541      64       1  52    01e0f a70f      9.000 "
test,1583575889777238016,24," | 24  |   2667       5   2661       2 |   4    5      2639        24 |   3  52   18    0 1e0f |    2.777       0       5       0       5     52     52      0   2573      90       2  52    01e0f a70f      9.720 "
test,1583575889773122048,26," | 26  |   2667       5   2661       2 |   5    0      2653        10 |   1  52    0    0 1e0f |    2.044       0       5       0       5     52     52      0   2602      61       1  52    01e0f a70f      9.000 "
test,1583575889774543104,27," | 27  |   2667       5   2665       0 |   4    0      2590        75 |   2  52    0    0 1e0f |    2.777       0       5       0       5     52     52      0   2476     189       2  52    01e0f a70f      9.540 "
test,1583575889778449152,28," | 28  |   2667       5   2660       3 |   4    0      2455       208 |   5  30    0    0 6d0f |    2.044       0       5       0       5     30     30      0   2363     300       1  30    06d0f a70f      8.160 "
test,1583575889795571200,29," | 29  |   2667       5   2661       4 |   4    0      2370       295 |   3  52    0    0 1e0f |    4.974       0       4       0       4     52     52      0   2239     426       5  52    01e0f a70f     30.180 "
test,1583575889770870016,30," | 30  |   2667       5   2663       0 |   5    0      2627        36 |   2  30    0    1 6d0f |    1.739       0       4       0       4     30     30      0   2541     122       2  30    16d0f a70f      6.480 "
test,1583575889772247040,35," | 35  |   2667       5   2663       0 |   5    0      2540       123 |   1  30    0    0 6d0f |    2.014       0       5       0       5     30     30      0   2486     177       1  30    06d0f a70f      8.220 "
test,1583575889793998080,40," | 40  |   2667       4   2627      32 |   5    1      2486       173 |   1  48   41    0 170f |    2.014       0       5       0       5     48     48      0   2422     237       1  48    0170f a70f     24.210 "
test,1583575889791953920,41," | 41  |   2667       5   2621      32 |   0    8      2626        27 |   0  41   46    1 da0f |    0           0       0       0       8      0      0      0   2557      96       0  41    1da0f a70f     30.210 "
test,1583575889794193920,42," | 42  |   2667       4   2628      35 |   4    5      2604        59 |   4  48   41    0 170f |    3.479       0       4       0       4     48     48      0   2538     125       3  48    0170f a70f     30.360 "
test,1583575889787681024,44," | 44  |   2667       5   2633      30 |   5    0      2600        63 |   1  48    0    0 170f |    2.044       0       5       0       5     48     48      0   2546     117       1  48    0170f a70f     22.830 "
test,1583575889790268928,45," | 45  |   2667       5   2639      24 |   5    0      2575        88 |   2  48    0    0 170f |    2.716       0       5       0       5     48     48      0   2527     136       2  48    0170f a70f     24.900 "
test,1583575889794658816,46," | 46  |   2667       5   2625      31 |   0    9      2538       118 |   0  46   48    1 400f |    0           0       0       0       8      0      0      0   2488     168       0  46    1400f a70f     30.150 "
test,1583575889793523200,47," | 47  |   2667       4   2631      32 |   4    1      2570        93 |   4  48   18    0 170f |    3.479       0       4       0       4     48     48      0   2509     154       3  48    0170f a70f     30.300 "
test,1583575889789545984,48," | 48  |   2667       4   2567      29 |   4    1      2534        62 |   4  48   41    1 170f |   19.531       0       4       0       4     48     48      0   2482     114       5  48    1170f a70f     23.970 "
test,1583575889777734144,49," | 49  |   2667       5   2657       0 |   5    0      2613        44 |   3  13    0    0 300f |    4.211       0       5       0       5     13     13      0   2585      72       4  13    0300f a70f     12.540 "
test,1583575889771945984,51," | 51  |   2667       5   2658       0 |   5    0      2640        18 |   1  13    0    0 300f |    1.983       0       5       0       5     13     13      0   2631      27       1  13    0300f a70f      8.220 "
test,1583575889775718912,52," | 52  |   2667       5   2638      21 |   3    0      2527       132 |   4  52    0    1 1e0f |    1.739       0       4       0       4     52     52      0   2475     184       2  52    11e0f a70f     10.800 "
test,1583575889779087104,53," | 53  |   2667       5   2641       0 |   5    0      2511       130 |   4  13    0    0 300f |    4.180       0       5       0       5     13     13      0   2478     163       4  13    0300f a70f     13.260 "
test,1583575889773519872,54," | 54  |   2667       5   2659       0 |   5    0      2613        46 |   1  13    0    0 300f |    2.044       0       5       0       5     13     13      0   2568      91       1  13    0300f a70f      8.130 "
test,1583575889776985856,55," | 55  |   2667       5   2646       0 |   5    0      2556        90 |   3  13    0    0 300f |    4.211       0       5       0       5     13     13      0   2531     115       4  13    0300f a70f     12.540 "
test,1583575889772901120,56," | 56  |   2667       5   2649       0 |   5    1      2603        46 |   1  13   52    0 300f |    2.014       0       5       0       5     13     13      0   2582      67       1  13    0300f a70f      8.940 "
test,1583575889775495936,57," | 57  |   2667       5   2604       0 |   4    0      2538        66 |   2  52    0    0 1e0f |    2.075       0       5       0       5     52     52      0   2385     219       1  52    01e0f a70f      9.570 "
test,1583575889776416000,58," | 58  |   2667       5   2658       0 |   5    0      2627        31 |   2  13    0    0 300f |    3.479       0       5       0       5     13     13      0   2515     143       3  13    0300f a70f     11.670 "
test,1583575889772696064,5," |  5  |   2667       5   2665       0 |   5    0      2438       227 |   1  13    0    0 300f |    2.014       0       5       0       5     13     13      0   2392     273       1  13    0300f a70f      8.940 "
test,1583575889775311872,60," | 60  |   2667       5   2658       0 |   5    0      2489       169 |   2  13    0    0 300f |    2.746       0       5       0       5     13     13      0   2446     212       2  13    0300f a70f      8.790 "
test,1583575889778886912,61," | 61  |   2667       5   2657       0 |   5    0      2543       114 |   2  13    0    0 300f |    4.211       0       5       0       5     13     13      0   2463     194       4  13    0300f a70f     11.100 "
test,1583575889773867008,7," |  7  |   2667       5   2664       0 |   5    0      2623        41 |   1  13    0    0 300f |    1.983       0       5       0       5     13     13      0   2609      55       1  13    0300f a70f      8.940 "
test,1583575889769678080,9," |  9  |   2667       5   2663       0 |   5    0      2558       105 |   1  13    0    0 300f |    2.746       0       5       0       5     13     13      0   2545     118       2  13    0300f a70f      8.970 "
