test,1583575733777543168,10," | 10  |   2043       5   2015       0 |   1    5      1989        26 |   2   5   16    0 9b0f |    2.807       0       5       0       5      5      5      0   1960      55       2   5    09b0f a70f     10.470 "
test,1583575733768152832,12," | 12  |   2043       5   2041       0 |   5    0      2026        15 |   1   5    0    0 9b0f |    2.044       0       5       0       5      5      5      0   1995      46       1   5    09b0f a70f      8.220 "
test,1583575733771065856,13," | 13  |   2043       5   2039       0 |   5    0      2022        17 |   1   5    0    0 9b0f |    2.075       0       5       0       5      5      5      0   2000      39       1   5    09b0f a70f      9.720 "
test,1583575733771222016,15," | 15  |   2043       4   2041       0 |   3    2      1969        72 |   6   5   24    0 9b0f |    2.044       0       5       0       5      5      5      0   1888     153       1   5    09b0f a70f      9.000 "
test,1583575733769979904,16," | 16  |   2043       5   2039       0 |   4    0      1967        72 |   2  16    0    1 9d0f |    1.739       0       4       0       4     16     16      0   1916     123       2  16    19d0f a70f      6.480 "
test,1583575733772658944,17," | 17  |   2043       5   2038       1 |   4    8      2016        23 |   4  16   24    0 9d0f |    3.479       0       5       0       5     16     16      0   1953      86       3  16    09d0f a70f      9.630 "
test,1583575733774616064,18," | 18  |   2043       5   2038       0 |   5    1      1921       117 |   1  24   44    0 1b0f |    1.983       0       5       0       5     24     24      0   1832     206       1  24    01b0f a70f     10.020 "
test,1583575733771516928,19," | 19  |   2043       5   2037       2 |   5    0      2013        26 |   3  16    0    0 9d0f |    2.746       0       5       0       5     16     16      0   1953      86       2  16    09d0f a70f      8.940 "
test,1583575733785672960,1," |  1  |   2043       4   2040       0 |   5    0      1988        52 |   2   5    0    0 9b0f |    3.448       0       5       0       5      5      5      0   1972      68       2   5    09b0f a70f     10.410 "
test,1583575733791420928,22," | 22  |   2043       5   2037       0 |   5    3      2022        15 |   1  24   16    0 1b0f |    2.014       0       4       0       4     24     24      0   1925     112       1  24    01b0f a70f     30.360 "
test,1583575733769072896,23," | 23  |   2043       5   1981       0 |   5    0      1970        11 |   1  16    0    0 9d0f |    2.014       0       5       0       5     16     16      0   1932      49       1  16    09d0f a70f      8.220 "
test,1583575733795383040,24," | 24  |   2043       5   2039       0 |   4    4      2025        14 |   5  24   16    1 1b0f |    8.117       0       1       0       1     24     24      0   1979      60      11  24    11b0f a70f     30.300 "
test,1583575733778044928,26," | 26  |   2043       5   2039       0 |   4    9      2031         8 |   4  16   24    0 9d0f |    3.509       0       5       0       5     16     16      0   1994      45       3  16    09d0f a70f     11.880 "
test,1583575733771884800,27," | 27  |   2043       5   2041       0 |   5    0      1984        57 |   2  16    0    0 9d0f |    2.777       0       5       0       5     16     16      0   1889     152       2  16    09d0f a70f      8.970 "
test,1583575733776758784,28," | 28  |   2043       4   2039       0 |   5    4      1880       159 |   1  24   16    0 1b0f |    2.014       0       5       0       5     24     24      0   1818     221       1  24    01b0f a70f     11.640 "
test,1583575733794836992,29," | 29  |   2043       5   2037       4 |   4    0      1811       230 |   3  16    0    0 9d0f |    0           0       0       0       8      0      0      0   1706     335       0  16    09d0f a70f     30.360 "
test,1583575733776446208,30," | 30  |   2043       5   2039       0 |   5    0      2010        29 |   2  24    0    0 1b0f |    4.821       0       5       0       5     24     24      0   1946      93       5  24    01b0f a70f     10.980 "
test,1583575733775724800,35," | 35  |   2043       5   2039       0 |   5    0      1949        90 |   2  24    0    0 1b0f |    5.523       0       5       0       5     24     24      0   1909     130       6  24    01b0f a70f     11.670 "
test,1583575733781913088,40," | 40  |   2043       5   2003      32 |   5    0      1887       148 |   4  44    0    0 820f |    3.448       0       5       0       5     44     44      0   1839     196       3  44    0820f a70f      9.540 "
test,1583575733774857984,41," | 41  |   2043       5   1997      32 |   4    3      2010        19 |   6  44   24    0 820f |    2.746       0       5       0       5     44     44      0   1957      72       2  44    0820f a70f     10.410 "
test,1583575733780421888,42," | 42  |   2043       5   2004      35 |   5    0      1988        51 |   4  44    0    0 820f |    2.746       0       5       0       5     44     44      0   1933     106       2  44    0820f a70f      9.000 "
test,1583575733780989952,44," | 44  |   2043       5   2009      30 |   4    0      1988        51 |   5  44    0    1 820f |    1.739       0       4       0       4     44     44      0   1938     101       2  44    1820f a70f      6.510 "
test,1583575733773728000,45," | 45  |   2043       5   2015      24 |   5    0      1969        70 |   5  44    0    0 820f |    2.014       0       5       0       5     44     44      0   1928     111       1  44    0820f a70f      9.510 "
test,1583575733776078080,46," | 46  |   2043       5   2001      31 |   4    0      1937        95 |   4  44    0    0 820f |    3.479       0       5       0       5     44     44      0   1897     135       3  44    0820f a70f      9.660 "
test,1583575733778626048,47," | 47  |   2043       5   2007      32 |   5    0      1969        70 |   4  44    0    0 820f |    3.448       0       5       0       5     44     44      0   1917     122       3  44    0820f a70f      9.660 "
test,1583575733773515008,48," | 48  |   2043       5   1943      29 |   5    0      1919        53 |   4  44    0    0 820f |    2.746       0       5       0       5     44     44      0   1875      97       2  44    0820f a70f      8.790 "
test,1583575733777118976,49," | 49  |   2043       5   2033       0 |   5    0      1999        34 |   4  16    0    0 9d0f |    4.974       0       5       0       5     16     16      0   1980      53       5  16    09d0f a70f     11.130 "
test,1583575733774155008,51," | 51  |   2043       5   2034       0 |   5    0      2020        14 |   4  16    0    0 9d0f |    4.211       0       5       0       5     16     16      0   2015      19       4  16    09d0f a70f     11.700 "
test,1583575733772051200,52," | 52  |   2043       3   2017      18 |   5    0      1931       104 |   1  16    0    0 9d0f |    2.014       0       5       0       5     16     16      0   1892     143       1  16    09d0f a70f      8.940 "
test,1583575733778899968,53," | 53  |   2043       5   2017       0 |   5    0      1917       100 |   5  16    0    0 9d0f |    5.645       0       5       0       5     16     16      0   1894     123       6  16    09d0f a70f     11.820 "
test,1583575733772924928,54," | 54  |   2043       5   2035       0 |   1    2      2006        29 |   5   5   16    0 9b0f |    2.807       0       5       0       5      5      5      0   1968      67       2   5    09b0f a70f      9.630 "
test,1583575733782716928,55," | 55  |   2043       5   2022       0 |   5    0      1955        67 |   4  16    0    0 9d0f |    4.974       0       5       0       5     16     16      0   1939      83       5  16    09d0f a70f     11.010 "
test,1583575733775435008,56," | 56  |   2043       5   2025       0 |   5    0      1995        30 |   3  16    0    0 9d0f |    3.479       0       5       0       5     16     16      0   1979      46       3  16    09d0f a70f     11.820 "
test,1583575733774394880,57," | 57  |   2043       5   1980       0 |   5    0      1930        50 |   2  16    0    0 9d0f |    2.746       0       5       0       5     16     16      0   1814     166       2  16    09d0f a70f     11.070 "
test,1583575733772424960,58," | 58  |   2043       5   2034       0 |   5    0      2007        27 |   3  16    0    0 9d0f |    4.241       0       5       0       5     16     16      0   1925     109       4  16    09d0f a70f     10.440 "
test,1583575733769691904,5," |  5  |   2043       5   2041       0 |   4    0      1864       177 |   4   5    0    1 9b0f |    1.739       0       4       0       4      5      5      0   1829     212       2   5    19b0f a70f      6.480 "
test,1583575733775073024,60," | 60  |   2043       5   2034       0 |   5    0      1901       133 |   3  16    0    0 9d0f |    3.509       0       5       0       5     16     16      0   1871     163       3  16    09d0f a70f      9.720 "
test,1583575733773304064,61," | 61  |   2043       5   2033       0 |   5    0      1945        88 |   3  16    0    0 9d0f |    4.211       0       5       0       5     16     16      0   1890     143       4  16    09d0f a70f     11.010 "
test,1583575733770224128,7," |  7  |   2043       5   2040       0 |   5    0      2008        32 |   2   5    0    0 9b0f |    2.746       0       5       0       5      5      5      0   1998      42       2   5    09b0f a70f      8.970 "
test,1583575733770803968,9," |  9  |   2043       5   2039       0 |   5    0      1964        75 |   2   5    0    0 9b0f |    2.777       0       5       0       5      5      5      0   1954      85       2   5    09b0f a70f      9.690 "
