test,1583575951526548992,10," | 10  |   2914       5   2886       0 |   5    0      2839        47 |   2   5    0    0  c0f |    2.746       0       5       0       5      5      5      0   2798      88       2   5    0 c0f a70f      8.970 "
test,1583575951522855168,12," | 12  |   2914       5   2912       0 |   5    0      2888        24 |   1   5    0    0  c0f |    1.983       0       5       0       5      5      5      0   2840      72       1   5    0 c0f a70f      8.220 "
test,1583575951523037952,13," | 13  |   2914       5   2910       0 |   5    0      2890        20 |   1   5    0    0  c0f |    1.983       0       5       0       5      5      5      0   2856      54       1   5    0 c0f a70f      8.220 "
test,1583575951524655104,15," | 15  |   2914       5   2912       0 |   5    0      2804       108 |   1   5    0    0  c0f |    2.716       0       5       0       5      5      5      0   2688     224       2   5    0 c0f a70f      8.850 "
test,1583575951530318080,16," | 16  |   2914       5   2910       0 |   4    0      2810       100 |   5  16    0    1 1b0f |    1.770       0       4       0       4     16     16      0   2739     171       2  16    11b0f a70f      6.510 "
test,1583575951525229824,17," | 17  |   2914       5   2905       5 |   5    1      2878        32 |   1  22   16    0 e70f |    2.044       0       5       0       5     22     22      0   2790     120       1  22    0e70f a70f      8.250 "
test,1583575951527472128,18," | 18  |   2914       5   2909       0 |   5    3      2749       160 |   1  22   42    0 e70f |    2.075       0       5       0       5     22     22      0   2627     282       1  22    0e70f a70f     10.350 "
test,1583575951531429888,19," | 19  |   2914       4   2901       9 |   5    5      2863        47 |   1  22   16    0 e70f |    2.044       0       5       0       5     22     22      0   2774     136       1  22    0e70f a70f      8.820 "
test,1583575951524461056,1," |  1  |   2914       4   2911       0 |   5    0      2843        68 |   2   5    0    0  c0f |    3.417       0       5       0       5      5      5      0   2822      89       2   5    0 c0f a70f      9.540 "
test,1583575951531572224,22," | 22  |   2914       5   2908       0 |   4    4      2884        24 |   5  22   16    1 e70f |    1.739       0       4       0       4     22     22      0   2750     158       2  22    1e70f a70f      9.360 "
test,1583575951525597952,23," | 23  |   2914       5   2852       0 |   5    0      2838        14 |   4  16    0    0 1b0f |    2.014       0       5       0       5     16     16      0   2781      71       1  16    01b0f a70f      8.280 "
test,1583575951526406912,24," | 24  |   2914       5   2908       2 |   5    0      2885        25 |   1  22    0    0 e70f |    2.014       0       5       0       5     22     22      0   2817      93       1  22    0e70f a70f      9.690 "
test,1583575951527823872,26," | 26  |   2914       5   2908       2 |   5   10      2899        11 |   1  22   16    0 e70f |    2.014       0       5       0       5     22     22      0   2846      64       1  22    0e70f a70f      8.970 "
test,1583575951546608896,27," | 27  |   2914       5   2912       0 |   5    4      2830        82 |   3  22   16    0 e70f |    3.479       0       4       0       4     22     22      0   2706     206       3  22    0e70f a70f     30.360 "
test,1583575951548434944,28," | 28  |   2914       2   2907       3 |   5    0      2685       225 |   1  35    0    0 490f |    2.014       0       3       0       3     35     35      0   2582     328       1  35    0490f a70f     30.390 "
test,1583575951530103808,29," | 29  |   2914       4   2907       5 |   5    0      2591       321 |   2  22    0    0 e70f |    2.777       0       5       0       5     22     22      0   2451     461       2  22    0e70f a70f      9.690 "
test,1583575951523474944,30," | 30  |   2914       4   2910       0 |   5    0      2870        40 |   1  35    0    0 490f |    2.044       0       5       0       5     35     35      0   2776     134       1  35    0490f a70f      8.190 "
test,1583575951524848896,35," | 35  |   2914       4   2910       0 |   4    0      2777       133 |   2  35    0    1 490f |    1.739       0       4       0       4     35     35      0   2718     192       2  35    1490f a70f      6.510 "
test,1583575951528819968,40," | 40  |   2914       5   2858      48 |   5    0      2715       191 |   3  42    0    0 440f |    2.746       0       5       0       5     42     42      0   2643     263       2  42    0440f a70f      8.940 "
test,1583575951523969792,41," | 41  |   2914       5   2853      47 |   5    0      2872        28 |   2  42    0    0 440f |    2.044       0       5       0       5     42     42      0   2795     105       1  42    0440f a70f      8.250 "
test,1583575951536643072,42," | 42  |   2914       5   2860      50 |   5    0      2842        68 |   3  42    0    1 440f |    1.770       0       4       0       4     42     42      0   2768     142       2  42    1440f a70f      6.510 "
test,1583575951529755136,44," | 44  |   2914       5   2865      45 |   5    0      2839        71 |   1  42    0    0 440f |    2.075       0       5       0       5     42     42      0   2779     131       1  42    0440f a70f      8.220 "
test,1583575951524998912,45," | 45  |   2914       5   2878      32 |   5    0      2813        97 |   1  42    0    0 440f |    2.044       0       5       0       5     42     42      0   2758     152       1  42    0440f a70f      8.250 "
test,1583575951530839808,46," | 46  |   2914       5   2857      46 |   5    0      2776       127 |   1  42    0    0 440f |    2.075       0       5       0       5     42     42      0   2719     184       1  42    0440f a70f      8.280 "
test,1583575951527038976,47," | 47  |   2914       5   2865      45 |   5    0      2807       103 |   1  42    0    0 440f |    2.044       0       5       0       5     42     42      0   2744     166       1  42    0440f a70f      8.130 "
test,1583575951526781184,48," | 48  |   2914       4   2800      43 |   5    0      2772        71 |   3  42    0    0 440f |    2.044       0       5       0       5     42     42      0   2711     132       1  42    0440f a70f      8.280 "
test,1583575951524260096,49," | 49  |   2914       5   2904       0 |   4    3      2853        51 |   1  53    5    0 570f |    1.983       0       5       0       5     53     53      0   2824      80       1  53    0570f a70f      8.190 "
test,1583575951523700992,51," | 51  |   2914       5   2905       0 |   5    0      2884        21 |   3   5    0    0  c0f |    2.777       0       5       0       5      5      5      0   2874      31       2   5    0 c0f a70f      8.880 "
test,1583575951525858048,52," | 52  |   2914       5   2883      23 |   5    0      2765       141 |   4  16    0    0 1b0f |    2.044       0       5       0       5     16     16      0   2709     197       1  16    01b0f a70f      9.000 "
test,1583575951523282176,53," | 53  |   2914       5   2888       0 |   3    0      2745       143 |   2  53    0    1 570f |    1.739       0       4       0       4     53     53      0   2709     179       2  53    1570f a70f      6.510 "
test,1583575951527264000,54," | 54  |   2914       5   2906       0 |   5    0      2858        48 |   2   5    0    0  c0f |    2.716       0       5       0       5      5      5      0   2812      94       2   5    0 c0f a70f      9.510 "
test,1583575951528570880,55," | 55  |   2914       5   2893       0 |   4    3      2793       100 |   1  53    5    0 570f |    1.983       0       5       0       5     53     53      0   2766     127       1  53    0570f a70f      8.040 "
test,1583575951525425920,56," | 56  |   2914       5   2896       0 |   5    0      2849        47 |   4   5    0    0  c0f |    3.448       0       5       0       5      5      5      0   2823      73       3   5    0 c0f a70f      9.630 "
test,1583575951546017792,57," | 57  |   2914       5   2851       0 |   5    2      2781        70 |   1  22   16    0 e70f |    2.014       0       3       0       3     22     22      0   2615     236       1  22    0e70f a70f     30.270 "
test,1583575951529306880,58," | 58  |   2914       5   2905       0 |   4    4      2871        34 |   7   5   22    0  c0f |    3.479       0       5       0       5      5      5      0   2752     153       3   5    0 c0f a70f      9.660 "
test,1583575951527651072,5," |  5  |   2914       5   2912       0 |   4    0      2669       243 |   2   5    0    1  c0f |    1.770       0       4       0       4      5      5      0   2616     296       2   5    1 c0f a70f      6.510 "
test,1583575951546211840,60," | 60  |   2914       5   2905       0 |   5    5      2713       192 |   2  22    5    0 e70f |    2.777       0       3       0       3     22     22      0   2666     239       2  22    0e70f a70f     30.390 "
test,1583575951530994944,61," | 61  |   2914       5   2904       0 |   5    0      2779       125 |   5   5    0    0  c0f |    3.509       0       5       0       5      5      5      0   2695     209       3   5    0 c0f a70f     10.350 "
test,1583575951526070016,7," |  7  |   2914       5   2911       0 |   5    0      2864        47 |   2   5    0    0  c0f |    2.777       0       5       0       5      5      5      0   2848      63       2   5    0 c0f a70f      8.850 "
test,1583575951534337024,9," |  9  |   2914       5   2910       0 |   5    0      2800       110 |   2   5    0    0  c0f |    2.746       0       5       0       5      5      5      0   2786     124       2   5    0 c0f a70f      8.850 "
