test,1583575832770284800,10," | 10  |   2439       5   2411       0 |   5    0      2374        37 |   1   7    0    0 330f |    2.014       0       5       0       5      7      7      0   2341      70       1   7    0330f a70f      8.160 "
test,1583575832772466944,12," | 12  |   2439       5   2437       0 |   5    0      2417        20 |   1   7    0    0 330f |    2.044       0       5       0       5      7      7      0   2379      58       1   7    0330f a70f      8.280 "
test,1583575832774857984,13," | 13  |   2439       5   2435       0 |   5    0      2416        19 |   1   7    0    0 330f |    2.044       0       5       0       5      7      7      0   2386      49       1   7    0330f a70f      8.280 "
test,1583575832775185152,15," | 15  |   2439       5   2437       0 |   4    1      2351        86 |   2   7   16    0 330f |    2.716       0       5       0       5      7      7      0   2254     183       2   7    0330f a70f      8.970 "
test,1583575832771072000,16," | 16  |   2439       5   2435       0 |   4    0      2352        83 |   2  16    0    1  40f |    1.770       0       4       0       4     16     16      0   2291     144       2  16    1 40f a70f      6.510 "
test,1583575832776925184,17," | 17  |   2439       5   2432       3 |   5    0      2405        30 |   1  16    0    0  40f |    2.044       0       5       0       5     16     16      0   2333     102       1  16    0 40f a70f      8.970 "
test,1583575832777873920,18," | 18  |   2439       5   2434       0 |   5    0      2295       139 |   2  16    0    0  40f |    2.777       0       5       0       5     16     16      0   2187     247       2  16    0 40f a70f      9.690 "
test,1583575832778294016,19," | 19  |   2439       5   2430       5 |   5    0      2400        35 |   2  16    0    0  40f |    2.716       0       5       0       5     16     16      0   2326     109       2  16    0 40f a70f     10.380 "
test,1583575832771276032,1," |  1  |   2439       4   2436       0 |   5    0      2375        61 |   1   7    0    0 330f |    2.655       0       5       0       5      7      7      0   2356      80       1   7    0330f a70f      8.910 "
test,1583575832774466048,22," | 22  |   2439       5   2433       0 |   5    0      2414        19 |   2  16    0    0  40f |    2.716       0       5       0       5     16     16      0   2297     136       2  16    0 40f a70f     10.350 "
test,1583575832774682880,23," | 23  |   2439       5   2377       0 |   5    0      2365        12 |   1  16    0    0  40f |    2.014       0       5       0       5     16     16      0   2321      56       1  16    0 40f a70f     11.070 "
test,1583575832774068224,24," | 24  |   2439       5   2433       2 |   5    0      2413        22 |   2  16    0    0  40f |    2.746       0       5       0       5     16     16      0   2355      80       2  16    0 40f a70f     10.410 "
test,1583575832772314112,26," | 26  |   2439       5   2433       2 |   5    0      2426         9 |   1  16    0    0  40f |    2.014       0       5       0       5     16     16      0   2380      55       1  16    0 40f a70f      8.220 "
test,1583575832773296128,27," | 27  |   2439       5   2437       0 |   5    0      2367        70 |   2  16    0    0  40f |    2.746       0       5       0       5     16     16      0   2262     175       2  16    0 40f a70f      8.970 "
test,1583575832794116096,28," | 28  |   2439       4   2433       2 |   3    0      2246       189 |   4  28    0    1  d0f |    1.770       0       3       0       3     28     28      0   2165     270       2  28    1 d0f a70f     30.300 "
test,1583575832794414080,29," | 29  |   2439       5   2433       4 |   3    0      2171       266 |   5  16    0    0  40f |    7.873       0       3       0       3     16     16      0   2052     385       9  16    0 40f a70f     30.360 "
test,1583575832770824960,30," | 30  |   2439       5   2435       0 |   5    0      2402        33 |   1  28    0    0  d0f |    1.983       0       5       0       5     28     28      0   2324     111       1  28    0 d0f a70f      8.220 "
test,1583575832773499904,35," | 35  |   2439       5   2435       0 |   5    0      2330       105 |   2  28    0    0  d0f |    2.716       0       5       0       5     28     28      0   2283     152       2  28    0 d0f a70f      8.820 "
test,1583575832775916032,40," | 40  |   2439       2   2399      32 |   5    0      2264       167 |   2  16    0    0  40f |    2.746       0       5       0       5     16     16      0   2205     226       2  16    0 40f a70f     10.320 "
test,1583575832776104960,41," | 41  |   2439       5   2393      32 |   5    0      2401        24 |   1  16    0    0  40f |    2.014       0       5       0       5     16     16      0   2338      87       1  16    0 40f a70f      8.280 "
test,1583575832777628928,42," | 42  |   2439       5   2400      35 |   5    0      2381        54 |   2  16    0    0  40f |    2.716       0       5       0       5     16     16      0   2317     118       2  16    0 40f a70f     10.380 "
test,1583575832778633216,44," | 44  |   2439       5   2405      30 |   5    0      2375        60 |   2  16    0    0  40f |    2.716       0       5       0       5     16     16      0   2322     113       2  16    0 40f a70f      9.660 "
test,1583575832773134080,45," | 45  |   2439       5   2411      24 |   4    0      2353        82 |   1  16    0    0  40f |    2.014       0       5       0       5     16     16      0   2307     128       1  16    0 40f a70f      8.790 "
test,1583575832785550080,46," | 46  |   2439       5   2397      31 |   5    0      2320       108 |   2  16    0    0  40f |    2.716       0       5       0       5     16     16      0   2272     156       2  16    0 40f a70f      8.910 "
test,1583575832773893120,47," | 47  |   2439       4   2403      32 |   5    0      2354        81 |   2  16    0    0  40f |    2.746       0       5       0       5     16     16      0   2295     140       2  16    0 40f a70f      8.970 "
test,1583575832794779904,48," | 48  |   2439       5   2339      29 |   5    0      2308        60 |   2  16    0    0  40f |    2.685       0       4       0       4     16     16      0   2259     109       2  16    0 40f a70f     30.360 "
test,1583575832792492032,49," | 49  |   2439       5   2429       0 |   4    5      2387        42 |   5   7   53    0 330f |    3.479       0       3       0       3      7      7      0   2363      66       3   7    0330f a70f     30.360 "
test,1583575832776713984,51," | 51  |   2439       5   2430       0 |   5    0      2415        15 |   1   7    0    0 330f |    2.044       0       5       0       5      7      7      0   2406      24       1   7    0330f a70f      8.250 "
test,1583575832782013952,52," | 52  |   2439       5   2410      21 |   5    0      2308       123 |   1  16    0    0  40f |    2.014       0       5       0       5     16     16      0   2263     168       1  16    0 40f a70f      8.940 "
test,1583575832791748096,53," | 53  |   2439       5   2413       0 |   0    4      2295       118 |   0  53    7    1 5d0f |    0           0       0       0       8      0      0      0   2266     147       0  53    15d0f a70f     30.240 "
test,1583575832770039040,54," | 54  |   2439       5   2431       0 |   5    0      2391        40 |   1   7    0    0 330f |    2.044       0       5       0       5      7      7      0   2350      81       1   7    0330f a70f      8.130 "
test,1583575832792902912,55," | 55  |   2439       5   2418       0 |   4    5      2338        80 |   5   7   53    0 330f |    3.479       0       3       0       3      7      7      0   2317     101       3   7    0330f a70f     30.240 "
test,1583575832771812864,56," | 56  |   2439       5   2421       0 |   5    0      2378        43 |   2   7    0    0 330f |    2.746       0       5       0       5      7      7      0   2357      64       2   7    0330f a70f      8.940 "
test,1583575832772664064,57," | 57  |   2439       5   2376       0 |   5    0      2314        62 |   2  16    0    0  40f |    2.777       0       5       0       5     16     16      0   2177     199       2  16    0 40f a70f      9.000 "
test,1583575832773716992,58," | 58  |   2439       5   2430       0 |   5    0      2401        29 |   2   7    0    0 330f |    2.746       0       5       0       5      7      7      0   2300     130       2   7    0330f a70f      9.540 "
test,1583575832775557888,5," |  5  |   2439       5   2437       0 |   5    0      2231       206 |   2   7    0    0 330f |    2.777       0       5       0       5      7      7      0   2187     250       2   7    0330f a70f      8.850 "
test,1583575832777102080,60," | 60  |   2439       5   2430       0 |   5    0      2277       153 |   2   7    0    0 330f |    2.746       0       5       0       5      7      7      0   2235     195       2   7    0330f a70f      8.910 "
test,1583575832770577920,61," | 61  |   2439       5   2429       0 |   5    0      2325       104 |   2   7    0    0 330f |    2.777       0       5       0       5      7      7      0   2257     172       2   7    0330f a70f      8.940 "
test,1583575832772013824,7," |  7  |   2439       5   2436       0 |   4    0      2398        38 |   2   7    0    1 330f |    1.739       0       4       0       4      7      7      0   2385      51       2   7    1330f a70f      6.510 "
test,1583575832771588096,9," |  9  |   2439       5   2435       0 |   5    0      2340        95 |   1   7    0    0 330f |    2.044       0       5       0       5      7      7      0   2328     107       1   7    0330f a70f      8.280 "
