test,1583575768770257920,10," | 10  |   2183       5   2155       0 |   5    0      2124        31 |   1   1    0    0 590f |    1.281       0       5       0       5      1      1      0   2094      61       1   1    0590f a70f      7.530 "
test,1583575768769444864,12," | 12  |   2183       5   2181       0 |   5    0      2161        20 |   1   1    0    0 590f |    1.373       0       5       0       5      1      1      0   2127      54       1   1    0590f a70f      7.470 "
test,1583575768768958976,13," | 13  |   2183       5   2179       0 |   5    0      2162        17 |   1   1    0    0 590f |    1.373       0       5       0       5      1      1      0   2135      44       1   1    0590f a70f      7.620 "
test,1583575768765537024,15," | 15  |   2183       5   2181       0 |   5    0      2104        77 |   2   1    0    0 590f |    1.342       0       5       0       5      1      1      0   2016     165       1   1    0590f a70f      8.310 "
test,1583575768778830080,16," | 16  |   2183       5   2179       0 |   5    0      2102        77 |   2  27    0    0 d10f |    2.807       0       5       0       5     27     27      0   2047     132       2  27    0d10f a70f      9.030 "
test,1583575768774651904,17," | 17  |   2183       5   2178       1 |   5    0      2153        26 |   1  27    0    0 d10f |    2.105       0       5       0       5     27     27      0   2088      91       1  27    0d10f a70f      8.190 "
test,1583575768791055872,18," | 18  |   2183       5   2178       0 |   5    7      2054       124 |   1  47   27    0 300f |    2.075       0       1       0       1     47     47      0   1965     213       1  47    0300f a70f     30.330 "
test,1583575768771617792,19," | 19  |   2183       5   2177       2 |   5    0      2151        28 |   1  27    0    0 d10f |    2.075       0       5       0       5     27     27      0   2086      93       1  27    0d10f a70f      8.970 "
test,1583575768770786048,1," |  1  |   2183       4   2180       0 |   4    0      2125        55 |   4   1    0    1 590f |    1.739       0       4       0       4      1      1      0   2107      73       2   1    1590f a70f      6.480 "
test,1583575768773356800,22," | 22  |   2183       5   2177       0 |   5    0      2161        16 |   3  27    0    0 d10f |    3.509       0       5       0       5     27     27      0   2061     116       3  27    0d10f a70f      9.720 "
test,1583575768775823104,23," | 23  |   2183       5   2121       0 |   5    0      2109        12 |   1  27    0    0 d10f |    2.105       0       5       0       5     27     27      0   2069      52       1  27    0d10f a70f      8.160 "
test,1583575768772731904,24," | 24  |   2183       5   2179       0 |   5    0      2163        16 |   3  27    0    0 d10f |    3.540       0       5       0       5     27     27      0   2117      62       3  27    0d10f a70f      9.750 "
test,1583575768773768960,26," | 26  |   2183       5   2179       0 |   5    0      2170         9 |   2  27    0    0 d10f |    2.777       0       5       0       5     27     27      0   2132      47       2  27    0d10f a70f      9.030 "
test,1583575768775985920,27," | 27  |   2183       5   2181       0 |   4    0      2119        62 |   4  27    0    1 d10f |    1.739       0       4       0       4     27     27      0   2022     159       2  27    1d10f a70f      7.920 "
test,1583575768793006848,28," | 28  |   2183       5   2179       0 |   3    0      2011       168 |  10  27    0    0 d10f |    5.767       0       3       0       3     27     27      0   1947     232       6  27    0d10f a70f     30.270 "
test,1583575768796348928,29," | 29  |   2183       5   2177       4 |   5    0      1940       241 |   1  27    0    0 d10f |    2.105       0       4       0       4     27     27      0   1829     352       1  27    0d10f a70f     30.360 "
test,1583575768789239040,30," | 30  |   2183       5   2179       0 |   1    7      2150        29 |   4   1   27    0 590f |    0           0       0       0       8      0      0      0   2083      96       0   1    0590f a70f     30.360 "
test,1583575768790859008,35," | 35  |   2183       5   2179       0 |   4    0      2084        95 |   7  27    0    0 d10f |    5.737       0       4       0       4     27     27      0   2043     136       6  27    0d10f a70f     30.240 "
test,1583575768798355968,40," | 40  |   2183       5   2143      32 |   5    2      2020       155 |   1  47   27    0 300f |    2.014       0       1       0       1     47     47      0   1971     204       1  47    0300f a70f     30.390 "
test,1583575768791440896,41," | 41  |   2183       5   2137      32 |   5    5      2147        22 |   1  47   27    0 300f |    2.044       0       1       0       1     47     47      0   2093      76       1  47    0300f a70f     30.330 "
test,1583575768792207872,42," | 42  |   2183       5   2144      35 |   5    6      2126        53 |   1  47   27    0 300f |    2.075       0       1       0       1     47     47      0   2070     109       1  47    0300f a70f     30.360 "
test,1583575768792515072,44," | 44  |   2183       5   2149      30 |   5    7      2126        53 |   1  47   27    0 300f |    2.044       0       1       0       1     47     47      0   2075     104       1  47    0300f a70f     30.390 "
test,1583575768794252032,45," | 45  |   2183       5   2155      24 |   5    3      2105        74 |   1  47   27    0 300f |    2.044       0       1       0       1     47     47      0   2064     115       1  47    0300f a70f     30.330 "
test,1583575768793394944,46," | 46  |   2183       5   2141      31 |   5    0      2072       100 |   1  47    0    0 300f |    2.014       0       1       0       1     47     47      0   2030     142       1  47    0300f a70f     30.390 "
test,1583575768793612032,47," | 47  |   2183       5   2147      32 |   4    0      2107        72 |   8  47    0    1 300f |    1.739       0       1       0       1     47     47      0   2054     125       2  47    1300f a70f     30.300 "
test,1583575768794733056,48," | 48  |   2183       5   2083      29 |   5    5      2056        56 |   1  47   27    0 300f |    2.044       0       1       0       1     47     47      0   2011     101       1  47    0300f a70f     30.300 "
test,1583575768774096896,49," | 49  |   2183       5   2173       0 |   5    0      2134        39 |   2  49    0    1 840f |    1.739       0       4       0       4     49     49      0   2114      59       2  49    1840f a70f      6.480 "
test,1583575768768774912,51," | 51  |   2183       5   2174       0 |   5    0      2160        14 |   1   1    0    0 590f |    1.373       0       5       0       5      1      1      0   2154      20       1   1    0590f a70f      7.530 "
test,1583575768772131840,52," | 52  |   2183       5   2156      19 |   5    0      2062       113 |   2  27    0    0 d10f |    2.777       0       5       0       5     27     27      0   2020     155       2  27    0d10f a70f      8.970 "
test,1583575768771799040,53," | 53  |   2183       5   2157       0 |   5    0      2052       105 |   1  49    0    0 840f |    1.983       0       5       0       5     49     49      0   2027     130       1  49    0840f a70f      8.160 "
test,1583575768793817088,54," | 54  |   2183       5   2175       0 |   5    0      2142        33 |   1   1    0    0 590f |    1.342       0       4       0       4      1      1      0   2103      72       1   1    0590f a70f     30.210 "
test,1583575768770055168,55," | 55  |   2183       5   2162       0 |   5    0      2090        72 |   1  49    0    0 840f |    1.983       0       5       0       5     49     49      0   2073      89       1  49    0840f a70f      8.190 "
test,1583575768790654976,56," | 56  |   2183       5   2165       0 |   1    8      2128        37 |   5  56    1    1 d40f |    1.739       0       1       0       1     56     56      0   2112      53       2  56    1d40f a70f     30.300 "
test,1583575768795057152,57," | 57  |   2183       5   2120       0 |   1    6      2065        55 |   4  56    1    0 d40f |    1.983       0       1       0       1     56     56      0   1945     175       1  56    0d40f a70f     30.360 "
test,1583575768776457984,58," | 58  |   2183       5   2174       0 |   3    2      2147        27 |   1  49    1    0 840f |    2.746       0       5       0       5     49     49      0   2060     114       2  49    0840f a70f      8.940 "
test,1583575768771337984,5," |  5  |   2183       5   2181       0 |   5    0      1994       187 |   2   1    0    0 590f |    2.075       0       5       0       5      1      1      0   1954     227       2   1    0590f a70f      8.280 "
test,1583575768770468864,60," | 60  |   2183       5   2174       0 |   5    1      2029       145 |   2   1   56    0 590f |    2.075       0       5       0       5      1      1      0   1998     176       2   1    0590f a70f      8.160 "
test,1583575768794528000,61," | 61  |   2183       5   2173       0 |   2    0      2080        93 |  10   1    0    0 590f |    7.232       0       1       0       1      1      1      0   2021     152       9   1    0590f a70f     30.330 "
test,1583575768769208064,7," |  7  |   2183       5   2180       0 |   5    0      2145        35 |   1   1    0    0 590f |    1.373       0       5       0       5      1      1      0   2132      48       1   1    0590f a70f      7.590 "
test,1583575768769861888,9," |  9  |   2183       5   2179       0 |   5    0      2098        81 |   1   1    0    0 590f |    1.373       0       5       0       5      1      1      0   2086      93       1   1    0590f a70f      7.470 "
