test,1583575899032777984,10," | 10  |   2704       5   2676       0 |   5    0      2631        45 |   4  54    0    0 290f |    2.716       0       5       0       5     54     54      0   2593      83       2  54    0290f a70f     12.570 "
test,1583575899035069952,12," | 12  |   2704       5   2702       0 |   5    0      2681        21 |   2  54    0    0 290f |    2.014       0       5       0       5     54     54      0   2641      61       1  54    0290f a70f     11.880 "
test,1583575899021275904,13," | 13  |   2704       5   2700       0 |   5    9      2680        20 |   2   1   54    0 a10f |    1.373       0       5       0       5      1      1      0   2648      52       1   1    0a10f a70f      7.470 "
test,1583575899030128896,15," | 15  |   2704       5   2702       0 |   5    0      2605        97 |   3  54    0    0 290f |    2.746       0       5       0       5     54     54      0   2498     204       2  54    0290f a70f     12.600 "
test,1583575899031620096,16," | 16  |   2704       5   2700       0 |   5    0      2609        91 |   2  24    0    0 980f |    2.777       0       5       0       5     24     24      0   2542     158       2  24    0980f a70f      8.970 "
test,1583575899023484928,17," | 17  |   2704       5   2695       5 |   5    0      2668        32 |   1  24    0    0 980f |    2.044       0       5       0       5     24     24      0   2585     115       1  24    0980f a70f      9.000 "
test,1583575899024122112,18," | 18  |   2704       5   2699       0 |   5    0      2548       151 |   1  24    0    0 980f |    2.014       0       5       0       5     24     24      0   2429     270       1  24    0980f a70f      8.220 "
test,1583575899025067008,19," | 19  |   2704       5   2691       9 |   5    0      2658        42 |   1  24    0    0 980f |    2.044       0       5       0       5     24     24      0   2571     129       1  24    0980f a70f      9.720 "
test,1583575899020370944,1," |  1  |   2704       4   2701       0 |   4    9      2637        64 |   5   1   54    1 a10f |    1.739       0       4       0       4      1      1      0   2616      85       2   1    1a10f a70f      6.510 "
test,1583575899022526976,22," | 22  |   2704       5   2698       0 |   5    0      2676        22 |   1  24    0    0 980f |    1.983       0       5       0       5     24     24      0   2547     151       1  24    0980f a70f      8.160 "
test,1583575899026030080,23," | 23  |   2704       5   2642       0 |   5    0      2629        13 |   1  24    0    0 980f |    2.014       0       5       0       5     24     24      0   2578      64       1  24    0980f a70f      8.250 "
test,1583575899020831232,24," | 24  |   2704       5   2698       2 |   4    0      2676        24 |   2  24    0    1 980f |    1.739       0       4       0       4     24     24      0   2610      90       2  24    1980f a70f      6.510 "
test,1583575899028051968,26," | 26  |   2704       4   2698       2 |   5    0      2690        10 |   1  24    0    0 980f |    2.044       0       5       0       5     24     24      0   2638      62       1  24    0980f a70f      9.630 "
test,1583575899045305856,27," | 27  |   2704       5   2702       0 |   5    0      2626        76 |   2  24    0    0 980f |    3.479       0       4       0       4     24     24      0   2512     190       3  24    0980f a70f     30.360 "
test,1583575899031418112,28," | 28  |   2704       5   2697       3 |   5    0      2489       211 |   3  24    0    0 980f |    2.716       0       5       0       5     24     24      0   2395     305       2  24    0980f a70f      9.660 "
test,1583575899034435072,29," | 29  |   2704       5   2698       4 |   1    3      2406       296 |   2  24   54    0 980f |    2.746       0       5       0       5     24     24      0   2273     429       2  24    0980f a70f      8.850 "
test,1583575899027476992,30," | 30  |   2704       5   2700       0 |   5    0      2664        36 |   2  24    0    0 980f |    2.777       0       5       0       5     24     24      0   2573     127       2  24    0980f a70f      9.630 "
test,1583575899023098112,35," | 35  |   2704       5   2700       0 |   5    0      2575       125 |   2  24    0    0 980f |    2.746       0       5       0       5     24     24      0   2519     181       2  24    0980f a70f      8.880 "
test,1583575899033914112,40," | 40  |   2704       5   2664      32 |   4    0      2521       175 |   3  48    0    0 8a0f |    2.044       0       5       0       5     48     48      0   2457     239       1  48    08a0f a70f      8.820 "
test,1583575899024279040,41," | 41  |   2704       5   2658      32 |   5    0      2663        27 |   2  48    0    0 8a0f |    2.044       0       5       0       5     48     48      0   2594      96       1  48    08a0f a70f      8.880 "
test,1583575899023674880,42," | 42  |   2704       5   2665      35 |   5    0      2641        59 |   2  48    0    0 8a0f |    2.014       0       5       0       5     48     48      0   2575     125       1  48    08a0f a70f      8.850 "
test,1583575899022701056,44," | 44  |   2704       5   2670      30 |   5    0      2637        63 |   2  48    0    0 8a0f |    2.044       0       5       0       5     48     48      0   2583     117       1  48    08a0f a70f      8.850 "
test,1583575899026225920,45," | 45  |   2704       5   2676      24 |   4    0      2611        89 |   3  48    0    0 8a0f |    2.014       0       5       0       5     48     48      0   2563     137       1  48    08a0f a70f      8.700 "
test,1583575899026819072,46," | 46  |   2704       5   2662      31 |   5    0      2574       119 |   1  48    0    0 8a0f |    2.044       0       5       0       5     48     48      0   2524     169       1  48    08a0f a70f      8.850 "
test,1583575899030718208,47," | 47  |   2704       5   2668      32 |   5    0      2606        94 |   2  48    0    0 8a0f |    2.044       0       5       0       5     48     48      0   2545     155       1  48    08a0f a70f      8.880 "
test,1583575899029445888,48," | 48  |   2704       5   2604      29 |   4    0      2571        62 |   3  48    0    1 8a0f |    3.814       0       4       0       4     48     48      0   2519     114       5  48    18a0f a70f      8.520 "
test,1583575899023941120,49," | 49  |   2704       5   2694       0 |   5    0      2649        45 |   1  53    0    0 e90f |    1.983       0       5       0       5     53     53      0   2621      73       1  53    0e90f a70f      8.220 "
test,1583575899021668864,51," | 51  |   2704       5   2695       0 |   5    8      2677        18 |   1   1   54    0 a10f |    1.312       0       5       0       5      1      1      0   2668      27       1   1    0a10f a70f      7.530 "
test,1583575899026637056,52," | 52  |   2704       4   2674      22 |   5    0      2563       133 |   1  24    0    0 980f |    2.014       0       5       0       5     24     24      0   2511     185       1  24    0980f a70f     10.410 "
test,1583575899022134016,53," | 53  |   2704       5   2678       0 |   4    0      2547       131 |   2  53    0    1 e90f |    1.770       0       4       0       4     53     53      0   2514     164       2  53    1e90f a70f      6.510 "
test,1583575899031095040,54," | 54  |   2704       5   2696       0 |   4    0      2650        46 |   2  54    0    1 290f |    3.936       0       4       0       4     54     54      0   2605      91       5  54    1290f a70f     11.520 "
test,1583575899022330112,55," | 55  |   2704       5   2683       0 |   5    0      2592        91 |   1  53    0    0 e90f |    2.014       0       5       0       5     53     53      0   2567     116       1  53    0e90f a70f      8.130 "
test,1583575899024815104,56," | 56  |   2704       5   2686       0 |   4    5      2640        46 |   5  54    1    0 290f |    2.746       0       5       0       5     54     54      0   2618      68       2  54    0290f a70f      8.970 "
test,1583575899027284992,57," | 57  |   2704       5   2641       0 |   2    6      2573        68 |   9  54    1    0 290f |    3.509       0       5       0       5     54     54      0   2416     225       3  54    0290f a70f      9.690 "
test,1583575899030941952,58," | 58  |   2704       5   2695       0 |   5    0      2664        31 |   1  54    0    0 290f |    2.075       0       5       0       5     54     54      0   2550     145       1  54    0290f a70f      8.160 "
test,1583575899043703040,5," |  5  |   2704       5   2702       0 |   4    4      2473       229 |   5  54    1    0 290f |    2.746       0       4       0       4     54     54      0   2427     275       2  54    0290f a70f     30.360 "
test,1583575899023308032,60," | 60  |   2704       5   2695       0 |   5    3      2524       171 |   2   1   54    0 a10f |    2.044       0       5       0       5      1      1      0   2480     215       2   1    0a10f a70f      8.250 "
test,1583575899024518912,61," | 61  |   2704       5   2694       0 |   5    0      2579       115 |   1  54    0    0 290f |    2.746       0       5       0       5     54     54      0   2498     196       2  54    0290f a70f      9.570 "
test,1583575899043320064,7," |  7  |   2704       5   2701       0 |   5    0      2659        42 |   4  54    0    0 290f |    9.338       0       3       0       3     54     54      0   2645      56      11  54    0290f a70f     30.360 "
test,1583575899039723008,9," |  9  |   2704       5   2700       0 |   5    0      2593       107 |   3  54    0    0 290f |    2.044       0       5       0       5     54     54      0   2580     120       1  54    0290f a70f     11.700 "
