test,1583575807530605056,10," | 10  |   2338       5   2310       0 |   5    0      2277        33 |   5  27    0    0 320f |   10.070       0       5       0       5     27     27      0   2244      66      12  27    0320f a70f     16.170 "
test,1583575807532876032,12," | 12  |   2338       5   2336       0 |   5    0      2316        20 |   2  27    0    0 320f |    5.706       0       5       0       5     27     27      0   2279      57       6  27    0320f a70f     11.760 "
test,1583575807532506112,13," | 13  |   2338       5   2334       0 |   5    0      2316        18 |   2  27    0    0 320f |    6.469       0       5       0       5     27     27      0   2288      46       7  27    0320f a70f     12.510 "
test,1583575807528145152,15," | 15  |   2338       5   2336       0 |   5    0      2256        80 |   1  27    0    0 320f |    4.943       0       5       0       5     27     27      0   2164     172       5  27    0320f a70f     10.980 "
test,1583575807524750080,16," | 16  |   2338       5   2334       0 |   4    5      2254        80 |   3  27   41    0 320f |    2.777       0       5       0       5     27     27      0   2195     139       2  27    0320f a70f      8.970 "
test,1583575807521126144,17," | 17  |   2338       5   2333       1 |   5    0      2305        29 |   1  27    0    0 320f |    2.777       0       5       0       5     27     27      0   2239      95       2  27    0320f a70f      8.970 "
test,1583575807532276992,18," | 18  |   2338       5   2333       0 |   5    0      2200       133 |   6  27    0    0 320f |    4.211       0       5       0       5     27     27      0   2100     233       4  27    0320f a70f     10.410 "
test,1583575807520860928,19," | 19  |   2338       5   2332       2 |   5    0      2304        30 |   1  27    0    0 320f |    2.044       0       5       0       5     27     27      0   2236      98       1  27    0320f a70f      8.280 "
test,1583575807527945984,1," |  1  |   2338       4   2335       0 |   5    0      2276        59 |   3  27    0    0 320f |   10.040       0       5       0       5     27     27      0   2257      78      11  27    0320f a70f     16.080 "
test,1583575807526963968,22," | 22  |   2338       5   2332       0 |   5    0      2316        16 |   5  27    0    0 320f |    4.211       0       5       0       5     27     27      0   2207     125       4  27    0320f a70f     11.100 "
test,1583575807519716864,23," | 23  |   2338       5   2276       0 |   5    0      2264        12 |   1  27    0    0 320f |    2.044       0       5       0       5     27     27      0   2222      54       1  27    0320f a70f      8.280 "
test,1583575807526196992,24," | 24  |   2338       5   2334       0 |   5    0      2315        19 |   2  27    0    0 320f |    3.509       0       5       0       5     27     27      0   2266      68       3  27    0320f a70f      9.600 "
test,1583575807524946944,26," | 26  |   2338       5   2334       0 |   5    0      2325         9 |   2  27    0    0 320f |    3.509       0       5       0       5     27     27      0   2287      47       3  27    0320f a70f      9.600 "
test,1583575807527395840,27," | 27  |   2338       5   2336       0 |   4    0      2271        65 |   2  27    0    1 320f |    1.739       0       4       0       4     27     27      0   2169     167       2  27    1320f a70f      6.480 "
test,1583575807522091008,28," | 28  |   2338       4   2334       0 |   4    0      2151       183 |   4  35    0    0 310f |    2.044       0       5       0       5     35     35      0   2079     255       1  35    0310f a70f      8.970 "
test,1583575807525163776,29," | 29  |   2338       5   2332       4 |   5    0      2079       257 |   1  27    0    0 320f |    2.044       0       5       0       5     27     27      0   1963     373       1  27    0320f a70f      8.100 "
test,1583575807521552128,30," | 30  |   2338       5   2334       0 |   5    0      2304        30 |   1  35    0    0 310f |    2.044       0       5       0       5     35     35      0   2230     104       1  35    0310f a70f      8.250 "
test,1583575807521724928,35," | 35  |   2338       5   2334       0 |   4    0      2234       100 |   2  35    0    1 310f |    1.739       0       4       0       4     35     35      0   2191     143       2  35    1310f a70f      6.510 "
test,1583575807531174912,40," | 40  |   2338       5   2298      32 |   5    4      2169       161 |   1  41   27    0 480f |    2.044       0       5       0       5     41     41      0   2112     218       1  41    0480f a70f     11.010 "
test,1583575807524492032,41," | 41  |   2338       5   2292      32 |   4    5      2302        22 |   5  41   27    1 480f |    3.814       0       4       0       4     41     41      0   2239      85       5  41    1480f a70f     10.680 "
test,1583575807527152896,42," | 42  |   2338       5   2299      35 |   5    2      2280        54 |   1  41   27    0 480f |    2.014       0       5       0       5     41     41      0   2217     117       1  41    0480f a70f     11.010 "
test,1583575807535442944,44," | 44  |   2338       5   2304      30 |   5    8      2277        57 |   1  41   27    0 480f |    2.044       0       5       0       5     41     41      0   2224     110       1  41    0480f a70f      9.600 "
test,1583575807523740160,45," | 45  |   2338       5   2310      24 |   5    3      2255        79 |   1  41   27    0 480f |    2.014       0       5       0       5     41     41      0   2209     125       1  41    0480f a70f      8.700 "
test,1583575807522331904,46," | 46  |   2338       5   2296      31 |   5    0      2224       103 |   1  41    0    0 480f |    2.044       0       5       0       5     41     41      0   2176     151       1  41    0480f a70f      8.730 "
test,1583575807522713856,47," | 47  |   2338       5   2302      32 |   5    5      2255        79 |   1  41   27    0 480f |    1.983       0       5       0       5     41     41      0   2197     137       1  41    0480f a70f     10.140 "
test,1583575807526488064,48," | 48  |   2338       5   2238      29 |   5    5      2209        58 |   1  41   27    0 480f |    2.044       0       5       0       5     41     41      0   2160     107       1  41    0480f a70f     10.230 "
test,1583575807521915904,49," | 49  |   2338       5   2328       0 |   5    0      2288        40 |   1  58    0    0 1a0f |    2.014       0       5       0       5     58     58      0   2267      61       1  58    01a0f a70f      8.220 "
test,1583575807523188992,51," | 51  |   2338       5   2329       0 |   5    0      2314        15 |   3  27    0    0 320f |    3.479       0       5       0       5     27     27      0   2308      21       3  27    0320f a70f      9.570 "
test,1583575807542941952,52," | 52  |   2338       4   2309      21 |   5    0      2214       116 |   2  27    0    0 320f |    2.777       0       4       0       4     27     27      0   2172     158       2  27    0320f a70f     30.210 "
test,1583575807523560960,53," | 53  |   2338       5   2312       0 |   5    0      2200       112 |   2  58    0    0 1a0f |    2.777       0       5       0       5     58     58      0   2174     138       2  58    01a0f a70f      8.880 "
test,1583575807522528000,54," | 54  |   2338       5   2330       0 |   4    9      2295        35 |   5  54   27    1 340f |    1.770       0       4       0       4     54     54      0   2254      76       2  54    1340f a70f      6.510 "
test,1583575807525638144,55," | 55  |   2338       5   2317       0 |   5    0      2240        77 |   1  58    0    0 1a0f |    2.075       0       5       0       5     58     58      0   2222      95       1  58    01a0f a70f      8.280 "
test,1583575807522881024,56," | 56  |   2338       5   2320       0 |   5    0      2282        38 |   4  27    0    0 320f |    3.479       0       5       0       5     27     27      0   2263      57       3  27    0320f a70f      9.660 "
test,1583575807528776960,57," | 57  |   2338       5   2275       0 |   3    0      2216        59 |   2  27    0    0 320f |    2.777       0       5       0       5     27     27      0   2088     187       2  27    0320f a70f      9.000 "
test,1583575807544816896,58," | 58  |   2338       5   2329       0 |   3    7      2301        28 |   2  58   54    1 1a0f |    7.598       0       2       0       2     58     58      0   2208     121      10  58    11a0f a70f     30.300 "
test,1583575807526017024,5," |  5  |   2338       5   2336       0 |   5    0      2135       201 |   2  27    0    0 320f |    5.706       0       5       0       5     27     27      0   2093     243       6  27    0320f a70f     11.700 "
test,1583575807525469184,60," | 60  |   2338       5   2329       0 |   5    0      2176       153 |   2  27    0    0 320f |    3.509       0       5       0       5     27     27      0   2138     191       3  27    0320f a70f      9.720 "
test,1583575807543215104,61," | 61  |   2338       5   2328       0 |   4    8      2229        99 |   1  58   54    0 1a0f |    2.014       0       4       0       4     58     58      0   2166     162       1  58    01a0f a70f     30.360 "
test,1583575807529787904,7," |  7  |   2338       5   2335       0 |   5    0      2298        37 |   4  27    0    0 320f |    6.408       0       5       0       5     27     27      0   2285      50       7  27    0320f a70f     12.540 "
test,1583575807520648960,9," |  9  |   2338       5   2334       0 |   5   10      2243        91 |   1  54   27    0 340f |    2.044       0       5       0       5     54     54      0   2231     103       1  54    0340f a70f      8.100 "
