test,1583575936271676928,10," | 10  |   2853       5   2825       0 |   5    0      2779        46 |   1   1    0    0 3a0f |    1.312       0       5       0       5      1      1      0   2738      87       1   1    03a0f a70f      7.560 "
test,1583575936274795008,12," | 12  |   2853       5   2851       0 |   4    8      2827        24 |   5  12    1    1 a80f |    3.814       0       4       0       4     12     12      0   2781      70       5  12    1a80f a70f      8.520 "
test,1583575936272587008,13," | 13  |   2853       5   2849       0 |   5    0      2829        20 |   1   1    0    0 3a0f |    1.342       0       5       0       5      1      1      0   2795      54       1   1    03a0f a70f      8.310 "
test,1583575936284168960,15," | 15  |   2853       5   2851       0 |   5    2      2747       104 |   1  12    1    0 a80f |    2.044       0       5       0       5     12     12      0   2632     219       1  12    0a80f a70f      8.760 "
test,1583575936278262016,16," | 16  |   2853       5   2849       0 |   5    0      2753        96 |   5  26    0    0 ab0f |    2.044       0       5       0       5     26     26      0   2683     166       1  26    0ab0f a70f      8.250 "
test,1583575936273658880,17," | 17  |   2853       5   2844       5 |   1    9      2817        32 |   2  17   26    1 d00f |    1.739       0       4       0       4     17     17      0   2730     119       2  17    1d00f a70f      6.480 "
test,1583575936277789952,18," | 18  |   2853       5   2848       0 |   5    0      2690       158 |   1  26    0    0 ab0f |    2.075       0       5       0       5     26     26      0   2570     278       1  26    0ab0f a70f      8.910 "
test,1583575936280978944,19," | 19  |   2853       5   2840       9 |   2    7      2803        46 |   1  17   26    0 d00f |    1.922       0       5       0       5     17     17      0   2715     134       1  17    0d00f a70f      8.100 "
test,1583575936274959104,1," |  1  |   2853       4   2850       0 |   5    0      2784        66 |   2   1    0    1 3a0f |    1.739       0       4       0       4      1      1      0   2763      87       2   1    13a0f a70f      7.920 "
test,1583575936274040064,22," | 22  |   2853       5   2847       0 |   5    0      2823        24 |   2  26    0    0 ab0f |    2.075       0       5       0       5     26     26      0   2691     156       1  26    0ab0f a70f      8.280 "
test,1583575936275960064,23," | 23  |   2853       5   2791       0 |   5    0      2777        14 |   4  26    0    0 ab0f |    2.746       0       5       0       5     26     26      0   2721      70       2  26    0ab0f a70f      9.000 "
test,1583575936280210944,24," | 24  |   2853       5   2847       2 |   5    0      2825        24 |   2  26    0    0 ab0f |    2.075       0       5       0       5     26     26      0   2758      91       1  26    0ab0f a70f      8.970 "
test,1583575936272324096,26," | 26  |   2853       5   2847       2 |   5    0      2839        10 |   5  26    0    1 ab0f |    1.739       0       4       0       4     26     26      0   2787      62       2  26    1ab0f a70f      6.510 "
test,1583575936278897152,27," | 27  |   2853       5   2851       0 |   2    8      2771        80 |   1  17   12    0 d00f |    2.746       0       5       0       5     17     17      0   2651     200       2  17    0d00f a70f      8.820 "
test,1583575936273506048,28," | 28  |   2853       5   2846       3 |   5    0      2631       218 |   1  17    0    0 d00f |    1.983       0       5       0       5     17     17      0   2530     319       1  17    0d00f a70f      8.220 "
test,1583575936293457152,29," | 29  |   2853       2   2847       4 |   0    0      2539       312 |   0   0    0    0    0 |    0           0       0       0       8      0      0      0   2400     451       0   0    0   0 a70f     30.360 "
test,1583575936290693888,30," | 30  |   2853       5   2849       0 |   5    0      2811        38 |   2  17    0    0 d00f |    0           0       0       0       8      0      0      0   2717     132       0  17    0d00f a70f     30.360 "
test,1583575936291980032,35," | 35  |   2853       5   2849       0 |   5    0      2721       128 |   3  17    0    0 d00f |    0           0       0       0       8      0      0      0   2662     187       0  17    0d00f a70f     30.360 "
test,1583575936282149120,40," | 40  |   2853       4   2798      47 |   4    3      2658       187 |   2  17   45    0 d00f |    5.645       0       5       0       5     17     17      0   2589     256       6  17    0d00f a70f     14.670 "
test,1583575936279298048,41," | 41  |   2853       5   2793      46 |   4    5      2812        27 |   1  17   45    0 d00f |    4.882       0       5       0       5     17     17      0   2737     102       5  17    0d00f a70f     12.510 "
test,1583575936281891072,42," | 42  |   2853       5   2800      49 |   4    3      2782        67 |   2  17   45    0 d00f |    5.645       0       5       0       5     17     17      0   2710     139       6  17    0d00f a70f     15.300 "
test,1583575936296492032,44," | 44  |   2853       5   2805      44 |   3    7      2779        70 |   3  17   45    0 d00f |    5.645       0       4       0       4     17     17      0   2721     128       6  17    0d00f a70f     30.390 "
test,1583575936294164992,45," | 45  |   2853       5   2818      31 |   0    5      2753        96 |   0  45   26    1 270f |    0           0       0       0       8      0      0      0   2700     149       0  45    1270f a70f     30.240 "
test,1583575936281389824,46," | 46  |   2853       5   2797      45 |   4    3      2718       124 |   2  17   45    0 d00f |    5.676       0       5       0       5     17     17      0   2663     179       6  17    0d00f a70f     13.170 "
test,1583575936283927808,47," | 47  |   2853       4   2805      44 |   4    4      2749       100 |   2  17   45    0 d00f |    5.645       0       5       0       5     17     17      0   2688     161       6  17    0d00f a70f     13.260 "
test,1583575936285177856,48," | 48  |   2853       5   2740      42 |   3    4      2714        68 |   3  17   45    0 d00f |    5.615       0       5       0       5     17     17      0   2658     124       6  17    0d00f a70f     14.640 "
test,1583575936272869120,49," | 49  |   2853       5   2843       0 |   5    0      2792        51 |   2  49    0    1 cb0f |    1.739       0       4       0       4     49     49      0   2764      79       2  49    1cb0f a70f      6.480 "
test,1583575936271919104,51," | 51  |   2853       5   2844       0 |   5    0      2823        21 |   1   1    0    0 3a0f |    1.373       0       5       0       5      1      1      0   2815      29       1   1    03a0f a70f      7.470 "
test,1583575936276932864,52," | 52  |   2853       5   2822      23 |   5    0      2708       137 |   1  26    0    0 ab0f |    2.075       0       5       0       5     26     26      0   2654     191       1  26    0ab0f a70f      8.130 "
test,1583575936282793984,53," | 53  |   2853       5   2827       0 |   5    0      2690       137 |   1  49    0    0 cb0f |    2.014       0       5       0       5     49     49      0   2654     173       1  49    0cb0f a70f      8.250 "
test,1583575936284882176,54," | 54  |   2853       5   2845       0 |   5    0      2797        48 |   1   1    0    0 3a0f |    1.342       0       5       0       5      1      1      0   2751      94       1   1    03a0f a70f      8.130 "
test,1583575936276285952,55," | 55  |   2853       5   2832       0 |   5    0      2733        99 |   1  49    0    0 cb0f |    2.044       0       5       0       5     49     49      0   2706     126       1  49    0cb0f a70f      8.100 "
test,1583575936273137920,56," | 56  |   2853       5   2835       0 |   5    0      2789        46 |   2   1    0    0 3a0f |    2.075       0       5       0       5      1      1      0   2765      70       2   1    03a0f a70f      8.130 "
test,1583575936275390976,57," | 57  |   2853       5   2790       0 |   5    0      2720        70 |   1  26    0    0 ab0f |    2.014       0       5       0       5     26     26      0   2558     232       1  26    0ab0f a70f      8.250 "
test,1583575936279077888,58," | 58  |   2853       5   2844       0 |   2    6      2810        34 |   4  49   12    0 cb0f |    2.044       0       5       0       5     49     49      0   2692     152       1  49    0cb0f a70f      8.130 "
test,1583575936295655936,5," |  5  |   2853       5   2851       0 |   5    4      2613       238 |   1  12    1    0 a80f |    4.089       0       4       0       4     12     12      0   2562     289       4  12    0a80f a70f     30.360 "
test,1583575936273360896,60," | 60  |   2853       5   2844       0 |   2    2      2658       186 |   2   1   12    0 3a0f |    2.075       0       5       0       5      1      1      0   2612     232       2   1    03a0f a70f      8.340 "
test,1583575936294903040,61," | 61  |   2853       5   2843       0 |   2    3      2721       122 |   2   1   26    0 3a0f |    2.075       0       2       0       2      1      1      0   2639     204       2   1    03a0f a70f     30.390 "
test,1583575936274614016,7," |  7  |   2853       5   2850       0 |   5    0      2805        45 |   1   1    0    0 3a0f |    1.312       0       5       0       5      1      1      0   2791      59       1   1    03a0f a70f      8.280 "
test,1583575936282514944,9," |  9  |   2853       5   2849       0 |   5    0      2739       110 |   1   1    0    0 3a0f |    1.312       0       5       0       5      1      1      0   2725     124       1   1    03a0f a70f      8.250 "
