test,1583575860277594112,10," | 10  |   2549       5   2521       0 |   5    0      2480        41 |   2   5    0    0 7b0f |    3.479       0       5       0       5      5      5      0   2448      73       3   5    07b0f a70f      9.720 "
test,1583575860270747904,12," | 12  |   2549       5   2547       0 |   5    0      2526        21 |   1   5    0    0 7b0f |    2.014       0       5       0       5      5      5      0   2486      61       1   5    07b0f a70f      8.250 "
test,1583575860270541824,13," | 13  |   2549       5   2545       0 |   5    0      2526        19 |   1   5    0    0 7b0f |    2.044       0       5       0       5      5      5      0   2495      50       1   5    07b0f a70f      8.130 "
test,1583575860275793920,15," | 15  |   2549       5   2547       0 |   5    0      2454        93 |   2   5    0    0 7b0f |    2.777       0       5       0       5      5      5      0   2350     197       2   5    07b0f a70f      8.940 "
test,1583575860296684032,16," | 16  |   2549       5   2545       0 |   4    5      2459        86 |   8  16   18    1 5b0f |    1.770       0       3       0       3     16     16      0   2395     150       2  16    15b0f a70f     30.300 "
test,1583575860276985856,17," | 17  |   2549       5   2541       4 |   4    7      2513        32 |   7  18   16    0 4d0f |    3.509       0       5       0       5     18     18      0   2435     110       3  18    04d0f a70f      9.750 "
test,1583575860270944000,18," | 18  |   2549       5   2544       0 |   4    0      2400       144 |   3  18    0    1 4d0f |    1.739       0       4       0       4     18     18      0   2288     256       2  18    14d0f a70f      6.510 "
test,1583575860281526016,19," | 19  |   2549       5   2538       7 |   4    9      2506        39 |   6  18   16    0 4d0f |    4.241       0       5       0       5     18     18      0   2426     119       4  18    04d0f a70f     10.440 "
test,1583575860273065216,1," |  1  |   2549       4   2546       0 |   5    0      2485        61 |   2   5    0    0 7b0f |    3.417       0       5       0       5      5      5      0   2465      81       2   5    07b0f a70f      9.630 "
test,1583575860275058944,22," | 22  |   2549       5   2543       0 |   5    0      2522        21 |   1  18    0    0 4d0f |    2.044       0       5       0       5     18     18      0   2400     143       1  18    04d0f a70f      8.940 "
test,1583575860293158144,23," | 23  |   2549       5   2487       0 |   5    8      2474        13 |   1  16   18    0 5b0f |    2.075       0       3       0       3     16     16      0   2426      61       1  16    05b0f a70f     30.270 "
test,1583575860273403904,24," | 24  |   2549       5   2543       2 |   5    0      2522        23 |   1  18    0    0 4d0f |    2.014       0       5       0       5     18     18      0   2461      84       1  18    04d0f a70f      8.250 "
test,1583575860277921792,26," | 26  |   2549       5   2543       2 |   5    0      2535        10 |   2  18    0    0 4d0f |    2.746       0       5       0       5     18     18      0   2486      59       2  18    04d0f a70f     10.260 "
test,1583575860294985984,27," | 27  |   2549       5   2547       0 |   5   11      2475        72 |   2  16   29    0 5b0f |    2.746       0       3       0       3     16     16      0   2365     182       2  16    05b0f a70f     30.360 "
test,1583575860276374016,28," | 28  |   2549       4   2543       2 |   5    0      2344       201 |   1  30    0    0  40f |    2.044       0       5       0       5     30     30      0   2257     288       1  30    0 40f a70f      8.280 "
test,1583575860292728064,29," | 29  |   2549       4   2543       4 |   0    5      2267       280 |   0  29   16    1 7e0f |    0           0       0       0       8      0      0      0   2143     404       0  29    17e0f a70f     30.150 "
test,1583575860272690176,30," | 30  |   2549       5   2545       0 |   5    0      2511        34 |   2  30    0    1  40f |    1.739       0       4       0       4     30     30      0   2428     117       2  30    1 40f a70f      6.480 "
test,1583575860271868928,35," | 35  |   2549       5   2545       0 |   5    0      2432       113 |   1  30    0    0  40f |    2.014       0       5       0       5     30     30      0   2380     165       1  30    0 40f a70f      8.220 "
test,1583575860294831104,40," | 40  |   2549       5   2509      32 |   5    0      2370       171 |   3  18    0    0 4d0f |    3.479       0       4       0       4     18     18      0   2308     233       3  18    04d0f a70f     30.360 "
test,1583575860275297024,41," | 41  |   2549       5   2503      32 |   5    0      2510        25 |   3  18    0    0 4d0f |    2.716       0       5       0       5     18     18      0   2444      91       2  18    04d0f a70f      8.940 "
test,1583575860277393152,42," | 42  |   2549       5   2510      35 |   5    0      2487        58 |   2  18    0    0 4d0f |    2.746       0       5       0       5     18     18      0   2422     123       2  18    04d0f a70f      8.970 "
test,1583575860273224960,44," | 44  |   2549       5   2515      30 |   5    0      2483        62 |   2  18    0    0 4d0f |    2.777       0       5       0       5     18     18      0   2429     116       2  18    04d0f a70f      9.000 "
test,1583575860279589888,45," | 45  |   2549       5   2521      24 |   5    0      2459        86 |   3  18    0    0 4d0f |    2.746       0       5       0       5     18     18      0   2412     133       2  18    04d0f a70f      9.480 "
test,1583575860278968064,46," | 46  |   2549       5   2507      31 |   5    0      2424       114 |   2  18    0    0 4d0f |    2.746       0       5       0       5     18     18      0   2374     164       2  18    04d0f a70f      9.570 "
test,1583575860274418176,47," | 47  |   2549       5   2513      32 |   5    0      2454        91 |   1  18    0    0 4d0f |    2.014       0       5       0       5     18     18      0   2394     151       1  18    04d0f a70f      8.100 "
test,1583575860275974144,48," | 48  |   2549       5   2449      29 |   5    0      2417        61 |   2  18    0    0 4d0f |    2.777       0       5       0       5     18     18      0   2366     112       2  18    04d0f a70f      8.970 "
test,1583575860278136064,49," | 49  |   2549       5   2539       0 |   5    0      2496        43 |   1  53    0    0  50f |    2.014       0       5       0       5     53     53      0   2470      69       1  53    0 50f a70f      8.250 "
test,1583575860272099072,51," | 51  |   2549       5   2540       0 |   5    0      2522        18 |   1  60    0    0  c0f |    2.044       0       5       0       5     60     60      0   2513      27       1  60    0 c0f a70f      8.250 "
test,1583575860295469056,52," | 52  |   2549       5   2520      21 |   5    0      2413       128 |   4  18    0    0 4d0f |    3.448       0       4       0       4     18     18      0   2363     178       3  18    04d0f a70f     30.360 "
test,1583575860271308032,53," | 53  |   2549       5   2523       0 |   4    0      2397       126 |   2  53    0    1  50f |    1.770       0       4       0       4     53     53      0   2366     157       2  53    1 50f a70f      6.510 "
test,1583575860274640128,54," | 54  |   2549       5   2541       0 |   5    0      2498        43 |   3   5    0    0 7b0f |    3.479       0       5       0       5      5      5      0   2454      87       3   5    07b0f a70f     10.320 "
test,1583575860271666176,55," | 55  |   2549       5   2528       0 |   5    0      2442        86 |   1  53    0    0  50f |    2.044       0       5       0       5     53     53      0   2419     109       1  53    0 50f a70f      8.160 "
test,1583575860292545024,56," | 56  |   2549       5   2531       0 |   5    4      2487        44 |   1  61   60    0 400f |    2.044       0       1       0       1     61     61      0   2466      65       1  61    0400f a70f     30.360 "
test,1583575860294651904,57," | 57  |   2549       5   2486       0 |   2   10      2421        65 |   2  16   61    0 5b0f |    2.807       0       3       0       3     16     16      0   2275     211       2  16    05b0f a70f     30.270 "
test,1583575860294385920,58," | 58  |   2549       5   2540       0 |   4    1      2511        29 |   4  61   16    0 400f |    2.044       0       2       0       2     61     61      0   2404     136       1  61    0400f a70f     30.390 "
test,1583575860272905984,5," |  5  |   2549       5   2547       0 |   4    0      2333       214 |   4   5    0    1 7b0f |    1.770       0       4       0       4      5      5      0   2288     259       2   5    17b0f a70f      7.950 "
test,1583575860276835072,60," | 60  |   2549       5   2540       0 |   5    0      2377       163 |   2  60    0    1  c0f |    1.770       0       4       0       4     60     60      0   2335     205       2  60    1 c0f a70f      6.510 "
test,1583575860295824128,61," | 61  |   2549       5   2539       0 |   4    5      2429       110 |   5  61    5    1 400f |    1.739       0       2       0       2     61     61      0   2353     186       2  61    1400f a70f     30.300 "
test,1583575860272377088,7," |  7  |   2549       5   2546       0 |   5    0      2507        39 |   2   5    0    0 7b0f |    2.746       0       5       0       5      5      5      0   2494      52       2   5    07b0f a70f      8.820 "
test,1583575860275469056,9," |  9  |   2549       5   2545       0 |   5    0      2447        98 |   2   5    0    0 7b0f |    2.777       0       5       0       5      5      5      0   2434     111       2   5    07b0f a70f      8.880 "
