test,1583575930773926144,10," | 10  |   2831       5   2803       0 |   5    0      2757        46 |   2  57    0    0 4c0f |    2.716       0       5       0       5     57     57      0   2716      87       2  57    04c0f a70f      8.940 "
test,1583575930775120896,12," | 12  |   2831       5   2829       0 |   5    0      2806        23 |   3  57    0    0 4c0f |    2.777       0       5       0       5     57     57      0   2760      69       2  57    04c0f a70f      9.660 "
test,1583575930792980992,13," | 13  |   2831       5   2827       0 |   5    0      2807        20 |   3  57    0    0 4c0f |    2.746       0       4       0       4     57     57      0   2773      54       2  57    04c0f a70f     30.270 "
test,1583575930775603968,15," | 15  |   2831       5   2829       0 |   5    0      2727       102 |   4  57    0    0 4c0f |    2.777       0       5       0       5     57     57      0   2613     216       2  57    04c0f a70f     10.410 "
test,1583575930795755008,16," | 16  |   2831       5   2827       0 |   4    7      2732        95 |   4  46   57    0 570f |    4.180       0       1       0       1     46     46      0   2662     165       4  46    0570f a70f     30.330 "
test,1583575930777810944,17," | 17  |   2831       5   2822       5 |   4    5      2795        32 |   3  57   22    0 4c0f |    2.746       0       5       0       5     57     57      0   2708     119       2  57    04c0f a70f     11.130 "
test,1583575930797332992,18," | 18  |   2831       5   2826       0 |   5    0      2668       158 |   1  47    0    0  60f |    7.171       0       1       0       1     47     47      0   2548     278       8  47    0 60f a70f     30.360 "
test,1583575930778820096,19," | 19  |   2831       5   2818       9 |   5    1      2781        46 |   2  57   47    0 4c0f |    2.746       0       5       0       5     57     57      0   2693     134       2  57    04c0f a70f     10.380 "
test,1583575930776335104,1," |  1  |   2831       4   2828       0 |   5    0      2762        66 |   2  57    0    0 4c0f |    3.417       0       5       0       5     57     57      0   2741      87       2  57    04c0f a70f      9.630 "
test,1583575930794435072,22," | 22  |   2831       5   2825       0 |   0    5      2801        24 |   0  22   57    1 220f |    0           0       0       0       8      0      0      0   2669     156       0  22    1220f a70f     30.180 "
test,1583575930780452864,23," | 23  |   2831       5   2769       0 |   5    2      2755        14 |   2  57   46    0 4c0f |    1.953       0       5       0       5     57     57      0   2700      69       1  57    04c0f a70f     12.510 "
test,1583575930795535104,24," | 24  |   2831       5   2825       2 |   2    9      2803        24 |   6  47   22    0  60f |    7.171       0       1       0       1     47     47      0   2736      91       8  47    0 60f a70f     30.390 "
test,1583575930778989056,26," | 26  |   2831       5   2825       2 |   5    3      2817        10 |   1  57   47    0 4c0f |    2.685       0       5       0       5     57     57      0   2765      62       2  57    04c0f a70f     11.790 "
test,1583575930777265152,27," | 27  |   2831       5   2829       0 |   5    0      2750        79 |   3  57    0    0 4c0f |    2.746       0       5       0       5     57     57      0   2630     199       2  57    04c0f a70f     11.820 "
test,1583575930777618944,28," | 28  |   2831       5   2824       3 |   5    0      2609       218 |   2  35    0    0 600f |    2.044       0       5       0       5     35     35      0   2509     318       1  35    0600f a70f      9.000 "
test,1583575930796873216,29," | 29  |   2831       5   2825       4 |   5    0      2519       310 |   5  57    0    0 4c0f |    6.378       0       4       0       4     57     57      0   2380     449       7  57    04c0f a70f     30.360 "
test,1583575930774233088,30," | 30  |   2831       5   2827       0 |   5    0      2789        38 |   1  35    0    0 600f |    2.075       0       5       0       5     35     35      0   2696     131       1  35    0600f a70f      8.190 "
test,1583575930773225984,35," | 35  |   2831       5   2827       0 |   5    0      2699       128 |   2  35    0    1 600f |    1.770       0       4       0       4     35     35      0   2641     186       2  35    1600f a70f      6.510 "
test,1583575930797123840,40," | 40  |   2831       5   2779      44 |   4    2      2637       186 |   2  46   47    0 570f |    2.746       0       2       0       2     46     46      0   2569     254       2  46    0570f a70f     30.360 "
test,1583575930795934976,41," | 41  |   2831       5   2774      43 |   5    0      2790        27 |   1  46    0    0 570f |    1.983       0       2       0       2     46     46      0   2715     102       1  46    0570f a70f     30.330 "
test,1583575930779197952,42," | 42  |   2831       5   2780      47 |   5    2      2760        67 |   1  47   46    0  60f |    2.044       0       5       0       5     47     47      0   2689     138       1  47    0 60f a70f      9.690 "
test,1583575930768759040,44," | 44  |   2831       5   2786      41 |   5    0      2757        70 |   1  47    0    0  60f |    2.044       0       5       0       5     47     47      0   2699     128       1  47    0 60f a70f      8.280 "
test,1583575930781334016,45," | 45  |   2831       5   2797      30 |   5    0      2733        94 |   2  47    0    0  60f |    2.746       0       5       0       5     47     47      0   2681     146       2  47    0 60f a70f      8.940 "
test,1583575930797584896,46," | 46  |   2831       5   2778      42 |   5    0      2696       124 |   2  46    0    1 570f |    1.739       0       2       0       2     46     46      0   2641     179       2  46    1570f a70f     30.300 "
test,1583575930781143808,47," | 47  |   2831       4   2785      42 |   5    1      2727       100 |   3  47   46    1  60f |    3.936       0       4       0       4     47     47      0   2666     161       5  47    1 60f a70f      8.640 "
test,1583575930778028032,48," | 48  |   2831       5   2720      40 |   5    0      2692        68 |   2  47    0    0  60f |    4.180       0       5       0       5     47     47      0   2637     123       4  47    0 60f a70f     10.350 "
test,1583575930773596928,49," | 49  |   2831       5   2821       0 |   5    0      2771        50 |   2  55    0    0 7e0f |    1.953       0       5       0       5     55     55      0   2743      78       1  55    07e0f a70f      8.190 "
test,1583575930772291840,51," | 51  |   2831       5   2822       0 |   5    0      2801        21 |   1  57    0    0 4c0f |    2.014       0       5       0       5     57     57      0   2793      29       1  57    04c0f a70f      8.190 "
test,1583575930779501824,52," | 52  |   2831       5   2800      23 |   5    1      2686       137 |   2  57   46    0 4c0f |    2.716       0       5       0       5     57     57      0   2632     191       2  57    04c0f a70f     12.510 "
test,1583575930776047872,53," | 53  |   2831       5   2805       0 |   5    0      2669       136 |   1  55    0    0 7e0f |    2.014       0       5       0       5     55     55      0   2633     172       1  55    07e0f a70f      8.070 "
test,1583575930773394944,54," | 54  |   2831       5   2823       0 |   5    0      2775        48 |   1  57    0    0 4c0f |    2.044       0       5       0       5     57     57      0   2729      94       1  57    04c0f a70f      8.100 "
test,1583575930772599808,55," | 55  |   2831       5   2810       0 |   4    0      2715        95 |   2  55    0    1 7e0f |    1.770       0       4       0       4     55     55      0   2688     122       2  55    17e0f a70f      6.510 "
test,1583575930772864000,56," | 56  |   2831       5   2813       0 |   5    0      2767        46 |   1  57    0    0 4c0f |    2.014       0       5       0       5     57     57      0   2744      69       1  57    04c0f a70f      8.220 "
test,1583575930774401024,57," | 57  |   2831       5   2768       0 |   5    0      2698        70 |   2  57    0    1 4c0f |    1.739       0       4       0       4     57     57      0   2537     231       2  57    14c0f a70f      6.510 "
test,1583575930796374016,58," | 58  |   2831       5   2822       0 |   5    0      2789        33 |   1  57    0    0 4c0f |    9.368       0       1       0       1     57     57      0   2671     151      11  57    04c0f a70f     30.390 "
test,1583575930791853824,5," |  5  |   2831       5   2829       0 |   0    6      2592       237 |   0   5   57    1 b80f |    0           0       0       0       8      0      0      0   2541     288       0   5    1b80f a70f     30.180 "
test,1583575930777446912,60," | 60  |   2831       5   2822       0 |   5    0      2639       183 |   1  57    0    0 4c0f |    1.983       0       5       0       5     57     57      0   2593     229       1  57    04c0f a70f      8.220 "
test,1583575930779890944,61," | 61  |   2831       5   2821       0 |   5    0      2700       121 |   1  57    0    0 4c0f |    2.014       0       5       0       5     57     57      0   2618     203       1  57    04c0f a70f      8.130 "
test,1583575930774669824,7," |  7  |   2831       5   2828       0 |   5    0      2783        45 |   2  57    0    0 4c0f |    2.746       0       5       0       5     57     57      0   2769      59       2  57    04c0f a70f      8.940 "
test,1583575930776683008,9," |  9  |   2831       5   2827       0 |   5    0      2717       110 |   2  57    0    0 4c0f |    2.777       0       5       0       5     57     57      0   2703     124       2  57    04c0f a70f      9.570 "
