test,1583575969792651776,10," | 10  |   2987       5   2959       0 |   4    9      2912        47 |   5  15   54    0 bc0f |    0           0       0       0       8      0      0      0   2868      91       0  15    0bc0f a70f     30.390 "
test,1583575969793698048,12," | 12  |   2987       5   2985       0 |   5    0      2959        26 |   2  15    0    0 bc0f |    1.983       0       2       0       2     15     15      0   2910      75       1  15    0bc0f a70f     30.360 "
test,1583575969791870208,13," | 13  |   2987       5   2983       0 |   5    0      2961        22 |   2  15    0    0 bc0f |    0           0       0       0       8      0      0      0   2927      56       0  15    0bc0f a70f     30.390 "
test,1583575969795038976,15," | 15  |   2987       5   2985       0 |   4    0      2870       115 |   3  15    0    1 bc0f |    1.739       0       2       0       2     15     15      0   2748     237       2  15    1bc0f a70f     30.300 "
test,1583575969781155072,16," | 16  |   2987       5   2983       0 |   5    0      2877       106 |   1  52    0    0 ec0f |    2.014       0       5       0       5     52     52      0   2806     177       1  52    0ec0f a70f      8.220 "
test,1583575969778227200,17," | 17  |   2987       5   2978       5 |   4    0      2951        32 |   1  52    0    0 ec0f |    3.448       0       5       0       5     52     52      0   2861     122       3  52    0ec0f a70f      9.630 "
test,1583575969792112128,18," | 18  |   2987       5   2982       0 |   0    5      2818       164 |   0  18   52    1  90f |    0           0       0       0       8      0      0      0   2692     290       0  18    1 90f a70f     30.180 "
test,1583575969777671936,19," | 19  |   2987       5   2974       9 |   4    0      2934        49 |   1  52    0    0 ec0f |    2.014       0       5       0       5     52     52      0   2844     139       1  52    0ec0f a70f      8.970 "
test,1583575969792279040,1," |  1  |   2987       4   2984       0 |   5    0      2916        68 |   3  15    0    0 bc0f |    0           0       0       0       8      0      0      0   2894      90       0  15    0bc0f a70f     30.390 "
test,1583575969777282048,22," | 22  |   2987       5   2981       0 |   5    0      2957        24 |   2  52    0    0 ec0f |    2.746       0       5       0       5     52     52      0   2818     163       2  52    0ec0f a70f      9.510 "
test,1583575969774006016,23," | 23  |   2987       5   2925       0 |   5    0      2911        14 |   1  52    0    0 ec0f |    1.983       0       5       0       5     52     52      0   2854      71       1  52    0ec0f a70f      8.910 "
test,1583575969775099136,24," | 24  |   2987       5   2981       2 |   5    0      2957        26 |   2  52    0    0 ec0f |    2.716       0       5       0       5     52     52      0   2887      96       2  52    0ec0f a70f      8.970 "
test,1583575969774804224,26," | 26  |   2987       5   2981       2 |   5    0      2972        11 |   1  52    0    0 ec0f |    1.983       0       5       0       5     52     52      0   2917      66       1  52    0ec0f a70f      8.220 "
test,1583575969778029824,27," | 27  |   2987       5   2985       0 |   5    0      2899        86 |   3  52    0    0 ec0f |    2.777       0       5       0       5     52     52      0   2775     210       2  52    0ec0f a70f     10.320 "
test,1583575969797373952,28," | 28  |   2987       4   2980       3 |   5    0      2755       228 |   2  52    0    0 ec0f |    4.211       0       4       0       4     52     52      0   2647     336       4  52    0ec0f a70f     30.210 "
test,1583575969779479040,29," | 29  |   2987       5   2980       5 |   5    0      2655       330 |   2  52    0    0 ec0f |    2.716       0       5       0       5     52     52      0   2515     470       2  52    0ec0f a70f      8.910 "
test,1583575969799987968,30," | 30  |   2987       5   2983       0 |   5    0      2942        41 |   4  52    0    0 ec0f |    3.479       0       4       0       4     52     52      0   2843     140       3  52    0ec0f a70f     30.360 "
test,1583575969796928768,35," | 35  |   2987       5   2983       0 |   5    0      2846       137 |   3  52    0    0 ec0f |    3.479       0       4       0       4     52     52      0   2786     197       3  52    0ec0f a70f     30.360 "
test,1583575969779784960,40," | 40  |   2987       5   2926      53 |   4    0      2784       195 |   2  48    0    0 160f |    2.014       0       5       0       5     48     48      0   2709     270       1  48    0160f a70f      8.820 "
test,1583575969775377152,41," | 41  |   2987       5   2921      52 |   4    0      2945        28 |   1  48    0    0 160f |    2.014       0       5       0       5     48     48      0   2866     107       1  48    0160f a70f      9.540 "
test,1583575969784878848,42," | 42  |   2987       5   2928      55 |   4    0      2911        72 |   1  48    0    0 160f |    1.983       0       5       0       5     48     48      0   2835     148       1  48    0160f a70f     10.260 "
test,1583575969776894208,44," | 44  |   2987       5   2933      50 |   4    0      2911        72 |   1  48    0    0 160f |    2.014       0       5       0       5     48     48      0   2850     133       1  48    0160f a70f     10.200 "
test,1583575969776463872,45," | 45  |   2987       5   2946      37 |   3    0      2885        98 |   1  48    0    0 160f |    1.983       0       5       0       5     48     48      0   2829     154       1  48    0160f a70f      9.510 "
test,1583575969777848064,46," | 46  |   2987       5   2925      51 |   4    0      2843       133 |   1  48    0    0 160f |    2.044       0       5       0       5     48     48      0   2785     191       1  48    0160f a70f      9.570 "
test,1583575969778452992,47," | 47  |   2987       5   2933      50 |   4    4      2878       105 |   2  48   18    0 160f |    2.014       0       5       0       5     48     48      0   2813     170       1  48    0160f a70f      9.540 "
test,1583575969781593088,48," | 48  |   2987       5   2868      48 |   3    0      2844        72 |   3  48    0    1 160f |    3.814       0       4       0       4     48     48      0   2782     134       5  48    1160f a70f      8.520 "
test,1583575969773808128,49," | 49  |   2987       5   2977       0 |   5    0      2925        52 |   1  53    0    0 3b0f |    2.044       0       5       0       5     53     53      0   2896      81       1  53    03b0f a70f      8.250 "
test,1583575969794802944,51," | 51  |   2987       5   2978       0 |   5    0      2954        24 |   2  15    0    0 bc0f |    0           0       0       0       8      0      0      0   2944      34       0  15    0bc0f a70f     30.360 "
test,1583575969773462016,52," | 52  |   2987       5   2956      23 |   4    0      2835       144 |   2  52    0    1 ec0f |    1.739       0       4       0       4     52     52      0   2779     200       2  52    1ec0f a70f      6.480 "
test,1583575969773189120,53," | 53  |   2987       5   2961       0 |   5    0      2814       147 |   2  53    0    1 3b0f |    1.739       0       4       0       4     53     53      0   2777     184       2  53    13b0f a70f      6.510 "
test,1583575969772516864,54," | 54  |   2987       5   2979       0 |   4    5      2929        50 |   5  54   15    1 260f |    1.739       0       4       0       4     54     54      0   2881      98       2  54    1260f a70f      6.480 "
test,1583575969799771904,55," | 55  |   2987       5   2966       0 |   4   10      2862       104 |   5  55   53    1 bd0f |   10.284       0       3       0       3     55     55      0   2835     131      14  55    1bd0f a70f     30.270 "
test,1583575969793134848,56," | 56  |   2987       5   2969       0 |   5    0      2921        48 |   3  15    0    0 bc0f |    0           0       0       0       8      0      0      0   2893      76       0  15    0bc0f a70f     30.360 "
test,1583575969776196864,57," | 57  |   2987       5   2924       0 |   4    3      2853        71 |   2  52   55    0 ec0f |    2.746       0       5       0       5     52     52      0   2681     243       2  52    0ec0f a70f      8.880 "
test,1583575969782053120,58," | 58  |   2987       5   2978       0 |   5    3      2942        36 |   1  55   53    0 bd0f |    2.014       0       5       0       5     55     55      0   2819     159       1  55    0bd0f a70f     13.710 "
test,1583575969796453888,5," |  5  |   2987       5   2985       0 |   5    0      2734       251 |   1  15    0    0 bc0f |    1.983       0       3       0       3     15     15      0   2679     306       1  15    0bc0f a70f     30.360 "
test,1583575969793523200,60," | 60  |   2987       5   2978       0 |   5    0      2786       192 |   1  15    0    0 bc0f |    0           0       0       0       8      0      0      0   2737     241       0  15    0bc0f a70f     30.390 "
test,1583575969795696128,61," | 61  |   2987       5   2977       0 |   2    5      2850       127 |   4  15   55    0 bc0f |    0           0       0       0       8      0      0      0   2762     215       0  15    0bc0f a70f     30.390 "
test,1583575969794657024,7," |  7  |   2987       5   2984       0 |   5    0      2936        48 |   3  15    0    0 bc0f |    0           0       0       0       8      0      0      0   2919      65       0  15    0bc0f a70f     30.390 "
test,1583575969774280192,9," |  9  |   2987       5   2983       0 |   5    8      2870       113 |   1  54   15    0 260f |    1.983       0       5       0       5     54     54      0   2856     127       1  54    0260f a70f      8.220 "
