test,1583575834025789952,10," | 10  |   2444       5   2416       0 |   5    0      2379        37 |   1  58    0    0 bb0f |    2.044       0       5       0       5     58     58      0   2346      70       1  58    0bb0f a70f      8.310 "
test,1583575834023983104,12," | 12  |   2444       5   2442       0 |   5    0      2422        20 |   1  58    0    0 bb0f |    2.777       0       5       0       5     58     58      0   2384      58       2  58    0bb0f a70f      9.690 "
test,1583575834022706944,13," | 13  |   2444       5   2440       0 |   5    0      2421        19 |   2  58    0    0 bb0f |    2.807       0       5       0       5     58     58      0   2391      49       2  58    0bb0f a70f      9.030 "
test,1583575834031311104,15," | 15  |   2444       5   2442       0 |   5    0      2356        86 |   2  58    0    0 bb0f |    3.509       0       5       0       5     58     58      0   2259     183       3  58    0bb0f a70f     10.320 "
test,1583575834041169920,16," | 16  |   2444       5   2440       0 |   0    3      2356        84 |   0  16   23    1 250f |    0           0       0       0       8      0      0      0   2294     146       0  16    1250f a70f     30.180 "
test,1583575834021876992,17," | 17  |   2444       5   2437       3 |   5    0      2410        30 |   1  23    0    0 390f |    1.953       0       5       0       5     23     23      0   2337     103       1  23    0390f a70f      8.190 "
test,1583575834042671872,18," | 18  |   2444       5   2439       0 |   0    4      2299       140 |   0  18   23    1 c70f |    0           0       0       0       8      0      0      0   2190     249       0  18    1c70f a70f     30.180 "
test,1583575834025219840,19," | 19  |   2444       5   2435       5 |   5    0      2405        35 |   1  23    0    0 390f |    1.983       0       5       0       5     23     23      0   2330     110       1  23    0390f a70f      9.660 "
test,1583575834023557888,1," |  1  |   2444       4   2441       0 |   5    0      2380        61 |   2  58    0    0 bb0f |    3.479       0       5       0       5     58     58      0   2361      80       2  58    0bb0f a70f      9.540 "
test,1583575834043759104,22," | 22  |   2444       5   2438       0 |   4    2      2419        19 |   1  23   57    0 390f |    3.509       0       4       0       4     23     23      0   2301     137       3  23    0390f a70f     30.240 "
test,1583575834029579008,23," | 23  |   2444       5   2382       0 |   4    0      2370        12 |   4  23    0    1 390f |    1.770       0       4       0       4     23     23      0   2325      57       2  23    1390f a70f      8.670 "
test,1583575834024177152,24," | 24  |   2444       5   2438       2 |   5    0      2418        22 |   2  23    0    0 390f |    3.448       0       5       0       5     23     23      0   2360      80       3  23    0390f a70f      9.510 "
test,1583575834022486016,26," | 26  |   2444       5   2438       2 |   5    0      2431         9 |   3  23    0    0 390f |    2.716       0       5       0       5     23     23      0   2385      55       2  23    0390f a70f      8.790 "
test,1583575834027398144,27," | 27  |   2444       5   2442       0 |   5    0      2372        70 |   1  23    0    0 390f |    1.983       0       5       0       5     23     23      0   2267     175       1  23    0390f a70f     10.350 "
test,1583575834021217024,28," | 28  |   2444       5   2438       2 |   5    0      2250       190 |   1  30    0    0 340f |    2.014       0       5       0       5     30     30      0   2169     271       1  30    0340f a70f      8.220 "
test,1583575834042414848,29," | 29  |   2444       4   2438       4 |   5    0      2176       266 |   2  23    0    0 390f |    5.645       0       3       0       3     23     23      0   2057     385       6  23    0390f a70f     30.360 "
test,1583575834020240128,30," | 30  |   2444       5   2440       0 |   5    0      2407        33 |   2  30    0    1 340f |    1.739       0       4       0       4     30     30      0   2329     111       2  30    1340f a70f      6.510 "
test,1583575834023309824,35," | 35  |   2444       5   2440       0 |   5    0      2335       105 |   1  30    0    0 340f |    2.014       0       5       0       5     30     30      0   2288     152       1  30    0340f a70f      8.130 "
test,1583575834026685952,40," | 40  |   2444       5   2404      32 |   4    2      2269       167 |   4  42   23    0 9a0f |    2.746       0       5       0       5     42     42      0   2209     227       2  42    09a0f a70f      9.690 "
test,1583575834032305920,41," | 41  |   2444       5   2398      32 |   5    0      2406        24 |   1  42    0    0 9a0f |    2.777       0       5       0       5     42     42      0   2343      87       2  42    09a0f a70f      9.750 "
test,1583575834025382144,42," | 42  |   2444       5   2405      35 |   4    1      2386        54 |   2  42   23    1 9a0f |    1.739       0       4       0       4     42     42      0   2322     118       2  42    19a0f a70f      6.510 "
test,1583575834025587200,44," | 44  |   2444       5   2410      30 |   5    0      2380        60 |   1  42    0    0 9a0f |    2.746       0       5       0       5     42     42      0   2327     113       2  42    09a0f a70f      9.720 "
test,1583575834026181888,45," | 45  |   2444       5   2416      24 |   5    0      2358        82 |   1  42    0    0 9a0f |    2.777       0       5       0       5     42     42      0   2312     128       2  42    09a0f a70f      9.540 "
test,1583575834027822080,46," | 46  |   2444       5   2402      31 |   5    0      2325       108 |   1  42    0    0 9a0f |    2.746       0       5       0       5     42     42      0   2277     156       2  42    09a0f a70f      9.000 "
test,1583575834028497920,47," | 47  |   2444       5   2408      32 |   5    0      2359        81 |   1  42    0    0 9a0f |    2.044       0       5       0       5     42     42      0   2300     140       1  42    09a0f a70f      9.750 "
test,1583575834025036032,48," | 48  |   2444       5   2344      29 |   5    0      2313        60 |   1  42    0    0 9a0f |    2.044       0       5       0       5     42     42      0   2264     109       1  42    09a0f a70f      8.190 "
test,1583575834023164160,49," | 49  |   2444       5   2434       0 |   5    0      2392        42 |   1  58    0    0 bb0f |    2.044       0       5       0       5     58     58      0   2368      66       1  58    0bb0f a70f      8.190 "
test,1583575834022981888,51," | 51  |   2444       5   2435       0 |   5    0      2420        15 |   3  58    0    0 bb0f |    2.777       0       5       0       5     58     58      0   2411      24       2  58    0bb0f a70f      8.970 "
test,1583575834026350848,52," | 52  |   2444       5   2415      21 |   5    0      2313       123 |   1  23    0    0 390f |    1.983       0       5       0       5     23     23      0   2267     169       1  23    0390f a70f      9.570 "
test,1583575834029248000,53," | 53  |   2444       5   2418       0 |   5    0      2299       119 |   2  58    0    0 bb0f |    2.014       0       5       0       5     58     58      0   2270     148       1  58    0bb0f a70f      8.850 "
test,1583575834020909056,54," | 54  |   2444       5   2436       0 |   5    0      2396        40 |   1  58    0    0 bb0f |    2.075       0       5       0       5     58     58      0   2355      81       1  58    0bb0f a70f      8.250 "
test,1583575834031863808,55," | 55  |   2444       5   2423       0 |   5    0      2343        80 |   1  58    0    0 bb0f |    2.075       0       5       0       5     58     58      0   2322     101       1  58    0bb0f a70f      8.190 "
test,1583575834023740928,56," | 56  |   2444       5   2426       0 |   5    0      2383        43 |   2  58    0    0 bb0f |    2.807       0       5       0       5     58     58      0   2362      64       2  58    0bb0f a70f      9.720 "
test,1583575834045473024,57," | 57  |   2444       5   2381       0 |   1    2      2319        62 |  14  57   23    1 110f |   10.284       0       2       0       2     57     57      0   2181     200      14  57    1110f a70f     30.180 "
test,1583575834044580096,58," | 58  |   2444       5   2435       0 |   3    1      2406        29 |   7  58   57    1 bb0f |    1.739       0       3       0       3     58     58      0   2305     130       2  58    1bb0f a70f     30.300 "
test,1583575834027170816,5," |  5  |   2444       5   2442       0 |   4    0      2236       206 |   2  58    0    0 bb0f |    3.540       0       5       0       5     58     58      0   2192     250       3  58    0bb0f a70f      9.720 "
test,1583575834029912832,60," | 60  |   2444       5   2435       0 |   2    4      2282       153 |   1  57   58    0 110f |    1.983       0       5       0       5     57     57      0   2240     195       1  57    0110f a70f     12.180 "
test,1583575834025988096,61," | 61  |   2444       5   2434       0 |   5    0      2330       104 |   1  58    0    0 bb0f |    2.075       0       5       0       5     58     58      0   2262     172       1  58    0bb0f a70f      8.970 "
test,1583575834021637888,7," |  7  |   2444       5   2441       0 |   5    0      2403        38 |   2  58    0    0 bb0f |    2.807       0       5       0       5     58     58      0   2390      51       2  58    0bb0f a70f      8.940 "
test,1583575834024481024,9," |  9  |   2444       5   2440       0 |   5    0      2345        95 |   2  58    0    0 bb0f |    2.807       0       5       0       5     58     58      0   2333     107       2  58    0bb0f a70f      9.030 "
