test,1583575840273601024,10," | 10  |   2469       5   2441       0 |   5    0      2402        39 |   2   9    0    0 db0f |    2.044       0       5       0       5      9      9      0   2370      71       1   9    0db0f a70f      8.130 "
test,1583575840291086080,12," | 12  |   2469       5   2467       0 |   5    0      2446        21 |   3  24    0    0 530f |    4.913       0       1       0       1     24     24      0   2408      59       5  24    0530f a70f     30.390 "
test,1583575840292615936,13," | 13  |   2469       5   2465       0 |   5    0      2446        19 |   1   9    0    0 db0f |    2.807       0       4       0       4      9      9      0   2416      49       2   9    0db0f a70f     30.390 "
test,1583575840293398016,15," | 15  |   2469       5   2467       0 |   5    0      2380        87 |   2  24    0    0 530f |    4.241       0       2       0       2     24     24      0   2281     186       4  24    0530f a70f     30.390 "
test,1583575840277053952,16," | 16  |   2469       5   2465       0 |   5    0      2381        84 |   1  26    0    0 d60f |    1.983       0       5       0       5     26     26      0   2319     146       1  26    0d60f a70f     10.230 "
test,1583575840276899072,17," | 17  |   2469       5   2461       4 |   5    0      2434        31 |   3  26    0    0 d60f |    2.014       0       5       0       5     26     26      0   2359     106       1  26    0d60f a70f      8.220 "
test,1583575840274221824,18," | 18  |   2469       5   2464       0 |   5    0      2323       141 |   1  24    0    0 530f |    2.044       0       5       0       5     24     24      0   2213     251       1  24    0530f a70f      8.160 "
test,1583575840279195904,19," | 19  |   2469       5   2459       6 |   5    0      2430        35 |   4  26    0    0 d60f |    1.953       0       5       0       5     26     26      0   2352     113       1  26    0d60f a70f      8.850 "
test,1583575840270844928,1," |  1  |   2469       4   2466       0 |   5    0      2405        61 |   1   9    0    0 db0f |    2.716       0       5       0       5      9      9      0   2386      80       1   9    0db0f a70f      8.940 "
test,1583575840273339904,22," | 22  |   2469       5   2463       0 |   5    0      2444        19 |   4  24    0    0 530f |    2.746       0       5       0       5     24     24      0   2325     138       2  24    0530f a70f      8.940 "
test,1583575840278362880,23," | 23  |   2469       5   2407       0 |   5    0      2395        12 |   2  26    0    0 d60f |    2.716       0       5       0       5     26     26      0   2350      57       2  26    0d60f a70f     11.100 "
test,1583575840270489856,24," | 24  |   2469       5   2463       2 |   4    0      2443        22 |   2  24    0    1 530f |    1.739       0       4       0       4     24     24      0   2384      81       2  24    1530f a70f      6.480 "
test,1583575840269752064,26," | 26  |   2469       5   2463       2 |   4    0      2456         9 |   2  26    0    1 d60f |    1.739       0       4       0       4     26     26      0   2409      56       2  26    1d60f a70f      6.480 "
test,1583575840291296000,27," | 27  |   2469       5   2467       0 |   1    9      2397        70 |   2  24   26    0 530f |    0           0       0       0       8      0      0      0   2289     178       0  24    0530f a70f     30.360 "
test,1583575840275136000,28," | 28  |   2469       5   2463       2 |   5    6      2270       195 |   1  35   24    0 450f |    1.983       0       5       0       5     35     35      0   2188     277       1  35    0450f a70f      8.820 "
test,1583575840292311808,29," | 29  |   2469       5   2463       4 |   1    5      2197       270 |   3  24   26    0 530f |    0           0       0       0       8      0      0      0   2075     392       0  24    0530f a70f     30.360 "
test,1583575840278589952,30," | 30  |   2469       5   2465       0 |   5    6      2432        33 |   1  35   24    0 450f |    2.014       0       5       0       5     35     35      0   2353     112       1  35    0450f a70f      8.220 "
test,1583575840272768000,35," | 35  |   2469       5   2465       0 |   4    4      2358       107 |   5  35   24    1 450f |    1.739       0       4       0       4     35     35      0   2310     155       2  35    1450f a70f      6.480 "
test,1583575840281544960,40," | 40  |   2469       5   2429      32 |   5    0      2292       169 |   1  24    0    0 530f |    1.983       0       5       0       5     24     24      0   2231     230       1  24    0530f a70f      8.190 "
test,1583575840281999104,41," | 41  |   2469       5   2423      32 |   5    0      2431        24 |   2  24    0    0 530f |    2.716       0       5       0       5     24     24      0   2367      88       2  24    0530f a70f      8.940 "
test,1583575840273145088,42," | 42  |   2469       5   2430      35 |   5    0      2409        56 |   1  24    0    0 530f |    1.983       0       5       0       5     24     24      0   2345     120       1  24    0530f a70f      8.220 "
test,1583575840272263168,44," | 44  |   2469       5   2435      30 |   5    0      2404        61 |   1  24    0    0 530f |    2.777       0       5       0       5     24     24      0   2351     114       2  24    0530f a70f      8.820 "
test,1583575840272947968,45," | 45  |   2469       5   2441      24 |   5    1      2383        82 |   2  24   26    0 530f |    2.777       0       5       0       5     24     24      0   2336     129       2  24    0530f a70f      8.880 "
test,1583575840280944128,46," | 46  |   2469       5   2427      31 |   5    0      2348       110 |   2  24    0    0 530f |    2.716       0       5       0       5     24     24      0   2299     159       2  24    0530f a70f      8.940 "
test,1583575840282468096,47," | 47  |   2469       4   2433      32 |   5    0      2383        82 |   2  24    0    0 530f |    2.746       0       5       0       5     24     24      0   2324     141       2  24    0530f a70f      8.970 "
test,1583575840277440000,48," | 48  |   2469       5   2369      29 |   5    0      2338        60 |   2  24    0    0 530f |    2.716       0       5       0       5     24     24      0   2288     110       2  24    0530f a70f      8.910 "
test,1583575840274955008,49," | 49  |   2469       5   2459       0 |   5    0      2417        42 |   3  26    0    0 d60f |    4.211       0       5       0       5     26     26      0   2393      66       4  26    0d60f a70f     10.380 "
test,1583575840274024960,51," | 51  |   2469       5   2460       0 |   5    1      2444        16 |   2  26    9    0 d60f |    3.448       0       5       0       5     26     26      0   2435      25       3  26    0d60f a70f      9.630 "
test,1583575840279895040,52," | 52  |   2469       5   2440      21 |   5    0      2337       124 |   1  26    0    0 d60f |    2.014       0       5       0       5     26     26      0   2291     170       1  26    0d60f a70f      8.790 "
test,1583575840283983872,53," | 53  |   2469       5   2443       0 |   5    0      2321       122 |   3  26    0    0 d60f |    4.913       0       5       0       5     26     26      0   2292     151       5  26    0d60f a70f     11.070 "
test,1583575840291718912,54," | 54  |   2469       5   2461       0 |   5    0      2421        40 |   1   9    0    0 db0f |    2.075       0       4       0       4      9      9      0   2379      82       1   9    0db0f a70f     30.330 "
test,1583575840274676992,55," | 55  |   2469       5   2448       0 |   5    0      2367        81 |   3  26    0    0 d60f |    4.211       0       5       0       5     26     26      0   2346     102       4  26    0d60f a70f     10.410 "
test,1583575840273778944,56," | 56  |   2469       5   2451       0 |   5    0      2408        43 |   2  26    0    0 d60f |    2.716       0       5       0       5     26     26      0   2387      64       2  26    0d60f a70f      8.910 "
test,1583575840271968000,57," | 57  |   2469       5   2406       0 |   5    0      2344        62 |   1  26    0    0 d60f |    1.953       0       5       0       5     26     26      0   2205     201       1  26    0d60f a70f      8.160 "
test,1583575840280304896,58," | 58  |   2469       5   2460       0 |   5    0      2431        29 |   2  26    0    0 d60f |    3.479       0       5       0       5     26     26      0   2327     133       3  26    0d60f a70f     12.570 "
test,1583575840293721088,5," |  5  |   2469       5   2467       0 |   3    2      2261       206 |   3  24    9    0 530f |    5.676       0       1       0       1     24     24      0   2217     250       6  24    0530f a70f     30.360 "
test,1583575840271684864,60," | 60  |   2469       5   2460       0 |   5    0      2306       154 |   2  26    0    0 d60f |    2.716       0       5       0       5     26     26      0   2264     196       2  26    0d60f a70f      8.940 "
test,1583575840276553984,61," | 61  |   2469       5   2459       0 |   5    0      2354       105 |   2  26    0    0 d60f |    3.448       0       5       0       5     26     26      0   2284     175       3  26    0d60f a70f     11.820 "
test,1583575840271056896,7," |  7  |   2469       5   2466       0 |   5    0      2427        39 |   1   9    0    0 db0f |    2.014       0       5       0       5      9      9      0   2414      52       1   9    0db0f a70f      8.220 "
test,1583575840270235904,9," |  9  |   2469       5   2465       0 |   5    0      2370        95 |   2   9    0    1 db0f |    1.770       0       4       0       4      9      9      0   2358     107       2   9    1db0f a70f      6.510 "
