test,1583575725768093184,10," | 10  |   2011       5   1983       0 |   5    0      1957        26 |   1  51    0    0 530f |    0           0       0       5       5      0      9      0   1928      55       2  51    0530f a70f      8.970 "
test,1583575725771301120,12," | 12  |   2011       5   2009       0 |   5    0      1994        15 |   2  51    0    0 530f |    0           0       0       5       5      0      9      0   1964      45       1  51    0530f a70f      8.850 "
test,1583575725766855936,13," | 13  |   2011       5   2007       0 |   5    0      1990        17 |   2  51    0    0 530f |    0           0       0       5       5      0      9      0   1968      39       1  51    0530f a70f      8.280 "
test,1583575725789228032,15," | 15  |   2011       4   2009       0 |   1    5      1938        71 |   2  17   51    0 d60f |    0           0       0       0       8      0      0      0   1859     150       0  17    0d60f a70f     30.390 "
test,1583575725774136064,16," | 16  |   2011       5   2007       0 |   5    0      1935        72 |   2  17    0    0 d60f |    2.807       0       5       0       5     17     17      0   1885     122       2  17    0d60f a70f      8.970 "
test,1583575725770018048,17," | 17  |   2011       5   2006       1 |   4    0      1984        23 |   2  17    0    1 d60f |    1.770       0       4       0       4     17     17      0   1922      85       2  17    1d60f a70f      6.510 "
test,1583575725774977024,18," | 18  |   2011       5   2006       0 |   5    0      1891       115 |   3  17    0    0 d60f |    2.777       0       5       0       5     17     17      0   1803     203       2  17    0d60f a70f      8.820 "
test,1583575725770596864,19," | 19  |   2011       5   2005       2 |   5    0      1981        26 |   1  17    0    0 d60f |    2.075       0       5       0       5     17     17      0   1922      85       1  17    0d60f a70f      8.280 "
test,1583575725766535936,1," |  1  |   2011       4   2008       0 |   5    0      1956        52 |   1  51    0    0 530f |    0           0       0       5       5      0      9      0   1940      68       1  51    0530f a70f      8.850 "
test,1583575725772497920,22," | 22  |   2011       5   2005       0 |   5    0      1990        15 |   2  17    0    0 d60f |    2.777       0       5       0       5     17     17      0   1894     111       2  17    0d60f a70f      9.570 "
test,1583575725778073088,23," | 23  |   2011       5   1949       0 |   5    0      1938        11 |   1  17    0    0 d60f |    2.044       0       5       0       5     17     17      0   1901      48       1  17    0d60f a70f      8.250 "
test,1583575725769079040,24," | 24  |   2011       5   2007       0 |   5    0      1994        13 |   2  17    0    0 d60f |    2.075       0       5       0       5     17     17      0   1949      58       1  17    0d60f a70f      8.130 "
test,1583575725770350848,26," | 26  |   2011       5   2007       0 |   5    0      2000         7 |   1  17    0    0 d60f |    2.044       0       5       0       5     17     17      0   1964      43       1  17    0d60f a70f      8.160 "
test,1583575725791606016,27," | 27  |   2011       5   2009       0 |   5    0      1953        56 |   1  17    0    0 d60f |    2.777       0       3       0       3     17     17      0   1860     149       2  17    0d60f a70f     30.360 "
test,1583575725773459968,28," | 28  |   2011       5   2007       0 |   1    5      1854       153 |   2  17   35    0 d60f |    2.044       0       5       0       5     17     17      0   1792     215       1  17    0d60f a70f      8.250 "
test,1583575725790254080,29," | 29  |   2011       3   2005       4 |   0    1      1782       227 |   0  29   17    1 d50f |    0           0       0       0       8      0      0      0   1680     329       0  29    1d50f a70f     30.210 "
test,1583575725769473024,30," | 30  |   2011       5   2007       0 |   5    0      1978        29 |   1  35    0    0 ab0f |    2.044       0       5       0       5     35     35      0   1916      91       1  35    0ab0f a70f      8.160 "
test,1583575725774300928,35," | 35  |   2011       5   2007       0 |   4    0      1921        86 |   2  35    0    1 ab0f |    1.739       0       4       0       4     35     35      0   1882     125       2  35    1ab0f a70f      6.480 "
test,1583575725777268992,40," | 40  |   2011       5   1971      32 |   4    7      1856       147 |   4  48   45    0 6d0f |    2.075       0       5       0       5     48     48      0   1809     194       1  48    06d0f a70f      8.700 "
test,1583575725775505920,41," | 41  |   2011       5   1965      32 |   4    7      1978        19 |   2  48   45    0 6d0f |    2.807       0       5       0       5     48     48      0   1926      71       2  48    06d0f a70f     10.260 "
test,1583575725776561920,42," | 42  |   2011       5   1972      35 |   5    0      1956        51 |   1  48    0    0 6d0f |    2.014       0       5       0       5     48     48      0   1903     104       1  48    06d0f a70f      8.790 "
test,1583575725777053184,44," | 44  |   2011       5   1977      30 |   5    1      1956        51 |   1  45   48    0 720f |    1.983       0       5       0       5     45     45      0   1906     101       1  45    0720f a70f      8.160 "
test,1583575725772990976,45," | 45  |   2011       5   1983      24 |   4    5      1941        66 |   5  45   48    1 720f |    1.739       0       4       0       4     45     45      0   1899     108       2  45    1720f a70f      6.480 "
test,1583575725775237120,46," | 46  |   2011       5   1969      31 |   5    0      1907        93 |   1  48    0    0 6d0f |    1.983       0       5       0       5     48     48      0   1867     133       1  48    06d0f a70f      8.730 "
test,1583575725774470144,47," | 47  |   2011       5   1975      32 |   5    0      1937        70 |   1  48    0    0 6d0f |    2.075       0       5       0       5     48     48      0   1886     121       1  48    06d0f a70f      8.670 "
test,1583575725792921088,48," | 48  |   2011       5   1911      29 |   2    9      1887        53 |   6  48   45    1 6d0f |    8.148       0       2       0       2     48     48      0   1844      96      11  48    16d0f a70f     30.210 "
test,1583575725767784192,49," | 49  |   2011       5   2001       0 |   5    0      1967        34 |   4  51    0    0 530f |    0           0       0       5       5      0      9      0   1949      52       3  51    0530f a70f      9.660 "
test,1583575725769854976,51," | 51  |   2011       5   2002       0 |   5    0      1988        14 |   2  51    0    1 530f |    1.739       0       4       0       4     51     51      0   1983      19       2  51    1530f a70f      6.480 "
test,1583575725771926016,52," | 52  |   2011       2   1985      18 |   2    0      1900       103 |   2  17    0    0 d60f |    2.807       0       5       0       5     17     17      0   1861     142       2  17    0d60f a70f      9.720 "
test,1583575725772726016,53," | 53  |   2011       5   1985       0 |   5    0      1888        97 |   5  51    0    0 530f |    0           0       0       5       5      0      9      0   1866     119       4  51    0530f a70f     10.380 "
test,1583575725767047936,54," | 54  |   2011       5   2003       0 |   5    0      1975        28 |   2  51    0    0 530f |    0           0       0       5       5      0      9      0   1938      65       1  51    0530f a70f      8.940 "
test,1583575725768569856,55," | 55  |   2011       5   1990       0 |   5    0      1923        67 |   4  51    0    0 530f |    0           0       0       5       5      0      9      0   1908      82       3  51    0530f a70f      9.660 "
test,1583575725769291008,56," | 56  |   2011       5   1993       0 |   5    0      1963        30 |   1  51    0    0 530f |    2.014       0       5       0       5     51     51      0   1947      46       1  51    0530f a70f      8.220 "
test,1583575725789629952,57," | 57  |   2011       5   1948       0 |   1    2      1898        50 |   2  17   51    0 d60f |    0           0       0       0       8      0      0      0   1785     163       0  17    0d60f a70f     30.390 "
test,1583575725769686016,58," | 58  |   2011       5   2002       0 |   5    0      1977        25 |   3  51    0    0 530f |    0           0       0       5       5      0      9      0   1898     104       2  51    0530f a70f      9.570 "
test,1583575725789417984,5," |  5  |   2011       5   2009       0 |   1    8      1835       174 |   3  17   51    0 d60f |    0           0       0       0       8      0      0      0   1800     209       0  17    0d60f a70f     30.360 "
test,1583575725771003904,60," | 60  |   2011       5   2002       0 |   5    0      1871       131 |   1  51    0    0 530f |    2.014       0       5       0       5     51     51      0   1841     161       1  51    0530f a70f      8.250 "
test,1583575725788999168,61," | 61  |   2011       5   2001       0 |   1    9      1915        86 |   3  17   51    0 d60f |    0           0       0       0       8      0      0      0   1863     138       0  17    0d60f a70f     30.390 "
test,1583575725766144000,7," |  7  |   2011       5   2008       0 |   5    0      1977        31 |   2  51    0    0 530f |    0           0       0       5       5      0      9      0   1967      41       1  51    0530f a70f      8.070 "
test,1583575725776342016,9," |  9  |   2011       5   2007       0 |   0    9      1933        74 |   0   9   51    1 530f |    1.739       0       4       0       4      9      9      0   1923      84       2   9    1530f a70f      6.510 "
