test,1583575912521676032,10," | 10  |   2758       5   2730       0 |   5    0      2684        46 |   1  51    0    0 b50f |    2.014       0       5       0       5     51     51      0   2644      86       1  51    0b50f a70f      8.250 "
test,1583575912527457024,12," | 12  |   2758       5   2756       0 |   5    0      2733        23 |   2  51    0    0 b50f |    2.777       0       5       0       5     51     51      0   2688      68       2  51    0b50f a70f      8.970 "
test,1583575912523000064,13," | 13  |   2758       5   2754       0 |   5    0      2734        20 |   1  51    0    0 b50f |    2.014       0       5       0       5     51     51      0   2700      54       1  51    0b50f a70f      8.250 "
test,1583575912524723968,15," | 15  |   2758       5   2756       0 |   5    0      2655       101 |   3  51    0    0 b50f |    3.509       0       5       0       5     51     51      0   2544     212       3  51    0b50f a70f      9.570 "
test,1583575912533620224,16," | 16  |   2758       5   2754       0 |   5    0      2662        92 |   2  57    0    0 2e0f |    2.685       0       5       0       5     57     57      0   2594     160       2  57    02e0f a70f     10.320 "
test,1583575912530260992,17," | 17  |   2758       5   2749       5 |   5    0      2722        32 |   3  57    0    0 2e0f |    2.716       0       5       0       5     57     57      0   2637     117       2  57    02e0f a70f      8.940 "
test,1583575912545134080,18," | 18  |   2758       5   2753       0 |   1    8      2599       154 |   1  47   57    0 d50f |    2.044       0       1       0       1     47     47      0   2479     274       1  47    0d50f a70f     30.360 "
test,1583575912529139968,19," | 19  |   2758       5   2745       9 |   5    0      2709        45 |   2  57    0    0 2e0f |    3.479       0       5       0       5     57     57      0   2621     133       3  57    02e0f a70f      9.510 "
test,1583575912522241024,1," |  1  |   2758       4   2755       0 |   5    0      2690        65 |   1  51    0    0 b50f |    2.685       0       5       0       5     51     51      0   2669      86       1  51    0b50f a70f      8.910 "
test,1583575912540847104,22," | 22  |   2758       5   2752       0 |   5    0      2729        23 |   2  57    0    0 2e0f |    1.983       0       5       0       5     57     57      0   2599     153       1  57    02e0f a70f      8.190 "
test,1583575912527208192,23," | 23  |   2758       5   2696       0 |   5    0      2683        13 |   1  57    0    0 2e0f |    2.014       0       5       0       5     57     57      0   2629      67       1  57    02e0f a70f      9.630 "
test,1583575912524150016,24," | 24  |   2758       5   2752       2 |   5    0      2730        24 |   2  57    0    0 2e0f |    2.746       0       5       0       5     57     57      0   2664      90       2  57    02e0f a70f      8.910 "
test,1583575912523367936,26," | 26  |   2758       5   2752       2 |   5    0      2744        10 |   1  57    0    0 2e0f |    1.983       0       5       0       5     57     57      0   2692      62       1  57    02e0f a70f      8.910 "
test,1583575912545768960,27," | 27  |   2758       5   2756       0 |   5    0      2678        78 |   2  57    0    0 2e0f |    2.746       0       4       0       4     57     57      0   2561     195       2  57    02e0f a70f     30.360 "
test,1583575912543607040,28," | 28  |   2758       4   2751       3 |   0    9      2539       215 |   0  28   30    1 9a0f |    0           0       0       0       8      0      0      0   2443     311       0  28    19a0f a70f     30.270 "
test,1583575912545340928,29," | 29  |   2758       5   2752       4 |   4    0      2454       302 |   3  57    0    0 2e0f |    3.479       0       3       0       3     57     57      0   2316     440       3  57    02e0f a70f     30.300 "
test,1583575912522671104,30," | 30  |   2758       5   2754       0 |   4    5      2717        37 |   5  30   28    1 100f |    1.739       0       4       0       4     30     30      0   2626     128       2  30    1100f a70f      6.480 "
test,1583575912526168064,35," | 35  |   2758       5   2754       0 |   5    3      2629       125 |   1  30   57    0 100f |    1.983       0       5       0       5     30     30      0   2573     181       1  30    0100f a70f      8.100 "
test,1583575912542821888,40," | 40  |   2758       5   2714      36 |   0    2      2570       180 |   0  40   47    1 ea0f |    0           0       0       0       8      0      0      0   2503     247       0  40    1ea0f a70f     30.150 "
test,1583575912528742144,41," | 41  |   2758       5   2708      36 |   4    7      2717        27 |   1  47   40    0 d50f |    2.014       0       5       0       5     47     47      0   2643     101       1  47    0d50f a70f      9.000 "
test,1583575912527721984,42," | 42  |   2758       5   2715      39 |   4    1      2693        61 |   1  47   57    0 d50f |    2.044       0       5       0       5     47     47      0   2625     129       1  47    0d50f a70f      8.280 "
test,1583575912524913920,44," | 44  |   2758       5   2720      34 |   5    0      2689        65 |   1  47    0    0 d50f |    2.044       0       5       0       5     47     47      0   2634     120       1  47    0d50f a70f      8.130 "
test,1583575912529475840,45," | 45  |   2758       5   2728      26 |   4    5      2665        89 |   2  47   40    0 d50f |    2.777       0       5       0       5     47     47      0   2614     140       2  47    0d50f a70f      8.820 "
test,1583575912525147904,46," | 46  |   2758       5   2712      35 |   5    0      2625       122 |   2  47    0    0 d50f |    2.777       0       5       0       5     47     47      0   2572     175       2  47    0d50f a70f      9.000 "
test,1583575912521855232,47," | 47  |   2758       5   2719      35 |   3    7      2658        96 |   5  47   40    1 d50f |    1.739       0       4       0       4     47     47      0   2597     157       2  47    1d50f a70f      6.480 "
test,1583575912545947904,48," | 48  |   2758       5   2654      33 |   2    7      2624        63 |   4  47   40    0 d50f |    2.746       0       3       0       3     47     47      0   2570     117       2  47    0d50f a70f     30.360 "
test,1583575912523611904,49," | 49  |   2758       5   2748       0 |   5    4      2700        48 |   1  53   51    0 1b0f |    2.075       0       5       0       5     53     53      0   2672      76       1  53    01b0f a70f      8.280 "
test,1583575912521472000,51," | 51  |   2758       5   2749       0 |   4    0      2730        19 |   2  51    0    1 b50f |    1.770       0       4       0       4     51     51      0   2722      27       2  51    1b50f a70f      6.510 "
test,1583575912528456960,52," | 52  |   2758       4   2727      23 |   3    0      2616       134 |   2  57    0    0 2e0f |    2.746       0       5       0       5     57     57      0   2562     188       2  57    02e0f a70f      9.660 "
test,1583575912526571008,53," | 53  |   2758       5   2732       0 |   4    0      2599       133 |   5  53    0    1 1b0f |    1.739       0       4       0       4     53     53      0   2565     167       2  53    11b0f a70f      6.480 "
test,1583575912526885888,54," | 54  |   2758       5   2750       0 |   5    0      2703        47 |   2  51    0    0 b50f |    2.716       0       5       0       5     51     51      0   2658      92       2  51    0b50f a70f      9.630 "
test,1583575912525831936,55," | 55  |   2758       5   2737       0 |   5    4      2644        93 |   1  53   51    0 1b0f |    2.044       0       5       0       5     53     53      0   2619     118       1  53    01b0f a70f      8.190 "
test,1583575912522462976,56," | 56  |   2758       5   2740       0 |   5    0      2694        46 |   1  51    0    0 b50f |    2.014       0       5       0       5     51     51      0   2672      68       1  51    0b50f a70f      8.250 "
test,1583575912544598016,57," | 57  |   2758       5   2695       0 |   1    0      2626        69 |  11  57    0    1 2e0f |    8.331       0       1       0       1     57     57      0   2469     226      11  57    12e0f a70f     30.300 "
test,1583575912525437184,58," | 58  |   2758       5   2749       0 |   4    1      2717        32 |   4  51   53    0 b50f |    3.479       0       5       0       5     51     51      0   2603     146       3  51    0b50f a70f     10.410 "
test,1583575912523847936,5," |  5  |   2758       5   2756       0 |   5    0      2525       231 |   2  51    0    0 b50f |    2.777       0       5       0       5     51     51      0   2474     282       2  51    0b50f a70f      8.910 "
test,1583575912524321024,60," | 60  |   2758       5   2749       0 |   5    0      2575       174 |   1  51    0    0 b50f |    1.983       0       5       0       5     51     51      0   2530     219       1  51    0b50f a70f      8.250 "
test,1583575912531064064,61," | 61  |   2758       5   2748       0 |   5    0      2631       117 |   3  51    0    0 b50f |    2.746       0       5       0       5     51     51      0   2550     198       2  51    0b50f a70f      9.000 "
test,1583575912526036992,7," |  7  |   2758       5   2755       0 |   5    0      2712        43 |   1  51    0    0 b50f |    2.014       0       5       0       5     51     51      0   2698      57       1  51    0b50f a70f      8.940 "
test,1583575912525676032,9," |  9  |   2758       5   2754       0 |   5    0      2645       109 |   2  51    0    0 b50f |    2.777       0       5       0       5     51     51      0   2631     123       2  51    0b50f a70f      8.850 "
