test,1583575766028243968,10," | 10  |   2172       5   2144       0 |   4    2      2113        31 |   3  27   56    0 b80f |    4.913       0       5       0       5     27     27      0   2083      61       5  27    0b80f a70f     11.100 "
test,1583575766025302016,12," | 12  |   2172       5   2170       0 |   5    0      2150        20 |   2  27    0    0 b80f |    2.777       0       5       0       5     27     27      0   2116      54       2  27    0b80f a70f      8.880 "
test,1583575766025580032,13," | 13  |   2172       5   2168       0 |   5    0      2151        17 |   2  27    0    0 b80f |    3.448       0       5       0       5     27     27      0   2124      44       3  27    0b80f a70f     11.820 "
test,1583575766022397952,15," | 15  |   2172       5   2170       0 |   5    0      2094        76 |   1  27    0    0 b80f |    1.983       0       5       0       5     27     27      0   2005     165       1  27    0b80f a70f      8.220 "
test,1583575766038875136,16," | 16  |   2172       5   2168       0 |   2    9      2092        76 |   2  27   44    0 b80f |    0           0       0       0       8      0      0      0   2037     131       0  27    0b80f a70f     30.360 "
test,1583575766023266048,17," | 17  |   2172       5   2167       1 |   3    9      2142        26 |   1  19   44    0 750f |    4.058       0       5       0       5     19     19      0   2077      91       4  19    0750f a70f     10.080 "
test,1583575766026607872,18," | 18  |   2172       5   2167       0 |   5    0      2043       124 |   3  26    0    0 510f |    2.044       0       5       0       5     26     26      0   1954     213       1  26    0510f a70f      8.940 "
test,1583575766022088960,19," | 19  |   2172       5   2166       2 |   3    2      2140        28 |   2  19   26    1 750f |    3.814       0       4       0       4     19     19      0   2076      92       5  19    1750f a70f      8.520 "
test,1583575766025007104,1," |  1  |   2172       4   2169       0 |   5    0      2114        55 |   3  27    0    0 b80f |    4.150       0       5       0       5     27     27      0   2096      73       3  27    0b80f a70f     10.290 "
test,1583575766023879168,22," | 22  |   2172       5   2166       0 |   5    0      2150        16 |   2  26    0    0 510f |    2.044       0       5       0       5     26     26      0   2050     116       1  26    0510f a70f      8.820 "
test,1583575766037635072,23," | 23  |   2172       5   2110       0 |   3    3      2098        12 |   1  27   26    0 b80f |    0           0       0       0       8      0      0      0   2058      52       0  27    0b80f a70f     30.390 "
test,1583575766021199872,24," | 24  |   2172       5   2168       0 |   5    0      2152        16 |   1  26    0    0 510f |    2.075       0       5       0       5     26     26      0   2106      62       1  26    0510f a70f      8.280 "
test,1583575766020230144,26," | 26  |   2172       5   2168       0 |   4    0      2159         9 |   4  26    0    1 510f |    1.739       0       4       0       4     26     26      0   2121      47       2  26    1510f a70f      6.480 "
test,1583575766039633920,27," | 27  |   2172       5   2170       0 |   4    0      2109        61 |   2  27    0    1 b80f |    1.739       0       1       0       1     27     27      0   2012     158       2  27    1b80f a70f     30.300 "
test,1583575766042259968,28," | 28  |   2172       4   2168       0 |   1    9      2000       168 |   1  19   30    0 750f |    9.246       0       2       0       2     19     19      0   1936     232      11  19    0750f a70f     30.360 "
test,1583575766043155968,29," | 29  |   2172       4   2166       4 |   5    0      1929       241 |   1  27    0    0 b80f |    2.746       0       1       0       1     27     27      0   1818     352       2  27    0b80f a70f     30.330 "
test,1583575766020546816,30," | 30  |   2172       5   2168       0 |   4    1      2139        29 |  11  30   26    1 9b0f |    1.739       0       4       0       4     30     30      0   2073      95       2  30    19b0f a70f      6.480 "
test,1583575766027930880,35," | 35  |   2172       5   2168       0 |   5    1      2073        95 |   1  30   26    0 9b0f |    2.014       0       5       0       5     30     30      0   2032     136       1  30    09b0f a70f      8.160 "
test,1583575766027458048,40," | 40  |   2172       5   2132      32 |   3    4      2009       155 |   1  44   26    0 e20f |    2.014       0       5       0       5     44     44      0   1960     204       1  44    0e20f a70f      8.070 "
test,1583575766021689856,41," | 41  |   2172       5   2126      32 |   5    3      2136        22 |   1  44   19    0 e20f |    2.014       0       5       0       5     44     44      0   2083      75       1  44    0e20f a70f      8.910 "
test,1583575766022665984,42," | 42  |   2172       5   2133      35 |   5    4      2115        53 |   1  44   26    0 e20f |    1.983       0       5       0       5     44     44      0   2059     109       1  44    0e20f a70f      8.070 "
test,1583575766015141120,44," | 44  |   2172       5   2138      30 |   4    6      2115        53 |   5  44   26    1 e20f |    1.739       0       4       0       4     44     44      0   2064     104       2  44    1e20f a70f      6.510 "
test,1583575766022944000,45," | 45  |   2172       5   2144      24 |   5    2      2094        74 |   1  44   27    0 e20f |    1.983       0       5       0       5     44     44      0   2053     115       1  44    0e20f a70f      8.220 "
test,1583575766024580096,46," | 46  |   2172       5   2130      31 |   5    0      2061       100 |   1  44    0    0 e20f |    1.983       0       5       0       5     44     44      0   2020     141       1  44    0e20f a70f      8.220 "
test,1583575766027257856,47," | 47  |   2172       5   2136      32 |   5    4      2096        72 |   1  44   26    0 e20f |    1.983       0       5       0       5     44     44      0   2043     125       1  44    0e20f a70f      8.250 "
test,1583575766020736000,48," | 48  |   2172       5   2072      29 |   5    4      2045        56 |   1  44   26    0 e20f |    1.983       0       5       0       5     44     44      0   2000     101       1  44    0e20f a70f      8.190 "
test,1583575766019821824,49," | 49  |   2172       5   2162       0 |   5    0      2123        39 |   2  49    0    1 260f |    1.770       0       4       0       4     49     49      0   2103      59       2  49    1260f a70f      6.510 "
test,1583575766019629056,51," | 51  |   2172       5   2163       0 |   5    0      2149        14 |   1  56    0    0 600f |    2.075       0       5       0       5     56     56      0   2143      20       1  56    0600f a70f      8.280 "
test,1583575766043489024,52," | 52  |   2172       4   2145      19 |   1    6      2052       112 |   1  19   26    0 750f |    9.948       0       1       0       1     19     19      0   2010     154      12  19    0750f a70f     30.360 "
test,1583575766023714048,53," | 53  |   2172       5   2146       0 |   5    0      2042       104 |   1  49    0    0 260f |    2.044       0       5       0       5     49     49      0   2017     129       1  49    0260f a70f      8.220 "
test,1583575766023143936,54," | 54  |   2172       5   2164       0 |   3    1      2131        33 |   3  27   49    0 b80f |    4.211       0       5       0       5     27     27      0   2092      72       4  27    0b80f a70f     11.850 "
test,1583575766019233024,55," | 55  |   2172       5   2151       0 |   5    0      2079        72 |   1  49    0    0 260f |    2.014       0       5       0       5     49     49      0   2062      89       1  49    0260f a70f      8.250 "
test,1583575766018887168,56," | 56  |   2172       5   2154       0 |   5    0      2118        36 |   2  56    0    1 600f |    1.739       0       4       0       4     56     56      0   2102      52       2  56    1600f a70f      6.480 "
test,1583575766040934144,57," | 57  |   2172       5   2109       0 |   2    4      2054        55 |   2  27   56    0 b80f |    0           0       0       0       8      0      0      0   1934     175       0  27    0b80f a70f     30.390 "
test,1583575766021414912,58," | 58  |   2172       5   2163       0 |   5    0      2136        27 |   1  49    0    0 260f |    2.044       0       5       0       5     49     49      0   2049     114       1  49    0260f a70f      9.000 "
test,1583575766031422976,5," |  5  |   2172       5   2170       0 |   5    0      1985       185 |   3  27    0    0 b80f |    3.479       0       5       0       5     27     27      0   1945     225       3  27    0b80f a70f      9.660 "
test,1583575766039194112,60," | 60  |   2172       5   2163       0 |   2    5      2019       144 |   3  27   56    0 b80f |    0           0       0       0       8      0      0      0   1988     175       0  27    0b80f a70f     30.390 "
test,1583575766023441152,61," | 61  |   2172       5   2162       0 |   5    0      2069        93 |   2  49    0    0 260f |    2.777       0       5       0       5     49     49      0   2011     151       2  49    0260f a70f      9.630 "
test,1583575766022228992,7," |  7  |   2172       5   2169       0 |   5    0      2135        34 |   3  27    0    0 b80f |    3.448       0       5       0       5     27     27      0   2122      47       3  27    0b80f a70f     10.380 "
test,1583575766024420864,9," |  9  |   2172       5   2168       0 |   5    0      2087        81 |   3  27    0    0 b80f |    3.479       0       5       0       5     27     27      0   2075      93       3  27    0b80f a70f      9.720 "
