test,1583575902034008064,10," | 10  |   2716       5   2688       0 |   5    0      2643        45 |   3  58    0    0 680f |    3.509       0       5       0       5     58     58      0   2604      84       3  58    0680f a70f     10.260 "
test,1583575902022449920,12," | 12  |   2716       5   2714       0 |   5    0      2693        21 |   2  58    0    0 680f |    2.044       0       5       0       5     58     58      0   2652      62       1  58    0680f a70f      8.310 "
test,1583575902028184832,13," | 13  |   2716       5   2712       0 |   5    0      2692        20 |   4  58    0    0 680f |    3.540       0       5       0       5     58     58      0   2659      53       3  58    0680f a70f      9.750 "
test,1583575902045054976,15," | 15  |   2716       5   2714       0 |   4    1      2616        98 |   6  58   28    0 680f |    4.211       0       4       0       4     58     58      0   2509     205       4  58    0680f a70f     30.390 "
test,1583575902031049984,16," | 16  |   2716       5   2712       0 |   5    0      2621        91 |   2  57    0    0 190f |    2.716       0       5       0       5     57     57      0   2553     159       2  57    0190f a70f      8.910 "
test,1583575902028503808,17," | 17  |   2716       5   2707       5 |   5    0      2680        32 |   2  57    0    0 190f |    2.777       0       5       0       5     57     57      0   2597     115       2  57    0190f a70f      9.000 "
test,1583575902024719104,18," | 18  |   2716       5   2711       0 |   5    0      2558       153 |   2  57    0    0 190f |    2.746       0       5       0       5     57     57      0   2439     272       2  57    0190f a70f      9.660 "
test,1583575902025108992,19," | 19  |   2716       5   2703       9 |   5    0      2669        43 |   2  57    0    0 190f |    2.014       0       5       0       5     57     57      0   2582     130       1  57    0190f a70f      9.570 "
test,1583575902028333824,1," |  1  |   2716       4   2713       0 |   5    0      2648        65 |   2  58    0    0 680f |    3.479       0       5       0       5     58     58      0   2628      85       2  58    0680f a70f      9.570 "
test,1583575902024014848,22," | 22  |   2716       5   2710       0 |   5    0      2688        22 |   1  57    0    0 190f |    2.014       0       5       0       5     57     57      0   2559     151       1  57    0190f a70f      8.970 "
test,1583575902030590976,23," | 23  |   2716       5   2654       0 |   5    0      2641        13 |   1  57    0    0 190f |    2.044       0       5       0       5     57     57      0   2589      65       1  57    0190f a70f      8.970 "
test,1583575902023191808,24," | 24  |   2716       5   2710       2 |   5    0      2688        24 |   2  57    0    0 190f |    2.746       0       5       0       5     57     57      0   2622      90       2  57    0190f a70f      8.970 "
test,1583575902026020096,26," | 26  |   2716       5   2710       2 |   5    0      2702        10 |   1  57    0    0 190f |    2.014       0       5       0       5     57     57      0   2650      62       1  57    0190f a70f      8.130 "
test,1583575902027829760,27," | 27  |   2716       5   2714       0 |   5    0      2637        77 |   2  57    0    0 190f |    2.746       0       5       0       5     57     57      0   2522     192       2  57    0190f a70f      8.970 "
test,1583575902046214144,28," | 28  |   2716       4   2709       3 |   3    6      2501       211 |   8  28   57    1  60f |    1.770       0       3       0       3     28     28      0   2407     305       2  28    1 60f a70f     30.300 "
test,1583575902028947200,29," | 29  |   2716       5   2710       4 |   4    0      2418       296 |   3  57    0    0 190f |    3.448       0       5       0       5     57     57      0   2283     431       3  57    0190f a70f      9.630 "
test,1583575902043878912,30," | 30  |   2716       5   2712       0 |   4    8      2676        36 |   1  28   57    0  60f |    2.044       0       3       0       3     28     28      0   2585     127       1  28    0 60f a70f     30.270 "
test,1583575902045595904,35," | 35  |   2716       5   2712       0 |   4    3      2587       125 |   4  57   28    0 190f |    6.408       0       2       0       2     57     57      0   2531     181       7  57    0190f a70f     30.300 "
test,1583575902029299968,40," | 40  |   2716       5   2676      32 |   5    0      2532       176 |   3  57    0    0 190f |    3.448       0       5       0       5     57     57      0   2467     241       3  57    0190f a70f     11.070 "
test,1583575902025656832,41," | 41  |   2716       5   2670      32 |   5    0      2675        27 |   3  57    0    0 190f |    3.417       0       5       0       5     57     57      0   2605      97       3  57    0190f a70f     10.350 "
test,1583575902027439104,42," | 42  |   2716       5   2677      35 |   5    0      2652        60 |   2  57    0    0 190f |    3.448       0       5       0       5     57     57      0   2586     126       3  57    0190f a70f     10.380 "
test,1583575902030126080,44," | 44  |   2716       5   2682      30 |   5    0      2649        63 |   3  57    0    0 190f |    3.509       0       5       0       5     57     57      0   2595     117       3  57    0190f a70f     10.290 "
test,1583575902045278976,45," | 45  |   2716       5   2688      24 |   5    0      2623        89 |   4  57    0    0 190f |    3.479       0       4       0       4     57     57      0   2574     138       3  57    0190f a70f     30.300 "
test,1583575902027054080,46," | 46  |   2716       5   2674      31 |   5    0      2585       120 |   4  57    0    0 190f |    3.479       0       5       0       5     57     57      0   2534     171       3  57    0190f a70f      9.690 "
test,1583575902044852992,47," | 47  |   2716       4   2680      32 |   5    0      2618        94 |   3  57    0    0 190f |    3.479       0       4       0       4     57     57      0   2556     156       3  57    0190f a70f     30.330 "
test,1583575902025462016,48," | 48  |   2716       5   2616      29 |   5    0      2583        62 |   2  57    0    0 190f |    2.746       0       5       0       5     57     57      0   2530     115       2  57    0190f a70f      9.660 "
test,1583575902024549120,49," | 49  |   2716       5   2706       0 |   5    0      2661        45 |   1  58    0    0 680f |    2.075       0       5       0       5     58     58      0   2633      73       1  58    0680f a70f      8.220 "
test,1583575902026212864,51," | 51  |   2716       5   2707       0 |   5    0      2689        18 |   1  57    0    0 190f |    2.014       0       5       0       5     57     57      0   2680      27       1  57    0190f a70f      8.940 "
test,1583575902028785920,52," | 52  |   2716       5   2686      22 |   5    0      2574       134 |   2  57    0    0 190f |    2.716       0       5       0       5     57     57      0   2522     186       2  57    0190f a70f      8.910 "
test,1583575902029844992,53," | 53  |   2716       5   2690       0 |   5    0      2559       131 |   2  58    0    0 680f |    2.746       0       5       0       5     58     58      0   2526     164       2  58    0680f a70f      8.970 "
test,1583575902023721984,54," | 54  |   2716       5   2708       0 |   5    0      2662        46 |   1  58    0    0 680f |    2.044       0       5       0       5     58     58      0   2617      91       1  58    0680f a70f      9.570 "
test,1583575902023473152,55," | 55  |   2716       5   2695       0 |   5    0      2603        92 |   1  58    0    0 680f |    2.044       0       5       0       5     58     58      0   2578     117       1  58    0680f a70f      8.190 "
test,1583575902021553152,56," | 56  |   2716       5   2698       0 |   5    0      2652        46 |   2  57    0    0 190f |    2.014       0       5       0       5     57     57      0   2630      68       1  57    0190f a70f      8.130 "
test,1583575902021341952,57," | 57  |   2716       5   2653       0 |   4    0      2584        69 |   3  57    0    1 190f |    1.739       0       4       0       4     57     57      0   2427     226       2  57    1190f a70f      6.480 "
test,1583575902035334144,58," | 58  |   2716       5   2707       0 |   4    0      2676        31 |   2  58    0    1 680f |    1.739       0       4       0       4     58     58      0   2562     145       2  58    1680f a70f      9.360 "
test,1583575902024299008,5," |  5  |   2716       5   2714       0 |   5    0      2485       229 |   3  58    0    0 680f |    2.807       0       5       0       5     58     58      0   2438     276       2  58    0680f a70f      8.940 "
test,1583575902022631936,60," | 60  |   2716       5   2707       0 |   5    0      2535       172 |   1  57    0    0 190f |    2.014       0       5       0       5     57     57      0   2491     216       1  57    0190f a70f      8.130 "
test,1583575902027286016,61," | 61  |   2716       5   2706       0 |   5    0      2591       115 |   1  58    0    0 680f |    2.044       0       5       0       5     58     58      0   2510     196       1  58    0680f a70f     10.440 "
test,1583575902022814976,7," |  7  |   2716       5   2713       0 |   5    0      2671        42 |   2  58    0    0 680f |    2.777       0       5       0       5     58     58      0   2657      56       2  58    0680f a70f      8.910 "
test,1583575902024924160,9," |  9  |   2716       5   2712       0 |   5    0      2604       108 |   2  58    0    0 680f |    2.807       0       5       0       5     58     58      0   2591     121       2  58    0680f a70f      9.030 "
