test,1583575962277240064,10," | 10  |   2957       5   2929       0 |   5    0      2882        47 |   4  10    0    1 2e0f |    1.739       0       4       0       4     10     10      0   2839      90       2  10    12e0f a70f      6.510 "
test,1583575962275057152,12," | 12  |   2957       5   2955       0 |   5    0      2931        24 |   6  10    0    0 2e0f |    2.746       0       5       0       5     10     10      0   2882      73       2  10    02e0f a70f      8.940 "
test,1583575962272973056,13," | 13  |   2957       5   2953       0 |   5    0      2933        20 |   1  10    0    0 2e0f |    2.044       0       5       0       5     10     10      0   2899      54       1  10    02e0f a70f      8.160 "
test,1583575962291923968,15," | 15  |   2957       5   2955       0 |   1    8      2843       112 |   6  22    5    0 b30f |    0           0       0       0       8      0      0      0   2721     234       0  22    0b30f a70f     30.390 "
test,1583575962277057792,16," | 16  |   2957       5   2953       0 |   5    0      2849       104 |   2  44    0    0 cd0f |    4.211       0       5       0       5     44     44      0   2778     175       4  44    0cd0f a70f     10.410 "
test,1583575962281227008,17," | 17  |   2957       5   2948       5 |   5    0      2921        32 |   2  44    0    0 cd0f |    5.706       0       5       0       5     44     44      0   2833     120       6  44    0cd0f a70f     12.570 "
test,1583575962297020928,18," | 18  |   2957       5   2952       0 |   3    4      2791       161 |   1  22   44    0 b30f |    2.044       0       4       0       4     22     22      0   2669     283       1  22    0b30f a70f     30.360 "
test,1583575962288579072,19," | 19  |   2957       5   2944       9 |   5    0      2906        47 |   2  44    0    0 cd0f |    5.706       0       5       0       5     44     44      0   2817     136       6  44    0cd0f a70f     13.320 "
test,1583575962274582016,1," |  1  |   2957       4   2954       0 |   5    0      2886        68 |   1  10    0    0 2e0f |    2.685       0       5       0       5     10     10      0   2865      89       1  10    02e0f a70f      8.910 "
test,1583575962297404160,22," | 22  |   2957       5   2951       0 |   1    5      2927        24 |   2  22   44    1 b30f |    1.739       0       3       0       3     22     22      0   2793     158       2  22    1b30f a70f     30.300 "
test,1583575962278199808,23," | 23  |   2957       5   2895       0 |   5    0      2881        14 |   2  44    0    0 cd0f |    4.974       0       5       0       5     44     44      0   2824      71       5  44    0cd0f a70f     11.160 "
test,1583575962279115008,24," | 24  |   2957       5   2951       2 |   5    0      2928        25 |   1  44    0    0 cd0f |    6.408       0       5       0       5     44     44      0   2859      94       7  44    0cd0f a70f     12.570 "
test,1583575962278487808,26," | 26  |   2957       5   2951       2 |   5    0      2942        11 |   1  44    0    0 cd0f |    5.706       0       5       0       5     44     44      0   2888      65       6  44    0cd0f a70f     11.850 "
test,1583575962279876096,27," | 27  |   2957       5   2955       0 |   5    0      2870        85 |   3  44    0    0 cd0f |    5.737       0       5       0       5     44     44      0   2746     209       6  44    0cd0f a70f     11.820 "
test,1583575962285188864,28," | 28  |   2957       5   2950       3 |   4    0      2725       228 |   2  22    0    0 b30f |    2.044       0       5       0       5     22     22      0   2619     334       1  22    0b30f a70f      9.600 "
test,1583575962296581888,29," | 29  |   2957       5   2950       5 |   5    0      2628       327 |   3  44    0    0 cd0f |    6.439       0       3       0       3     44     44      0   2488     467       7  44    0cd0f a70f     30.300 "
test,1583575962273910016,30," | 30  |   2957       5   2953       0 |   5    0      2912        41 |   1  22    0    0 b30f |    2.014       0       5       0       5     22     22      0   2815     138       1  22    0b30f a70f      8.940 "
test,1583575962276190976,35," | 35  |   2957       5   2953       0 |   5    0      2817       136 |   1  22    0    0 b30f |    2.014       0       5       0       5     22     22      0   2757     196       1  22    0b30f a70f      8.220 "
test,1583575962295798016,40," | 40  |   2957       5   2898      51 |   1    0      2755       194 |   4  22    0    0 b30f |    0           0       0       0       8      0      0      0   2681     268       0  22    0b30f a70f     30.360 "
test,1583575962294609152,41," | 41  |   2957       5   2893      50 |   1    3      2915        28 |   3  22   46    0 b30f |    0           0       0       0       8      0      0      0   2837     106       0  22    0b30f a70f     30.390 "
test,1583575962293138944,42," | 42  |   2957       5   2900      53 |   1    0      2881        72 |   3  22    0    0 b30f |    0           0       0       0       8      0      0      0   2807     146       0  22    0b30f a70f     30.390 "
test,1583575962275456000,44," | 44  |   2957       5   2905      48 |   1    0      2882        71 |   4  44    0    1 cd0f |    1.739       0       4       0       4     44     44      0   2822     131       2  44    1cd0f a70f      6.480 "
test,1583575962276670976,45," | 45  |   2957       5   2918      35 |   1    0      2856        97 |   1  44    0    0 cd0f |    2.044       0       5       0       5     44     44      0   2801     152       1  44    0cd0f a70f      8.160 "
test,1583575962294401024,46," | 46  |   2957       5   2897      49 |   0    1      2814       132 |   0  46   48    1 7d0f |    0           0       0       0       8      0      0      0   2757     189       0  46    17d0f a70f     30.300 "
test,1583575962293889024,47," | 47  |   2957       5   2905      48 |   1    1      2848       105 |   4  22   48    0 b30f |    0           0       0       0       8      0      0      0   2784     169       0  22    0b30f a70f     30.390 "
test,1583575962291068928,48," | 48  |   2957       5   2840      46 |   0    1      2814        72 |   0  48   22    1 ad0f |    0           0       0       0       8      0      0      0   2753     133       0  48    1ad0f a70f     30.180 "
test,1583575962277817088,49," | 49  |   2957       5   2947       0 |   5    0      2895        52 |   2  49    0    1 d90f |    1.739       0       4       0       4     49     49      0   2866      81       2  49    1d90f a70f      6.480 "
test,1583575962273509120,51," | 51  |   2957       5   2948       0 |   5    0      2925        23 |   1  10    0    0 2e0f |    1.983       0       5       0       5     10     10      0   2915      33       1  10    02e0f a70f      8.220 "
test,1583575962280945920,52," | 52  |   2957       5   2926      23 |   5    0      2807       142 |   2  44    0    0 cd0f |    4.943       0       5       0       5     44     44      0   2750     199       5  44    0cd0f a70f     11.130 "
test,1583575962278824960,53," | 53  |   2957       5   2931       0 |   5    0      2786       145 |   1  49    0    0 d90f |    2.014       0       5       0       5     49     49      0   2749     182       1  49    0d90f a70f      8.160 "
test,1583575962277561856,54," | 54  |   2957       5   2949       0 |   4    1      2900        49 |   1  10   49    0 2e0f |    2.044       0       5       0       5     10     10      0   2852      97       1  10    02e0f a70f      8.190 "
test,1583575962276408832,55," | 55  |   2957       5   2936       0 |   5    0      2835       101 |   1  49    0    0 d90f |    2.014       0       5       0       5     49     49      0   2808     128       1  49    0d90f a70f      8.940 "
test,1583575962272672768,56," | 56  |   2957       5   2939       0 |   5    1      2892        47 |   1  10   44    0 2e0f |    2.044       0       5       0       5     10     10      0   2866      73       1  10    02e0f a70f      8.100 "
test,1583575962280483072,57," | 57  |   2957       5   2894       0 |   3    2      2823        71 |   2  44   10    0 cd0f |    6.408       0       5       0       5     44     44      0   2654     240       7  44    0cd0f a70f     12.540 "
test,1583575962282063872,58," | 58  |   2957       5   2948       0 |   5    0      2913        35 |   1  49    0    0 d90f |    2.044       0       5       0       5     49     49      0   2792     156       1  49    0d90f a70f      8.970 "
test,1583575962293329920,5," |  5  |   2957       5   2955       0 |   0    7      2708       247 |   0   5   10    1 560f |    0           0       0       0       8      0      0      0   2653     302       0   5    1560f a70f     30.180 "
test,1583575962275677952,60," | 60  |   2957       5   2948       0 |   5    0      2756       192 |   2  10    0    0 2e0f |    2.716       0       5       0       5     10     10      0   2708     240       2  10    02e0f a70f      8.940 "
test,1583575962279301888,61," | 61  |   2957       5   2947       0 |   5    0      2822       125 |   2  49    0    0 d90f |    2.746       0       5       0       5     49     49      0   2736     211       2  49    0d90f a70f      9.660 "
test,1583575962274057984,7," |  7  |   2957       5   2954       0 |   5    0      2906        48 |   1  10    0    0 2e0f |    2.014       0       5       0       5     10     10      0   2890      64       1  10    02e0f a70f      8.190 "
test,1583575962275975936,9," |  9  |   2957       5   2953       0 |   5    0      2840       113 |   1  10    0    0 2e0f |    2.014       0       5       0       5     10     10      0   2826     127       1  10    02e0f a70f      8.220 "
