test,1583575848521867008,10," | 10  |   2502       5   2474       0 |   4    5      2435        39 |   1  12   51    0 700f |    2.777       0       5       0       5     12     12      0   2402      72       2  12    0700f a70f      9.000 "
test,1583575848520111104,12," | 12  |   2502       5   2500       0 |   4    0      2479        21 |   2  12    0    1 700f |    1.739       0       4       0       4     12     12      0   2440      60       2  12    1700f a70f      6.480 "
test,1583575848523179008,13," | 13  |   2502       5   2498       0 |   5    0      2479        19 |   1  12    0    0 700f |    2.746       0       5       0       5     12     12      0   2449      49       2  12    0700f a70f      8.970 "
test,1583575848539975936,15," | 15  |   2502       5   2500       0 |   0    2      2409        91 |   0  15   51    1 7e0f |    0           0       0       0       8      0      0      0   2308     192       0  15    17e0f a70f     30.180 "
test,1583575848528747008,16," | 16  |   2502       5   2498       0 |   5    0      2412        86 |   4  12    0    0 700f |    6.439       0       5       0       5     12     12      0   2350     148       7  12    0700f a70f     13.290 "
test,1583575848529476864,17," | 17  |   2502       5   2494       4 |   5    0      2467        31 |   4  12    0    0 700f |    6.408       0       5       0       5     12     12      0   2390     108       7  12    0700f a70f     13.290 "
test,1583575848527875840,18," | 18  |   2502       5   2497       0 |   5    0      2356       141 |   5  12    0    0 700f |    7.171       0       5       0       5     12     12      0   2246     251       8  12    0700f a70f     13.290 "
test,1583575848545507840,19," | 19  |   2502       5   2492       6 |   0   10      2461        37 |   0  19   12    1 8e0f |    1.739       0       1       0       1     19     19      0   2382     116       2  19    18e0f a70f     30.300 "
test,1583575848522566144,1," |  1  |   2502       4   2499       0 |   5    0      2438        61 |   1  12    0    0 700f |    2.716       0       5       0       5     12     12      0   2419      80       1  12    0700f a70f      9.660 "
test,1583575848532759808,22," | 22  |   2502       5   2496       0 |   4    1      2476        20 |   9  12   19    0 700f |    6.439       0       5       0       5     12     12      0   2356     140       7  12    0700f a70f     12.570 "
test,1583575848526100992,23," | 23  |   2502       5   2440       0 |   5    0      2427        13 |   3  12    0    0 700f |    5.706       0       5       0       5     12     12      0   2381      59       6  12    0700f a70f     12.450 "
test,1583575848525850112,24," | 24  |   2502       5   2496       2 |   5    0      2475        23 |   4  12    0    0 700f |    6.439       0       5       0       5     12     12      0   2415      83       7  12    0700f a70f     12.540 "
test,1583575848524265984,26," | 26  |   2502       5   2496       2 |   5    0      2489         9 |   4  12    0    0 700f |    5.706       0       5       0       5     12     12      0   2441      57       6  12    0700f a70f     12.540 "
test,1583575848543767808,27," | 27  |   2502       5   2500       0 |   5    7      2428        72 |   1  19   12    0 8e0f |    2.044       0       2       0       2     19     19      0   2319     181       1  19    08e0f a70f     30.360 "
test,1583575848545090048,28," | 28  |   2502       5   2496       2 |   4    1      2302       196 |   2  35   12    0 be0f |    3.540       0       4       0       4     35     35      0   2217     281       3  35    0be0f a70f     30.240 "
test,1583575848544459008,29," | 29  |   2502       5   2496       4 |   5    0      2228       272 |   1  19    0    0 8e0f |    2.044       0       2       0       2     19     19      0   2103     397       1  19    08e0f a70f     30.390 "
test,1583575848520713984,30," | 30  |   2502       5   2498       0 |   5    0      2464        34 |   1  35    0    0 be0f |    2.044       0       5       0       5     35     35      0   2384     114       1  35    0be0f a70f      8.280 "
test,1583575848520878080,35," | 35  |   2502       5   2498       0 |   5    0      2388       110 |   2  35    0    1 be0f |    1.739       0       4       0       4     35     35      0   2339     159       2  35    1be0f a70f      6.480 "
test,1583575848534979072,40," | 40  |   2502       4   2462      32 |   4    0      2325       169 |  10  12    0    0 700f |    7.904       0       5       0       5     12     12      0   2263     231       9  12    0700f a70f     14.010 "
test,1583575848528045824,41," | 41  |   2502       5   2456      32 |   5    0      2464        24 |   7  12    0    0 700f |    7.171       0       5       0       5     12     12      0   2399      89       8  12    0700f a70f     13.200 "
test,1583575848535233024,42," | 42  |   2502       5   2463      35 |   5    0      2441        57 |   7  12    0    0 700f |    7.171       0       5       0       5     12     12      0   2377     121       8  12    0700f a70f     14.580 "
test,1583575848527468032,44," | 44  |   2502       5   2468      30 |   5    0      2437        61 |   7  12    0    0 700f |    6.408       0       5       0       5     12     12      0   2383     115       7  12    0700f a70f     12.570 "
test,1583575848527129856,45," | 45  |   2502       5   2474      24 |   5    0      2415        83 |   8  12    0    0 700f |    7.171       0       5       0       5     12     12      0   2367     131       8  12    0700f a70f     13.290 "
test,1583575848530339072,46," | 46  |   2502       5   2460      31 |   5    0      2379       112 |   8  12    0    0 700f |    7.171       0       5       0       5     12     12      0   2329     162       8  12    0700f a70f     14.070 "
test,1583575848531132928,47," | 47  |   2502       5   2466      32 |   5    0      2413        85 |   6  12    0    0 700f |    7.171       0       5       0       5     12     12      0   2353     145       8  12    0700f a70f     13.860 "
test,1583575848528418048,48," | 48  |   2502       5   2402      29 |   5    0      2371        60 |   7  12    0    0 700f |    7.141       0       5       0       5     12     12      0   2320     111       8  12    0700f a70f     13.230 "
test,1583575848542556928,49," | 49  |   2502       5   2492       0 |   5    0      2450        42 |   2  12    0    0 700f |    3.540       0       2       0       2     12     12      0   2425      67       3  12    0700f a70f     30.270 "
test,1583575848520487168,51," | 51  |   2502       5   2493       0 |   3    2      2477        16 |  20  51   12    1 990f |    1.739       0       4       0       4     51     51      0   2468      25       2  51    1990f a70f      6.480 "
test,1583575848530081024,52," | 52  |   2502       5   2473      21 |   5    0      2368       126 |   4  12    0    0 700f |    6.439       0       5       0       5     12     12      0   2320     174       7  12    0700f a70f     13.290 "
test,1583575848541686016,53," | 53  |   2502       5   2476       0 |   0    4      2352       124 |   0  53   12    1 e20f |    0           0       0       0       8      0      0      0   2322     154       0  53    1e20f a70f     30.210 "
test,1583575848522289152,54," | 54  |   2502       5   2494       0 |   5    0      2451        43 |   1  12    0    0 700f |    2.014       0       5       0       5     12     12      0   2409      85       1  12    0700f a70f      8.220 "
test,1583575848543333888,55," | 55  |   2502       5   2481       0 |   5    0      2395        86 |   2  12    0    0 700f |    3.479       0       2       0       2     12     12      0   2373     108       3  12    0700f a70f     30.360 "
test,1583575848523827968,56," | 56  |   2502       5   2484       0 |   3    7      2441        43 |   5  12   51    0 700f |    4.241       0       5       0       5     12     12      0   2420      64       4  12    0700f a70f     10.350 "
test,1583575848544023040,57," | 57  |   2502       5   2439       0 |   5    0      2377        62 |   2  12    0    0 700f |    4.974       0       4       0       4     12     12      0   2236     203       5  12    0700f a70f     30.330 "
test,1583575848531585024,58," | 58  |   2502       5   2493       0 |   5    0      2464        29 |   1  12    0    0 700f |    2.807       0       5       0       5     12     12      0   2359     134       2  12    0700f a70f     12.630 "
test,1583575848521615104,5," |  5  |   2502       5   2500       0 |   5    0      2292       208 |   1  12    0    0 700f |    2.044       0       5       0       5     12     12      0   2248     252       1  12    0700f a70f      8.250 "
test,1583575848523511040,60," | 60  |   2502       5   2493       0 |   5    2      2334       159 |   1  51   12    0 990f |    2.075       0       5       0       5     51     51      0   2293     200       1  51    0990f a70f      8.160 "
test,1583575848530617088,61," | 61  |   2502       5   2492       0 |   5    0      2385       107 |   2  12    0    0 700f |    3.540       0       5       0       5     12     12      0   2311     181       3  12    0700f a70f      9.630 "
test,1583575848520315904,7," |  7  |   2502       5   2499       0 |   5    0      2460        39 |   1  12    0    0 700f |    2.044       0       5       0       5     12     12      0   2447      52       1  12    0700f a70f      8.250 "
test,1583575848521204992,9," |  9  |   2502       5   2498       0 |   5    0      2401        97 |   1  12    0    0 700f |    2.044       0       5       0       5     12     12      0   2389     109       1  12    0700f a70f      8.190 "
