test,1583575881773081088,10," | 10  |   2635       5   2607       0 |   5    0      2562        45 |   2  57    0    0 ba0f |    2.777       0       5       0       5     57     57      0   2526      81       2  57    0ba0f a70f      9.000 "
test,1583575881771004928,12," | 12  |   2635       5   2633       0 |   5    6      2612        21 |   1   7   57    0 110f |    2.044       0       5       0       5      7      7      0   2572      61       1   7    0110f a70f      8.190 "
test,1583575881787569152,13," | 13  |   2635       5   2631       0 |   5    0      2611        20 |   3  57    0    0 ba0f |    9.338       0       5       0       5     57     57      0   2579      52      11  57    0ba0f a70f     16.170 "
test,1583575881773510912,15," | 15  |   2635       5   2633       0 |   5    0      2537        96 |   2   7    0    0 110f |    2.746       0       5       0       5      7      7      0   2430     203       2   7    0110f a70f      8.970 "
test,1583575881783577088,16," | 16  |   2635       5   2631       0 |   2    2      2541        90 |   6  57   44    0 ba0f |    2.777       0       5       0       5     57     57      0   2475     156       2  57    0ba0f a70f     11.850 "
test,1583575881800951040,17," | 17  |   2635       5   2626       5 |   5    0      2599        32 |   1  19    0    0 ae0f |    2.075       0       1       0       1     19     19      0   2518     113       1  19    0ae0f a70f     30.360 "
test,1583575881784295168,18," | 18  |   2635       5   2630       0 |   5    0      2481       149 |   2  44    0    0 720f |    2.777       0       5       0       5     44     44      0   2365     265       2  44    0720f a70f      8.970 "
test,1583575881796868096,19," | 19  |   2635       5   2623       8 |   4    0      2591        40 |   8  19    0    1 ae0f |    1.739       0       1       0       1     19     19      0   2505     126       2  19    1ae0f a70f     30.300 "
test,1583575881788647936,1," |  1  |   2635       4   2632       0 |   5    0      2571        61 |   2  57    0    0 ba0f |    4.913       0       5       0       5     57     57      0   2550      82       4  57    0ba0f a70f     13.260 "
test,1583575881789152000,22," | 22  |   2635       5   2629       0 |   5    0      2607        22 |   2  44    0    0 720f |    3.448       0       5       0       5     44     44      0   2481     148       3  44    0720f a70f      9.630 "
test,1583575881775043840,23," | 23  |   2635       5   2573       0 |   4    3      2560        13 |   1  57    7    0 ba0f |    2.075       0       5       0       5     57     57      0   2509      64       1  57    0ba0f a70f     11.070 "
test,1583575881785865984,24," | 24  |   2635       5   2629       2 |   5    0      2607        24 |   1  44    0    0 720f |    4.180       0       5       0       5     44     44      0   2544      87       4  44    0720f a70f     10.380 "
test,1583575881774193152,26," | 26  |   2635       5   2629       2 |   4    1      2621        10 |   2  44   57    0 720f |    4.180       0       5       0       5     44     44      0   2571      60       4  44    0720f a70f     10.380 "
test,1583575881792450048,27," | 27  |   2635       5   2633       0 |   4    4      2558        75 |   3   7   19    0 110f |    9.338       0       1       0       1      7      7      0   2444     189      11   7    0110f a70f     30.300 "
test,1583575881799584000,28," | 28  |   2635       5   2628       3 |   0    7      2425       206 |   0  28   44    1 c40f |    0           0       0       0       8      0      0      0   2334     297       0  28    1c40f a70f     30.150 "
test,1583575881798908928,29," | 29  |   2635       5   2629       4 |   4    3      2341       292 |   1  19    7    0 ae0f |    2.044       0       2       0       2     19     19      0   2211     422       1  19    0ae0f a70f     30.300 "
test,1583575881785021952,30," | 30  |   2635       5   2631       0 |   5    0      2595        36 |   4  44    0    0 720f |    4.943       0       5       0       5     44     44      0   2509     122       5  44    0720f a70f     11.130 "
test,1583575881774769920,35," | 35  |   2635       5   2631       0 |   5    0      2510       121 |   3  44    0    0 720f |    4.211       0       5       0       5     44     44      0   2456     175       4  44    0720f a70f     10.380 "
test,1583575881782000896,40," | 40  |   2635       4   2595      32 |   5    0      2455       172 |   1  44    0    0 720f |    2.044       0       5       0       5     44     44      0   2390     237       1  44    0720f a70f      9.690 "
test,1583575881774507008,41," | 41  |   2635       5   2589      32 |   5    0      2595        26 |   1  44    0    0 720f |    2.777       0       5       0       5     44     44      0   2527      94       2  44    0720f a70f      8.850 "
test,1583575881773251072,42," | 42  |   2635       5   2596      35 |   5    0      2572        59 |   1  44    0    0 720f |    2.014       0       5       0       5     44     44      0   2506     125       1  44    0720f a70f      8.880 "
test,1583575881771360000,44," | 44  |   2635       5   2601      30 |   4    0      2568        63 |   7  44    0    1 720f |    1.739       0       4       0       4     44     44      0   2514     117       2  44    1720f a70f      6.510 "
test,1583575881783322112,45," | 45  |   2635       5   2607      24 |   5    1      2543        88 |   1  44   57    0 720f |    2.014       0       5       0       5     44     44      0   2495     136       1  44    0720f a70f      9.660 "
test,1583575881772537088,46," | 46  |   2635       5   2593      31 |   5    0      2509       115 |   1  44    0    0 720f |    2.044       0       5       0       5     44     44      0   2459     165       1  44    0720f a70f      8.220 "
test,1583575881782459136,47," | 47  |   2635       5   2599      32 |   5    0      2539        92 |   1  44    0    0 720f |    1.983       0       5       0       5     44     44      0   2478     153       1  44    0720f a70f      8.220 "
test,1583575881788868864,48," | 48  |   2635       5   2535      29 |   5    0      2502        62 |   1  44    0    0 720f |    1.983       0       5       0       5     44     44      0   2450     114       1  44    0720f a70f      9.660 "
test,1583575881784812032,49," | 49  |   2635       5   2625       0 |   5    0      2581        44 |   2  57    0    0 ba0f |    3.479       0       5       0       5     57     57      0   2553      72       3  57    0ba0f a70f      9.660 "
test,1583575881772116992,51," | 51  |   2635       5   2626       0 |   5    0      2608        18 |   1  57    0    0 ba0f |    2.807       0       5       0       5     57     57      0   2599      27       2  57    0ba0f a70f      8.940 "
test,1583575881785516032,52," | 52  |   2635       4   2606      21 |   3    1      2496       131 |   2  57   44    0 ba0f |    2.777       0       5       0       5     57     57      0   2446     181       2  57    0ba0f a70f     11.850 "
test,1583575881785288192,53," | 53  |   2635       5   2609       0 |   5    0      2481       128 |   3  57    0    0 ba0f |    4.241       0       5       0       5     57     57      0   2448     161       4  57    0ba0f a70f     10.440 "
test,1583575881783068928,54," | 54  |   2635       5   2627       0 |   5    0      2583        44 |   2  57    0    0 ba0f |    3.509       0       5       0       5     57     57      0   2538      89       3  57    0ba0f a70f     10.440 "
test,1583575881786753792,55," | 55  |   2635       5   2614       0 |   5    0      2526        88 |   2  57    0    0 ba0f |    3.509       0       5       0       5     57     57      0   2501     113       3  57    0ba0f a70f      9.690 "
test,1583575881770812160,56," | 56  |   2635       5   2617       0 |   5    0      2571        46 |   1  57    0    0 ba0f |    2.044       0       5       0       5     57     57      0   2550      67       1  57    0ba0f a70f      8.190 "
test,1583575881771731968,57," | 57  |   2635       5   2572       0 |   4    1      2506        66 |   4  57   44    1 ba0f |    1.739       0       4       0       4     57     57      0   2354     218       2  57    1ba0f a70f      6.480 "
test,1583575881791499008,58," | 58  |   2635       5   2626       0 |   5    0      2596        30 |   1  57    0    0 ba0f |    2.777       0       5       0       5     57     57      0   2483     143       2  57    0ba0f a70f     11.040 "
test,1583575881793922816,5," |  5  |   2635       5   2633       0 |   5    0      2410       223 |   4  57    0    0 ba0f |   10.101       0       5       0       5     57     57      0   2364     269      12  57    0ba0f a70f     16.800 "
test,1583575881794380800,60," | 60  |   2635       5   2626       0 |   5    0      2459       167 |   1  57    0    0 ba0f |    2.044       0       5       0       5     57     57      0   2417     209       1  57    0ba0f a70f      8.100 "
test,1583575881782219776,61," | 61  |   2635       5   2625       0 |   5    0      2511       114 |   1  57    0    0 ba0f |    2.807       0       5       0       5     57     57      0   2431     194       2  57    0ba0f a70f      8.850 "
test,1583575881769937920,7," |  7  |   2635       5   2632       0 |   4    7      2592        40 |   5   7   57    1 110f |    1.739       0       4       0       4      7      7      0   2578      54       2   7    1110f a70f      6.510 "
test,1583575881787771904,9," |  9  |   2635       5   2631       0 |   5    0      2528       103 |   3  57    0    0 ba0f |    4.211       0       5       0       5     57     57      0   2515     116       4  57    0ba0f a70f     12.570 "
