test,1583575772772598016,10," | 10  |   2199       5   2171       0 |   5    0      2140        31 |   1  51    0    0 c60f |    1.953       0       5       0       5     51     51      0   2109      62       1  51    0c60f a70f      8.190 "
test,1583575772771068160,12," | 12  |   2199       5   2197       0 |   5    0      2177        20 |   2  51    0    0 c60f |    2.716       0       5       0       5     51     51      0   2142      55       2  51    0c60f a70f      8.790 "
test,1583575772771891968,13," | 13  |   2199       5   2195       0 |   5    0      2177        18 |   1  51    0    0 c60f |    2.044       0       5       0       5     51     51      0   2150      45       1  51    0c60f a70f      8.940 "
test,1583575772772971008,15," | 15  |   2199       5   2197       0 |   5    0      2120        77 |   3  51    0    0 c60f |    3.417       0       5       0       5     51     51      0   2031     166       3  51    0c60f a70f      9.630 "
test,1583575772783109888,16," | 16  |   2199       5   2195       0 |   5    0      2118        77 |   1  23    0    0 b50f |    2.044       0       5       0       5     23     23      0   2063     132       1  23    0b50f a70f      8.250 "
test,1583575772772167936,17," | 17  |   2199       5   2194       1 |   5    0      2169        26 |   1  23    0    0 b50f |    2.014       0       5       0       5     23     23      0   2104      91       1  23    0b50f a70f      8.250 "
test,1583575772778415872,18," | 18  |   2199       5   2194       0 |   5    0      2070       124 |   2  23    0    0 b50f |    2.807       0       5       0       5     23     23      0   1979     215       2  23    0b50f a70f      8.880 "
test,1583575772778234112,19," | 19  |   2199       5   2193       2 |   5    0      2167        28 |   1  23    0    0 b50f |    2.044       0       5       0       5     23     23      0   2102      93       1  23    0b50f a70f      8.880 "
test,1583575772769766144,1," |  1  |   2199       4   2196       0 |   5    0      2141        55 |   1  51    0    0 c60f |    2.685       0       5       0       5     51     51      0   2123      73       1  51    0c60f a70f      8.910 "
test,1583575772775752960,22," | 22  |   2199       5   2193       0 |   5    0      2177        16 |   1  23    0    0 b50f |    2.044       0       5       0       5     23     23      0   2075     118       1  23    0b50f a70f      8.790 "
test,1583575772770795008,23," | 23  |   2199       5   2137       0 |   5    0      2125        12 |   4  23    0    1 b50f |    1.739       0       4       0       4     23     23      0   2085      52       2  23    1b50f a70f      6.510 "
test,1583575772771363072,24," | 24  |   2199       5   2195       0 |   5    0      2179        16 |   2  23    0    0 b50f |    2.746       0       5       0       5     23     23      0   2133      62       2  23    0b50f a70f      8.910 "
test,1583575772773408768,26," | 26  |   2199       5   2195       0 |   5    0      2186         9 |   2  23    0    0 b50f |    2.044       0       5       0       5     23     23      0   2148      47       1  23    0b50f a70f      8.130 "
test,1583575772779456000,27," | 27  |   2199       5   2197       0 |   5    0      2135        62 |   1  23    0    0 b50f |    2.075       0       5       0       5     23     23      0   2038     159       1  23    0b50f a70f      8.280 "
test,1583575772792205056,28," | 28  |   2199       5   2195       0 |   0    2      2024       171 |   0  28   23    1 460f |    0           0       0       0       8      0      0      0   1960     235       0  28    1460f a70f     30.150 "
test,1583575772774198016,29," | 29  |   2199       4   2193       4 |   4    0      1954       243 |   2  23    0    0 b50f |    2.777       0       5       0       5     23     23      0   1843     354       2  23    0b50f a70f      8.820 "
test,1583575772778043904,30," | 30  |   2199       5   2195       0 |   5    0      2166        29 |   4  23    0    0 b50f |    2.807       0       5       0       5     23     23      0   2096      99       2  23    0b50f a70f     11.010 "
test,1583575772781342976,35," | 35  |   2199       5   2195       0 |   5    0      2099        96 |   4  23    0    0 b50f |    2.777       0       5       0       5     23     23      0   2057     138       2  23    0b50f a70f     10.260 "
test,1583575772776126976,40," | 40  |   2199       5   2159      32 |   4    2      2035       156 |   3  23   47    0 b50f |    3.479       0       5       0       5     23     23      0   1986     205       3  23    0b50f a70f      9.540 "
test,1583575772781894912,41," | 41  |   2199       5   2153      32 |   5    0      2163        22 |   2  23    0    0 b50f |    2.746       0       5       0       5     23     23      0   2107      78       2  23    0b50f a70f      8.850 "
test,1583575772778691072,42," | 42  |   2199       5   2160      35 |   5    0      2142        53 |   2  23    0    0 b50f |    2.777       0       5       0       5     23     23      0   2086     109       2  23    0b50f a70f      9.600 "
test,1583575772775265024,44," | 44  |   2199       5   2165      30 |   5    0      2141        54 |   4  23    0    0 b50f |    2.746       0       5       0       5     23     23      0   2090     105       2  23    0b50f a70f     10.380 "
test,1583575772774856192,45," | 45  |   2199       5   2171      24 |   5    0      2121        74 |   3  23    0    0 b50f |    2.777       0       5       0       5     23     23      0   2079     116       2  23    0b50f a70f      9.510 "
test,1583575772775479040,46," | 46  |   2199       5   2157      31 |   5    0      2087       101 |   3  23    0    0 b50f |    3.479       0       5       0       5     23     23      0   2045     143       3  23    0b50f a70f      9.690 "
test,1583575772791723008,47," | 47  |   2199       5   2163      32 |   0    8      2121        74 |   0  47   23    1 4a0f |    0           0       0       0       8      0      0      0   2068     127       0  47    14a0f a70f     30.270 "
test,1583575772775065856,48," | 48  |   2199       5   2099      29 |   5    0      2072        56 |   2  23    0    0 b50f |    2.777       0       5       0       5     23     23      0   2027     101       2  23    0b50f a70f     11.160 "
test,1583575772770589184,49," | 49  |   2199       5   2189       0 |   5    1      2150        39 |   1  53   51    0 230f |    2.044       0       5       0       5     53     53      0   2130      59       1  53    0230f a70f      8.190 "
test,1583575772768646912,51," | 51  |   2199       5   2190       0 |   4    0      2176        14 |   2  51    0    1 c60f |    1.739       0       4       0       4     51     51      0   2170      20       2  51    1c60f a70f      6.480 "
test,1583575772779654912,52," | 52  |   2199       5   2171      20 |   5    0      2078       113 |   1  23    0    0 b50f |    2.014       0       5       0       5     23     23      0   2036     155       1  23    0b50f a70f      8.070 "
test,1583575772786446080,53," | 53  |   2199       5   2173       0 |   4    0      2068       105 |  11  53    0    1 230f |    1.739       0       4       0       4     53     53      0   2043     130       2  53    1230f a70f      6.510 "
test,1583575772779843072,54," | 54  |   2199       5   2191       0 |   5    0      2158        33 |   2  51    0    0 c60f |    2.685       0       5       0       5     51     51      0   2118      73       2  51    0c60f a70f      8.880 "
test,1583575772768951040,55," | 55  |   2199       5   2178       0 |   5    1      2105        73 |   1  53   51    0 230f |    2.075       0       5       0       5     53     53      0   2088      90       1  53    0230f a70f      8.190 "
test,1583575772769179136,56," | 56  |   2199       5   2181       0 |   5    0      2144        37 |   1  51    0    0 c60f |    2.014       0       5       0       5     51     51      0   2128      53       1  51    0c60f a70f      8.220 "
test,1583575772793575168,57," | 57  |   2199       3   2136       0 |   1    1      2081        55 |   1  51   23    0 c60f |   10.070       0       1       0       1     51     51      0   1960     176      12  51    0c60f a70f     30.390 "
test,1583575772777369856,58," | 58  |   2199       5   2190       0 |   4    0      2163        27 |   5  51    0    0 c60f |    3.479       0       5       0       5     51     51      0   2076     114       3  51    0c60f a70f      9.720 "
test,1583575772774419968,5," |  5  |   2199       5   2197       0 |   5    0      2009       188 |   2  51    0    0 c60f |    2.746       0       5       0       5     51     51      0   1968     229       2  51    0c60f a70f      8.820 "
test,1583575772772392960,60," | 60  |   2199       5   2190       0 |   5    0      2043       147 |   1  51    0    0 c60f |    2.014       0       5       0       5     51     51      0   2012     178       1  51    0c60f a70f      8.250 "
test,1583575772783727872,61," | 61  |   2199       5   2189       0 |   4    0      2096        93 |   5  51    0    0 c60f |    2.746       0       5       0       5     51     51      0   2037     152       2  51    0c60f a70f      8.940 "
test,1583575772769588992,7," |  7  |   2199       5   2196       0 |   5    0      2161        35 |   1  51    0    0 c60f |    2.014       0       5       0       5     51     51      0   2148      48       1  51    0c60f a70f      8.070 "
test,1583575772771527168,9," |  9  |   2199       5   2195       0 |   5    0      2114        81 |   2  51    0    0 c60f |    2.716       0       5       0       5     51     51      0   2102      93       2  51    0c60f a70f      8.940 "
