test,1583575972274226944,10," | 10  |   2997       5   2969       0 |   5    0      2922        47 |   1   1    0    0 3a0f |    1.342       0       5       0       5      1      1      0   2878      91       1   1    03a0f a70f      7.590 "
test,1583575972279612160,12," | 12  |   2997       5   2995       0 |   5    0      2969        26 |   1   1    0    0 3a0f |    1.373       0       5       0       5      1      1      0   2919      76       1   1    03a0f a70f      7.470 "
test,1583575972273961984,13," | 13  |   2997       5   2993       0 |   5    0      2971        22 |   1   1    0    0 3a0f |    1.373       0       5       0       5      1      1      0   2936      57       1   1    03a0f a70f      7.620 "
test,1583575972276205056,15," | 15  |   2997       5   2995       0 |   5    0      2880       115 |   2   1    0    0 3a0f |    2.075       0       5       0       5      1      1      0   2757     238       2   1    03a0f a70f      8.160 "
test,1583575972274652928,16," | 16  |   2997       5   2993       0 |   4    0      2886       107 |   2  16    0    1 c50f |    1.770       0       4       0       4     16     16      0   2815     178       2  16    1c50f a70f      6.510 "
test,1583575972277654784,17," | 17  |   2997       5   2988       5 |   5    0      2961        32 |   1  16    0    0 c50f |    1.983       0       5       0       5     16     16      0   2871     122       1  16    0c50f a70f      8.190 "
test,1583575972278301952,18," | 18  |   2997       5   2992       0 |   5    0      2828       164 |   2  16    0    0 c50f |    2.746       0       5       0       5     16     16      0   2702     290       2  16    0c50f a70f      8.940 "
test,1583575972280358144,19," | 19  |   2997       5   2984       9 |   5    0      2944        49 |   2  16    0    0 c50f |    2.746       0       5       0       5     16     16      0   2854     139       2  16    0c50f a70f      8.970 "
test,1583575972277295104,1," |  1  |   2997       4   2994       0 |   5    0      2926        68 |   2   1    0    1 3a0f |    1.739       0       4       0       4      1      1      0   2904      90       2   1    13a0f a70f      6.480 "
test,1583575972276544000,22," | 22  |   2997       5   2991       0 |   5    0      2967        24 |   2  16    0    0 c50f |    2.746       0       5       0       5     16     16      0   2828     163       2  16    0c50f a70f      8.970 "
test,1583575972274460160,23," | 23  |   2997       5   2935       0 |   5    0      2921        14 |   1  16    0    0 c50f |    2.014       0       5       0       5     16     16      0   2864      71       1  16    0c50f a70f      8.250 "
test,1583575972274915840,24," | 24  |   2997       5   2991       2 |   5    0      2966        27 |   2  16    0    0 c50f |    2.716       0       5       0       5     16     16      0   2896      97       2  16    0c50f a70f      8.790 "
test,1583575972273438976,26," | 26  |   2997       5   2991       2 |   5    0      2982        11 |   1  16    0    0 c50f |    1.983       0       5       0       5     16     16      0   2927      66       1  16    0c50f a70f      8.220 "
test,1583575972281261824,27," | 27  |   2997       4   2995       0 |   4    0      2909        86 |   2  16    0    0 c50f |    2.777       0       5       0       5     16     16      0   2785     210       2  16    0c50f a70f      9.690 "
test,1583575972275977984,28," | 28  |   2997       5   2990       3 |   5    0      2764       229 |   2  16    0    0 c50f |    2.746       0       5       0       5     16     16      0   2655     338       2  16    0c50f a70f      9.510 "
test,1583575972297229056,29," | 29  |   2997       3   2990       5 |   3    0      2664       331 |   5  16    0    0 c50f |    4.943       0       4       0       4     16     16      0   2524     471       5  16    0c50f a70f     30.360 "
test,1583575972279227136,30," | 30  |   2997       5   2993       0 |   5    0      2952        41 |   3  16    0    0 c50f |    4.211       0       5       0       5     16     16      0   2852     141       4  16    0c50f a70f     10.380 "
test,1583575972277067776,35," | 35  |   2997       5   2993       0 |   5    0      2856       137 |   3  16    0    0 c50f |    3.448       0       5       0       5     16     16      0   2796     197       3  16    0c50f a70f      9.510 "
test,1583575972280922880,40," | 40  |   2997       5   2934      55 |   5    0      2793       196 |   2  16    0    0 c50f |    2.716       0       5       0       5     16     16      0   2716     273       2  16    0c50f a70f      9.570 "
test,1583575972276892928,41," | 41  |   2997       5   2929      54 |   5    0      2954        29 |   1  16    0    0 c50f |    2.014       0       5       0       5     16     16      0   2873     110       1  16    0c50f a70f      8.280 "
test,1583575972277475072,42," | 42  |   2997       5   2936      57 |   5    0      2919        74 |   2  16    0    0 c50f |    2.746       0       5       0       5     16     16      0   2842     151       2  16    0c50f a70f      9.690 "
test,1583575972281409024,44," | 44  |   2997       5   2941      52 |   5    0      2920        73 |   2  16    0    0 c50f |    2.746       0       5       0       5     16     16      0   2857     136       2  16    0c50f a70f      9.690 "
test,1583575972278768128,45," | 45  |   2997       5   2954      39 |   5    0      2894        99 |   1  16    0    0 c50f |    2.746       0       5       0       5     16     16      0   2836     157       2  16    0c50f a70f      8.880 "
test,1583575972282757120,46," | 46  |   2997       5   2933      53 |   5    0      2852       134 |   2  16    0    0 c50f |    2.746       0       5       0       5     16     16      0   2792     194       2  16    0c50f a70f      8.940 "
test,1583575972278467840,47," | 47  |   2997       5   2941      52 |   4    0      2887       106 |   2  16    0    0 c50f |    2.746       0       5       0       5     16     16      0   2820     173       2  16    0c50f a70f      9.690 "
test,1583575972278126080,48," | 48  |   2997       5   2876      50 |   5    0      2853        73 |   2  16    0    0 c50f |    2.716       0       5       0       5     16     16      0   2789     137       2  16    0c50f a70f      9.630 "
test,1583575972273714944,49," | 49  |   2997       5   2987       0 |   5    0      2935        52 |   1  53    0    0 230f |    2.075       0       5       0       5     53     53      0   2906      81       1  53    0230f a70f      8.130 "
test,1583575972279881984,51," | 51  |   2997       5   2988       0 |   5    0      2964        24 |   1   1    0    0 3a0f |    1.373       0       5       0       5      1      1      0   2953      35       1   1    03a0f a70f      7.590 "
test,1583575972295730176,52," | 52  |   2997       5   2966      23 |   4    0      2845       144 |   1  16    0    0 c50f |    2.014       0       4       0       4     16     16      0   2789     200       1  16    0c50f a70f     30.210 "
test,1583575972279047936,53," | 53  |   2997       5   2971       0 |   4    0      2823       148 |   2  53    0    1 230f |    1.770       0       4       0       4     53     53      0   2786     185       2  53    1230f a70f      6.510 "
test,1583575972273245184,54," | 54  |   2997       5   2989       0 |   5    0      2939        50 |   2   1    0    0 3a0f |    1.312       0       5       0       5      1      1      0   2891      98       1   1    03a0f a70f      7.410 "
test,1583575972275516160,55," | 55  |   2997       5   2976       0 |   5    0      2872       104 |   1  53    0    0 230f |    2.075       0       5       0       5     53     53      0   2845     131       1  53    0230f a70f      8.190 "
test,1583575972275302912,56," | 56  |   2997       5   2979       0 |   5    0      2931        48 |   2   1    0    0 3a0f |    2.105       0       5       0       5      1      1      0   2902      77       2   1    03a0f a70f      8.310 "
test,1583575972296674048,57," | 57  |   2997       5   2934       0 |   1    1      2863        71 |   2  16    1    0 c50f |    9.338       0       1       0       1     16     16      0   2691     243      11  16    0c50f a70f     30.300 "
test,1583575972294117888,58," | 58  |   2997       5   2988       0 |   1    1      2951        37 |   2  53    1    0 230f |    0           0       0       0       8      0      0      0   2826     162       0  53    0230f a70f     30.390 "
test,1583575972280546816,5," |  5  |   2997       5   2995       0 |   5    0      2743       252 |   2   1    0    0 3a0f |    2.044       0       5       0       5      1      1      0   2687     308       2   1    03a0f a70f      8.250 "
test,1583575972275131904,60," | 60  |   2997       5   2988       0 |   5    0      2795       193 |   2   1    0    0 3a0f |    2.075       0       5       0       5      1      1      0   2745     243       2   1    03a0f a70f      8.340 "
test,1583575972293571072,61," | 61  |   2997       5   2987       0 |   1    2      2860       127 |   3  53    1    0 230f |    0           0       0       0       8      0      0      0   2770     217       0  53    0230f a70f     30.390 "
test,1583575972281618944,7," |  7  |   2997       5   2994       0 |   5    0      2944        50 |   1   1    0    0 3a0f |    1.373       0       5       0       5      1      1      0   2927      67       1   1    03a0f a70f      7.470 "
test,1583575972280733952,9," |  9  |   2997       5   2993       0 |   5    0      2880       113 |   1   1    0    0 3a0f |    1.312       0       5       0       5      1      1      0   2866     127       1   1    03a0f a70f      7.590 "
