test,1583575741541001984,10," | 10  |   2074       5   2046       0 |   5    0      2019        27 |   4   9    0    0 9a0f |    2.777       0       1       0       1      9      9      0   1990      56       2   9    09a0f a70f     30.390 "
test,1583575741540199936,12," | 12  |   2074       5   2072       0 |   0   16      2055        17 |   0  12    1    1 260f |    1.739       0       1       0       1     12     12      0   2024      48       2  12    1260f a70f     30.300 "
test,1583575741520845056,13," | 13  |   2074       5   2070       0 |   5   10      2053        17 |   1   1    9    0 c00f |    1.342       0       5       0       5      1      1      0   2030      40       1   1    0c00f a70f      8.070 "
test,1583575741540723968,15," | 15  |   2074       5   2072       0 |   1    4      2000        72 |   1  12    1    0 260f |    2.044       0       2       0       2     12     12      0   1918     154       1  12    0260f a70f     30.330 "
test,1583575741542002944,16," | 16  |   2074       5   2070       0 |   1    6      1996        74 |   1  45   40    0 210f |    2.014       0       1       0       1     45     45      0   1944     126       1  45    0210f a70f     30.330 "
test,1583575741521486080,17," | 17  |   2074       5   2069       1 |   5    0      2045        25 |   2  40    0    0 ec0f |    2.746       0       5       0       5     40     40      0   1981      89       2  40    0ec0f a70f      9.660 "
test,1583575741545304064,18," | 18  |   2074       5   2069       0 |   4    0      1949       120 |   3  40    0    0 ec0f |    3.479       0       4       0       4     40     40      0   1861     208       3  40    0ec0f a70f     30.300 "
test,1583575741523320064,19," | 19  |   2074       4   2068       2 |   5    0      2044        26 |   2  40    0    0 ec0f |    2.746       0       5       0       5     40     40      0   1981      89       2  40    0ec0f a70f      9.690 "
test,1583575741520056064,1," |  1  |   2074       4   2071       0 |   4   10      2019        52 |   5   1    9    1 c00f |    3.814       0       4       0       4      1      1      0   2003      68       5   1    1c00f a70f      8.520 "
test,1583575741539954944,22," | 22  |   2074       5   2068       0 |   1    9      2053        15 |   1  35   40    0 970f |    2.044       0       1       0       1     35     35      0   1956     112       1  35    0970f a70f     30.360 "
test,1583575741527878144,23," | 23  |   2074       5   2012       0 |   5    0      2001        11 |   4  40    0    0 ec0f |    4.211       0       5       0       5     40     40      0   1962      50       4  40    0ec0f a70f     10.230 "
test,1583575741521678080,24," | 24  |   2074       5   2070       0 |   5    0      2056        14 |   1  40    0    0 ec0f |    1.983       0       5       0       5     40     40      0   2010      60       1  40    0ec0f a70f      8.940 "
test,1583575741521297920,26," | 26  |   2074       5   2070       0 |   5    0      2062         8 |   2  40    0    0 ec0f |    2.777       0       5       0       5     40     40      0   2024      46       2  40    0ec0f a70f      9.600 "
test,1583575741525163008,27," | 27  |   2074       5   2072       0 |   5    0      2014        58 |   5  40    0    0 ec0f |    4.943       0       5       0       5     40     40      0   1919     153       5  40    0ec0f a70f     11.100 "
test,1583575741542514176,28," | 28  |   2074       5   2070       0 |   4    2      1908       162 |   1  35   40    0 970f |    2.044       0       3       0       3     35     35      0   1846     224       1  35    0970f a70f     30.360 "
test,1583575741545712896,29," | 29  |   2074       4   2068       4 |   5    0      1839       233 |   5  40    0    0 ec0f |    5.706       0       4       0       4     40     40      0   1733     339       6  40    0ec0f a70f     30.300 "
test,1583575741519371008,30," | 30  |   2074       5   2070       0 |   5    0      2041        29 |   1  35    0    0 970f |    2.075       0       5       0       5     35     35      0   1976      94       1  35    0970f a70f      8.130 "
test,1583575741519136000,35," | 35  |   2074       5   2070       0 |   4    0      1979        91 |   2  35    0    1 970f |    1.739       0       4       0       4     35     35      0   1939     131       2  35    1970f a70f      6.510 "
test,1583575741543948800,40," | 40  |   2074       5   2034      32 |   4    0      1916       150 |   8  40    0    1 ec0f |    8.331       0       1       0       1     40     40      0   1867     199      11  40    1ec0f a70f     30.270 "
test,1583575741541383936,41," | 41  |   2074       5   2028      32 |   2   12      2039        21 |   5  47   46    0 1b0f |    2.807       0       3       0       3     47     47      0   1986      74       2  47    01b0f a70f     30.330 "
test,1583575741520315904,42," | 42  |   2074       5   2035      35 |   2    8      2017        53 |   4  47   46    0 1b0f |    2.014       0       5       0       5     47     47      0   1961     109       1  47    01b0f a70f      8.250 "
test,1583575741520648960,44," | 44  |   2074       5   2040      30 |   2   11      2019        51 |   4  45   46    0 210f |    1.983       0       5       0       5     45     45      0   1968     102       1  45    0210f a70f      8.220 "
test,1583575741524236800,45," | 45  |   2074       5   2046      24 |   2    9      1999        71 |   5  45   46    1 210f |    1.739       0       4       0       4     45     45      0   1958     112       2  45    1210f a70f      6.510 "
test,1583575741537508096,46," | 46  |   2074       5   2032      31 |   0    8      1966        97 |   0  46   40    1 150f |    0           0       0       0       8      0      0      0   1925     138       0  46    1150f a70f     30.060 "
test,1583575741523046912,47," | 47  |   2074       5   2038      32 |   2   10      2000        70 |   5  47   46    1 1b0f |    1.770       0       4       0       4     47     47      0   1947     123       2  47    11b0f a70f      7.230 "
test,1583575741539490816,48," | 48  |   2074       5   1974      29 |   4    4      1949        54 |   9  40   46    0 ec0f |    0           0       0       0       8      0      0      0   1904      99       0  40    0ec0f a70f     30.360 "
test,1583575741521084160,49," | 49  |   2074       5   2064       0 |   5    0      2030        34 |   8   9    0    0 9a0f |    3.479       0       5       0       5      9      9      0   2011      53       3   9    09a0f a70f      9.720 "
test,1583575741522268928,51," | 51  |   2074       5   2065       0 |   5    0      2051        14 |   1   1    0    0 c00f |    1.373       0       5       0       5      1      1      0   2046      19       1   1    0c00f a70f      8.160 "
test,1583575741525757184,52," | 52  |   2074       4   2047      19 |   5    0      1961       105 |   3  40    0    0 ec0f |    3.479       0       5       0       5     40     40      0   1920     146       3  40    0ec0f a70f      9.660 "
test,1583575741522574848,53," | 53  |   2074       5   2048       0 |   5    0      1947       101 |   9   9    0    0 9a0f |    4.211       0       5       0       5      9      9      0   1924     124       4   9    09a0f a70f     10.410 "
test,1583575741539251968,54," | 54  |   2074       5   2066       0 |   5    0      2036        30 |   4   9    0    0 9a0f |    2.044       0       1       0       1      9      9      0   1998      68       1   9    09a0f a70f     30.360 "
test,1583575741522011136,55," | 55  |   2074       5   2053       0 |   5    0      1985        68 |   8   9    0    0 9a0f |    3.509       0       5       0       5      9      9      0   1969      84       3   9    09a0f a70f      9.690 "
test,1583575741519558912,56," | 56  |   2074       5   2056       0 |   5    2      2023        33 |   4   1   40    0 c00f |    2.044       0       5       0       5      1      1      0   2007      49       2   1    0c00f a70f      8.850 "
test,1583575741524658944,57," | 57  |   2074       5   2011       0 |   3    5      1958        53 |   3  40   61    0 ec0f |    3.448       0       5       0       5     40     40      0   1842     169       3  40    0ec0f a70f     10.380 "
test,1583575741542757120,58," | 58  |   2074       5   2065       0 |   2    4      2038        27 |   7   9   61    0 9a0f |    2.746       0       1       0       1      9      9      0   1955     110       2   9    09a0f a70f     30.390 "
test,1583575741543632128,5," |  5  |   2074       5   2072       0 |   1    4      1893       179 |   1  12    1    0 260f |    2.746       0       1       0       1     12     12      0   1856     216       2  12    0260f a70f     30.360 "
test,1583575741526092032,60," | 60  |   2074       5   2065       0 |   5    0      1930       135 |   2   1    0    0 c00f |    2.105       0       5       0       5      1      1      0   1900     165       2   1    0c00f a70f      8.820 "
test,1583575741539046912,61," | 61  |   2074       5   2064       0 |   0    8      1974        90 |   0  61   40    1 db0f |    0           0       0       0       8      0      0      0   1918     146       0  61    1db0f a70f     30.180 "
test,1583575741518967040,7," |  7  |   2074       5   2071       0 |   5    8      2039        32 |   1   1    9    0 c00f |    1.342       0       5       0       5      1      1      0   2028      43       1   1    0c00f a70f      8.160 "
test,1583575741547096064,9," |  9  |   2074       5   2070       0 |   4    0      1995        75 |   5   9    0    1 9a0f |    1.739       0       1       0       1      9      9      0   1985      85       2   9    19a0f a70f     30.300 "
