test,1583575920022603008,10," | 10  |   2788       5   2760       0 |   5    0      2714        46 |   1   1    0    0 220f |    1.281       0       5       0       5      1      1      0   2674      86       1   1    0220f a70f      7.560 "
test,1583575920023747072,12," | 12  |   2788       5   2786       0 |   5    0      2763        23 |   1   1    0    0 220f |    1.373       0       5       0       5      1      1      0   2718      68       1   1    0220f a70f      7.590 "
test,1583575920022444032,13," | 13  |   2788       5   2784       0 |   5    0      2764        20 |   1   1    0    0 220f |    1.373       0       5       0       5      1      1      0   2730      54       1   1    0220f a70f      7.560 "
test,1583575920026132992,15," | 15  |   2788       5   2786       0 |   5    0      2685       101 |   2   1    0    0 220f |    2.075       0       5       0       5      1      1      0   2572     214       2   1    0220f a70f      8.160 "
test,1583575920027314944,16," | 16  |   2788       5   2784       0 |   5    0      2690        94 |   1  52    0    0 120f |    1.983       0       5       0       5     52     52      0   2622     162       1  52    0120f a70f      8.880 "
test,1583575920042354944,17," | 17  |   2788       5   2779       5 |   3    5      2752        32 |   2  46   52    0 750f |    0           0       0       0       8      0      0      0   2666     118       0  46    0750f a70f     30.390 "
test,1583575920038196992,18," | 18  |   2788       5   2783       0 |   4   10      2628       155 |   1  47   52    0 2e0f |    2.044       0       5       0       5     47     47      0   2508     275       1  47    02e0f a70f     17.280 "
test,1583575920041348096,19," | 19  |   2788       4   2775       9 |   2    4      2739        45 |   3  46   52    0 750f |    0           0       0       0       8      0      0      0   2650     134       0  46    0750f a70f     30.360 "
test,1583575920020730880,1," |  1  |   2788       4   2785       0 |   5    0      2719        66 |   2   1    0    1 220f |    1.770       0       4       0       4      1      1      0   2698      87       2   1    1220f a70f      6.510 "
test,1583575920048904960,22," | 22  |   2788       5   2782       0 |   5    0      2759        23 |   3  52    0    0 120f |    4.211       0       4       0       4     52     52      0   2629     153       4  52    0120f a70f     30.300 "
test,1583575920025464064,23," | 23  |   2788       5   2726       0 |   5    0      2713        13 |   2  52    0    0 120f |    2.014       0       5       0       5     52     52      0   2659      67       1  52    0120f a70f      9.600 "
test,1583575920025281792,24," | 24  |   2788       5   2782       2 |   5    0      2760        24 |   2  52    0    0 120f |    2.044       0       5       0       5     52     52      0   2694      90       1  52    0120f a70f      9.720 "
test,1583575920029198848,26," | 26  |   2788       5   2782       2 |   5    0      2774        10 |   1  52    0    0 120f |    2.014       0       5       0       5     52     52      0   2722      62       1  52    0120f a70f      9.540 "
test,1583575920041862912,27," | 27  |   2788       5   2786       0 |   2    2      2707        79 |   3  46   52    0 750f |    0           0       0       0       8      0      0      0   2590     196       0  46    0750f a70f     30.360 "
test,1583575920043688960,28," | 28  |   2788       5   2781       3 |   5    0      2567       217 |   3  46    0    0 750f |    0           0       0       0       8      0      0      0   2469     315       0  46    0750f a70f     30.360 "
test,1583575920043138048,29," | 29  |   2788       5   2782       4 |   1    0      2482       304 |   6  46    0    0 750f |    0           0       0       0       8      0      0      0   2343     443       0  46    0750f a70f     30.360 "
test,1583575920042876928,30," | 30  |   2788       5   2784       0 |   5    0      2746        38 |   4  46    0    0 750f |    0           0       0       0       8      0      0      0   2654     130       0  46    0750f a70f     30.360 "
test,1583575920042667008,35," | 35  |   2788       5   2784       0 |   5    0      2659       125 |   5  46    0    0 750f |    0           0       0       0       8      0      0      0   2602     182       0  46    0750f a70f     30.360 "
test,1583575920026809088,40," | 40  |   2788       5   2739      41 |   1    4      2596       184 |   2  46   47    0 750f |    2.746       0       5       0       5     46     46      0   2529     251       2  46    0750f a70f      9.630 "
test,1583575920027628800,41," | 41  |   2788       5   2734      40 |   1    5      2747        27 |   1  46   47    0 750f |    2.014       0       5       0       5     46     46      0   2672     102       1  46    0750f a70f      9.660 "
test,1583575920046030080,42," | 42  |   2788       5   2740      44 |   1    8      2718        66 |   2  46   47    0 750f |    2.746       0       4       0       4     46     46      0   2649     135       2  46    0750f a70f     30.360 "
test,1583575920046286080,44," | 44  |   2788       5   2746      38 |   1    6      2715        69 |   2  46   47    0 750f |    3.479       0       4       0       4     46     46      0   2659     125       3  46    0750f a70f     30.390 "
test,1583575920029031936,45," | 45  |   2788       5   2756      28 |   1    6      2692        92 |   2  46   47    0 750f |    2.777       0       5       0       5     46     46      0   2640     144       2  46    0750f a70f      8.970 "
test,1583575920018476032,46," | 46  |   2788       5   2738      39 |   1    4      2653       124 |   2  46   47    1 750f |    1.739       0       4       0       4     46     46      0   2598     179       2  46    1750f a70f      6.510 "
test,1583575920034063104,47," | 47  |   2788       5   2745      39 |   2    0      2686        98 |  17  47    0    1 2e0f |   12.451       0       4       0       4     47     47      0   2624     160      17  47    12e0f a70f     14.820 "
test,1583575920033186048,48," | 48  |   2788       5   2680      37 |   1    6      2652        65 |   2  46   47    0 750f |    2.746       0       5       0       5     46     46      0   2596     121       2  46    0750f a70f      8.970 "
test,1583575920023441152,49," | 49  |   2788       5   2778       0 |   5    0      2729        49 |   1  55    0    0 2a0f |    2.685       0       5       0       5     55     55      0   2701      77       2  55    02a0f a70f      8.880 "
test,1583575920021481984,51," | 51  |   2788       5   2779       0 |   5    0      2760        19 |   1   1    0    0 220f |    1.312       0       5       0       5      1      1      0   2752      27       1   1    0220f a70f      7.560 "
test,1583575920028167936,52," | 52  |   2788       4   2757      23 |   4    0      2646       134 |   4  52    0    1 120f |    1.770       0       4       0       4     52     52      0   2592     188       2  52    1120f a70f      7.950 "
test,1583575920025736192,53," | 53  |   2788       5   2762       0 |   5    0      2629       133 |   1  55    0    0 2a0f |    1.983       0       5       0       5     55     55      0   2594     168       1  55    02a0f a70f      8.220 "
test,1583575920021742080,54," | 54  |   2788       5   2780       0 |   5    0      2733        47 |   1   1    0    0 220f |    1.342       0       5       0       5      1      1      0   2688      92       1   1    0220f a70f      7.560 "
test,1583575920024125184,55," | 55  |   2788       5   2767       0 |   4    0      2673        94 |   2  55    0    1 2a0f |    1.739       0       4       0       4     55     55      0   2647     120       2  55    12a0f a70f      6.480 "
test,1583575920025931008,56," | 56  |   2788       5   2770       0 |   5    4      2724        46 |   1  58    1    0 1a0f |    2.777       0       5       0       5     58     58      0   2701      69       2  58    01a0f a70f      8.880 "
test,1583575920023905024,57," | 57  |   2788       5   2725       0 |   5    9      2656        69 |   1  58   52    0 1a0f |    2.044       0       5       0       5     58     58      0   2496     229       1  58    01a0f a70f      8.130 "
test,1583575920026492160,58," | 58  |   2788       5   2779       0 |   4    0      2746        33 |  14  58    0    1 1a0f |    1.739       0       4       0       4     58     58      0   2630     149       2  58    11a0f a70f      7.920 "
test,1583575920023247104,5," |  5  |   2788       5   2786       0 |   5    0      2553       233 |   2   1    0    0 220f |    2.075       0       5       0       5      1      1      0   2502     284       2   1    0220f a70f      8.280 "
test,1583575920024350976,60," | 60  |   2788       5   2779       0 |   5    0      2602       177 |   2   1    0    0 220f |    2.105       0       5       0       5      1      1      0   2556     223       2   1    0220f a70f      8.340 "
test,1583575920024667904,61," | 61  |   2788       5   2778       0 |   5    2      2659       119 |   1  58    1    0 1a0f |    2.014       0       5       0       5     58     58      0   2577     201       1  58    01a0f a70f      8.970 "
test,1583575920022255872,7," |  7  |   2788       5   2785       0 |   5    0      2742        43 |   1   1    0    0 220f |    1.342       0       5       0       5      1      1      0   2728      57       1   1    0220f a70f      7.590 "
test,1583575920025028864,9," |  9  |   2788       5   2784       0 |   5    0      2675       109 |   1   1    0    0 220f |    1.312       0       5       0       5      1      1      0   2661     123       1   1    0220f a70f      7.590 "
