test,1583576135029537024,10," | 10  |   3648       5   3620       0 |   5    0      3559        61 |   1  58    0    0 710f |    2.014       0       5       0       5     58     58      0   3511     109       1  58    0710f a70f      8.250 "
test,1583576135032417024,12," | 12  |   3648       5   3646       0 |   5    0      3617        29 |   1  58    0    0 710f |    2.777       0       5       0       5     58     58      0   3558      88       2  58    0710f a70f      9.690 "
test,1583576135028944896,13," | 13  |   3648       5   3644       0 |   5    0      3619        25 |   2  58    0    0 710f |    2.777       0       5       0       5     58     58      0   3573      71       2  58    0710f a70f      8.850 "
test,1583576135048742912,15," | 15  |   3648       5   3646       0 |   0    3      3506       140 |   0  15   58    1  40f |    0           0       0       0       8      0      0      0   3352     294       0  15    1 40f a70f     30.210 "
test,1583576135033206016,16," | 16  |   3648       5   3644       0 |   5    0      3511       133 |   2  24    0    0 4c0f |    2.746       0       5       0       5     24     24      0   3410     234       2  24    04c0f a70f      8.940 "
test,1583576135030586880,17," | 17  |   3648       5   3639       5 |   5    0      3598        46 |   2  24    0    0 4c0f |    2.044       0       5       0       5     24     24      0   3484     160       1  24    04c0f a70f      8.880 "
test,1583576135034699008,18," | 18  |   3648       5   3643       0 |   5    0      3443       200 |   1  24    0    0 4c0f |    2.075       0       5       0       5     24     24      0   3290     353       1  24    04c0f a70f      8.280 "
test,1583576135030742016,19," | 19  |   3648       5   3635       9 |   5    0      3589        55 |   2  24    0    0 4c0f |    2.777       0       5       0       5     24     24      0   3476     168       2  24    04c0f a70f      9.720 "
test,1583576135031323904,1," |  1  |   3648       4   3645       0 |   5    0      3561        84 |   2  58    0    0 710f |    3.417       0       5       0       5     58     58      0   3533     112       2  58    0710f a70f      9.600 "
test,1583576135029836032,22," | 22  |   3648       5   3642       0 |   5    0      3615        27 |   1  24    0    0 4c0f |    2.044       0       5       0       5     24     24      0   3445     197       1  24    04c0f a70f      8.250 "
test,1583576135027667968,23," | 23  |   3648       5   3586       0 |   5    0      3568        18 |   2  24    0    0 4c0f |    2.044       0       5       0       5     24     24      0   3491      95       1  24    04c0f a70f      8.190 "
test,1583576135026488064,24," | 24  |   3648       5   3642       2 |   5    0      3611        33 |   2  24    0    1 4c0f |    1.770       0       4       0       4     24     24      0   3521     123       2  24    14c0f a70f      6.510 "
test,1583576135026880000,26," | 26  |   3648       5   3642       2 |   5    0      3630        14 |   1  24    0    0 4c0f |    2.044       0       5       0       5     24     24      0   3562      82       1  24    04c0f a70f      8.280 "
test,1583576135030244096,27," | 27  |   3648       5   3646       0 |   5    0      3546       100 |   3  24    0    0 4c0f |    2.777       0       5       0       5     24     24      0   3390     256       2  24    04c0f a70f      8.880 "
test,1583576135028715008,28," | 28  |   3648       5   3640       4 |   4    0      3361       283 |   2  20    0    0 dd0f |    2.777       0       5       0       5     20     20      0   3224     420       2  20    0dd0f a70f      8.970 "
test,1583576135051318016,29," | 29  |   3648       5   3641       5 |   4    0      3241       405 |   3  24    0    0 4c0f |    7.171       0       3       0       3     24     24      0   3069     577       8  24    04c0f a70f     30.360 "
test,1583576135030947072,30," | 30  |   3648       5   3643       1 |   5    0      3591        53 |   1  20    0    0 dd0f |    2.014       0       5       0       5     20     20      0   3460     184       1  20    0dd0f a70f      8.190 "
test,1583576135028390912,35," | 35  |   3648       5   3643       1 |   5    0      3472       172 |   2  20    0    0 dd0f |    2.777       0       5       0       5     20     20      0   3394     250       2  20    0dd0f a70f      8.880 "
test,1583576135031517952,40," | 40  |   3648       4   3580      60 |   4    0      3412       228 |   3  24    0    0 4c0f |    2.044       0       5       0       5     24     24      0   3321     319       1  24    04c0f a70f      8.310 "
test,1583576135036201984,41," | 41  |   3648       5   3575      59 |   5    0      3598        36 |   2  24    0    0 4c0f |    2.807       0       5       0       5     24     24      0   3506     128       2  24    04c0f a70f      9.000 "
test,1583576135030098944,42," | 42  |   3648       5   3583      61 |   5    0      3561        83 |   1  24    0    0 4c0f |    2.075       0       5       0       5     24     24      0   3471     173       1  24    04c0f a70f      8.880 "
test,1583576135034877184,44," | 44  |   3648       5   3587      57 |   5    0      3560        84 |   1  24    0    0 4c0f |    2.075       0       5       0       5     24     24      0   3486     158       1  24    04c0f a70f      8.280 "
test,1583576135033995008,45," | 45  |   3648       5   3601      43 |   5    0      3529       115 |   2  24    0    0 4c0f |    2.807       0       5       0       5     24     24      0   3464     180       2  24    04c0f a70f      9.030 "
test,1583576135032826880,46," | 46  |   3648       5   3580      57 |   5    0      3475       162 |   2  24    0    0 4c0f |    2.807       0       5       0       5     24     24      0   3404     233       2  24    04c0f a70f      9.750 "
test,1583576135031147008,47," | 47  |   3648       5   3587      57 |   5    0      3515       129 |   2  24    0    0 4c0f |    2.807       0       5       0       5     24     24      0   3444     200       2  24    04c0f a70f      9.750 "
test,1583576135037040896,48," | 48  |   3648       5   3522      55 |   5    0      3489        88 |   2  24    0    0 4c0f |    2.777       0       5       0       5     24     24      0   3419     158       2  24    04c0f a70f      9.600 "
test,1583576135026710016,49," | 49  |   3648       5   3638       0 |   5    0      3572        66 |   1  58    0    0 710f |    2.014       0       5       0       5     58     58      0   3540      98       1  58    0710f a70f      8.220 "
test,1583576135029364224,51," | 51  |   3648       5   3639       0 |   5    0      3602        37 |   2  58    0    0 710f |    2.746       0       5       0       5     58     58      0   3587      52       2  58    0710f a70f      8.970 "
test,1583576135048541952,52," | 52  |   3648       5   3617      23 |   5    0      3468       172 |   1  24    0    0 4c0f |    2.014       0       4       0       4     24     24      0   3396     244       1  24    04c0f a70f     30.360 "
test,1583576135034347008,53," | 53  |   3648       5   3622       0 |   5    0      3438       184 |   2  58    0    0 710f |    2.716       0       5       0       5     58     58      0   3395     227       2  58    0710f a70f      8.790 "
test,1583576135032147968,54," | 54  |   3648       5   3640       0 |   5    0      3577        63 |   1  58    0    0 710f |    2.044       0       5       0       5     58     58      0   3517     123       1  58    0710f a70f      8.160 "
test,1583576135027468032,55," | 55  |   3648       5   3627       0 |   5    0      3492       135 |   1  58    0    0 710f |    2.014       0       5       0       5     58     58      0   3460     167       1  58    0710f a70f      8.220 "
test,1583576135026267904,56," | 56  |   3648       5   3630       0 |   5    0      3574        56 |   1  58    0    0 710f |    2.014       0       5       0       5     58     58      0   3538      92       1  58    0710f a70f      8.220 "
test,1583576135049561856,57," | 57  |   3648       5   3585       0 |   1    5      3494        91 |   1  58   24    0 710f |    1.983       0       3       0       3     58     58      0   3281     304       1  58    0710f a70f     30.270 "
test,1583576135021904896,58," | 58  |   3648       5   3639       0 |   4    0      3591        48 |   4  58    0    1 710f |    1.739       0       4       0       4     58     58      0   3434     205       2  58    1710f a70f      6.480 "
test,1583576135040782848,5," |  5  |   3648       5   3646       0 |   4    4      3327       319 |   3  58   15    0 710f |    3.479       0       5       0       5     58     58      0   3262     384       3  58    0710f a70f      9.690 "
test,1583576135035126016,60," | 60  |   3648       5   3639       0 |   5    0      3411       228 |   3  58    0    0 710f |    3.448       0       5       0       5     58     58      0   3348     291       3  58    0710f a70f      9.630 "
test,1583576135050050048,61," | 61  |   3648       5   3638       0 |   5    0      3476       162 |   1  58    0    0 710f |    2.014       0       4       0       4     58     58      0   3360     278       1  58    0710f a70f     30.300 "
test,1583576135027827968,7," |  7  |   3648       5   3645       0 |   5    0      3585        60 |   2  58    0    0 710f |    2.716       0       5       0       5     58     58      0   3562      83       2  58    0710f a70f      8.940 "
test,1583576135028222208,9," |  9  |   3648       5   3644       0 |   5    0      3513       131 |   2  58    0    0 710f |    2.746       0       5       0       5     58     58      0   3495     149       2  58    0710f a70f      8.970 "
