test,1583576089779046144,10," | 10  |   3467       5   3439       0 |   5    0      3381        58 |   2  60    0    0 3a0f |    2.746       0       5       0       5     60     60      0   3333     106       2  60    03a0f a70f     10.410 "
test,1583576089793030912,12," | 12  |   3467       5   3465       0 |   2   17      3436        29 |   1   5    1    0 e80f |    0           0       0       0       8      0      0      0   3379      86       0   5    0e80f a70f     30.390 "
test,1583576089793792000,13," | 13  |   3467       5   3463       0 |   1   17      3439        24 |   1   5    1    0 e80f |    2.044       0       1       0       1      5      5      0   3395      68       1   5    0e80f a70f     30.360 "
test,1583576089795847936,15," | 15  |   3467       5   3465       0 |   1    2      3334       131 |   2   5    1    0 e80f |    0           0       0       0       8      0      0      0   3182     283       0   5    0e80f a70f     30.390 "
test,1583576089780976128,16," | 16  |   3467       5   3463       0 |   5    0      3335       128 |   4  60    0    0 3a0f |    3.448       0       5       0       5     60     60      0   3244     219       3  60    03a0f a70f      9.630 "
test,1583576089781740800,17," | 17  |   3467       5   3458       5 |   5    0      3421        42 |   3  60    0    0 3a0f |    3.479       0       5       0       5     60     60      0   3311     152       3  60    03a0f a70f      9.660 "
test,1583576089798583040,18," | 18  |   3467       5   3462       0 |   5    7      3266       196 |   1  47   60    0 1d0f |    2.105       0       3       0       3     47     47      0   3121     341       1  47    01d0f a70f     30.330 "
test,1583576089788688896,19," | 19  |   3467       5   3454       9 |   2    8      3408        55 |   1  27   60    0 3e0f |   10.528       0       5       0       5     27     27      0   3297     166      13  27    03e0f a70f     17.940 "
test,1583576089800889088,1," |  1  |   3467       4   3464       0 |   0   13      3384        80 |   0   1   54    1 1b0f |    0           0       0       0       8      0      0      0   3357     107       0   1    11b0f a70f     30.180 "
test,1583576089781187072,22," | 22  |   3467       5   3461       0 |   5    0      3435        26 |   2  60    0    0 3a0f |    3.479       0       5       0       5     60     60      0   3272     189       3  60    03a0f a70f      9.600 "
test,1583576089776308992,23," | 23  |   3467       5   3405       0 |   5    0      3388        17 |   2  60    0    0 3a0f |    2.777       0       5       0       5     60     60      0   3316      89       2  60    03a0f a70f      9.000 "
test,1583576089780178944,24," | 24  |   3467       5   3461       2 |   4    4      3431        32 |   5  60   47    0 3a0f |    3.479       0       5       0       5     60     60      0   3344     119       3  60    03a0f a70f      9.630 "
test,1583576089778763008,26," | 26  |   3467       5   3461       2 |   5    0      3450        13 |   2  60    0    0 3a0f |    2.777       0       5       0       5     60     60      0   3385      78       2  60    03a0f a70f      9.720 "
test,1583576089801240064,27," | 27  |   3467       5   3465       0 |   1   10      3370        95 |   5  27   60    1 3e0f |   14.617       0       3       0       3     27     27      0   3220     245      20  27    13e0f a70f     30.180 "
test,1583576089781398016,28," | 28  |   3467       5   3460       3 |   5    0      3197       266 |   5  60    0    0 3a0f |    4.241       0       5       0       5     60     60      0   3072     391       4  60    03a0f a70f     11.130 "
test,1583576089784274176,29," | 29  |   3467       4   3460       5 |   2    0      3081       384 |   1  27    0    0 3e0f |    4.089       0       5       0       5     27     27      0   2915     550       4  27    03e0f a70f     12.930 "
test,1583576089782722048,30," | 30  |   3467       5   3463       0 |   5    0      3413        50 |   4  60    0    0 3a0f |    4.211       0       5       0       5     60     60      0   3290     173       4  60    03a0f a70f     10.380 "
test,1583576089779318016,35," | 35  |   3467       5   3463       0 |   5    0      3302       161 |   3  60    0    0 3a0f |    4.211       0       5       0       5     60     60      0   3230     233       4  60    03a0f a70f     10.290 "
test,1583576089797435136,40," | 40  |   3467       5   3399      60 |   0    5      3237       222 |   0  40   47    1 560f |    0           0       0       0       8      0      0      0   3149     310       0  40    1560f a70f     30.180 "
test,1583576089777156096,41," | 41  |   3467       5   3395      58 |   1   13      3417        36 |   1  46   47    0 a10f |    2.014       0       5       0       5     46     46      0   3327     126       1  46    0a10f a70f      8.220 "
test,1583576089796602880,42," | 42  |   3467       5   3402      61 |   1   12      3380        83 |   2  46   47    0 a10f |    2.746       0       4       0       4     46     46      0   3292     171       2  46    0a10f a70f     30.270 "
test,1583576089779602176,44," | 44  |   3467       5   3406      57 |   1    9      3384        79 |   2  46   47    0 a10f |    2.716       0       5       0       5     46     46      0   3312     151       2  46    0a10f a70f      9.660 "
test,1583576089778532096,45," | 45  |   3467       5   3420      43 |   1   11      3354       109 |   2  46   47    0 a10f |    2.746       0       5       0       5     46     46      0   3289     174       2  46    0a10f a70f      8.880 "
test,1583576089776503040,46," | 46  |   3467       5   3399      57 |   1    8      3301       155 |   2  46   47    1 a10f |    1.739       0       4       0       4     46     46      0   3231     225       2  46    1a10f a70f      6.510 "
test,1583576089797084160,47," | 47  |   3467       5   3406      57 |   4    5      3339       124 |   5  47   60    1 1d0f |   10.284       0       1       0       1     47     47      0   3268     195      14  47    11d0f a70f     30.240 "
test,1583576089797244928,48," | 48  |   3467       5   3341      55 |   4    5      3310        86 |   5  60   47    0 3a0f |    0           0       0       0       8      0      0      0   3241     155       0  60    03a0f a70f     30.360 "
test,1583576089777796864,49," | 49  |   3467       5   3457       0 |   5    0      3393        64 |   3  54    0    0 650f |    2.716       0       5       0       5     54     54      0   3362      95       2  54    0650f a70f      8.850 "
test,1583576089775958016,51," | 51  |   3467       5   3458       0 |   5    0      3423        35 |   1  60    0    0 3a0f |    2.044       0       5       0       5     60     60      0   3409      49       1  60    03a0f a70f      8.100 "
test,1583576089789131008,52," | 52  |   3467       5   3436      23 |   5    0      3291       168 |   3  60    0    0 3a0f |    3.479       0       5       0       5     60     60      0   3224     235       3  60    03a0f a70f     10.290 "
test,1583576089779865856,53," | 53  |   3467       5   3441       0 |   5    0      3270       171 |   4  54    0    0 650f |    3.448       0       5       0       5     54     54      0   3228     213       3  54    0650f a70f      9.630 "
test,1583576089795144192,54," | 54  |   3467       5   3459       0 |   4   11      3400        59 |   2  54    1    1 650f |    1.739       0       2       0       2     54     54      0   3341     118       2  54    1650f a70f     30.300 "
test,1583576089778352128,55," | 55  |   3467       5   3446       0 |   5    0      3316       130 |   3  54    0    0 650f |    2.685       0       5       0       5     54     54      0   3285     161       2  54    0650f a70f      8.910 "
test,1583576089776715008,56," | 56  |   3467       5   3449       0 |   5    0      3395        54 |   2  60    0    0 3a0f |    2.014       0       5       0       5     60     60      0   3360      89       1  60    03a0f a70f      8.940 "
test,1583576089781929984,57," | 57  |   3467       4   3404       0 |   4    4      3318        86 |   1  60   54    0 3a0f |    2.044       0       5       0       5     60     60      0   3117     287       1  60    03a0f a70f      9.720 "
test,1583576089800425984,58," | 58  |   3467       5   3458       0 |   5    1      3411        47 |   2  54   60    0 650f |    1.983       0       2       0       2     54     54      0   3265     193       1  54    0650f a70f     30.240 "
test,1583576089795606016,5," |  5  |   3467       5   3465       0 |   1    0      3167       298 |   3   5    0    1 e80f |    1.770       0       1       0       1      5      5      0   3104     361       2   5    1e80f a70f     30.300 "
test,1583576089775666944,60," | 60  |   3467       5   3458       0 |   5    0      3239       219 |   2  60    0    1 3a0f |    1.739       0       4       0       4     60     60      0   3177     281       2  60    13a0f a70f      6.480 "
test,1583576089800211968,61," | 61  |   3467       5   3457       0 |   5    1      3305       152 |   1  54   60    0 650f |    2.014       0       2       0       2     54     54      0   3200     257       1  54    0650f a70f     30.390 "
test,1583576089794455040,7," |  7  |   3467       5   3464       0 |   5    0      3406        58 |   2  60    0    0 3a0f |    4.211       0       4       0       4     60     60      0   3385      79       4  60    03a0f a70f     30.390 "
test,1583576089797949184,9," |  9  |   3467       5   3463       0 |   3    7      3333       130 |   5  60    1    0 3a0f |    9.338       0       2       0       2     60     60      0   3315     148      11  60    03a0f a70f     30.390 "
