test,1583576037796997120,10," | 10  |   3259       5   3231       0 |   5    0      3179        52 |   5  49    0    0 680f |    8.666       0       4       0       4     49     49      0   3134      97      10  49    0680f a70f     30.270 "
test,1583576037777925888,12," | 12  |   3259       5   3257       0 |   5    0      3230        27 |   2  12    0    1 670f |    3.814       0       4       0       4     12     12      0   3177      80       5  12    1670f a70f      8.520 "
test,1583576037797964032,13," | 13  |   3259       5   3255       0 |   5    0      3231        24 |   2  12    0    0 670f |    8.483       0       2       0       2     12     12      0   3189      66      10  12    0670f a70f     30.390 "
test,1583576037778353920,15," | 15  |   3259       5   3257       0 |   5    0      3135       122 |   1  12    0    0 670f |    4.089       0       5       0       5     12     12      0   2993     264       4  12    0670f a70f     10.290 "
test,1583576037798297856,16," | 16  |   3259       5   3255       0 |   1    5      3134       121 |   1  45   49    0 db0f |    1.983       0       2       0       2     45     45      0   3054     201       1  45    0db0f a70f     30.360 "
test,1583576037787704832,17," | 17  |   3259       5   3250       5 |   5    0      3219        36 |   6  49    0    0 680f |    4.211       0       5       0       5     49     49      0   3118     137       4  49    0680f a70f     13.200 "
test,1583576037784441856,18," | 18  |   3259       5   3254       0 |   5    0      3074       180 |   4  49    0    0 680f |    4.943       0       5       0       5     49     49      0   2935     319       5  49    0680f a70f     11.100 "
test,1583576037784146944,19," | 19  |   3259       5   3246       9 |   5    0      3202        53 |   7  49    0    0 680f |    4.241       0       5       0       5     49     49      0   3102     153       4  49    0680f a70f     12.600 "
test,1583576037773426176,1," |  1  |   3259       4   3256       0 |   4   10      3181        75 |   5   1   12    1 1b0f |    1.739       0       4       0       4      1      1      0   3158      98       2   1    11b0f a70f      6.480 "
test,1583576037787440896,22," | 22  |   3259       5   3253       0 |   5    0      3228        25 |   3  49    0    0 680f |    4.241       0       5       0       5     49     49      0   3075     178       4  49    0680f a70f     11.790 "
test,1583576037783695104,23," | 23  |   3259       5   3197       0 |   5    0      3182        15 |   3  49    0    0 680f |    3.509       0       5       0       5     49     49      0   3118      79       3  49    0680f a70f     11.010 "
test,1583576037788353024,24," | 24  |   3259       5   3253       2 |   5    0      3227        28 |   4  49    0    0 680f |    4.180       0       5       0       5     49     49      0   3146     109       4  49    0680f a70f     11.130 "
test,1583576037782169088,26," | 26  |   3259       5   3253       2 |   5    0      3243        12 |   3  49    0    0 680f |    4.211       0       5       0       5     49     49      0   3182      73       4  49    0680f a70f     12.600 "
test,1583576037800844032,27," | 27  |   3259       5   3257       0 |   4    8      3164        93 |   8  27   49    1 3b0f |    1.739       0       1       0       1     27     27      0   3026     231       2  27    13b0f a70f     30.300 "
test,1583576037776741120,28," | 28  |   3259       5   3252       3 |   4    1      3008       247 |   3  20   49    0 cc0f |    2.746       0       5       0       5     20     20      0   2890     365       2  20    0cc0f a70f      8.790 "
test,1583576037798852864,29," | 29  |   3259       5   3252       5 |   5    5      2902       355 |   1  27   49    0 3b0f |    1.983       0       2       0       2     27     27      0   2746     511       1  27    03b0f a70f     30.300 "
test,1583576037783174912,30," | 30  |   3259       5   3255       0 |   5    0      3208        47 |   1  20    0    0 cc0f |    2.014       0       5       0       5     20     20      0   3096     159       1  20    0cc0f a70f      8.250 "
test,1583576037780724992,35," | 35  |   3259       5   3255       0 |   5    0      3105       150 |   2  20    0    0 cc0f |    2.716       0       5       0       5     20     20      0   3039     216       2  20    0cc0f a70f      8.940 "
test,1583576037786232064,40," | 40  |   3259       5   3192      59 |   3    3      3041       210 |   5  49   45    0 680f |    7.141       0       5       0       5     49     49      0   2956     295       8  49    0680f a70f     14.610 "
test,1583576037796685056,41," | 41  |   3259       5   3188      57 |   4    4      3209        36 |   3  45   49    0 db0f |    2.014       0       2       0       2     45     45      0   3123     122       1  45    0db0f a70f     30.330 "
test,1583576037789524992,42," | 42  |   3259       5   3195      60 |   3    6      3174        81 |   5  49   45    0 680f |    6.378       0       5       0       5     49     49      0   3088     167       7  49    0680f a70f     14.010 "
test,1583576037791450880,44," | 44  |   3259       5   3199      56 |   4    6      3177        78 |   4  49   45    0 680f |    6.408       0       5       0       5     49     49      0   3107     148       7  49    0680f a70f     13.950 "
test,1583576037799940096,45," | 45  |   3259       5   3213      42 |   4    0      3151       104 |   2  45    0    1 db0f |    1.739       0       2       0       2     45     45      0   3088     167       2  45    1db0f a70f     30.300 "
test,1583576037790152960,46," | 46  |   3259       5   3192      56 |   3    4      3101       147 |   5  49   45    0 680f |    7.171       0       5       0       5     49     49      0   3035     213       8  49    0680f a70f     14.730 "
test,1583576037786767104,47," | 47  |   3259       5   3199      56 |   3    3      3141       114 |   5  49   45    0 680f |    5.706       0       5       0       5     49     49      0   3071     184       6  49    0680f a70f     11.850 "
test,1583576037791060992,48," | 48  |   3259       5   3134      54 |   3    5      3106        82 |   4  49   45    0 680f |    6.439       0       5       0       5     49     49      0   3039     149       7  49    0680f a70f     14.010 "
test,1583576037774168064,49," | 49  |   3259       5   3249       0 |   4    0      3192        57 |   2  49    0    1 680f |    1.739       0       4       0       4     49     49      0   3163      86       2  49    1680f a70f      6.480 "
test,1583576037780344064,51," | 51  |   3259       5   3250       0 |   5    0      3222        28 |   4  49    0    0 680f |    3.479       0       5       0       5     49     49      0   3209      41       3  49    0680f a70f      9.660 "
test,1583576037781518080,52," | 52  |   3259       5   3228      23 |   5    0      3097       154 |   5  49    0    0 680f |    4.241       0       5       0       5     49     49      0   3035     216       4  49    0680f a70f     11.880 "
test,1583576037781146112,53," | 53  |   3259       5   3233       0 |   5    0      3072       161 |   1  49    0    0 680f |    2.044       0       5       0       5     49     49      0   3032     201       1  49    0680f a70f      8.190 "
test,1583576037799557888,54," | 54  |   3259       5   3251       0 |   3   10      3196        55 |   2  49    1    0 680f |   10.833       0       2       0       2     49     49      0   3143     108      13  49    0680f a70f     30.360 "
test,1583576037775312896,55," | 55  |   3259       5   3238       0 |   5    0      3119       119 |   1  49    0    0 680f |    2.014       0       5       0       5     49     49      0   3089     149       1  49    0680f a70f      8.220 "
test,1583576037777524992,56," | 56  |   3259       5   3241       0 |   5    0      3189        52 |   2  49    0    0 680f |    2.746       0       5       0       5     49     49      0   3155      86       2  49    0680f a70f      8.970 "
test,1583576037779109888,57," | 57  |   3259       5   3196       0 |   5    0      3116        80 |   2  49    0    0 680f |    2.777       0       5       0       5     49     49      0   2926     270       2  49    0680f a70f      8.940 "
test,1583576037778782976,58," | 58  |   3259       5   3250       0 |   5    0      3207        43 |   1  49    0    0 680f |    2.044       0       5       0       5     49     49      0   3066     184       1  49    0680f a70f      8.970 "
test,1583576037779603968,5," |  5  |   3259       5   3257       0 |   5    0      2977       280 |   1  12    0    0 670f |    2.044       0       5       0       5     12     12      0   2918     339       1  12    0670f a70f      9.420 "
test,1583576037785223936,60," | 60  |   3259       5   3250       0 |   5    0      3039       211 |   3  49    0    0 680f |    3.448       0       5       0       5     49     49      0   2982     268       3  49    0680f a70f     10.260 "
test,1583576037786022912,61," | 61  |   3259       5   3249       0 |   5    0      3104       145 |   2  49    0    0 680f |    2.777       0       5       0       5     49     49      0   3003     246       2  49    0680f a70f      9.720 "
test,1583576037795787008,7," |  7  |   3259       5   3256       0 |   5    0      3202        54 |   3  12    0    0 670f |    8.483       0       2       0       2     12     12      0   3184      72      10  12    0670f a70f     30.330 "
test,1583576037774588160,9," |  9  |   3259       5   3255       0 |   5    0      3136       119 |   4   1    0    0 1b0f |    1.342       0       5       0       5      1      1      0   3119     136       1   1    01b0f a70f      7.560 "
