test,1583576090528562176,10," | 10  |   3470       5   3442       0 |   5    0      3384        58 |   2  15    0    0 450f |    3.479       0       5       0       5     15     15      0   3336     106       3  15    0450f a70f      9.630 "
test,1583576090525383936,12," | 12  |   3470       5   3468       0 |   5    0      3439        29 |   1  15    0    0 450f |    2.014       0       5       0       5     15     15      0   3382      86       1  15    0450f a70f      8.130 "
test,1583576090526829056,13," | 13  |   3470       5   3466       0 |   5    0      3442        24 |   1  15    0    0 450f |    2.746       0       5       0       5     15     15      0   3398      68       2  15    0450f a70f      9.000 "
test,1583576090529325056,15," | 15  |   3470       4   3468       0 |   4    0      3337       131 |   2  15    0    1 450f |    1.739       0       4       0       4     15     15      0   3185     283       2  15    1450f a70f      6.480 "
test,1583576090553800192,16," | 16  |   3470       5   3466       0 |   4    0      3338       128 |   2  16    0    1 200f |    1.770       0       1       0       1     16     16      0   3247     219       2  16    1200f a70f     30.300 "
test,1583576090532315136,17," | 17  |   3470       5   3461       5 |   5    0      3424        42 |   3  44    0    0  a0f |    3.479       0       5       0       5     44     44      0   3314     152       3  44    0 a0f a70f     10.380 "
test,1583576090530770944,18," | 18  |   3470       5   3465       0 |   5    0      3268       197 |   2  44    0    0  a0f |    2.807       0       5       0       5     44     44      0   3123     342       2  44    0 a0f a70f      9.000 "
test,1583576090533363200,19," | 19  |   3470       5   3457       9 |   5    0      3411        55 |   3  44    0    0  a0f |    3.509       0       5       0       5     44     44      0   3300     166       3  44    0 a0f a70f     10.470 "
test,1583576090529985792,1," |  1  |   3470       4   3467       0 |   5    0      3387        80 |   2  15    0    0 450f |    3.417       0       5       0       5     15     15      0   3360     107       2  15    0450f a70f      9.630 "
test,1583576090530160896,22," | 22  |   3470       5   3464       0 |   5    0      3438        26 |   3  44    0    0  a0f |    2.807       0       5       0       5     44     44      0   3274     190       2  44    0 a0f a70f      9.720 "
test,1583576090547885056,23," | 23  |   3470       5   3408       0 |   5    0      3391        17 |   1  16    0    0 200f |    2.014       0       1       0       1     16     16      0   3319      89       1  16    0200f a70f     30.390 "
test,1583576090525639168,24," | 24  |   3470       5   3464       2 |   5    0      3434        32 |   1  44    0    0  a0f |    2.044       0       5       0       5     44     44      0   3347     119       1  44    0 a0f a70f      8.130 "
test,1583576090528212992,26," | 26  |   3470       5   3464       2 |   5    0      3453        13 |   2  44    0    0  a0f |    2.807       0       5       0       5     44     44      0   3388      78       2  44    0 a0f a70f      9.750 "
test,1583576090548329984,27," | 27  |   3470       4   3468       0 |   3    0      3373        95 |   1  15    0    0 450f |    2.044       0       2       0       2     15     15      0   3223     245       1  15    0450f a70f     30.300 "
test,1583576090552331008,28," | 28  |   3470       5   3463       3 |   4    6      3200       266 |   4  30   35    0  90f |    2.014       0       2       0       2     30     30      0   3075     391       1  30    0 90f a70f     30.360 "
test,1583576090551465984,29," | 29  |   3470       4   3463       5 |   1    3      3084       384 |   2  15   44    0 450f |    2.746       0       1       0       1     15     15      0   2918     550       2  15    0450f a70f     30.360 "
test,1583576090547276032,30," | 30  |   3470       5   3466       0 |   1    6      3416        50 |  17  30   35    1  90f |    1.739       0       1       0       1     30     30      0   3293     173       2  30    1 90f a70f     30.300 "
test,1583576090543785984,35," | 35  |   3470       5   3466       0 |   0    2      3304       162 |   0  35   30    1 7e0f |    0           0       0       0       8      0      0      0   3232     234       0  35    17e0f a70f     30.180 "
test,1583576090529129984,40," | 40  |   3470       5   3402      60 |   5    0      3240       222 |   1  44    0    0  a0f |    2.044       0       5       0       5     44     44      0   3152     310       1  44    0 a0f a70f      9.540 "
test,1583576090529501952,41," | 41  |   3470       5   3398      58 |   5    0      3420        36 |   1  44    0    0  a0f |    2.044       0       5       0       5     44     44      0   3330     126       1  44    0 a0f a70f      9.000 "
test,1583576090539352832,42," | 42  |   3470       5   3405      61 |   5    0      3383        83 |   1  44    0    0  a0f |    2.044       0       5       0       5     44     44      0   3295     171       1  44    0 a0f a70f      8.880 "
test,1583576090526611200,44," | 44  |   3470       5   3409      57 |   4    0      3387        79 |   2  44    0    1  a0f |    1.739       0       4       0       4     44     44      0   3315     151       2  44    1 a0f a70f      6.480 "
test,1583576090529808896,45," | 45  |   3470       5   3423      43 |   5    0      3357       109 |   1  44    0    0  a0f |    2.044       0       5       0       5     44     44      0   3292     174       1  44    0 a0f a70f      8.160 "
test,1583576090531408128,46," | 46  |   3470       5   3402      57 |   5    0      3304       155 |   1  44    0    0  a0f |    2.014       0       5       0       5     44     44      0   3234     225       1  44    0 a0f a70f      8.970 "
test,1583576090527075072,47," | 47  |   3470       5   3409      57 |   5    0      3342       124 |   1  44    0    0  a0f |    2.075       0       5       0       5     44     44      0   3271     195       1  44    0 a0f a70f      8.310 "
test,1583576090532525056,48," | 48  |   3470       5   3344      55 |   5    0      3313        86 |   1  44    0    0  a0f |    2.075       0       5       0       5     44     44      0   3244     155       1  44    0 a0f a70f      9.720 "
test,1583576090525830912,49," | 49  |   3470       5   3460       0 |   5    0      3396        64 |   2  49    0    1 3b0f |    1.739       0       4       0       4     49     49      0   3365      95       2  49    13b0f a70f      6.480 "
test,1583576090547728896,51," | 51  |   3470       5   3461       0 |   3    8      3426        35 |   5  15   56    0 450f |    3.479       0       4       0       4     15     15      0   3412      49       3  15    0450f a70f     30.390 "
test,1583576090549030144,52," | 52  |   3470       4   3439      23 |   1    4      3294       168 |   1  16   44    0 200f |    2.014       0       1       0       1     16     16      0   3227     235       1  16    0200f a70f     30.360 "
test,1583576090527941888,53," | 53  |   3470       5   3444       0 |   5    0      3273       171 |   1  49    0    0 3b0f |    1.983       0       5       0       5     49     49      0   3231     213       1  49    03b0f a70f      8.190 "
test,1583576090531002112,54," | 54  |   3470       5   3462       0 |   4    2      3403        59 |   2  15   49    0 450f |    3.509       0       5       0       5     15     15      0   3344     118       3  15    0450f a70f     10.320 "
test,1583576090531162880,55," | 55  |   3470       5   3449       0 |   5    0      3319       130 |   1  49    0    0 3b0f |    1.983       0       5       0       5     49     49      0   3288     161       1  49    03b0f a70f      8.130 "
test,1583576090547517952,56," | 56  |   3470       5   3452       0 |   0    1      3397        55 |   0  56   15    1 c90f |    0           0       0       0       8      0      0      0   3362      90       0  56    1c90f a70f     30.180 "
test,1583576090549284096,57," | 57  |   3470       5   3407       0 |   2    8      3321        86 |   4  16   56    0 200f |    2.746       0       1       0       1     16     16      0   3120     287       2  16    0200f a70f     30.330 "
test,1583576090550492160,58," | 58  |   3470       4   3461       0 |   5    0      3414        47 |   1  49    0    0 3b0f |    2.014       0       4       0       4     49     49      0   3268     193       1  49    03b0f a70f     30.240 "
test,1583576090526220032,5," |  5  |   3470       5   3468       0 |   4    0      3170       298 |   1  15    0    0 450f |    1.983       0       5       0       5     15     15      0   3107     361       1  15    0450f a70f      8.190 "
test,1583576090549755136,60," | 60  |   3470       5   3461       0 |   2    8      3242       219 |   1  15   56    0 450f |    4.241       0       4       0       4     15     15      0   3180     281       4  15    0450f a70f     30.300 "
test,1583576090548763904,61," | 61  |   3470       5   3460       0 |   4    8      3308       152 |   2  49   56    0 3b0f |    2.746       0       4       0       4     49     49      0   3203     257       2  49    03b0f a70f     30.390 "
test,1583576090527280128,7," |  7  |   3470       5   3467       0 |   5    0      3409        58 |   2  15    0    0 450f |    2.716       0       5       0       5     15     15      0   3388      79       2  15    0450f a70f      8.910 "
test,1583576090527687168,9," |  9  |   3470       5   3466       0 |   5    0      3336       130 |   2  15    0    0 450f |    2.746       0       5       0       5     15     15      0   3318     148       2  15    0450f a70f      8.970 "
