test,1583576121280829952,10," | 10  |   3593       5   3565       0 |   5    1      3506        59 |   1   9   56    0 250f |    2.044       0       5       0       5      9      9      0   3458     107       1   9    0250f a70f      8.250 "
test,1583576121281382912,12," | 12  |   3593       5   3591       0 |   5    0      3562        29 |   1   9    0    0 250f |    2.044       0       5       0       5      9      9      0   3504      87       1   9    0250f a70f      8.910 "
test,1583576121279161856,13," | 13  |   3593       5   3589       0 |   5    0      3565        24 |   1   9    0    0 250f |    2.044       0       5       0       5      9      9      0   3520      69       1   9    0250f a70f      8.820 "
test,1583576121279341824,15," | 15  |   3593       5   3591       0 |   5    0      3453       138 |   2   9    0    0 250f |    2.777       0       5       0       5      9      9      0   3302     289       2   9    0250f a70f      9.720 "
test,1583576121280129792,16," | 16  |   3593       5   3589       0 |   5    1      3457       132 |   2  26   48    0 e00f |    2.014       0       5       0       5     26     26      0   3357     232       1  26    0e00f a70f      8.100 "
test,1583576121277644032,17," | 17  |   3593       5   3584       5 |   5    0      3545        44 |   5  17    0    1 b80f |    1.739       0       4       0       4     17     17      0   3432     157       2  17    1b80f a70f      6.510 "
test,1583576121278758912,18," | 18  |   3593       5   3588       0 |   5    0      3388       200 |   4  26    0    0 e00f |    2.014       0       5       0       5     26     26      0   3235     353       1  26    0e00f a70f      8.130 "
test,1583576121278539776,19," | 19  |   3593       5   3580       9 |   5    0      3534        55 |   4  17    0    0 b80f |    2.075       0       5       0       5     17     17      0   3421     168       1  17    0b80f a70f      8.310 "
test,1583576121276156928,1," |  1  |   3593       4   3590       0 |   5    1      3506        84 |   1   9   56    0 250f |    2.716       0       5       0       5      9      9      0   3479     111       1   9    0250f a70f      8.910 "
test,1583576121280493056,22," | 22  |   3593       5   3587       0 |   5    0      3561        26 |   3  26    0    0 e00f |    2.044       0       5       0       5     26     26      0   3391     196       1  26    0e00f a70f      8.250 "
test,1583576121279921152,23," | 23  |   3593       5   3531       0 |   5    2      3513        18 |   2  26   17    0 e00f |    2.014       0       5       0       5     26     26      0   3437      94       1  26    0e00f a70f      8.190 "
test,1583576121283382016,24," | 24  |   3593       5   3587       2 |   5    0      3556        33 |   2  26    0    0 e00f |    1.983       0       5       0       5     26     26      0   3466     123       1  26    0e00f a70f      8.250 "
test,1583576121279497984,26," | 26  |   3593       5   3587       2 |   2    1      3575        14 |   5  26   17    1 e00f |    1.739       0       4       0       4     26     26      0   3508      81       2  26    1e00f a70f      6.510 "
test,1583576121303420928,27," | 27  |   3593       5   3591       0 |   1    8      3493        98 |   2  27   26    1 ec0f |   10.253       0       2       0       2     27     27      0   3338     253      14  27    1ec0f a70f     30.300 "
test,1583576121286609920,28," | 28  |   3593       5   3585       4 |   5    0      3315       274 |   2  35    0    0 980f |    2.777       0       5       0       5     35     35      0   3179     410       2  35    0980f a70f      8.880 "
test,1583576121301114112,29," | 29  |   3593       5   3586       5 |   2    3      3193       398 |   1  27   17    0 ec0f |    6.256       0       3       0       3     27     27      0   3022     569       7  27    0ec0f a70f     30.330 "
test,1583576121283200000,30," | 30  |   3593       5   3588       1 |   5    0      3537        52 |   1  35    0    0 980f |    2.075       0       5       0       5     35     35      0   3406     183       1  35    0980f a70f      8.160 "
test,1583576121278139136,35," | 35  |   3593       5   3588       1 |   4    0      3421       168 |   2  35    0    1 980f |    1.739       0       4       0       4     35     35      0   3343     246       2  35    1980f a70f      6.480 "
test,1583576121300806912,40," | 40  |   3593       5   3525      60 |   5    0      3358       227 |   1  48    0    0 2c0f |    2.014       0       3       0       3     48     48      0   3268     317       1  48    02c0f a70f     30.390 "
test,1583576121302633984,41," | 41  |   3593       5   3521      58 |   3    9      3543        36 |   2  48   47    0 2c0f |    2.777       0       2       0       2     48     48      0   3452     127       2  48    02c0f a70f     30.390 "
test,1583576121299031040,42," | 42  |   3593       5   3528      61 |   5    0      3506        83 |   3  48    0    0 2c0f |    2.807       0       2       0       2     48     48      0   3417     172       2  48    02c0f a70f     30.360 "
test,1583576121298567168,44," | 44  |   3593       5   3532      57 |   5    0      3505        84 |   1  26    0    0 e00f |    7.171       0       1       0       1     26     26      0   3431     158       8  26    0e00f a70f     30.360 "
test,1583576121299307008,45," | 45  |   3593       5   3546      43 |   5    0      3476       113 |   2  26    0    0 e00f |    7.141       0       1       0       1     26     26      0   3411     178       8  26    0e00f a70f     30.330 "
test,1583576121298774016,46," | 46  |   3593       5   3525      57 |   5    0      3423       159 |   1  48    0    0 2c0f |    2.075       0       3       0       3     48     48      0   3352     230       1  48    02c0f a70f     30.360 "
test,1583576121296930048,47," | 47  |   3593       5   3532      57 |   0   10      3460       129 |   0  47   48    1 dc0f |    0           0       0       0       8      0      0      0   3389     200       0  47    1dc0f a70f     30.270 "
test,1583576121301893888,48," | 48  |   3593       5   3467      55 |   5    1      3434        88 |   4  48   26    1 2c0f |    3.936       0       1       0       1     48     48      0   3365     157       5  48    12c0f a70f     30.300 "
test,1583576121289537792,49," | 49  |   3593       5   3583       0 |   5    0      3519        64 |   1  53    0    0  80f |    2.044       0       5       0       5     53     53      0   3488      95       1  53    0 80f a70f      8.250 "
test,1583576121276901120,51," | 51  |   3593       5   3584       0 |   5    0      3547        37 |   1  56    0    0 400f |    2.014       0       5       0       5     56     56      0   3533      51       1  56    0400f a70f      8.190 "
test,1583576121281651968,52," | 52  |   3593       5   3562      23 |   5    1      3414       171 |   1  26   17    0 e00f |    2.044       0       5       0       5     26     26      0   3343     242       1  26    0e00f a70f      8.100 "
test,1583576121277843968,53," | 53  |   3593       5   3567       0 |   4    0      3386       181 |   2  53    0    1  80f |    1.739       0       4       0       4     53     53      0   3344     223       2  53    1 80f a70f      6.480 "
test,1583576121278341120,54," | 54  |   3593       5   3585       0 |   5    0      3522        63 |   1   9    0    0 250f |    1.983       0       5       0       5      9      9      0   3463     122       1   9    0250f a70f      8.190 "
test,1583576121279006976,55," | 55  |   3593       5   3572       0 |   5    0      3440       132 |   1  53    0    0  80f |    2.075       0       5       0       5     53     53      0   3409     163       1  53    0 80f a70f      8.220 "
test,1583576121275856128,56," | 56  |   3593       5   3575       0 |   5    0      3520        55 |   2  56    0    1 400f |    1.739       0       4       0       4     56     56      0   3484      91       2  56    1400f a70f      6.480 "
test,1583576121282443008,57," | 57  |   3593       5   3530       0 |   5    3      3442        88 |   1  26   56    0 e00f |    2.746       0       5       0       5     26     26      0   3232     298       2  26    0e00f a70f      8.940 "
test,1583576121295811840,58," | 58  |   3593       5   3584       0 |   1    0      3536        48 |   5  26    0    0 e00f |    0           0       0       0       8      0      0      0   3381     203       0  26    0e00f a70f     30.390 "
test,1583576121279661824,5," |  5  |   3593       5   3591       0 |   5    0      3277       314 |   2   9    0    0 250f |    2.716       0       5       0       5      9      9      0   3213     378       2   9    0250f a70f      9.630 "
test,1583576121300609024,60," | 60  |   3593       5   3584       0 |   3    2      3358       226 |   2  26   56    0 e00f |    9.368       0       1       0       1     26     26      0   3295     289      11  26    0e00f a70f     30.300 "
test,1583576121300955136,61," | 61  |   3593       5   3583       0 |   1    2      3423       160 |  10   9   26    0 250f |    2.716       0       4       0       4      9      9      0   3309     274       2   9    0250f a70f     30.390 "
test,1583576121277283840,7," |  7  |   3593       5   3590       0 |   5    1      3531        59 |   1   9   56    0 250f |    1.983       0       5       0       5      9      9      0   3509      81       1   9    0250f a70f      8.250 "
test,1583576121276494080,9," |  9  |   3593       5   3589       0 |   4    0      3459       130 |   4   9    0    1 250f |    1.739       0       4       0       4      9      9      0   3441     148       2   9    1250f a70f      6.480 "
