test,1583576093276360960,10," | 10  |   3481       5   3453       0 |   5    0      3395        58 |   1   1    0    0 e90f |    1.342       0       5       0       5      1      1      0   3347     106       1   1    0e90f a70f      7.590 "
test,1583576093277570048,12," | 12  |   3481       5   3479       0 |   5    0      3450        29 |   1   1    0    0 e90f |    1.342       0       5       0       5      1      1      0   3393      86       1   1    0e90f a70f      7.620 "
test,1583576093275684096,13," | 13  |   3481       5   3477       0 |   5    0      3453        24 |   1   1    0    0 e90f |    1.373       0       5       0       5      1      1      0   3408      69       1   1    0e90f a70f      7.470 "
test,1583576093277374976,15," | 15  |   3481       5   3479       0 |   5    0      3348       131 |   2   1    0    0 e90f |    2.075       0       5       0       5      1      1      0   3196     283       2   1    0e90f a70f      8.250 "
test,1583576093279160064,16," | 16  |   3481       5   3477       0 |   5    0      3349       128 |   3  19    0    0 860f |    3.479       0       5       0       5     19     19      0   3256     221       3  19    0860f a70f      9.660 "
test,1583576093280417024,17," | 17  |   3481       5   3472       5 |   5    0      3434        43 |   1  19    0    0 860f |    2.014       0       5       0       5     19     19      0   3323     154       1  19    0860f a70f      8.220 "
test,1583576093284192000,18," | 18  |   3481       5   3476       0 |   5    3      3279       197 |   2  57   19    0 6b0f |    2.746       0       5       0       5     57     57      0   3132     344       2  57    06b0f a70f     15.870 "
test,1583576093281435904,19," | 19  |   3481       5   3468       9 |   4    0      3422        55 |   3  19    0    1 860f |    1.770       0       4       0       4     19     19      0   3311     166       2  19    1860f a70f      6.510 "
test,1583576093275270912,1," |  1  |   3481       4   3478       0 |   4    0      3398        80 |   4   1    0    1 e90f |    1.739       0       4       0       4      1      1      0   3371     107       2   1    1e90f a70f      6.480 "
test,1583576093282937088,22," | 22  |   3481       5   3475       0 |   5    4      3449        26 |   1  57   19    0 6b0f |    1.983       0       5       0       5     57     57      0   3284     191       1  57    06b0f a70f     15.120 "
test,1583576093298501120,23," | 23  |   3481       5   3419       0 |   5    0      3402        17 |   2  19    0    0 860f |    3.448       0       4       0       4     19     19      0   3330      89       3  19    0860f a70f     30.390 "
test,1583576093283960064,24," | 24  |   3481       5   3475       2 |   4    4      3445        32 |   3  57   19    0 6b0f |    2.746       0       5       0       5     57     57      0   3357     120       2  57    06b0f a70f     15.900 "
test,1583576093282113024,26," | 26  |   3481       5   3475       2 |   4    8      3464        13 |   5  19   57    0 860f |    2.746       0       5       0       5     19     19      0   3399      78       2  19    0860f a70f      8.940 "
test,1583576093279700992,27," | 27  |   3481       5   3479       0 |   5    0      3384        95 |   3  19    0    0 860f |    2.014       0       5       0       5     19     19      0   3234     245       1  19    0860f a70f      8.220 "
test,1583576093299709184,28," | 28  |   3481       5   3474       3 |   2    2      3211       266 |   2  19   57    0 860f |    2.014       0       1       0       1     19     19      0   3084     393       1  19    0860f a70f     30.330 "
test,1583576093286206976,29," | 29  |   3481       5   3474       5 |   3    0      3095       384 |   1  19    0    0 860f |    1.983       0       5       0       5     19     19      0   2929     550       1  19    0860f a70f      8.190 "
test,1583576093278202112,30," | 30  |   3481       5   3477       0 |   5    0      3426        51 |   5  57    0    0 6b0f |    3.448       0       5       0       5     57     57      0   3302     175       3  57    06b0f a70f      9.630 "
test,1583576093279484160,35," | 35  |   3481       5   3477       0 |   5    0      3315       162 |   2  57    0    0 6b0f |    2.716       0       5       0       5     57     57      0   3242     235       2  57    06b0f a70f      8.910 "
test,1583576093299901952,40," | 40  |   3481       4   3413      60 |   4    1      3251       222 |   8  40   57    1 a90f |   23.834       0       2       0       2     40     40      0   3163     310      11  40    1a90f a70f     30.300 "
test,1583576093296528128,41," | 41  |   3481       5   3409      58 |   5    0      3431        36 |   1  40    0    0 a90f |    2.014       0       5       0       5     40     40      0   3341     126       1  40    0a90f a70f     25.470 "
test,1583576093295223040,42," | 42  |   3481       5   3416      61 |   5    0      3394        83 |   1  40    0    0 a90f |    2.014       0       5       0       5     40     40      0   3305     172       1  40    0a90f a70f     25.530 "
test,1583576093294984192,44," | 44  |   3481       5   3420      57 |   5    1      3398        79 |   1  40   57    0 a90f |    2.044       0       5       0       5     40     40      0   3326     151       1  40    0a90f a70f     26.250 "
test,1583576093295677952,45," | 45  |   3481       5   3434      43 |   5    1      3367       110 |   1  40   19    0 a90f |    2.075       0       5       0       5     40     40      0   3302     175       1  40    0a90f a70f     26.370 "
test,1583576093296088832,46," | 46  |   3481       5   3413      57 |   5    0      3314       156 |   1  40    0    0 a90f |    2.746       0       5       0       5     40     40      0   3244     226       2  40    0a90f a70f     26.310 "
test,1583576093295883008,47," | 47  |   3481       5   3420      57 |   5    1      3351       126 |   1  40   57    0 a90f |    2.014       0       5       0       5     40     40      0   3280     197       1  40    0a90f a70f     25.650 "
test,1583576093296286976,48," | 48  |   3481       5   3355      55 |   5    1      3324        86 |   1  40   57    0 a90f |    1.983       0       5       0       5     40     40      0   3254     156       1  40    0a90f a70f     25.470 "
test,1583576093276861952,49," | 49  |   3481       5   3471       0 |   5    0      3407        64 |   1  53    0    0 340f |    2.044       0       5       0       5     53     53      0   3376      95       1  53    0340f a70f      8.250 "
test,1583576093276169984,51," | 51  |   3481       5   3472       0 |   5    0      3437        35 |   1   1    0    0 e90f |    1.373       0       5       0       5      1      1      0   3423      49       1   1    0e90f a70f      7.620 "
test,1583576093301424128,52," | 52  |   3481       5   3450      23 |   5    0      3304       169 |   1  19    0    0 860f |    4.211       0       4       0       4     19     19      0   3236     237       4  19    0860f a70f     30.360 "
test,1583576093282258944,53," | 53  |   3481       5   3455       0 |   4    0      3284       171 |   2  53    0    1 340f |    1.739       0       4       0       4     53     53      0   3242     213       2  53    1340f a70f      6.510 "
test,1583576093275081984,54," | 54  |   3481       5   3473       0 |   5    0      3414        59 |   1   1    0    0 e90f |    1.342       0       5       0       5      1      1      0   3355     118       1   1    0e90f a70f      7.560 "
test,1583576093278664192,55," | 55  |   3481       5   3460       0 |   5    0      3330       130 |   1  53    0    0 340f |    2.044       0       5       0       5     53     53      0   3299     161       1  53    0340f a70f      8.220 "
test,1583576093277116160,56," | 56  |   3481       5   3463       0 |   5    0      3408        55 |   2   1    0    0 e90f |    2.075       0       5       0       5      1      1      0   3373      90       2   1    0e90f a70f      8.310 "
test,1583576093301910016,57," | 57  |   3481       5   3418       0 |   0    5      3330        88 |   0  57   19    1 6b0f |   12.420       0       3       0       3     57     57      0   3130     288      17  57    16b0f a70f     30.210 "
test,1583576093295428096,58," | 58  |   3481       5   3472       0 |   1    5      3424        48 |   6  53   57    0 340f |    0           0       0       0       8      0      0      0   3276     196       0  53    0340f a70f     30.360 "
test,1583576093278429952,5," |  5  |   3481       5   3479       0 |   5    0      3181       298 |   2   1    0    0 e90f |    2.044       0       5       0       5      1      1      0   3117     362       2   1    0e90f a70f      8.280 "
test,1583576093277812992,60," | 60  |   3481       5   3472       0 |   5    0      3252       220 |   2   1    0    0 e90f |    2.075       0       5       0       5      1      1      0   3190     282       2   1    0e90f a70f      8.130 "
test,1583576093287322112,61," | 61  |   3481       5   3471       0 |   3    3      3319       152 |   4  57    1    0 6b0f |    8.392       0       5       0       5     57     57      0   3214     257      10  57    06b0f a70f     15.750 "
test,1583576093275495168,7," |  7  |   3481       5   3478       0 |   5    0      3420        58 |   1   1    0    0 e90f |    1.342       0       5       0       5      1      1      0   3398      80       1   1    0e90f a70f      7.530 "
test,1583576093275939072,9," |  9  |   3481       5   3477       0 |   5    0      3347       130 |   1   1    0    0 e90f |    1.312       0       5       0       5      1      1      0   3329     148       1   1    0e90f a70f      7.560 "
