test,1583575995526355968,10," | 10  |   3090       5   3062       0 |   5    0      3012        50 |   5  22    0    0 4c0f |    3.509       0       5       0       5     22     22      0   2968      94       3  22    04c0f a70f      9.570 "
test,1583575995530155776,12," | 12  |   3090       5   3088       0 |   4    0      3061        27 |   4  22    0    0 4c0f |    3.540       0       5       0       5     22     22      0   3010      78       3  22    04c0f a70f     10.350 "
test,1583575995529499136,13," | 13  |   3090       5   3086       0 |   5    0      3062        24 |   3  22    0    0 4c0f |    4.272       0       5       0       5     22     22      0   3024      62       4  22    04c0f a70f     11.760 "
test,1583575995528715008,15," | 15  |   3090       5   3088       0 |   4    0      2971       117 |   5  22    0    0 4c0f |    3.509       0       5       0       5     22     22      0   2842     246       3  22    04c0f a70f      9.600 "
test,1583575995527286016,16," | 16  |   3090       5   3086       0 |   5    0      2977       109 |   2  22    0    0 4c0f |    2.746       0       5       0       5     22     22      0   2900     186       2  22    04c0f a70f      8.940 "
test,1583575995523976960,17," | 17  |   3090       5   3081       5 |   4    3      3053        33 |   2  22   29    0 4c0f |    2.044       0       5       0       5     22     22      0   2958     128       1  22    04c0f a70f      8.250 "
test,1583575995525944832,18," | 18  |   3090       5   3085       0 |   5    0      2915       170 |   1  22    0    0 4c0f |    2.044       0       5       0       5     22     22      0   2783     302       1  22    04c0f a70f      8.250 "
test,1583575995528284160,19," | 19  |   3090       5   3077       9 |   4    9      3037        49 |   2  22   29    0 4c0f |    2.746       0       5       0       5     22     22      0   2943     143       2  22    04c0f a70f      9.000 "
test,1583575995532335104,1," |  1  |   3090       4   3087       0 |   5    0      3017        70 |   3  22    0    0 4c0f |    4.180       0       5       0       5     22     22      0   2996      91       3  22    04c0f a70f     10.380 "
test,1583575995525360128,22," | 22  |   3090       5   3084       0 |   4    0      3059        25 |   2  22    0    1 4c0f |    1.739       0       4       0       4     22     22      0   2913     171       2  22    14c0f a70f      6.480 "
test,1583575995525528832,23," | 23  |   3090       5   3028       0 |   5    0      3014        14 |   1  22    0    0 4c0f |    2.044       0       5       0       5     22     22      0   2953      75       1  22    04c0f a70f      8.280 "
test,1583575995524935936,24," | 24  |   3090       5   3084       2 |   5    0      3059        27 |   1  22    0    0 4c0f |    2.014       0       5       0       5     22     22      0   2984     102       1  22    04c0f a70f      8.220 "
test,1583575995524657920,26," | 26  |   3090       5   3084       2 |   5    0      3075        11 |   1  22    0    0 4c0f |    2.044       0       5       0       5     22     22      0   3017      69       1  22    04c0f a70f      8.940 "
test,1583575995546576896,27," | 27  |   3090       5   3088       0 |   3    8      3000        88 |   4  22   29    0 4c0f |    2.777       0       4       0       4     22     22      0   2869     219       2  22    04c0f a70f     30.360 "
test,1583575995526782976,28," | 28  |   3090       5   3083       3 |   5    0      2853       233 |   2  22    0    0 4c0f |    2.014       0       5       0       5     22     22      0   2739     347       1  22    04c0f a70f      8.940 "
test,1583575995546184960,29," | 29  |   3090       5   3083       5 |   1    1      2748       340 |  35  29   22    1 480f |    0           0       0       0       8      0      0      0   2601     487       0  29    1480f a70f     30.180 "
test,1583575995529939968,30," | 30  |   3090       5   3086       0 |   5    0      3043        43 |   1  22    0    0 4c0f |    2.014       0       5       0       5     22     22      0   2937     149       1  22    04c0f a70f      9.660 "
test,1583575995528115968,35," | 35  |   3090       5   3086       0 |   5    0      2943       143 |   1  22    0    0 4c0f |    2.014       0       5       0       5     22     22      0   2880     206       1  22    04c0f a70f     10.380 "
test,1583575995531217152,40," | 40  |   3090       5   3024      58 |   5    0      2879       203 |   2  47    0    0 470f |    2.746       0       5       0       5     47     47      0   2800     282       2  47    0470f a70f      9.660 "
test,1583575995530829056,41," | 41  |   3090       5   3020      56 |   5    0      3043        33 |   1  47    0    0 470f |    1.983       0       5       0       5     47     47      0   2962     114       1  47    0470f a70f      8.940 "
test,1583575995534085120,42," | 42  |   3090       5   3027      59 |   5    0      3008        78 |   1  47    0    0 470f |    2.044       0       5       0       5     47     47      0   2928     158       1  47    0470f a70f      9.630 "
test,1583575995527120128,44," | 44  |   3090       5   3031      55 |   5    0      3010        76 |   1  47    0    0 470f |    2.044       0       5       0       5     47     47      0   2945     141       1  47    0470f a70f      9.660 "
test,1583575995531013120,45," | 45  |   3090       5   3045      41 |   5    0      2985       101 |   1  47    0    0 470f |    2.014       0       5       0       5     47     47      0   2926     160       1  47    0470f a70f      8.940 "
test,1583575995533728000,46," | 46  |   3090       5   3024      55 |   5    0      2937       142 |   2  47    0    0 470f |    2.777       0       5       0       5     47     47      0   2876     203       2  47    0470f a70f      9.720 "
test,1583575995518984192,47," | 47  |   3090       5   3031      55 |   4    0      2976       110 |   4  47    0    1 470f |    1.739       0       4       0       4     47     47      0   2908     178       2  47    1470f a70f      6.480 "
test,1583575995532738816,48," | 48  |   3090       5   2966      53 |   5    0      2940        79 |   1  47    0    0 470f |    2.014       0       5       0       5     47     47      0   2876     143       1  47    0470f a70f      8.820 "
test,1583575995533432064,49," | 49  |   3090       5   3080       0 |   5    0      3025        55 |   1  53    0    0 960f |    2.014       0       5       0       5     53     53      0   2995      85       1  53    0960f a70f      8.220 "
test,1583575995524462848,51," | 51  |   3090       5   3081       0 |   5    0      3056        25 |   2  22    0    0 4c0f |    2.777       0       5       0       5     22     22      0   3044      37       2  22    04c0f a70f      8.970 "
test,1583575995530597888,52," | 52  |   3090       5   3059      23 |   4    0      2933       149 |   2  22    0    0 4c0f |    2.777       0       5       0       5     22     22      0   2875     207       2  22    04c0f a70f      8.970 "
test,1583575995523590144,53," | 53  |   3090       5   3064       0 |   4    0      2912       152 |   2  53    0    1 960f |    1.739       0       4       0       4     53     53      0   2873     191       2  53    1960f a70f      6.480 "
test,1583575995527471104,54," | 54  |   3090       5   3082       0 |   5    0      3029        53 |   2  22    0    0 4c0f |    2.807       0       5       0       5     22     22      0   2978     104       2  22    04c0f a70f      9.660 "
test,1583575995526187776,55," | 55  |   3090       5   3069       0 |   5    0      2959       110 |   1  53    0    0 960f |    2.044       0       5       0       5     53     53      0   2930     139       1  53    0960f a70f      8.160 "
test,1583575995527774208,56," | 56  |   3090       5   3072       0 |   5    0      3022        50 |   2  22    0    0 4c0f |    2.777       0       5       0       5     22     22      0   2991      81       2  22    04c0f a70f      8.970 "
test,1583575995528527104,57," | 57  |   3090       5   3027       0 |   5    0      2954        73 |   1  22    0    0 4c0f |    2.014       0       5       0       5     22     22      0   2773     254       1  22    04c0f a70f      8.160 "
test,1583575995544397056,58," | 58  |   3090       5   3081       0 |   1    6      3041        40 |   2  53   22    0 960f |    0           0       0       0       8      0      0      0   2909     172       0  53    0960f a70f     30.390 "
test,1583575995529280000,5," |  5  |   3090       5   3088       0 |   5    0      2829       259 |   4  22    0    0 4c0f |    4.272       0       5       0       5     22     22      0   2772     316       4  22    04c0f a70f     11.070 "
test,1583575995540702976,60," | 60  |   3090       5   3081       0 |   5    0      2881       200 |   2  22    0    0 4c0f |    2.777       0       5       0       5     22     22      0   2828     253       2  22    04c0f a70f      9.630 "
test,1583575995526600960,61," | 61  |   3090       5   3080       0 |   2    0      2947       133 |   2  22    0    0 4c0f |    2.746       0       5       0       5     22     22      0   2852     228       2  22    04c0f a70f      9.720 "
test,1583575995525773056,7," |  7  |   3090       5   3087       0 |   5    0      3036        51 |   3  22    0    0 4c0f |    3.509       0       5       0       5     22     22      0   3019      68       3  22    04c0f a70f      9.690 "
test,1583575995530384128,9," |  9  |   3090       5   3086       0 |   5    0      2972       114 |   3  22    0    0 4c0f |    3.509       0       5       0       5     22     22      0   2958     128       3  22    04c0f a70f      9.660 "
