test,1583576000273912832,10," | 10  |   3109       5   3081       0 |   5    0      3030        51 |   1  56    0    0 c30f |    1.983       0       5       0       5     56     56      0   2986      95       1  56    0c30f a70f      8.160 "
test,1583576000275801856,12," | 12  |   3109       5   3107       0 |   5    0      3080        27 |   3  56    0    0 c30f |    2.746       0       5       0       5     56     56      0   3029      78       2  56    0c30f a70f      9.690 "
test,1583576000280216064,13," | 13  |   3109       5   3105       0 |   5    0      3081        24 |   2  56    0    0 c30f |    2.746       0       5       0       5     56     56      0   3042      63       2  56    0c30f a70f      8.970 "
test,1583576000286283008,15," | 15  |   3109       5   3107       0 |   5    0      2990       117 |   4  56    0    0 c30f |    3.448       0       5       0       5     56     56      0   2860     247       3  56    0c30f a70f     10.200 "
test,1583576000281775104,16," | 16  |   3109       5   3105       0 |   5    0      2995       110 |   3  56    0    0 c30f |    3.448       0       5       0       5     56     56      0   2918     187       3  56    0c30f a70f      9.630 "
test,1583576000281383936,17," | 17  |   3109       5   3100       5 |   5    0      3072        33 |   3  56    0    0 c30f |    3.448       0       5       0       5     56     56      0   2977     128       3  56    0c30f a70f     10.980 "
test,1583576000298438912,18," | 18  |   3109       5   3104       0 |   5    0      2931       173 |   3  56    0    0 c30f |    3.479       0       5       0       5     56     56      0   2799     305       3  56    0c30f a70f      9.510 "
test,1583576000279556864,19," | 19  |   3109       5   3096       9 |   4    0      3055        50 |   3  56    0    0 c30f |    3.448       0       5       0       5     56     56      0   2962     143       3  56    0c30f a70f     11.850 "
test,1583576000274657024,1," |  1  |   3109       4   3106       0 |   5    0      3036        70 |   2  56    0    0 c30f |    3.417       0       5       0       5     56     56      0   3013      93       2  56    0c30f a70f      9.510 "
test,1583576000277753088,22," | 22  |   3109       5   3103       0 |   5    0      3078        25 |   2  56    0    0 c30f |    2.716       0       5       0       5     56     56      0   2932     171       2  56    0c30f a70f      9.630 "
test,1583576000293970944,23," | 23  |   3109       5   3047       0 |   5    0      3033        14 |   2  56    0    0 c30f |    2.716       0       5       0       5     56     56      0   2972      75       2  56    0c30f a70f     10.290 "
test,1583576000284152064,24," | 24  |   3109       5   3103       2 |   5    0      3078        27 |   3  56    0    0 c30f |    3.479       0       5       0       5     56     56      0   3003     102       3  56    0c30f a70f      9.690 "
test,1583576000275200000,26," | 26  |   3109       5   3103       2 |   5    0      3094        11 |   3  56    0    0 c30f |    2.716       0       5       0       5     56     56      0   3036      69       2  56    0c30f a70f      8.940 "
test,1583576000289912064,27," | 27  |   3109       5   3107       0 |   5    0      3018        89 |   3  56    0    0 c30f |    3.479       0       5       0       5     56     56      0   2887     220       3  56    0c30f a70f     10.980 "
test,1583576000297661184,28," | 28  |   3109       5   3102       3 |   5    0      2871       234 |   3  56    0    0 c30f |    3.448       0       4       0       4     56     56      0   2757     348       3  56    0c30f a70f     30.360 "
test,1583576000301071872,29," | 29  |   3109       5   3102       5 |   3    0      2767       340 |   4  56    0    0 c30f |    7.141       0       4       0       4     56     56      0   2620     487       8  56    0c30f a70f     30.240 "
test,1583576000278547968,30," | 30  |   3109       5   3105       0 |   5    0      3062        43 |   3  56    0    0 c30f |    3.448       0       5       0       5     56     56      0   2955     150       3  56    0c30f a70f     10.350 "
test,1583576000285371904,35," | 35  |   3109       5   3105       0 |   5    0      2961       144 |   3  56    0    0 c30f |    3.417       0       5       0       5     56     56      0   2898     207       3  56    0c30f a70f      9.600 "
test,1583576000280870912,40," | 40  |   3109       5   3043      58 |   5    0      2896       205 |   4  56    0    0 c30f |    4.150       0       5       0       5     56     56      0   2816     285       4  56    0c30f a70f     12.480 "
test,1583576000282149120,41," | 41  |   3109       5   3039      56 |   5    0      3062        33 |   4  56    0    0 c30f |    4.150       0       5       0       5     56     56      0   2981     114       4  56    0c30f a70f     11.820 "
test,1583576000276949760,42," | 42  |   3109       5   3046      59 |   5    0      3027        78 |   3  56    0    0 c30f |    3.479       0       5       0       5     56     56      0   2947     158       3  56    0c30f a70f      9.690 "
test,1583576000276456192,44," | 44  |   3109       5   3050      55 |   5    0      3029        76 |   4  56    0    0 c30f |    3.417       0       5       0       5     56     56      0   2964     141       3  56    0c30f a70f      9.660 "
test,1583576000297357056,45," | 45  |   3109       5   3064      41 |   5    0      3004       101 |   4  56    0    0 c30f |    4.180       0       5       0       5     56     56      0   2945     160       4  56    0c30f a70f     10.350 "
test,1583576000284389120,46," | 46  |   3109       5   3043      55 |   5    0      2953       145 |   4  56    0    0 c30f |    4.180       0       5       0       5     56     56      0   2892     206       4  56    0c30f a70f     10.380 "
test,1583576000283868160,47," | 47  |   3109       5   3050      55 |   5    0      2995       110 |   4  56    0    0 c30f |    4.211       0       5       0       5     56     56      0   2927     178       4  56    0c30f a70f     10.320 "
test,1583576000284696064,48," | 48  |   3109       5   2985      53 |   5    0      2959        79 |   3  56    0    0 c30f |    3.417       0       5       0       5     56     56      0   2895     143       3  56    0c30f a70f     11.760 "
test,1583576000275575040,49," | 49  |   3109       5   3099       0 |   5    0      3043        56 |   2  56    0    0 c30f |    2.716       0       5       0       5     56     56      0   3014      85       2  56    0c30f a70f      8.760 "
test,1583576000274348032,51," | 51  |   3109       5   3100       0 |   5    0      3075        25 |   1  56    0    0 c30f |    1.983       0       5       0       5     56     56      0   3062      38       1  56    0c30f a70f      8.220 "
test,1583576000279046912,52," | 52  |   3109       5   3078      23 |   4    0      2952       149 |   4  56    0    0 c30f |    3.448       0       5       0       5     56     56      0   2894     207       3  56    0c30f a70f     10.320 "
test,1583576000278266880,53," | 53  |   3109       5   3083       0 |   5    0      2928       155 |   3  56    0    0 c30f |    3.448       0       5       0       5     56     56      0   2889     194       3  56    0c30f a70f      9.630 "
test,1583576000276770048,54," | 54  |   3109       5   3101       0 |   5    0      3048        53 |   2  56    0    0 c30f |    2.685       0       5       0       5     56     56      0   2996     105       2  56    0c30f a70f      8.880 "
test,1583576000277975040,55," | 55  |   3109       5   3088       0 |   5    0      2977       111 |   2  56    0    0 c30f |    2.746       0       5       0       5     56     56      0   2948     140       2  56    0c30f a70f      8.970 "
test,1583576000273128960,56," | 56  |   3109       5   3091       0 |   4    0      3041        50 |   2  56    0    1 c30f |    1.739       0       4       0       4     56     56      0   3010      81       2  56    1c30f a70f      6.480 "
test,1583576000280636928,57," | 57  |   3109       5   3046       0 |   5    0      2972        74 |   1  56    0    0 c30f |    1.983       0       5       0       5     56     56      0   2791     255       1  56    0c30f a70f     11.070 "
test,1583576000282434816,58," | 58  |   3109       5   3100       0 |   5    0      3060        40 |   1  56    0    0 c30f |    1.983       0       5       0       5     56     56      0   2927     173       1  56    0c30f a70f      9.660 "
test,1583576000298932992,5," |  5  |   3109       5   3107       0 |   0    9      2847       260 |   0   5   56    1 9b0f |    0           0       0       0       8      0      0      0   2789     318       0   5    19b0f a70f     30.180 "
test,1583576000277178880,60," | 60  |   3109       5   3100       0 |   5    0      2900       200 |   2  56    0    0 c30f |    2.014       0       5       0       5     56     56      0   2847     253       1  56    0c30f a70f      8.850 "
test,1583576000280390144,61," | 61  |   3109       5   3099       0 |   5    0      2965       134 |   1  56    0    0 c30f |    2.014       0       5       0       5     56     56      0   2869     230       1  56    0c30f a70f      8.880 "
test,1583576000277489920,7," |  7  |   3109       5   3106       0 |   5    0      3055        51 |   2  56    0    0 c30f |    2.746       0       5       0       5     56     56      0   3036      70       2  56    0c30f a70f      8.940 "
test,1583576000279218944,9," |  9  |   3109       5   3105       0 |   5    0      2991       114 |   2  56    0    0 c30f |    2.716       0       5       0       5     56     56      0   2975     130       2  56    0c30f a70f      8.790 "
