test,1583575974274436864,10," | 10  |   3005       5   2977       0 |   1    0      2930        47 |  11   9    0    0 b90f |    2.075       0       5       0       5      9      9      0   2886      91       1   9    0b90f a70f      9.030 "
test,1583575974276380928,12," | 12  |   3005       5   3003       0 |   5    0      2976        27 |   1   9    0    0 b90f |    2.044       0       5       0       5      9      9      0   2926      77       1   9    0b90f a70f      8.910 "
test,1583575974274735872,13," | 13  |   3005       5   3001       0 |   1    0      2979        22 |  11   9    0    0 b90f |    2.075       0       5       0       5      9      9      0   2944      57       1   9    0b90f a70f      9.030 "
test,1583575974280122112,15," | 15  |   3005       5   3003       0 |   4    2      2887       116 |   2   9   20    0 b90f |    2.777       0       5       0       5      9      9      0   2764     239       2   9    0b90f a70f      9.720 "
test,1583575974294145024,16," | 16  |   3005       5   3001       0 |   5    0      2894       107 |   3  51    0    0 3e0f |    0           0       0       0       8      0      0      0   2821     180       0  51    03e0f a70f     30.360 "
test,1583575974279286016,17," | 17  |   3005       5   2996       5 |   1    0      2969        32 |  11  18    0    0 350f |    2.777       0       5       0       5     18     18      0   2878     123       2  18    0350f a70f     10.290 "
test,1583575974281891072,18," | 18  |   3005       5   3000       0 |   4    0      2835       165 |   3  18    0    1 350f |    1.739       0       4       0       4     18     18      0   2709     291       2  18    1350f a70f      6.480 "
test,1583575974294976000,19," | 19  |   3005       5   2992       9 |   1    0      2952        49 |  11  51    0    0 3e0f |    0           0       0       0       8      0      0      0   2861     140       0  51    03e0f a70f     30.390 "
test,1583575974275759872,1," |  1  |   3005       4   3002       0 |   5    0      2934        68 |   2   9    0    0 b90f |    2.716       0       5       0       5      9      9      0   2912      90       1   9    0b90f a70f      8.940 "
test,1583575974277667072,22," | 22  |   3005       5   2999       0 |   5    0      2975        24 |   1  18    0    0 350f |    2.044       0       5       0       5     18     18      0   2836     163       1  18    0350f a70f      8.280 "
test,1583575974294637824,23," | 23  |   3005       5   2943       0 |   5    0      2929        14 |   2  51    0    0 3e0f |    0           0       0       0       8      0      0      0   2870      73       0  51    03e0f a70f     30.390 "
test,1583575974277142016,24," | 24  |   3005       5   2999       2 |   5    0      2974        27 |   1  18    0    0 350f |    2.014       0       5       0       5     18     18      0   2904      97       1  18    0350f a70f      8.160 "
test,1583575974273978112,26," | 26  |   3005       5   2999       2 |   5    0      2990        11 |   2  18    0    0 350f |    2.014       0       5       0       5     18     18      0   2935      66       1  18    0350f a70f      8.220 "
test,1583575974292201984,27," | 27  |   3005       5   3003       0 |   5    0      2917        86 |   3  51    0    0 3e0f |    0           0       0       0       8      0      0      0   2792     211       0  51    03e0f a70f     30.360 "
test,1583575974286361856,28," | 28  |   3005       5   2998       3 |   2    3      2772       229 |   2  20   18    0 de0f |    2.777       0       5       0       5     20     20      0   2662     339       2  20    0de0f a70f     14.400 "
test,1583575974293259008,29," | 29  |   3005       5   2998       5 |   5    0      2672       331 |   4  51    0    0 3e0f |    0           0       0       0       8      0      0      0   2531     472       0  51    03e0f a70f     30.360 "
test,1583575974285021184,30," | 30  |   3005       5   3001       0 |   2    6      2960        41 |   1  20   18    0 de0f |    2.044       0       5       0       5     20     20      0   2860     141       1  20    0de0f a70f     13.740 "
test,1583575974297171968,35," | 35  |   3005       5   3001       0 |   5    0      2864       137 |   2  18    0    0 350f |    5.676       0       3       0       3     18     18      0   2804     197       6  18    0350f a70f     30.270 "
test,1583575974279581184,40," | 40  |   3005       5   2942      55 |   5    0      2801       196 |   3  18    0    0 350f |    3.509       0       5       0       5     18     18      0   2724     273       3  18    0350f a70f     10.410 "
test,1583575974276813056,41," | 41  |   3005       5   2937      54 |   5    0      2961        30 |   2  18    0    0 350f |    2.777       0       5       0       5     18     18      0   2880     111       2  18    0350f a70f      9.720 "
test,1583575974280806144,42," | 42  |   3005       5   2944      57 |   5    0      2927        74 |   2  18    0    0 350f |    2.746       0       5       0       5     18     18      0   2850     151       2  18    0350f a70f     10.290 "
test,1583575974279102976,44," | 44  |   3005       5   2949      52 |   5    0      2928        73 |   2  18    0    0 350f |    2.746       0       5       0       5     18     18      0   2865     136       2  18    0350f a70f     10.380 "
test,1583575974282556928,45," | 45  |   3005       5   2962      39 |   5    0      2902        99 |   2  18    0    0 350f |    2.746       0       5       0       5     18     18      0   2844     157       2  18    0350f a70f     10.260 "
test,1583575974278234880,46," | 46  |   3005       5   2941      53 |   5    0      2858       136 |   3  18    0    0 350f |    3.509       0       5       0       5     18     18      0   2798     196       3  18    0350f a70f     10.410 "
test,1583575974277427968,47," | 47  |   3005       5   2949      52 |   5    0      2895       106 |   1  18    0    0 350f |    2.044       0       5       0       5     18     18      0   2828     173       1  18    0350f a70f      9.000 "
test,1583575974279892992,48," | 48  |   3005       5   2884      50 |   5    0      2861        73 |   2  18    0    0 350f |    2.746       0       5       0       5     18     18      0   2797     137       2  18    0350f a70f     10.350 "
test,1583575974273739008,49," | 49  |   3005       5   2995       0 |   5    0      2943        52 |   1  55    0    0 1e0f |    2.075       0       5       0       5     55     55      0   2914      81       1  55    01e0f a70f      8.130 "
test,1583575974272200960,51," | 51  |   3005       5   2996       0 |   4    0      2972        24 |   2  51    0    1 3e0f |    1.739       0       4       0       4     51     51      0   2961      35       2  51    13e0f a70f      6.510 "
test,1583575974278573056,52," | 52  |   3005       5   2974      23 |   1    0      2852       145 |   3  18    0    0 350f |    2.746       0       5       0       5     18     18      0   2795     202       2  18    0350f a70f      8.970 "
test,1583575974279731968,53," | 53  |   3005       5   2979       0 |   5    0      2831       148 |   1  55    0    0 1e0f |    2.044       0       5       0       5     55     55      0   2794     185       1  55    01e0f a70f      8.100 "
test,1583575974272655104,54," | 54  |   3005       5   2997       0 |   5    0      2946        51 |   1   9    0    0 b90f |    2.075       0       5       0       5      9      9      0   2898      99       1   9    0b90f a70f      8.220 "
test,1583575974275168768,55," | 55  |   3005       5   2984       0 |   4    0      2880       104 |   2  55    0    1 1e0f |    1.770       0       4       0       4     55     55      0   2853     131       2  55    11e0f a70f      6.510 "
test,1583575974273203968,56," | 56  |   3005       5   2987       0 |   5    0      2938        49 |   1  51    0    0 3e0f |    2.014       0       5       0       5     51     51      0   2908      79       1  51    03e0f a70f      8.220 "
test,1583575974296264960,57," | 57  |   3005       4   2942       0 |   5    0      2871        71 |   1  51    0    0 3e0f |    2.014       0       1       0       1     51     51      0   2698     244       1  51    03e0f a70f     30.330 "
test,1583575974283375104,58," | 58  |   3005       5   2996       0 |   5    0      2958        38 |   1  55    0    0 1e0f |    2.075       0       5       0       5     55     55      0   2833     163       1  55    01e0f a70f      8.310 "
test,1583575974275414016,5," |  5  |   3005       5   3003       0 |   5    0      2751       252 |   2   9    0    0 b90f |    2.777       0       5       0       5      9      9      0   2695     308       2   9    0b90f a70f      9.720 "
test,1583575974276151808,60," | 60  |   3005       5   2996       0 |   5    0      2801       195 |   1  51    0    0 3e0f |    1.983       0       5       0       5     51     51      0   2751     245       1  51    03e0f a70f      8.040 "
test,1583575974293865984,61," | 61  |   3005       5   2995       0 |   0    0      2867       128 |   0   0    0    0    0 |    0           0       0       0       8      0      0      0   2777     218       0   0    0   0 a70f     30.390 "
test,1583575974273494016,7," |  7  |   3005       5   3002       0 |   5    0      2952        50 |   2   9    0    0 b90f |    2.075       0       5       0       5      9      9      0   2935      67       1   9    0b90f a70f      8.220 "
test,1583575974272971008,9," |  9  |   3005       5   3001       0 |   4    0      2888       113 |   3   9    0    1 b90f |    1.739       0       4       0       4      9      9      0   2874     127       2   9    1b90f a70f      6.480 "
