test,1583576136277366016,10," | 10  |   3653       5   3625       0 |   5    0      3564        61 |   1  12    0    0 8b0f |    2.044       0       5       0       5     12     12      0   3516     109       1  12    08b0f a70f      8.130 "
test,1583576136276509952,12," | 12  |   3653       5   3651       0 |   4    0      3622        29 |   4  12    0    1 8b0f |    1.739       0       4       0       4     12     12      0   3563      88       2  12    18b0f a70f      6.480 "
test,1583576136277731840,13," | 13  |   3653       5   3649       0 |   5    0      3624        25 |   1  12    0    0 8b0f |    1.983       0       5       0       5     12     12      0   3578      71       1  12    08b0f a70f      8.220 "
test,1583576136287624960,15," | 15  |   3653       5   3651       0 |   5    0      3511       140 |   1  12    0    0 8b0f |    2.014       0       5       0       5     12     12      0   3357     294       1  12    08b0f a70f      8.100 "
test,1583576136286937856,16," | 16  |   3653       5   3649       0 |   5    0      3516       133 |   2  24    0    0 6d0f |    2.777       0       5       0       5     24     24      0   3415     234       2  24    06d0f a70f      8.970 "
test,1583576136285819904,17," | 17  |   3653       5   3644       5 |   5    0      3603        46 |   1  24    0    0 6d0f |    2.044       0       5       0       5     24     24      0   3489     160       1  24    06d0f a70f      8.940 "
test,1583576136285597184,18," | 18  |   3653       5   3648       0 |   5    0      3447       201 |   1  24    0    0 6d0f |    2.075       0       5       0       5     24     24      0   3294     354       1  24    06d0f a70f      8.130 "
test,1583576136300497920,19," | 19  |   3653       5   3640       9 |   5    0      3593        56 |   2  24    0    0 6d0f |    4.974       0       4       0       4     24     24      0   3481     168       5  24    06d0f a70f     30.390 "
test,1583576136281844992,1," |  1  |   3653       4   3650       0 |   5    0      3566        84 |   1  12    0    0 8b0f |    2.685       0       5       0       5     12     12      0   3538     112       1  12    08b0f a70f      8.880 "
test,1583576136280181760,22," | 22  |   3653       5   3647       0 |   5    0      3620        27 |   1  24    0    0 6d0f |    2.044       0       5       0       5     24     24      0   3450     197       1  24    06d0f a70f      8.820 "
test,1583576136277122048,23," | 23  |   3653       5   3591       0 |   5    0      3573        18 |   2  24    0    0 6d0f |    2.075       0       5       0       5     24     24      0   3496      95       1  24    06d0f a70f      8.190 "
test,1583576136276299008,24," | 24  |   3653       5   3647       2 |   4    0      3616        33 |   4  24    0    1 6d0f |    1.739       0       4       0       4     24     24      0   3526     123       2  24    16d0f a70f      6.510 "
test,1583576136278337024,26," | 26  |   3653       5   3647       2 |   5    0      3635        14 |   1  24    0    0 6d0f |    2.044       0       5       0       5     24     24      0   3567      82       1  24    06d0f a70f      9.000 "
test,1583576136285222912,27," | 27  |   3653       5   3651       0 |   5    0      3551       100 |   2  24    0    0 6d0f |    2.777       0       5       0       5     24     24      0   3395     256       2  24    06d0f a70f      9.570 "
test,1583576136284030976,28," | 28  |   3653       4   3645       4 |   5    0      3366       283 |   2  24    0    0 6d0f |    2.075       0       5       0       5     24     24      0   3229     420       1  24    06d0f a70f      8.940 "
test,1583576136301639168,29," | 29  |   3653       5   3646       5 |   5    0      3246       405 |   3  24    0    0 6d0f |    3.509       0       4       0       4     24     24      0   3074     577       3  24    06d0f a70f     30.360 "
test,1583576136280945152,30," | 30  |   3653       5   3648       1 |   5    0      3596        53 |   2  24    0    0 6d0f |    3.540       0       5       0       5     24     24      0   3465     184       3  24    06d0f a70f      9.720 "
test,1583576136282151936,35," | 35  |   3653       5   3648       1 |   5    0      3477       172 |   2  24    0    0 6d0f |    2.807       0       5       0       5     24     24      0   3399     250       2  24    06d0f a70f      8.880 "
test,1583576136285387008,40," | 40  |   3653       5   3585      60 |   5    0      3417       228 |   1  24    0    0 6d0f |    3.479       0       5       0       5     24     24      0   3326     319       3  24    06d0f a70f     11.130 "
test,1583576136279540992,41," | 41  |   3653       5   3580      59 |   5    0      3603        36 |   2  24    0    0 6d0f |    3.540       0       5       0       5     24     24      0   3511     128       3  24    06d0f a70f      9.630 "
test,1583576136278140928,42," | 42  |   3653       5   3588      61 |   5    0      3566        83 |   1  24    0    0 6d0f |    2.777       0       5       0       5     24     24      0   3476     173       2  24    06d0f a70f      8.820 "
test,1583576136279968000,44," | 44  |   3653       5   3592      57 |   5    0      3565        84 |   1  24    0    0 6d0f |    2.777       0       5       0       5     24     24      0   3491     158       2  24    06d0f a70f      8.970 "
test,1583576136281148928,45," | 45  |   3653       5   3606      43 |   5    0      3534       115 |   2  24    0    0 6d0f |    3.540       0       5       0       5     24     24      0   3469     180       3  24    06d0f a70f      9.720 "
test,1583576136284674048,46," | 46  |   3653       5   3585      57 |   5    0      3480       162 |   2  24    0    0 6d0f |    3.479       0       5       0       5     24     24      0   3409     233       3  24    06d0f a70f     10.380 "
test,1583576136278624000,47," | 47  |   3653       5   3592      57 |   5    0      3520       129 |   2  24    0    0 6d0f |    2.746       0       5       0       5     24     24      0   3449     200       2  24    06d0f a70f      9.000 "
test,1583576136284920064,48," | 48  |   3653       5   3527      55 |   5    0      3494        88 |   2  24    0    0 6d0f |    2.777       0       5       0       5     24     24      0   3424     158       2  24    06d0f a70f     10.410 "
test,1583576136296536064,49," | 49  |   3653       5   3643       0 |   5    0      3577        66 |   4  24    0    0 6d0f |    0           0       0       0       8      0      0      0   3544      99       0  24    06d0f a70f     30.360 "
test,1583576136278863872,51," | 51  |   3653       5   3644       0 |   5    0      3607        37 |   2  12    0    0 8b0f |    2.716       0       5       0       5     12     12      0   3592      52       2  12    08b0f a70f      8.790 "
test,1583576136281344768,52," | 52  |   3653       5   3622      23 |   5    0      3473       172 |   2  24    0    0 6d0f |    2.044       0       5       0       5     24     24      0   3401     244       1  24    06d0f a70f      8.970 "
test,1583576136297579008,53," | 53  |   3653       5   3627       0 |   5    0      3442       185 |   5  24    0    0 6d0f |    0           0       0       0       8      0      0      0   3398     229       0  24    06d0f a70f     30.360 "
test,1583576136299102976,54," | 54  |   3653       5   3645       0 |   4    5      3582        63 |   5  12   61    0 8b0f |    2.716       0       4       0       4     12     12      0   3522     123       2  12    08b0f a70f     30.360 "
test,1583576136296945152,55," | 55  |   3653       5   3632       0 |   5    0      3497       135 |   4  24    0    0 6d0f |    0           0       0       0       8      0      0      0   3464     168       0  24    06d0f a70f     30.360 "
test,1583576136283895040,56," | 56  |   3653       5   3635       0 |   5    0      3579        56 |   3  12    0    0 8b0f |    2.746       0       5       0       5     12     12      0   3543      92       2  12    08b0f a70f      8.820 "
test,1583576136291883008,57," | 57  |   3653       5   3590       0 |   5    1      3499        91 |   2  24   12    0 6d0f |    2.807       0       5       0       5     24     24      0   3286     304       2  24    06d0f a70f      9.000 "
test,1583576136297163008,58," | 58  |   3653       5   3644       0 |   2    7      3596        48 |   3  24   61    0 6d0f |    0           0       0       0       8      0      0      0   3438     206       0  24    06d0f a70f     30.390 "
test,1583576136280385024,5," |  5  |   3653       5   3651       0 |   5    0      3332       319 |   1  12    0    0 8b0f |    1.983       0       5       0       5     12     12      0   3267     384       1  12    08b0f a70f      8.910 "
test,1583576136283462144,60," | 60  |   3653       5   3644       0 |   5    0      3416       228 |   2  12    0    0 8b0f |    3.479       0       5       0       5     12     12      0   3353     291       3  12    08b0f a70f      9.540 "
test,1583576136298607104,61," | 61  |   3653       5   3643       0 |   0    6      3480       163 |   0  61   24    1 560f |    0           0       0       0       8      0      0      0   3364     279       0  61    1560f a70f     30.240 "
test,1583576136276107008,7," |  7  |   3653       5   3650       0 |   5    0      3590        60 |   1  12    0    0 8b0f |    2.014       0       5       0       5     12     12      0   3567      83       1  12    08b0f a70f      8.160 "
test,1583576136277580032,9," |  9  |   3653       5   3649       0 |   5    0      3518       131 |   1  12    0    0 8b0f |    2.044       0       5       0       5     12     12      0   3500     149       1  12    08b0f a70f      8.190 "
