test,1583576219283597824,10," | 10  |   3985       5   3957       0 |   5    0      3891        66 |   3   7    0    0 600f |    2.777       0       5       0       5      7      7      0   3842     115       2   7    0600f a70f     11.730 "
test,1583576219279083008,12," | 12  |   3985       5   3983       0 |   5    0      3952        31 |   1   7    0    0 600f |    2.044       0       5       0       5      7      7      0   3888      95       1   7    0600f a70f      8.280 "
test,1583576219277671936,13," | 13  |   3985       5   3981       0 |   5    0      3955        26 |   1   7    0    0 600f |    1.983       0       5       0       5      7      7      0   3907      74       1   7    0600f a70f      8.220 "
test,1583576219291495168,15," | 15  |   3985       5   3983       0 |   4    4      3830       153 |   2   7    5    0 600f |    2.777       0       5       0       5      7      7      0   3657     326       2   7    0600f a70f      9.000 "
test,1583576219281255936,16," | 16  |   3985       5   3981       0 |   5    0      3837       144 |   1  17    0    0 700f |    2.746       0       5       0       5     17     17      0   3732     249       2  17    0700f a70f      8.940 "
test,1583576219281065984,17," | 17  |   3985       5   3976       5 |   4    0      3933        48 |   2  17    0    1 700f |    1.739       0       4       0       4     17     17      0   3811     170       2  17    1700f a70f      6.480 "
test,1583576219280613888,18," | 18  |   3985       5   3980       0 |   5    0      3761       219 |   2  17    0    0 700f |    2.746       0       5       0       5     17     17      0   3597     383       2  17    0700f a70f      9.600 "
test,1583576219281490944,19," | 19  |   3985       4   3972       9 |   5    0      3920        61 |   1  17    0    0 700f |    2.746       0       5       0       5     17     17      0   3799     182       2  17    0700f a70f      9.660 "
test,1583576219278428160,1," |  1  |   3985       4   3982       0 |   5    0      3886        96 |   1   7    0    0 600f |    2.685       0       5       0       5      7      7      0   3857     125       1   7    0600f a70f      8.940 "
test,1583576219279616000,22," | 22  |   3985       5   3979       0 |   5    0      3947        32 |   1  17    0    0 700f |    2.746       0       5       0       5     17     17      0   3761     218       2  17    0700f a70f      8.940 "
test,1583576219280258816,23," | 23  |   3985       5   3923       0 |   5    0      3904        19 |   1  17    0    0 700f |    3.479       0       5       0       5     17     17      0   3819     104       3  17    0700f a70f      9.540 "
test,1583576219278233088,24," | 24  |   3985       5   3979       2 |   5    0      3942        39 |   1  17    0    0 700f |    2.044       0       5       0       5     17     17      0   3840     141       1  17    0700f a70f      8.130 "
test,1583576219278029824,26," | 26  |   3985       5   3979       2 |   5    0      3966        15 |   1  17    0    0 700f |    1.983       0       5       0       5     17     17      0   3891      90       1  17    0700f a70f      8.220 "
test,1583576219290105088,27," | 27  |   3985       5   3983       0 |   5    0      3869       114 |   1  17    0    0 700f |    2.014       0       5       0       5     17     17      0   3705     278       1  17    0700f a70f     10.260 "
test,1583576219301810944,28," | 28  |   3985       4   3976       5 |   4    0      3668       313 |   1  17    0    0 700f |    4.211       0       3       0       3     17     17      0   3518     463       4  17    0700f a70f     30.360 "
test,1583576219285474048,29," | 29  |   3985       5   3978       5 |   4    0      3539       444 |   4  17    0    0 700f |    2.777       0       5       0       5     17     17      0   3350     633       2  17    0700f a70f     10.290 "
test,1583576219299895040,30," | 30  |   3985       5   3979       2 |   5    0      3927        54 |   2  17    0    0 700f |    3.509       0       4       0       4     17     17      0   3781     200       3  17    0700f a70f     30.300 "
test,1583576219301430016,35," | 35  |   3985       5   3979       2 |   5    0      3786       195 |   2  17    0    0 700f |    3.479       0       4       0       4     17     17      0   3702     279       3  17    0700f a70f     30.360 "
test,1583576219284610048,40," | 40  |   3985       4   3917      60 |   5    0      3734       243 |   2  17    0    0 700f |    2.746       0       5       0       5     17     17      0   3636     341       2  17    0700f a70f     11.730 "
test,1583576219280886784,41," | 41  |   3985       5   3912      59 |   5    0      3935        36 |   1  17    0    0 700f |    3.509       0       5       0       5     17     17      0   3832     139       3  17    0700f a70f      9.690 "
test,1583576219285310976,42," | 42  |   3985       5   3920      61 |   5    0      3890        91 |   2  17    0    0 700f |    4.180       0       5       0       5     17     17      0   3793     188       4  17    0700f a70f     11.100 "
test,1583576219283781120,44," | 44  |   3985       5   3924      57 |   5    0      3891        90 |   3  17    0    0 700f |    4.180       0       5       0       5     17     17      0   3810     171       4  17    0700f a70f     11.100 "
test,1583576219283090944,45," | 45  |   3985       5   3938      43 |   5    0      3853       128 |   2  17    0    0 700f |    4.241       0       5       0       5     17     17      0   3781     200       4  17    0700f a70f     10.290 "
test,1583576219281851904,46," | 46  |   3985       5   3917      57 |   5    0      3791       183 |   2  17    0    0 700f |    4.211       0       5       0       5     17     17      0   3714     260       4  17    0700f a70f     10.440 "
test,1583576219289349120,47," | 47  |   3985       5   3924      57 |   5    0      3840       141 |   2  17    0    0 700f |    4.211       0       5       0       5     17     17      0   3761     220       4  17    0700f a70f     10.410 "
test,1583576219279915008,48," | 48  |   3985       4   3859      55 |   5    0      3820        94 |   2  17    0    0 700f |    3.509       0       5       0       5     17     17      0   3743     171       3  17    0700f a70f      9.660 "
test,1583576219282896128,49," | 49  |   3985       5   3975       0 |   5    0      3902        73 |   1  53    0    0 2a0f |    2.044       0       5       0       5     53     53      0   3869     106       1  53    02a0f a70f      8.250 "
test,1583576219296129024,51," | 51  |   3985       5   3976       0 |   0   12      3937        39 |   0  51    7    1 be0f |    0           0       0       0       8      0      0      0   3920      56       0  51    1be0f a70f     30.210 "
test,1583576219288256768,52," | 52  |   3985       5   3953      24 |   5    0      3790       187 |   2  17    0    0 700f |    2.777       0       5       0       5     17     17      0   3711     266       2  17    0700f a70f     10.350 "
test,1583576219282025984,53," | 53  |   3985       5   3959       0 |   4    0      3753       206 |   2  53    0    1 2a0f |    1.770       0       4       0       4     53     53      0   3708     251       2  53    12a0f a70f      6.510 "
test,1583576219295717120,54," | 54  |   3985       5   3977       0 |   5    0      3906        71 |   1   7    0    0 600f |    1.983       0       5       0       5      7      7      0   3842     135       1   7    0600f a70f      8.190 "
test,1583576219287604992,55," | 55  |   3985       5   3964       0 |   5    0      3818       146 |   1  53    0    0 2a0f |    2.014       0       5       0       5     53     53      0   3786     178       1  53    02a0f a70f      8.250 "
test,1583576219299676928,56," | 56  |   3985       5   3967       0 |   5    0      3905        62 |  11   7    0    0 600f |    4.974       0       3       0       3      7      7      0   3862     105       5   7    0600f a70f     30.240 "
test,1583576219301139200,57," | 57  |   3985       5   3922       0 |   4   12      3820       102 |   2  17   51    0 700f |    2.777       0       3       0       3     17     17      0   3588     334       2  17    0700f a70f     30.330 "
test,1583576219285651968,58," | 58  |   3985       4   3976       0 |   5    0      3920        56 |   9   7    0    0 600f |    3.479       0       5       0       5      7      7      0   3750     226       3   7    0600f a70f     11.130 "
test,1583576219298612224,5," |  5  |   3985       5   3983       0 |   0    6      3633       350 |   0   5    7    1 d90f |    0           0       0       0       8      0      0      0   3565     418       0   5    1d90f a70f     30.150 "
test,1583576219297844992,60," | 60  |   3985       5   3976       0 |   3    5      3725       251 |   3   7   51    0 600f |    0           0       0       0       8      0      0      0   3654     322       0   7    0600f a70f     30.360 "
test,1583576219284288768,61," | 61  |   3985       5   3975       0 |   5    0      3796       179 |   8   7    0    0 600f |    2.746       0       5       0       5      7      7      0   3668     307       2   7    0600f a70f     10.410 "
test,1583576219276922880,7," |  7  |   3985       5   3982       0 |   5    0      3922        60 |   2   7    0    1 600f |    1.739       0       4       0       4      7      7      0   3898      84       2   7    1600f a70f      6.510 "
test,1583576219278810112,9," |  9  |   3985       5   3981       0 |   5    0      3837       144 |   1   7    0    0 600f |    2.044       0       5       0       5      7      7      0   3818     163       1   7    0600f a70f      8.970 "
