test,1583576175027894016,10," | 10  |   3808       5   3780       0 |   5    0      3715        65 |   1  56    0    0 160f |    2.014       0       5       0       5     56     56      0   3666     114       1  56    0160f a70f      8.100 "
test,1583576175026659072,12," | 12  |   3808       5   3806       0 |   4    0      3775        31 |   2  12    0    1 5b0f |    1.739       0       4       0       4     12     12      0   3713      93       2  12    15b0f a70f      6.480 "
test,1583576175027475200,13," | 13  |   3808       5   3804       0 |   4    0      3778        26 |   1  12    0    0 5b0f |    2.044       0       5       0       5     12     12      0   3730      74       1  12    05b0f a70f      8.190 "
test,1583576175032308992,15," | 15  |   3808       5   3806       0 |   5    0      3663       143 |   1  12    0    0 5b0f |    2.014       0       5       0       5     12     12      0   3497     309       1  12    05b0f a70f      8.250 "
test,1583576175036758784,16," | 16  |   3808       5   3804       0 |   5    0      3667       137 |   5  56    0    0 160f |    3.448       0       5       0       5     56     56      0   3563     241       3  56    0160f a70f     11.790 "
test,1583576175036463104,17," | 17  |   3808       5   3799       5 |   5    0      3758        46 |   5  56    0    0 160f |    4.211       0       5       0       5     56     56      0   3642     162       4  56    0160f a70f     11.700 "
test,1583576175031961088,18," | 18  |   3808       5   3803       0 |   5    0      3595       208 |   3  56    0    0 160f |    3.479       0       5       0       5     56     56      0   3436     367       3  56    0160f a70f     10.200 "
test,1583576175047611904,19," | 19  |   3808       5   3795       9 |   1   11      3746        58 |   4  12   52    0 5b0f |    0           0       0       0       8      0      0      0   3631     173       0  12    05b0f a70f     30.390 "
test,1583576175030433024,1," |  1  |   3808       4   3805       0 |   5    0      3718        87 |   1  12    0    0 5b0f |    2.685       0       5       0       5     12     12      0   3689     116       1  12    05b0f a70f      8.910 "
test,1583576175030020864,22," | 22  |   3808       5   3802       0 |   5    0      3773        29 |   2  56    0    0 160f |    3.479       0       5       0       5     56     56      0   3593     209       3  56    0160f a70f      9.660 "
test,1583576175039684096,23," | 23  |   3808       5   3746       0 |   5    0      3727        19 |   2  56    0    0 160f |    2.777       0       5       0       5     56     56      0   3643     103       2  56    0160f a70f     12.450 "
test,1583576175030757888,24," | 24  |   3808       5   3802       2 |   5    0      3769        35 |   4  56    0    0 160f |    3.509       0       5       0       5     56     56      0   3673     131       3  56    0160f a70f      9.570 "
test,1583576175034216960,26," | 26  |   3808       5   3802       2 |   5    0      3789        15 |   2  56    0    0 160f |    2.716       0       5       0       5     56     56      0   3717      87       2  56    0160f a70f      8.940 "
test,1583576175051351040,27," | 27  |   3808       5   3806       0 |   2    7      3701       105 |   2  12   56    0 5b0f |    4.211       0       1       0       1     12     12      0   3541     265       4  12    05b0f a70f     30.360 "
test,1583576175048791808,28," | 28  |   3808       5   3800       4 |   2    0      3508       296 |   4  12    0    0 5b0f |    0           0       0       0       8      0      0      0   3365     439       0  12    05b0f a70f     30.360 "
test,1583576175051023872,29," | 29  |   3808       4   3801       5 |   1    0      3385       421 |   3  12    0    0 5b0f |    4.943       0       1       0       1     12     12      0   3208     598       5  12    05b0f a70f     30.360 "
test,1583576175046356992,30," | 30  |   3808       5   3803       1 |   3    3      3751        53 |   3  12   56    0 5b0f |    0           0       0       0       8      0      0      0   3612     192       0  12    05b0f a70f     30.360 "
test,1583576175031228160,35," | 35  |   3808       5   3803       1 |   5    0      3619       185 |   3  56    0    0 160f |    4.241       0       5       0       5     56     56      0   3538     266       4  56    0160f a70f     10.410 "
test,1583576175038973184,40," | 40  |   3808       5   3740      60 |   5    0      3563       237 |   5  56    0    0 160f |    4.180       0       5       0       5     56     56      0   3465     335       4  56    0160f a70f     11.100 "
test,1583576175032137984,41," | 41  |   3808       5   3735      59 |   5    0      3758        36 |   4  56    0    0 160f |    4.211       0       5       0       5     56     56      0   3659     135       4  56    0160f a70f     11.130 "
test,1583576175031646976,42," | 42  |   3808       5   3743      61 |   5    0      3719        85 |   3  56    0    0 160f |    4.211       0       5       0       5     56     56      0   3623     181       4  56    0160f a70f     10.410 "
test,1583576175034611968,44," | 44  |   3808       5   3747      57 |   5    0      3716        88 |   3  56    0    0 160f |    3.448       0       5       0       5     56     56      0   3636     168       3  56    0160f a70f     10.410 "
test,1583576175036045056,45," | 45  |   3808       5   3761      43 |   5    0      3682       122 |   4  56    0    0 160f |    4.211       0       5       0       5     56     56      0   3612     192       4  56    0160f a70f     10.380 "
test,1583576175033248000,46," | 46  |   3808       5   3740      57 |   5    0      3624       173 |   4  56    0    0 160f |    4.180       0       5       0       5     56     56      0   3549     248       4  56    0160f a70f     11.070 "
test,1583576175033721088,47," | 47  |   3808       4   3747      57 |   5    0      3671       133 |   4  56    0    0 160f |    4.241       0       5       0       5     56     56      0   3594     210       4  56    0160f a70f     11.070 "
test,1583576175033524992,48," | 48  |   3808       5   3682      55 |   5    0      3646        91 |   3  56    0    0 160f |    4.180       0       5       0       5     56     56      0   3570     167       4  56    0160f a70f     10.350 "
test,1583576175029241088,49," | 49  |   3808       5   3798       0 |   5    0      3727        71 |   2  56    0    0 160f |    2.746       0       5       0       5     56     56      0   3694     104       2  56    0160f a70f      8.940 "
test,1583576175027694848,51," | 51  |   3808       5   3799       0 |   5    0      3761        38 |   1  56    0    0 160f |    2.014       0       5       0       5     56     56      0   3745      54       1  56    0160f a70f      8.160 "
test,1583576175049596160,52," | 52  |   3808       4   3777      23 |   0   10      3622       178 |   0  52   56    1 450f |    0           0       0       0       8      0      0      0   3546     254       0  52    1450f a70f     30.180 "
test,1583576175034816000,53," | 53  |   3808       5   3782       0 |   5    0      3587       195 |   3  56    0    0 160f |    3.509       0       5       0       5     56     56      0   3543     239       3  56    0160f a70f      9.540 "
test,1583576175028538112,54," | 54  |   3808       5   3800       0 |   5    0      3736        64 |   1  12    0    0 5b0f |    2.014       0       5       0       5     12     12      0   3674     126       1  12    05b0f a70f      8.250 "
test,1583576175029728000,55," | 55  |   3808       5   3787       0 |   5    0      3646       141 |   2  56    0    0 160f |    2.746       0       5       0       5     56     56      0   3613     174       2  56    0160f a70f      8.940 "
test,1583576175027156224,56," | 56  |   3808       5   3790       0 |   4    0      3732        58 |   2  56    0    1 160f |    1.739       0       4       0       4     56     56      0   3692      98       2  56    1160f a70f      6.480 "
test,1583576175038039040,57," | 57  |   3808       5   3745       0 |   5    0      3650        95 |   1  56    0    0 160f |    2.014       0       5       0       5     56     56      0   3428     317       1  56    0160f a70f     11.790 "
test,1583576175035780864,58," | 58  |   3808       4   3799       0 |   4    0      3747        52 |   1  56    0    0 160f |    2.044       0       5       0       5     56     56      0   3581     218       1  56    0160f a70f     11.160 "
test,1583576175028844032,5," |  5  |   3808       5   3806       0 |   5    0      3474       332 |   1  12    0    0 5b0f |    2.014       0       5       0       5     12     12      0   3407     399       1  12    05b0f a70f      8.220 "
test,1583576175028261888,60," | 60  |   3808       5   3799       0 |   5    0      3558       241 |   1  56    0    0 160f |    2.014       0       5       0       5     56     56      0   3492     307       1  56    0160f a70f      8.250 "
test,1583576175037473024,61," | 61  |   3808       5   3798       0 |   5    0      3626       172 |   1  56    0    0 160f |    2.014       0       5       0       5     56     56      0   3503     295       1  56    0160f a70f     11.790 "
test,1583576175026900992,7," |  7  |   3808       5   3805       0 |   5    0      3745        60 |   1  12    0    0 5b0f |    2.044       0       5       0       5     12     12      0   3721      84       1  12    05b0f a70f      8.190 "
test,1583576175029494016,9," |  9  |   3808       5   3804       0 |   5    0      3666       138 |   1  12    0    0 5b0f |    1.983       0       5       0       5     12     12      0   3647     157       1  12    05b0f a70f      8.190 "
