test,1583576143779067136,10," | 10  |   3683       5   3655       0 |   5    0      3593        62 |   2  13    0    0 280f |    1.953       0       5       0       5     13     13      0   3546     109       1  13    0280f a70f      8.220 "
test,1583576143777931008,12," | 12  |   3683       5   3681       0 |   5    0      3652        29 |   2  13    0    0 280f |    2.716       0       5       0       5     13     13      0   3593      88       2  13    0280f a70f      8.940 "
test,1583576143778126080,13," | 13  |   3683       5   3679       0 |   5    0      3653        26 |   2  13    0    1 280f |    1.739       0       4       0       4     13     13      0   3607      72       2  13    1280f a70f      6.510 "
test,1583576143800802048,15," | 15  |   3683       5   3681       0 |   1    5      3539       142 |   2  24    5    0 cd0f |   11.535       0       2       0       2     24     24      0   3384     297      14  24    0cd0f a70f     30.330 "
test,1583576143788687872,16," | 16  |   3683       5   3679       0 |   5    0      3545       134 |   2  24    0    0 cd0f |    2.716       0       5       0       5     24     24      0   3444     235       2  24    0cd0f a70f      8.820 "
test,1583576143781517056,17," | 17  |   3683       5   3674       5 |   5    0      3633        46 |   4  24    0    0 cd0f |    2.716       0       5       0       5     24     24      0   3519     160       2  24    0cd0f a70f      8.910 "
test,1583576143778845952,18," | 18  |   3683       5   3678       0 |   5    0      3476       202 |   1  24    0    0 cd0f |    1.983       0       5       0       5     24     24      0   3320     358       1  24    0cd0f a70f      8.190 "
test,1583576143780834816,19," | 19  |   3683       5   3670       9 |   5    0      3623        56 |   1  24    0    0 cd0f |    2.014       0       5       0       5     24     24      0   3511     168       1  24    0cd0f a70f      8.100 "
test,1583576143778452992,1," |  1  |   3683       4   3680       0 |   5    0      3596        84 |   1  13    0    0 280f |    2.685       0       5       0       5     13     13      0   3568     112       1  13    0280f a70f      8.730 "
test,1583576143782264064,22," | 22  |   3683       5   3677       0 |   5    0      3649        28 |   1  24    0    0 cd0f |    1.983       0       5       0       5     24     24      0   3476     201       1  24    0cd0f a70f     12.510 "
test,1583576143777757952,23," | 23  |   3683       5   3621       0 |   5    0      3602        19 |   3  24    0    0 cd0f |    2.014       0       5       0       5     24     24      0   3524      97       1  24    0cd0f a70f      8.250 "
test,1583576143776633088,24," | 24  |   3683       5   3677       2 |   4    0      3645        34 |   2  24    0    1 cd0f |    1.739       0       4       0       4     24     24      0   3553     126       2  24    1cd0f a70f      6.480 "
test,1583576143776425984,26," | 26  |   3683       5   3677       2 |   5    0      3665        14 |   1  24    0    0 cd0f |    2.014       0       5       0       5     24     24      0   3595      84       1  24    0cd0f a70f      8.280 "
test,1583576143799784960,27," | 27  |   3683       5   3681       0 |   5    0      3581       100 |   3  24    0    0 cd0f |    3.448       0       4       0       4     24     24      0   3424     257       3  24    0cd0f a70f     30.360 "
test,1583576143800008960,28," | 28  |   3683       5   3675       4 |   5    0      3395       284 |   2  24    0    0 cd0f |    2.716       0       4       0       4     24     24      0   3256     423       2  24    0cd0f a70f     30.210 "
test,1583576143798777088,29," | 29  |   3683       4   3676       5 |   0    1      3272       409 |   0  29   24    1 750f |    0           0       0       0       8      0      0      0   3099     582       0  29    1750f a70f     30.180 "
test,1583576143783629056,30," | 30  |   3683       5   3678       1 |   5    0      3626        53 |   2  24    0    0 cd0f |    2.716       0       5       0       5     24     24      0   3492     187       2  24    0cd0f a70f     11.700 "
test,1583576143783855872,35," | 35  |   3683       5   3678       1 |   5    0      3504       175 |   2  24    0    0 cd0f |    2.716       0       5       0       5     24     24      0   3425     254       2  24    0cd0f a70f     12.450 "
test,1583576143787851008,40," | 40  |   3683       5   3615      60 |   5    0      3444       231 |   2  46    0    0 2e0f |    2.716       0       5       0       5     46     46      0   3352     323       2  46    02e0f a70f      8.940 "
test,1583576143782433024,41," | 41  |   3683       5   3610      59 |   5    0      3633        36 |   1  46    0    0 2e0f |    1.983       0       5       0       5     46     46      0   3540     129       1  46    02e0f a70f      9.660 "
test,1583576143786060032,42," | 42  |   3683       5   3618      61 |   5    0      3596        83 |   1  46    0    0 2e0f |    1.983       0       5       0       5     46     46      0   3504     175       1  46    02e0f a70f      8.910 "
test,1583576143783416064,44," | 44  |   3683       5   3622      57 |   5    0      3594        85 |   1  46    0    0 2e0f |    1.983       0       5       0       5     46     46      0   3519     160       1  46    02e0f a70f      8.910 "
test,1583576143785065984,45," | 45  |   3683       5   3636      43 |   5    0      3562       117 |   1  46    0    0 2e0f |    2.044       0       5       0       5     46     46      0   3496     183       1  46    02e0f a70f      8.820 "
test,1583576143780560896,46," | 46  |   3683       5   3615      57 |   4    0      3508       164 |   4  46    0    1 2e0f |    1.739       0       4       0       4     46     46      0   3436     236       2  46    12e0f a70f      6.510 "
test,1583576143782903040,47," | 47  |   3683       5   3622      57 |   5    0      3550       129 |   1  46    0    0 2e0f |    1.983       0       5       0       5     46     46      0   3478     201       1  46    02e0f a70f      8.250 "
test,1583576143782712832,48," | 48  |   3683       5   3557      55 |   5    0      3523        89 |   1  46    0    0 2e0f |    1.983       0       5       0       5     46     46      0   3452     160       1  46    02e0f a70f      8.220 "
test,1583576143776217088,49," | 49  |   3683       5   3673       0 |   4    0      3607        66 |   2  49    0    1 840f |    1.739       0       4       0       4     49     49      0   3574      99       2  49    1840f a70f      6.480 "
test,1583576143776904192,51," | 51  |   3683       5   3674       0 |   5    0      3637        37 |   3  13    0    0 280f |    1.983       0       5       0       5     13     13      0   3622      52       1  13    0280f a70f      8.220 "
test,1583576143785612032,52," | 52  |   3683       5   3652      23 |   5    0      3502       173 |   1  24    0    0 cd0f |    1.983       0       5       0       5     24     24      0   3429     246       1  24    0cd0f a70f      9.450 "
test,1583576143777224960,53," | 53  |   3683       5   3657       0 |   5    0      3470       187 |   1  49    0    0 840f |    2.014       0       5       0       5     49     49      0   3426     231       1  49    0840f a70f      8.160 "
test,1583576143800385024,54," | 54  |   3683       5   3675       0 |   1    7      3612        63 |   2  49   13    0 840f |   10.803       0       1       0       1     49     49      0   3552     123      13  49    0840f a70f     30.360 "
test,1583576143778652928,55," | 55  |   3683       5   3662       0 |   5    0      3526       136 |   1  49    0    0 840f |    2.044       0       5       0       5     49     49      0   3493     169       1  49    0840f a70f      8.280 "
test,1583576143782030080,56," | 56  |   3683       5   3665       0 |   1    9      3608        57 |   2  49   13    0 840f |    3.509       0       5       0       5     49     49      0   3571      94       3  49    0840f a70f     11.160 "
test,1583576143784822016,57," | 57  |   3683       4   3620       0 |   1    4      3528        92 |   2  49   24    0 840f |    3.509       0       5       0       5     49     49      0   3313     307       3  49    0840f a70f     12.570 "
test,1583576143785255936,58," | 58  |   3683       5   3674       0 |   5    0      3626        48 |   1  49    0    0 840f |    2.075       0       5       0       5     49     49      0   3465     209       1  49    0840f a70f      8.310 "
test,1583576143798139136,5," |  5  |   3683       5   3681       0 |   0    4      3358       323 |   0   5   13    1 160f |    0           0       0       0       8      0      0      0   3293     388       0   5    1160f a70f     30.180 "
test,1583576143803922944,60," | 60  |   3683       5   3674       0 |   1    5      3442       232 |   3  49   13    0 840f |   10.101       0       3       0       3     49     49      0   3379     295      12  49    0840f a70f     30.390 "
test,1583576143783090176,61," | 61  |   3683       5   3673       0 |   4    0      3507       166 |   2  49    0    0 840f |    2.807       0       5       0       5     49     49      0   3388     285       2  49    0840f a70f     10.350 "
test,1583576143780388096,7," |  7  |   3683       5   3680       0 |   5    0      3620        60 |   1  13    0    0 280f |    1.983       0       5       0       5     13     13      0   3597      83       1  13    0280f a70f      8.220 "
test,1583576143784486144,9," |  9  |   3683       5   3679       0 |   5    0      3546       133 |   2  13    0    0 280f |    1.983       0       5       0       5     13     13      0   3528     151       1  13    0280f a70f      8.100 "
