test,1583575305008927232,10," | 10  |    328       5    300       0 |   5    0       295         5 |   1  51    0    0 4a0f |    2.014       0       5       0       5     51     51      0    290      10       1  51    04a0f a70f      8.250 "
test,1583575305011332096,12," | 12  |    328       5    326       0 |   5    0       322         4 |   2  51    0    0 4a0f |    2.777       0       5       0       5     51     51      0    316      10       2  51    04a0f a70f      9.690 "
test,1583575305008734976,13," | 13  |    328       5    324       0 |   5    0       319         5 |   1  51    0    0 4a0f |    2.014       0       5       0       5     51     51      0    313      11       1  51    04a0f a70f      8.280 "
test,1583575305012214784,15," | 15  |    328       5    326       0 |   5    0       315        11 |   3  51    0    0 4a0f |    2.807       0       5       0       5     51     51      0    304      22       2  51    04a0f a70f     10.350 "
test,1583575305021817856,16," | 16  |    328       5    324       0 |   2    0       312        12 |   5  28    0    0 780f |   14.099       0       5       0       5     28     28      0    309      15      18  28    0780f a70f     20.130 "
test,1583575305020047872,17," | 17  |    328       5    324       0 |   5    0       321         3 |   1  28    0    0 780f |   12.695       0       5       0       5     28     28      0    310      14      16  28    0780f a70f     18.750 "
test,1583575305013839872,18," | 18  |    328       5    323       0 |   2    8       298        25 |   2  40   28    0 640f |    4.821       0       5       0       5     40     40      0    285      38       5  40    0640f a70f     10.950 "
test,1583575305019651840,19," | 19  |    328       5    323       1 |   5    0       320         4 |   2  28    0    0 780f |   13.427       0       5       0       5     28     28      0    312      12      17  28    0780f a70f     19.290 "
test,1583575305008545024,1," |  1  |    328       4    325       0 |   5    0       318         7 |   1  51    0    0 4a0f |    2.716       0       5       0       5     51     51      0    315      10       1  51    04a0f a70f      8.940 "
test,1583575305015126016,22," | 22  |    328       5    322       0 |   1    9       319         3 |   3  40   20    0 640f |    4.821       0       5       0       5     40     40      0    308      14       5  40    0640f a70f     11.670 "
test,1583575305030608896,23," | 23  |    328       5    266       0 |   1    9       264         2 |   2  51   28    0 4a0f |    2.746       0       3       0       3     51     51      0    264       2       2  51    04a0f a70f     30.300 "
test,1583575305022160896,24," | 24  |    328       5    324       0 |   5    0       321         3 |   7  28    0    0 780f |   13.397       0       5       0       5     28     28      0    316       8      17  28    0780f a70f     20.160 "
test,1583575305021195776,26," | 26  |    328       5    324       0 |   5    0       322         2 |   4  28    0    0 780f |   13.427       0       5       0       5     28     28      0    316       8      17  28    0780f a70f     19.440 "
test,1583575305032318208,27," | 27  |    328       5    326       0 |   1    7       317         9 |   3  51   20    0 4a0f |    3.479       0       3       0       3     51     51      0    303      23       3  51    04a0f a70f     30.390 "
test,1583575305026177792,28," | 28  |    328       5    324       0 |   4    0       302        22 |   4  28    0    1 780f |   12.390       0       4       0       4     28     28      0    294      30      17  28    1780f a70f     16.920 "
test,1583575305020324096,29," | 29  |    328       5    324       2 |   4    1       291        35 |   5  28   20    0 780f |   14.099       0       5       0       5     28     28      0    275      51      18  28    0780f a70f     20.130 "
test,1583575305023601920,30," | 30  |    328       5    324       0 |   5    0       322         2 |   1  28    0    0 780f |   14.129       0       5       0       5     28     28      0    315       9      18  28    0780f a70f     20.160 "
test,1583575305024528128,35," | 35  |    328       5    324       0 |   5    0       311        13 |   2  28    0    0 780f |   14.862       0       5       0       5     28     28      0    308      16      19  28    0780f a70f     20.730 "
test,1583575305010780160,40," | 40  |    328       5    312       8 |   4    1       289        31 |   4  40   28    1 640f |    3.814       0       4       0       4     40     40      0    281      39       5  40    1640f a70f      8.520 "
test,1583575305011977984,41," | 41  |    328       5    305       9 |   5    0       311         3 |   1  40    0    0 640f |    4.028       0       5       0       5     40     40      0    307       7       4  40    0640f a70f     10.230 "
test,1583575305028749056,42," | 42  |    328       5    314      10 |   5    0       311        13 |   3  40    0    0 640f |    4.821       0       4       0       4     40     40      0    305      19       5  40    0640f a70f     30.390 "
test,1583575305028184064,44," | 44  |    328       5    315       9 |   5    0       320         4 |   2  40    0    0 640f |    4.821       0       4       0       4     40     40      0    313      11       5  40    0640f a70f     30.240 "
test,1583575305030936832,45," | 45  |    328       5    317       7 |   5    0       304        20 |   2  40    0    0 640f |    4.821       0       4       0       4     40     40      0    300      24       5  40    0640f a70f     30.330 "
test,1583575305011760896,46," | 46  |    328       5    308       9 |   5    0       308         9 |   1  40    0    0 640f |    4.089       0       5       0       5     40     40      0    303      14       4  40    0640f a70f     10.140 "
test,1583575305013091072,47," | 47  |    328       5    315       9 |   5    0       314        10 |   1  40    0    0 640f |    4.058       0       5       0       5     40     40      0    311      13       4  40    0640f a70f     10.140 "
test,1583575305031907072,48," | 48  |    328       5    250       7 |   5    0       247        10 |   1  40    0    0 640f |    4.058       0       4       0       4     40     40      0    242      15       4  40    0640f a70f     30.240 "
test,1583575305010287104,49," | 49  |    328       5    318       0 |   5    0       314         4 |   3  51    0    0 4a0f |    4.272       0       5       0       5     51     51      0    314       4       4  51    04a0f a70f     10.290 "
test,1583575305008121856,51," | 51  |    328       5    319       0 |   4    0       317         2 |   2  51    0    1 4a0f |    1.739       0       4       0       4     51     51      0    317       2       2  51    14a0f a70f      6.510 "
test,1583575305032175104,52," | 52  |    328       5    316       4 |   1    9       304        16 |   3  51   28    0 4a0f |    3.479       0       3       0       3     51     51      0    297      23       3  51    04a0f a70f     30.330 "
test,1583575305012861952,53," | 53  |    328       5    302       0 |   5    0       286        16 |   4  51    0    0 4a0f |    4.943       0       5       0       5     51     51      0    286      16       5  51    04a0f a70f     11.100 "
test,1583575305012563968,54," | 54  |    328       5    320       0 |   5    0       319         1 |   2  51    0    0 4a0f |    2.807       0       5       0       5     51     51      0    310      10       2  51    04a0f a70f      9.660 "
test,1583575305012402944,55," | 55  |    328       5    307       0 |   5    0       294        13 |   3  51    0    0 4a0f |    4.241       0       5       0       5     51     51      0    294      13       4  51    04a0f a70f     10.380 "
test,1583575305008321024,56," | 56  |    328       5    310       0 |   5    0       301         9 |   1  51    0    0 4a0f |    2.044       0       5       0       5     51     51      0    299      11       1  51    04a0f a70f      8.190 "
test,1583575305030366976,57," | 57  |    328       5    265       0 |   3    0       254        11 |   1  51    0    0 4a0f |    2.044       0       4       0       4     51     51      0    243      22       1  51    04a0f a70f     30.300 "
test,1583575305017615104,58," | 58  |    328       5    319       0 |   5    0       314         5 |   2  51    0    0 4a0f |    3.509       0       5       0       5     51     51      0    309      10       3  51    04a0f a70f     10.440 "
test,1583575305010498048,5," |  5  |    328       5    326       0 |   5    0       302        24 |   2  51    0    0 4a0f |    2.807       0       5       0       5     51     51      0    294      32       2  51    04a0f a70f      8.940 "
test,1583575305009325056,60," | 60  |    328       5    319       0 |   5    0       303        16 |   1  51    0    0 4a0f |    2.044       0       5       0       5     51     51      0    300      19       1  51    04a0f a70f      8.250 "
test,1583575305009927936,61," | 61  |    328       5    318       0 |   5    0       307        11 |   2  51    0    0 4a0f |    2.746       0       5       0       5     51     51      0    299      19       2  51    04a0f a70f      8.940 "
test,1583575305010108928,7," |  7  |    328       5    325       0 |   5    0       319         6 |   1  51    0    0 4a0f |    2.044       0       5       0       5     51     51      0    319       6       1  51    04a0f a70f      8.850 "
test,1583575305011561984,9," |  9  |    328       5    324       0 |   5    0       312        12 |   2  51    0    0 4a0f |    2.777       0       5       0       5     51     51      0    311      13       2  51    04a0f a70f      8.850 "
