test,1583576145529156096,10," | 10  |   3690       5   3662       0 |   5    0      3599        63 |   1   7    0    0 4c0f |    2.014       0       5       0       5      7      7      0   3552     110       1   7    04c0f a70f      8.280 "
test,1583576145529870080,12," | 12  |   3690       5   3688       0 |   5    0      3659        29 |   1   7    0    0 4c0f |    2.014       0       5       0       5      7      7      0   3600      88       1   7    04c0f a70f      8.220 "
test,1583576145525907968,13," | 13  |   3690       5   3686       0 |   5    0      3660        26 |   1   7    0    0 4c0f |    2.044       0       5       0       5      7      7      0   3614      72       1   7    04c0f a70f      8.160 "
test,1583576145530512128,15," | 15  |   3690       5   3688       0 |   5    0      3546       142 |   2   7    0    0 4c0f |    2.746       0       5       0       5      7      7      0   3391     297       2   7    04c0f a70f      9.000 "
test,1583576145531599872,16," | 16  |   3690       4   3686       0 |   4    0      3552       134 |   7  22    0    0 a30f |    2.777       0       5       0       5     22     22      0   3450     236       2  22    0a30f a70f      8.880 "
test,1583576145527885824,17," | 17  |   3690       5   3681       5 |   5    0      3640        46 |   1  22    0    0 a30f |    2.014       0       5       0       5     22     22      0   3525     161       1  22    0a30f a70f      8.160 "
test,1583576145538024960,18," | 18  |   3690       5   3685       0 |   5    0      3483       202 |   1  22    0    0 a30f |    2.044       0       5       0       5     22     22      0   3326     359       1  22    0a30f a70f      8.280 "
test,1583576145534891008,19," | 19  |   3690       5   3677       9 |   5    0      3630        56 |   2  22    0    0 a30f |    2.777       0       5       0       5     22     22      0   3517     169       2  22    0a30f a70f      9.720 "
test,1583576145533036032,1," |  1  |   3690       4   3687       0 |   5    0      3603        84 |   1   7    0    0 4c0f |    2.685       0       5       0       5      7      7      0   3575     112       1   7    04c0f a70f      8.820 "
test,1583576145527717120,22," | 22  |   3690       5   3684       0 |   4    0      3656        28 |   2  22    0    1 a30f |    1.739       0       4       0       4     22     22      0   3482     202       2  22    1a30f a70f      6.480 "
test,1583576145527499008,23," | 23  |   3690       5   3628       0 |   5    0      3609        19 |   1  22    0    0 a30f |    2.044       0       5       0       5     22     22      0   3530      98       1  22    0a30f a70f      8.250 "
test,1583576145528152832,24," | 24  |   3690       5   3684       2 |   3    0      3652        34 |   1  22    0    0 a30f |    2.044       0       5       0       5     22     22      0   3559     127       1  22    0a30f a70f      8.310 "
test,1583576145526705152,26," | 26  |   3690       5   3684       2 |   5    0      3672        14 |   1  22    0    0 a30f |    2.014       0       5       0       5     22     22      0   3602      84       1  22    0a30f a70f      8.250 "
test,1583576145529611008,27," | 27  |   3690       5   3688       0 |   5    0      3587       101 |   2  22    0    0 a30f |    2.777       0       5       0       5     22     22      0   3429     259       2  22    0a30f a70f      8.970 "
test,1583576145530135040,28," | 28  |   3690       5   3682       4 |   5    0      3401       285 |   1  22    0    0 a30f |    2.014       0       5       0       5     22     22      0   3262     424       1  22    0a30f a70f      8.100 "
test,1583576145549918976,29," | 29  |   3690       3   3683       5 |   3    0      3279       409 |   3  22    0    0 a30f |    3.509       0       3       0       3     22     22      0   3105     583       3  22    0a30f a70f     30.330 "
test,1583576145528808192,30," | 30  |   3690       5   3685       1 |   5    0      3633        53 |   1  22    0    0 a30f |    2.075       0       5       0       5     22     22      0   3499     187       1  22    0a30f a70f      8.910 "
test,1583576145528409856,35," | 35  |   3690       5   3685       1 |   5    0      3510       176 |   1  22    0    0 a30f |    2.014       0       5       0       5     22     22      0   3431     255       1  22    0a30f a70f      8.220 "
test,1583576145551762944,40," | 40  |   3690       5   3622      60 |   5    0      3451       231 |   2  46    0    0 570f |    2.746       0       1       0       1     46     46      0   3358     324       2  46    0570f a70f     30.390 "
test,1583576145550780160,41," | 41  |   3690       5   3617      59 |   5    0      3640        36 |   1  46    0    0 570f |    1.983       0       1       0       1     46     46      0   3546     130       1  46    0570f a70f     30.390 "
test,1583576145550945024,42," | 42  |   3690       5   3625      61 |   4    6      3603        83 |   2  46   47    0 570f |    2.716       0       1       0       1     46     46      0   3510     176       2  46    0570f a70f     30.360 "
test,1583576145550454016,44," | 44  |   3690       5   3629      57 |   5    0      3601        85 |   3  46    0    0 570f |    2.716       0       1       0       1     46     46      0   3525     161       2  46    0570f a70f     30.360 "
test,1583576145550625024,45," | 45  |   3690       5   3643      43 |   5    0      3569       117 |   2  46    0    0 570f |    2.746       0       1       0       1     46     46      0   3502     184       2  46    0570f a70f     30.360 "
test,1583576145551589888,46," | 46  |   3690       5   3622      57 |   4    0      3513       166 |   2  46    0    1 570f |    1.770       0       1       0       1     46     46      0   3440     239       2  46    1570f a70f     30.300 "
test,1583576145547975936,47," | 47  |   3690       5   3629      57 |   0    3      3555       131 |   0  47   46    1 380f |    0           0       0       0       8      0      0      0   3482     204       0  47    1380f a70f     30.240 "
test,1583576145552547072,48," | 48  |   3690       4   3564      55 |   5    0      3529        90 |   3  46    0    0 570f |    2.746       0       1       0       1     46     46      0   3457     162       2  46    0570f a70f     30.360 "
test,1583576145533345024,49," | 49  |   3690       5   3680       0 |   5    0      3613        67 |   3   7    0    0 4c0f |    4.180       0       5       0       5      7      7      0   3580     100       4   7    04c0f a70f     10.290 "
test,1583576145527117056,51," | 51  |   3690       5   3681       0 |   5    0      3644        37 |   1   7    0    0 4c0f |    1.983       0       5       0       5      7      7      0   3629      52       1   7    04c0f a70f      8.220 "
test,1583576145551273216,52," | 52  |   3690       5   3659      23 |   5    0      3509       173 |   4  22    0    0 a30f |    2.746       0       4       0       4     22     22      0   3435     247       2  22    0a30f a70f     30.240 "
test,1583576145530733056,53," | 53  |   3690       5   3664       0 |   5    0      3477       187 |   4   7    0    0 4c0f |    4.882       0       5       0       5      7      7      0   3433     231       5   7    04c0f a70f     11.040 "
test,1583576145531207168,54," | 54  |   3690       5   3682       0 |   5    0      3619        63 |   1   7    0    0 4c0f |    1.983       0       5       0       5      7      7      0   3559     123       1   7    04c0f a70f      8.040 "
test,1583576145530947840,55," | 55  |   3690       5   3669       0 |   5    0      3532       137 |   3   7    0    0 4c0f |    4.180       0       5       0       5      7      7      0   3499     170       4   7    04c0f a70f     10.260 "
test,1583576145529329152,56," | 56  |   3690       5   3672       0 |   5    0      3615        57 |   2   7    0    0 4c0f |    2.746       0       5       0       5      7      7      0   3577      95       2   7    04c0f a70f      8.880 "
test,1583576145549041152,57," | 57  |   3690       5   3627       0 |   4    0      3535        92 |   1  22    0    0 a30f |    2.044       0       4       0       4     22     22      0   3320     307       1  22    0a30f a70f     30.240 "
test,1583576145533790208,58," | 58  |   3690       5   3681       0 |   4    0      3633        48 |   2   7    0    0 4c0f |    3.479       0       5       0       5      7      7      0   3472     209       3   7    04c0f a70f     11.130 "
test,1583576145549652992,5," |  5  |   3690       5   3688       0 |   5    0      3364       324 |   2   7    0    0 4c0f |    2.746       0       4       0       4      7      7      0   3299     389       2   7    04c0f a70f     30.360 "
test,1583576145532495104,60," | 60  |   3690       5   3681       0 |   5    0      3449       232 |   2   7    0    0 4c0f |    2.716       0       5       0       5      7      7      0   3386     295       2   7    04c0f a70f      8.850 "
test,1583576145526251008,61," | 61  |   3690       5   3680       0 |   4    0      3514       166 |   3   7    0    0 4c0f |    3.479       0       5       0       5      7      7      0   3395     285       3   7    04c0f a70f     11.760 "
test,1583576145525458944,7," |  7  |   3690       5   3687       0 |   4    0      3627        60 |   2   7    0    1 4c0f |    1.739       0       4       0       4      7      7      0   3604      83       2   7    14c0f a70f      6.480 "
test,1583576145526885888,9," |  9  |   3690       5   3686       0 |   5    0      3552       134 |   1   7    0    0 4c0f |    2.014       0       5       0       5      7      7      0   3534     152       1   7    04c0f a70f      8.160 "
