test,1583576131793703936,10," | 10  |   3635       5   3607       0 |   4    9      3546        61 |   1  58    1    0 390f |   11.535       0       5       0       5     58     58      0   3499     108      14  58    0390f a70f     17.550 "
test,1583576131795299072,12," | 12  |   3635       5   3633       0 |   4    9      3604        29 |   1  58    1    0 390f |   11.474       0       5       0       5     58     58      0   3546      87      14  58    0390f a70f     18.240 "
test,1583576131775293952,13," | 13  |   3635       5   3631       0 |   5    0      3606        25 |   1   1    0    0 1b0f |    1.342       0       5       0       5      1      1      0   3561      70       1   1    01b0f a70f      7.470 "
test,1583576131790213120,15," | 15  |   3635       5   3633       0 |   5    0      3495       138 |   2  58    0    0 390f |    7.141       0       5       0       5     58     58      0   3342     291       8  58    0390f a70f     17.610 "
test,1583576131781979136,16," | 16  |   3635       5   3631       0 |   5    0      3498       133 |   3  58    0    0 390f |    3.448       0       5       0       5     58     58      0   3398     233       3  58    0390f a70f     11.790 "
test,1583576131798306816,17," | 17  |   3635       5   3626       5 |   5    0      3585        46 |   5  58    0    0 390f |    3.417       0       4       0       4     58     58      0   3473     158       3  58    0390f a70f     30.240 "
test,1583576131783180032,18," | 18  |   3635       5   3630       0 |   5    0      3430       200 |   3  58    0    0 390f |    3.448       0       5       0       5     58     58      0   3277     353       3  58    0390f a70f     10.890 "
test,1583576131800476928,19," | 19  |   3635       5   3622       9 |   5    0      3576        55 |   2  58    0    0 390f |    3.448       0       4       0       4     58     58      0   3463     168       3  58    0390f a70f     30.270 "
test,1583576131776123136,1," |  1  |   3635       4   3632       0 |   5    0      3548        84 |   2   1    0    1 1b0f |    1.739       0       4       0       4      1      1      0   3521     111       2   1    11b0f a70f      6.510 "
test,1583576131780006912,22," | 22  |   3635       5   3629       0 |   5    0      3602        27 |   2  58    0    0 390f |    2.716       0       5       0       5     58     58      0   3432     197       2  58    0390f a70f     10.200 "
test,1583576131791992064,23," | 23  |   3635       5   3573       0 |   5    0      3555        18 |   2  58    0    0 390f |    2.746       0       5       0       5     58     58      0   3479      94       2  58    0390f a70f     11.010 "
test,1583576131779557888,24," | 24  |   3635       5   3629       2 |   5    0      3598        33 |   3  58    0    0 390f |    3.479       0       5       0       5     58     58      0   3508     123       3  58    0390f a70f     10.410 "
test,1583576131780272128,26," | 26  |   3635       5   3629       2 |   5    0      3617        14 |   2  58    0    0 390f |    2.685       0       5       0       5     58     58      0   3549      82       2  58    0390f a70f     11.040 "
test,1583576131798685952,27," | 27  |   3635       5   3633       0 |   0    9      3533       100 |   0  27   58    1 9d0f |    0           0       0       0       8      0      0      0   3377     256       0  27    19d0f a70f     30.180 "
test,1583576131783804928,28," | 28  |   3635       5   3627       4 |   5    0      3350       281 |   4  58    0    0 390f |    3.448       0       5       0       5     58     58      0   3213     418       3  58    0390f a70f      9.660 "
test,1583576131799865856,29," | 29  |   3635       5   3628       5 |   3    4      3230       403 |   9  58   27    0 390f |   10.070       0       1       0       1     58     58      0   3059     574      12  58    0390f a70f     30.330 "
test,1583576131780807936,30," | 30  |   3635       5   3630       1 |   5    0      3578        53 |   3  58    0    0 390f |    4.180       0       5       0       5     58     58      0   3447     184       4  58    0390f a70f     10.290 "
test,1583576131779787008,35," | 35  |   3635       5   3630       1 |   5    0      3459       172 |   3  58    0    0 390f |    3.417       0       5       0       5     58     58      0   3381     250       3  58    0390f a70f      9.600 "
test,1583576131784660224,40," | 40  |   3635       5   3567      60 |   5    0      3399       228 |   4  58    0    0 390f |    5.615       0       5       0       5     58     58      0   3308     319       6  58    0390f a70f     12.330 "
test,1583576131784284160,41," | 41  |   3635       5   3563      58 |   5    0      3585        36 |   4  58    0    0 390f |    4.211       0       5       0       5     58     58      0   3494     127       4  58    0390f a70f     12.420 "
test,1583576131783638016,42," | 42  |   3635       5   3570      61 |   5    0      3548        83 |   3  58    0    0 390f |    3.448       0       5       0       5     58     58      0   3458     173       3  58    0390f a70f     12.360 "
test,1583576131787848960,44," | 44  |   3635       5   3574      57 |   5    0      3547        84 |   3  58    0    0 390f |    3.479       0       5       0       5     58     58      0   3473     158       3  58    0390f a70f     11.700 "
test,1583576131785842944,45," | 45  |   3635       5   3588      43 |   5    0      3516       115 |   4  58    0    0 390f |    4.180       0       5       0       5     58     58      0   3451     180       4  58    0390f a70f     12.360 "
test,1583576131783413760,46," | 46  |   3635       5   3567      57 |   5    0      3462       162 |   5  58    0    0 390f |    4.211       0       5       0       5     58     58      0   3391     233       4  58    0390f a70f     12.450 "
test,1583576131781223936,47," | 47  |   3635       5   3574      57 |   5    0      3502       129 |   4  58    0    0 390f |    4.180       0       5       0       5     58     58      0   3431     200       4  58    0390f a70f     10.380 "
test,1583576131781570816,48," | 48  |   3635       5   3509      55 |   5    0      3476        88 |   3  58    0    0 390f |    3.448       0       5       0       5     58     58      0   3406     158       3  58    0390f a70f     12.450 "
test,1583576131777467136,49," | 49  |   3635       5   3625       0 |   5    0      3560        65 |   1  58    0    0 390f |    1.983       0       5       0       5     58     58      0   3529      96       1  58    0390f a70f      8.220 "
test,1583576131776809984,51," | 51  |   3635       5   3626       0 |   4    3      3589        37 |   5   1   58    0 1b0f |    1.342       0       5       0       5      1      1      0   3575      51       1   1    01b0f a70f      7.620 "
test,1583576131782445824,52," | 52  |   3635       5   3604      23 |   5    0      3455       172 |   3  58    0    0 390f |    3.417       0       5       0       5     58     58      0   3384     243       3  58    0390f a70f     10.950 "
test,1583576131779282944,53," | 53  |   3635       5   3609       0 |   5    0      3426       183 |   2  58    0    0 390f |    2.716       0       5       0       5     58     58      0   3384     225       2  58    0390f a70f      8.790 "
test,1583576131788666880,54," | 54  |   3635       5   3627       0 |   4    8      3564        63 |   1  58    1    0 390f |   10.772       0       5       0       5     58     58      0   3505     122      13  58    0390f a70f     16.830 "
test,1583576131777010944,55," | 55  |   3635       5   3614       0 |   5    0      3479       135 |   1  58    0    0 390f |    2.014       0       5       0       5     58     58      0   3448     166       1  58    0390f a70f      8.070 "
test,1583576131790662912,56," | 56  |   3635       5   3617       0 |   5    0      3561        56 |   1  58    0    0 390f |    2.746       0       5       0       5     58     58      0   3525      92       2  58    0390f a70f     12.450 "
test,1583576131785371136,57," | 57  |   3635       5   3572       0 |   5    0      3482        90 |   1  58    0    0 390f |    1.953       0       5       0       5     58     58      0   3269     303       1  58    0390f a70f     10.320 "
test,1583576131782830848,58," | 58  |   3635       5   3626       0 |   4    0      3578        48 |   2  58    0    1 390f |    1.739       0       4       0       4     58     58      0   3422     204       2  58    1390f a70f     10.080 "
test,1583576131788294144,5," |  5  |   3635       5   3633       0 |   4    4      3315       318 |   2  58    1    0 390f |   12.268       0       5       0       5     58     58      0   3251     382      15  58    0390f a70f     18.930 "
test,1583576131788925952,60," | 60  |   3635       5   3626       0 |   5    0      3398       228 |   2  58    0    0 390f |    2.746       0       5       0       5     58     58      0   3336     290       2  58    0390f a70f     14.700 "
test,1583576131781022976,61," | 61  |   3635       5   3625       0 |   5    0      3463       162 |   1  58    0    0 390f |    2.014       0       5       0       5     58     58      0   3349     276       1  58    0390f a70f     11.130 "
test,1583576131775729920,7," |  7  |   3635       5   3632       0 |   5    0      3572        60 |   1   1    0    0 1b0f |    1.342       0       5       0       5      1      1      0   3550      82       1   1    01b0f a70f      7.590 "
test,1583576131777977856,9," |  9  |   3635       5   3631       0 |   5    0      3501       130 |   1   1    0    0 1b0f |    1.312       0       5       0       5      1      1      0   3483     148       1   1    01b0f a70f      7.590 "
