test,1583575977279970048,10," | 10  |   3017       5   2989       0 |   5    0      2942        47 |   1   1    0    0 e90f |    1.373       0       5       0       5      1      1      0   2898      91       1   1    0e90f a70f      7.530 "
test,1583575977278692096,12," | 12  |   3017       5   3015       0 |   5    0      2988        27 |   1   1    0    0 e90f |    1.281       0       5       0       5      1      1      0   2938      77       1   1    0e90f a70f      7.530 "
test,1583575977286031872,13," | 13  |   3017       5   3013       0 |   5    0      2990        23 |   1   1    0    0 e90f |    1.342       0       5       0       5      1      1      0   2955      58       1   1    0e90f a70f      7.590 "
test,1583575977294531072,15," | 15  |   3017       5   3015       0 |   5    0      2898       117 |   2   1    0    0 e90f |    2.044       0       4       0       4      1      1      0   2775     240       2   1    0e90f a70f     30.390 "
test,1583575977281650176,16," | 16  |   3017       5   3013       0 |   5    0      2906       107 |   1  52    0    0 960f |    2.014       0       5       0       5     52     52      0   2833     180       1  52    0960f a70f      8.220 "
test,1583575977280677120,17," | 17  |   3017       5   3008       5 |   5    0      2981        32 |   1  52    0    0 960f |    3.479       0       5       0       5     52     52      0   2890     123       3  52    0960f a70f      9.540 "
test,1583575977295943936,18," | 18  |   3017       5   3012       0 |   2    4      2846       166 |   2  35   52    0 8a0f |    3.509       0       2       0       2     35     35      0   2720     292       3  35    08a0f a70f     30.300 "
test,1583575977278450944,19," | 19  |   3017       5   3004       9 |   5    0      2964        49 |   1  52    0    0 960f |    3.509       0       5       0       5     52     52      0   2873     140       3  52    0960f a70f      9.720 "
test,1583575977271866112,1," |  1  |   3017       4   3014       0 |   4    0      2946        68 |   4   1    0    1 e90f |    1.739       0       4       0       4      1      1      0   2924      90       2   1    1e90f a70f      6.510 "
test,1583575977297116160,22," | 22  |   3017       5   3011       0 |   2    4      2987        24 |   1  35   52    0 8a0f |    2.807       0       2       0       2     35     35      0   2848     163       2  35    08a0f a70f     30.300 "
test,1583575977279185920,23," | 23  |   3017       5   2955       0 |   5    0      2941        14 |   1  52    0    0 960f |    2.746       0       5       0       5     52     52      0   2882      73       2  52    0960f a70f      8.880 "
test,1583575977280141056,24," | 24  |   3017       5   3011       2 |   5    1      2986        27 |   1  52   35    0 960f |    3.479       0       5       0       5     52     52      0   2916      97       3  52    0960f a70f      9.510 "
test,1583575977276968960,26," | 26  |   3017       5   3011       2 |   5    0      3002        11 |   1  52    0    0 960f |    2.777       0       5       0       5     52     52      0   2947      66       2  52    0960f a70f      8.820 "
test,1583575977285337856,27," | 27  |   3017       5   3015       0 |   5    0      2928        87 |   2  52    0    0 960f |    3.509       0       5       0       5     52     52      0   2803     212       3  52    0960f a70f      9.600 "
test,1583575977297869824,28," | 28  |   3017       5   3010       3 |   4    0      2784       229 |   1  35    0    0 8a0f |    2.044       0       4       0       4     35     35      0   2674     339       1  35    08a0f a70f     30.210 "
test,1583575977298829056,29," | 29  |   3017       3   3010       5 |   5    0      2683       332 |   2  52    0    0 960f |    4.241       0       4       0       4     52     52      0   2542     473       4  52    0960f a70f     30.240 "
test,1583575977275465984,30," | 30  |   3017       5   3013       0 |   5    0      2972        41 |   1  35    0    0 8a0f |    2.075       0       5       0       5     35     35      0   2872     141       1  35    08a0f a70f      8.190 "
test,1583575977274894848,35," | 35  |   3017       5   3013       0 |   4    0      2876       137 |   2  35    0    1 8a0f |    1.739       0       4       0       4     35     35      0   2816     197       2  35    18a0f a70f      6.480 "
test,1583575977299625984,40," | 40  |   3017       5   2953      56 |   5    0      2812       197 |   2  52    0    0 960f |    4.211       0       1       0       1     52     52      0   2735     274       4  52    0960f a70f     30.360 "
test,1583575977296723968,41," | 41  |   3017       5   2948      55 |   4    0      2971        32 |   3  52    0    0 960f |    2.746       0       1       0       1     52     52      0   2890     113       2  52    0960f a70f     30.390 "
test,1583575977282177024,42," | 42  |   3017       5   2955      58 |   1    6      2937        76 |   3  35   52    0 8a0f |    4.943       0       5       0       5     35     35      0   2860     153       5  35    08a0f a70f     11.130 "
test,1583575977282740992,44," | 44  |   3017       5   2960      53 |   5    0      2938        75 |   2  52    0    0 960f |    4.211       0       5       0       5     52     52      0   2876     137       4  52    0960f a70f     10.410 "
test,1583575977278211072,45," | 45  |   3017       5   2973      40 |   5    0      2914        99 |   2  52    0    0 960f |    2.777       0       5       0       5     52     52      0   2856     157       2  52    0960f a70f      9.690 "
test,1583575977283533056,46," | 46  |   3017       5   2952      54 |   1    4      2868       138 |   3  35   52    0 8a0f |    5.676       0       5       0       5     35     35      0   2808     198       6  35    08a0f a70f     11.820 "
test,1583575977289469952,47," | 47  |   3017       5   2960      53 |   1    7      2905       108 |   3  35   52    0 8a0f |    4.272       0       5       0       5     35     35      0   2838     175       4  35    08a0f a70f     10.380 "
test,1583575977288704000,48," | 48  |   3017       5   2895      51 |   1    7      2871        75 |   2  35   52    0 8a0f |    5.676       0       5       0       5     35     35      0   2808     138       6  35    08a0f a70f     11.850 "
test,1583575977274374912,49," | 49  |   3017       5   3007       0 |   5    0      2955        52 |   2  49    0    1 b90f |    1.739       0       4       0       4     49     49      0   2926      81       2  49    1b90f a70f      6.480 "
test,1583575977273507072,51," | 51  |   3017       5   3008       0 |   5    0      2984        24 |   1   1    0    0 e90f |    1.373       0       5       0       5      1      1      0   2973      35       1   1    0e90f a70f      7.530 "
test,1583575977276304128,52," | 52  |   3017       5   2986      23 |   4    0      2864       145 |   2  52    0    1 960f |    1.770       0       4       0       4     52     52      0   2807     202       2  52    1960f a70f      6.510 "
test,1583575977277841152,53," | 53  |   3017       5   2991       0 |   5    0      2843       148 |   1  49    0    0 b90f |    2.014       0       5       0       5     49     49      0   2806     185       1  49    0b90f a70f      8.220 "
test,1583575977272953088,54," | 54  |   3017       5   3009       0 |   5    1      2958        51 |   1   1   49    0 e90f |    1.342       0       5       0       5      1      1      0   2910      99       1   1    0e90f a70f      7.590 "
test,1583575977294244096,55," | 55  |   3017       5   2996       0 |   0    8      2889       107 |   0  55   49    1 810f |    0           0       0       0       8      0      0      0   2862     134       0  55    1810f a70f     30.210 "
test,1583575977281327104,56," | 56  |   3017       5   2999       0 |   5    0      2950        49 |   2   1    0    0 e90f |    2.105       0       5       0       5      1      1      0   2920      79       2   1    0e90f a70f      8.160 "
test,1583575977296376832,57," | 57  |   3017       5   2954       0 |   1    1      2882        72 |   2  52   49    0 960f |    3.509       0       4       0       4     52     52      0   2708     246       3  52    0960f a70f     30.360 "
test,1583575977297373184,58," | 58  |   3017       5   3008       0 |   4    4      2970        38 |   1  49   55    0 b90f |    3.479       0       3       0       3     49     49      0   2844     164       3  49    0b90f a70f     30.330 "
test,1583575977302392064,5," |  5  |   3017       5   3015       0 |   5    0      2763       252 |   2   1    0    0 e90f |    3.540       0       4       0       4      1      1      0   2707     308       4   1    0e90f a70f     30.360 "
test,1583575977276769024,60," | 60  |   3017       5   3008       0 |   5    0      2812       196 |   2   1    0    0 e90f |    2.105       0       5       0       5      1      1      0   2762     246       2   1    0e90f a70f      8.250 "
test,1583575977298404096,61," | 61  |   3017       5   3007       0 |   4    2      2877       130 |   2  49    1    0 b90f |    4.180       0       3       0       3     49     49      0   2787     220       4  49    0b90f a70f     30.390 "
test,1583575977272419072,7," |  7  |   3017       5   3014       0 |   5    0      2964        50 |   1   1    0    0 e90f |    1.373       0       5       0       5      1      1      0   2947      67       1   1    0e90f a70f      7.530 "
test,1583575977274068992,9," |  9  |   3017       5   3013       0 |   5    0      2900       113 |   1   1    0    0 e90f |    1.312       0       5       0       5      1      1      0   2886     127       1   1    0e90f a70f      7.560 "
