test,1583576186797827072,10," | 10  |   3855       5   3827       0 |   2   15      3762        65 |   1   7    1    0 d60f |    2.044       0       1       0       1      7      7      0   3713     114       1   7    0d60f a70f     30.360 "
test,1583576186805167872,12," | 12  |   3855       5   3853       0 |   4    0      3822        31 |   8  12    0    1 3a0f |    3.814       0       3       0       3     12     12      0   3759      94       5  12    13a0f a70f     30.300 "
test,1583576186795911168,13," | 13  |   3855       5   3851       0 |   2    7      3825        26 |   1   7    1    0 d60f |    2.014       0       1       0       1      7      7      0   3777      74       1   7    0d60f a70f     30.390 "
test,1583576186800038144,15," | 15  |   3855       5   3853       0 |   5    0      3710       143 |   1  12    0    0 3a0f |    2.044       0       4       0       4     12     12      0   3540     313       1  12    03a0f a70f     30.360 "
test,1583576186783052032,16," | 16  |   3855       5   3851       0 |   5    0      3713       138 |   2  46    0    0 860f |    4.180       0       5       0       5     46     46      0   3608     243       4  46    0860f a70f     11.070 "
test,1583576186801999104,17," | 17  |   3855       5   3846       5 |   5    0      3805        46 |   2  46    0    0 860f |    4.180       0       4       0       4     46     46      0   3686     165       4  46    0860f a70f     30.360 "
test,1583576186781698816,18," | 18  |   3855       5   3850       0 |   5    0      3638       212 |   2  46    0    0 860f |    2.777       0       5       0       5     46     46      0   3479     371       2  46    0860f a70f      8.970 "
test,1583576186800611072,19," | 19  |   3855       4   3842       9 |   2    7      3792        59 |   1  29   46    0 350f |    2.044       0       2       0       2     29     29      0   3674     177       1  29    0350f a70f     30.330 "
test,1583576186794881024,1," |  1  |   3855       4   3852       0 |   0    9      3763        89 |   0   1   12    1 590f |    0           0       0       0       8      0      0      0   3734     118       0   1    1590f a70f     30.150 "
test,1583576186780852992,22," | 22  |   3855       5   3849       0 |   5    0      3820        29 |   2  46    0    0 860f |    3.479       0       5       0       5     46     46      0   3638     211       3  46    0860f a70f      9.510 "
test,1583576186780347136,23," | 23  |   3855       5   3793       0 |   5    0      3774        19 |   3  46    0    0 860f |    4.241       0       5       0       5     46     46      0   3690     103       4  46    0860f a70f     10.320 "
test,1583576186781853952,24," | 24  |   3855       5   3849       2 |   5    0      3816        35 |   2  46    0    0 860f |    3.479       0       5       0       5     46     46      0   3718     133       3  46    0860f a70f     10.290 "
test,1583576186783817984,26," | 26  |   3855       5   3849       2 |   5    0      3836        15 |   2  46    0    0 860f |    3.509       0       5       0       5     46     46      0   3763      88       3  46    0860f a70f     10.440 "
test,1583576186803123968,27," | 27  |   3855       5   3853       0 |   4    5      3744       109 |   4  46   29    0 860f |    4.943       0       4       0       4     46     46      0   3585     268       5  46    0860f a70f     30.360 "
test,1583576186800838912,28," | 28  |   3855       3   3847       4 |   5    0      3553       298 |   4  46    0    0 860f |    5.676       0       4       0       4     46     46      0   3406     445       6  46    0860f a70f     30.360 "
test,1583576186802675968,29," | 29  |   3855       5   3848       5 |   1    2      3427       426 |  23  29   46    1 350f |    1.739       0       1       0       1     29     29      0   3249     604       2  29    1350f a70f     30.300 "
test,1583576186783422976,30," | 30  |   3855       5   3850       1 |   5    0      3798        53 |   3  46    0    0 860f |    4.974       0       5       0       5     46     46      0   3658     193       5  46    0860f a70f     11.040 "
test,1583576186781476864,35," | 35  |   3855       5   3850       1 |   5    0      3662       189 |   3  46    0    0 860f |    4.211       0       5       0       5     46     46      0   3581     270       4  46    0860f a70f     10.380 "
test,1583576186779813120,40," | 40  |   3855       5   3787      60 |   4    0      3608       239 |   1  46    0    0 860f |    2.014       0       5       0       5     46     46      0   3510     337       1  46    0860f a70f      8.850 "
test,1583576186779630848,41," | 41  |   3855       5   3782      59 |   5    0      3805        36 |   1  46    0    0 860f |    2.044       0       5       0       5     46     46      0   3706     135       1  46    0860f a70f      8.250 "
test,1583576186778163968,42," | 42  |   3855       5   3790      61 |   5    0      3764        87 |   1  46    0    0 860f |    2.014       0       5       0       5     46     46      0   3667     184       1  46    0860f a70f      8.130 "
test,1583576186782417152,44," | 44  |   3855       5   3794      57 |   5    0      3762        89 |   1  46    0    0 860f |    1.983       0       5       0       5     46     46      0   3682     169       1  46    0860f a70f      8.220 "
test,1583576186782185984,45," | 45  |   3855       5   3808      43 |   5    0      3728       123 |   1  46    0    0 860f |    1.983       0       5       0       5     46     46      0   3658     193       1  46    0860f a70f      8.910 "
test,1583576186783247104,46," | 46  |   3855       5   3787      57 |   4    0      3668       176 |   2  46    0    1 860f |    1.739       0       4       0       4     46     46      0   3593     251       2  46    1860f a70f      6.480 "
test,1583576186780507136,47," | 47  |   3855       5   3794      57 |   5    0      3717       134 |   1  46    0    0 860f |    1.983       0       5       0       5     46     46      0   3640     211       1  46    0860f a70f      8.220 "
test,1583576186780664064,48," | 48  |   3855       5   3729      55 |   5    0      3692        92 |   1  46    0    0 860f |    2.044       0       5       0       5     46     46      0   3615     169       1  46    0860f a70f      8.880 "
test,1583576186778532096,49," | 49  |   3855       5   3845       0 |   5    0      3774        71 |   2  12    0    0 3a0f |    2.746       0       5       0       5     12     12      0   3741     104       2  12    03a0f a70f      8.940 "
test,1583576186791521024,51," | 51  |   3855       5   3846       0 |   5    0      3808        38 |   4  12    0    0 3a0f |    4.180       0       5       0       5     12     12      0   3792      54       4  12    03a0f a70f     10.350 "
test,1583576186801295872,52," | 52  |   3855       5   3824      23 |   5    0      3666       181 |   3  46    0    0 860f |    4.211       0       4       0       4     46     46      0   3589     258       4  46    0860f a70f     30.300 "
test,1583576186781275904,53," | 53  |   3855       5   3829       0 |   5    0      3631       198 |   3  12    0    0 3a0f |    3.448       0       5       0       5     12     12      0   3587     242       3  12    03a0f a70f      9.660 "
test,1583576186797569024,54," | 54  |   3855       5   3847       0 |   2   13      3780        67 |   1   7    1    0 d60f |    1.983       0       1       0       1      7      7      0   3718     129       1   7    0d60f a70f     30.360 "
test,1583576186780035072,55," | 55  |   3855       5   3834       0 |   5    0      3693       141 |   2  12    0    0 3a0f |    2.746       0       5       0       5     12     12      0   3660     174       2  12    03a0f a70f      8.820 "
test,1583576186779058944,56," | 56  |   3855       5   3837       0 |   5    0      3778        59 |   3  12    0    0 3a0f |    3.509       0       5       0       5     12     12      0   3738      99       3  12    03a0f a70f      9.690 "
test,1583576186785264896,57," | 57  |   3855       5   3792       0 |   5    0      3696        96 |   3  46    0    0 860f |    4.974       0       5       0       5     46     46      0   3471     321       5  46    0860f a70f     11.040 "
test,1583576186785716992,58," | 58  |   3855       5   3846       0 |   5    0      3794        52 |   1  12    0    0 3a0f |    2.014       0       5       0       5     12     12      0   3626     220       1  12    03a0f a70f      8.220 "
test,1583576186779357952,5," |  5  |   3855       5   3853       0 |   5    0      3515       338 |   1  12    0    0 3a0f |    2.014       0       5       0       5     12     12      0   3448     405       1  12    03a0f a70f      9.540 "
test,1583576186799046912,60," | 60  |   3855       5   3846       0 |   0    3      3602       244 |   0  60   12    1 260f |    0           0       0       0       8      0      0      0   3535     311       0  60    1260f a70f     30.210 "
test,1583576186782624000,61," | 61  |   3855       5   3845       0 |   5    0      3670       175 |   2  12    0    0 3a0f |    2.777       0       5       0       5     12     12      0   3546     299       2  12    03a0f a70f      8.940 "
test,1583576186805337856,7," |  7  |   3855       5   3852       0 |   1   11      3792        60 |   2   7    1    1 d60f |    1.739       0       1       0       1      7      7      0   3768      84       2   7    1d60f a70f     30.300 "
test,1583576186799261952,9," |  9  |   3855       5   3851       0 |   2   10      3711       140 |   1   7    1    0 d60f |    1.983       0       1       0       1      7      7      0   3692     159       1   7    0d60f a70f     30.390 "
