test,1583576143531793152,10," | 10  |   3682       5   3654       0 |   5    0      3592        62 |   4  49    0    0 3c0f |    4.211       0       5       0       5     49     49      0   3545     109       4  49    03c0f a70f     10.410 "
test,1583576143530620160,12," | 12  |   3682       5   3680       0 |   5    0      3651        29 |   2  49    0    0 3c0f |    3.509       0       5       0       5     49     49      0   3592      88       3  49    03c0f a70f      9.600 "
test,1583576143531438080,13," | 13  |   3682       5   3678       0 |   5    0      3652        26 |   5  49    0    0 3c0f |    4.241       0       5       0       5     49     49      0   3606      72       4  49    03c0f a70f     10.410 "
test,1583576143531208960,15," | 15  |   3682       4   3680       0 |   5    0      3538       142 |   3  49    0    0 3c0f |    4.272       0       5       0       5     49     49      0   3383     297       4  49    03c0f a70f     10.320 "
test,1583576143549628928,16," | 16  |   3682       5   3678       0 |   5    0      3544       134 |   1  23    0    0 410f |    1.983       0       3       0       3     23     23      0   3443     235       1  23    0410f a70f     30.330 "
test,1583576143548183808,17," | 17  |   3682       5   3673       5 |   2    0      3632        46 |   1  23    0    0 410f |    1.983       0       3       0       3     23     23      0   3518     160       1  23    0410f a70f     30.360 "
test,1583576143529778944,18," | 18  |   3682       5   3677       0 |   5    0      3475       202 |   1  24    0    0 c90f |    2.014       0       5       0       5     24     24      0   3319     358       1  24    0c90f a70f      8.940 "
test,1583576143548541952,19," | 19  |   3682       5   3669       9 |   2    0      3622        56 |   1  23    0    0 410f |    1.983       0       3       0       3     23     23      0   3510     168       1  23    0410f a70f     30.360 "
test,1583576143533090048,1," |  1  |   3682       4   3679       0 |   5    0      3595        84 |   4  49    0    0 3c0f |    4.913       0       5       0       5     49     49      0   3567     112       4  49    03c0f a70f     11.100 "
test,1583576143530195968,22," | 22  |   3682       5   3676       0 |   5    0      3648        28 |   1  24    0    0 c90f |    1.983       0       5       0       5     24     24      0   3475     201       1  24    0c90f a70f      8.190 "
test,1583576143545815040,23," | 23  |   3682       5   3620       0 |   5    0      3601        19 |   5  23    0    1 410f |    1.739       0       2       0       2     23     23      0   3523      97       2  23    1410f a70f     30.300 "
test,1583576143528484096,24," | 24  |   3682       5   3676       2 |   4    0      3644        34 |   2  24    0    1 c90f |    1.739       0       4       0       4     24     24      0   3552     126       2  24    1c90f a70f      6.480 "
test,1583576143526854912,26," | 26  |   3682       5   3676       2 |   5    0      3664        14 |   1  24    0    0 c90f |    2.014       0       5       0       5     24     24      0   3594      84       1  24    0c90f a70f      8.280 "
test,1583576143549141760,27," | 27  |   3682       4   3680       0 |   5    0      3580       100 |   1  23    0    0 410f |    2.014       0       4       0       4     23     23      0   3423     257       1  23    0410f a70f     30.360 "
test,1583576143545569792,28," | 28  |   3682       5   3674       4 |   2    7      3394       284 |   5  24   30    0 c90f |    0           0       0       0       8      0      0      0   3255     423       0  24    0c90f a70f     30.360 "
test,1583576143550828032,29," | 29  |   3682       4   3675       5 |   4    0      3272       408 |   2  23    0    0 410f |    5.676       0       2       0       2     23     23      0   3099     581       6  23    0410f a70f     30.360 "
test,1583576143526457088,30," | 30  |   3682       5   3677       1 |   4    5      3625        53 |   5  30   24    1 410f |    1.739       0       4       0       4     30     30      0   3491     187       2  30    1410f a70f      6.480 "
test,1583576143527333120,35," | 35  |   3682       5   3677       1 |   5    2      3503       175 |   1  30   24    0 410f |    1.983       0       5       0       5     30     30      0   3424     254       1  30    0410f a70f      8.220 "
test,1583576143551012096,40," | 40  |   3682       5   3614      60 |   5    0      3443       231 |   2  46    0    0 570f |    2.777       0       4       0       4     46     46      0   3351     323       2  46    0570f a70f     30.390 "
test,1583576143551906048,41," | 41  |   3682       5   3609      59 |   5    0      3632        36 |   1  46    0    0 570f |    2.014       0       4       0       4     46     46      0   3539     129       1  46    0570f a70f     30.390 "
test,1583576143554331136,42," | 42  |   3682       5   3617      61 |   5    0      3595        83 |   2  46    0    0 570f |    2.014       0       4       0       4     46     46      0   3503     175       1  46    0570f a70f     30.360 "
test,1583576143549444864,44," | 44  |   3682       5   3621      57 |   5    0      3593        85 |   4  45    0    0 500f |    2.014       0       2       0       2     45     45      0   3518     160       1  45    0500f a70f     30.360 "
test,1583576143553755136,45," | 45  |   3682       5   3635      43 |   4    0      3561       117 |   5  45    0    1 500f |    1.739       0       1       0       1     45     45      0   3495     183       2  45    1500f a70f     30.300 "
test,1583576143535468032,46," | 46  |   3682       5   3614      57 |   4    0      3507       164 |   3  46    0    1 570f |    1.770       0       4       0       4     46     46      0   3435     236       2  46    1570f a70f      6.510 "
test,1583576143550012160,47," | 47  |   3682       5   3621      57 |   5    0      3549       129 |   1  46    0    0 570f |    2.075       0       3       0       3     46     46      0   3477     201       1  46    0570f a70f     30.270 "
test,1583576143550573056,48," | 48  |   3682       5   3556      55 |   5    0      3522        89 |   1  46    0    0 570f |    2.044       0       4       0       4     46     46      0   3451     160       1  46    0570f a70f     30.240 "
test,1583576143526246912,49," | 49  |   3682       5   3672       0 |   4    0      3606        66 |   4  49    0    1 3c0f |    1.739       0       4       0       4     49     49      0   3573      99       2  49    13c0f a70f      6.480 "
test,1583576143533780224,51," | 51  |   3682       5   3673       0 |   5    2      3636        37 |   2  23   49    0 410f |    2.777       0       5       0       5     23     23      0   3621      52       2  23    0410f a70f      8.820 "
test,1583576143551502080,52," | 52  |   3682       4   3651      23 |   3    1      3501       173 |   1  23   24    0 410f |    3.479       0       2       0       2     23     23      0   3428     246       3  23    0410f a70f     30.360 "
test,1583576143528264960,53," | 53  |   3682       5   3656       0 |   5    0      3469       187 |   1  49    0    0 3c0f |    2.014       0       5       0       5     49     49      0   3425     231       1  49    03c0f a70f      8.190 "
test,1583576143533561856,54," | 54  |   3682       5   3674       0 |   5    0      3611        63 |   2  49    0    0 3c0f |    3.540       0       5       0       5     49     49      0   3551     123       3  49    03c0f a70f      9.720 "
test,1583576143528100864,55," | 55  |   3682       5   3661       0 |   5    0      3525       136 |   1  49    0    0 3c0f |    2.075       0       5       0       5     49     49      0   3492     169       1  49    03c0f a70f      8.280 "
test,1583576143528925952,56," | 56  |   3682       5   3664       0 |   5    2      3607        57 |   2  23   49    0 410f |    2.685       0       5       0       5     23     23      0   3570      94       2  23    0410f a70f      8.910 "
test,1583576143529582080,57," | 57  |   3682       5   3619       0 |   5    0      3527        92 |   1  23    0    0 410f |    1.983       0       5       0       5     23     23      0   3312     307       1  23    0410f a70f      8.190 "
test,1583576143550213120,58," | 58  |   3682       3   3673       0 |   3    6      3625        48 |   1  49   61    0 3c0f |    2.807       0       3       0       3     49     49      0   3464     209       2  49    03c0f a70f     30.360 "
test,1583576143536318976,5," |  5  |   3682       5   3680       0 |   5    0      3358       322 |   3  49    0    0 3c0f |    4.211       0       5       0       5     49     49      0   3293     387       4  49    03c0f a70f     10.260 "
test,1583576143522990848,60," | 60  |   3682       5   3673       0 |   5    0      3441       232 |   2  23    0    0 410f |    2.716       0       5       0       5     23     23      0   3378     295       2  23    0410f a70f      8.940 "
test,1583576143548760832,61," | 61  |   3682       5   3672       0 |   0    8      3506       166 |   0  61   23    1 640f |    0           0       0       0       8      0      0      0   3387     285       0  61    1640f a70f     30.210 "
test,1583576143532228864,7," |  7  |   3682       5   3679       0 |   5    0      3619        60 |   4  49    0    0 3c0f |    4.272       0       5       0       5     49     49      0   3596      83       4  49    03c0f a70f     10.470 "
test,1583576143531034880,9," |  9  |   3682       5   3678       0 |   5    0      3545       133 |   3  49    0    0 3c0f |    4.241       0       5       0       5     49     49      0   3527     151       4  49    03c0f a70f     10.470 "
