test,1583576001773868032,10," | 10  |   3115       5   3087       0 |   5    0      3036        51 |   1   9    0    0 8b0f |    2.014       0       5       0       5      9      9      0   2992      95       1   9    08b0f a70f      8.250 "
test,1583576001777616128,12," | 12  |   3115       5   3113       0 |   5    6      3086        27 |   1  54    9    0  30f |    2.014       0       5       0       5     54     54      0   3035      78       1  54    0 30f a70f     12.150 "
test,1583576001783278080,13," | 13  |   3115       5   3111       0 |   5    0      3087        24 |   1   9    0    0 8b0f |    2.075       0       5       0       5      9      9      0   3048      63       1   9    08b0f a70f     10.470 "
test,1583576001780525824,15," | 15  |   3115       5   3113       0 |   4    2      2996       117 |   2  54   48    0  30f |    2.746       0       5       0       5     54     54      0   2866     247       2  54    0 30f a70f     12.900 "
test,1583576001783459072,16," | 16  |   3115       5   3111       0 |   5    2      2999       112 |   2  48   54    0 820f |    2.807       0       5       0       5     48     48      0   2921     190       2  48    0820f a70f     11.040 "
test,1583576001778124032,17," | 17  |   3115       5   3106       5 |   5    0      3077        34 |   2  48    0    0 820f |    4.241       0       5       0       5     48     48      0   2981     130       4  48    0820f a70f     10.410 "
test,1583576001775248128,18," | 18  |   3115       5   3110       0 |   5    0      2937       173 |   2  48    0    0 820f |    2.807       0       5       0       5     48     48      0   2805     305       2  48    0820f a70f      8.970 "
test,1583576001783076096,19," | 19  |   3115       5   3102       9 |   5    0      3061        50 |   3  48    0    0 820f |    4.974       0       5       0       5     48     48      0   2966     145       5  48    0820f a70f     11.160 "
test,1583576001773474816,1," |  1  |   3115       4   3112       0 |   5    0      3042        70 |   1   9    0    0 8b0f |    2.746       0       5       0       5      9      9      0   3019      93       1   9    08b0f a70f      8.940 "
test,1583576001774827008,22," | 22  |   3115       5   3109       0 |   5    0      3084        25 |   1  48    0    0 820f |    2.044       0       5       0       5     48     48      0   2937     172       1  48    0820f a70f      8.280 "
test,1583576001789295872,23," | 23  |   3115       5   3053       0 |   5    8      3039        14 |   3  54   48    0  30f |   13.427       0       5       0       5     54     54      0   2976      77      17  54    0 30f a70f     19.440 "
test,1583576001776237056,24," | 24  |   3115       5   3109       2 |   5    0      3084        27 |   2  48    0    0 820f |    3.509       0       5       0       5     48     48      0   3009     102       3  48    0820f a70f      9.750 "
test,1583576001782640896,26," | 26  |   3115       5   3109       2 |   4    3      3100        11 |  11  48   54    0 820f |    4.272       0       5       0       5     48     48      0   3042      69       4  48    0820f a70f     10.500 "
test,1583576001790322944,27," | 27  |   3115       5   3113       0 |   5    2      3024        89 |   4  54   29    0  30f |   13.458       0       5       0       5     54     54      0   2891     222      17  54    0 30f a70f     20.220 "
test,1583576001782216192,28," | 28  |   3115       5   3108       3 |   4    0      2876       235 |   2  48    0    0 820f |    3.509       0       5       0       5     48     48      0   2762     349       3  48    0820f a70f     10.410 "
test,1583576001796531968,29," | 29  |   3115       5   3108       5 |   0    1      2771       342 |   0  29   48    1 d50f |    0           0       0       0       8      0      0      0   2622     491       0  29    1d50f a70f     30.180 "
test,1583576001779171840,30," | 30  |   3115       5   3111       0 |   5    0      3068        43 |   2  48    0    0 820f |    2.746       0       5       0       5     48     48      0   2961     150       2  48    0820f a70f      9.690 "
test,1583576001778822912,35," | 35  |   3115       5   3111       0 |   5    0      2967       144 |   2  48    0    0 820f |    2.777       0       5       0       5     48     48      0   2904     207       2  48    0820f a70f      8.850 "
test,1583576001779319040,40," | 40  |   3115       5   3049      58 |   5    0      2902       205 |   1  48    0    0 820f |    2.075       0       5       0       5     48     48      0   2822     285       1  48    0820f a70f      9.030 "
test,1583576001776987136,41," | 41  |   3115       5   3045      56 |   5    0      3068        33 |   1  48    0    0 820f |    2.044       0       5       0       5     48     48      0   2987     114       1  48    0820f a70f      8.160 "
test,1583576001776748032,42," | 42  |   3115       5   3052      59 |   5    0      3033        78 |   1  48    0    0 820f |    2.044       0       5       0       5     48     48      0   2953     158       1  48    0820f a70f      9.000 "
test,1583576001774586880,44," | 44  |   3115       5   3056      55 |   5    0      3035        76 |   1  48    0    0 820f |    2.075       0       5       0       5     48     48      0   2970     141       1  48    0820f a70f      8.160 "
test,1583576001779973888,45," | 45  |   3115       5   3070      41 |   5    0      3010       101 |   1  48    0    0 820f |    2.105       0       5       0       5     48     48      0   2951     160       1  48    0820f a70f      8.880 "
test,1583576001775495168,46," | 46  |   3115       5   3049      55 |   5    0      2959       145 |   1  48    0    0 820f |    2.075       0       5       0       5     48     48      0   2898     206       1  48    0820f a70f      8.880 "
test,1583576001784574976,47," | 47  |   3115       5   3056      55 |   5    0      3001       110 |   1  48    0    0 820f |    2.044       0       5       0       5     48     48      0   2933     178       1  48    0820f a70f      8.280 "
test,1583576001781799936,48," | 48  |   3115       5   2991      53 |   4    0      2965        79 |   2  48    0    1 820f |    1.770       0       4       0       4     48     48      0   2901     143       2  48    1820f a70f      7.950 "
test,1583576001776530944,49," | 49  |   3115       5   3105       0 |   5    0      3049        56 |   2  54    0    0  30f |    2.746       0       5       0       5     54     54      0   3020      85       2  54    0 30f a70f      8.850 "
test,1583576001775058944,51," | 51  |   3115       5   3106       0 |   5    0      3081        25 |   2   9    0    0 8b0f |    2.807       0       5       0       5      9      9      0   3068      38       2   9    08b0f a70f      9.000 "
test,1583576001793414144,52," | 52  |   3115       5   3084      23 |   4    8      2958       149 |   4  54   48    0  30f |   14.190       0       5       0       5     54     54      0   2900     207      18  54    0 30f a70f     20.190 "
test,1583576001777918976,53," | 53  |   3115       5   3089       0 |   5    0      2934       155 |   3  54    0    0  30f |    3.479       0       5       0       5     54     54      0   2895     194       3  54    0 30f a70f      9.660 "
test,1583576001796097024,54," | 54  |   3115       5   3107       0 |   2    8      3054        53 |   8  54    9    1  30f |   10.253       0       3       0       3     54     54      0   3002     105      14  54    1 30f a70f     30.270 "
test,1583576001777214976,55," | 55  |   3115       5   3094       0 |   5    0      2983       111 |   2  54    0    0  30f |    2.746       0       5       0       5     54     54      0   2954     140       2  54    0 30f a70f      8.970 "
test,1583576001777405952,56," | 56  |   3115       5   3097       0 |   5    0      3046        51 |   3   9    0    0 8b0f |    3.540       0       5       0       5      9      9      0   3015      82       3   9    08b0f a70f      9.600 "
test,1583576001791800064,57," | 57  |   3115       5   3052       0 |   5    4      2978        74 |   2  54   48    0  30f |    2.716       0       5       0       5     54     54      0   2797     255       2  54    0 30f a70f     17.280 "
test,1583576001779588096,58," | 58  |   3115       5   3106       0 |   5    2      3066        40 |   1  54    9    0  30f |    2.014       0       5       0       5     54     54      0   2932     174       1  54    0 30f a70f     10.830 "
test,1583576001797074176,5," |  5  |   3115       5   3113       0 |   5    0      2852       261 |   2   9    0    0 8b0f |    2.777       0       4       0       4      9      9      0   2794     319       2   9    08b0f a70f     30.360 "
test,1583576001787508992,60," | 60  |   3115       5   3106       0 |   5    0      2904       202 |   3   9    0    0 8b0f |    3.479       0       5       0       5      9      9      0   2851     255       3   9    08b0f a70f      9.660 "
test,1583576001784363008,61," | 61  |   3115       5   3105       0 |   5    1      2971       134 |   1  54    9    0  30f |    2.014       0       5       0       5     54     54      0   2875     230       1  54    0 30f a70f     12.270 "
test,1583576001773678080,7," |  7  |   3115       5   3112       0 |   5    0      3061        51 |   1   9    0    0 8b0f |    2.044       0       5       0       5      9      9      0   3042      70       1   9    08b0f a70f      8.100 "
test,1583576001774331136,9," |  9  |   3115       5   3111       0 |   5    0      2997       114 |   2   9    0    1 8b0f |    1.739       0       4       0       4      9      9      0   2981     130       2   9    18b0f a70f      6.480 "
