test,1583576206522862080,10," | 10  |   3934       5   3906       0 |   5    0      3841        65 |   1   1    0    0 820f |    1.373       0       5       0       5      1      1      0   3792     114       1   1    0820f a70f      7.500 "
test,1583576206527842048,12," | 12  |   3934       5   3932       0 |   5    0      3901        31 |   1   1    0    0 820f |    1.342       0       5       0       5      1      1      0   3837      95       1   1    0820f a70f      8.310 "
test,1583576206526920960,13," | 13  |   3934       5   3930       0 |   5    0      3904        26 |   1   1    0    0 820f |    1.373       0       5       0       5      1      1      0   3856      74       1   1    0820f a70f      7.590 "
test,1583576206549707008,15," | 15  |   3934       5   3932       0 |   5    0      3781       151 |   2   1    0    0 820f |    2.105       0       4       0       4      1      1      0   3609     323       2   1    0820f a70f     30.390 "
test,1583576206532577024,16," | 16  |   3934       5   3930       0 |   5    0      3788       142 |   2  22    0    0 470f |    2.746       0       5       0       5     22     22      0   3683     247       2  22    0470f a70f      8.940 "
test,1583576206533382912,17," | 17  |   3934       5   3925       5 |   5    1      3882        48 |   1  22   29    0 470f |    2.014       0       5       0       5     22     22      0   3762     168       1  22    0470f a70f     10.380 "
test,1583576206531099136,18," | 18  |   3934       5   3929       0 |   5    0      3714       215 |   1  22    0    0 470f |    2.044       0       5       0       5     22     22      0   3554     375       1  22    0470f a70f      8.250 "
test,1583576206550946048,19," | 19  |   3934       5   3921       9 |   1    5      3870        60 |   1  29   22    0 dd0f |    2.044       0       1       0       1     29     29      0   3751     179       1  29    0dd0f a70f     30.360 "
test,1583576206526309120,1," |  1  |   3934       4   3931       0 |   4    0      3837        94 |   4   1    0    1 820f |    1.739       0       4       0       4      1      1      0   3808     123       2   1    1820f a70f      6.480 "
test,1583576206530020096,22," | 22  |   3934       5   3928       0 |   4    0      3897        31 |   8  22    0    1 470f |    1.739       0       4       0       4     22     22      0   3713     215       2  22    1470f a70f      6.480 "
test,1583576206531425024,23," | 23  |   3934       5   3872       0 |   5    0      3853        19 |   1  22    0    0 470f |    2.014       0       5       0       5     22     22      0   3769     103       1  22    0470f a70f      8.280 "
test,1583576206529218048,24," | 24  |   3934       5   3928       2 |   5    0      3891        39 |   1  22    0    0 470f |    2.044       0       5       0       5     22     22      0   3792     138       1  22    0470f a70f      9.750 "
test,1583576206540580096,26," | 26  |   3934       5   3928       2 |   5    0      3915        15 |   1  22    0    0 470f |    2.044       0       5       0       5     22     22      0   3841      89       1  22    0470f a70f      9.000 "
test,1583576206530461952,27," | 27  |   3934       5   3932       0 |   5    0      3820       112 |   4  22    0    0 470f |    2.777       0       5       0       5     22     22      0   3659     273       2  22    0470f a70f      8.970 "
test,1583576206549382912,28," | 28  |   3934       5   3925       5 |   4    4      3622       308 |   1  30   22    0 7d0f |    2.014       0       3       0       3     30     30      0   3474     456       1  30    07d0f a70f     30.360 "
test,1583576206552582912,29," | 29  |   3934       4   3927       5 |   1    4      3496       436 |   2  29   22    1 dd0f |    1.770       0       1       0       1     29     29      0   3313     619       2  29    1dd0f a70f     30.300 "
test,1583576206551126016,30," | 30  |   3934       5   3928       2 |   2    4      3877        53 |  11  30   20    1 7d0f |    5.950       0       1       0       1     30     30      0   3734     196       8  30    17d0f a70f     30.300 "
test,1583576206547889920,35," | 35  |   3934       5   3928       2 |   0    4      3737       193 |   0  35   30    1 1d0f |    0           0       0       0       8      0      0      0   3655     275       0  35    11d0f a70f     30.180 "
test,1583576206535102976,40," | 40  |   3934       5   3866      60 |   5    0      3684       242 |   3  22    0    0 470f |    3.479       0       5       0       5     22     22      0   3586     340       3  22    0470f a70f      9.690 "
test,1583576206533641984,41," | 41  |   3934       5   3861      59 |   5    0      3884        36 |   2  22    0    0 470f |    2.746       0       5       0       5     22     22      0   3783     137       2  22    0470f a70f      8.970 "
test,1583576206537237760,42," | 42  |   3934       5   3869      61 |   5    0      3841        89 |   4  22    0    0 470f |    4.211       0       5       0       5     22     22      0   3743     187       4  22    0470f a70f     10.410 "
test,1583576206551721216,44," | 44  |   3934       5   3873      57 |   5    0      3840        90 |   2  22    0    0 470f |    5.706       0       2       0       2     22     22      0   3760     170       6  22    0470f a70f     30.390 "
test,1583576206550033152,45," | 45  |   3934       5   3887      43 |   0    8      3802       128 |   0  45   22    1 d40f |    0           0       0       0       8      0      0      0   3731     199       0  45    1d40f a70f     30.180 "
test,1583576206539854080,46," | 46  |   3934       5   3866      57 |   5    0      3744       179 |   3  22    0    0 470f |    3.509       0       5       0       5     22     22      0   3669     254       3  22    0470f a70f      9.720 "
test,1583576206532228864,47," | 47  |   3934       5   3873      57 |   5    0      3793       137 |   2  22    0    0 470f |    2.777       0       5       0       5     22     22      0   3716     214       2  22    0470f a70f      9.000 "
test,1583576206533842176,48," | 48  |   3934       5   3808      55 |   5    0      3769        94 |   4  22    0    0 470f |    3.479       0       5       0       5     22     22      0   3692     171       3  22    0470f a70f      9.660 "
test,1583576206528840192,49," | 49  |   3934       5   3924       0 |   5    0      3853        71 |   1  53    0    0 ea0f |    2.014       0       5       0       5     53     53      0   3820     104       1  53    0ea0f a70f      8.250 "
test,1583576206529779968,51," | 51  |   3934       5   3925       0 |   5    0      3887        38 |   2   1    0    0 820f |    1.342       0       5       0       5      1      1      0   3870      55       1   1    0820f a70f      7.590 "
test,1583576206531596032,52," | 52  |   3934       5   3902      24 |   5    0      3744       182 |   3  22    0    0 470f |    2.777       0       5       0       5     22     22      0   3667     259       2  22    0470f a70f      9.600 "
test,1583576206528158976,53," | 53  |   3934       5   3908       0 |   5    0      3705       203 |   2  53    0    1 ea0f |    1.708       0       4       0       4     53     53      0   3661     247       2  53    1ea0f a70f      6.480 "
test,1583576206527313920,54," | 54  |   3934       5   3926       0 |   5    0      3855        71 |   1   1    0    0 820f |    1.373       0       5       0       5      1      1      0   3793     133       1   1    0820f a70f      7.440 "
test,1583576206529630976,55," | 55  |   3934       5   3913       0 |   5    0      3771       142 |   1  53    0    0 ea0f |    2.014       0       5       0       5     53     53      0   3738     175       1  53    0ea0f a70f      8.220 "
test,1583576206529416960,56," | 56  |   3934       5   3916       0 |   5    0      3856        60 |   3   1    0    0 820f |    2.075       0       5       0       5      1      1      0   3814     102       2   1    0820f a70f      8.190 "
test,1583576206546861056,57," | 57  |   3934       5   3871       0 |   5    0      3771       100 |   4   1    0    0 820f |    0           0       0       0       8      0      0      0   3541     330       0   1    0820f a70f     30.360 "
test,1583576206533030144,58," | 58  |   3934       4   3925       0 |   5    0      3872        53 |   5   1    0    0 820f |    3.570       0       5       0       5      1      1      0   3703     222       4   1    0820f a70f      9.780 "
test,1583576206531981056,5," |  5  |   3934       5   3932       0 |   5    0      3586       346 |   2   1    0    0 820f |    2.075       0       5       0       5      1      1      0   3519     413       2   1    0820f a70f      8.280 "
test,1583576206548237056,60," | 60  |   3934       5   3925       0 |   0    2      3675       250 |   0  60    1    1 c80f |    0           0       0       0       8      0      0      0   3606     319       0  60    1c80f a70f     30.180 "
test,1583576206536712960,61," | 61  |   3934       3   3924       0 |   5    0      3747       177 |   4   1    0    0 820f |    2.807       0       5       0       5      1      1      0   3621     303       3   1    0820f a70f      9.030 "
test,1583576206527484928,7," |  7  |   3934       5   3931       0 |   5    0      3871        60 |   1   1    0    0 820f |    1.342       0       5       0       5      1      1      0   3847      84       1   1    0820f a70f      7.620 "
test,1583576206529027840,9," |  9  |   3934       5   3930       0 |   5    0      3789       141 |   1   1    0    0 820f |    1.342       0       5       0       5      1      1      0   3770     160       1   1    0820f a70f      7.440 "
