test,1583576164799084800,10," | 10  |   3767       5   3739       0 |   1    0      3675        64 |  15  60    0    0 d50f |    7.110       0       1       0       1     60     60      0   3627     112       8  60    0d50f a70f     30.360 "
test,1583576164781712128,12," | 12  |   3767       5   3765       0 |   5    0      3734        31 |   2  54    0    0 b60f |    2.777       0       5       0       5     54     54      0   3674      91       2  54    0b60f a70f      9.750 "
test,1583576164780327936,13," | 13  |   3767       5   3763       0 |   5    0      3737        26 |   2  54    0    0 b60f |    2.777       0       5       0       5     54     54      0   3689      74       2  54    0b60f a70f      9.000 "
test,1583576164796862976,15," | 15  |   3767       5   3765       0 |   2    4      3622       143 |   1  60   54    0 d50f |    0           0       0       0       8      0      0      0   3461     304       0  60    0d50f a70f     30.390 "
test,1583576164786045952,16," | 16  |   3767       5   3763       0 |   5    1      3628       135 |   3  60   42    0 d50f |    3.448       0       5       0       5     60     60      0   3525     238       3  60    0d50f a70f     10.230 "
test,1583576164779973120,17," | 17  |   3767       5   3758       5 |   5    0      3717        46 |   3  60    0    0 d50f |    3.448       0       5       0       5     60     60      0   3601     162       3  60    0d50f a70f     10.350 "
test,1583576164782610944,18," | 18  |   3767       5   3762       0 |   5    0      3554       208 |   4  60    0    0 d50f |    3.448       0       5       0       5     60     60      0   3396     366       3  60    0d50f a70f      9.540 "
test,1583576164784642048,19," | 19  |   3767       5   3754       9 |   5    0      3707        56 |   3  60    0    0 d50f |    4.180       0       5       0       5     60     60      0   3593     170       4  60    0d50f a70f     10.200 "
test,1583576164777580032,1," |  1  |   3767       4   3764       0 |   5    0      3677        87 |   1  54    0    0 b60f |    2.716       0       5       0       5     54     54      0   3648     116       1  54    0b60f a70f      8.820 "
test,1583576164780939008,22," | 22  |   3767       5   3761       0 |   5    0      3732        29 |   3  60    0    0 d50f |    3.448       0       5       0       5     60     60      0   3553     208       3  60    0d50f a70f      9.630 "
test,1583576164781206016,23," | 23  |   3767       5   3705       0 |   5    0      3686        19 |   2  60    0    0 d50f |    2.746       0       5       0       5     60     60      0   3603     102       2  60    0d50f a70f      9.690 "
test,1583576164778768128,24," | 24  |   3767       5   3761       2 |   5    0      3729        34 |   3  60    0    0 d50f |    3.448       0       5       0       5     60     60      0   3634     129       3  60    0d50f a70f      9.690 "
test,1583576164778144000,26," | 26  |   3767       5   3761       2 |   5    0      3748        15 |   3  60    0    0 d50f |    2.746       0       5       0       5     60     60      0   3678      85       2  60    0d50f a70f      8.850 "
test,1583576164785320960,27," | 27  |   3767       5   3765       0 |   5    0      3661       104 |   2  60    0    0 d50f |    3.479       0       5       0       5     60     60      0   3501     264       3  60    0d50f a70f     10.380 "
test,1583576164803154944,28," | 28  |   3767       5   3759       4 |   3    4      3474       289 |   6  60   35    0 d50f |    4.882       0       2       0       2     60     60      0   3332     431       5  60    0d50f a70f     30.360 "
test,1583576164802233088,29," | 29  |   3767       5   3760       5 |   5    0      3349       416 |   3  60    0    0 d50f |    4.150       0       2       0       2     60     60      0   3173     592       4  60    0d50f a70f     30.360 "
test,1583576164799831040,30," | 30  |   3767       4   3762       1 |   4    5      3710        53 |   3  60   35    0 d50f |    4.943       0       3       0       3     60     60      0   3573     190       5  60    0d50f a70f     30.360 "
test,1583576164797171200,35," | 35  |   3767       4   3762       1 |   0    7      3582       181 |   0  35   60    1 160f |    0           0       0       0       8      0      0      0   3501     262       0  35    1160f a70f     30.150 "
test,1583576164801250048,40," | 40  |   3767       5   3699      60 |   5    0      3523       236 |   1  42    0    0 520f |    2.014       0       3       0       3     42     42      0   3427     332       1  42    0520f a70f     30.390 "
test,1583576164799278080,41," | 41  |   3767       5   3694      59 |   5    0      3717        36 |   1  42    0    0 520f |    2.014       0       3       0       3     42     42      0   3620     133       1  42    0520f a70f     30.390 "
test,1583576164801590016,42," | 42  |   3767       5   3702      61 |   4    6      3679        84 |   2  42   45    1 520f |    1.739       0       2       0       2     42     42      0   3585     178       2  42    1520f a70f     30.300 "
test,1583576164800453888,44," | 44  |   3767       5   3706      57 |   4    7      3676        87 |   3  42   45    0 520f |    2.746       0       2       0       2     42     42      0   3597     166       2  42    0520f a70f     30.390 "
test,1583576164800048128,45," | 45  |   3767       5   3720      43 |   0    9      3642       121 |   0  45   60    1 b90f |    0           0       0       0       8      0      0      0   3574     189       0  45    1b90f a70f     30.180 "
test,1583576164800264960,46," | 46  |   3767       5   3699      57 |   5    0      3585       171 |   1  42    0    0 520f |    2.014       0       3       0       3     42     42      0   3510     246       1  42    0520f a70f     30.390 "
test,1583576164798878976,47," | 47  |   3767       5   3706      57 |   5    0      3631       132 |   1  42    0    0 520f |    2.014       0       3       0       3     42     42      0   3555     208       1  42    0520f a70f     30.300 "
test,1583576164798679040,48," | 48  |   3767       5   3641      55 |   5    0      3605        91 |   1  42    0    0 520f |    2.014       0       3       0       3     42     42      0   3531     165       1  42    0520f a70f     30.360 "
test,1583576164782376960,49," | 49  |   3767       5   3757       0 |   5    0      3687        70 |   2  54    0    0 b60f |    2.746       0       5       0       5     54     54      0   3654     103       2  54    0b60f a70f      8.940 "
test,1583576164777044992,51," | 51  |   3767       5   3758       0 |   5    0      3720        38 |   1  60    0    0 d50f |    2.044       0       5       0       5     60     60      0   3704      54       1  60    0d50f a70f      8.160 "
test,1583576164788158976,52," | 52  |   3767       5   3736      23 |   4    0      3583       176 |   3  60    0    0 d50f |    3.448       0       5       0       5     60     60      0   3508     251       3  60    0d50f a70f      9.630 "
test,1583576164781938176,53," | 53  |   3767       5   3741       0 |   5    0      3548       193 |   3  54    0    0 b60f |    3.509       0       5       0       5     54     54      0   3504     237       3  54    0b60f a70f      9.630 "
test,1583576164777268992,54," | 54  |   3767       5   3759       0 |   4    0      3695        64 |   3  54    0    1 b60f |    1.739       0       4       0       4     54     54      0   3634     125       2  54    1b60f a70f      6.480 "
test,1583576164788526080,55," | 55  |   3767       5   3746       0 |   5    0      3606       140 |   2  54    0    0 b60f |    2.777       0       5       0       5     54     54      0   3573     173       2  54    0b60f a70f      8.970 "
test,1583576164784038144,56," | 56  |   3767       5   3749       0 |   5    0      3691        58 |   1  60    0    0 d50f |    2.014       0       5       0       5     60     60      0   3651      98       1  60    0d50f a70f      8.940 "
test,1583576164783853056,57," | 57  |   3767       5   3704       0 |   4    0      3609        95 |   1  60    0    0 d50f |    1.983       0       5       0       5     60     60      0   3388     316       1  60    0d50f a70f      8.940 "
test,1583576164783104000,58," | 58  |   3767       5   3758       0 |   4    2      3707        51 |   1  54   60    0 b60f |    2.044       0       5       0       5     54     54      0   3543     215       1  54    0b60f a70f     11.880 "
test,1583576164779088128,5," |  5  |   3767       5   3765       0 |   5    0      3436       329 |   3  54    0    0 b60f |    3.509       0       5       0       5     54     54      0   3369     396       3  54    0b60f a70f      9.570 "
test,1583576164779570944,60," | 60  |   3767       5   3758       0 |   4    0      3521       237 |   2  60    0    1 d50f |    1.770       0       4       0       4     60     60      0   3456     302       2  60    1d50f a70f      6.510 "
test,1583576164785108992,61," | 61  |   3767       5   3757       0 |   5    0      3587       170 |   2  54    0    0 b60f |    2.014       0       5       0       5     54     54      0   3465     292       1  54    0b60f a70f     11.070 "
test,1583576164780731904,7," |  7  |   3767       5   3764       0 |   5    0      3704        60 |   1  54    0    0 b60f |    2.044       0       5       0       5     54     54      0   3680      84       1  54    0b60f a70f      9.000 "
test,1583576164780553216,9," |  9  |   3767       5   3763       0 |   5    0      3628       135 |   1  54    0    0 b60f |    2.746       0       5       0       5     54     54      0   3609     154       2  54    0b60f a70f      9.000 "
