test,1583576180784434176,10," | 10  |   3831       5   3803       0 |   4    3      3738        65 |   4  10   58    1 710f |    1.739       0       4       0       4     10     10      0   3689     114       2  10    1710f a70f      6.510 "
test,1583576180781730816,12," | 12  |   3831       5   3829       0 |   5    0      3798        31 |   2  10    0    0 710f |    2.716       0       5       0       5     10     10      0   3736      93       2  10    0710f a70f      8.940 "
test,1583576180779985920,13," | 13  |   3831       5   3827       0 |   5    0      3801        26 |   2  10    0    0 710f |    2.014       0       5       0       5     10     10      0   3753      74       1  10    0710f a70f      8.250 "
test,1583576180783490048,15," | 15  |   3831       5   3829       0 |   4    6      3686       143 |   3  10   20    0 710f |    3.509       0       5       0       5     10     10      0   3518     311       3  10    0710f a70f      9.570 "
test,1583576180801513984,16," | 16  |   3831       5   3827       0 |   5    0      3690       137 |   1  23    0    0 490f |    1.983       0       4       0       4     23     23      0   3586     241       1  23    0490f a70f     30.360 "
test,1583576180799968000,17," | 17  |   3831       5   3822       5 |   5    0      3781        46 |   4  18    0    0 990f |    4.180       0       4       0       4     18     18      0   3664     163       4  18    0990f a70f     30.300 "
test,1583576180778938112,18," | 18  |   3831       5   3826       0 |   4    0      3615       211 |   2  18    0    1 990f |    1.770       0       4       0       4     18     18      0   3456     370       2  18    1990f a70f      7.230 "
test,1583576180801234944,19," | 19  |   3831       5   3818       9 |   5    0      3768        59 |   4  18    0    0 990f |    4.211       0       4       0       4     18     18      0   3651     176       4  18    0990f a70f     30.390 "
test,1583576180783180032,1," |  1  |   3831       4   3828       0 |   5    0      3741        87 |   1  10    0    0 710f |    2.685       0       5       0       5     10     10      0   3712     116       1  10    0710f a70f      8.910 "
test,1583576180783962112,22," | 22  |   3831       5   3825       0 |   5    0      3796        29 |   1  18    0    0 990f |    1.983       0       5       0       5     18     18      0   3614     211       1  18    0990f a70f      8.910 "
test,1583576180799726080,23," | 23  |   3831       5   3769       0 |   4    1      3750        19 |   8  23   18    1 490f |    1.739       0       3       0       3     23     23      0   3666     103       2  23    1490f a70f     30.300 "
test,1583576180779379968,24," | 24  |   3831       5   3825       2 |   5    0      3792        35 |   1  18    0    0 990f |    2.716       0       5       0       5     18     18      0   3695     132       2  18    0990f a70f      8.820 "
test,1583576180781008128,26," | 26  |   3831       5   3825       2 |   5    0      3812        15 |   1  18    0    0 990f |    3.479       0       5       0       5     18     18      0   3740      87       3  18    0990f a70f      9.540 "
test,1583576180800793856,27," | 27  |   3831       5   3829       0 |   5    0      3723       106 |   1  23    0    0 490f |    2.044       0       2       0       2     23     23      0   3563     266       1  23    0490f a70f     30.240 "
test,1583576180778439936,28," | 28  |   3831       4   3823       4 |   4    6      3529       298 |   5  35   20    0 850f |    2.777       0       5       0       5     35     35      0   3384     443       2  35    0850f a70f      8.880 "
test,1583576180801786880,29," | 29  |   3831       4   3824       5 |   2    2      3406       423 |   2  23   18    0 490f |    2.746       0       2       0       2     23     23      0   3228     601       2  23    0490f a70f     30.360 "
test,1583576180777105152,30," | 30  |   3831       5   3826       1 |   5    0      3774        53 |   4  35    0    0 850f |    2.014       0       5       0       5     35     35      0   3634     193       1  35    0850f a70f      8.250 "
test,1583576180777751040,35," | 35  |   3831       5   3826       1 |   4    0      3641       186 |   7  35    0    1 850f |    1.739       0       4       0       4     35     35      0   3560     267       2  35    1850f a70f      6.480 "
test,1583576180781907200,40," | 40  |   3831       5   3763      60 |   5    0      3585       238 |   2  18    0    0 990f |    2.716       0       5       0       5     18     18      0   3487     336       2  18    0990f a70f      9.660 "
test,1583576180784135168,41," | 41  |   3831       5   3758      59 |   5    0      3781        36 |   2  18    0    0 990f |    2.746       0       5       0       5     18     18      0   3682     135       2  18    0990f a70f      9.720 "
test,1583576180780369152,42," | 42  |   3831       5   3766      61 |   5    0      3741        86 |   2  18    0    0 990f |    2.716       0       5       0       5     18     18      0   3645     182       2  18    0990f a70f      9.630 "
test,1583576180780181760,44," | 44  |   3831       5   3770      57 |   5    0      3739        88 |   2  18    0    0 990f |    2.716       0       5       0       5     18     18      0   3659     168       2  18    0990f a70f      8.940 "
test,1583576180786030080,45," | 45  |   3831       5   3784      43 |   5    0      3705       122 |   2  18    0    0 990f |    3.479       0       5       0       5     18     18      0   3635     192       3  18    0990f a70f      9.570 "
test,1583576180779536128,46," | 46  |   3831       5   3763      57 |   5    0      3645       175 |   2  18    0    0 990f |    2.716       0       5       0       5     18     18      0   3570     250       2  18    0990f a70f      8.820 "
test,1583576180777991936,47," | 47  |   3831       5   3770      57 |   5    0      3693       134 |   1  18    0    0 990f |    2.014       0       5       0       5     18     18      0   3616     211       1  18    0990f a70f      8.280 "
test,1583576180779777024,48," | 48  |   3831       5   3705      55 |   5    0      3669        91 |   2  18    0    0 990f |    2.746       0       5       0       5     18     18      0   3593     167       2  18    0990f a70f      8.790 "
test,1583576180777565952,49," | 49  |   3831       5   3821       0 |   5    0      3750        71 |   1  58    0    0 710f |    1.983       0       5       0       5     58     58      0   3717     104       1  58    0710f a70f      8.190 "
test,1583576180782093056,51," | 51  |   3831       5   3822       0 |   5    0      3784        38 |   1  10    0    0 710f |    1.983       0       5       0       5     10     10      0   3768      54       1  10    0710f a70f      8.220 "
test,1583576180802481920,52," | 52  |   3831       5   3800      23 |   1    3      3642       181 |   4  18   23    0 990f |    4.211       0       4       0       4     18     18      0   3566     257       4  18    0990f a70f     30.330 "
test,1583576180781532928,53," | 53  |   3831       5   3805       0 |   5    0      3608       197 |   2  58    0    0 710f |    2.746       0       5       0       5     58     58      0   3564     241       2  58    0710f a70f      8.970 "
test,1583576180782680064,54," | 54  |   3831       5   3823       0 |   5    0      3758        65 |   1  10    0    0 710f |    2.014       0       5       0       5     10     10      0   3696     127       1  10    0710f a70f      8.220 "
test,1583576180778213888,55," | 55  |   3831       5   3810       0 |   5    0      3669       141 |   1  58    0    0 710f |    2.014       0       5       0       5     58     58      0   3636     174       1  58    0710f a70f      8.220 "
test,1583576180778686976,56," | 56  |   3831       5   3813       0 |   5    0      3754        59 |   1  10    0    0 710f |    2.044       0       5       0       5     10     10      0   3714      99       1  10    0710f a70f      8.220 "
test,1583576180800289024,57," | 57  |   3831       5   3768       0 |   1    6      3672        96 |   1  23   58    0 490f |    2.014       0       4       0       4     23     23      0   3449     319       1  23    0490f a70f     30.330 "
test,1583576180802843136,58," | 58  |   3831       4   3822       0 |   3    1      3770        52 |  14  58   10    1 710f |    1.739       0       3       0       3     58     58      0   3604     218       2  58    1710f a70f     30.300 "
test,1583576180798640896,5," |  5  |   3831       5   3829       0 |   0    2      3494       335 |   0   5   10    1  30f |    0           0       0       0       8      0      0      0   3427     402       0   5    1 30f a70f     30.150 "
test,1583576180782868992,60," | 60  |   3831       5   3822       0 |   5    0      3580       242 |   2  10    0    0 710f |    2.746       0       5       0       5     10     10      0   3513     309       2  10    0710f a70f      8.940 "
test,1583576180802052096,61," | 61  |   3831       5   3821       0 |   4    1      3649       172 |   1  58   10    0 710f |    2.014       0       3       0       3     58     58      0   3526     295       1  58    0710f a70f     30.270 "
test,1583576180780673024,7," |  7  |   3831       5   3828       0 |   5    0      3768        60 |   1  10    0    0 710f |    2.044       0       5       0       5     10     10      0   3744      84       1  10    0710f a70f      8.190 "
test,1583576180788184832,9," |  9  |   3831       5   3827       0 |   5    0      3689       138 |   1  10    0    0 710f |    2.044       0       5       0       5     10     10      0   3670     157       1  10    0710f a70f      8.160 "
