test,1583576029795945984,10," | 10  |   3227       5   3199       0 |   5    0      3147        52 |   6   1    0    0 1b0f |    1.342       0       4       0       4      1      1      0   3102      97       1   1    01b0f a70f     30.300 "
test,1583576029777111040,12," | 12  |   3227       5   3225       0 |   5   11      3198        27 |   1   7    1    0 a70f |    1.983       0       5       0       5      7      7      0   3145      80       1   7    0a70f a70f      9.510 "
test,1583576029794852864,13," | 13  |   3227       5   3223       0 |   5    1      3199        24 |   1   1    5    0 1b0f |    1.373       0       4       0       4      1      1      0   3157      66       1   1    01b0f a70f     30.300 "
test,1583576029777961984,15," | 15  |   3227       5   3225       0 |   5    2      3103       122 |   2   7    1    0 a70f |    2.777       0       5       0       5      7      7      0   2966     259       2   7    0a70f a70f     10.110 "
test,1583576029774118912,16," | 16  |   3227       5   3223       0 |   4    0      3103       120 |   2  16    0    1 c10f |    1.770       0       4       0       4     16     16      0   3024     199       2  16    1c10f a70f      6.510 "
test,1583576029799297024,17," | 17  |   3227       5   3218       5 |   4    3      3188        35 |   4  16    7    0 c10f |    2.807       0       3       0       3     16     16      0   3088     135       2  16    0c10f a70f     30.300 "
test,1583576029778770944,18," | 18  |   3227       5   3222       0 |   5    0      3045       177 |   5  44    0    0 100f |    2.746       0       5       0       5     44     44      0   2908     314       2  44    0100f a70f      8.940 "
test,1583576029798780928,19," | 19  |   3227       5   3214       9 |   3    3      3171        52 |   6  16    7    0 c10f |    2.777       0       3       0       3     16     16      0   3072     151       2  16    0c10f a70f     30.330 "
test,1583576029795734784,1," |  1  |   3227       4   3224       0 |   4    0      3150        74 |   6   1    0    1 1b0f |    1.739       0       3       0       3      1      1      0   3127      97       2   1    11b0f a70f     30.300 "
test,1583576029778609920,22," | 22  |   3227       5   3221       0 |   5    0      3196        25 |   7  44    0    0 100f |    2.685       0       5       0       5     44     44      0   3046     175       2  44    0100f a70f     11.070 "
test,1583576029796685824,23," | 23  |   3227       5   3165       0 |   5    0      3150        15 |   1  16    0    0 c10f |    2.075       0       4       0       4     16     16      0   3087      78       1  16    0c10f a70f     30.240 "
test,1583576029775720960,24," | 24  |   3227       5   3221       2 |   5    0      3195        28 |   4  44    0    0 100f |    1.983       0       5       0       5     44     44      0   3116     107       1  44    0100f a70f      8.070 "
test,1583576029775394816,26," | 26  |   3227       5   3221       2 |   5    0      3211        12 |   5  44    0    0 100f |    2.716       0       5       0       5     44     44      0   3151      72       2  44    0100f a70f      8.850 "
test,1583576029795258112,27," | 27  |   3227       5   3225       0 |   4    5      3134        91 |   3   7   16    0 a70f |    0           0       0       0       8      0      0      0   2996     229       0   7    0a70f a70f     30.330 "
test,1583576029783876864,28," | 28  |   3227       5   3220       3 |   4    0      2976       247 |   3  28    0    1 b40f |   12.390       0       4       0       4     28     28      0   2859     364      17  28    1b40f a70f     16.980 "
test,1583576029795463168,29," | 29  |   3227       5   3220       5 |   4    3      2874       351 |   4   7   16    0 a70f |    0           0       0       0       8      0      0      0   2718     507       0   7    0a70f a70f     30.390 "
test,1583576029789072896,30," | 30  |   3227       5   3223       0 |   5    0      3176        47 |   1  28    0    0 b40f |   12.695       0       5       0       5     28     28      0   3064     159      16  28    0b40f a70f     18.570 "
test,1583576029789940992,35," | 35  |   3227       5   3223       0 |   5    0      3075       148 |   2  28    0    0 b40f |   13.427       0       5       0       5     28     28      0   3009     214      17  28    0b40f a70f     19.350 "
test,1583576029798413056,40," | 40  |   3227       5   3161      58 |   0    4      3009       210 |   0  40   44    1 e70f |    0           0       0       0       8      0      0      0   2925     294       0  40    1e70f a70f     30.180 "
test,1583576029784473856,41," | 41  |   3227       5   3157      56 |   5    1      3179        34 |   4  44   16    0 100f |    1.983       0       5       0       5     44     44      0   3093     120       1  44    0100f a70f      8.940 "
test,1583576029783174912,42," | 42  |   3227       5   3164      59 |   5    0      3142        81 |   4  44    0    0 100f |    1.983       0       5       0       5     44     44      0   3059     164       1  44    0100f a70f     10.200 "
test,1583576029776772864,44," | 44  |   3227       5   3168      55 |   4    0      3145        78 |   7  44    0    1 100f |    1.739       0       4       0       4     44     44      0   3076     147       2  44    1100f a70f      7.230 "
test,1583576029779911168,45," | 45  |   3227       5   3182      41 |   5    1      3119       104 |   4  44   16    0 100f |    1.983       0       5       0       5     44     44      0   3056     167       1  44    0100f a70f      8.910 "
test,1583576029779479040,46," | 46  |   3227       5   3161      55 |   5    0      3070       146 |   4  44    0    0 100f |    2.014       0       5       0       5     44     44      0   3005     211       1  44    0100f a70f      9.540 "
test,1583576029781188096,47," | 47  |   3227       5   3168      55 |   5    0      3110       113 |   4  44    0    0 100f |    2.014       0       5       0       5     44     44      0   3040     183       1  44    0100f a70f      8.820 "
test,1583576029777542144,48," | 48  |   3227       5   3103      53 |   5    0      3074        82 |   4  44    0    0 100f |    2.014       0       5       0       5     44     44      0   3009     147       1  44    0100f a70f      8.820 "
test,1583576029774800128,49," | 49  |   3227       5   3217       0 |   5    5      3160        57 |   1  53    1    0 a20f |    2.075       0       5       0       5     53     53      0   3132      85       1  53    0a20f a70f      8.130 "
test,1583576029797765120,51," | 51  |   3227       5   3218       0 |   1   14      3191        27 |   3  51    7    1 b00f |    1.739       0       2       0       2     51     51      0   3178      40       2  51    1b00f a70f     30.300 "
test,1583576029799078912,52," | 52  |   3227       5   3196      23 |   5    1      3066       153 |   1  16   44    0 c10f |    2.075       0       4       0       4     16     16      0   3006     213       1  16    0c10f a70f     30.300 "
test,1583576029774344960,53," | 53  |   3227       5   3201       0 |   4    0      3042       159 |   5  53    0    1 a20f |    1.739       0       4       0       4     53     53      0   3003     198       2  53    1a20f a70f      6.480 "
test,1583576029797129984,54," | 54  |   3227       5   3219       0 |   5    0      3164        55 |   1   1    0    0 1b0f |    1.373       0       3       0       3      1      1      0   3111     108       1   1    01b0f a70f     30.240 "
test,1583576029776005888,55," | 55  |   3227       5   3206       0 |   5    5      3088       118 |   1  53    1    0 a20f |    2.044       0       5       0       5     53     53      0   3059     147       1  53    0a20f a70f      8.130 "
test,1583576029795058944,56," | 56  |   3227       5   3209       0 |   2   10      3157        52 |   1  51    1    0 b00f |    2.014       0       3       0       3     51     51      0   3125      84       1  51    0b00f a70f     30.360 "
test,1583576029796897024,57," | 57  |   3227       5   3164       0 |   1    3      3085        79 |   2  51   44    0 b00f |    0           0       0       0       8      0      0      0   2896     268       0  51    0b00f a70f     30.360 "
test,1583576029797458944,58," | 58  |   3227       5   3218       0 |   5    0      3175        43 |   3   1    0    0 1b0f |    2.075       0       4       0       4      1      1      0   3035     183       2   1    01b0f a70f     30.390 "
test,1583576029802931968,5," |  5  |   3227       5   3225       0 |   0    9      2950       275 |   0   5    7    1 de0f |    0           0       0       0       8      0      0      0   2891     334       0   5    1de0f a70f     30.180 "
test,1583576029796485888,60," | 60  |   3227       5   3218       0 |   2    4      3009       209 |   1  51    7    0 b00f |    2.075       0       3       0       3     51     51      0   2954     264       1  51    0b00f a70f     30.360 "
test,1583576029798099968,61," | 61  |   3227       5   3217       0 |   5    0      3076       141 |   2   1    0    0 1b0f |    2.075       0       4       0       4      1      1      0   2976     241       2   1    01b0f a70f     30.390 "
test,1583576029805711872,7," |  7  |   3227       5   3224       0 |   4   10      3170        54 |   5   7    1    1 a70f |    5.981       0       3       0       3      7      7      0   3152      72       8   7    1a70f a70f     30.270 "
test,1583576029796279808,9," |  9  |   3227       5   3223       0 |   5    0      3104       119 |   1   1    0    0 1b0f |    1.312       0       4       0       4      1      1      0   3087     136       1   1    01b0f a70f     30.390 "
