test,1583576220530874112,10," | 10  |   3990       5   3962       0 |   3   11      3896        66 |   4   1   55    0 820f |    1.342       0       5       0       5      1      1      0   3847     115       1   1    0820f a70f      7.590 "
test,1583576220547168000,12," | 12  |   3990       5   3988       0 |   5    0      3957        31 |   2  12    0    1 670f |    8.117       0       3       0       3     12     12      0   3893      95      11  12    1670f a70f     30.270 "
test,1583576220546948864,13," | 13  |   3990       5   3986       0 |   0   13      3959        27 |   0  13   55    1 a60f |    0           0       0       0       8      0      0      0   3911      75       0  13    1a60f a70f     30.240 "
test,1583576220532249856,15," | 15  |   3990       5   3988       0 |   5    0      3835       153 |   1  12    0    0 670f |    2.014       0       5       0       5     12     12      0   3662     326       1  12    0670f a70f     11.640 "
test,1583576220529422080,16," | 16  |   3990       5   3986       0 |   4    9      3842       144 |   5  16   26    1 8b0f |    1.739       0       4       0       4     16     16      0   3737     249       2  16    18b0f a70f      6.480 "
test,1583576220550742016,17," | 17  |   3990       5   3981       5 |   5    0      3938        48 |   4  26    0    0 750f |    2.044       0       4       0       4     26     26      0   3816     170       1  26    0750f a70f     30.360 "
test,1583576220535856128,18," | 18  |   3990       5   3985       0 |   2    1      3765       220 |   1  42   26    0 b70f |    2.746       0       5       0       5     42     42      0   3601     384       2  42    0b70f a70f     10.320 "
test,1583576220551783936,19," | 19  |   3990       4   3977       9 |   5    0      3925        61 |   5  26    0    0 750f |    2.044       0       4       0       4     26     26      0   3804     182       1  26    0750f a70f     30.390 "
test,1583576220526396928,1," |  1  |   3990       4   3987       0 |   4    0      3891        96 |   2   1    0    1 820f |    1.739       0       4       0       4      1      1      0   3862     125       2   1    1820f a70f      6.480 "
test,1583576220553867008,22," | 22  |   3990       5   3984       0 |   1   14      3952        32 |   1  42   35    0 b70f |   10.070       0       1       0       1     42     42      0   3766     218      12  42    0b70f a70f     30.360 "
test,1583576220530155008,23," | 23  |   3990       5   3928       0 |   5   10      3909        19 |   1  16   26    0 8b0f |    2.044       0       5       0       5     16     16      0   3824     104       1  16    08b0f a70f      8.310 "
test,1583576220554321152,24," | 24  |   3990       5   3984       2 |   1   14      3947        39 |   1  42   16    0 b70f |    9.338       0       1       0       1     42     42      0   3845     141      11  42    0b70f a70f     30.360 "
test,1583576220527348992,26," | 26  |   3990       5   3984       2 |   5    0      3971        15 |   5  26    0    1 750f |    1.739       0       4       0       4     26     26      0   3896      90       2  26    1750f a70f      6.480 "
test,1583576220551457024,27," | 27  |   3990       5   3988       0 |   3    8      3874       114 |   2  16   26    0 8b0f |    8.666       0       1       0       1     16     16      0   3709     279      10  16    08b0f a70f     30.300 "
test,1583576220555047936,28," | 28  |   3990       4   3981       5 |   4    4      3673       313 |   7  26   35    0 750f |    7.202       0       1       0       1     26     26      0   3523     463       8  26    0750f a70f     30.360 "
test,1583576220549777920,29," | 29  |   3990       5   3983       5 |   0    5      3543       445 |   0  29   16    1 ea0f |    0           0       0       0       8      0      0      0   3354     634       0  29    1ea0f a70f     30.180 "
test,1583576220547383040,30," | 30  |   3990       5   3984       2 |   2    5      3932        54 |   8  26   35    0 750f |    0           0       0       0       8      0      0      0   3785     201       0  26    0750f a70f     30.360 "
test,1583576220547619072,35," | 35  |   3990       5   3984       2 |   0    2      3790       196 |   0  35   26    1 2e0f |    0           0       0       0       8      0      0      0   3706     280       0  35    12e0f a70f     30.210 "
test,1583576220532011008,40," | 40  |   3990       5   3922      60 |   5    0      3739       243 |   1  42    0    0 b70f |    2.014       0       5       0       5     42     42      0   3641     341       1  42    0b70f a70f      8.820 "
test,1583576220528781824,41," | 41  |   3990       5   3917      59 |   5    0      3940        36 |   1  42    0    0 b70f |    2.014       0       5       0       5     42     42      0   3837     139       1  42    0b70f a70f      8.100 "
test,1583576220529239808,42," | 42  |   3990       5   3925      61 |   4    0      3895        91 |   2  42    0    1 b70f |    1.739       0       4       0       4     42     42      0   3798     188       2  42    1b70f a70f      6.480 "
test,1583576220533776128,44," | 44  |   3990       5   3929      57 |   5    0      3896        90 |   1  42    0    0 b70f |    2.014       0       5       0       5     42     42      0   3814     172       1  42    0b70f a70f      8.940 "
test,1583576220531112960,45," | 45  |   3990       5   3943      43 |   5    0      3858       128 |   1  42    0    0 b70f |    2.014       0       5       0       5     42     42      0   3785     201       1  42    0b70f a70f      8.220 "
test,1583576220530692096,46," | 46  |   3990       5   3922      57 |   5    0      3796       183 |   1  42    0    0 b70f |    2.746       0       5       0       5     42     42      0   3719     260       2  42    0b70f a70f      8.850 "
test,1583576220532583936,47," | 47  |   3990       5   3929      57 |   5    0      3845       141 |   1  42    0    0 b70f |    2.044       0       5       0       5     42     42      0   3766     220       1  42    0b70f a70f      8.250 "
test,1583576220528951808,48," | 48  |   3990       5   3864      55 |   5    0      3825        94 |   1  42    0    0 b70f |    2.014       0       5       0       5     42     42      0   3748     171       1  42    0b70f a70f      8.190 "
test,1583576220529978880,49," | 49  |   3990       5   3980       0 |   5    0      3907        73 |   1  55    0    0 e70f |    1.983       0       5       0       5     55     55      0   3874     106       1  55    0e70f a70f      8.190 "
test,1583576220527847936,51," | 51  |   3990       5   3981       0 |   5    0      3942        39 |   1   1    0    0 820f |    1.403       0       5       0       5      1      1      0   3925      56       1   1    0820f a70f      7.620 "
test,1583576220552818944,52," | 52  |   3990       2   3958      24 |   5    0      3795       187 |   1  26    0    0 750f |    2.105       0       4       0       4     26     26      0   3716     266       1  26    0750f a70f     30.300 "
test,1583576220529732864,53," | 53  |   3990       5   3964       0 |   5    0      3757       207 |   1  55    0    0 e70f |    1.983       0       5       0       5     55     55      0   3712     252       1  55    0e70f a70f      8.040 "
test,1583576220548562176,54," | 54  |   3990       5   3982       0 |   5    0      3911        71 |  12  55    0    0 e70f |    0           0       0       0       8      0      0      0   3846     136       0  55    0e70f a70f     30.360 "
test,1583576220532403968,55," | 55  |   3990       5   3969       0 |   4    0      3823       146 |   2  55    0    1 e70f |    1.739       0       4       0       4     55     55      0   3791     178       2  55    1e70f a70f      6.510 "
test,1583576220532953856,56," | 56  |   3990       5   3972       0 |   5    0      3910        62 |   2   1    0    0 820f |    2.105       0       5       0       5      1      1      0   3867     105       2   1    0820f a70f      8.340 "
test,1583576220554086912,57," | 57  |   3990       5   3927       0 |   5    7      3825       102 |   2  16   55    0 8b0f |    0           0       0       0       8      0      0      0   3592     335       0  16    08b0f a70f     30.360 "
test,1583576220530468864,58," | 58  |   3990       5   3981       0 |   5    0      3925        56 |   4  55    0    0 e70f |    2.014       0       5       0       5     55     55      0   3755     226       1  55    0e70f a70f      8.250 "
test,1583576220550315008,5," |  5  |   3990       5   3988       0 |   4    0      3637       351 |   3  12    0    0 670f |    2.777       0       3       0       3     12     12      0   3569     419       2  12    0670f a70f     30.300 "
test,1583576220531450880,60," | 60  |   3990       5   3981       0 |   5    0      3730       251 |   3   1    0    0 820f |    2.105       0       5       0       5      1      1      0   3659     322       2   1    0820f a70f      8.340 "
test,1583576220554541056,61," | 61  |   3990       5   3980       0 |   3   10      3801       179 |   3  16   55    0 8b0f |    0           0       0       0       8      0      0      0   3672     308       0  16    08b0f a70f     30.360 "
test,1583576220527027968,7," |  7  |   3990       5   3987       0 |   4   10      3927        60 |   2   1   55    0 820f |    1.342       0       5       0       5      1      1      0   3903      84       1   1    0820f a70f      7.590 "
test,1583576220547980032,9," |  9  |   3990       5   3986       0 |   4    0      3842       144 |  13  55    0    0 e70f |    0           0       0       0       8      0      0      0   3822     164       0  55    0e70f a70f     30.390 "
