test,1583576030029468928,10," | 10  |   3228       5   3200       0 |   5    0      3148        52 |   2  60    0    0 1c0f |    2.716       0       5       0       5     60     60      0   3103      97       2  60    01c0f a70f      8.940 "
test,1583576030027062784,12," | 12  |   3228       5   3226       0 |   5    0      3199        27 |   3  60    0    0 1c0f |    3.479       0       5       0       5     60     60      0   3146      80       3  60    01c0f a70f      9.690 "
test,1583576030027663104,13," | 13  |   3228       5   3224       0 |   5    0      3200        24 |   2  60    0    0 1c0f |    2.746       0       5       0       5     60     60      0   3158      66       2  60    01c0f a70f      8.970 "
test,1583576030030983936,15," | 15  |   3228       5   3226       0 |   4    0      3104       122 |   6  60    0    0 1c0f |    4.211       0       5       0       5     60     60      0   2967     259       4  60    01c0f a70f     10.260 "
test,1583576030034461952,16," | 16  |   3228       5   3224       0 |   5    0      3104       120 |   1  45    0    0 490f |    2.014       0       5       0       5     45     45      0   3025     199       1  45    0490f a70f      8.100 "
test,1583576030034251008,17," | 17  |   3228       5   3219       5 |   5    0      3189        35 |   2  24    0    0 b50f |    2.777       0       5       0       5     24     24      0   3089     135       2  24    0b50f a70f      8.970 "
test,1583576030026347008,18," | 18  |   3228       5   3223       0 |   5    2      3046       177 |   1  24   45    0 b50f |    2.075       0       5       0       5     24     24      0   2909     314       1  24    0b50f a70f      8.220 "
test,1583576030029650944,19," | 19  |   3228       5   3215       9 |   5    0      3172        52 |   3  24    0    0 b50f |    2.044       0       5       0       5     24     24      0   3073     151       1  24    0b50f a70f      8.130 "
test,1583576030030594048,1," |  1  |   3228       4   3225       0 |   5    0      3151        74 |   2  60    0    0 1c0f |    3.417       0       5       0       5     60     60      0   3128      97       2  60    01c0f a70f      9.480 "
test,1583576030031470080,22," | 22  |   3228       5   3222       0 |   5    0      3197        25 |   1  24    0    0 b50f |    2.014       0       5       0       5     24     24      0   3047     175       1  24    0b50f a70f      8.940 "
test,1583576030036389120,23," | 23  |   3228       5   3166       0 |   5    0      3151        15 |   2  45    0    0 490f |    2.746       0       5       0       5     45     45      0   3088      78       2  45    0490f a70f      8.880 "
test,1583576030023809024,24," | 24  |   3228       5   3222       2 |   4    1      3196        28 |   5  24   45    1 b50f |    1.770       0       4       0       4     24     24      0   3117     107       2  24    1b50f a70f      6.510 "
test,1583576030045424896,26," | 26  |   3228       5   3222       2 |   5    0      3212        12 |   1  24    0    0 b50f |    2.044       0       2       0       2     24     24      0   3152      72       1  24    0b50f a70f     30.390 "
test,1583576030033456128,27," | 27  |   3228       5   3226       0 |   3    2      3135        91 |   3  45   60    0 490f |    3.509       0       5       0       5     45     45      0   2997     229       3  45    0490f a70f     11.130 "
test,1583576030047761920,28," | 28  |   3228       5   3221       3 |   4    1      2977       247 |   2  30   24    0 5b0f |    2.044       0       4       0       4     30     30      0   2860     364       1  30    05b0f a70f     30.300 "
test,1583576030047537920,29," | 29  |   3228       5   3221       5 |   1    3      2875       351 |   4  45   24    0 490f |    7.171       0       3       0       3     45     45      0   2719     507       8  45    0490f a70f     30.300 "
test,1583576030024028160,30," | 30  |   3228       5   3224       0 |   4    0      3177        47 |   2  30    0    1 5b0f |    1.739       0       4       0       4     30     30      0   3065     159       2  30    15b0f a70f      6.480 "
test,1583576030024596992,35," | 35  |   3228       5   3224       0 |   5    0      3076       148 |   1  30    0    0 5b0f |    2.014       0       5       0       5     30     30      0   3010     214       1  30    05b0f a70f      8.250 "
test,1583576030034651136,40," | 40  |   3228       5   3162      58 |   5    0      3010       210 |   1  45    0    0 490f |    2.716       0       5       0       5     45     45      0   2926     294       2  45    0490f a70f      8.910 "
test,1583576030033878016,41," | 41  |   3228       5   3158      56 |   5    0      3180        34 |   1  45    0    0 490f |    2.014       0       5       0       5     45     45      0   3094     120       1  45    0490f a70f      8.250 "
test,1583576030025904896,42," | 42  |   3228       5   3165      59 |   5    0      3143        81 |   1  45    0    0 490f |    2.014       0       5       0       5     45     45      0   3060     164       1  45    0490f a70f      8.070 "
test,1583576030025209856,44," | 44  |   3228       5   3169      55 |   5    0      3146        78 |   1  45    0    0 490f |    2.075       0       5       0       5     45     45      0   3077     147       1  45    0490f a70f      8.280 "
test,1583576030026802944,45," | 45  |   3228       5   3183      41 |   4    0      3120       104 |   2  45    0    1 490f |    1.739       0       4       0       4     45     45      0   3057     167       2  45    1490f a70f      6.480 "
test,1583576030029839872,46," | 46  |   3228       5   3162      55 |   5    0      3071       146 |   2  45    0    0 490f |    2.044       0       5       0       5     45     45      0   3006     211       1  45    0490f a70f      8.850 "
test,1583576030027985152,47," | 47  |   3228       5   3169      55 |   5    0      3111       113 |   1  45    0    0 490f |    2.044       0       5       0       5     45     45      0   3041     183       1  45    0490f a70f      8.910 "
test,1583576030027497984,48," | 48  |   3228       5   3104      53 |   4    1      3075        82 |   1  45   24    0 490f |    2.014       0       5       0       5     45     45      0   3010     147       1  45    0490f a70f      9.600 "
test,1583576030024774912,49," | 49  |   3228       5   3218       0 |   5    0      3161        57 |   1  53    0    0 bd0f |    2.044       0       5       0       5     53     53      0   3133      85       1  53    0bd0f a70f      8.130 "
test,1583576030033180928,51," | 51  |   3228       5   3219       0 |   5    0      3192        27 |   1  60    0    0 1c0f |    2.014       0       5       0       5     60     60      0   3179      40       1  60    01c0f a70f      8.220 "
test,1583576030030771968,52," | 52  |   3228       3   3197      23 |   4    1      3067       153 |   4  45   24    0 490f |    3.509       0       5       0       5     45     45      0   3007     213       3  45    0490f a70f      9.690 "
test,1583576030025017856,53," | 53  |   3228       5   3202       0 |   4    0      3043       159 |   2  53    0    1 bd0f |    1.739       0       4       0       4     53     53      0   3004     198       2  53    1bd0f a70f      6.480 "
test,1583576030035077120,54," | 54  |   3228       5   3220       0 |   5    0      3165        55 |   4  60    0    0 1c0f |    3.479       0       5       0       5     60     60      0   3112     108       3  60    01c0f a70f      9.660 "
test,1583576030026622976,55," | 55  |   3228       5   3207       0 |   5    0      3089       118 |   1  53    0    0 bd0f |    2.044       0       5       0       5     53     53      0   3060     147       1  53    0bd0f a70f      8.100 "
test,1583576030027330048,56," | 56  |   3228       5   3210       0 |   5    0      3158        52 |   1  60    0    0 1c0f |    1.983       0       5       0       5     60     60      0   3126      84       1  60    01c0f a70f      8.130 "
test,1583576030028194816,57," | 57  |   3228       5   3165       0 |   5    0      3086        79 |   1  60    0    0 1c0f |    1.983       0       5       0       5     60     60      0   2897     268       1  60    01c0f a70f      8.910 "
test,1583576030047970048,58," | 58  |   3228       5   3219       0 |   2    0      3176        43 |  11  60    0    0 1c0f |    3.417       0       4       0       4     60     60      0   3036     183       3  60    01c0f a70f     30.390 "
test,1583576030022061056,5," |  5  |   3228       5   3226       0 |   5    0      2951       275 |   3  60    0    0 1c0f |    3.448       0       5       0       5     60     60      0   2892     334       3  60    01c0f a70f      9.630 "
test,1583576030029072128,60," | 60  |   3228       5   3219       0 |   4    0      3010       209 |   4  60    0    1 1c0f |    1.739       0       4       0       4     60     60      0   2955     264       2  60    11c0f a70f      6.480 "
test,1583576030032038912,61," | 61  |   3228       5   3218       0 |   5    0      3077       141 |   2  60    0    0 1c0f |    4.150       0       5       0       5     60     60      0   2977     241       4  60    01c0f a70f     11.010 "
test,1583576030024268032,7," |  7  |   3228       5   3225       0 |   5    0      3171        54 |   2  60    0    0 1c0f |    2.716       0       5       0       5     60     60      0   3153      72       2  60    01c0f a70f      8.910 "
test,1583576030030339072,9," |  9  |   3228       5   3224       0 |   5    0      3105       119 |   3  60    0    0 1c0f |    3.479       0       5       0       5     60     60      0   3088     136       3  60    01c0f a70f      9.690 "
