test,1583576121533381888,10," | 10  |   3594       5   3566       0 |   5    0      3507        59 |   3  23    0    0 e60f |    3.479       0       5       0       5     23     23      0   3459     107       3  23    0e60f a70f      9.540 "
test,1583576121537566976,12," | 12  |   3594       5   3592       0 |   5    0      3563        29 |   4  23    0    0 e60f |    4.211       0       5       0       5     23     23      0   3505      87       4  23    0e60f a70f     10.380 "
test,1583576121531429888,13," | 13  |   3594       5   3590       0 |   5    0      3566        24 |   4  23    0    0 e60f |    3.479       0       5       0       5     23     23      0   3521      69       3  23    0e60f a70f     10.410 "
test,1583576121531979008,15," | 15  |   3594       5   3592       0 |   5    0      3454       138 |   5  23    0    0 e60f |    4.974       0       5       0       5     23     23      0   3303     289       5  23    0e60f a70f     11.160 "
test,1583576121528832000,16," | 16  |   3594       5   3590       0 |   5    1      3458       132 |   1  23   46    0 e60f |    2.014       0       5       0       5     23     23      0   3358     232       1  23    0e60f a70f      8.220 "
test,1583576121527015936,17," | 17  |   3594       5   3585       5 |   5    0      3546        44 |   4  23    0    0 e60f |    1.983       0       5       0       5     23     23      0   3433     157       1  23    0e60f a70f      8.040 "
test,1583576121529670912,18," | 18  |   3594       5   3589       0 |   5    0      3389       200 |   2  23    0    0 e60f |    2.746       0       5       0       5     23     23      0   3236     353       2  23    0e60f a70f      8.970 "
test,1583576121526458112,19," | 19  |   3594       5   3581       9 |   5    0      3535        55 |   3  23    0    0 e60f |    2.014       0       5       0       5     23     23      0   3422     168       1  23    0e60f a70f      8.100 "
test,1583576121529982976,1," |  1  |   3594       4   3591       0 |   5    0      3507        84 |   3  23    0    0 e60f |    4.150       0       5       0       5     23     23      0   3480     111       3  23    0e60f a70f     10.320 "
test,1583576121543885824,22," | 22  |   3594       5   3588       0 |   5    0      3562        26 |   1  23    0    0 e60f |    2.014       0       5       0       5     23     23      0   3392     196       1  23    0e60f a70f      8.070 "
test,1583576121525611008,23," | 23  |   3594       5   3532       0 |   5    0      3514        18 |   4  23    0    1 e60f |    1.739       0       4       0       4     23     23      0   3438      94       2  23    1e60f a70f      6.510 "
test,1583576121526729984,24," | 24  |   3594       5   3588       2 |   4    0      3557        33 |   7  23    0    0 e60f |    1.983       0       5       0       5     23     23      0   3467     123       1  23    0e60f a70f      8.190 "
test,1583576121528364032,26," | 26  |   3594       5   3588       2 |   5    0      3576        14 |   4  23    0    0 e60f |    1.983       0       5       0       5     23     23      0   3509      81       1  23    0e60f a70f      8.220 "
test,1583576121522828032,27," | 27  |   3594       5   3592       0 |   5    0      3494        98 |   1  23    0    0 e60f |    2.044       0       5       0       5     23     23      0   3339     253       1  23    0e60f a70f      8.160 "
test,1583576121546828032,28," | 28  |   3594       3   3586       4 |   0    8      3315       275 |   0  28   23    1  80f |    0           0       0       0       8      0      0      0   3179     411       0  28    1 80f a70f     30.150 "
test,1583576121549291008,29," | 29  |   3594       3   3587       5 |   4    0      3194       398 |   2  23    0    0 e60f |    5.676       0       2       0       2     23     23      0   3023     569       6  23    0e60f a70f     30.360 "
test,1583576121548237056,30," | 30  |   3594       5   3589       1 |   5    0      3538        52 |   6  23    0    0 e60f |    2.777       0       2       0       2     23     23      0   3407     183       2  23    0e60f a70f     30.270 "
test,1583576121546117120,35," | 35  |   3594       5   3589       1 |   0    8      3421       169 |   0  35   23    1 b30f |    0           0       0       0       8      0      0      0   3343     247       0  35    1b30f a70f     30.210 "
test,1583576121538003968,40," | 40  |   3594       5   3526      60 |   4    1      3359       227 |   2  46   23    0 a80f |    2.014       0       5       0       5     46     46      0   3269     317       1  46    0a80f a70f      9.000 "
test,1583576121535311872,41," | 41  |   3594       5   3522      58 |   5    0      3544        36 |   1  46    0    0 a80f |    2.044       0       5       0       5     46     46      0   3453     127       1  46    0a80f a70f      8.280 "
test,1583576121532205056,42," | 42  |   3594       5   3529      61 |   5    0      3507        83 |   1  46    0    0 a80f |    2.044       0       5       0       5     46     46      0   3418     172       1  46    0a80f a70f      8.250 "
test,1583576121531622912,44," | 44  |   3594       5   3533      57 |   5    0      3506        84 |   1  46    0    0 a80f |    2.075       0       5       0       5     46     46      0   3432     158       1  46    0a80f a70f      8.310 "
test,1583576121550176000,45," | 45  |   3594       5   3547      43 |   5    0      3477       113 |   2  46    0    0 a80f |    2.075       0       4       0       4     46     46      0   3412     178       1  46    0a80f a70f     30.360 "
test,1583576121530888960,46," | 46  |   3594       5   3526      57 |   5    0      3424       159 |   2  46    0    1 a80f |    1.739       0       4       0       4     46     46      0   3353     230       2  46    1a80f a70f      6.510 "
test,1583576121549519104,47," | 47  |   3594       5   3533      57 |   5    0      3461       129 |   1  46    0    0 a80f |    2.044       0       4       0       4     46     46      0   3390     200       1  46    0a80f a70f     30.390 "
test,1583576121522595840,48," | 48  |   3594       5   3468      55 |   5    0      3435        88 |   1  46    0    0 a80f |    2.105       0       5       0       5     46     46      0   3366     157       1  46    0a80f a70f      8.310 "
test,1583576121529246976,49," | 49  |   3594       5   3584       0 |   5    0      3520        64 |   1  53    0    0 230f |    2.044       0       5       0       5     53     53      0   3489      95       1  53    0230f a70f      8.250 "
test,1583576121528128000,51," | 51  |   3594       5   3585       0 |   5    0      3548        37 |   2  23    0    0 e60f |    2.746       0       5       0       5     23     23      0   3534      51       2  23    0e60f a70f      8.820 "
test,1583576121527367168,52," | 52  |   3594       5   3563      23 |   5    0      3415       171 |   1  23    0    0 e60f |    1.983       0       5       0       5     23     23      0   3344     242       1  23    0e60f a70f      8.190 "
test,1583576121528587008,53," | 53  |   3594       5   3568       0 |   5    0      3387       181 |   2  53    0    1 230f |    1.739       0       4       0       4     53     53      0   3345     223       2  53    1230f a70f      6.480 "
test,1583576121534127872,54," | 54  |   3594       5   3586       0 |   5    0      3523        63 |   2  23    0    0 e60f |    4.180       0       5       0       5     23     23      0   3464     122       4  23    0e60f a70f     10.350 "
test,1583576121527937024,55," | 55  |   3594       5   3573       0 |   5    0      3441       132 |   1  53    0    0 230f |    2.044       0       5       0       5     53     53      0   3410     163       1  53    0230f a70f      8.130 "
test,1583576121527774976,56," | 56  |   3594       5   3576       0 |   5    0      3521        55 |   2  23    0    0 e60f |    2.746       0       5       0       5     23     23      0   3485      91       2  23    0e60f a70f      8.940 "
test,1583576121527569920,57," | 57  |   3594       5   3531       0 |   5    0      3443        88 |   1  23    0    0 e60f |    2.044       0       5       0       5     23     23      0   3233     298       1  23    0e60f a70f      8.130 "
test,1583576121531074048,58," | 58  |   3594       5   3585       0 |   5    0      3537        48 |   2  23    0    0 e60f |    3.448       0       5       0       5     23     23      0   3382     203       3  23    0e60f a70f      9.540 "
test,1583576121547156992,5," |  5  |   3594       5   3592       0 |   0    9      3277       315 |   0   5   23    1 4c0f |    0           0       0       0       8      0      0      0   3213     379       0   5    14c0f a70f     30.210 "
test,1583576121534276096,60," | 60  |   3594       5   3585       0 |   5    0      3359       226 |   2  23    0    0 e60f |    2.746       0       5       0       5     23     23      0   3296     289       2  23    0e60f a70f      9.540 "
test,1583576121536401152,61," | 61  |   3594       5   3584       0 |   5    0      3424       160 |   2  23    0    0 e60f |    3.479       0       5       0       5     23     23      0   3310     274       3  23    0e60f a70f     10.410 "
test,1583576121529010176,7," |  7  |   3594       5   3591       0 |   5    0      3532        59 |   3  23    0    0 e60f |    3.448       0       5       0       5     23     23      0   3510      81       3  23    0e60f a70f      9.660 "
test,1583576121531259136,9," |  9  |   3594       5   3590       0 |   5    0      3460       130 |   3  23    0    0 e60f |    4.211       0       5       0       5     23     23      0   3442     148       4  23    0e60f a70f     10.380 "
