test,1583576104528937216,10," | 10  |   3526       5   3498       0 |   5    0      3440        58 |   1   7    0    0 b60f |    2.014       0       5       0       5      7      7      0   3392     106       1   7    0b60f a70f      8.160 "
test,1583576104526571008,12," | 12  |   3526       5   3524       0 |   5    0      3495        29 |   1   7    0    0 b60f |    2.014       0       5       0       5      7      7      0   3438      86       1   7    0b60f a70f      8.250 "
test,1583576104525444096,13," | 13  |   3526       5   3522       0 |   5    0      3498        24 |   1   7    0    0 b60f |    2.014       0       5       0       5      7      7      0   3453      69       1   7    0b60f a70f      8.190 "
test,1583576104550379008,15," | 15  |   3526       5   3524       0 |   1    4      3391       133 |   2  17    7    0 940f |   10.864       0       2       0       2     17     17      0   3241     283      13  17    0940f a70f     30.330 "
test,1583576104529942016,16," | 16  |   3526       5   3522       0 |   5    0      3394       128 |   2  17    0    0 940f |    2.075       0       5       0       5     17     17      0   3298     224       1  17    0940f a70f      8.970 "
test,1583576104521995008,17," | 17  |   3526       5   3517       5 |   4    0      3479        43 |   5  17    0    1 940f |    1.739       0       4       0       4     17     17      0   3368     154       2  17    1940f a70f      6.480 "
test,1583576104533905920,18," | 18  |   3526       5   3521       0 |   5    0      3323       198 |   3  17    0    0 940f |    2.014       0       5       0       5     17     17      0   3175     346       1  17    0940f a70f      8.250 "
test,1583576104537459968,19," | 19  |   3526       5   3513       9 |   5    0      3467        55 |   4  17    0    0 940f |    2.105       0       5       0       5     17     17      0   3356     166       1  17    0940f a70f      8.190 "
test,1583576104526128896,1," |  1  |   3526       4   3523       0 |   5    0      3441        82 |   1   7    0    0 b60f |    2.655       0       5       0       5      7      7      0   3414     109       1   7    0b60f a70f      8.880 "
test,1583576104533056000,22," | 22  |   3526       5   3520       0 |   5    0      3494        26 |   2  17    0    0 940f |    2.075       0       5       0       5     17     17      0   3328     192       1  17    0940f a70f      8.130 "
test,1583576104530916096,23," | 23  |   3526       5   3464       0 |   5    0      3446        18 |   2  17    0    0 940f |    2.075       0       5       0       5     17     17      0   3373      91       1  17    0940f a70f      8.340 "
test,1583576104533742848,24," | 24  |   3526       5   3520       2 |   5    0      3489        33 |   2  17    0    0 940f |    2.838       0       5       0       5     17     17      0   3401     121       2  17    0940f a70f      9.060 "
test,1583576104533581056,26," | 26  |   3526       5   3520       2 |   5    0      3509        13 |   1  17    0    0 940f |    2.014       0       5       0       5     17     17      0   3444      78       1  17    0940f a70f      8.280 "
test,1583576104531976960,27," | 27  |   3526       5   3524       0 |   5    0      3428        96 |   1  17    0    0 940f |    2.105       0       5       0       5     17     17      0   3276     248       1  17    0940f a70f      8.970 "
test,1583576104528107008,28," | 28  |   3526       5   3519       3 |   5    0      3253       269 |   4  17    0    0 940f |    2.105       0       5       0       5     17     17      0   3123     399       1  17    0940f a70f      8.220 "
test,1583576104531481856,29," | 29  |   3526       4   3519       5 |   3    0      3136       388 |   9  17    0    0 940f |    2.807       0       5       0       5     17     17      0   2969     555       2  17    0940f a70f      9.000 "
test,1583576104530327040,30," | 30  |   3526       5   3522       0 |   5    0      3470        52 |   3  17    0    0 940f |    2.807       0       5       0       5     17     17      0   3343     179       2  17    0940f a70f      9.600 "
test,1583576104530512128,35," | 35  |   3526       5   3522       0 |   5    0      3357       165 |   3  17    0    0 940f |    2.807       0       5       0       5     17     17      0   3283     239       2  17    0940f a70f      8.910 "
test,1583576104531809024,40," | 40  |   3526       5   3458      60 |   5    0      3295       223 |   3  17    0    0 940f |    2.807       0       5       0       5     17     17      0   3206     312       2  17    0940f a70f      9.000 "
test,1583576104527595008,41," | 41  |   3526       5   3454      58 |   5    0      3476        36 |   1  17    0    0 940f |    2.075       0       5       0       5     17     17      0   3385     127       1  17    0940f a70f      8.250 "
test,1583576104529185024,42," | 42  |   3526       5   3461      61 |   5    0      3439        83 |   2  17    0    0 940f |    2.777       0       5       0       5     17     17      0   3350     172       2  17    0940f a70f      8.850 "
test,1583576104534353920,44," | 44  |   3526       5   3465      57 |   5    0      3441        81 |   2  17    0    0 940f |    2.838       0       5       0       5     17     17      0   3368     154       2  17    0940f a70f      9.000 "
test,1583576104535877888,45," | 45  |   3526       5   3479      43 |   5    0      3411       111 |   2  17    0    0 940f |    2.838       0       5       0       5     17     17      0   3346     176       2  17    0940f a70f      9.000 "
test,1583576104529552896,46," | 46  |   3526       5   3458      57 |   5    0      3358       157 |   2  17    0    0 940f |    2.777       0       5       0       5     17     17      0   3287     228       2  17    0940f a70f      9.000 "
test,1583576104532606976,47," | 47  |   3526       5   3465      57 |   5    0      3395       127 |   2  17    0    0 940f |    2.777       0       5       0       5     17     17      0   3324     198       2  17    0940f a70f      9.000 "
test,1583576104531279104,48," | 48  |   3526       5   3400      55 |   5    0      3368        87 |   2  17    0    0 940f |    2.777       0       5       0       5     17     17      0   3298     157       2  17    0940f a70f      8.820 "
test,1583576104526316800,49," | 49  |   3526       5   3516       0 |   4    0      3452        64 |   2  49    0    1 140f |    1.739       0       4       0       4     49     49      0   3421      95       2  49    1140f a70f      6.480 "
test,1583576104527791872,51," | 51  |   3526       5   3517       0 |   5    0      3481        36 |   1   7    0    0 b60f |    2.014       0       5       0       5      7      7      0   3467      50       1   7    0b60f a70f      8.160 "
test,1583576104529356032,52," | 52  |   3526       5   3495      23 |   4    0      3348       170 |   2  17    0    0 940f |    2.044       0       5       0       5     17     17      0   3279     239       1  17    0940f a70f      8.100 "
test,1583576104534099200,53," | 53  |   3526       5   3500       0 |   5    0      3325       175 |   1  49    0    0 140f |    2.014       0       5       0       5     49     49      0   3283     217       1  49    0140f a70f      8.130 "
test,1583576104527005952,54," | 54  |   3526       5   3518       0 |   5    0      3459        59 |   1   7    0    0 b60f |    2.044       0       5       0       5      7      7      0   3399     119       1   7    0b60f a70f      8.130 "
test,1583576104528592128,55," | 55  |   3526       5   3505       0 |   5    0      3375       130 |   1  49    0    0 140f |    2.044       0       5       0       5     49     49      0   3344     161       1  49    0140f a70f      8.250 "
test,1583576104530702080,56," | 56  |   3526       5   3508       0 |   5    0      3453        55 |   2   7    0    0 b60f |    2.746       0       5       0       5      7      7      0   3418      90       2   7    0b60f a70f      8.850 "
test,1583576104528357888,57," | 57  |   3526       5   3463       0 |   1    2      3375        88 |   2  17    7    0 940f |    2.807       0       5       0       5     17     17      0   3169     294       2  17    0940f a70f      8.880 "
test,1583576104548996096,58," | 58  |   3526       5   3517       0 |   5    0      3469        48 |   1  49    0    0 140f |    2.044       0       4       0       4     49     49      0   3317     200       1  49    0140f a70f     30.390 "
test,1583576104529753856,5," |  5  |   3526       5   3524       0 |   5    0      3220       304 |   2   7    0    0 b60f |    2.777       0       5       0       5      7      7      0   3156     368       2   7    0b60f a70f      8.880 "
test,1583576104538151936,60," | 60  |   3526       5   3517       0 |   5    0      3293       224 |   2   7    0    0 b60f |    2.746       0       5       0       5      7      7      0   3230     287       2   7    0b60f a70f      8.940 "
test,1583576104549376000,61," | 61  |   3526       5   3516       0 |   1    0      3361       155 |  10  49    0    0 140f |    2.777       0       3       0       3     49     49      0   3253     263       2  49    0140f a70f     30.390 "
test,1583576104525777152,7," |  7  |   3526       5   3523       0 |   4    0      3465        58 |   5   7    0    1 b60f |    1.739       0       4       0       4      7      7      0   3443      80       2   7    1b60f a70f      6.510 "
test,1583576104526777088,9," |  9  |   3526       5   3522       0 |   5    0      3392       130 |   1   7    0    0 b60f |    1.983       0       5       0       5      7      7      0   3374     148       1   7    0b60f a70f      8.250 "
