test,1583576021279782144,10," | 10  |   3193       5   3165       0 |   4    0      3113        52 |   4  10    0    1 150f |    1.739       0       4       0       4     10     10      0   3068      97       2  10    1150f a70f      6.480 "
test,1583576021278706176,12," | 12  |   3193       5   3191       0 |   5    0      3164        27 |   4  10    0    0 150f |    2.746       0       5       0       5     10     10      0   3111      80       2  10    0150f a70f      8.970 "
test,1583576021274432000,13," | 13  |   3193       5   3189       0 |   5    1      3165        24 |   1  10    5    0 150f |    2.014       0       5       0       5     10     10      0   3124      65       1  10    0150f a70f      8.190 "
test,1583576021277019136,15," | 15  |   3193       5   3191       0 |   5    0      3072       119 |   5  10    0    0 150f |    3.479       0       5       0       5     10     10      0   2936     255       3  10    0150f a70f      9.690 "
test,1583576021285541888,16," | 16  |   3193       5   3189       0 |   5    0      3074       115 |   1  52    0    0 a70f |    2.075       0       5       0       5     52     52      0   2995     194       1  52    0a70f a70f      9.000 "
test,1583576021279993088,17," | 17  |   3193       5   3184       5 |   5    0      3154        35 |   2  52    0    0 a70f |    2.777       0       5       0       5     52     52      0   3054     135       2  52    0a70f a70f      9.000 "
test,1583576021279334144,18," | 18  |   3193       5   3188       0 |   5    0      3013       175 |   2  52    0    0 a70f |    2.777       0       5       0       5     52     52      0   2878     310       2  52    0a70f a70f      9.000 "
test,1583576021278919936,19," | 19  |   3193       5   3180       9 |   4    0      3137        52 |   1  52    0    0 a70f |    2.044       0       5       0       5     52     52      0   3039     150       1  52    0a70f a70f      9.720 "
test,1583576021274054144,1," |  1  |   3193       4   3190       0 |   5    0      3117        73 |   1  10    0    0 150f |    2.685       0       5       0       5     10     10      0   3094      96       1  10    0150f a70f      8.790 "
test,1583576021296850944,22," | 22  |   3193       5   3187       0 |   4    1      3162        25 |   2  52   10    0 a70f |    2.777       0       4       0       4     52     52      0   3014     173       2  52    0a70f a70f     30.300 "
test,1583576021276644096,23," | 23  |   3193       5   3131       0 |   5    0      3116        15 |   1  52    0    0 a70f |    2.075       0       5       0       5     52     52      0   3053      78       1  52    0a70f a70f      8.160 "
test,1583576021276462080,24," | 24  |   3193       5   3187       2 |   5    0      3162        27 |   1  52    0    0 a70f |    2.044       0       5       0       5     52     52      0   3084     105       1  52    0a70f a70f      9.000 "
test,1583576021273627136,26," | 26  |   3193       5   3187       2 |   5    0      3178        11 |   1  52    0    0 a70f |    2.044       0       5       0       5     52     52      0   3119      70       1  52    0a70f a70f      8.220 "
test,1583576021298232064,27," | 27  |   3193       5   3191       0 |   4    1      3101        90 |   2  52   10    0 a70f |    3.540       0       4       0       4     52     52      0   2965     226       3  52    0a70f a70f     30.360 "
test,1583576021276282112,28," | 28  |   3193       5   3186       3 |   3    0      2946       243 |   4  28    0    1 e30f |    1.770       0       4       0       4     28     28      0   2829     360       2  28    1e30f a70f      7.920 "
test,1583576021297584128,29," | 29  |   3193       5   3186       5 |   4    0      2844       347 |   2  52    0    0 a70f |    4.241       0       4       0       4     52     52      0   2690     501       4  52    0a70f a70f     30.240 "
test,1583576021275176960,30," | 30  |   3193       5   3189       0 |   5    0      3143        46 |   1  28    0    0 e30f |    2.014       0       5       0       5     28     28      0   3033     156       1  28    0e30f a70f      8.250 "
test,1583576021278280960,35," | 35  |   3193       5   3189       0 |   5    0      3043       146 |   2  28    0    0 e30f |    2.716       0       5       0       5     28     28      0   2977     212       2  28    0e30f a70f      8.940 "
test,1583576021296077056,40," | 40  |   3193       5   3127      58 |   4    0      2977       208 |   4  45    0    0 710f |    2.044       0       4       0       4     45     45      0   2893     292       1  45    0710f a70f     30.270 "
test,1583576021295531008,41," | 41  |   3193       5   3123      56 |   5    0      3145        34 |   1  45    0    0 710f |    2.044       0       4       0       4     45     45      0   3059     120       1  45    0710f a70f     30.270 "
test,1583576021297133056,42," | 42  |   3193       5   3130      59 |   5    0      3108        81 |   1  45    0    0 710f |    2.044       0       4       0       4     45     45      0   3025     164       1  45    0710f a70f     30.360 "
test,1583576021299614976,44," | 44  |   3193       5   3134      55 |   5    0      3112        77 |   1  45    0    0 710f |    2.014       0       4       0       4     45     45      0   3043     146       1  45    0710f a70f     30.360 "
test,1583576021277248000,45," | 45  |   3193       5   3148      41 |   5    0      3085       104 |   2  45    0    1 710f |    1.739       0       4       0       4     45     45      0   3022     167       2  45    1710f a70f      6.480 "
test,1583576021297394944,46," | 46  |   3193       5   3127      55 |   5    0      3036       146 |   1  45    0    0 710f |    2.044       0       4       0       4     45     45      0   2971     211       1  45    0710f a70f     30.360 "
test,1583576021296338944,47," | 47  |   3193       5   3134      55 |   5    0      3076       113 |   1  45    0    0 710f |    2.014       0       4       0       4     45     45      0   3006     183       1  45    0710f a70f     30.360 "
test,1583576021295066112,48," | 48  |   3193       5   3069      53 |   5    0      3040        82 |   1  45    0    0 710f |    2.044       0       4       0       4     45     45      0   2975     147       1  45    0710f a70f     30.360 "
test,1583576021275394048,49," | 49  |   3193       5   3183       0 |   5    0      3126        57 |   2  10    0    0 150f |    2.746       0       5       0       5     10     10      0   3098      85       2  10    0150f a70f      8.820 "
test,1583576021274235136,51," | 51  |   3193       5   3184       0 |   5    0      3157        27 |   1  10    0    0 150f |    2.014       0       5       0       5     10     10      0   3144      40       1  10    0150f a70f      8.190 "
test,1583576021300144896,52," | 52  |   3193       5   3162      23 |   4    0      3034       151 |   4  52    0    1 a70f |    3.967       0       3       0       3     52     52      0   2974     211       5  52    1a70f a70f     30.300 "
test,1583576021277626112,53," | 53  |   3193       5   3167       0 |   5    0      3010       157 |   3  10    0    0 150f |    3.448       0       5       0       5     10     10      0   2971     196       3  10    0150f a70f      9.570 "
test,1583576021277831936,54," | 54  |   3193       5   3185       0 |   5    0      3131        54 |   1  10    0    0 150f |    2.014       0       5       0       5     10     10      0   3079     106       1  10    0150f a70f     10.260 "
test,1583576021279126784,55," | 55  |   3193       5   3172       0 |   5    0      3056       116 |   2  10    0    0 150f |    2.746       0       5       0       5     10     10      0   3027     145       2  10    0150f a70f      8.820 "
test,1583576021274769920,56," | 56  |   3193       5   3175       0 |   5    0      3123        52 |   1  10    0    0 150f |    1.983       0       5       0       5     10     10      0   3091      84       1  10    0150f a70f      8.040 "
test,1583576021296528128,57," | 57  |   3193       5   3130       0 |   2    0      3053        77 |  12  10    0    0 150f |    6.408       0       4       0       4     10     10      0   2867     263       7  10    0150f a70f     30.300 "
test,1583576021277410048,58," | 58  |   3193       5   3184       0 |   5    0      3141        43 |   1  10    0    0 150f |    2.014       0       5       0       5     10     10      0   3003     181       1  10    0150f a70f      8.880 "
test,1583576021292912128,5," |  5  |   3193       5   3191       0 |   0    8      2921       270 |   0   5   10    1 200f |    0           0       0       0       8      0      0      0   2861     330       0   5    1200f a70f     30.180 "
test,1583576021279539200,60," | 60  |   3193       5   3184       0 |   5    0      2976       208 |   2  10    0    0 150f |    2.716       0       5       0       5     10     10      0   2921     263       2  10    0150f a70f      8.910 "
test,1583576021280754176,61," | 61  |   3193       5   3183       0 |   5    0      3047       136 |   2  10    0    0 150f |    2.716       0       5       0       5     10     10      0   2948     235       2  10    0150f a70f      8.820 "
test,1583576021273868032,7," |  7  |   3193       5   3190       0 |   5    0      3136        54 |   1  10    0    0 150f |    2.014       0       5       0       5     10     10      0   3118      72       1  10    0150f a70f      8.160 "
test,1583576021275644928,9," |  9  |   3193       5   3189       0 |   5    0      3070       119 |   1  10    0    0 150f |    1.953       0       5       0       5     10     10      0   3053     136       1  10    0150f a70f      8.190 "
