test,1583576005797733120,10," | 10  |   3131       5   3103       0 |   5    0      3051        52 |   4  20    0    0 e30f |    3.479       0       4       0       4     20     20      0   3007      96       3  20    0e30f a70f     30.390 "
test,1583576005777956864,12," | 12  |   3131       5   3129       0 |   5    0      3102        27 |   2  20    0    0 e30f |    2.746       0       5       0       5     20     20      0   3051      78       2  20    0e30f a70f      8.970 "
test,1583576005779712000,13," | 13  |   3131       5   3127       0 |   5    0      3103        24 |   3  20    0    0 e30f |    3.509       0       5       0       5     20     20      0   3064      63       3  20    0e30f a70f     10.320 "
test,1583576005781271040,15," | 15  |   3131       5   3129       0 |   5    0      3011       118 |   1  20    0    0 e30f |    2.014       0       5       0       5     20     20      0   2879     250       1  20    0e30f a70f      9.690 "
test,1583576005774925056,16," | 16  |   3131       5   3127       0 |   4    0      3015       112 |   3  16    0    1 580f |    1.770       0       4       0       4     16     16      0   2937     190       2  16    1580f a70f      6.510 "
test,1583576005797902080,17," | 17  |   3131       5   3122       5 |   5    0      3093        34 |   3  16    0    0 580f |    9.338       0       3       0       3     16     16      0   2996     131      11  16    0580f a70f     30.390 "
test,1583576005776279808,18," | 18  |   3131       5   3126       0 |   5    5      2953       173 |   1  26   16    0 360f |    2.044       0       5       0       5     26     26      0   2821     305       1  26    0360f a70f      9.000 "
test,1583576005796485888,19," | 19  |   3131       5   3118       9 |   5    0      3077        50 |   4  16    0    0 580f |   10.070       0       2       0       2     16     16      0   2981     146      12  16    0580f a70f     30.360 "
test,1583576005777390080,1," |  1  |   3131       4   3128       0 |   5    0      3057        71 |   4  20    0    0 e30f |    4.150       0       5       0       5     20     20      0   3034      94       3  20    0e30f a70f     10.350 "
test,1583576005774722048,22," | 22  |   3131       5   3125       0 |   5    6      3100        25 |   1  26   16    0 360f |    1.983       0       5       0       5     26     26      0   2953     172       1  26    0360f a70f      8.190 "
test,1583576005775484928,23," | 23  |   3131       5   3069       0 |   5    0      3055        14 |   1  16    0    0 580f |    2.014       0       5       0       5     16     16      0   2992      77       1  16    0580f a70f      8.280 "
test,1583576005774476032,24," | 24  |   3131       5   3125       2 |   5    9      3100        27 |   1  26   16    0 360f |    2.044       0       5       0       5     26     26      0   3025     102       1  26    0360f a70f      8.190 "
test,1583576005773668096,26," | 26  |   3131       5   3125       2 |   4   10      3116        11 |   5  26   16    1 360f |    1.739       0       4       0       4     26     26      0   3058      69       2  26    1360f a70f      6.510 "
test,1583576005776974848,27," | 27  |   3131       5   3129       0 |   5    0      3040        89 |   2  16    0    0 580f |    2.746       0       5       0       5     16     16      0   2907     222       2  16    0580f a70f      8.850 "
test,1583576005783550976,28," | 28  |   3131       5   3124       3 |   4    3      2890       237 |   2  20   26    0 e30f |    6.927       0       5       0       5     20     20      0   2775     352       8  20    0e30f a70f     13.650 "
test,1583576005786395136,29," | 29  |   3131       4   3124       5 |   3    0      2785       344 |   3  16    0    0 580f |    4.943       0       5       0       5     16     16      0   2636     493       5  16    0580f a70f     12.600 "
test,1583576005780632064,30," | 30  |   3131       5   3127       0 |   5    0      3083        44 |   1  20    0    0 e30f |    6.225       0       5       0       5     20     20      0   2975     152       7  20    0e30f a70f     12.360 "
test,1583576005781091840,35," | 35  |   3131       5   3127       0 |   5    0      2983       144 |   2  20    0    0 e30f |    6.927       0       5       0       5     20     20      0   2919     208       8  20    0e30f a70f     13.080 "
test,1583576005797265152,40," | 40  |   3131       5   3065      58 |   5    5      2917       206 |   3  26   16    0 360f |    4.974       0       1       0       1     26     26      0   2838     285       5  26    0360f a70f     30.300 "
test,1583576005775101952,41," | 41  |   3131       5   3061      56 |   5    0      3084        33 |   1  16    0    0 580f |    2.014       0       5       0       5     16     16      0   3001     116       1  16    0580f a70f      8.250 "
test,1583576005779230976,42," | 42  |   3131       5   3068      59 |   5    0      3048        79 |   2  16    0    0 580f |    2.746       0       5       0       5     16     16      0   2967     160       2  16    0580f a70f      9.510 "
test,1583576005795507968,44," | 44  |   3131       5   3072      55 |   5    5      3051        76 |   1  26   16    0 360f |    2.014       0       3       0       3     26     26      0   2986     141       1  26    0360f a70f     30.390 "
test,1583576005796286976,45," | 45  |   3131       5   3086      41 |   5    2      3026       101 |   1  16   26    0 580f |    2.014       0       4       0       4     16     16      0   2965     162       1  16    0580f a70f     30.270 "
test,1583576005778503936,46," | 46  |   3131       5   3065      55 |   5    0      2975       145 |   2  16    0    0 580f |    2.777       0       5       0       5     16     16      0   2913     207       2  16    0580f a70f      8.850 "
test,1583576005777609984,47," | 47  |   3131       5   3072      55 |   5    1      3017       110 |   2  16   26    0 580f |    2.746       0       5       0       5     16     16      0   2948     179       2  16    0580f a70f      8.820 "
test,1583576005797059072,48," | 48  |   3131       5   3007      53 |   5    6      2981        79 |   2  26   16    0 360f |    2.777       0       2       0       2     26     26      0   2917     143       2  26    0360f a70f     30.360 "
test,1583576005775664128,49," | 49  |   3131       5   3121       0 |   5    0      3065        56 |   1  55    0    0 1c0f |    1.953       0       5       0       5     55     55      0   3036      85       1  55    01c0f a70f      8.160 "
test,1583576005791752960,51," | 51  |   3131       5   3122       0 |   0   14      3096        26 |   0  51   26    1 5e0f |    0           0       0       0       8      0      0      0   3083      39       0  51    15e0f a70f     30.210 "
test,1583576005777745920,52," | 52  |   3131       4   3100      23 |   5    0      2973       150 |   2  16    0    0 580f |    2.777       0       5       0       5     16     16      0   2915     208       2  16    0580f a70f      8.820 "
test,1583576005778178816,53," | 53  |   3131       5   3105       0 |   5    0      2950       155 |   1  55    0    0 1c0f |    1.983       0       5       0       5     55     55      0   2911     194       1  55    01c0f a70f      8.190 "
test,1583576005779959808,54," | 54  |   3131       5   3123       0 |   5    0      3070        53 |   4  20    0    0 e30f |    4.211       0       5       0       5     20     20      0   3018     105       4  20    0e30f a70f     10.380 "
test,1583576005784509952,55," | 55  |   3131       5   3110       0 |   4    0      2999       111 |   2  55    0    1 1c0f |    1.770       0       4       0       4     55     55      0   2970     140       2  55    11c0f a70f      6.510 "
test,1583576005794776832,56," | 56  |   3131       5   3113       0 |   5    0      3061        52 |   4  20    0    0 e30f |    7.873       0       1       0       1     20     20      0   3030      83       9  20    0e30f a70f     30.360 "
test,1583576005785379840,57," | 57  |   3131       5   3068       0 |   5    6      2994        74 |   1  26   20    0 360f |    2.044       0       5       0       5     26     26      0   2813     255       1  26    0360f a70f      8.250 "
test,1583576005773915136,58," | 58  |   3131       5   3122       0 |   5    0      3082        40 |   1  55    0    0 1c0f |    2.014       0       5       0       5     55     55      0   2948     174       1  55    01c0f a70f      8.250 "
test,1583576005780438016,5," |  5  |   3131       5   3129       0 |   5    0      2866       263 |   2  20    0    0 e30f |    2.746       0       5       0       5     20     20      0   2808     321       2  20    0e30f a70f      9.600 "
test,1583576005793960960,60," | 60  |   3131       5   3122       0 |   4    7      2918       204 |   6  20   51    0 e30f |    0           0       0       0       8      0      0      0   2864     258       0  20    0e30f a70f     30.390 "
test,1583576005778917120,61," | 61  |   3131       5   3121       0 |   1    7      2987       134 |   2  55   26    0 1c0f |    2.746       0       5       0       5     55     55      0   2891     230       2  55    01c0f a70f      8.970 "
test,1583576005781954048,7," |  7  |   3131       5   3128       0 |   5    0      3077        51 |   4  20    0    0 e30f |    3.448       0       5       0       5     20     20      0   3058      70       3  20    0e30f a70f      9.630 "
test,1583576005778713856,9," |  9  |   3131       5   3127       0 |   5    0      3011       116 |   4  20    0    0 e30f |    3.479       0       5       0       5     20     20      0   2995     132       3  20    0e30f a70f      9.540 "
