test,1583576187527138048,10," | 10  |   3858       5   3830       0 |   5    0      3765        65 |   1  56    0    0 420f |    2.014       0       5       0       5     56     56      0   3716     114       1  56    0420f a70f      9.000 "
test,1583576187526705920,12," | 12  |   3858       5   3856       0 |   5    0      3825        31 |   5  56    0    0 420f |    2.716       0       5       0       5     56     56      0   3762      94       2  56    0420f a70f     11.700 "
test,1583576187536427008,13," | 13  |   3858       5   3854       0 |   5    0      3828        26 |   1  56    0    0 420f |    2.746       0       5       0       5     56     56      0   3780      74       2  56    0420f a70f     11.730 "
test,1583576187551030016,15," | 15  |   3858       5   3856       0 |   0    5      3712       144 |   0  15   56    1 be0f |    0           0       0       0       8      0      0      0   3542     314       0  15    1be0f a70f     30.210 "
test,1583576187532828160,16," | 16  |   3858       5   3854       0 |   5    1      3716       138 |   3  56   45    0 420f |    3.448       0       5       0       5     56     56      0   3611     243       3  56    0420f a70f      9.600 "
test,1583576187533446912,17," | 17  |   3858       5   3849       5 |   5    0      3808        46 |   3  56    0    0 420f |    3.417       0       5       0       5     56     56      0   3689     165       3  56    0420f a70f     11.040 "
test,1583576187531202048,18," | 18  |   3858       5   3853       0 |   5    0      3640       213 |   3  56    0    0 420f |    3.479       0       5       0       5     56     56      0   3481     372       3  56    0420f a70f     10.380 "
test,1583576187533088000,19," | 19  |   3858       5   3845       9 |   5    0      3795        59 |   4  56    0    0 420f |    3.479       0       5       0       5     56     56      0   3677     177       3  56    0420f a70f     11.760 "
test,1583576187548131072,1," |  1  |   3858       4   3855       0 |   0   12      3764        91 |   0   1   56    1 c00f |    0           0       0       0       8      0      0      0   3735     120       0   1    1c00f a70f     30.180 "
test,1583576187532654080,22," | 22  |   3858       5   3852       0 |   3    2      3823        29 |   4  56   35    0 420f |    3.448       0       5       0       5     56     56      0   3641     211       3  56    0420f a70f     10.350 "
test,1583576187528753152,23," | 23  |   3858       5   3796       0 |   5    0      3777        19 |   2  56    0    0 420f |    2.746       0       5       0       5     56     56      0   3693     103       2  56    0420f a70f      8.820 "
test,1583576187530778880,24," | 24  |   3858       5   3852       2 |   5    0      3819        35 |   2  56    0    0 420f |    3.479       0       5       0       5     56     56      0   3721     133       3  56    0420f a70f      9.540 "
test,1583576187530030080,26," | 26  |   3858       5   3852       2 |   5    0      3839        15 |   2  56    0    0 420f |    2.716       0       5       0       5     56     56      0   3766      88       2  56    0420f a70f      8.940 "
test,1583576187539715072,27," | 27  |   3858       4   3856       0 |   5    0      3747       109 |   4  56    0    0 420f |    3.479       0       5       0       5     56     56      0   3588     268       3  56    0420f a70f     11.760 "
test,1583576187548800000,28," | 28  |   3858       4   3850       4 |   0    2      3555       299 |   0  28   56    1 a60f |    0           0       0       0       8      0      0      0   3408     446       0  28    1a60f a70f     30.150 "
test,1583576187551707904,29," | 29  |   3858       4   3851       5 |   4    0      3429       427 |   5  56    0    0 420f |    4.180       0       3       0       3     56     56      0   3251     605       4  56    0420f a70f     30.360 "
test,1583576187546355968,30," | 30  |   3858       5   3853       1 |   1    8      3801        53 |   1  28   35    0 a60f |    0           0       0       0       8      0      0      0   3660     194       0  28    0a60f a70f     30.360 "
test,1583576187546796032,35," | 35  |   3858       5   3853       1 |   0    2      3664       190 |   0  35   56    1 230f |    0           0       0       0       8      0      0      0   3583     271       0  35    1230f a70f     30.150 "
test,1583576187551917056,40," | 40  |   3858       5   3790      60 |   1    0      3611       239 |   1  45    0    0 300f |    2.014       0       2       0       2     45     45      0   3513     337       1  45    0300f a70f     30.390 "
test,1583576187549548032,41," | 41  |   3858       5   3785      59 |   1    2      3808        36 |   1  45   56    0 300f |    2.075       0       2       0       2     45     45      0   3709     135       1  45    0300f a70f     30.300 "
test,1583576187548994048,42," | 42  |   3858       5   3793      61 |   1    4      3767        87 |   1  45   56    0 300f |    2.075       0       2       0       2     45     45      0   3670     184       1  45    0300f a70f     30.300 "
test,1583576187549758976,44," | 44  |   3858       5   3797      57 |   1    5      3765        89 |   1  45   56    0 300f |    2.014       0       2       0       2     45     45      0   3685     169       1  45    0300f a70f     30.390 "
test,1583576187551304960,45," | 45  |   3858       5   3811      43 |   1    3      3731       123 |   2  45   56    1 300f |    1.739       0       2       0       2     45     45      0   3661     193       2  45    1300f a70f     30.300 "
test,1583576187552315904,46," | 46  |   3858       5   3790      57 |   1    0      3671       176 |   2  45    0    0 300f |    2.014       0       2       0       2     45     45      0   3596     251       1  45    0300f a70f     30.390 "
test,1583576187548494080,47," | 47  |   3858       5   3797      57 |   1    2      3720       134 |   2  45   56    0 300f |    2.014       0       2       0       2     45     45      0   3643     211       1  45    0300f a70f     30.390 "
test,1583576187550284032,48," | 48  |   3858       5   3732      55 |   1    2      3695        92 |   1  45   56    0 300f |    2.075       0       2       0       2     45     45      0   3618     169       1  45    0300f a70f     30.300 "
test,1583576187528513792,49," | 49  |   3858       5   3848       0 |   5    0      3777        71 |   1  55    0    0 780f |    1.953       0       5       0       5     55     55      0   3744     104       1  55    0780f a70f      8.790 "
test,1583576187529242112,51," | 51  |   3858       5   3849       0 |   5    0      3811        38 |   1  56    0    0 420f |    2.014       0       5       0       5     56     56      0   3795      54       1  56    0420f a70f      8.250 "
test,1583576187529655040,52," | 52  |   3858       5   3827      23 |   5    0      3669       181 |   3  56    0    0 420f |    3.479       0       5       0       5     56     56      0   3592     258       3  56    0420f a70f      9.570 "
test,1583576187529864192,53," | 53  |   3858       5   3832       0 |   5    0      3634       198 |   1  55    0    0 780f |    1.983       0       5       0       5     55     55      0   3590     242       1  55    0780f a70f      8.100 "
test,1583576187531856896,54," | 54  |   3858       5   3850       0 |   5    0      3783        67 |   5  56    0    0 420f |    2.685       0       5       0       5     56     56      0   3720     130       2  56    0420f a70f     11.070 "
test,1583576187529065984,55," | 55  |   3858       5   3837       0 |   4    0      3696       141 |   2  55    0    1 780f |    1.739       0       4       0       4     55     55      0   3663     174       2  55    1780f a70f      6.510 "
test,1583576187528038912,56," | 56  |   3858       5   3840       0 |   4    0      3781        59 |   3  56    0    1 420f |    1.739       0       4       0       4     56     56      0   3741      99       2  56    1420f a70f      6.480 "
test,1583576187554305024,57," | 57  |   3858       5   3795       0 |   5    0      3699        96 |   1  56    0    0 420f |    1.983       0       2       0       2     56     56      0   3474     321       1  56    0420f a70f     30.270 "
test,1583576187532154112,58," | 58  |   3858       5   3849       0 |   4    0      3797        52 |   9  56    0    0 420f |    2.716       0       5       0       5     56     56      0   3629     220       2  56    0420f a70f     11.820 "
test,1583576187547734016,5," |  5  |   3858       5   3856       0 |   0    7      3516       340 |   0   5   56    1 330f |    0           0       0       0       8      0      0      0   3449     407       0   5    1330f a70f     30.150 "
test,1583576187531030016,60," | 60  |   3858       5   3849       0 |   5    0      3605       244 |   2  56    0    0 420f |    2.746       0       5       0       5     56     56      0   3538     311       2  56    0420f a70f      8.820 "
test,1583576187534420992,61," | 61  |   3858       5   3848       0 |   5    0      3673       175 |   6  56    0    0 420f |    2.014       0       5       0       5     56     56      0   3549     299       1  56    0420f a70f     11.760 "
test,1583576187531517952,7," |  7  |   3858       5   3855       0 |   5    0      3795        60 |   4  56    0    0 420f |    2.746       0       5       0       5     56     56      0   3771      84       2  56    0420f a70f     11.730 "
test,1583576187537026048,9," |  9  |   3858       5   3854       0 |   5    0      3713       141 |   5  56    0    0 420f |    2.746       0       5       0       5     56     56      0   3694     160       2  56    0420f a70f     11.790 "
