test,1583575985528736000,10," | 10  |   3050       5   3022       0 |   5    0      2975        47 |   1   1    0    0 c00f |    1.342       0       5       0       5      1      1      0   2931      91       1   1    0c00f a70f      8.310 "
test,1583575985523396864,12," | 12  |   3050       5   3048       0 |   5    0      3021        27 |   1   1    0    0 c00f |    1.373       0       5       0       5      1      1      0   2971      77       1   1    0c00f a70f      7.530 "
test,1583575985528336128,13," | 13  |   3050       5   3046       0 |   5    0      3023        23 |   1   1    0    0 c00f |    1.342       0       5       0       5      1      1      0   2985      61       1   1    0c00f a70f      7.620 "
test,1583575985526735104,15," | 15  |   3050       5   3048       0 |   5    0      2931       117 |   2   1    0    0 c00f |    2.105       0       5       0       5      1      1      0   2806     242       2   1    0c00f a70f      8.280 "
test,1583575985527405056,16," | 16  |   3050       5   3046       0 |   5    0      2938       108 |   1  41    0    0 5c0f |    3.540       0       5       0       5     41     41      0   2864     182       3  41    05c0f a70f     11.070 "
test,1583575985526578944,17," | 17  |   3050       5   3041       5 |   5    0      3013        33 |   1  41    0    0 5c0f |    2.044       0       5       0       5     41     41      0   2921     125       1  41    05c0f a70f      8.190 "
test,1583575985547385088,18," | 18  |   3050       5   3045       0 |   5   12      2879       166 |   2  42   41    0 280f |    2.807       0       1       0       1     42     42      0   2750     295       2  42    0280f a70f     30.330 "
test,1583575985525912064,19," | 19  |   3050       5   3037       9 |   5    0      2997        49 |   2  41    0    0 5c0f |    2.807       0       5       0       5     41     41      0   2906     140       2  41    05c0f a70f      9.750 "
test,1583575985522298112,1," |  1  |   3050       4   3047       0 |   4    0      2978        69 |   2   1    0    1 c00f |    1.739       0       4       0       4      1      1      0   2957      90       2   1    1c00f a70f      6.480 "
test,1583575985530561024,22," | 22  |   3050       5   3044       0 |   5    0      3019        25 |   3  41    0    0 5c0f |    2.746       0       5       0       5     41     41      0   2878     166       2  41    05c0f a70f     11.100 "
test,1583575985530091008,23," | 23  |   3050       5   2988       0 |   5    0      2974        14 |   2  41    0    0 5c0f |    4.211       0       5       0       5     41     41      0   2915      73       4  41    05c0f a70f     10.380 "
test,1583575985528958208,24," | 24  |   3050       5   3044       2 |   5    0      3019        27 |   4  41    0    0 5c0f |    2.807       0       5       0       5     41     41      0   2947      99       2  41    05c0f a70f     11.130 "
test,1583575985529381120,26," | 26  |   3050       5   3044       2 |   5    0      3035        11 |   2  41    0    0 5c0f |    2.746       0       5       0       5     41     41      0   2979      67       2  41    05c0f a70f     10.410 "
test,1583575985527610112,27," | 27  |   3050       5   3048       0 |   5    0      2961        87 |   3  41    0    0 5c0f |    3.540       0       5       0       5     41     41      0   2836     212       3  41    05c0f a70f      9.690 "
test,1583575985544785920,28," | 28  |   3050       5   3043       3 |   0    2      2814       232 |   0  28   41    1 8b0f |    0           0       0       0       8      0      0      0   2704     342       0  28    18b0f a70f     30.150 "
test,1583575985547161088,29," | 29  |   3050       5   3043       5 |   4    0      2713       335 |   3  41    0    0 5c0f |    3.509       0       4       0       4     41     41      0   2571     477       3  41    05c0f a70f     30.270 "
test,1583575985539828992,30," | 30  |   3050       5   3046       0 |   5    0      3005        41 |   1  20    0    0 770f |   12.695       0       5       0       5     20     20      0   2904     142      16  20    0770f a70f     18.720 "
test,1583575985541136896,35," | 35  |   3050       5   3046       0 |   5    0      2906       140 |   2  20    0    0 770f |   13.397       0       5       0       5     20     20      0   2846     200      17  20    0770f a70f     19.320 "
test,1583575985529156096,40," | 40  |   3050       5   2984      58 |   5    0      2843       199 |   7  41    0    0 5c0f |    2.014       0       5       0       5     41     41      0   2764     278       1  41    05c0f a70f     10.380 "
test,1583575985522564864,41," | 41  |   3050       5   2980      56 |   4    0      3004        32 |   9  41    0    1 5c0f |    1.739       0       4       0       4     41     41      0   2922     114       2  41    15c0f a70f      6.510 "
test,1583575985552276992,42," | 42  |   3050       5   2987      59 |   4    9      2968        78 |   5  42   41    1 280f |    1.739       0       1       0       1     42     42      0   2889     157       2  42    1280f a70f     30.300 "
test,1583575985531449088,44," | 44  |   3050       5   2991      55 |   5    0      2971        75 |   2  41    0    0 5c0f |    2.746       0       5       0       5     41     41      0   2907     139       2  41    05c0f a70f      9.660 "
test,1583575985524377088,45," | 45  |   3050       5   3005      41 |   5    0      2947        99 |   1  41    0    0 5c0f |    2.014       0       5       0       5     41     41      0   2888     158       1  41    05c0f a70f      8.220 "
test,1583575985526885888,46," | 46  |   3050       5   2984      55 |   4    9      2900       139 |   1  41   42    0 5c0f |    2.014       0       5       0       5     41     41      0   2839     200       1  41    05c0f a70f      8.280 "
test,1583575985547544064,47," | 47  |   3050       5   2991      55 |   5    7      2937       109 |   1  42   41    0 280f |    2.044       0       1       0       1     42     42      0   2869     177       1  42    0280f a70f     30.390 "
test,1583575985532476928,48," | 48  |   3050       5   2926      53 |   4    9      2901        78 |   9  41   42    0 5c0f |    3.479       0       5       0       5     41     41      0   2837     142       3  41    05c0f a70f     11.670 "
test,1583575985525746176,49," | 49  |   3050       5   3040       0 |   5    0      2987        53 |   1  53    0    0 bd0f |    2.075       0       5       0       5     53     53      0   2958      82       1  53    0bd0f a70f      8.310 "
test,1583575985526132224,51," | 51  |   3050       5   3041       0 |   5    0      3016        25 |   2   1    0    0 c00f |    2.075       0       5       0       5      1      1      0   3004      37       2   1    0c00f a70f      8.160 "
test,1583575985545332992,52," | 52  |   3050       5   3019      23 |   0    6      2894       148 |   0  52   41    1 2c0f |    0           0       0       1       1      0     52      0   2838     204      14  52    12c0f a70f     30.270 "
test,1583575985526340096,53," | 53  |   3050       5   3024       0 |   4    0      2873       151 |   2  53    0    1 bd0f |    1.739       0       4       0       4     53     53      0   2836     188       2  53    1bd0f a70f      6.510 "
test,1583575985524158976,54," | 54  |   3050       5   3042       0 |   5    0      2990        52 |   1   1    0    0 c00f |    1.342       0       5       0       5      1      1      0   2941     101       1   1    0c00f a70f      8.280 "
test,1583575985546065920,55," | 55  |   3050       5   3029       0 |   4    3      2920       109 |  14  55   53    1 960f |   10.284       0       3       0       3     55     55      0   2893     136      14  55    1960f a70f     30.270 "
test,1583575985525382912,56," | 56  |   3050       5   3032       0 |   5    0      2983        49 |   2   1    0    0 c00f |    2.105       0       5       0       5      1      1      0   2952      80       2   1    0c00f a70f      8.310 "
test,1583575985533895936,57," | 57  |   3050       5   2987       0 |   1    5      2914        73 |   3   1   55    0 c00f |    2.838       0       5       0       5      1      1      0   2739     248       3   1    0c00f a70f      9.000 "
test,1583575985533307136,58," | 58  |   3050       5   3041       0 |   5    4      3003        38 |   1  55    1    0 960f |    2.044       0       5       0       5     55     55      0   2874     167       1  55    0960f a70f     13.650 "
test,1583575985544996096,5," |  5  |   3050       5   3048       0 |   0    5      2794       254 |   0   5    1    1 510f |    0           0       0       0       8      0      0      0   2738     310       0   5    1510f a70f     30.150 "
test,1583575985527906048,60," | 60  |   3050       5   3041       0 |   5    0      2844       197 |   3   1    0    0 c00f |    2.838       0       5       0       5      1      1      0   2792     249       3   1    0c00f a70f      8.940 "
test,1583575985536108032,61," | 61  |   3050       5   3040       0 |   4    4      2909       131 |   2   1   55    0 c00f |    2.075       0       5       0       5      1      1      0   2818     222       2   1    0c00f a70f      8.160 "
test,1583575985522819072,7," |  7  |   3050       5   3047       0 |   5    0      2997        50 |   2   1    0    0 c00f |    1.312       0       5       0       5      1      1      0   2980      67       1   1    0c00f a70f      7.410 "
test,1583575985523563008,9," |  9  |   3050       5   3046       0 |   5    0      2932       114 |   2   1    0    0 c00f |    1.312       0       5       0       5      1      1      0   2918     128       1   1    0c00f a70f      7.590 "
