test,1583576052276710144,10," | 10  |   3317       5   3289       0 |   5    0      3234        55 |   1  51    0    0 780f |    2.075       0       5       0       5     51     51      0   3189     100       1  51    0780f a70f      9.690 "
test,1583576052281800960,12," | 12  |   3317       5   3315       0 |   5    0      3288        27 |   3  51    0    0 780f |    3.479       0       5       0       5     51     51      0   3234      81       3  51    0780f a70f     10.410 "
test,1583576052303746816,13," | 13  |   3317       5   3313       0 |   3    3      3289        24 |  17  13   51    1 c10f |   10.284       0       1       0       1     13     13      0   3247      66      14  13    1c10f a70f     30.240 "
test,1583576052284406784,15," | 15  |   3317       5   3315       0 |   5    0      3191       124 |   4  51    0    0 780f |    4.241       0       5       0       5     51     51      0   3046     269       4  51    0780f a70f     11.160 "
test,1583576052279508992,16," | 16  |   3317       5   3313       0 |   5    0      3191       122 |   1  17    0    0 5a0f |    2.014       0       5       0       5     17     17      0   3108     205       1  17    05a0f a70f      8.940 "
test,1583576052275974912,17," | 17  |   3317       5   3308       5 |   4    0      3275        38 |   4  17    0    1 5a0f |    1.739       0       4       0       4     17     17      0   3173     140       2  17    15a0f a70f      6.480 "
test,1583576052278881024,18," | 18  |   3317       5   3312       0 |   5    0      3127       185 |   2  17    0    0 5a0f |    2.746       0       5       0       5     17     17      0   2987     325       2  17    05a0f a70f      8.790 "
test,1583576052278310144,19," | 19  |   3317       5   3304       9 |   5    0      3260        53 |   1  17    0    0 5a0f |    2.014       0       5       0       5     17     17      0   3157     156       1  17    05a0f a70f      9.720 "
test,1583576052277894912,1," |  1  |   3317       4   3314       0 |   5    0      3238        76 |   2  51    0    0 780f |    3.448       0       5       0       5     51     51      0   3214     100       2  51    0780f a70f      9.660 "
test,1583576052277190912,22," | 22  |   3317       5   3311       0 |   5    0      3286        25 |   1  17    0    0 5a0f |    2.014       0       5       0       5     17     17      0   3131     180       1  17    05a0f a70f      8.940 "
test,1583576052280500992,23," | 23  |   3317       5   3255       0 |   5    0      3239        16 |   1  17    0    0 5a0f |    2.014       0       5       0       5     17     17      0   3172      83       1  17    05a0f a70f      9.510 "
test,1583576052275814144,24," | 24  |   3317       5   3311       2 |   5    0      3285        28 |   1  17    0    0 5a0f |    2.014       0       5       0       5     17     17      0   3203     110       1  17    05a0f a70f      8.970 "
test,1583576052274629120,26," | 26  |   3317       5   3311       2 |   5    0      3301        12 |   1  17    0    0 5a0f |    2.044       0       5       0       5     17     17      0   3240      73       1  17    05a0f a70f      8.280 "
test,1583576052298744832,27," | 27  |   3317       5   3315       0 |   5    0      3222        93 |   1  17    0    0 5a0f |    2.014       0       4       0       4     17     17      0   3079     236       1  17    05a0f a70f     30.360 "
test,1583576052279784960,28," | 28  |   3317       5   3310       3 |   5    0      3061       252 |   1  17    0    0 5a0f |    1.983       0       5       0       5     17     17      0   2940     373       1  17    05a0f a70f     10.380 "
test,1583576052298471936,29," | 29  |   3317       4   3310       5 |   5    0      2951       364 |   2  17    0    0 5a0f |    2.777       0       4       0       4     17     17      0   2793     522       2  17    05a0f a70f     30.330 "
test,1583576052281614080,30," | 30  |   3317       5   3313       0 |   5    0      3265        48 |   3  17    0    0 5a0f |    2.746       0       5       0       5     17     17      0   3148     165       2  17    05a0f a70f     10.260 "
test,1583576052277679872,35," | 35  |   3317       5   3313       0 |   5    0      3161       152 |   2  17    0    0 5a0f |    2.746       0       5       0       5     17     17      0   3091     222       2  17    05a0f a70f      9.660 "
test,1583576052283143168,40," | 40  |   3317       5   3250      59 |   5    0      3096       213 |   2  17    0    0 5a0f |    3.509       0       5       0       5     17     17      0   3010     299       3  17    05a0f a70f     10.290 "
test,1583576052288743936,41," | 41  |   3317       5   3246      57 |   5    0      3267        36 |   1  17    0    0 5a0f |    2.014       0       5       0       5     17     17      0   3179     124       1  17    05a0f a70f      8.880 "
test,1583576052282237952,42," | 42  |   3317       5   3253      60 |   5    0      3232        81 |   2  17    0    0 5a0f |    2.746       0       5       0       5     17     17      0   3145     168       2  17    05a0f a70f      8.970 "
test,1583576052286664960,44," | 44  |   3317       5   3257      56 |   5    0      3234        79 |   2  17    0    0 5a0f |    2.777       0       5       0       5     17     17      0   3163     150       2  17    05a0f a70f      9.510 "
test,1583576052281997824,45," | 45  |   3317       5   3271      42 |   5    0      3208       105 |   2  17    0    0 5a0f |    2.777       0       5       0       5     17     17      0   3144     169       2  17    05a0f a70f      8.970 "
test,1583576052280303872,46," | 46  |   3317       5   3250      56 |   5    0      3154       152 |   2  17    0    0 5a0f |    2.746       0       5       0       5     17     17      0   3086     220       2  17    05a0f a70f      8.940 "
test,1583576052280713984,47," | 47  |   3317       5   3257      56 |   5    0      3197       116 |   2  17    0    0 5a0f |    2.777       0       5       0       5     17     17      0   3126     187       2  17    05a0f a70f      8.850 "
test,1583576052282722048,48," | 48  |   3317       5   3192      54 |   5    0      3162        84 |   2  17    0    0 5a0f |    2.746       0       5       0       5     17     17      0   3095     151       2  17    05a0f a70f      8.940 "
test,1583576052275188992,49," | 49  |   3317       5   3307       0 |   5    0      3246        61 |   7  53    0    0 940f |    2.044       0       5       0       5     53     53      0   3216      91       1  53    0940f a70f      8.250 "
test,1583576052274424064,51," | 51  |   3317       5   3308       0 |   4    0      3279        29 |   2  51    0    1 780f |    1.739       0       4       0       4     51     51      0   3266      42       2  51    1780f a70f      6.480 "
test,1583576052281338880,52," | 52  |   3317       5   3286      23 |   5    0      3152       157 |   2  17    0    0 5a0f |    4.180       0       5       0       5     17     17      0   3088     221       4  17    05a0f a70f     10.230 "
test,1583576052277350912,53," | 53  |   3317       5   3291       0 |   4    0      3125       166 |   8  53    0    1 940f |    1.739       0       4       0       4     53     53      0   3085     206       2  53    1940f a70f      6.510 "
test,1583576052296765952,54," | 54  |   3317       5   3309       0 |   1   14      3253        56 |   1  58   13    0 100f |    2.014       0       4       0       4     58     58      0   3200     109       1  58    0100f a70f     30.360 "
test,1583576052278092032,55," | 55  |   3317       5   3296       0 |   5    0      3173       123 |   7  53    0    0 940f |    2.014       0       5       0       5     53     53      0   3143     153       1  53    0940f a70f      8.220 "
test,1583576052276425984,56," | 56  |   3317       5   3299       0 |   5    0      3246        53 |   1  51    0    0 780f |    2.014       0       5       0       5     51     51      0   3212      87       1  51    0780f a70f      8.220 "
test,1583576052296968960,57," | 57  |   3317       5   3254       0 |   1    2      3172        82 |   3  58   17    0 100f |    2.044       0       3       0       3     58     58      0   2978     276       1  58    0100f a70f     30.360 "
test,1583576052285232896,58," | 58  |   3317       5   3308       0 |   1    2      3264        44 |   2  58   53    1 100f |    8.117       0       4       0       4     58     58      0   3123     185      11  58    1100f a70f     12.750 "
test,1583576052283934976,5," |  5  |   3317       5   3315       0 |   5    2      3029       286 |   1  13   51    0 c10f |    2.014       0       5       0       5     13     13      0   2970     345       1  13    0c10f a70f     10.830 "
test,1583576052274971136,60," | 60  |   3317       5   3308       0 |   5    0      3094       214 |   1  51    0    0 780f |    2.014       0       5       0       5     51     51      0   3037     271       1  51    0780f a70f      8.220 "
test,1583576052278727168,61," | 61  |   3317       5   3307       0 |   2    3      3161       146 |   1  58   51    0 100f |    2.075       0       5       0       5     58     58      0   3060     247       1  58    0100f a70f     10.230 "
test,1583576052278522880,7," |  7  |   3317       5   3314       0 |   5    0      3260        54 |   3  51    0    0 780f |    3.540       0       5       0       5     51     51      0   3242      72       3  51    0780f a70f      9.660 "
test,1583576052276967168,9," |  9  |   3317       5   3313       0 |   5    0      3190       123 |   2  51    0    0 780f |    2.746       0       5       0       5     51     51      0   3173     140       2  51    0780f a70f      8.970 "
