test,1583576088297867008,10," | 10  |   3461       5   3433       0 |   5    0      3375        58 |   1   1    0    0 3a0f |    1.373       0       5       0       5      1      1      0   3327     106       1   1    03a0f a70f      7.530 "
test,1583576088282865920,12," | 12  |   3461       5   3459       0 |   5    0      3430        29 |   1   1    0    0 3a0f |    1.373       0       5       0       5      1      1      0   3375      84       1   1    03a0f a70f      7.560 "
test,1583576088275855104,13," | 13  |   3461       5   3457       0 |   5    0      3433        24 |   1   1    0    0 3a0f |    1.373       0       5       0       5      1      1      0   3389      68       1   1    03a0f a70f      7.650 "
test,1583576088271987968,15," | 15  |   3461       5   3459       0 |   5    0      3328       131 |   2   1    0    0 3a0f |    2.075       0       5       0       5      1      1      0   3178     281       2   1    03a0f a70f      8.310 "
test,1583576088280331008,16," | 16  |   3461       5   3457       0 |   3    0      3329       128 |   3  17    0    0 650f |    3.479       0       5       0       5     17     17      0   3238     219       3  17    0650f a70f      9.570 "
test,1583576088277668864,17," | 17  |   3461       5   3452       5 |   5    0      3415        42 |   2  17    0    1 650f |    1.739       0       4       0       4     17     17      0   3306     151       2  17    1650f a70f      6.480 "
test,1583576088290129920,18," | 18  |   3461       5   3456       0 |   4    1      3260       196 |   4  17   40    0 650f |    2.777       0       5       0       5     17     17      0   3115     341       2  17    0650f a70f      8.820 "
test,1583576088277408000,19," | 19  |   3461       5   3448       9 |   5    0      3402        55 |   1  17    0    0 650f |    2.044       0       5       0       5     17     17      0   3291     166       1  17    0650f a70f      7.980 "
test,1583576088275057920,1," |  1  |   3461       4   3458       0 |   5    0      3380        78 |   2   1    0    1 3a0f |    1.739       0       4       0       4      1      1      0   3353     105       2   1    13a0f a70f      6.480 "
test,1583576088284132864,22," | 22  |   3461       5   3455       0 |   5    0      3429        26 |   4  17    0    0 650f |    3.509       0       5       0       5     17     17      0   3266     189       3  17    0650f a70f      9.600 "
test,1583576088281147904,23," | 23  |   3461       5   3399       0 |   5    0      3382        17 |   3  17    0    0 650f |    2.777       0       5       0       5     17     17      0   3310      89       2  17    0650f a70f      9.000 "
test,1583576088279474944,24," | 24  |   3461       5   3455       2 |   5    0      3425        32 |   1  17    0    0 650f |    2.014       0       5       0       5     17     17      0   3338     119       1  17    0650f a70f      8.820 "
test,1583576088276468992,26," | 26  |   3461       5   3455       2 |   5    0      3444        13 |   1  17    0    0 650f |    2.044       0       5       0       5     17     17      0   3379      78       1  17    0650f a70f      8.280 "
test,1583576088289225216,27," | 27  |   3461       5   3459       0 |   5    0      3364        95 |   1  17    0    0 650f |    2.746       0       5       0       5     17     17      0   3214     245       2  17    0650f a70f      9.540 "
test,1583576088283196928,28," | 28  |   3461       4   3454       3 |   5    0      3191       266 |   1  17    0    0 650f |    2.044       0       5       0       5     17     17      0   3068     389       1  17    0650f a70f      9.690 "
test,1583576088302118912,29," | 29  |   3461       4   3454       5 |   0    3      3075       384 |   0  29   17    1 8d0f |    0           0       0       0       8      0      0      0   2909     550       0  29    18d0f a70f     30.180 "
test,1583576088286052096,30," | 30  |   3461       5   3457       0 |   5    0      3407        50 |   2  17    0    0 650f |    4.241       0       5       0       5     17     17      0   3285     172       4  17    0650f a70f     11.160 "
test,1583576088291575808,35," | 35  |   3461       5   3457       0 |   5    0      3296       161 |   3  17    0    0 650f |    4.180       0       5       0       5     17     17      0   3224     233       4  17    0650f a70f     10.380 "
test,1583576088279131904,40," | 40  |   3461       5   3393      60 |   4    0      3232       221 |   4  40    0    1 310f |    1.770       0       4       0       4     40     40      0   3144     309       2  40    1310f a70f      6.510 "
test,1583576088278494976,41," | 41  |   3461       5   3389      58 |   5    0      3411        36 |   1  40    0    0 310f |    2.075       0       5       0       5     40     40      0   3321     126       1  40    0310f a70f      8.160 "
test,1583576088282629888,42," | 42  |   3461       5   3396      61 |   5    0      3374        83 |   2  40    0    0 310f |    2.044       0       5       0       5     40     40      0   3286     171       1  40    0310f a70f      9.540 "
test,1583576088278875136,44," | 44  |   3461       5   3400      57 |   5    0      3378        79 |   1  40    0    0 310f |    2.075       0       5       0       5     40     40      0   3306     151       1  40    0310f a70f      8.310 "
test,1583576088282294016,45," | 45  |   3461       5   3414      43 |   5    0      3348       109 |   1  40    0    0 310f |    2.105       0       5       0       5     40     40      0   3283     174       1  40    0310f a70f      8.880 "
test,1583576088288250880,46," | 46  |   3461       5   3393      57 |   5    0      3295       155 |   2  40    0    0 310f |    2.075       0       5       0       5     40     40      0   3225     225       1  40    0310f a70f      8.310 "
test,1583576088280736000,47," | 47  |   3461       5   3400      57 |   5    0      3333       124 |   1  40    0    0 310f |    2.075       0       5       0       5     40     40      0   3262     195       1  40    0310f a70f      9.030 "
test,1583576088287239936,48," | 48  |   3461       5   3335      55 |   5    0      3304        86 |   1  40    0    0 310f |    2.075       0       5       0       5     40     40      0   3236     154       1  40    0310f a70f      9.030 "
test,1583576088290605056,49," | 49  |   3461       5   3451       0 |   4    0      3387        64 |   5  49    0    1 b20f |    1.739       0       4       0       4     49     49      0   3356      95       2  49    1b20f a70f      6.510 "
test,1583576088303939072,51," | 51  |   3461       5   3452       0 |   5    0      3417        35 |   2   1    0    0 3a0f |    1.342       0       4       0       4      1      1      0   3403      49       1   1    03a0f a70f     30.360 "
test,1583576088281904896,52," | 52  |   3461       5   3430      23 |   4    0      3285       168 |   2  17    0    0 650f |    2.777       0       5       0       5     17     17      0   3218     235       2  17    0650f a70f      8.820 "
test,1583576088276989952,53," | 53  |   3461       5   3435       0 |   5    0      3264       171 |   4  49    0    0 b20f |    2.044       0       5       0       5     49     49      0   3222     213       1  49    0b20f a70f      8.280 "
test,1583576088281470976,54," | 54  |   3461       5   3453       0 |   5    0      3395        58 |   1   1    0    0 3a0f |    1.403       0       5       0       5      1      1      0   3336     117       1   1    03a0f a70f      7.620 "
test,1583576088297594112,55," | 55  |   3461       5   3440       0 |   0   11      3310       130 |   0  55   56    1 160f |    0           0       0       0       8      0      0      0   3279     161       0  55    1160f a70f     30.180 "
test,1583576088286484992,56," | 56  |   3461       5   3443       0 |   4    7      3389        54 |   5  56    1    1  50f |    8.117       0       4       0       4     56     56      0   3354      89      11  56    1 50f a70f     12.660 "
test,1583576088289789952,57," | 57  |   3461       5   3398       0 |   5    6      3312        86 |   1  56   17    0  50f |    8.392       0       5       0       5     56     56      0   3112     286      10  56    0 50f a70f     14.430 "
test,1583576088300759040,58," | 58  |   3461       5   3452       0 |   5    0      3405        47 |   4  56    0    0  50f |    9.094       0       3       0       3     56     56      0   3259     193      11  56    0 50f a70f     30.390 "
test,1583576088284579072,5," |  5  |   3461       5   3459       0 |   5    0      3161       298 |   2   1    0    0 3a0f |    2.105       0       5       0       5      1      1      0   3099     360       2   1    03a0f a70f      8.310 "
test,1583576088288548096,60," | 60  |   3461       5   3452       0 |   5    5      3233       219 |   1  56    1    0  50f |    9.094       0       5       0       5     56     56      0   3172     280      11  56    0 50f a70f     15.150 "
test,1583576088302828032,61," | 61  |   3461       5   3451       0 |   3   10      3299       152 |   6   1   56    0 3a0f |    3.570       0       1       0       1      1      1      0   3194     257       4   1    03a0f a70f     30.390 "
test,1583576088275512832,7," |  7  |   3461       5   3458       0 |   5    0      3400        58 |   1   1    0    0 3a0f |    1.373       0       5       0       5      1      1      0   3379      79       1   1    03a0f a70f      7.470 "
test,1583576088285428992,9," |  9  |   3461       5   3457       0 |   5    0      3327       130 |   1   1    0    0 3a0f |    1.373       0       5       0       5      1      1      0   3309     148       1   1    03a0f a70f      7.530 "
