test,1583575316019673088,10," | 10  |    372       5    344       0 |   2    6       338         6 |   8   1    9    0 220f |    1.312       0       5       0       5      1      1      0    333      11       1   1    0220f a70f     12.300 "
test,1583575316011400960,12," | 12  |    372       5    370       0 |   5    0       366         4 |   2   1    0    0 220f |    1.342       0       5       0       5      1      1      0    360      10       1   1    0220f a70f     10.140 "
test,1583575316011020800,13," | 13  |    372       5    368       0 |   5    0       362         6 |   2   1    0    0 220f |    1.373       0       5       0       5      1      1      0    356      12       1   1    0220f a70f     10.200 "
test,1583575316028892928,15," | 15  |    372       5    370       0 |   3    2       358        12 |   2  24    1    0 500f |   11.596       0       1       0       1     24     24      0    345      25      14  24    0500f a70f     30.390 "
test,1583575316013073920,16," | 16  |    372       5    368       0 |   5    0       354        14 |   4  24    0    0 500f |    2.746       0       5       0       5     24     24      0    351      17       2  24    0500f a70f     10.380 "
test,1583575316013487104,17," | 17  |    372       5    368       0 |   5    0       364         4 |   4  24    0    0 500f |    2.075       0       5       0       5     24     24      0    351      17       1  24    0500f a70f      8.190 "
test,1583575316010617856,18," | 18  |    372       5    367       0 |   5    0       340        27 |   1  24    0    0 500f |    2.044       0       5       0       5     24     24      0    326      41       1  24    0500f a70f      8.280 "
test,1583575316014137088,19," | 19  |    372       5    367       1 |   5    0       363         5 |   5  24    0    0 500f |    2.807       0       5       0       5     24     24      0    352      16       2  24    0500f a70f      8.880 "
test,1583575316027929088,1," |  1  |    372       4    369       0 |   4    0       362         7 |   3   1    0    1 220f |    0           0       0       0       8      0      0      0    358      11       0   1    1220f a70f     30.240 "
test,1583575316024454144,22," | 22  |    372       5    366       0 |   4    0       362         4 |   1  24    0    0 500f |    2.014       0       5       0       5     24     24      0    350      16       1  24    0500f a70f     10.380 "
test,1583575316006094848,23," | 23  |    372       5    310       0 |   5    0       308         2 |   4  24    0    0 500f |    3.479       0       5       0       5     24     24      0    308       2       3  24    0500f a70f      9.660 "
test,1583575316008398080,24," | 24  |    372       5    368       0 |   4    0       365         3 |   2  24    0    1 500f |    1.739       0       4       0       4     24     24      0    360       8       2  24    1500f a70f      6.510 "
test,1583575316009283072,26," | 26  |    372       5    368       0 |   5    0       366         2 |   1  24    0    0 500f |    2.014       0       5       0       5     24     24      0    360       8       1  24    0500f a70f      8.280 "
test,1583575316011223040,27," | 27  |    372       5    370       0 |   5    0       361         9 |   5  24    0    0 500f |    3.540       0       5       0       5     24     24      0    346      24       3  24    0500f a70f      9.750 "
test,1583575316031852032,28," | 28  |    372       4    368       0 |   5    0       340        28 |   3  24    0    0 500f |    2.777       0       4       0       4     24     24      0    331      37       2  24    0500f a70f     30.390 "
test,1583575316017617920,29," | 29  |    372       5    368       2 |   4    0       328        42 |   8  24    0    0 500f |    3.479       0       5       0       5     24     24      0    305      65       3  24    0500f a70f      9.660 "
test,1583575316014659840,30," | 30  |    372       5    368       0 |   5    0       366         2 |   3  24    0    0 500f |    3.540       0       5       0       5     24     24      0    357      11       3  24    0500f a70f      9.600 "
test,1583575316009989888,35," | 35  |    372       5    368       0 |   5    0       353        15 |   2  24    0    0 500f |    2.807       0       5       0       5     24     24      0    349      19       2  24    0500f a70f      8.910 "
test,1583575316013281024,40," | 40  |    372       5    356       8 |   5    0       331        33 |   1  24    0    0 500f |    2.014       0       5       0       5     24     24      0    322      42       1  24    0500f a70f      9.690 "
test,1583575316012926208,41," | 41  |    372       5    349       9 |   5    0       354         4 |   2  24    0    0 500f |    2.777       0       5       0       5     24     24      0    348      10       2  24    0500f a70f      8.970 "
test,1583575316009666048,42," | 42  |    372       5    358      10 |   5    0       353        15 |   1  24    0    0 500f |    1.983       0       5       0       5     24     24      0    345      23       1  24    0500f a70f      8.250 "
test,1583575316013711872,44," | 44  |    372       5    359       9 |   5    0       363         5 |   1  24    0    0 500f |    2.075       0       5       0       5     24     24      0    355      13       1  24    0500f a70f      8.130 "
test,1583575316012729856,45," | 45  |    372       5    361       7 |   5    0       347        21 |   2  24    0    0 500f |    2.807       0       5       0       5     24     24      0    342      26       2  24    0500f a70f      8.910 "
test,1583575316015361024,46," | 46  |    372       5    352       9 |   5    0       350        11 |   2  24    0    0 500f |    2.777       0       5       0       5     24     24      0    343      18       2  24    0500f a70f      8.910 "
test,1583575316014432000,47," | 47  |    372       5    359       9 |   5    0       357        11 |   2  24    0    0 500f |    2.807       0       5       0       5     24     24      0    354      14       2  24    0500f a70f      9.000 "
test,1583575316012039936,48," | 48  |    372       5    294       7 |   5    0       290        11 |   2  24    0    0 500f |    2.807       0       5       0       5     24     24      0    282      19       2  24    0500f a70f      8.940 "
test,1583575316007832064,49," | 49  |    372       5    362       0 |   5    0       357         5 |   2  49    0    1 d70f |    1.739       0       4       0       4     49     49      0    355       7       2  49    1d70f a70f      6.480 "
test,1583575316011718144,51," | 51  |    372       5    363       0 |   5    0       359         4 |   1  56    0    0 240f |    2.014       0       5       0       5     56     56      0    359       4       1  56    0240f a70f      8.130 "
test,1583575316029344000,52," | 52  |    372       5    360       4 |   0    4       345        19 |   0  52   24    1 560f |    0           0       0       0       8      0      0      0    337      27       0  52    1560f a70f     30.240 "
test,1583575316010194944,53," | 53  |    372       5    346       0 |   5    0       329        17 |   1  49    0    0 d70f |    2.014       0       5       0       5     49     49      0    329      17       1  49    0d70f a70f      8.130 "
test,1583575316013922816,54," | 54  |    372       5    364       0 |   5    0       363         1 |   3   1    0    0 220f |    1.312       0       5       0       5      1      1      0    354      10       1   1    0220f a70f     12.300 "
test,1583575316015887104,55," | 55  |    372       5    351       0 |   5    0       336        15 |   1  49    0    0 d70f |    2.746       0       5       0       5     49     49      0    336      15       2  49    0d70f a70f      8.970 "
test,1583575316008590080,56," | 56  |    372       5    354       0 |   5    0       344        10 |   2  56    0    1 240f |    1.739       0       4       0       4     56     56      0    341      13       2  56    1240f a70f      6.480 "
test,1583575316008785920,57," | 57  |    372       3    309       0 |   3    8       295        14 |   7  56   58    0 240f |    2.044       0       5       0       5     56     56      0    279      30       1  56    0240f a70f      8.280 "
test,1583575316008128768,58," | 58  |    372       5    363       0 |   4    9       358         5 |   5  58   49    1 710f |    1.739       0       4       0       4     58     58      0    351      12       2  58    1710f a70f      6.510 "
test,1583575316025208064,5," |  5  |    372       5    370       0 |   3    5       339        31 |   3  24    1    0 500f |    0           0       0       0       8      0      0      0    330      40       0  24    0500f a70f     30.390 "
test,1583575316010400000,60," | 60  |    372       5    363       0 |   5    0       343        20 |   2  56    0    0 240f |    1.953       0       5       0       5     56     56      0    340      23       1  56    0240f a70f      8.160 "
test,1583575316010832128,61," | 61  |    372       5    362       0 |   5    3       350        12 |   1  58    1    0 710f |    2.075       0       5       0       5     58     58      0    339      23       1  58    0710f a70f      8.280 "
test,1583575316015053056,7," |  7  |    372       5    369       0 |   5    0       362         7 |   1   1    0    0 220f |    1.342       0       5       0       5      1      1      0    362       7       1   1    0220f a70f     10.110 "
test,1583575316030406912,9," |  9  |    372       5    368       0 |   0    8       354        14 |   0   9    1    1 400f |    0           0       0       0       8      0      0      0    352      16       0   9    1400f a70f     28.020 "
