test,1583576161278571008,10," | 10  |   3753       5   3725       0 |   4    0      3662        63 |   4  10    0    1 e40f |    1.739       0       4       0       4     10     10      0   3614     111       2  10    1e40f a70f      7.920 "
test,1583576161280515840,12," | 12  |   3753       5   3751       0 |   5    0      3720        31 |   1  10    0    0 e40f |    1.983       0       5       0       5     10     10      0   3660      91       1  10    0e40f a70f      9.630 "
test,1583576161282377984,13," | 13  |   3753       5   3749       0 |   5    0      3723        26 |   1  10    0    0 e40f |    1.983       0       5       0       5     10     10      0   3675      74       1  10    0e40f a70f      8.940 "
test,1583576161300018944,15," | 15  |   3753       5   3751       0 |   5    0      3608       143 |   2  10    0    0 e40f |    2.746       0       4       0       4     10     10      0   3448     303       2  10    0e40f a70f     30.300 "
test,1583576161281016064,16," | 16  |   3753       5   3749       0 |   5    0      3614       135 |   1  23    0    0 570f |    2.014       0       5       0       5     23     23      0   3511     238       1  23    0570f a70f      8.220 "
test,1583576161281421824,17," | 17  |   3753       5   3744       5 |   5    0      3703        46 |   1  23    0    0 570f |    1.983       0       5       0       5     23     23      0   3587     162       1  23    0570f a70f      8.850 "
test,1583576161280137984,18," | 18  |   3753       5   3748       0 |   5    0      3540       208 |   2  23    0    0 570f |    2.716       0       5       0       5     23     23      0   3382     366       2  23    0570f a70f      8.910 "
test,1583576161281830144,19," | 19  |   3753       5   3740       9 |   5    0      3693        56 |   1  23    0    0 570f |    1.983       0       5       0       5     23     23      0   3580     169       1  23    0570f a70f      8.940 "
test,1583576161279876096,1," |  1  |   3753       4   3750       0 |   5    0      3663        87 |   1  10    0    0 e40f |    2.685       0       5       0       5     10     10      0   3634     116       1  10    0e40f a70f      9.630 "
test,1583576161282882048,22," | 22  |   3753       5   3747       0 |   5    0      3718        29 |   1  23    0    0 570f |    2.014       0       5       0       5     23     23      0   3541     206       1  23    0570f a70f      8.100 "
test,1583576161277179904,23," | 23  |   3753       5   3691       0 |   4    1      3672        19 |   6  23   10    1 570f |    1.770       0       4       0       4     23     23      0   3589     102       2  23    1570f a70f      6.510 "
test,1583576161277828096,24," | 24  |   3753       5   3747       2 |   5    0      3715        34 |   1  23    0    0 570f |    2.044       0       5       0       5     23     23      0   3620     129       1  23    0570f a70f      8.130 "
test,1583576161276722944,26," | 26  |   3753       5   3747       2 |   5    1      3735        14 |   1  23   10    0 570f |    2.014       0       5       0       5     23     23      0   3665      84       1  23    0570f a70f      8.250 "
test,1583576161283063808,27," | 27  |   3753       5   3751       0 |   5    0      3648       103 |   1  23    0    0 570f |    2.014       0       5       0       5     23     23      0   3488     263       1  23    0570f a70f      9.570 "
test,1583576161293061888,28," | 28  |   3753       5   3745       4 |   5    0      3460       289 |   2  23    0    0 570f |    4.913       0       5       0       5     23     23      0   3319     430       5  23    0570f a70f     11.790 "
test,1583576161298716160,29," | 29  |   3753       5   3746       5 |   0    4      3337       414 |   0  29   23    1 5a0f |    0           0       0       0       8      0      0      0   3162     589       0  29    15a0f a70f     30.180 "
test,1583576161283495936,30," | 30  |   3753       5   3748       1 |   5    0      3696        53 |   2  23    0    0 570f |    4.211       0       5       0       5     23     23      0   3560     189       4  23    0570f a70f     11.010 "
test,1583576161287718912,35," | 35  |   3753       5   3748       1 |   5    0      3569       180 |   2  23    0    0 570f |    4.180       0       5       0       5     23     23      0   3489     260       4  23    0570f a70f     10.350 "
test,1583576161285278976,40," | 40  |   3753       5   3685      60 |   5    0      3511       234 |   2  23    0    0 570f |    2.685       0       5       0       5     23     23      0   3416     329       2  23    0570f a70f      9.480 "
test,1583576161286010112,41," | 41  |   3753       5   3680      59 |   5    0      3703        36 |   4  23    0    0 570f |    3.479       0       5       0       5     23     23      0   3607     132       3  23    0570f a70f     10.320 "
test,1583576161284815104,42," | 42  |   3753       5   3688      61 |   5    0      3665        84 |   4  23    0    0 570f |    3.417       0       5       0       5     23     23      0   3571     178       3  23    0570f a70f      9.510 "
test,1583576161300216832,44," | 44  |   3753       5   3692      57 |   5    0      3662        87 |   4  23    0    0 570f |    2.716       0       4       0       4     23     23      0   3584     165       2  23    0570f a70f     30.390 "
test,1583576161298939904,45," | 45  |   3753       5   3706      43 |   0    8      3630       119 |   0  45   23    1 220f |    0           0       0       0       8      0      0      0   3562     187       0  45    1220f a70f     30.240 "
test,1583576161283230976,46," | 46  |   3753       5   3685      57 |   5    0      3572       170 |   4  23    0    0 570f |    3.479       0       5       0       5     23     23      0   3498     244       3  23    0570f a70f      9.690 "
test,1583576161281236992,47," | 47  |   3753       5   3692      57 |   5    0      3617       132 |   4  23    0    0 570f |    3.479       0       5       0       5     23     23      0   3542     207       3  23    0570f a70f      9.690 "
test,1583576161283892992,48," | 48  |   3753       5   3627      55 |   5    0      3591        91 |   3  23    0    0 570f |    2.716       0       5       0       5     23     23      0   3517     165       2  23    0570f a70f      8.910 "
test,1583576161279614976,49," | 49  |   3753       5   3743       0 |   5    0      3674        69 |   2  10    0    0 e40f |    3.479       0       5       0       5     10     10      0   3641     102       3  10    0e40f a70f      9.660 "
test,1583576161277344000,51," | 51  |   3753       5   3744       0 |   5    0      3706        38 |   1  10    0    0 e40f |    1.953       0       5       0       5     10     10      0   3690      54       1  10    0e40f a70f      8.040 "
test,1583576161278223872,52," | 52  |   3753       5   3722      23 |   4    0      3570       175 |   1  23    0    0 570f |    2.014       0       5       0       5     23     23      0   3495     250       1  23    0570f a70f      8.070 "
test,1583576161284580096,53," | 53  |   3753       5   3727       0 |   5    0      3536       191 |   3  10    0    0 e40f |    4.180       0       5       0       5     10     10      0   3492     235       4  10    0e40f a70f     10.350 "
test,1583576161279279872,54," | 54  |   3753       5   3745       0 |   5    0      3681        64 |   1  10    0    0 e40f |    2.014       0       5       0       5     10     10      0   3620     125       1  10    0e40f a70f      9.480 "
test,1583576161286494976,55," | 55  |   3753       5   3732       0 |   5    0      3592       140 |   2  10    0    0 e40f |    3.448       0       5       0       5     10     10      0   3559     173       3  10    0e40f a70f      9.510 "
test,1583576161276482048,56," | 56  |   3753       5   3735       0 |   5    0      3677        58 |   1  10    0    0 e40f |    2.014       0       5       0       5     10     10      0   3638      97       1  10    0e40f a70f      8.160 "
test,1583576161301501952,57," | 57  |   3753       5   3690       0 |   3    2      3595        95 |   4  10   23    0 e40f |   10.772       0       1       0       1     10     10      0   3375     315      13  10    0e40f a70f     30.330 "
test,1583576161284349952,58," | 58  |   3753       5   3744       0 |   5    0      3693        51 |   1  10    0    0 e40f |    2.746       0       5       0       5     10     10      0   3530     214       2  10    0e40f a70f     10.320 "
test,1583576161282201088,5," |  5  |   3753       5   3751       0 |   5    0      3423       328 |   2  10    0    0 e40f |    2.746       0       5       0       5     10     10      0   3356     395       2  10    0e40f a70f      9.540 "
test,1583576161281999104,60," | 60  |   3753       5   3744       0 |   5    0      3509       235 |   2  10    0    0 e40f |    2.746       0       5       0       5     10     10      0   3444     300       2  10    0e40f a70f      8.940 "
test,1583576161285620992,61," | 61  |   3753       5   3743       0 |   5    0      3574       169 |   2  10    0    0 e40f |    3.479       0       5       0       5     10     10      0   3452     291       3  10    0e40f a70f     10.260 "
test,1583576161278798080,7," |  7  |   3753       5   3750       0 |   5    0      3690        60 |   1  10    0    0 e40f |    2.014       0       5       0       5     10     10      0   3666      84       1  10    0e40f a70f      9.000 "
test,1583576161280752896,9," |  9  |   3753       5   3749       0 |   5    0      3614       135 |   1  10    0    0 e40f |    1.983       0       5       0       5     10     10      0   3595     154       1  10    0e40f a70f      9.510 "
