test,1583576007283880960,10," | 10  |   3137       5   3109       0 |   5    0      3057        52 |   1  51    0    0 560f |    1.983       0       5       0       5     51     51      0   3013      96       1  51    0560f a70f      9.600 "
test,1583576007277812992,12," | 12  |   3137       5   3135       0 |   5    0      3108        27 |   2  51    0    0 560f |    3.479       0       5       0       5     51     51      0   3056      79       3  51    0560f a70f      9.720 "
test,1583576007274002176,13," | 13  |   3137       5   3133       0 |   5    0      3109        24 |   1  51    0    0 560f |    2.014       0       5       0       5     51     51      0   3070      63       1  51    0560f a70f      8.130 "
test,1583576007276166912,15," | 15  |   3137       5   3135       0 |   5    0      3017       118 |   2  51    0    0 560f |    2.777       0       5       0       5     51     51      0   2884     251       2  51    0560f a70f      9.030 "
test,1583576007284507904,16," | 16  |   3137       5   3133       0 |   5    0      3021       112 |   5  40    0    0 eb0f |    2.777       0       5       0       5     40     40      0   2943     190       2  40    0eb0f a70f      9.660 "
test,1583576007283005952,17," | 17  |   3137       5   3128       5 |   4    0      3099        34 |   5  40    0    0 eb0f |    2.746       0       5       0       5     40     40      0   3002     131       2  40    0eb0f a70f      8.970 "
test,1583576007282265856,18," | 18  |   3137       5   3132       0 |   5    0      2959       173 |   2  40    0    0 eb0f |    2.777       0       5       0       5     40     40      0   2827     305       2  40    0eb0f a70f      8.970 "
test,1583576007296047872,19," | 19  |   3137       4   3124       9 |   1    6      3083        50 |   5  51   40    0 560f |    0           0       0       0       8      0      0      0   2986     147       0  51    0560f a70f     30.390 "
test,1583576007278014976,1," |  1  |   3137       4   3134       0 |   5    0      3063        71 |   1  51    0    0 560f |    3.448       0       5       0       5     51     51      0   3040      94       2  51    0560f a70f      9.630 "
test,1583576007275684096,22," | 22  |   3137       5   3131       0 |   5    0      3106        25 |   3  40    0    0 eb0f |    2.014       0       5       0       5     40     40      0   2959     172       1  40    0eb0f a70f      8.940 "
test,1583576007300237056,23," | 23  |   3137       5   3075       0 |   2    7      3061        14 |   2  51   40    0 560f |    7.873       0       1       0       1     51     51      0   2998      77       9  51    0560f a70f     30.360 "
test,1583576007275098112,24," | 24  |   3137       5   3131       2 |   5    0      3106        27 |   1  40    0    0 eb0f |    2.044       0       5       0       5     40     40      0   3031     102       1  40    0eb0f a70f      8.190 "
test,1583576007275326976,26," | 26  |   3137       5   3131       2 |   5    0      3122        11 |   4  40    0    0 eb0f |    2.777       0       5       0       5     40     40      0   3064      69       2  40    0eb0f a70f      9.030 "
test,1583576007301668864,27," | 27  |   3137       5   3135       0 |   2    2      3046        89 |   3  51   40    0 560f |    0           0       0       0       8      0      0      0   2912     223       0  51    0560f a70f     30.360 "
test,1583576007278831872,28," | 28  |   3137       5   3130       3 |   5    0      2896       237 |   5  40    0    0 eb0f |    3.509       0       5       0       5     40     40      0   2781     352       3  40    0eb0f a70f      9.690 "
test,1583576007298468096,29," | 29  |   3137       5   3130       5 |   2    0      2791       344 |   4  51    0    0 560f |    0           0       0       0       8      0      0      0   2641     494       0  51    0560f a70f     30.390 "
test,1583576007276890880,30," | 30  |   3137       5   3133       0 |   5    0      3089        44 |   4  40    0    0 eb0f |    2.777       0       5       0       5     40     40      0   2981     152       2  40    0eb0f a70f      8.820 "
test,1583576007277626880,35," | 35  |   3137       5   3133       0 |   5    0      2989       144 |   4  40    0    0 eb0f |    2.777       0       5       0       5     40     40      0   2925     208       2  40    0eb0f a70f      9.630 "
test,1583576007269330944,40," | 40  |   3137       5   3071      58 |   4    0      2923       206 |   4  40    0    1 eb0f |    1.770       0       4       0       4     40     40      0   2844     285       2  40    1eb0f a70f      6.510 "
test,1583576007280834048,41," | 41  |   3137       5   3067      56 |   5    0      3090        33 |   1  40    0    0 eb0f |    2.044       0       5       0       5     40     40      0   3007     116       1  40    0eb0f a70f      8.130 "
test,1583576007291836928,42," | 42  |   3137       5   3074      59 |   5    0      3054        79 |   2  40    0    0 eb0f |    2.746       0       5       0       5     40     40      0   2973     160       2  40    0eb0f a70f     10.410 "
test,1583576007282082048,44," | 44  |   3137       5   3078      55 |   5    0      3057        76 |   1  40    0    0 eb0f |    2.777       0       5       0       5     40     40      0   2992     141       2  40    0eb0f a70f      9.720 "
test,1583576007280445952,45," | 45  |   3137       5   3092      41 |   5    0      3032       101 |   1  40    0    0 eb0f |    2.746       0       5       0       5     40     40      0   2971     162       2  40    0eb0f a70f      8.850 "
test,1583576007281587968,46," | 46  |   3137       5   3071      55 |   5    0      2981       145 |   2  40    0    0 eb0f |    2.777       0       5       0       5     40     40      0   2919     207       2  40    0eb0f a70f      8.820 "
test,1583576007286354944,47," | 47  |   3137       5   3078      55 |   5    0      3023       110 |   1  40    0    0 eb0f |    2.014       0       5       0       5     40     40      0   2953     180       1  40    0eb0f a70f      9.720 "
test,1583576007280222976,48," | 48  |   3137       5   3013      53 |   5    0      2986        80 |   1  40    0    0 eb0f |    2.014       0       5       0       5     40     40      0   2922     144       1  40    0eb0f a70f      9.570 "
test,1583576007273558016,49," | 49  |   3137       5   3127       0 |   5    0      3071        56 |   1  53    0    0 b00f |    2.014       0       5       0       5     53     53      0   3042      85       1  53    0b00f a70f      8.220 "
test,1583576007278256896,51," | 51  |   3137       5   3128       0 |   4    0      3102        26 |   2  51    0    1 560f |    1.739       0       4       0       4     51     51      0   3089      39       2  51    1560f a70f      6.480 "
test,1583576007279758080,52," | 52  |   3137       5   3106      23 |   5    0      2979       150 |   5  40    0    0 eb0f |    2.777       0       5       0       5     40     40      0   2921     208       2  40    0eb0f a70f      9.540 "
test,1583576007274542080,53," | 53  |   3137       5   3111       0 |   4    0      2955       156 |   8  53    0    1 b00f |    1.770       0       4       0       4     53     53      0   2916     195       2  53    1b00f a70f      6.510 "
test,1583576007301327872,54," | 54  |   3137       5   3129       0 |   0    6      3075        54 |   0  54   58    1 4c0f |    0           0       0       0       8      0      0      0   3023     106       0  54    14c0f a70f     30.180 "
test,1583576007277081856,55," | 55  |   3137       5   3116       0 |   5    0      3005       111 |   1  53    0    0 b00f |    2.044       0       5       0       5     53     53      0   2976     140       1  53    0b00f a70f      8.250 "
test,1583576007274382080,56," | 56  |   3137       5   3119       0 |   5    0      3067        52 |   1  51    0    0 560f |    2.014       0       5       0       5     51     51      0   3036      83       1  51    0560f a70f      8.220 "
test,1583576007297955072,57," | 57  |   3137       5   3074       0 |   2    3      3000        74 |   1  51   58    0 560f |    2.777       0       4       0       4     51     51      0   2819     255       2  51    0560f a70f     30.330 "
test,1583576007280642048,58," | 58  |   3137       5   3128       0 |   4    1      3087        41 |  11  58   53    1 870f |    3.814       0       4       0       4     58     58      0   2953     175       5  58    1870f a70f      8.520 "
test,1583576007279998976,5," |  5  |   3137       5   3135       0 |   5    0      2872       263 |   2  51    0    0 560f |    2.777       0       5       0       5     51     51      0   2813     322       2  51    0560f a70f     10.380 "
test,1583576007278465024,60," | 60  |   3137       5   3128       0 |   5    0      2924       204 |   1  51    0    0 560f |    2.044       0       5       0       5     51     51      0   2870     258       1  51    0560f a70f      8.250 "
test,1583576007277442816,61," | 61  |   3137       5   3127       0 |   5    1      2993       134 |   1  58   51    0 870f |    1.983       0       5       0       5     58     58      0   2897     230       1  58    0870f a70f      8.820 "
test,1583576007276345856,7," |  7  |   3137       5   3134       0 |   5    0      3082        52 |   1  51    0    0 560f |    2.746       0       5       0       5     51     51      0   3063      71       2  51    0560f a70f      9.660 "
test,1583576007279558912,9," |  9  |   3137       5   3133       0 |   5    0      3015       118 |   2  51    0    0 560f |    2.807       0       5       0       5     51     51      0   2999     134       2  51    0560f a70f      8.970 "
