test,1583576211277936896,10," | 10  |   3953       5   3925       0 |   5    0      3859        66 |   1  56    0    0 b70f |    2.044       0       5       0       5     56     56      0   3811     114       1  56    0b70f a70f      8.280 "
test,1583576211282990080,12," | 12  |   3953       5   3951       0 |   5    0      3920        31 |   3  56    0    0 b70f |    3.509       0       5       0       5     56     56      0   3856      95       3  56    0b70f a70f      9.720 "
test,1583576211281065984,13," | 13  |   3953       5   3949       0 |   5    0      3923        26 |   1  56    0    0 b70f |    2.075       0       5       0       5     56     56      0   3875      74       1  56    0b70f a70f      9.030 "
test,1583576211284400896,15," | 15  |   3953       5   3951       0 |   5    0      3799       152 |   4  56    0    0 b70f |    4.272       0       5       0       5     56     56      0   3628     323       4  56    0b70f a70f     10.350 "
test,1583576211280094976,16," | 16  |   3953       5   3949       0 |   5    0      3806       143 |   1  26    0    0 8b0f |    2.044       0       5       0       5     26     26      0   3701     248       1  26    08b0f a70f      8.250 "
test,1583576211282680064,17," | 17  |   3953       5   3944       5 |   5    0      3901        48 |   1  26    0    0 8b0f |    2.044       0       5       0       5     26     26      0   3781     168       1  26    08b0f a70f      9.720 "
test,1583576211279727872,18," | 18  |   3953       5   3948       0 |   5    0      3731       217 |   1  26    0    0 8b0f |    2.044       0       5       0       5     26     26      0   3569     379       1  26    08b0f a70f      8.970 "
test,1583576211281608960,19," | 19  |   3953       5   3940       9 |   5    0      3888        61 |   1  26    0    0 8b0f |    2.075       0       5       0       5     26     26      0   3769     180       1  26    08b0f a70f      9.720 "
test,1583576211279397120,1," |  1  |   3953       4   3950       0 |   5    0      3855        95 |   2  56    0    0 b70f |    3.479       0       5       0       5     56     56      0   3826     124       2  56    0b70f a70f      9.660 "
test,1583576211286260992,22," | 22  |   3953       5   3947       0 |   5    0      3916        31 |   1  26    0    0 8b0f |    2.014       0       5       0       5     26     26      0   3732     215       1  26    08b0f a70f      8.100 "
test,1583576211281456896,23," | 23  |   3953       5   3891       0 |   5    0      3872        19 |   1  26    0    0 8b0f |    2.777       0       5       0       5     26     26      0   3788     103       2  26    08b0f a70f      8.820 "
test,1583576211277481984,24," | 24  |   3953       5   3947       2 |   5    0      3910        39 |   1  26    0    0 8b0f |    2.014       0       5       0       5     26     26      0   3809     140       1  26    08b0f a70f      8.250 "
test,1583576211277724928,26," | 26  |   3953       5   3947       2 |   4    0      3934        15 |   2  26    0    1 8b0f |    1.739       0       4       0       4     26     26      0   3860      89       2  26    18b0f a70f      6.510 "
test,1583576211282424832,27," | 27  |   3953       5   3951       0 |   5    0      3837       114 |   2  26    0    0 8b0f |    3.479       0       5       0       5     26     26      0   3674     277       3  26    08b0f a70f      9.660 "
test,1583576211300237056,28," | 28  |   3953       5   3944       5 |   0    6      3638       311 |   0  28   30    1 b30f |    0           0       0       0       8      0      0      0   3490     459       0  28    1b30f a70f     30.210 "
test,1583576211301240832,29," | 29  |   3953       3   3946       5 |   4    0      3512       439 |   2  26    0    0 8b0f |    2.777       0       3       0       3     26     26      0   3326     625       2  26    08b0f a70f     30.360 "
test,1583576211274583040,30," | 30  |   3953       5   3947       2 |   5    0      3895        54 |   2  30    0    1 da0f |    1.739       0       4       0       4     30     30      0   3750     199       2  30    1da0f a70f      6.480 "
test,1583576211284663040,35," | 35  |   3953       5   3947       2 |   5    0      3754       195 |   1  30    0    0 da0f |    2.014       0       5       0       5     30     30      0   3671     278       1  30    0da0f a70f      8.160 "
test,1583576211302580992,40," | 40  |   3953       5   3885      60 |   4    8      3702       243 |   1  41   44    0 ea0f |    2.044       0       4       0       4     41     41      0   3604     341       1  41    0ea0f a70f     30.390 "
test,1583576211301528064,41," | 41  |   3953       5   3880      59 |   2   11      3903        36 |   5  41   44    1 ea0f |    3.814       0       2       0       2     41     41      0   3802     137       5  41    1ea0f a70f     30.300 "
test,1583576211299918848,42," | 42  |   3953       5   3888      61 |   4   11      3859        90 |   1  41   44    0 ea0f |    2.014       0       4       0       4     41     41      0   3762     187       1  41    0ea0f a70f     30.360 "
test,1583576211302042112,44," | 44  |   3953       5   3892      57 |   5    0      3859        90 |   5  44    0    1 9e0f |    3.814       0       3       0       3     44     44      0   3778     171       5  44    19e0f a70f     30.300 "
test,1583576211280286976,45," | 45  |   3953       5   3906      43 |   5    0      3821       128 |   4  44    0    0 9e0f |    2.044       0       5       0       5     44     44      0   3749     200       1  44    09e0f a70f      8.730 "
test,1583576211301796864,46," | 46  |   3953       5   3885      57 |   4   10      3760       182 |   1  41   44    0 ea0f |    2.014       0       4       0       4     41     41      0   3685     257       1  41    0ea0f a70f     30.300 "
test,1583576211301073920,47," | 47  |   3953       5   3892      57 |   4   11      3810       139 |   1  41   44    0 ea0f |    2.014       0       4       0       4     41     41      0   3731     218       1  41    0ea0f a70f     30.360 "
test,1583576211279880960,48," | 48  |   3953       4   3827      55 |   5    0      3788        94 |   4  44    0    0 9e0f |    2.044       0       5       0       5     44     44      0   3711     171       1  44    09e0f a70f      8.850 "
test,1583576211295892992,49," | 49  |   3953       5   3943       0 |   0    9      3871        72 |   0  49   53    1  60f |    0           0       0       0       8      0      0      0   3838     105       0  49    1 60f a70f     30.240 "
test,1583576211278348800,51," | 51  |   3953       5   3944       0 |   5    0      3906        38 |   1  56    0    0 b70f |    2.014       0       5       0       5     56     56      0   3889      55       1  56    0b70f a70f      8.250 "
test,1583576211282222080,52," | 52  |   3953       3   3921      24 |   5    0      3763       182 |   1  26    0    0 8b0f |    2.044       0       5       0       5     26     26      0   3686     259       1  26    08b0f a70f      9.690 "
test,1583576211299283968,53," | 53  |   3953       5   3927       0 |   4    0      3723       204 |   8  53    0    1 7e0f |    1.770       0       1       0       1     53     53      0   3679     248       2  53    17e0f a70f     30.300 "
test,1583576211282014976,54," | 54  |   3953       5   3945       0 |   5    0      3874        71 |   3  56    0    0 b70f |    2.777       0       5       0       5     56     56      0   3811     134       2  56    0b70f a70f      8.820 "
test,1583576211299702784,55," | 55  |   3953       5   3932       0 |   5    0      3787       145 |   1  53    0    0 7e0f |    2.044       0       2       0       2     53     53      0   3755     177       1  53    07e0f a70f     30.360 "
test,1583576211278191104,56," | 56  |   3953       5   3935       0 |   5    0      3875        60 |   2  56    0    1 b70f |    1.739       0       4       0       4     56     56      0   3832     103       2  56    1b70f a70f      6.480 "
test,1583576211285576960,57," | 57  |   3953       5   3890       0 |   3    5      3789       101 |   1  26   56    0 8b0f |    3.540       0       5       0       5     26     26      0   3559     331       3  26    08b0f a70f     13.920 "
test,1583576211299497984,58," | 58  |   3953       5   3944       0 |   4    6      3891        53 |   4  56   49    0 b70f |    2.807       0       4       0       4     56     56      0   3722     222       2  56    0b70f a70f     30.390 "
test,1583576211284120064,5," |  5  |   3953       5   3951       0 |   5    0      3603       348 |   2  56    0    0 b70f |    2.807       0       5       0       5     56     56      0   3536     415       2  56    0b70f a70f      8.850 "
test,1583576211300563968,60," | 60  |   3953       5   3944       0 |   3    3      3694       250 |   2  26   56    0 8b0f |   10.101       0       3       0       3     26     26      0   3624     320      12  26    08b0f a70f     30.390 "
test,1583576211285921024,61," | 61  |   3953       5   3943       0 |   5    0      3766       177 |   4  56    0    0 b70f |    2.044       0       5       0       5     56     56      0   3640     303       1  56    0b70f a70f      9.660 "
test,1583576211278893056,7," |  7  |   3953       5   3950       0 |   5    0      3890        60 |   2  56    0    0 b70f |    2.807       0       5       0       5     56     56      0   3866      84       2  56    0b70f a70f      8.970 "
test,1583576211283330816,9," |  9  |   3953       5   3949       0 |   5    0      3807       142 |   2  56    0    0 b70f |    2.777       0       5       0       5     56     56      0   3788     161       2  56    0b70f a70f      8.850 "
