test,1583576149780129792,10," | 10  |   3707       5   3679       0 |   5    0      3616        63 |   1  58    0    0 670f |    3.448       0       5       0       5     58     58      0   3568     111       3  58    0670f a70f      9.660 "
test,1583576149800080128,12," | 12  |   3707       5   3705       0 |   5    0      3676        29 |   1   5    0    0 3a0f |    1.983       0       2       0       2      5      5      0   3616      89       1   5    03a0f a70f     30.390 "
test,1583576149797859840,13," | 13  |   3707       5   3703       0 |   3    3      3677        26 |   1   5   58    0 3a0f |    2.014       0       2       0       2      5      5      0   3630      73       1   5    03a0f a70f     30.330 "
test,1583576149800805120,15," | 15  |   3707       5   3705       0 |   5    0      3563       142 |   2   5    0    0 3a0f |    2.746       0       2       0       2      5      5      0   3406     299       2   5    03a0f a70f     30.330 "
test,1583576149783107072,16," | 16  |   3707       5   3703       0 |   4    0      3569       134 |   8  16    0    1 820f |    1.770       0       4       0       4     16     16      0   3466     237       2  16    1820f a70f      6.510 "
test,1583576149796879104,17," | 17  |   3707       5   3698       5 |   5    0      3657        46 |   2  16    0    0 820f |    0           0       0       0       8      0      0      0   3541     162       0  16    0820f a70f     30.360 "
test,1583576149779776000,18," | 18  |   3707       5   3702       0 |   5    0      3498       204 |   2  42    0    0 ed0f |    2.075       0       5       0       5     42     42      0   3341     361       1  42    0ed0f a70f      8.190 "
test,1583576149800429056,19," | 19  |   3707       5   3694       9 |   5    0      3647        56 |   3  16    0    0 820f |    3.448       0       4       0       4     16     16      0   3534     169       3  16    0820f a70f     30.240 "
test,1583576149782326016,1," |  1  |   3707       4   3704       0 |   4    0      3618        86 |   5  58    0    0 670f |    4.150       0       5       0       5     58     58      0   3589     115       3  58    0670f a70f     10.320 "
test,1583576149779290880,22," | 22  |   3707       5   3701       0 |   5    0      3672        29 |   4  42    0    0 ed0f |    2.777       0       5       0       5     42     42      0   3497     204       2  42    0ed0f a70f      8.790 "
test,1583576149776951040,23," | 23  |   3707       5   3645       0 |   5    0      3626        19 |   1  16    0    0 820f |    2.044       0       5       0       5     16     16      0   3545     100       1  16    0820f a70f      8.250 "
test,1583576149781294080,24," | 24  |   3707       5   3701       2 |   5    0      3669        34 |   2  42    0    0 ed0f |    3.509       0       5       0       5     42     42      0   3576     127       3  42    0ed0f a70f      9.720 "
test,1583576149784707072,26," | 26  |   3707       5   3701       2 |   5    0      3689        14 |   3  42    0    0 ed0f |    3.509       0       5       0       5     42     42      0   3619      84       3  42    0ed0f a70f      9.570 "
test,1583576149778383872,27," | 27  |   3707       5   3705       0 |   5    0      3604       101 |   2  16    0    0 820f |    2.746       0       5       0       5     16     16      0   3444     261       2  16    0820f a70f      8.940 "
test,1583576149797167104,28," | 28  |   3707       5   3699       4 |   1    5      3417       286 |   3  16   42    0 820f |    0           0       0       0       8      0      0      0   3277     426       0  16    0820f a70f     30.360 "
test,1583576149788950016,29," | 29  |   3707       5   3700       5 |   5    0      3295       410 |   3  16    0    0 820f |    3.479       0       5       0       5     16     16      0   3121     584       3  16    0820f a70f      9.630 "
test,1583576149783473920,30," | 30  |   3707       5   3702       1 |   5    0      3650        53 |   6  42    0    0 ed0f |    3.509       0       5       0       5     42     42      0   3516     187       3  42    0ed0f a70f      9.630 "
test,1583576149781084928,35," | 35  |   3707       5   3702       1 |   5    0      3526       177 |   5  42    0    0 ed0f |    3.509       0       5       0       5     42     42      0   3447     256       3  42    0ed0f a70f      9.690 "
test,1583576149780679936,40," | 40  |   3707       5   3639      60 |   5    0      3467       232 |   1  42    0    0 ed0f |    2.044       0       5       0       5     42     42      0   3374     325       1  42    0ed0f a70f      8.280 "
test,1583576149781954048,41," | 41  |   3707       5   3634      59 |   5    0      3657        36 |   1  42    0    0 ed0f |    2.014       0       5       0       5     42     42      0   3562     131       1  42    0ed0f a70f      8.280 "
test,1583576149779568896,42," | 42  |   3707       5   3642      61 |   4    0      3619        84 |   2  42    0    1 ed0f |    1.770       0       4       0       4     42     42      0   3526     177       2  42    1ed0f a70f      6.510 "
test,1583576149777598976,44," | 44  |   3707       5   3646      57 |   5    0      3618        85 |   1  42    0    0 ed0f |    2.044       0       5       0       5     42     42      0   3541     162       1  42    0ed0f a70f      8.160 "
test,1583576149779073024,45," | 45  |   3707       5   3660      43 |   5    1      3586       117 |   1  42   16    0 ed0f |    2.075       0       5       0       5     42     42      0   3518     185       1  42    0ed0f a70f      8.130 "
test,1583576149780297984,46," | 46  |   3707       5   3639      57 |   5    0      3530       166 |   1  42    0    0 ed0f |    2.014       0       5       0       5     42     42      0   3456     240       1  42    0ed0f a70f      8.220 "
test,1583576149780834816,47," | 47  |   3707       5   3646      57 |   5    0      3572       131 |   1  42    0    0 ed0f |    2.075       0       5       0       5     42     42      0   3498     205       1  42    0ed0f a70f      8.190 "
test,1583576149784115200,48," | 48  |   3707       5   3581      55 |   5    0      3546        90 |   1  42    0    0 ed0f |    2.014       0       5       0       5     42     42      0   3473     163       1  42    0ed0f a70f      8.220 "
test,1583576149777276160,49," | 49  |   3707       5   3697       0 |   5    0      3629        68 |   1  58    0    0 670f |    1.983       0       5       0       5     58     58      0   3596     101       1  58    0670f a70f      8.190 "
test,1583576149782681088,51," | 51  |   3707       5   3698       0 |   5    0      3660        38 |   2  58    0    0 670f |    3.448       0       5       0       5     58     58      0   3644      54       3  58    0670f a70f      9.660 "
test,1583576149788024064,52," | 52  |   3707       4   3676      23 |   5    2      3524       175 |   1  16   42    0 820f |    2.014       0       5       0       5     16     16      0   3450     249       1  16    0820f a70f      8.220 "
test,1583576149782131968,53," | 53  |   3707       5   3681       0 |   5    0      3493       188 |   2  58    0    0 670f |    2.685       0       5       0       5     58     58      0   3449     232       2  58    0670f a70f      8.880 "
test,1583576149788465920,54," | 54  |   3707       5   3699       0 |   5    0      3636        63 |   1  58    0    0 670f |    2.014       0       5       0       5     58     58      0   3575     124       1  58    0670f a70f      9.660 "
test,1583576149778834176,55," | 55  |   3707       5   3686       0 |   5    0      3548       138 |   1  58    0    0 670f |    2.014       0       5       0       5     58     58      0   3515     171       1  58    0670f a70f      8.070 "
test,1583576149785449984,56," | 56  |   3707       5   3689       0 |   5    0      3632        57 |   1  58    0    0 670f |    2.777       0       5       0       5     58     58      0   3593      96       2  58    0670f a70f      8.820 "
test,1583576149789551872,57," | 57  |   3707       5   3644       0 |   1    4      3551        93 |   1  58   16    0 670f |    3.479       0       5       0       5     58     58      0   3335     309       3  58    0670f a70f      9.540 "
test,1583576149780527104,58," | 58  |   3707       5   3698       0 |   1    0      3648        50 |   4  58    0    1 670f |    1.739       0       4       0       4     58     58      0   3486     212       2  58    1670f a70f      7.200 "
test,1583576149799532800,5," |  5  |   3707       5   3705       0 |   4    0      3381       324 |   4   5    0    1 3a0f |    1.739       0       2       0       2      5      5      0   3315     390       2   5    13a0f a70f     30.300 "
test,1583576149786475008,60," | 60  |   3707       5   3698       0 |   5    0      3465       233 |   3  58    0    0 670f |    4.180       0       5       0       5     58     58      0   3401     297       4  58    0670f a70f     10.350 "
test,1583576149778541056,61," | 61  |   3707       5   3697       0 |   2    0      3531       166 |   1  58    0    0 670f |    2.014       0       5       0       5     58     58      0   3409     288       1  58    0670f a70f      8.100 "
test,1583576149797545984,7," |  7  |   3707       5   3704       0 |   2    7      3644        60 |   2   5   58    0 3a0f |    2.716       0       1       0       1      5      5      0   3620      84       2   5    03a0f a70f     30.390 "
test,1583576149778142976,9," |  9  |   3707       5   3703       0 |   5    0      3569       134 |   2  58    0    0 670f |    2.746       0       5       0       5     58     58      0   3550     153       2  58    0670f a70f      8.850 "
