test,1583575990044465920,10," | 10  |   3068       5   3040       0 |   5    0      2992        48 |   4  60    0    0 5c0f |    0           0       0       0       8      0      0      0   2947      93       0  60    05c0f a70f     30.390 "
test,1583575990023636992,12," | 12  |   3068       5   3066       0 |   5    4      3039        27 |   1   7   60    0 490f |    2.014       0       5       0       5      7      7      0   2989      77       1   7    0490f a70f      8.250 "
test,1583575990024729088,13," | 13  |   3068       5   3064       0 |   5    8      3040        24 |   1   7   60    0 490f |    2.044       0       5       0       5      7      7      0   3002      62       1   7    0490f a70f      8.280 "
test,1583575990046610176,15," | 15  |   3068       5   3066       0 |   1    5      2949       117 |  13  20    7    0 c30f |    0           0       0       0       8      0      0      0   2821     245       0  20    0c30f a70f     30.390 "
test,1583575990027836928,16," | 16  |   3068       5   3064       0 |   5    0      2955       109 |   3  60    0    0 5c0f |    3.448       0       5       0       5     60     60      0   2880     184       3  60    05c0f a70f      9.630 "
test,1583575990044235008,17," | 17  |   3068       5   3059       5 |   1    9      3031        33 |   2  20   60    0 c30f |    0           0       0       0       8      0      0      0   2937     127       0  20    0c30f a70f     30.360 "
test,1583575990046438912,18," | 18  |   3068       5   3063       0 |   1   10      2896       167 |   2  20   60    0 c30f |    0           0       0       0       8      0      0      0   2765     298       0  20    0c30f a70f     30.360 "
test,1583575990043302912,19," | 19  |   3068       5   3055       9 |   1    5      3015        49 |   2  20   60    0 c30f |    0           0       0       0       8      0      0      0   2922     142       0  20    0c30f a70f     30.390 "
test,1583575990023992064,1," |  1  |   3068       4   3065       0 |   5    8      2995        70 |   1   7   60    0 490f |    2.716       0       5       0       5      7      7      0   2974      91       1   7    0490f a70f      8.940 "
test,1583575990047197184,22," | 22  |   3068       5   3062       0 |   5    0      3037        25 |   5  60    0    0 5c0f |    4.943       0       4       0       4     60     60      0   2893     169       5  60    05c0f a70f     30.360 "
test,1583575990026760192,23," | 23  |   3068       5   3006       0 |   5    0      2992        14 |   2  60    0    0 5c0f |    2.746       0       5       0       5     60     60      0   2932      74       2  60    05c0f a70f      9.510 "
test,1583575990046245120,24," | 24  |   3068       5   3062       2 |   1    9      3037        27 |   1  20   60    0 c30f |    0           0       0       0       8      0      0      0   2962     102       0  20    0c30f a70f     30.390 "
test,1583575990027055104,26," | 26  |   3068       5   3062       2 |   5    0      3053        11 |   4  60    0    0 5c0f |    2.777       0       5       0       5     60     60      0   2995      69       2  60    05c0f a70f      9.000 "
test,1583575990042608128,27," | 27  |   3068       5   3066       0 |   5    0      2979        87 |   4  20    0    0 c30f |    0           0       0       0       8      0      0      0   2850     216       0  20    0c30f a70f     30.360 "
test,1583575990030950144,28," | 28  |   3068       5   3061       3 |   2    2      2831       233 |   2  20   60    0 c30f |    2.746       0       5       0       5     20     20      0   2720     344       2  20    0c30f a70f      8.940 "
test,1583575990043901952,29," | 29  |   3068       4   3061       5 |   5    0      2728       338 |   3  20    0    0 c30f |    0           0       0       0       8      0      0      0   2583     483       0  20    0c30f a70f     30.360 "
test,1583575990029316864,30," | 30  |   3068       5   3064       0 |   3    3      3023        41 |   1  20   60    0 c30f |    1.983       0       5       0       5     20     20      0   2920     144       1  20    0c30f a70f      8.070 "
test,1583575990027522048,35," | 35  |   3068       5   3064       0 |   2    4      2923       141 |   2  20   60    0 c30f |    2.716       0       5       0       5     20     20      0   2862     202       2  20    0c30f a70f      8.940 "
test,1583575990025227008,40," | 40  |   3068       5   3002      58 |   4    0      2861       199 |   2  40    0    1 a20f |    1.770       0       4       0       4     40     40      0   2782     278       2  40    1a20f a70f      6.510 "
test,1583575990028990976,41," | 41  |   3068       5   2998      56 |   4    3      3022        32 |   1  40   60    0 a20f |    2.044       0       5       0       5     40     40      0   2940     114       1  40    0a20f a70f      8.280 "
test,1583575990046087936,42," | 42  |   3068       5   3005      59 |   1    7      2986        78 |   2  20   60    0 c30f |    0           0       0       0       8      0      0      0   2906     158       0  20    0c30f a70f     30.390 "
test,1583575990043667968,44," | 44  |   3068       5   3009      55 |   1    8      2988        76 |   2  20   60    0 c30f |    0           0       0       0       8      0      0      0   2923     141       0  20    0c30f a70f     30.390 "
test,1583575990026411008,45," | 45  |   3068       5   3023      41 |   4    1      2964       100 |   1  40   60    0 a20f |    2.044       0       5       0       5     40     40      0   2905     159       1  40    0a20f a70f      8.970 "
test,1583575990034363136,46," | 46  |   3068       5   3002      55 |   4    0      2916       141 |   2  40    0    0 a20f |    2.777       0       5       0       5     40     40      0   2855     202       2  40    0a20f a70f      9.000 "
test,1583575990029860096,47," | 47  |   3068       5   3009      55 |   3    0      2954       110 |   3  40    0    0 a20f |    2.777       0       5       0       5     40     40      0   2886     178       2  40    0a20f a70f      9.000 "
test,1583575990026055936,48," | 48  |   3068       5   2944      53 |   4    2      2919        78 |   1  40   60    0 a20f |    1.983       0       5       0       5     40     40      0   2855     142       1  40    0a20f a70f      8.190 "
test,1583575990043013120,49," | 49  |   3068       5   3058       0 |   5    0      3005        53 |   5  60    0    0 5c0f |    0           0       0       0       8      0      0      0   2975      83       0  60    05c0f a70f     30.360 "
test,1583575990024473856,51," | 51  |   3068       5   3059       0 |   5    0      3034        25 |   1  60    0    0 5c0f |    2.044       0       5       0       5     60     60      0   3022      37       1  60    05c0f a70f      8.100 "
test,1583575990028471040,52," | 52  |   3068       5   3037      23 |   5    0      2911       149 |   3  60    0    0 5c0f |    3.509       0       5       0       5     60     60      0   2853     207       3  60    05c0f a70f      9.660 "
test,1583575990048577024,53," | 53  |   3068       5   3042       0 |   5    0      2891       151 |   6  60    0    0 5c0f |    0           0       0       0       8      0      0      0   2853     189       0  60    05c0f a70f     30.360 "
test,1583575990025624064,54," | 54  |   3068       5   3060       0 |   5    7      3008        52 |   1   7   60    0 490f |    2.044       0       5       0       5      7      7      0   2958     102       1   7    0490f a70f      8.100 "
test,1583575990042366976,55," | 55  |   3068       5   3047       0 |   5    0      2937       110 |   5  60    0    0 5c0f |    0           0       0       0       8      0      0      0   2909     138       0  60    05c0f a70f     30.360 "
test,1583575990023426048,56," | 56  |   3068       5   3050       0 |   5    0      3001        49 |   1  60    0    0 5c0f |    2.014       0       5       0       5     60     60      0   2970      80       1  60    05c0f a70f      8.220 "
test,1583575990022258944,57," | 57  |   3068       5   3005       0 |   5    0      2932        73 |   1  60    0    0 5c0f |    2.044       0       5       0       5     60     60      0   2754     251       1  60    05c0f a70f      8.190 "
test,1583575990042779904,58," | 58  |   3068       5   3059       0 |   5    0      3020        39 |   4  60    0    0 5c0f |    0           0       0       0       8      0      0      0   2889     170       0  60    05c0f a70f     30.390 "
test,1583575990045582080,5," |  5  |   3068       5   3066       0 |   0    3      2809       257 |   0   5    7    1 660f |    0           0       0       0       8      0      0      0   2752     314       0   5    1660f a70f     30.180 "
test,1583575990024326912,60," | 60  |   3068       5   3059       0 |   4    0      2860       199 |   2  60    0    1 5c0f |    1.739       0       4       0       4     60     60      0   2808     251       2  60    15c0f a70f      6.510 "
test,1583575990045358848,61," | 61  |   3068       5   3058       0 |   5    0      2927       131 |   4  60    0    0 5c0f |    0           0       0       0       8      0      0      0   2832     226       0  60    05c0f a70f     30.390 "
test,1583575990023191808,7," |  7  |   3068       5   3065       0 |   4    8      3014        51 |   5   7   60    1 490f |    1.739       0       4       0       4      7      7      0   2997      68       2   7    1490f a70f      6.510 "
test,1583575990030278912,9," |  9  |   3068       5   3064       0 |   5    5      2950       114 |   1   7   60    0 490f |    1.983       0       5       0       5      7      7      0   2936     128       1   7    0490f a70f      8.100 "
