test,1583576076547838976,10," | 10  |   3414       5   3386       0 |   5    0      3329        57 |   6   1    0    0 820f |    1.342       0       4       0       4      1      1      0   3284     102       1   1    0820f a70f     30.390 "
test,1583576076526714112,12," | 12  |   3414       5   3412       0 |   5    0      3385        27 |   5   1    0    0 820f |    2.105       0       5       0       5      1      1      0   3330      82       2   1    0820f a70f      8.340 "
test,1583576076525558016,13," | 13  |   3414       5   3410       0 |   5    0      3386        24 |   4   1    0    0 820f |    1.312       0       5       0       5      1      1      0   3343      67       1   1    0820f a70f      7.560 "
test,1583576076546507008,15," | 15  |   3414       5   3412       0 |   1    5      3285       127 |   5  15    1    1 7c0f |    0           0       0       0       8      0      0      0   3136     276       0  15    17c0f a70f     30.180 "
test,1583576076530061056,16," | 16  |   3414       5   3410       0 |   5    0      3284       126 |   3  29    0    0 400f |    5.554       0       5       0       5     29     29      0   3197     213       6  29    0400f a70f     11.700 "
test,1583576076536137984,17," | 17  |   3414       5   3405       5 |   5    0      3370        40 |   2  29    0    0 400f |    4.852       0       5       0       5     29     29      0   3261     149       5  29    0400f a70f     13.200 "
test,1583576076528798208,18," | 18  |   3414       5   3409       0 |   2    1      3215       194 |   2  48   29    0 c40f |    2.777       0       5       0       5     48     48      0   3073     336       2  48    0c40f a70f      8.850 "
test,1583576076532782080,19," | 19  |   3414       5   3401       9 |   5    0      3356        54 |   1  29    0    0 400f |    2.044       0       5       0       5     29     29      0   3244     166       1  29    0400f a70f     10.890 "
test,1583576076529378048,1," |  1  |   3414       4   3411       0 |   4    0      3334        77 |   5   1    0    1 820f |    1.739       0       4       0       4      1      1      0   3309     102       2   1    1820f a70f      6.480 "
test,1583576076530515968,22," | 22  |   3414       5   3408       0 |   1    7      3382        26 |   3  48   46    0 c40f |    2.044       0       5       0       5     48     48      0   3221     187       1  48    0c40f a70f      8.190 "
test,1583576076531393024,23," | 23  |   3414       5   3352       0 |   5    0      3335        17 |   4  29    0    0 400f |    4.852       0       5       0       5     29     29      0   3266      86       5  29    0400f a70f     11.070 "
test,1583576076548743936,24," | 24  |   3414       5   3408       2 |   1    5      3380        30 |   3  48   29    0 c40f |    3.479       0       4       0       4     48     48      0   3294     116       3  48    0c40f a70f     30.330 "
test,1583576076548356096,26," | 26  |   3414       5   3408       2 |   5    0      3397        13 |   5  29    0    0 400f |   10.681       0       3       0       3     29     29      0   3332      78      13  29    0400f a70f     30.390 "
test,1583576076531075072,27," | 27  |   3414       5   3412       0 |   5    0      3318        94 |   1  29    0    0 400f |    2.044       0       5       0       5     29     29      0   3170     242       1  29    0400f a70f     11.670 "
test,1583576076525097984,28," | 28  |   3414       5   3407       3 |   5    0      3147       263 |   1  30    0    0  90f |    2.014       0       5       0       5     30     30      0   3024     386       1  30    0 90f a70f      8.130 "
test,1583576076533406976,29," | 29  |   3414       5   3407       5 |   4    0      3035       377 |   6  29    0    1 400f |    3.814       0       4       0       4     29     29      0   2871     541       5  29    1400f a70f     10.680 "
test,1583576076525332992,30," | 30  |   3414       5   3410       0 |   5    0      3361        49 |   2  30    0    1  90f |    1.739       0       4       0       4     30     30      0   3241     169       2  30    1 90f a70f      6.480 "
test,1583576076526292992,35," | 35  |   3414       5   3410       0 |   5    0      3251       159 |   1  30    0    0  90f |    2.044       0       5       0       5     30     30      0   3180     230       1  30    0 90f a70f      8.250 "
test,1583576076534155008,40," | 40  |   3414       5   3346      60 |   5    0      3187       219 |   1  48    0    0 c40f |    2.044       0       5       0       5     48     48      0   3100     306       1  48    0c40f a70f      8.790 "
test,1583576076529583104,41," | 41  |   3414       5   3342      58 |   5   10      3364        36 |   1  46   29    0 970f |    1.983       0       5       0       5     46     46      0   3275     125       1  46    0970f a70f      8.130 "
test,1583576076547091968,42," | 42  |   3414       5   3349      61 |   5    0      3327        83 |   1  48    0    0 c40f |    2.014       0       2       0       2     48     48      0   3240     170       1  48    0c40f a70f     30.360 "
test,1583576076529789952,44," | 44  |   3414       5   3353      57 |   5    0      3331        79 |   1  48    0    0 c40f |    2.044       0       5       0       5     48     48      0   3259     151       1  48    0c40f a70f      8.820 "
test,1583576076530329088,45," | 45  |   3414       5   3367      43 |   5    1      3301       109 |   1  48   29    0 c40f |    2.014       0       5       0       5     48     48      0   3236     174       1  48    0c40f a70f      9.510 "
test,1583576076527651072,46," | 46  |   3414       5   3346      57 |   4    8      3248       155 |   5  46   48    1 970f |    1.739       0       4       0       4     46     46      0   3179     224       2  46    1970f a70f      6.510 "
test,1583576076530874880,47," | 47  |   3414       5   3353      57 |   5    0      3287       123 |   1  48    0    0 c40f |    1.983       0       5       0       5     48     48      0   3216     194       1  48    0c40f a70f     10.170 "
test,1583576076541093120,48," | 48  |   3414       5   3288      55 |   4    0      3259        84 |   4  48    0    1 c40f |    3.814       0       4       0       4     48     48      0   3191     152       5  48    1c40f a70f      9.210 "
test,1583576076528456960,49," | 49  |   3414       5   3404       0 |   5    0      3343        61 |   1  55    0    0 e00f |    2.014       0       5       0       5     55     55      0   3312      92       1  55    0e00f a70f      8.970 "
test,1583576076545595904,51," | 51  |   3414       5   3405       0 |   0    8      3373        32 |   0  51   15    1 aa0f |    0           0       0       0       8      0      0      0   3360      45       0  51    1aa0f a70f     30.180 "
test,1583576076534457856,52," | 52  |   3414       5   3383      23 |   5    0      3241       165 |   2  29    0    0 400f |    6.286       0       5       0       5     29     29      0   3175     231       7  29    0400f a70f     13.050 "
test,1583576076526492160,53," | 53  |   3414       5   3388       0 |   5    0      3219       169 |   1  55    0    0 e00f |    2.014       0       5       0       5     55     55      0   3178     210       1  55    0e00f a70f      8.100 "
test,1583576076527451904,54," | 54  |   3414       5   3406       0 |   5    0      3349        57 |   5   1    0    0 820f |    1.342       0       5       0       5      1      1      0   3294     112       1   1    0820f a70f      7.590 "
test,1583576076525979136,55," | 55  |   3414       5   3393       0 |   4    0      3265       128 |   2  55    0    1 e00f |    1.770       0       4       0       4     55     55      0   3234     159       2  55    1e00f a70f      6.510 "
test,1583576076548141056,56," | 56  |   3414       5   3396       0 |   1    8      3343        53 |   2  55   51    0 e00f |    2.807       0       1       0       1     55     55      0   3308      88       2  55    0e00f a70f     30.300 "
test,1583576076549551104,57," | 57  |   3414       5   3351       0 |   1   10      3267        84 |   2  55   51    0 e00f |    3.540       0       2       0       2     55     55      0   3069     282       3  55    0e00f a70f     30.330 "
test,1583576076531622912,58," | 58  |   3414       5   3405       0 |   2    4      3361        44 |   1  55    1    0 e00f |    1.983       0       5       0       5     55     55      0   3216     189       1  55    0e00f a70f      9.660 "
test,1583576076528111872,5," |  5  |   3414       5   3412       0 |   5    0      3119       293 |   5   1    0    0 820f |    2.105       0       5       0       5      1      1      0   3058     354       2   1    0820f a70f      8.310 "
test,1583576076546027008,60," | 60  |   3414       5   3405       0 |   1    4      3189       216 |   4  15   51    0 7c0f |    0           0       0       0       8      0      0      0   3130     275       0  15    07c0f a70f     30.390 "
test,1583576076532414976,61," | 61  |   3414       5   3404       0 |   1    5      3256       148 |   2  55    1    0 e00f |    2.777       0       5       0       5     55     55      0   3154     250       2  55    0e00f a70f     10.440 "
test,1583576076527239936,7," |  7  |   3414       5   3411       0 |   5    0      3354        57 |   4   1    0    0 820f |    1.373       0       5       0       5      1      1      0   3335      76       1   1    0820f a70f      7.560 "
test,1583576076527822080,9," |  9  |   3414       5   3410       0 |   5    0      3286       124 |   4   1    0    0 820f |    1.342       0       5       0       5      1      1      0   3268     142       1   1    0820f a70f      7.470 "
