test,1583576214031244032,10," | 10  |   3964       5   3936       0 |   5    0      3870        66 |   1  13    0    0 910f |    2.075       0       5       0       5     13     13      0   3822     114       1  13    0910f a70f      9.600 "
test,1583576214028489984,12," | 12  |   3964       5   3962       0 |   5    0      3931        31 |   1  13    0    0 910f |    2.746       0       5       0       5     13     13      0   3867      95       2  13    0910f a70f      9.000 "
test,1583576214026817024,13," | 13  |   3964       5   3960       0 |   4    0      3934        26 |   2  13    0    1 910f |    1.739       0       4       0       4     13     13      0   3886      74       2  13    1910f a70f      6.510 "
test,1583576214032825856,15," | 15  |   3964       5   3962       0 |   5    0      3810       152 |   2  13    0    0 910f |    3.509       0       5       0       5     13     13      0   3639     323       3  13    0910f a70f      9.660 "
test,1583576214051440896,16," | 16  |   3964       5   3960       0 |   4    4      3816       144 |   5  41   52    0 470f |    3.479       0       4       0       4     41     41      0   3711     249       3  41    0470f a70f     30.360 "
test,1583576214029144064,17," | 17  |   3964       4   3955       5 |   5    0      3912        48 |   5  41    0    0 470f |    2.044       0       5       0       5     41     41      0   3791     169       1  41    0470f a70f      8.280 "
test,1583576214031037184,18," | 18  |   3964       5   3959       0 |   5    0      3740       219 |   5  41    0    0 470f |    2.777       0       5       0       5     41     41      0   3578     381       2  41    0470f a70f      8.970 "
test,1583576214033766144,19," | 19  |   3964       4   3951       9 |   5    0      3899        61 |   6  41    0    0 470f |    2.777       0       5       0       5     41     41      0   3779     181       2  41    0470f a70f     11.160 "
test,1583576214027837952,1," |  1  |   3964       4   3961       0 |   5    0      3866        95 |   1  13    0    0 910f |    2.746       0       5       0       5     13     13      0   3837     124       1  13    0910f a70f      8.970 "
test,1583576214047947776,22," | 22  |   3964       5   3958       0 |   1    8      3927        31 |   2  57   52    0 b90f |    0           0       0       0       8      0      0      0   3742     216       0  57    0b90f a70f     30.360 "
test,1583576214034441984,23," | 23  |   3964       5   3902       0 |   1   13      3883        19 |   1  57   52    0 b90f |    2.044       0       5       0       5     57     57      0   3799     103       1  57    0b90f a70f      8.280 "
test,1583576214032111872,24," | 24  |   3964       5   3958       2 |   5    0      3921        39 |   5  41    0    0 470f |    3.479       0       5       0       5     41     41      0   3820     140       3  41    0470f a70f      9.690 "
test,1583576214031804928,26," | 26  |   3964       5   3958       2 |   5    0      3945        15 |   6  41    0    0 470f |    2.746       0       5       0       5     41     41      0   3871      89       2  41    0470f a70f     10.410 "
test,1583576214049014016,27," | 27  |   3964       5   3962       0 |   4    4      3848       114 |   7  41   29    0 470f |    0           0       0       0       8      0      0      0   3684     278       0  41    0470f a70f     30.360 "
test,1583576214048264960,28," | 28  |   3964       5   3955       5 |   3    2      3648       312 |   4  57   41    0 b90f |    0           0       0       0       8      0      0      0   3498     462       0  57    0b90f a70f     30.360 "
test,1583576214050543104,29," | 29  |   3964       5   3957       5 |   0    6      3521       441 |   0  29   41    1 430f |    0           0       0       0       8      0      0      0   3334     628       0  29    1430f a70f     30.150 "
test,1583576214046316032,30," | 30  |   3964       5   3958       2 |   5    0      3906        54 |   4  57    0    0 b90f |    0           0       0       0       8      0      0      0   3760     200       0  57    0b90f a70f     30.360 "
test,1583576214046664960,35," | 35  |   3964       5   3958       2 |   5    0      3765       195 |   3  57    0    0 b90f |    0           0       0       0       8      0      0      0   3681     279       0  57    0b90f a70f     30.360 "
test,1583576214032322048,40," | 40  |   3964       5   3896      60 |   5    0      3713       243 |   2  41    0    0 470f |    2.014       0       5       0       5     41     41      0   3615     341       1  41    0470f a70f      8.100 "
test,1583576214031470080,41," | 41  |   3964       5   3891      59 |   4    0      3914        36 |   4  41    0    1 470f |    1.739       0       4       0       4     41     41      0   3813     137       2  41    1470f a70f      7.200 "
test,1583576214050097920,42," | 42  |   3964       5   3899      61 |   5    0      3870        90 |   1  41    0    0 470f |    2.014       0       4       0       4     41     41      0   3773     187       1  41    0470f a70f     30.390 "
test,1583576214035432192,44," | 44  |   3964       5   3903      57 |   5    0      3870        90 |   1  41    0    0 470f |    2.014       0       5       0       5     41     41      0   3789     171       1  41    0470f a70f      8.880 "
test,1583576214033433088,45," | 45  |   3964       5   3917      43 |   5    0      3832       128 |   1  41    0    0 470f |    2.075       0       5       0       5     41     41      0   3760     200       1  41    0470f a70f      8.190 "
test,1583576214030145024,46," | 46  |   3964       5   3896      57 |   5    0      3771       182 |   1  41    0    0 470f |    2.014       0       5       0       5     41     41      0   3696     257       1  41    0470f a70f      8.280 "
test,1583576214030606080,47," | 47  |   3964       5   3903      57 |   5    0      3821       139 |   1  41    0    0 470f |    2.014       0       5       0       5     41     41      0   3742     218       1  41    0470f a70f      8.190 "
test,1583576214037081088,48," | 48  |   3964       5   3838      55 |   5    0      3799        94 |   1  41    0    0 470f |    1.983       0       5       0       5     41     41      0   3722     171       1  41    0470f a70f      8.910 "
test,1583576214029392896,49," | 49  |   3964       5   3954       0 |   5    0      3882        72 |   2  61    0    0 c20f |    2.746       0       5       0       5     61     61      0   3849     105       2  61    0c20f a70f      8.940 "
test,1583576214040862976,51," | 51  |   3964       5   3955       0 |   5    0      3917        38 |   1  13    0    0 910f |    2.075       0       5       0       5     13     13      0   3900      55       1  13    0910f a70f      8.310 "
test,1583576214049670912,52," | 52  |   3964       5   3932      24 |   0    8      3772       184 |   0  52   41    1 760f |    0           0       0       0       8      0      0      0   3694     262       0  52    1760f a70f     30.180 "
test,1583576214035753984,53," | 53  |   3964       5   3938       0 |   5    0      3733       205 |   3  61    0    0 c20f |    3.448       0       5       0       5     61     61      0   3689     249       3  61    0c20f a70f      9.630 "
test,1583576214029757952,54," | 54  |   3964       5   3956       0 |   5    0      3885        71 |   2  13    0    0 910f |    2.777       0       5       0       5     13     13      0   3821     135       2  13    0910f a70f      8.940 "
test,1583576214030343936,55," | 55  |   3964       5   3943       0 |   5    0      3798       145 |   2  61    0    0 c20f |    2.716       0       5       0       5     61     61      0   3766     177       2  61    0c20f a70f      8.820 "
test,1583576214030828032,56," | 56  |   3964       5   3946       0 |   4    8      3885        61 |   4  13   61    0 910f |    2.807       0       5       0       5     13     13      0   3842     104       2  13    0910f a70f      9.000 "
test,1583576214029968128,57," | 57  |   3964       5   3901       0 |   0   12      3799       102 |   0  57   52    1 b90f |    1.770       0       4       0       4     57     57      0   3568     333       2  57    1b90f a70f      6.510 "
test,1583576214049876992,58," | 58  |   3964       5   3955       0 |   5    2      3901        54 |   1  61   13    0 c20f |    2.014       0       4       0       4     61     61      0   3731     224       1  61    0c20f a70f     30.270 "
test,1583576214029592064,5," |  5  |   3964       5   3962       0 |   5    0      3614       348 |   1  13    0    0 910f |    2.014       0       5       0       5     13     13      0   3547     415       1  13    0910f a70f      8.130 "
test,1583576214051279104,60," | 60  |   3964       5   3955       0 |   1    5      3704       251 |   4  57   13    0 b90f |    2.014       0       4       0       4     57     57      0   3634     321       1  57    0b90f a70f     30.390 "
test,1583576214028120064,61," | 61  |   3964       5   3954       0 |   4    5      3777       177 |   5  61   13    1 c20f |    1.739       0       4       0       4     61     61      0   3650     304       2  61    1c20f a70f      6.480 "
test,1583576214028667904,7," |  7  |   3964       5   3961       0 |   5    0      3901        60 |   1  13    0    0 910f |    2.044       0       5       0       5     13     13      0   3877      84       1  13    0910f a70f      9.030 "
test,1583576214034818816,9," |  9  |   3964       5   3960       0 |   5    0      3817       143 |   1  13    0    0 910f |    2.746       0       5       0       5     13     13      0   3798     162       2  13    0910f a70f      9.000 "
