test,1583576165528453120,10," | 10  |   3770       5   3742       0 |   5    0      3678        64 |   1  54    0    0 740f |    2.014       0       5       0       5     54     54      0   3630     112       1  54    0740f a70f      8.130 "
test,1583576165527225856,12," | 12  |   3770       5   3768       0 |   5    0      3737        31 |   1  54    0    0 740f |    2.044       0       5       0       5     54     54      0   3677      91       1  54    0740f a70f      8.850 "
test,1583576165531848960,13," | 13  |   3770       5   3766       0 |   5    0      3740        26 |   1  54    0    0 740f |    2.014       0       5       0       5     54     54      0   3692      74       1  54    0740f a70f      9.690 "
test,1583576165530191872,15," | 15  |   3770       5   3768       0 |   5    0      3625       143 |   2  54    0    0 740f |    2.746       0       5       0       5     54     54      0   3464     304       2  54    0740f a70f      9.690 "
test,1583576165551017984,16," | 16  |   3770       5   3766       0 |   5    0      3631       135 |   2  17    0    0 b70f |    2.746       0       4       0       4     17     17      0   3528     238       2  17    0b70f a70f     30.360 "
test,1583576165530827008,17," | 17  |   3770       5   3761       5 |   5    0      3720        46 |   4  17    0    1 b70f |    1.739       0       4       0       4     17     17      0   3604     162       2  17    1b70f a70f      7.920 "
test,1583576165529753088,18," | 18  |   3770       5   3765       0 |   5    0      3557       208 |   1  17    0    0 b70f |    2.777       0       5       0       5     17     17      0   3399     366       2  17    0b70f a70f      8.850 "
test,1583576165535182848,19," | 19  |   3770       5   3757       9 |   5    0      3710        56 |   1  17    0    0 b70f |    2.044       0       5       0       5     17     17      0   3596     170       1  17    0b70f a70f      9.720 "
test,1583576165533917952,1," |  1  |   3770       4   3767       0 |   5    0      3680        87 |   1  54    0    0 740f |    2.685       0       5       0       5     54     54      0   3651     116       1  54    0740f a70f      8.760 "
test,1583576165532891904,22," | 22  |   3770       5   3764       0 |   5    0      3735        29 |   1  17    0    0 b70f |    2.746       0       5       0       5     17     17      0   3556     208       2  17    0b70f a70f      9.690 "
test,1583576165528651008,23," | 23  |   3770       5   3708       0 |   5    0      3689        19 |   3  17    0    0 b70f |    2.044       0       5       0       5     17     17      0   3606     102       1  17    0b70f a70f      9.000 "
test,1583576165529992192,24," | 24  |   3770       5   3764       2 |   5    0      3732        34 |   1  17    0    0 b70f |    2.044       0       5       0       5     17     17      0   3637     129       1  17    0b70f a70f      8.910 "
test,1583576165530596864,26," | 26  |   3770       5   3764       2 |   5    0      3751        15 |   1  17    0    0 b70f |    2.075       0       5       0       5     17     17      0   3681      85       1  17    0b70f a70f      8.280 "
test,1583576165536340992,27," | 27  |   3770       5   3768       0 |   5    0      3664       104 |   4  17    0    0 b70f |    2.777       0       5       0       5     17     17      0   3504     264       2  17    0b70f a70f      9.690 "
test,1583576165548609024,28," | 28  |   3770       5   3762       4 |   0    2      3476       290 |   0  28   17    1 bc0f |    0           0       0       0       8      0      0      0   3334     432       0  28    1bc0f a70f     30.150 "
test,1583576165548217088,29," | 29  |   3770       5   3763       5 |   0    2      3351       417 |   0  29   17    1 b10f |    0           0       0       0       8      0      0      0   3174     594       0  29    1b10f a70f     30.150 "
test,1583576165531506944,30," | 30  |   3770       5   3765       1 |   5    0      3713        53 |   3  17    0    0 b70f |    3.540       0       5       0       5     17     17      0   3576     190       3  17    0b70f a70f     11.160 "
test,1583576165540685824,35," | 35  |   3770       5   3765       1 |   5    0      3585       181 |   2  17    0    0 b70f |    3.509       0       5       0       5     17     17      0   3504     262       3  17    0b70f a70f     10.410 "
test,1583576165547730944,40," | 40  |   3770       5   3702      60 |   0   10      3525       237 |   0  40   17    1 580f |    0           0       0       0       8      0      0      0   3429     333       0  40    1580f a70f     30.180 "
test,1583576165550368000,41," | 41  |   3770       5   3697      59 |   5    0      3720        36 |   1  17    0    0 b70f |    4.974       0       3       0       3     17     17      0   3623     133       5  17    0b70f a70f     30.240 "
test,1583576165546743040,42," | 42  |   3770       5   3705      61 |   0    8      3681        85 |   0  42   17    1 750f |    0           0       0       0       8      0      0      0   3587     179       0  42    1750f a70f     30.180 "
test,1583576165534883072,44," | 44  |   3770       5   3709      57 |   5    0      3679        87 |   6  17    0    0 b70f |    2.777       0       5       0       5     17     17      0   3600     166       2  17    0b70f a70f      9.000 "
test,1583576165542078976,45," | 45  |   3770       5   3723      43 |   5    0      3644       122 |   2  17    0    0 b70f |    3.540       0       5       0       5     17     17      0   3576     190       3  17    0b70f a70f      9.720 "
test,1583576165552340992,46," | 46  |   3770       5   3702      57 |   5    0      3588       171 |   2  17    0    0 b70f |    3.540       0       4       0       4     17     17      0   3513     246       3  17    0b70f a70f     30.360 "
test,1583576165549453056,47," | 47  |   3770       5   3709      57 |   5    0      3634       132 |   6  17    0    0 b70f |    3.540       0       4       0       4     17     17      0   3558     208       3  17    0b70f a70f     30.300 "
test,1583576165549731072,48," | 48  |   3770       5   3644      55 |   5    0      3608        91 |   6  17    0    0 b70f |    3.509       0       4       0       4     17     17      0   3534     165       3  17    0b70f a70f     30.270 "
test,1583576165526854912,49," | 49  |   3770       5   3760       0 |   5    0      3690        70 |   2  55    0    0 5a0f |    2.014       0       5       0       5     55     55      0   3657     103       1  55    05a0f a70f      8.070 "
test,1583576165529145088,51," | 51  |   3770       5   3761       0 |   5    0      3723        38 |   2  54    0    0 740f |    2.746       0       5       0       5     54     54      0   3707      54       2  54    0740f a70f      8.940 "
test,1583576165530409216,52," | 52  |   3770       5   3739      23 |   5    0      3586       176 |   2  17    0    0 b70f |    2.044       0       5       0       5     17     17      0   3511     251       1  17    0b70f a70f      8.220 "
test,1583576165535867904,53," | 53  |   3770       5   3744       0 |   5    0      3551       193 |   1  55    0    0 5a0f |    1.983       0       5       0       5     55     55      0   3507     237       1  55    05a0f a70f      8.190 "
test,1583576165527014912,54," | 54  |   3770       5   3762       0 |   4    0      3698        64 |   4  54    0    1 740f |    1.739       0       4       0       4     54     54      0   3637     125       2  54    1740f a70f      7.200 "
test,1583576165528822784,55," | 55  |   3770       5   3749       0 |   5    0      3609       140 |   2  55    0    1 5a0f |    1.770       0       4       0       4     55     55      0   3576     173       2  55    15a0f a70f      6.510 "
test,1583576165527868928,56," | 56  |   3770       5   3752       0 |   5    0      3694        58 |   2  54    0    0 740f |    2.746       0       5       0       5     54     54      0   3654      98       2  54    0740f a70f      8.940 "
test,1583576165531090944,57," | 57  |   3770       5   3707       0 |   2    5      3612        95 |  10  17   60    0 b70f |    2.838       0       5       0       5     17     17      0   3391     316       2  17    0b70f a70f      8.940 "
test,1583576165548992000,58," | 58  |   3770       5   3761       0 |   5    0      3710        51 |   1  54    0    0 740f |    9.338       0       1       0       1     54     54      0   3546     215      11  54    0740f a70f     30.390 "
test,1583576165532392960,5," |  5  |   3770       4   3768       0 |   5    0      3439       329 |   2  54    0    0 740f |    2.746       0       5       0       5     54     54      0   3372     396       2  54    0740f a70f      9.570 "
test,1583576165546057984,60," | 60  |   3770       5   3761       0 |   0    6      3523       238 |   0  60   17    1 cc0f |    0           0       0       0       8      0      0      0   3458     303       0  60    1cc0f a70f     30.180 "
test,1583576165549912832,61," | 61  |   3770       5   3760       0 |   5    0      3590       170 |   1  54    0    0 740f |    1.983       0       2       0       2     54     54      0   3468     292       1  54    0740f a70f     30.390 "
test,1583576165528125952,7," |  7  |   3770       5   3767       0 |   5    0      3707        60 |   1  54    0    0 740f |    1.983       0       5       0       5     54     54      0   3683      84       1  54    0740f a70f      8.220 "
test,1583576165527396864,9," |  9  |   3770       5   3766       0 |   5    0      3631       135 |   1  54    0    0 740f |    2.014       0       5       0       5     54     54      0   3612     154       1  54    0740f a70f      8.280 "
