test,1583576204799300864,10," | 10  |   3927       5   3899       0 |   2    6      3834        65 |   1  51   12    0 d90f |    2.014       0       3       0       3     51     51      0   3785     114       1  51    0d90f a70f     30.330 "
test,1583576204777319936,12," | 12  |   3927       5   3925       0 |   4    0      3894        31 |   8  12    0    1 4e0f |    1.739       0       4       0       4     12     12      0   3830      95       2  12    14e0f a70f      6.480 "
test,1583576204798765056,13," | 13  |   3927       5   3923       0 |   1    9      3897        26 |   1  51   12    0 d90f |    1.983       0       3       0       3     51     51      0   3849      74       1  51    0d90f a70f     30.330 "
test,1583576204800848896,15," | 15  |   3927       5   3925       0 |   5    0      3774       151 |   1  12    0    0 4e0f |    1.983       0       4       0       4     12     12      0   3602     323       1  12    04e0f a70f     30.360 "
test,1583576204785264896,16," | 16  |   3927       5   3923       0 |   4    0      3781       142 |   3  17    0    0 340f |    2.777       0       5       0       5     17     17      0   3676     247       2  17    0340f a70f      8.970 "
test,1583576204778446080,17," | 17  |   3927       5   3918       5 |   4    0      3875        48 |   2  17    0    1 340f |    1.739       0       4       0       4     17     17      0   3755     168       2  17    1340f a70f      6.480 "
test,1583576204799591936,18," | 18  |   3927       5   3922       0 |   0    3      3707       215 |   0  18   17    1 320f |    0           0       0       0       8      0      0      0   3547     375       0  18    1320f a70f     30.180 "
test,1583576204778897152,19," | 19  |   3927       5   3914       9 |   5    0      3863        60 |   1  17    0    0 340f |    2.014       0       5       0       5     17     17      0   3744     179       1  17    0340f a70f      8.280 "
test,1583576204782927872,1," |  1  |   3927       4   3924       0 |   5    0      3831        93 |   1  12    0    0 4e0f |    2.685       0       5       0       5     12     12      0   3802     122       1  12    04e0f a70f      9.510 "
test,1583576204781192960,22," | 22  |   3927       5   3921       0 |   4    7      3890        31 |   1  17   18    0 340f |    2.777       0       5       0       5     17     17      0   3706     215       2  17    0340f a70f      9.690 "
test,1583576204782053120,23," | 23  |   3927       5   3865       0 |   5    0      3846        19 |   1  17    0    0 340f |    2.746       0       5       0       5     17     17      0   3762     103       2  17    0340f a70f      9.660 "
test,1583576204780626176,24," | 24  |   3927       5   3921       2 |   5    0      3884        39 |   1  17    0    0 340f |    2.777       0       5       0       5     17     17      0   3785     138       2  17    0340f a70f      9.000 "
test,1583576204777957888,26," | 26  |   3927       5   3921       2 |   5    0      3908        15 |   1  17    0    0 340f |    2.044       0       5       0       5     17     17      0   3834      89       1  17    0340f a70f      8.280 "
test,1583576204786392832,27," | 27  |   3927       5   3925       0 |   5    0      3813       112 |   1  17    0    0 340f |    3.509       0       5       0       5     17     17      0   3652     273       3  17    0340f a70f     11.850 "
test,1583576204778603008,28," | 28  |   3927       5   3918       5 |   4    1      3615       308 |   1  30   17    0 b80f |    2.075       0       5       0       5     30     30      0   3467     456       1  30    0b80f a70f      8.130 "
test,1583576204786204928,29," | 29  |   3927       3   3920       5 |   5    0      3489       436 |   2  17    0    0 340f |    2.777       0       5       0       5     17     17      0   3306     619       2  17    0340f a70f     12.450 "
test,1583576204779609088,30," | 30  |   3927       5   3921       2 |   4    0      3870        53 |   2  30    0    1 b80f |    1.770       0       4       0       4     30     30      0   3727     196       2  30    1b80f a70f      6.510 "
test,1583576204789833984,35," | 35  |   3927       5   3921       2 |   5    0      3732       191 |   1  30    0    0 b80f |    2.044       0       5       0       5     30     30      0   3650     273       1  30    0b80f a70f      8.250 "
test,1583576204782298112,40," | 40  |   3927       5   3859      60 |   5    0      3677       242 |   2  44    0    0 a90f |    2.746       0       5       0       5     44     44      0   3579     340       2  44    0a90f a70f      9.630 "
test,1583576204783763968,41," | 41  |   3927       5   3854      59 |   3    8      3877        36 |   2  44   47    0 a90f |    2.807       0       5       0       5     44     44      0   3776     137       2  44    0a90f a70f      8.940 "
test,1583576204800108032,42," | 42  |   3927       5   3862      61 |   3    8      3835        88 |   4  44   47    0 a90f |    2.777       0       4       0       4     44     44      0   3737     186       2  44    0a90f a70f     30.390 "
test,1583576204779425024,44," | 44  |   3927       5   3866      57 |   4    1      3833        90 |   4  44   47    1 a90f |    1.739       0       4       0       4     44     44      0   3753     170       2  44    1a90f a70f      6.480 "
test,1583576204781385984,45," | 45  |   3927       5   3880      43 |   5    0      3797       126 |   1  44    0    0 a90f |    2.044       0       5       0       5     44     44      0   3726     197       1  44    0a90f a70f      8.280 "
test,1583576204780928000,46," | 46  |   3927       5   3859      57 |   5    0      3737       179 |   1  44    0    0 a90f |    2.014       0       5       0       5     44     44      0   3662     254       1  44    0a90f a70f      8.250 "
test,1583576204795857920,47," | 47  |   3927       5   3866      57 |   0    3      3786       137 |   0  47   44    1 c30f |    0           0       0       0       8      0      0      0   3709     214       0  47    1c30f a70f     30.240 "
test,1583576204783997952,48," | 48  |   3927       5   3801      55 |   5    0      3762        94 |   1  44    0    0 a90f |    2.075       0       5       0       5     44     44      0   3685     171       1  44    0a90f a70f      9.570 "
test,1583576204780180992,49," | 49  |   3927       5   3917       0 |   5    0      3846        71 |   2  12    0    0 4e0f |    2.746       0       5       0       5     12     12      0   3813     104       2  12    04e0f a70f      8.820 "
test,1583576204779894016,51," | 51  |   3927       5   3918       0 |   4    1      3880        38 |   8  51   17    1 d90f |    1.770       0       4       0       4     51     51      0   3863      55       2  51    1d90f a70f      6.510 "
test,1583576204788549888,52," | 52  |   3927       5   3895      24 |   5    0      3737       182 |   2  17    0    0 340f |    2.777       0       5       0       5     17     17      0   3660     259       2  17    0340f a70f     10.230 "
test,1583576204786035968,53," | 53  |   3927       5   3901       0 |   5    0      3698       203 |   3  12    0    0 4e0f |    3.448       0       5       0       5     12     12      0   3654     247       3  12    04e0f a70f      9.540 "
test,1583576204790395904,54," | 54  |   3927       5   3919       0 |   5    0      3850        69 |   1  12    0    0 4e0f |    1.983       0       5       0       5     12     12      0   3787     132       1  12    04e0f a70f     11.070 "
test,1583576204785860096,55," | 55  |   3927       5   3906       0 |   5    0      3764       142 |   2  12    0    0 4e0f |    2.716       0       5       0       5     12     12      0   3731     175       2  12    04e0f a70f      8.760 "
test,1583576204783545088,56," | 56  |   3927       5   3909       0 |   5    1      3849        60 |   1  51   17    0 d90f |    1.983       0       5       0       5     51     51      0   3807     102       1  51    0d90f a70f      8.100 "
test,1583576204801140992,57," | 57  |   3927       5   3864       0 |   5    0      3764       100 |   2  17    0    0 340f |    3.479       0       4       0       4     17     17      0   3536     328       3  17    0340f a70f     30.360 "
test,1583576204784566016,58," | 58  |   3927       5   3918       0 |   5    1      3865        53 |   1  12   17    0 4e0f |    1.983       0       5       0       5     12     12      0   3696     222       1  12    04e0f a70f      8.130 "
test,1583576204781835008,5," |  5  |   3927       5   3925       0 |   5    0      3580       345 |   1  12    0    0 4e0f |    2.014       0       5       0       5     12     12      0   3513     412       1  12    04e0f a70f      8.130 "
test,1583576204773415168,60," | 60  |   3927       5   3918       0 |   5    1      3670       248 |   1  51   17    0 d90f |    2.044       0       5       0       5     51     51      0   3601     317       1  51    0d90f a70f      8.250 "
test,1583576204782653952,61," | 61  |   3927       5   3917       0 |   4    1      3740       177 |   2  12   17    0 4e0f |    2.746       0       5       0       5     12     12      0   3614     303       2  12    04e0f a70f     10.410 "
test,1583576204777030912,7," |  7  |   3927       5   3924       0 |   5    0      3864        60 |   1  12    0    0 4e0f |    2.014       0       5       0       5     12     12      0   3840      84       1  12    04e0f a70f      8.160 "
test,1583576204783124992,9," |  9  |   3927       5   3923       0 |   5    0      3782       141 |   1  12    0    0 4e0f |    2.014       0       5       0       5     12     12      0   3763     160       1  12    04e0f a70f      9.720 "
