test,1583576040535257088,10," | 10  |   3270       5   3242       0 |   5    0      3189        53 |   2   5    0    0 a90f |    2.777       0       5       0       5      5      5      0   3144      98       2   5    0a90f a70f      8.880 "
test,1583576040524014848,12," | 12  |   3270       5   3268       0 |   5    0      3241        27 |   1   5    0    0 a90f |    2.044       0       5       0       5      5      5      0   3188      80       1   5    0a90f a70f      8.280 "
test,1583576040524681984,13," | 13  |   3270       5   3266       0 |   5    0      3242        24 |   1   5    0    0 a90f |    2.044       0       5       0       5      5      5      0   3200      66       1   5    0a90f a70f      8.280 "
test,1583576040529184000,15," | 15  |   3270       5   3268       0 |   5    0      3146       122 |   1   5    0    0 a90f |    2.014       0       5       0       5      5      5      0   3004     264       1   5    0a90f a70f      8.850 "
test,1583576040534252032,16," | 16  |   3270       5   3266       0 |   5    0      3145       121 |   1  17    0    0 570f |    2.075       0       5       0       5     17     17      0   3063     203       1  17    0570f a70f     10.320 "
test,1583576040533487104,17," | 17  |   3270       5   3261       5 |   5    0      3230        36 |   4  17    0    1 570f |    1.770       0       4       0       4     17     17      0   3128     138       2  17    1570f a70f      6.510 "
test,1583576040530286080,18," | 18  |   3270       5   3265       0 |   4    1      3085       180 |   4  17   40    0 570f |    3.540       0       5       0       5     17     17      0   2946     319       3  17    0570f a70f      9.630 "
test,1583576040529990912,19," | 19  |   3270       5   3257       9 |   5    0      3213        53 |   1  17    0    0 570f |    2.044       0       5       0       5     17     17      0   3111     155       1  17    0570f a70f      8.880 "
test,1583576040528663040,1," |  1  |   3270       4   3267       0 |   5    0      3192        75 |   2   5    0    0 a90f |    3.448       0       5       0       5      5      5      0   3169      98       2   5    0a90f a70f      9.480 "
test,1583576040530659840,22," | 22  |   3270       5   3264       0 |   5    0      3239        25 |   1  17    0    0 570f |    2.807       0       5       0       5     17     17      0   3086     178       2  17    0570f a70f      9.000 "
test,1583576040526701056,23," | 23  |   3270       5   3208       0 |   5    0      3193        15 |   1  17    0    0 570f |    2.075       0       5       0       5     17     17      0   3128      80       1  17    0570f a70f      8.850 "
test,1583576040545108992,24," | 24  |   3270       5   3264       2 |   2    8      3238        28 |   1  40   17    0 7b0f |    0           0       0       0       8      0      0      0   3156     110       0  40    07b0f a70f     30.360 "
test,1583576040524291072,26," | 26  |   3270       5   3264       2 |   5    0      3254        12 |   1  17    0    0 570f |    2.044       0       5       0       5     17     17      0   3193      73       1  17    0570f a70f      8.280 "
test,1583576040533323008,27," | 27  |   3270       5   3268       0 |   5    0      3175        93 |   1  17    0    0 570f |    2.044       0       5       0       5     17     17      0   3037     231       1  17    0570f a70f      9.690 "
test,1583576040547992832,28," | 28  |   3270       5   3263       3 |   5    0      3018       248 |   1  17    0    0 570f |    3.479       0       2       0       2     17     17      0   2900     366       3  17    0570f a70f     30.360 "
test,1583576040548396032,29," | 29  |   3270       5   3263       5 |   5    0      2911       357 |   2  17    0    0 570f |    2.807       0       4       0       4     17     17      0   2755     513       2  17    0570f a70f     30.300 "
test,1583576040544243200,30," | 30  |   3270       5   3266       0 |   0    7      3218        48 |   0  30   17    1 cb0f |    0           0       0       0       8      0      0      0   3106     160       0  30    1cb0f a70f     30.090 "
test,1583576040547254016,35," | 35  |   3270       5   3266       0 |   4    5      3116       150 |   5  17   30    0 570f |    3.540       0       3       0       3     17     17      0   3050     216       3  17    0570f a70f     30.240 "
test,1583576040534713088,40," | 40  |   3270       5   3203      59 |   3    0      3051       211 |  11  40    0    1 7b0f |    1.770       0       4       0       4     40     40      0   2966     296       2  40    17b0f a70f      6.510 "
test,1583576040525634048,41," | 41  |   3270       5   3199      57 |   5    1      3220        36 |   1  40   17    0 7b0f |    2.014       0       5       0       5     40     40      0   3134     122       1  40    07b0f a70f      8.250 "
test,1583576040528458240,42," | 42  |   3270       5   3206      60 |   5    1      3185        81 |   1  40   17    0 7b0f |    2.014       0       5       0       5     40     40      0   3099     167       1  40    07b0f a70f      8.910 "
test,1583576040525427200,44," | 44  |   3270       5   3210      56 |   5    2      3188        78 |   1  40   17    0 7b0f |    1.983       0       5       0       5     40     40      0   3118     148       1  40    07b0f a70f      8.250 "
test,1583576040527296000,45," | 45  |   3270       5   3224      42 |   5    1      3162       104 |   1  40   17    0 7b0f |    2.014       0       5       0       5     40     40      0   3099     167       1  40    07b0f a70f      8.970 "
test,1583576040527113984,46," | 46  |   3270       5   3203      56 |   5    0      3110       149 |   1  40    0    0 7b0f |    2.014       0       5       0       5     40     40      0   3044     215       1  40    07b0f a70f      8.880 "
test,1583576040529797120,47," | 47  |   3270       5   3210      56 |   5    0      3152       114 |   1  40    0    0 7b0f |    2.044       0       5       0       5     40     40      0   3082     184       1  40    07b0f a70f      8.250 "
test,1583576040525033984,48," | 48  |   3270       5   3145      54 |   5    1      3117        82 |   1  40   17    0 7b0f |    2.014       0       5       0       5     40     40      0   3050     149       1  40    07b0f a70f      8.220 "
test,1583576040529616128,49," | 49  |   3270       5   3260       0 |   5    0      3202        58 |   4   5    0    0 a90f |    3.509       0       5       0       5      5      5      0   3173      87       3   5    0a90f a70f      9.690 "
test,1583576040526220032,51," | 51  |   3270       5   3261       0 |   5    0      3232        29 |   2   5    0    0 a90f |    2.746       0       5       0       5      5      5      0   3219      42       2   5    0a90f a70f      8.880 "
test,1583576040532502784,52," | 52  |   3270       5   3239      23 |   5    0      3108       154 |   3  17    0    0 570f |    2.777       0       5       0       5     17     17      0   3045     217       2  17    0570f a70f      9.690 "
test,1583576040530489856,53," | 53  |   3270       5   3244       0 |   5    0      3083       161 |   5   5    0    0 a90f |    4.211       0       5       0       5      5      5      0   3043     201       4   5    0a90f a70f     10.290 "
test,1583576040528840960,54," | 54  |   3270       5   3262       0 |   5    0      3207        55 |   2   5    0    0 a90f |    2.746       0       5       0       5      5      5      0   3154     108       2   5    0a90f a70f      9.510 "
test,1583576040529426176,55," | 55  |   3270       5   3249       0 |   5    0      3130       119 |   4   5    0    0 a90f |    3.509       0       5       0       5      5      5      0   3100     149       3   5    0a90f a70f      9.600 "
test,1583576040529014016,56," | 56  |   3270       5   3252       0 |   5    0      3199        53 |   3   5    0    0 a90f |    2.746       0       5       0       5      5      5      0   3165      87       2   5    0a90f a70f      8.880 "
test,1583576040539215104,57," | 57  |   3270       5   3207       0 |   1    4      3126        81 |   2  17    5    0 570f |    2.746       0       5       0       5     17     17      0   2934     273       2  17    0570f a70f      8.970 "
test,1583576040522715136,58," | 58  |   3270       5   3261       0 |   5    0      3218        43 |   3   5    0    0 a90f |    2.777       0       5       0       5      5      5      0   3077     184       2   5    0a90f a70f      8.940 "
test,1583576040523811072,5," |  5  |   3270       5   3268       0 |   4    0      2987       281 |   4   5    0    1 a90f |    1.770       0       4       0       4      5      5      0   2928     340       2   5    1a90f a70f      6.510 "
test,1583576040527724032,60," | 60  |   3270       5   3261       0 |   5    0      3048       213 |   3   5    0    0 a90f |    2.746       0       5       0       5      5      5      0   2991     270       2   5    0a90f a70f      9.510 "
test,1583576040540326144,61," | 61  |   3270       5   3260       0 |   5    0      3115       145 |   4   5    0    0 a90f |    3.479       0       5       0       5      5      5      0   3014     246       3   5    0a90f a70f      9.690 "
test,1583576040526459904,7," |  7  |   3270       5   3267       0 |   5    0      3213        54 |   2   5    0    0 a90f |    2.746       0       5       0       5      5      5      0   3195      72       2   5    0a90f a70f      9.690 "
test,1583576040527919104,9," |  9  |   3270       5   3266       0 |   5    0      3146       120 |   2   5    0    0 a90f |    2.746       0       5       0       5      5      5      0   3129     137       2   5    0a90f a70f      8.850 "
