test,1583576016024590080,10," | 10  |   3172       5   3144       0 |   5    0      3092        52 |   1  51    0    0  e0f |    2.014       0       5       0       5     51     51      0   3048      96       1  51    0 e0f a70f      8.250 "
test,1583576016025230848,12," | 12  |   3172       5   3170       0 |   5    0      3143        27 |   2  51    0    0  e0f |    2.777       0       5       0       5     51     51      0   3090      80       2  51    0 e0f a70f      9.000 "
test,1583576016024410112,13," | 13  |   3172       5   3168       0 |   5    0      3144        24 |   1  51    0    0  e0f |    2.014       0       5       0       5     51     51      0   3104      64       1  51    0 e0f a70f      8.250 "
test,1583576016029412096,15," | 15  |   3172       5   3170       0 |   4    1      3052       118 |   3  51   28    0  e0f |    2.777       0       5       0       5     51     51      0   2917     253       2  51    0 e0f a70f      9.750 "
test,1583576016044344064,16," | 16  |   3172       5   3168       0 |   0   15      3054       114 |   0  16   45    1 630f |    0           0       0       0       8      0      0      0   2975     193       0  16    1630f a70f     30.150 "
test,1583576016032104960,17," | 17  |   3172       5   3163       5 |   5    0      3133        35 |   3  51    0    0  e0f |    3.479       0       5       0       5     51     51      0   3035     133       3  51    0 e0f a70f     11.010 "
test,1583576016046118144,18," | 18  |   3172       5   3167       0 |   1    7      2993       174 |   1  47   51    0 740f |    8.453       0       1       0       1     47     47      0   2859     308      10  47    0740f a70f     30.360 "
test,1583576016027692032,19," | 19  |   3172       5   3159       9 |   5    0      3118        50 |   3  51    0    0  e0f |    3.479       0       5       0       5     51     51      0   3021     147       3  51    0 e0f a70f      9.720 "
test,1583576016024889856,1," |  1  |   3172       4   3169       0 |   5    0      3098        71 |   1  51    0    0  e0f |    2.716       0       5       0       5     51     51      0   3075      94       1  51    0 e0f a70f      8.940 "
test,1583576016034542080,22," | 22  |   3172       5   3166       0 |   4    0      3141        25 |   2  51    0    0  e0f |    2.777       0       5       0       5     51     51      0   2994     172       2  51    0 e0f a70f     14.610 "
test,1583576016038105088,23," | 23  |   3172       5   3110       0 |   5    0      3096        14 |   2  51    0    0  e0f |    2.777       0       5       0       5     51     51      0   3032      78       2  51    0 e0f a70f     14.040 "
test,1583576016028317952,24," | 24  |   3172       5   3166       2 |   5    0      3141        27 |   4  51    0    0  e0f |    3.448       0       5       0       5     51     51      0   3064     104       3  51    0 e0f a70f     11.130 "
test,1583576016027321088,26," | 26  |   3172       5   3166       2 |   5    0      3157        11 |   2  51    0    0  e0f |    2.777       0       5       0       5     51     51      0   3099      69       2  51    0 e0f a70f     10.440 "
test,1583576016031523072,27," | 27  |   3172       3   3170       0 |   5    0      3080        90 |   3  51    0    0  e0f |    3.540       0       5       0       5     51     51      0   2945     225       3  51    0 e0f a70f     10.350 "
test,1583576016030617088,28," | 28  |   3172       5   3165       3 |   2    1      2927       241 |   8  28   51    1 220f |    1.739       0       4       0       4     28     28      0   2810     358       2  28    1220f a70f      7.920 "
test,1583576016047524864,29," | 29  |   3172       5   3165       5 |   5    0      2825       345 |   4  51    0    0  e0f |    4.211       0       4       0       4     51     51      0   2673     497       4  51    0 e0f a70f     30.390 "
test,1583576016029922048,30," | 30  |   3172       5   3168       0 |   5    0      3122        46 |   1  28    0    0 220f |    2.014       0       5       0       5     28     28      0   3012     156       1  28    0220f a70f      8.220 "
test,1583576016028608000,35," | 35  |   3172       5   3168       0 |   5    0      3022       146 |   2  28    0    0 220f |    2.746       0       5       0       5     28     28      0   2956     212       2  28    0220f a70f      8.910 "
test,1583576016036441088,40," | 40  |   3172       5   3106      58 |   5    0      2957       207 |   5  51    0    0  e0f |    7.873       0       5       0       5     51     51      0   2875     289       9  51    0 e0f a70f     16.110 "
test,1583576016030256128,41," | 41  |   3172       5   3102      56 |   5    0      3124        34 |   6  51    0    0  e0f |    7.904       0       5       0       5     51     51      0   3039     119       9  51    0 e0f a70f     16.080 "
test,1583576016042535168,42," | 42  |   3172       5   3109      59 |   5    0      3087        81 |   6  51    0    0  e0f |    7.141       0       5       0       5     51     51      0   3006     162       8  51    0 e0f a70f     16.890 "
test,1583576016046601984,44," | 44  |   3172       5   3113      55 |   5    9      3092        76 |   1  45   51    0 cb0f |    1.983       0       1       0       1     45     45      0   3025     143       1  45    0cb0f a70f     30.390 "
test,1583576016047738112,45," | 45  |   3172       5   3127      41 |   4    7      3065       103 |   5  45   51    1 cb0f |    1.739       0       1       0       1     45     45      0   3003     165       2  45    1cb0f a70f     30.300 "
test,1583576016034732032,46," | 46  |   3172       5   3106      55 |   5    0      3015       146 |   7  51    0    0  e0f |    7.904       0       5       0       5     51     51      0   2952     209       9  51    0 e0f a70f     16.860 "
test,1583576016045356032,47," | 47  |   3172       5   3113      55 |   0   17      3056       112 |   0  47   45    1 740f |    8.117       0       1       0       1     47     47      0   2986     182      11  47    1740f a70f     30.270 "
test,1583576016042150144,48," | 48  |   3172       5   3048      53 |   5    0      3019        82 |   6  51    0    0  e0f |    7.141       0       5       0       5     51     51      0   2955     146       8  51    0 e0f a70f     16.710 "
test,1583576016032715008,49," | 49  |   3172       5   3162       0 |   5    0      3106        56 |   4  51    0    0  e0f |    4.211       0       5       0       5     51     51      0   3077      85       4  51    0 e0f a70f     10.380 "
test,1583576016023547904,51," | 51  |   3172       5   3163       0 |   4    0      3137        26 |   2  51    0    1  e0f |    1.739       0       4       0       4     51     51      0   3124      39       2  51    1 e0f a70f      6.480 "
test,1583576016036772096,52," | 52  |   3172       4   3141      23 |   5    0      3014       150 |   3  51    0    0  e0f |    3.509       0       5       0       5     51     51      0   2955     209       3  51    0 e0f a70f     11.070 "
test,1583576016030438912,53," | 53  |   3172       5   3146       0 |   5    0      2989       157 |   5  51    0    0  e0f |    4.943       0       5       0       5     51     51      0   2950     196       5  51    0 e0f a70f     11.160 "
test,1583576016025558016,54," | 54  |   3172       5   3164       0 |   5    0      3110        54 |   2  51    0    0  e0f |    2.777       0       5       0       5     51     51      0   3058     106       2  51    0 e0f a70f      8.970 "
test,1583576016029083136,55," | 55  |   3172       5   3151       0 |   5    0      3038       113 |   4  51    0    0  e0f |    4.272       0       5       0       5     51     51      0   3009     142       4  51    0 e0f a70f     10.290 "
test,1583576016023778816,56," | 56  |   3172       5   3154       0 |   5    0      3102        52 |   1  51    0    0  e0f |    2.044       0       5       0       5     51     51      0   3070      84       1  51    0 e0f a70f      8.100 "
test,1583576016030818048,57," | 57  |   3172       5   3109       0 |   5    0      3034        75 |   1  51    0    0  e0f |    2.075       0       5       0       5     51     51      0   2851     258       1  51    0 e0f a70f      8.910 "
test,1583576016047013888,58," | 58  |   3172       4   3163       0 |   5    0      3120        43 |   3  51    0    0  e0f |    3.509       0       4       0       4     51     51      0   2983     180       3  51    0 e0f a70f     30.390 "
test,1583576016026330112,5," |  5  |   3172       5   3170       0 |   5    0      2902       268 |   2  51    0    0  e0f |    2.777       0       5       0       5     51     51      0   2842     328       2  51    0 e0f a70f      8.940 "
test,1583576016026554112,60," | 60  |   3172       5   3163       0 |   5    0      2956       207 |   1  51    0    0  e0f |    2.075       0       5       0       5     51     51      0   2902     261       1  51    0 e0f a70f      8.220 "
test,1583576016028769024,61," | 61  |   3172       5   3162       0 |   4    0      3026       136 |   3  51    0    0  e0f |    3.509       0       5       0       5     51     51      0   2928     234       3  51    0 e0f a70f     10.260 "
test,1583576016024112896,7," |  7  |   3172       5   3169       0 |   5    0      3116        53 |   1  51    0    0  e0f |    2.044       0       5       0       5     51     51      0   3097      72       1  51    0 e0f a70f      8.280 "
test,1583576016027024128,9," |  9  |   3172       5   3168       0 |   5    0      3050       118 |   2  51    0    0  e0f |    2.746       0       5       0       5     51     51      0   3034     134       2  51    0 e0f a70f      8.970 "
