test,1583576152277882112,10," | 10  |   3717       5   3689       0 |   4    0      3626        63 |   2  10    0    1 d00f |    1.739       0       4       0       4     10     10      0   3578     111       2  10    1d00f a70f      7.920 "
test,1583576152276782080,12," | 12  |   3717       5   3715       0 |   5    4      3685        30 |   1  54   10    0 de0f |    2.105       0       5       0       5     54     54      0   3625      90       1  54    0de0f a70f      8.340 "
test,1583576152290448896,13," | 13  |   3717       5   3713       0 |   5    0      3687        26 |   1  10    0    0 d00f |    2.014       0       5       0       5     10     10      0   3640      73       1  10    0d00f a70f      8.910 "
test,1583576152278331136,15," | 15  |   3717       5   3715       0 |   4    2      3573       142 |   2  54   10    0 de0f |    2.838       0       5       0       5     54     54      0   3416     299       2  54    0de0f a70f      8.910 "
test,1583576152289413888,16," | 16  |   3717       5   3713       0 |   5    0      3579       134 |   3  29    0    0 b90f |    3.509       0       5       0       5     29     29      0   3476     237       3  29    0b90f a70f      9.540 "
test,1583576152280470016,17," | 17  |   3717       5   3708       5 |   5    0      3667        46 |   2  29    0    0 b90f |    2.746       0       5       0       5     29     29      0   3551     162       2  29    0b90f a70f      9.660 "
test,1583576152281442048,18," | 18  |   3717       5   3712       0 |   5    0      3508       204 |   5  29    0    0 b90f |    4.974       0       5       0       5     29     29      0   3351     361       5  29    0b90f a70f     11.130 "
test,1583576152279375104,19," | 19  |   3717       5   3704       9 |   5    0      3657        56 |   1  29    0    0 b90f |    2.075       0       5       0       5     29     29      0   3544     169       1  29    0b90f a70f      9.630 "
test,1583576152298576128,1," |  1  |   3717       4   3714       0 |   5    0      3628        86 |   1  10    0    0 d00f |    2.685       0       3       0       3     10     10      0   3599     115       1  10    0d00f a70f     30.390 "
test,1583576152301660928,22," | 22  |   3717       5   3711       0 |   1    9      3682        29 |   3  20   29    0 1b0f |    2.716       0       1       0       1     20     20      0   3506     205       2  20    01b0f a70f     30.360 "
test,1583576152285150976,23," | 23  |   3717       5   3655       0 |   5    0      3636        19 |   2  29    0    0 b90f |    2.807       0       5       0       5     29     29      0   3554     101       2  29    0b90f a70f     10.380 "
test,1583576152279619840,24," | 24  |   3717       5   3711       2 |   5    0      3679        34 |   2  29    0    0 b90f |    2.777       0       5       0       5     29     29      0   3585     128       2  29    0b90f a70f      9.750 "
test,1583576152278702848,26," | 26  |   3717       5   3711       2 |   5    0      3699        14 |   2  29    0    0 b90f |    2.807       0       5       0       5     29     29      0   3629      84       2  29    0b90f a70f      9.630 "
test,1583576152291500032,27," | 27  |   3717       5   3715       0 |   5    0      3614       101 |   1  29    0    0 b90f |    2.014       0       5       0       5     29     29      0   3454     261       1  29    0b90f a70f      8.970 "
test,1583576152280292096,28," | 28  |   3717       5   3709       4 |   1    0      3426       287 |   2  20    0    0 1b0f |    2.685       0       5       0       5     20     20      0   3286     427       2  20    01b0f a70f      9.600 "
test,1583576152283917824,29," | 29  |   3717       5   3710       5 |   4    0      3304       411 |   4  29    0    1 b90f |    1.739       0       4       0       4     29     29      0   3130     585       2  29    1b90f a70f      7.230 "
test,1583576152277488896,30," | 30  |   3717       5   3712       1 |   5    0      3660        53 |   1  20    0    0 1b0f |    2.014       0       5       0       5     20     20      0   3526     187       1  20    01b0f a70f      8.220 "
test,1583576152282500096,35," | 35  |   3717       5   3712       1 |   5    0      3536       177 |   2  20    0    0 1b0f |    2.716       0       5       0       5     20     20      0   3457     256       2  20    01b0f a70f      8.940 "
test,1583576152299341824,40," | 40  |   3717       5   3649      60 |   5    0      3477       232 |   5  29    0    0 b90f |    4.974       0       2       0       2     29     29      0   3384     325       5  29    0b90f a70f     30.360 "
test,1583576152301222912,41," | 41  |   3717       5   3644      59 |   5    0      3667        36 |   4  29    0    0 b90f |    3.479       0       3       0       3     29     29      0   3572     131       3  29    0b90f a70f     30.390 "
test,1583576152284929024,42," | 42  |   3717       5   3652      61 |   5    0      3629        84 |   5  29    0    0 b90f |    4.211       0       5       0       5     29     29      0   3536     177       4  29    0b90f a70f     11.100 "
test,1583576152286449920,44," | 44  |   3717       5   3656      57 |   5    0      3628        85 |   3  29    0    0 b90f |    3.509       0       5       0       5     29     29      0   3551     162       3  29    0b90f a70f      9.720 "
test,1583576152281899008,45," | 45  |   3717       5   3670      43 |   5    0      3596       117 |   4  29    0    0 b90f |    4.241       0       5       0       5     29     29      0   3528     185       4  29    0b90f a70f     10.410 "
test,1583576152299599872,46," | 46  |   3717       5   3649      57 |   0    7      3538       168 |   0  46   29    1 500f |    0           0       0       0       8      0      0      0   3464     242       0  46    1500f a70f     30.210 "
test,1583576152282752000,47," | 47  |   3717       5   3656      57 |   5    0      3582       131 |   5  29    0    0 b90f |    4.211       0       5       0       5     29     29      0   3508     205       4  29    0b90f a70f     10.410 "
test,1583576152300396800,48," | 48  |   3717       5   3591      55 |   1   10      3556        90 |   4  20   46    0 1b0f |    3.448       0       1       0       1     20     20      0   3483     163       3  20    01b0f a70f     30.360 "
test,1583576152282913024,49," | 49  |   3717       5   3707       0 |   5    0      3639        68 |   2  54    0    0 de0f |    2.838       0       5       0       5     54     54      0   3606     101       2  54    0de0f a70f      8.910 "
test,1583576152276529920,51," | 51  |   3717       5   3708       0 |   5    0      3670        38 |   1  10    0    0 d00f |    1.983       0       5       0       5     10     10      0   3654      54       1  10    0d00f a70f      8.220 "
test,1583576152283375872,52," | 52  |   3717       3   3686      23 |   2    0      3534       175 |   2  29    0    0 b90f |    2.807       0       5       0       5     29     29      0   3460     249       2  29    0b90f a70f      9.540 "
test,1583576152283611904,53," | 53  |   3717       5   3691       0 |   5    0      3503       188 |   3  54    0    0 de0f |    3.479       0       5       0       5     54     54      0   3459     232       3  54    0de0f a70f      9.600 "
test,1583576152285538816,54," | 54  |   3717       5   3709       0 |   4    6      3645        64 |  12  54   10    1 de0f |    6.134       0       4       0       4     54     54      0   3584     125       8  54    1de0f a70f     10.800 "
test,1583576152278944000,55," | 55  |   3717       5   3696       0 |   5    0      3558       138 |   2  54    0    0 de0f |    2.838       0       5       0       5     54     54      0   3525     171       2  54    0de0f a70f      8.880 "
test,1583576152278140928,56," | 56  |   3717       5   3699       0 |   5    0      3642        57 |   1  10    0    0 d00f |    1.983       0       5       0       5     10     10      0   3603      96       1  10    0d00f a70f      8.220 "
test,1583576152287334912,57," | 57  |   3717       5   3654       0 |   5    0      3560        94 |   3  29    0    0 b90f |    3.509       0       5       0       5     29     29      0   3343     311       3  29    0b90f a70f      9.690 "
test,1583576152281707008,58," | 58  |   3717       4   3708       0 |   5    0      3658        50 |   1  54    0    0 de0f |    2.105       0       5       0       5     54     54      0   3495     213       1  54    0de0f a70f      9.630 "
test,1583576152279854080,5," |  5  |   3717       5   3715       0 |   5    0      3391       324 |   2  10    0    0 d00f |    2.746       0       5       0       5     10     10      0   3325     390       2  10    0d00f a70f      9.630 "
test,1583576152281139968,60," | 60  |   3717       5   3708       0 |   5    0      3474       234 |   2  10    0    0 d00f |    2.746       0       5       0       5     10     10      0   3410     298       2  10    0d00f a70f      8.940 "
test,1583576152280764160,61," | 61  |   3717       5   3707       0 |   4    0      3541       166 |   1  54    0    0 de0f |    2.044       0       5       0       5     54     54      0   3418     289       1  54    0de0f a70f     10.440 "
test,1583576152280948992,7," |  7  |   3717       5   3714       0 |   5    8      3654        60 |   1  54   10    0 de0f |    2.075       0       5       0       5     54     54      0   3630      84       1  54    0de0f a70f     11.190 "
test,1583576152298176000,9," |  9  |   3717       5   3713       0 |   5    0      3579       134 |   1  10    0    0 d00f |    2.014       0       3       0       3     10     10      0   3560     153       1  10    0d00f a70f     30.360 "
