test,1583576139533030144,10," | 10  |   3666       5   3638       0 |   5    0      3576        62 |   1  56    0    0 820f |    2.014       0       5       0       5     56     56      0   3529     109       1  56    0820f a70f      8.970 "
test,1583576139529592064,12," | 12  |   3666       5   3664       0 |   5    0      3635        29 |   3  56    0    0 820f |    3.479       0       5       0       5     56     56      0   3576      88       3  56    0820f a70f      9.630 "
test,1583576139529140992,13," | 13  |   3666       5   3662       0 |   5    0      3637        25 |   1  56    0    0 820f |    2.044       0       5       0       5     56     56      0   3591      71       1  56    0820f a70f      8.220 "
test,1583576139529858048,15," | 15  |   3666       5   3664       0 |   5    0      3523       141 |   4  56    0    0 820f |    4.211       0       5       0       5     56     56      0   3369     295       4  56    0820f a70f     10.410 "
test,1583576139549675008,16," | 16  |   3666       5   3662       0 |   1   10      3528       134 |   3  27   45    0 340f |    3.417       0       3       0       3     27     27      0   3427     235       3  27    0340f a70f     30.360 "
test,1583576139548926976,17," | 17  |   3666       5   3657       5 |   2    8      3616        46 |   1  27   47    0 340f |    2.014       0       3       0       3     27     27      0   3502     160       1  27    0340f a70f     30.270 "
test,1583576139527254016,18," | 18  |   3666       5   3661       0 |   5    0      3460       201 |   1  47    0    0 d40f |    2.044       0       5       0       5     47     47      0   3306     355       1  47    0d40f a70f      8.100 "
test,1583576139550240000,19," | 19  |   3666       4   3653       9 |   2    4      3606        56 |   1  27   47    0 340f |    1.983       0       3       0       3     27     27      0   3494     168       1  27    0340f a70f     30.390 "
test,1583576139532571136,1," |  1  |   3666       4   3663       0 |   5    0      3579        84 |   2  56    0    0 820f |    3.448       0       5       0       5     56     56      0   3551     112       2  56    0820f a70f      9.480 "
test,1583576139534696960,22," | 22  |   3666       5   3660       0 |   5    0      3632        28 |   2  47    0    0 d40f |    4.211       0       5       0       5     47     47      0   3461     199       4  47    0d40f a70f     10.920 "
test,1583576139549465856,23," | 23  |   3666       5   3604       0 |   1    3      3585        19 |   1  27   56    0 340f |    2.746       0       3       0       3     27     27      0   3508      96       2  27    0340f a70f     30.360 "
test,1583576139530899968,24," | 24  |   3666       5   3660       2 |   5    0      3629        33 |   3  47    0    0 d40f |    4.211       0       5       0       5     47     47      0   3539     123       4  47    0d40f a70f     10.440 "
test,1583576139533657088,26," | 26  |   3666       5   3660       2 |   5    0      3648        14 |   4  47    0    0 d40f |    4.943       0       5       0       5     47     47      0   3580      82       5  47    0d40f a70f     11.070 "
test,1583576139534392064,27," | 27  |   3666       5   3664       0 |   1    1      3564       100 |   4  27   56    1 340f |    1.739       0       4       0       4     27     27      0   3407     257       2  27    1340f a70f      6.510 "
test,1583576139536231936,28," | 28  |   3666       5   3658       4 |   3    0      3379       283 |   8  47    0    0 d40f |    6.378       0       5       0       5     47     47      0   3241     421       7  47    0d40f a70f     12.510 "
test,1583576139537359104,29," | 29  |   3666       4   3659       5 |   2    0      3257       407 |   1  27    0    0 340f |    2.014       0       5       0       5     27     27      0   3084     580       1  27    0340f a70f      8.160 "
test,1583576139547822080,30," | 30  |   3666       5   3661       1 |   1    5      3609        53 |   2  27   47    0 340f |    0           0       0       0       8      0      0      0   3475     187       0  27    0340f a70f     30.360 "
test,1583576139532381952,35," | 35  |   3666       5   3661       1 |   3    0      3488       174 |   7  47    0    0 d40f |    4.943       0       5       0       5     47     47      0   3409     253       5  47    0d40f a70f     11.670 "
test,1583576139531452928,40," | 40  |   3666       5   3598      60 |   5    0      3428       230 |   1  47    0    0 d40f |    2.014       0       5       0       5     47     47      0   3337     321       1  47    0d40f a70f     12.570 "
test,1583576139537894912,41," | 41  |   3666       5   3593      59 |   5    0      3616        36 |   4  47    0    0 d40f |    3.448       0       5       0       5     47     47      0   3524     128       3  47    0d40f a70f     11.850 "
test,1583576139536037888,42," | 42  |   3666       5   3601      61 |   5    0      3579        83 |   1  47    0    0 d40f |    2.014       0       5       0       5     47     47      0   3489     173       1  47    0d40f a70f      8.220 "
test,1583576139533417984,44," | 44  |   3666       5   3605      57 |   5    0      3578        84 |   4  47    0    0 d40f |    2.746       0       5       0       5     47     47      0   3504     158       2  47    0d40f a70f     11.820 "
test,1583576139548034048,45," | 45  |   3666       5   3619      43 |   0   10      3545       117 |   0  45   47    1 220f |    0           0       0       0       8      0      0      0   3480     182       0  45    1220f a70f     30.210 "
test,1583576139530025984,46," | 46  |   3666       5   3598      57 |   5    0      3492       163 |   1  47    0    0 d40f |    2.014       0       5       0       5     47     47      0   3421     234       1  47    0d40f a70f      8.820 "
test,1583576139526941952,47," | 47  |   3666       5   3605      57 |   4    0      3533       129 |   2  47    0    1 d40f |    1.770       0       4       0       4     47     47      0   3462     200       2  47    1d40f a70f      6.510 "
test,1583576139528356096,48," | 48  |   3666       5   3540      55 |   5    0      3507        88 |   1  47    0    0 d40f |    2.014       0       5       0       5     47     47      0   3437     158       1  47    0d40f a70f      8.940 "
test,1583576139526260992,49," | 49  |   3666       5   3656       0 |   5    0      3590        66 |   1  55    0    0 630f |    2.014       0       5       0       5     55     55      0   3557      99       1  55    0630f a70f      8.070 "
test,1583576139528996864,51," | 51  |   3666       5   3657       0 |   5    0      3620        37 |   1  56    0    0 820f |    2.014       0       5       0       5     56     56      0   3605      52       1  56    0820f a70f      8.100 "
test,1583576139550863872,52," | 52  |   3666       5   3635      23 |   1    5      3485       173 |   2  27   47    0 340f |    3.417       0       3       0       3     27     27      0   3412     246       3  27    0340f a70f     30.360 "
test,1583576139532079104,53," | 53  |   3666       5   3640       0 |   5    0      3453       187 |   1  55    0    0 630f |    2.014       0       5       0       5     55     55      0   3409     231       1  55    0630f a70f      8.100 "
test,1583576139531589888,54," | 54  |   3666       5   3658       0 |   5    0      3595        63 |   2  56    0    0 820f |    2.746       0       5       0       5     56     56      0   3535     123       2  56    0820f a70f     10.380 "
test,1583576139528580864,55," | 55  |   3666       5   3645       0 |   4    0      3509       136 |   2  55    0    1 630f |    1.770       0       4       0       4     55     55      0   3476     169       2  55    1630f a70f      6.510 "
test,1583576139527607040,56," | 56  |   3666       5   3648       0 |   4    0      3592        56 |   4  56    0    1 820f |    1.739       0       4       0       4     56     56      0   3556      92       2  56    1820f a70f      6.480 "
test,1583576139550409984,57," | 57  |   3666       5   3603       0 |   3    0      3511        92 |   1  56    0    0 820f |    7.873       0       3       0       3     56     56      0   3298     305       9  56    0820f a70f     30.360 "
test,1583576139526599936,58," | 58  |   3666       5   3657       0 |   5    0      3609        48 |   1  55    0    0 630f |    2.044       0       5       0       5     55     55      0   3449     208       1  55    0630f a70f      8.130 "
test,1583576139533912064,5," |  5  |   3666       5   3664       0 |   5    0      3345       319 |   2  56    0    0 820f |    2.746       0       5       0       5     56     56      0   3280     384       2  56    0820f a70f      8.940 "
test,1583576139539521024,60," | 60  |   3666       5   3657       0 |   5    0      3428       229 |   2  56    0    0 820f |    2.746       0       5       0       5     56     56      0   3365     292       2  56    0820f a70f      8.790 "
test,1583576139550721792,61," | 61  |   3666       5   3656       0 |   5    1      3492       164 |   1  56   55    0 820f |    4.943       0       4       0       4     56     56      0   3374     282       5  56    0820f a70f     30.300 "
test,1583576139531245824,7," |  7  |   3666       5   3663       0 |   5    0      3603        60 |   2  56    0    0 820f |    2.807       0       5       0       5     56     56      0   3580      83       2  56    0820f a70f      8.940 "
test,1583576139530284800,9," |  9  |   3666       5   3662       0 |   5    0      3530       132 |   2  56    0    0 820f |    2.746       0       5       0       5     56     56      0   3512     150       2  56    0820f a70f      8.970 "
