test,1583576128025988096,10," | 10  |   3620       5   3592       0 |   4    0      3532        60 |   2  10    0    1 810f |    1.739       0       4       0       4     10     10      0   3485     107       2  10    1810f a70f      6.510 "
test,1583576128030030848,12," | 12  |   3620       5   3618       0 |   5    0      3589        29 |   2  10    0    0 810f |    2.716       0       5       0       5     10     10      0   3531      87       2  10    0810f a70f      8.970 "
test,1583576128026473984,13," | 13  |   3620       5   3616       0 |   5    0      3592        24 |   1  10    0    0 810f |    2.014       0       5       0       5     10     10      0   3547      69       1  10    0810f a70f      8.160 "
test,1583576128030991104,15," | 15  |   3620       5   3618       0 |   5    0      3480       138 |   3  10    0    0 810f |    3.479       0       5       0       5     10     10      0   3328     290       3  10    0810f a70f      9.720 "
test,1583576128034003968,16," | 16  |   3620       5   3616       0 |   3    0      3483       133 |  10  17    0    0 150f |    3.448       0       5       0       5     17     17      0   3383     233       3  17    0150f a70f      9.630 "
test,1583576128029815040,17," | 17  |   3620       5   3611       5 |   4    0      3571        45 |   8  17    0    1 150f |    3.204       0       4       0       4     17     17      0   3459     157       4  17    1150f a70f      7.920 "
test,1583576128051099136,18," | 18  |   3620       5   3615       0 |   2    6      3415       200 |   4  46   17    0 ca0f |    2.746       0       1       0       1     46     46      0   3262     353       2  46    0ca0f a70f     30.360 "
test,1583576128031874048,19," | 19  |   3620       5   3607       9 |   5    0      3561        55 |   4  17    0    0 150f |    2.716       0       5       0       5     17     17      0   3448     168       2  17    0150f a70f      9.660 "
test,1583576128028435968,1," |  1  |   3620       4   3617       0 |   5    0      3533        84 |   1  10    0    0 810f |    2.685       0       5       0       5     10     10      0   3506     111       1  10    0810f a70f      8.910 "
test,1583576128032087040,22," | 22  |   3620       5   3614       0 |   5    1      3587        27 |   2  17   46    0 150f |    4.150       0       5       0       5     17     17      0   3417     197       4  17    0150f a70f     10.170 "
test,1583576128031337984,23," | 23  |   3620       5   3558       0 |   5    0      3540        18 |   2  17    0    0 150f |    2.716       0       5       0       5     17     17      0   3464      94       2  17    0150f a70f      8.910 "
test,1583576128030246912,24," | 24  |   3620       5   3614       2 |   5    0      3583        33 |   2  17    0    0 150f |    4.211       0       5       0       5     17     17      0   3493     123       4  17    0150f a70f     10.410 "
test,1583576128028664064,26," | 26  |   3620       5   3614       2 |   5    0      3602        14 |   1  17    0    0 150f |    3.479       0       5       0       5     17     17      0   3535      81       3  17    0150f a70f      9.540 "
test,1583576128030829824,27," | 27  |   3620       5   3618       0 |   5    0      3519        99 |   1  17    0    0 150f |    1.983       0       5       0       5     17     17      0   3364     254       1  17    0150f a70f      8.160 "
test,1583576128031698944,28," | 28  |   3620       5   3612       4 |   3    2      3338       278 |   1  35   17    0 be0f |    2.746       0       5       0       5     35     35      0   3202     414       2  35    0be0f a70f      8.790 "
test,1583576128050693888,29," | 29  |   3620       5   3613       5 |   4    0      3215       403 |   2  17    0    0 150f |    2.746       0       3       0       3     17     17      0   3044     574       2  17    0150f a70f     30.330 "
test,1583576128027126016,30," | 30  |   3620       5   3615       1 |   3    3      3564        52 |   1  35   17    0 be0f |    2.014       0       5       0       5     35     35      0   3433     183       1  35    0be0f a70f      8.220 "
test,1583576128029180160,35," | 35  |   3620       5   3615       1 |   3    3      3445       171 |   2  35   17    1 be0f |    1.739       0       4       0       4     35     35      0   3367     249       2  35    1be0f a70f      6.510 "
test,1583576128030426880,40," | 40  |   3620       5   3552      60 |   4    0      3384       228 |   4  46    0    0 ca0f |    2.014       0       5       0       5     46     46      0   3293     319       1  46    0ca0f a70f      8.940 "
test,1583576128029403904,41," | 41  |   3620       5   3548      58 |   4    2      3570        36 |   1  46   17    0 ca0f |    2.014       0       5       0       5     46     46      0   3479     127       1  46    0ca0f a70f      8.970 "
test,1583576128033068800,42," | 42  |   3620       5   3555      61 |   4    1      3533        83 |   1  46   17    0 ca0f |    2.014       0       5       0       5     46     46      0   3444     172       1  46    0ca0f a70f      8.940 "
test,1583576128026907904,44," | 44  |   3620       5   3559      57 |   5    0      3532        84 |   2  46    0    0 ca0f |    2.014       0       5       0       5     46     46      0   3458     158       1  46    0ca0f a70f      8.070 "
test,1583576128037779200,45," | 45  |   3620       5   3573      43 |   5    0      3503       113 |   2  46    0    0 ca0f |    2.777       0       5       0       5     46     46      0   3438     178       2  46    0ca0f a70f      9.000 "
test,1583576128026236160,46," | 46  |   3620       5   3552      57 |   4    0      3448       161 |   3  46    0    1 ca0f |    1.739       0       4       0       4     46     46      0   3377     232       2  46    1ca0f a70f      6.510 "
test,1583576128029561088,47," | 47  |   3620       5   3559      57 |   5    0      3487       129 |   1  46    0    0 ca0f |    1.983       0       5       0       5     46     46      0   3416     200       1  46    0ca0f a70f      8.250 "
test,1583576128028899840,48," | 48  |   3620       5   3494      55 |   5    0      3461        88 |   1  46    0    0 ca0f |    2.014       0       5       0       5     46     46      0   3392     157       1  46    0ca0f a70f      8.820 "
test,1583576128028013056,49," | 49  |   3620       5   3610       0 |   5    0      3545        65 |   3  53    0    0 250f |    2.044       0       5       0       5     53     53      0   3514      96       1  53    0250f a70f      8.100 "
test,1583576128027692032,51," | 51  |   3620       5   3611       0 |   4    3      3574        37 |   1  10   17    0 810f |    1.983       0       5       0       5     10     10      0   3560      51       1  10    0810f a70f      8.220 "
test,1583576128032414976,52," | 52  |   3620       5   3589      23 |   5    0      3440       172 |   2  17    0    0 150f |    3.479       0       5       0       5     17     17      0   3369     243       3  17    0150f a70f      9.660 "
test,1583576128037381888,53," | 53  |   3620       5   3594       0 |   4    0      3411       183 |   8  53    0    1 250f |    1.770       0       4       0       4     53     53      0   3369     225       2  53    1250f a70f      6.510 "
test,1583576128028267008,54," | 54  |   3620       5   3612       0 |   5    0      3549        63 |   1  10    0    0 810f |    2.014       0       5       0       5     10     10      0   3490     122       1  10    0810f a70f      8.070 "
test,1583576128030654976,55," | 55  |   3620       5   3599       0 |   5    0      3465       134 |   1  53    0    0 250f |    2.044       0       5       0       5     53     53      0   3434     165       1  53    0250f a70f      8.250 "
test,1583576128033454848,56," | 56  |   3620       5   3602       0 |   4    5      3546        56 |   3  17   53    0 150f |   10.070       0       5       0       5     17     17      0   3510      92      12  17    0150f a70f     16.140 "
test,1583576128032913920,57," | 57  |   3620       4   3557       0 |   5    0      3468        89 |   2  17    0    0 150f |    3.479       0       5       0       5     17     17      0   3255     302       3  17    0150f a70f      9.660 "
test,1583576128048585984,58," | 58  |   3620       5   3611       0 |   3    6      3563        48 |   2  53   17    0 250f |    0           0       0       0       8      0      0      0   3407     204       0  53    0250f a70f     30.390 "
test,1583576128045959936,5," |  5  |   3620       5   3618       0 |   0   10      3301       317 |   0   5   10    1 6e0f |    0           0       0       0       8      0      0      0   3237     381       0   5    16e0f a70f     30.150 "
test,1583576128037086976,60," | 60  |   3620       5   3611       0 |   4    2      3383       228 |   3  17   10    0 150f |   10.040       0       5       0       5     17     17      0   3321     290      12  17    0150f a70f     16.890 "
test,1583576128045725952,61," | 61  |   3620       5   3610       0 |   2    2      3448       162 |   5  17   53    0 150f |   10.772       0       5       0       5     17     17      0   3334     276      13  17    0150f a70f     16.800 "
test,1583576128027308032,7," |  7  |   3620       5   3617       0 |   5    0      3557        60 |   1  10    0    0 810f |    2.014       0       5       0       5     10     10      0   3535      82       1  10    0810f a70f      8.250 "
test,1583576128035765760,9," |  9  |   3620       5   3616       0 |   5    0      3486       130 |   1  10    0    0 810f |    2.014       0       5       0       5     10     10      0   3468     148       1  10    0810f a70f      8.130 "
