test,1583576256800617984,10," | 10  |   4135       5   4107       0 |   5    2      4040        67 |  15  10    7    1 380f |    5.981       0       3       0       3     10     10      0   3989     118       8  10    1380f a70f     30.180 "
test,1583576256779028992,12," | 12  |   4135       5   4133       0 |   5    0      4100        33 |   4   7    0    0 aa0f |    1.983       0       5       0       5      7      7      0   4037      96       1   7    0aa0f a70f      8.220 "
test,1583576256799625984,13," | 13  |   4135       5   4131       0 |   0   16      4102        29 |   0  13   10    1  50f |    0           0       0       0       8      0      0      0   4052      79       0  13    1 50f a70f     30.240 "
test,1583576256799938816,15," | 15  |   4135       5   4133       0 |   0    6      3975       158 |   0  15   10    1 290f |    0           0       0       0       8      0      0      0   3798     335       0  15    1290f a70f     30.210 "
test,1583576256780567808,16," | 16  |   4135       5   4131       0 |   5    0      3982       149 |   1  52    0    0 9a0f |    2.044       0       5       0       5     52     52      0   3873     258       1  52    09a0f a70f      8.820 "
test,1583576256784774144,17," | 17  |   4135       5   4126       5 |   4    0      4082        49 |   2  52    0    0 9a0f |    3.570       0       5       0       5     52     52      0   3959     172       3  52    09a0f a70f      9.690 "
test,1583576256784118016,18," | 18  |   4135       5   4130       0 |   5    0      3903       227 |   3  52    0    0 9a0f |    2.777       0       5       0       5     52     52      0   3735     395       2  52    09a0f a70f      9.540 "
test,1583576256783716864,19," | 19  |   4135       5   4122       9 |   5    0      4069        62 |   1  52    0    0 9a0f |    4.241       0       5       0       5     52     52      0   3946     185       4  52    09a0f a70f     10.440 "
test,1583576256779259904,1," |  1  |   4135       4   4132       0 |   4   12      4034        98 |   5   7   13    0 aa0f |    2.716       0       5       0       5      7      7      0   4004     128       1   7    0aa0f a70f      8.850 "
test,1583576256784574976,22," | 22  |   4135       5   4129       0 |   5    0      4095        34 |   2  52    0    0 9a0f |    2.777       0       5       0       5     52     52      0   3905     224       2  52    09a0f a70f      9.690 "
test,1583576256779618048,23," | 23  |   4135       5   4073       0 |   5    0      4054        19 |   1  52    0    0 9a0f |    2.044       0       5       0       5     52     52      0   3967     106       1  52    09a0f a70f      8.280 "
test,1583576256782380032,24," | 24  |   4135       5   4129       2 |   5    0      4089        42 |   2  52    0    0 9a0f |    2.746       0       5       0       5     52     52      0   3986     145       2  52    09a0f a70f      9.000 "
test,1583576256778803200,26," | 26  |   4135       5   4129       2 |   5    0      4116        15 |   1  52    0    0 9a0f |    2.044       0       5       0       5     52     52      0   4040      91       1  52    09a0f a70f      8.280 "
test,1583576256803139072,27," | 27  |   4135       5   4133       0 |   3    5      4015       118 |   2  52   29    0 9a0f |    2.777       0       4       0       4     52     52      0   3847     286       2  52    09a0f a70f     30.360 "
test,1583576256804431872,28," | 28  |   4135       5   4126       5 |   5    0      3805       326 |   3  52    0    0 9a0f |    5.706       0       4       0       4     52     52      0   3649     482       6  52    09a0f a70f     30.360 "
test,1583576256800448768,29," | 29  |   4135       1   4128       5 |   0    5      3664       469 |   0  29   52    1 800f |    0           0       0       0       8      0      0      0   3474     659       0  29    1800f a70f     30.180 "
test,1583576256783922944,30," | 30  |   4135       5   4129       2 |   5    0      4077        54 |   3  52    0    0 9a0f |    3.509       0       5       0       5     52     52      0   3925     206       3  52    09a0f a70f     10.290 "
test,1583576256783010048,35," | 35  |   4135       5   4129       2 |   5    0      3931       200 |   3  52    0    0 9a0f |    3.540       0       5       0       5     52     52      0   3843     288       3  52    09a0f a70f     10.290 "
test,1583576256806457088,40," | 40  |   4135       5   4067      60 |   5    0      3874       253 |   1  45    0    0 490f |    4.211       0       4       0       4     45     45      0   3774     353       4  45    0490f a70f     30.390 "
test,1583576256805558016,41," | 41  |   4135       5   4062      59 |   5    0      4085        36 |   1  45    0    0 490f |    3.540       0       4       0       4     45     45      0   3979     142       3  45    0490f a70f     30.390 "
test,1583576256802052864,42," | 42  |   4135       5   4070      61 |   5    0      4037        94 |   1  45    0    0 490f |    3.509       0       4       0       4     45     45      0   3938     193       3  45    0490f a70f     30.360 "
test,1583576256781033984,44," | 44  |   4135       5   4074      57 |   5    0      4039        92 |   1  45    0    0 490f |    2.044       0       5       0       5     45     45      0   3956     175       1  45    0490f a70f      8.820 "
test,1583576256780129792,45," | 45  |   4135       5   4088      43 |   4    3      3994       137 |   2  45   46    1 490f |    1.739       0       4       0       4     45     45      0   3918     213       2  45    1490f a70f      8.640 "
test,1583576256801291008,46," | 46  |   4135       5   4067      57 |   0    6      3938       186 |   0  46   45    1 6b0f |    0           0       0       0       8      0      0      0   3860     264       0  46    16b0f a70f     30.270 "
test,1583576256781723136,47," | 47  |   4135       5   4074      57 |   5    0      3986       145 |   1  45    0    0 490f |    2.777       0       5       0       5     45     45      0   3906     225       2  45    0490f a70f      9.540 "
test,1583576256804656896,48," | 48  |   4135       5   4009      55 |   5    0      3966        98 |   1  45    0    0 490f |    3.540       0       3       0       3     45     45      0   3889     175       3  45    0490f a70f     30.330 "
test,1583576256780745984,49," | 49  |   4135       5   4125       0 |   5    0      4047        78 |   2  61    0    0 260f |    2.746       0       5       0       5     61     61      0   4014     111       2  61    0260f a70f      8.850 "
test,1583576256782525184,51," | 51  |   4135       5   4126       0 |   5    0      4087        39 |   1  10    0    0 380f |    1.983       0       5       0       5     10     10      0   4070      56       1  10    0380f a70f      9.450 "
test,1583576256806729984,52," | 52  |   4135       5   4103      24 |   5    0      3931       196 |   2  52    0    1 9a0f |    1.739       0       2       0       2     52     52      0   3850     277       2  52    19a0f a70f     30.300 "
test,1583576256783319040,53," | 53  |   4135       5   4109       0 |   5    0      3894       215 |   3  61    0    0 260f |    3.448       0       5       0       5     61     61      0   3848     261       3  61    0260f a70f      9.660 "
test,1583576256802750976,54," | 54  |   4135       5   4127       0 |   5    7      4054        73 |   1  10    7    0 380f |    2.044       0       3       0       3     10     10      0   3987     140       1  10    0380f a70f     30.360 "
test,1583576256785152000,55," | 55  |   4135       5   4114       0 |   5    0      3957       157 |   2  61    0    0 260f |    2.716       0       5       0       5     61     61      0   3924     190       2  61    0260f a70f      8.910 "
test,1583576256781987072,56," | 56  |   4135       5   4117       0 |   5    1      4054        63 |   1  10   52    0 380f |    2.044       0       5       0       5     10     10      0   4007     110       1  10    0380f a70f     10.200 "
test,1583576256805144064,57," | 57  |   4135       4   4072       0 |   1    9      3968       104 |   3  52   60    0 9a0f |    4.272       0       4       0       4     52     52      0   3730     342       4  52    09a0f a70f     30.360 "
test,1583576256800898048,58," | 58  |   4135       5   4126       0 |   1   10      4067        59 |   1  61   10    0 260f |    1.983       0       2       0       2     61     61      0   3888     238       1  61    0260f a70f     30.390 "
test,1583576256798897152,5," |  5  |   4135       5   4133       0 |   0    5      3765       368 |   0   5    7    1 bb0f |    0           0       0       0       8      0      0      0   3695     438       0   5    1bb0f a70f     30.150 "
test,1583576256800120064,60," | 60  |   4135       5   4126       0 |   0    6      3868       258 |   0  60   10    1 7e0f |    0           0       0       0       8      0      0      0   3792     334       0  60    17e0f a70f     30.210 "
test,1583576256803740928,61," | 61  |   4135       5   4125       0 |   0    7      3938       187 |   0  61   10    1 260f |    1.739       0       1       0       1     61     61      0   3805     320       2  61    1260f a70f     30.300 "
test,1583576256777730816,7," |  7  |   4135       5   4132       0 |   4    0      4070        62 |   5   7    0    1 aa0f |    1.739       0       4       0       4      7      7      0   4046      86       2   7    1aa0f a70f      6.480 "
test,1583576256782716160,9," |  9  |   4135       5   4131       0 |   4   13      3984       147 |   5   7   13    0 aa0f |    2.807       0       5       0       5      7      7      0   3964     167       2   7    0aa0f a70f      9.030 "
