test,1583576438033487104,10," | 10  |   4860       5   4832       0 |   5    0      4754        78 |   2   9    0    0 e10f |    2.044       0       5       0       5      9      9      0   4691     141       1   9    0e10f a70f      8.130 "
test,1583576438052449024,12," | 12  |   4860       5   4846      12 |   4    9      4815        43 |   3  24    9    0 5d0f |    0           0       0       0       8      0      0      0   4728     130       0  24    05d0f a70f     30.390 "
test,1583576438034130176,13," | 13  |   4860       5   4856       0 |   5    0      4819        37 |   3   9    0    0 e10f |    2.075       0       5       0       5      9      9      0   4758      98       1   9    0e10f a70f      8.250 "
test,1583576438051959040,15," | 15  |   4860       5   4840      18 |   5    0      4671       187 |   2  24    0    0 5d0f |    0           0       0       0       8      0      0      0   4449     409       0  24    05d0f a70f     30.360 "
test,1583576438059258112,16," | 16  |   4860       5   4856       0 |   5    0      4682       174 |   4  22    0    0 ac0f |    4.241       0       2       0       2     22     22      0   4552     304       4  22    0ac0f a70f     30.390 "
test,1583576438057121024,17," | 17  |   4860       5   4849       7 |   5    0      4798        58 |   4  22    0    0 ac0f |    3.509       0       2       0       2     22     22      0   4656     200       3  22    0ac0f a70f     30.330 "
test,1583576438061917952,18," | 18  |   4860       5   4855       0 |   5    0      4575       280 |   1  22    0    0 ac0f |    2.044       0       3       0       3     22     22      0   4381     474       1  22    0ac0f a70f     30.270 "
test,1583576438059458048,19," | 19  |   4860       5   4845      11 |   5    0      4780        76 |   5  22    0    0 ac0f |    5.737       0       1       0       1     22     22      0   4639     217       6  22    0ac0f a70f     30.390 "
test,1583576438032541952,1," |  1  |   4860       4   4857       0 |   5    0      4736       121 |   1   9    0    0 e10f |    2.716       0       5       0       5      9      9      0   4702     155       1   9    0e10f a70f      8.940 "
test,1583576438057943040,22," | 22  |   4860       5   4854       0 |   4    0      4815        39 |   2  22    0    1 ac0f |    1.770       0       2       0       2     22     22      0   4594     260       2  22    1ac0f a70f     30.300 "
test,1583576438035418880,23," | 23  |   4860       5   4798       0 |   1   14      4776        22 |   1  57   24    0 780f |    2.014       0       5       0       5     57     57      0   4677     121       1  57    0780f a70f     10.230 "
test,1583576438055324160,24," | 24  |   4860       5   4854       2 |   2   11      4807        49 |   5  24   22    1 5d0f |    8.117       0       1       0       1     24     24      0   4684     172      11  24    15d0f a70f     30.270 "
test,1583576438053452032,26," | 26  |   4860       5   4854       2 |   5    0      4836        20 |   3  22    0    0 ac0f |    3.540       0       2       0       2     22     22      0   4753     103       3  22    0ac0f a70f     30.390 "
test,1583576438036017920,27," | 27  |   4860       4   4858       0 |   1    9      4725       133 |   2  57   24    0 780f |    2.746       0       5       0       5     57     57      0   4523     335       2  57    0780f a70f     10.950 "
test,1583576438055051008,28," | 28  |   4860       5   4850       6 |   0    7      4466       390 |   0  28   22    1 680f |    0           0       0       0       8      0      0      0   4278     578       0  28    1680f a70f     30.180 "
test,1583576438059006976,29," | 29  |   4860       3   4851       7 |   5    0      4290       568 |   6  22    0    0 ac0f |    6.439       0       1       0       1     22     22      0   4080     778       7  22    0ac0f a70f     30.360 "
test,1583576438040438016,30," | 30  |   4860       5   4854       2 |   4    6      4790        66 |   1  22   28    0 ac0f |    2.807       0       5       0       5     22     22      0   4613     243       2  22    0ac0f a70f      9.000 "
test,1583576438038720000,35," | 35  |   4860       5   4854       2 |   4    0      4627       229 |   1  22    0    0 ac0f |    2.014       0       5       0       5     22     22      0   4522     334       1  22    0ac0f a70f      8.220 "
test,1583576438056154112,40," | 40  |   4860       5   4787      65 |   1    6      4551       301 |   5  40   24    1 610f |    1.770       0       3       0       3     40     40      0   4437     415       2  40    1610f a70f     30.300 "
test,1583576438054470144,41," | 41  |   4860       5   4787      59 |   2   10      4808        38 |   1  40   24    0 610f |    2.075       0       3       0       3     40     40      0   4688     158       1  40    0610f a70f     30.330 "
test,1583576438060514048,42," | 42  |   4860       5   4794      62 |   2    9      4753       103 |   2  40   24    0 610f |    4.272       0       2       0       2     40     40      0   4647     209       4  40    0610f a70f     30.390 "
test,1583576438042146816,44," | 44  |   4860       5   4799      57 |   5    4      4757        99 |   1  24   22    0 5d0f |    2.014       0       5       0       5     24     24      0   4665     191       1  24    05d0f a70f     10.230 "
test,1583576438037981952,45," | 45  |   4860       5   4813      43 |   5    4      4704       152 |   3  24   22    0 5d0f |    2.746       0       5       0       5     24     24      0   4617     239       2  24    05d0f a70f     10.770 "
test,1583576438055963904,46," | 46  |   4860       5   4792      57 |   2    5      4633       216 |   2  40   24    0 610f |    2.777       0       3       0       3     40     40      0   4550     299       2  40    0610f a70f     30.330 "
test,1583576438055505152,47," | 47  |   4860       5   4799      57 |   2   10      4689       167 |   2  40   24    0 610f |    2.044       0       3       0       3     40     40      0   4609     247       1  40    0610f a70f     30.300 "
test,1583576438038490112,48," | 48  |   4860       5   4734      55 |   5    4      4678       111 |   2  24   40    0 5d0f |    2.746       0       5       0       5     24     24      0   4594     195       2  24    05d0f a70f     10.770 "
test,1583576438032982016,49," | 49  |   4860       5   4850       0 |   5    0      4755        95 |   1  53    0    0 160f |    2.044       0       5       0       5     53     53      0   4719     131       1  53    0160f a70f      8.250 "
test,1583576438034529024,51," | 51  |   4860       5   4851       0 |   1   10      4806        45 |   3  57    9    0 780f |    2.014       0       5       0       5     57     57      0   4789      62       1  57    0780f a70f      9.570 "
test,1583576438058553088,52," | 52  |   4860       5   4826      26 |   5    0      4622       230 |   4  22    0    0 ac0f |    4.241       0       2       0       2     22     22      0   4529     323       4  22    0ac0f a70f     30.360 "
test,1583576438033148160,53," | 53  |   4860       5   4834       0 |   4    0      4572       262 |   2  53    0    1 160f |    1.739       0       4       0       4     53     53      0   4521     313       2  53    1160f a70f      6.480 "
test,1583576438034908928,54," | 54  |   4860       5   4852       0 |   5    0      4769        83 |   3   9    0    0 e10f |    2.075       0       5       0       5      9      9      0   4689     163       1   9    0e10f a70f      8.130 "
test,1583576438052807168,55," | 55  |   4860       5   4839       0 |   0    2      4655       184 |   0  55   53    1 950f |    0           0       0       0       8      0      0      0   4617     222       0  55    1950f a70f     30.150 "
test,1583576438033803008,56," | 56  |   4860       5   4842       0 |   1    4      4765        77 |   3  57    9    0 780f |    2.014       0       5       0       5     57     57      0   4708     134       1  57    0780f a70f      8.790 "
test,1583576438037795072,57," | 57  |   4860       5   4797       0 |   1    4      4674       123 |   2  57   22    1 780f |    3.814       0       4       0       4     57     57      0   4389     408       5  57    1780f a70f      9.960 "
test,1583576438056364032,58," | 58  |   4860       5   4851       0 |   3    7      4782        69 |   2  53   55    0 160f |    5.737       0       2       0       2     53     53      0   4576     275       6  53    0160f a70f     30.390 "
test,1583576438053148928,5," |  5  |   4860       5   4858       0 |   4    5      4426       432 |   3  24    9    0 5d0f |    0           0       0       0       8      0      0      0   4341     517       0  24    05d0f a70f     30.360 "
test,1583576438037584128,60," | 60  |   4860       5   4851       0 |   1    3      4546       305 |   3  57   24    0 780f |    1.983       0       5       0       5     57     57      0   4454     397       1  57    0780f a70f      8.670 "
test,1583576438057494016,61," | 61  |   4860       5   4850       0 |   1    3      4627       223 |   4  57    9    0 780f |    2.044       0       3       0       3     57     57      0   4466     384       1  57    0780f a70f     30.390 "
test,1583576438032763904,7," |  7  |   4860       5   4857       0 |   5    0      4784        73 |   2   9    0    0 e10f |    2.044       0       5       0       5      9      9      0   4751     106       1   9    0e10f a70f      8.280 "
test,1583576438034341120,9," |  9  |   4860       5   4856       0 |   4    0      4688       168 |   2   9    0    1 e10f |    1.739       0       4       0       4      9      9      0   4666     190       2   9    1e10f a70f      6.510 "
