test,1583576397782007040,10," | 10  |   4699       5   4671       0 |   5    0      4596        75 |   1  51    0    0 260f |    2.044       0       5       0       5     51     51      0   4537     134       1  51    0260f a70f      8.130 "
test,1583576397784976128,12," | 12  |   4699       5   4693       4 |   5    0      4658        39 |   2  51    0    0 260f |    2.746       0       5       0       5     51     51      0   4585     112       2  51    0260f a70f      9.000 "
test,1583576397783740160,13," | 13  |   4699       5   4695       0 |   5    0      4661        34 |   1  51    0    0 260f |    2.777       0       5       0       5     51     51      0   4604      91       2  51    0260f a70f      8.940 "
test,1583576397785331968,15," | 15  |   4699       5   4690       7 |   5    0      4518       179 |   3  51    0    0 260f |    3.448       0       5       0       5     51     51      0   4318     379       3  51    0260f a70f      9.570 "
test,1583576397801351168,16," | 16  |   4699       5   4695       0 |   5    0      4525       170 |   2  26    0    0 d80f |    2.014       0       5       0       5     26     26      0   4398     297       1  26    0d80f a70f     24.900 "
test,1583576397798638080,17," | 17  |   4699       5   4689       6 |   5    0      4638        57 |   1  26    0    0 d80f |    2.044       0       5       0       5     26     26      0   4499     196       1  26    0d80f a70f     24.270 "
test,1583576397800188928,18," | 18  |   4699       5   4694       0 |   4    3      4423       271 |   1  26   42    0 d80f |    2.075       0       5       0       5     26     26      0   4233     461       1  26    0d80f a70f     24.150 "
test,1583576397799866880,19," | 19  |   4699       5   4685      10 |   5    0      4621        74 |   1  26    0    0 d80f |    2.044       0       5       0       5     26     26      0   4483     212       1  26    0d80f a70f     24.150 "
test,1583576397782627072,1," |  1  |   4699       4   4696       0 |   5    0      4580       116 |   1  51    0    0 260f |    2.685       0       5       0       5     51     51      0   4547     149       1  51    0260f a70f      8.940 "
test,1583576397799648000,22," | 22  |   4699       5   4693       0 |   5    0      4655        38 |   1  26    0    0 d80f |    2.014       0       5       0       5     26     26      0   4438     255       1  26    0d80f a70f     24.270 "
test,1583576397798521088,23," | 23  |   4699       5   4637       0 |   5    0      4617        20 |   1  26    0    0 d80f |    2.014       0       5       0       5     26     26      0   4520     117       1  26    0d80f a70f     24.240 "
test,1583576397799133952,24," | 24  |   4699       5   4693       2 |   5    0      4646        49 |   1  26    0    0 d80f |    2.014       0       5       0       5     26     26      0   4525     170       1  26    0d80f a70f     24.240 "
test,1583576397801580800,26," | 26  |   4699       5   4693       2 |   4    0      4678        17 |   2  26    0    1 d80f |   19.531       0       4       0       4     26     26      0   4595     100       5  26    1d80f a70f     23.970 "
test,1583576397806555904,27," | 27  |   4699       5   4697       0 |   5    0      4570       127 |   2  26    0    0 d80f |   20.568       0       4       0       4     26     26      0   4373     324       5  26    0d80f a70f     30.210 "
test,1583576397802639104,28," | 28  |   4699       2   4690       5 |   5    0      4324       371 |   2  26    0    0 d80f |    2.777       0       5       0       5     26     26      0   4140     555       2  26    0d80f a70f     25.020 "
test,1583576397807602944,29," | 29  |   4699       3   4692       5 |   5    0      4151       546 |   2  26    0    0 d80f |   20.507       0       4       0       4     26     26      0   3941     756       5  26    0d80f a70f     30.210 "
test,1583576397801063168,30," | 30  |   4699       5   4693       2 |   5    0      4629        66 |   2  26    0    0 d80f |    2.777       0       5       0       5     26     26      0   4463     232       2  26    0d80f a70f     25.020 "
test,1583576397800849920,35," | 35  |   4699       5   4693       2 |   5    0      4475       220 |   2  26    0    0 d80f |    2.746       0       5       0       5     26     26      0   4376     319       2  26    0d80f a70f     24.900 "
test,1583576397804691968,40," | 40  |   4699       5   4626      65 |   0    4      4397       294 |   0  40   42    1  e0f |    0           0       0       0       8      0      0      0   4286     405       0  40    1 e0f a70f     30.180 "
test,1583576397805607168,41," | 41  |   4699       5   4626      59 |   1    9      4648        37 |   5  48   40    0  d0f |    9.094       0       1       0       1     48     48      0   4530     155      11  48    0 d0f a70f     30.360 "
test,1583576397802962176,42," | 42  |   4699       5   4634      61 |   0    5      4593       102 |   0  42   40    1 420f |    0           0       0       0       8      0      0      0   4489     206       0  42    1420f a70f     30.180 "
test,1583576397803682048,44," | 44  |   4699       5   4638      57 |   5    2      4596        99 |   1  26   42    0 d80f |    2.777       0       5       0       5     26     26      0   4505     190       2  26    0d80f a70f     25.770 "
test,1583576397798894848,45," | 45  |   4699       5   4652      43 |   5    2      4547       148 |   2  26   42    0 d80f |    2.777       0       5       0       5     26     26      0   4462     233       2  26    0d80f a70f     26.370 "
test,1583576397806211072,46," | 46  |   4699       5   4631      57 |   2    6      4480       208 |   4  48   42    0  d0f |    8.361       0       2       0       2     48     48      0   4399     289      10  48    0 d0f a70f     30.360 "
test,1583576397807990016,47," | 47  |   4699       5   4638      57 |   1   11      4534       161 |   5  48   40    0  d0f |    9.124       0       1       0       1     48     48      0   4454     241      11  48    0 d0f a70f     30.390 "
test,1583576397807223040,48," | 48  |   4699       5   4573      55 |   1   12      4518       110 |   5  48   40    1  d0f |    8.117       0       1       0       1     48     48      0   4435     193      11  48    1 d0f a70f     30.300 "
test,1583576397783909120,49," | 49  |   4699       5   4689       0 |   5    0      4600        89 |   1  53    0    0 d60f |    2.014       0       5       0       5     53     53      0   4564     125       1  53    0d60f a70f      8.250 "
test,1583576397783139840,51," | 51  |   4699       5   4690       0 |   5    0      4646        44 |   4  51    0    1 260f |    3.204       0       4       0       4     51     51      0   4629      61       4  51    1260f a70f      7.950 "
test,1583576397801743872,52," | 52  |   4699       4   4666      25 |   5    0      4473       218 |   1  26    0    0 d80f |    2.044       0       5       0       5     26     26      0   4381     310       1  26    0d80f a70f     24.990 "
test,1583576397782952192,53," | 53  |   4699       5   4673       0 |   4    0      4416       257 |   2  53    0    1 d60f |    1.770       0       4       0       4     53     53      0   4368     305       2  53    1d60f a70f      6.480 "
test,1583576397785988096,54," | 54  |   4699       5   4691       0 |   5    0      4609        82 |   2  51    0    0 260f |    2.777       0       5       0       5     51     51      0   4533     158       2  51    0260f a70f      8.970 "
test,1583576397783289856,55," | 55  |   4699       5   4678       0 |   5    0      4503       175 |   1  53    0    0 d60f |    1.983       0       5       0       5     53     53      0   4467     211       1  53    0d60f a70f      8.220 "
test,1583576397783449856,56," | 56  |   4699       5   4681       0 |   5    0      4607        74 |   1  51    0    0 260f |    2.014       0       5       0       5     51     51      0   4552     129       1  51    0260f a70f      8.940 "
test,1583576397804508928,57," | 57  |   4699       5   4636       0 |   4    2      4519       117 |   1  26   51    0 d80f |    2.044       0       5       0       5     26     26      0   4243     393       1  26    0d80f a70f     24.270 "
test,1583576397805760000,58," | 58  |   4699       4   4690       0 |   1    2      4624        66 |   2  53   51    0 d60f |    2.777       0       1       0       1     53     53      0   4425     265       2  53    0d60f a70f     30.330 "
test,1583576397802451968,5," |  5  |   4699       5   4697       0 |   0    8      4282       415 |   0   5   51    1 aa0f |    0           0       0       0       8      0      0      0   4202     495       0   5    1aa0f a70f     30.180 "
test,1583576397784837120,60," | 60  |   4699       5   4690       0 |   5    0      4397       293 |   1  51    0    0 260f |    2.044       0       5       0       5     51     51      0   4308     382       1  51    0260f a70f      9.630 "
test,1583576397805300992,61," | 61  |   4699       5   4689       0 |   1    4      4473       216 |   2  26   51    0 d80f |   20.507       0       4       0       4     26     26      0   4317     372       5  26    0d80f a70f     30.390 "
test,1583576397782327808,7," |  7  |   4699       5   4696       0 |   5    0      4623        73 |   1  51    0    0 260f |    2.044       0       5       0       5     51     51      0   4594     102       1  51    0260f a70f      8.160 "
test,1583576397784281088,9," |  9  |   4699       5   4695       0 |   5    0      4532       163 |   2  51    0    0 260f |    2.746       0       5       0       5     51     51      0   4512     183       2  51    0260f a70f      9.000 "
