test,1583576419286390016,10," | 10  |   4785       5   4757       0 |   5    0      4681        76 |   3   5    0    0  d0f |    3.448       0       5       0       5      5      5      0   4621     136       3   5    0 d0f a70f     10.290 "
test,1583576419283608832,13," | 13  |   4785       5   4781       0 |   5    0      4744        37 |   1   5    0    0  d0f |    2.014       0       5       0       5      5      5      0   4685      96       1   5    0 d0f a70f      8.220 "
test,1583576419288389888,16," | 16  |   4785       5   4781       0 |   4    0      4608       173 |   5  16    0    1 600f |    1.739       0       4       0       4     16     16      0   4480     301       2  16    1600f a70f      6.510 "
test,1583576419287396864,17," | 17  |   4785       5   4774       7 |   3    5      4723        58 |   1  19   57    0 590f |    2.014       0       5       0       5     19     19      0   4583     198       1  19    0590f a70f      8.220 "
test,1583576419284431104,18," | 18  |   4785       5   4780       0 |   4    0      4504       276 |   5  18    0    1 260f |    1.739       0       4       0       4     18     18      0   4311     469       2  18    1260f a70f      6.480 "
test,1583576419283771904,19," | 19  |   4785       5   4770      11 |   2    5      4705        76 |   2  19   57    1 590f |    1.739       0       4       0       4     19     19      0   4567     214       2  19    1590f a70f      6.480 "
test,1583576419288559872,1," |  1  |   4785       4   4782       0 |   5    0      4663       119 |   2   5    0    0  d0f |    3.417       0       5       0       5      5      5      0   4631     151       2   5    0 d0f a70f      9.570 "
test,1583576419289063936,22," | 22  |   4785       5   4779       0 |   5    0      4741        38 |   4  18    0    0 260f |    1.983       0       5       0       5     18     18      0   4521     258       1  18    0260f a70f      8.190 "
test,1583576419283052032,23," | 23  |   4785       5   4723       0 |   5    0      4702        21 |   4  16    0    0 600f |    2.075       0       5       0       5     16     16      0   4605     118       1  16    0600f a70f      8.130 "
test,1583576419284236800,24," | 24  |   4785       5   4779       2 |   5    0      4732        49 |   4  18    0    0 260f |    1.983       0       5       0       5     18     18      0   4609     172       1  18    0260f a70f      8.100 "
test,1583576419305680896,26," | 26  |   4785       5   4779       2 |   5    3      4762        19 |   1  57   16    0 680f |    2.014       0       1       0       1     57     57      0   4679     102       1  57    0680f a70f     30.390 "
test,1583576419303746816,27," | 27  |   4785       5   4783       0 |   5    0      4651       132 |   5  16    0    0 600f |    0           0       0       0       8      0      0      0   4451     332       0  16    0600f a70f     30.360 "
test,1583576419285665024,28," | 28  |   4785       5   4775       6 |   5    0      4399       382 |   2  35    0    0 a80f |    2.044       0       5       0       5     35     35      0   4213     568       1  35    0a80f a70f      8.880 "
test,1583576419289416960,29," | 29  |   4785       4   4778       5 |   1    3      4222       561 |   1  19   16    0 590f |    2.044       0       5       0       5     19     19      0   4011     772       1  19    0590f a70f      8.280 "
test,1583576419285868800,30," | 30  |   4785       5   4779       2 |   5    0      4715        66 |   1  35    0    0 a80f |    2.075       0       5       0       5     35     35      0   4544     237       1  35    0a80f a70f      8.190 "
test,1583576419282092032,35," | 35  |   4785       5   4779       2 |   5    0      4557       224 |   2  35    0    1 a80f |    1.739       0       4       0       4     35     35      0   4455     326       2  35    1a80f a70f      6.480 "
test,1583576419304368896,40," | 40  |   4785       5   4712      65 |   1    6      4479       298 |   2  16   18    0 600f |    0           0       0       0       8      0      0      0   4364     413       0  16    0600f a70f     30.360 "
test,1583576419303128832,41," | 41  |   4785       5   4712      59 |   1    7      4733        38 |   1  16   18    0 600f |    0           0       0       0       8      0      0      0   4613     158       0  16    0600f a70f     30.390 "
test,1583576419305003008,42," | 42  |   4785       5   4719      62 |   1    8      4678       103 |   2  16   18    0 600f |    0           0       0       0       8      0      0      0   4572     209       0  16    0600f a70f     30.390 "
test,1583576419286889984,44," | 44  |   4785       5   4724      57 |   5    0      4682        99 |   3  18    0    0 260f |    3.448       0       5       0       5     18     18      0   4590     191       3  18    0260f a70f      9.480 "
test,1583576419304204032,45," | 45  |   4785       5   4738      43 |   1    8      4630       151 |   1  16   18    0 600f |    0           0       0       0       8      0      0      0   4543     238       0  16    0600f a70f     30.360 "
test,1583576419303380992,46," | 46  |   4785       5   4717      57 |   1    8      4563       211 |   2  16   18    0 600f |    0           0       0       0       8      0      0      0   4480     294       0  16    0600f a70f     30.360 "
test,1583576419286235136,47," | 47  |   4785       5   4724      57 |   5    1      4619       162 |   1  18   16    0 260f |    3.448       0       5       0       5     18     18      0   4538     243       3  18    0260f a70f      9.570 "
test,1583576419285389056,48," | 48  |   4785       5   4659      55 |   5    0      4604       110 |   2  18    0    0 260f |    2.685       0       5       0       5     18     18      0   4520     194       2  18    0260f a70f      8.940 "
test,1583576419281763072,49," | 49  |   4785       5   4775       0 |   4    0      4682        93 |   5  49    0    1 850f |    1.739       0       4       0       4     49     49      0   4646     129       2  49    1850f a70f      6.480 "
test,1583576419285036032,51," | 51  |   4785       5   4776       0 |   5   10      4732        44 |   1  57    5    0 680f |    2.014       0       5       0       5     57     57      0   4715      61       1  57    0680f a70f      8.820 "
test,1583576419286577920,52," | 52  |   4785       5   4751      26 |   5    0      4553       224 |   4  16    0    0 600f |    2.044       0       5       0       5     16     16      0   4460     317       1  16    0600f a70f      8.280 "
test,1583576419282820096,53," | 53  |   4785       5   4759       0 |   5    0      4499       260 |   4  49    0    0 850f |    2.014       0       5       0       5     49     49      0   4449     310       1  49    0850f a70f      8.160 "
test,1583576419305893888,54," | 54  |   4785       5   4777       0 |   5    8      4694        83 |   1  57    5    0 680f |    2.044       0       1       0       1     57     57      0   4616     161       1  57    0680f a70f     30.330 "
test,1583576419301584896,55," | 55  |   4785       5   4764       0 |   0    8      4584       180 |   0  55   49    1 e30f |    0           0       0       0       8      0      0      0   4547     217       0  55    1e30f a70f     30.180 "
test,1583576419286038016,56," | 56  |   4785       5   4767       0 |   5    5      4692        75 |   1  57    5    0 680f |    2.044       0       5       0       5     57     57      0   4636     131       1  57    0680f a70f      8.250 "
test,1583576419306961920,57," | 57  |   4785       3   4722       0 |   4    5      4602       120 |   5  57   16    1 680f |    9.063       0       1       0       1     57     57      0   4320     402      12  57    1680f a70f     30.300 "
test,1583576419289637120,58," | 58  |   4785       5   4776       0 |   5    4      4708        68 |   1  57    5    0 680f |    2.716       0       5       0       5     57     57      0   4504     272       2  57    0680f a70f      8.940 "
test,1583576419277043200,5," |  5  |   4785       4   4783       0 |   4    0      4362       421 |   4   5    0    1  d0f |    1.770       0       4       0       4      5      5      0   4280     503       2   5    1 d0f a70f      6.510 "
test,1583576419287097856,60," | 60  |   4785       5   4776       0 |   5    0      4476       300 |   1  57    0    0 680f |    1.983       0       5       0       5     57     57      0   4386     390       1  57    0680f a70f      9.660 "
test,1583576419287595008,61," | 61  |   4785       5   4775       0 |   5    1      4557       218 |   1  57    5    0 680f |    2.044       0       5       0       5     57     57      0   4397     378       1  57    0680f a70f      8.160 "
test,1583576419284816128,7," |  7  |   4785       5   4782       0 |   5    0      4709        73 |   2   5    0    0  d0f |    2.746       0       5       0       5      5      5      0   4679     103       2   5    0 d0f a70f      8.970 "
test,1583576419288225024,9," |  9  |   4785       5   4781       0 |   5    0      4615       166 |   3   5    0    0  d0f |    3.448       0       5       0       5      5      5      0   4595     186       3   5    0 d0f a70f      9.660 "
