test,1583576386784396032,10," | 10  |   4655       5   4627       0 |   5    0      4552        75 |   2  60    0    0 e40f |    2.807       0       5       0       5     60     60      0   4493     134       2  60    0e40f a70f      8.880 "
test,1583576386788217088,12," | 12  |   4655       5   4649       4 |   5    0      4614        39 |   2  60    0    0 e40f |    3.509       0       5       0       5     60     60      0   4544     109       3  60    0e40f a70f      9.600 "
test,1583576386784166144,13," | 13  |   4655       5   4651       0 |   5    0      4617        34 |   2  60    0    0 e40f |    2.807       0       5       0       5     60     60      0   4561      90       2  60    0e40f a70f      9.660 "
test,1583576386789614080,15," | 15  |   4655       5   4647       6 |   5    0      4475       178 |   1  60    0    0 e40f |    4.272       0       5       0       5     60     60      0   4280     373       4  60    0e40f a70f     10.410 "
test,1583576386785486848,16," | 16  |   4655       5   4651       0 |   5    0      4483       168 |   2  24    0    0 980f |    2.777       0       5       0       5     24     24      0   4359     292       2  24    0980f a70f      8.850 "
test,1583576386785828096,17," | 17  |   4655       5   4646       5 |   5    0      4596        55 |   1  24    0    0 980f |    2.014       0       5       0       5     24     24      0   4459     192       1  24    0980f a70f      8.940 "
test,1583576386782441984,18," | 18  |   4655       5   4650       0 |   5    0      4383       267 |   1  24    0    0 980f |    2.044       0       5       0       5     24     24      0   4194     456       1  24    0980f a70f      8.250 "
test,1583576386805184000,19," | 19  |   4655       5   4642       9 |   5    0      4577        74 |   1  24    0    0 980f |    2.014       0       4       0       4     24     24      0   4442     209       1  24    0980f a70f     30.390 "
test,1583576386789040128,1," |  1  |   4655       4   4652       0 |   5    0      4536       116 |   2  60    0    0 e40f |    3.479       0       5       0       5     60     60      0   4503     149       2  60    0e40f a70f      9.690 "
test,1583576386782139904,22," | 22  |   4655       5   4649       0 |   5    0      4612        37 |   1  24    0    0 980f |    2.014       0       5       0       5     24     24      0   4397     252       1  24    0980f a70f      8.070 "
test,1583576386784823040,23," | 23  |   4655       4   4593       0 |   5    0      4574        19 |   1  24    0    0 980f |    2.014       0       5       0       5     24     24      0   4478     115       1  24    0980f a70f      8.280 "
test,1583576386781922048,24," | 24  |   4655       5   4649       2 |   4    0      4602        49 |   2  24    0    1 980f |    1.739       0       4       0       4     24     24      0   4482     169       2  24    1980f a70f      6.510 "
test,1583576386786089984,26," | 26  |   4655       5   4649       2 |   5    0      4634        17 |   1  24    0    0 980f |    2.044       0       5       0       5     24     24      0   4551     100       1  24    0980f a70f      8.280 "
test,1583576386778529024,27," | 27  |   4655       5   4653       0 |   5    0      4527       126 |   9  24    0    0 980f |    2.777       0       5       0       5     24     24      0   4332     321       2  24    0980f a70f      8.940 "
test,1583576386804943104,28," | 28  |   4655       5   4646       5 |   5    0      4284       367 |   2  24    0    0 980f |    6.439       0       4       0       4     24     24      0   4105     546       7  24    0980f a70f     30.210 "
test,1583576386788841984,29," | 29  |   4655       4   4648       5 |   5    0      4113       540 |   8  24    0    0 980f |    2.777       0       5       0       5     24     24      0   3903     750       2  24    0980f a70f      9.690 "
test,1583576386788381184,30," | 30  |   4655       5   4649       2 |   5    0      4586        65 |   8  24    0    0 980f |    4.241       0       5       0       5     24     24      0   4423     228       4  24    0980f a70f     11.130 "
test,1583576386785305856,35," | 35  |   4655       5   4649       2 |   5    0      4433       218 |   8  24    0    0 980f |    4.211       0       5       0       5     24     24      0   4336     315       4  24    0980f a70f     10.380 "
test,1583576386788634112,40," | 40  |   4655       5   4582      65 |   5    0      4357       290 |   1  24    0    0 980f |    3.509       0       5       0       5     24     24      0   4247     400       3  24    0980f a70f     11.040 "
test,1583576386791147008,41," | 41  |   4655       5   4582      59 |   5    0      4604        37 |   2  24    0    0 980f |    3.479       0       5       0       5     24     24      0   4486     155       3  24    0980f a70f     10.290 "
test,1583576386790206976,42," | 42  |   4655       5   4590      61 |   5    0      4550       101 |   1  24    0    0 980f |    3.509       0       5       0       5     24     24      0   4447     204       3  24    0980f a70f     10.980 "
test,1583576386796570112,44," | 44  |   4655       5   4594      57 |   5    0      4554        97 |   1  24    0    0 980f |    2.716       0       5       0       5     24     24      0   4464     187       2  24    0980f a70f      9.630 "
test,1583576386791852032,45," | 45  |   4655       5   4608      43 |   5    0      4504       147 |   2  24    0    0 980f |    3.479       0       5       0       5     24     24      0   4419     232       3  24    0980f a70f     11.100 "
test,1583576386796107008,46," | 46  |   4655       5   4587      57 |   5    0      4438       206 |   2  24    0    0 980f |    3.448       0       5       0       5     24     24      0   4356     288       3  24    0980f a70f     11.070 "
test,1583576386804096000,47," | 47  |   4655       5   4594      57 |   0    9      4493       158 |   0  47   24    1 4b0f |    0           0       0       0       8      0      0      0   4412     239       0  47    14b0f a70f     30.240 "
test,1583576386787393024,48," | 48  |   4655       5   4529      55 |   5    0      4476       108 |   2  24    0    0 980f |    2.777       0       5       0       5     24     24      0   4394     190       2  24    0980f a70f     11.760 "
test,1583576386782979072,49," | 49  |   4655       5   4645       0 |   5    0      4556        89 |   1  55    0    0 dd0f |    2.014       0       5       0       5     55     55      0   4520     125       1  55    0dd0f a70f      8.220 "
test,1583576386783230976,51," | 51  |   4655       5   4646       0 |   5    0      4603        43 |   1  60    0    0 e40f |    2.044       0       5       0       5     60     60      0   4586      60       1  60    0e40f a70f      8.280 "
test,1583576386804562176,52," | 52  |   4655       5   4622      25 |   5    0      4432       215 |   1  24    0    0 980f |    1.983       0       4       0       4     24     24      0   4341     306       1  24    0980f a70f     30.360 "
test,1583576386783561984,53," | 53  |   4655       5   4629       0 |   5    0      4377       252 |   1  55    0    0 dd0f |    1.983       0       5       0       5     55     55      0   4329     300       1  55    0dd0f a70f      8.220 "
test,1583576386803406080,54," | 54  |   4655       5   4647       0 |   1    9      4565        82 |   2  55   60    0 dd0f |    2.716       0       1       0       1     55     55      0   4490     157       2  55    0dd0f a70f     30.360 "
test,1583576386781668864,55," | 55  |   4655       5   4634       0 |   4    0      4459       175 |   2  55    0    1 dd0f |    1.739       0       4       0       4     55     55      0   4423     211       2  55    1dd0f a70f      6.510 "
test,1583576386782792960,56," | 56  |   4655       5   4637       0 |   5    0      4563        74 |   2  60    0    0 e40f |    2.014       0       5       0       5     60     60      0   4508     129       1  60    0e40f a70f      8.250 "
test,1583576386802339072,57," | 57  |   4655       5   4592       0 |   5    0      4475       117 |   2  24    0    0 980f |    0           0       0       0       8      0      0      0   4200     392       0  24    0980f a70f     30.360 "
test,1583576386787979008,58," | 58  |   4655       5   4646       0 |   5    0      4580        66 |   1  55    0    0 dd0f |    1.983       0       5       0       5     55     55      0   4382     264       1  55    0dd0f a70f      8.250 "
test,1583576386784652032,5," |  5  |   4655       5   4653       0 |   5    0      4243       410 |   2  60    0    0 e40f |    3.479       0       5       0       5     60     60      0   4164     489       3  60    0e40f a70f      9.660 "
test,1583576386786658048,60," | 60  |   4655       5   4646       0 |   4    0      4355       291 |   2  60    0    1 e40f |    1.739       0       4       0       4     60     60      0   4266     380       2  60    1e40f a70f      6.480 "
test,1583576386805760000,61," | 61  |   4655       4   4645       0 |   5    0      4432       213 |   2  55    0    0 dd0f |    3.509       0       4       0       4     55     55      0   4276     369       3  55    0dd0f a70f     30.360 "
test,1583576386782584832,7," |  7  |   4655       5   4652       0 |   5    0      4581        71 |   2  60    0    0 e40f |    2.807       0       5       0       5     60     60      0   4552     100       2  60    0e40f a70f      8.880 "
test,1583576386785664000,9," |  9  |   4655       5   4651       0 |   5    0      4489       162 |   3  60    0    0 e40f |    3.479       0       5       0       5     60     60      0   4469     182       3  60    0e40f a70f      9.690 "
