test,1583576398537324800,10," | 10  |   4702       5   4674       0 |   5    0      4599        75 |   2  55    0    0 2a0f |    2.777       0       5       0       5     55     55      0   4540     134       2  55    02a0f a70f      9.660 "
test,1583576398533090048,12," | 12  |   4702       5   4696       4 |   5    0      4661        39 |   2  55    0    0 2a0f |    2.777       0       5       0       5     55     55      0   4588     112       2  55    02a0f a70f      9.030 "
test,1583576398553177088,13," | 13  |   4702       5   4698       0 |   5    0      4664        34 |   3  55    0    0 2a0f |    3.540       0       4       0       4     55     55      0   4607      91       3  55    02a0f a70f     30.300 "
test,1583576398555830016,15," | 15  |   4702       5   4693       7 |   3    4      4521       179 |   3  55   27    0 2a0f |    3.540       0       4       0       4     55     55      0   4321     379       3  55    02a0f a70f     30.300 "
test,1583576398537814016,16," | 16  |   4702       5   4698       0 |   5    0      4528       170 |   4  55    0    0 2a0f |    4.272       0       5       0       5     55     55      0   4401     297       4  55    02a0f a70f     10.350 "
test,1583576398538758912,17," | 17  |   4702       5   4692       6 |   5    0      4641        57 |   4  55    0    0 2a0f |    4.241       0       5       0       5     55     55      0   4502     196       4  55    02a0f a70f     11.160 "
test,1583576398545150976,18," | 18  |   4702       5   4697       0 |   4    0      4426       271 |   4  55    0    0 2a0f |    4.272       0       5       0       5     55     55      0   4236     461       4  55    02a0f a70f     11.010 "
test,1583576398556345088,19," | 19  |   4702       5   4688      10 |   4    4      4624        74 |   5  55   27    0 2a0f |    4.943       0       4       0       4     55     55      0   4486     212       5  55    02a0f a70f     30.390 "
test,1583576398539608832,1," |  1  |   4702       4   4699       0 |   5    0      4583       116 |   3  55    0    0 2a0f |    4.180       0       5       0       5     55     55      0   4550     149       3  55    02a0f a70f     10.380 "
test,1583576398542601216,22," | 22  |   4702       5   4696       0 |   5    0      4658        38 |   3  55    0    0 2a0f |    4.211       0       5       0       5     55     55      0   4441     255       4  55    02a0f a70f     10.380 "
test,1583576398539078912,23," | 23  |   4702       5   4640       0 |   5    0      4620        20 |   3  55    0    0 2a0f |    3.479       0       5       0       5     55     55      0   4523     117       3  55    02a0f a70f      9.690 "
test,1583576398540667904,24," | 24  |   4702       5   4696       2 |   5    0      4649        49 |   4  55    0    0 2a0f |    4.272       0       5       0       5     55     55      0   4528     170       4  55    02a0f a70f     11.100 "
test,1583576398536793088,26," | 26  |   4702       5   4696       2 |   5    0      4681        17 |   3  55    0    0 2a0f |    3.540       0       5       0       5     55     55      0   4598     100       3  55    02a0f a70f     10.320 "
test,1583576398554342912,27," | 27  |   4702       5   4700       0 |   0    6      4572       128 |   0  27   55    1 3c0f |    0           0       0       0       8      0      0      0   4375     325       0  27    13c0f a70f     30.180 "
test,1583576398538202112,28," | 28  |   4702       5   4693       5 |   4    1      4327       371 |   4  28   55    1 750f |    1.739       0       4       0       4     28     28      0   4143     555       2  28    1750f a70f      6.510 "
test,1583576398556024064,29," | 29  |   4702       5   4695       5 |   4    5      4154       546 |   6  55   27    0 2a0f |    5.676       0       2       0       2     55     55      0   3944     756       6  55    02a0f a70f     30.300 "
test,1583576398533476096,30," | 30  |   4702       5   4696       2 |   5    0      4632        66 |   1  28    0    0 750f |    1.983       0       5       0       5     28     28      0   4466     232       1  28    0750f a70f      8.220 "
test,1583576398534689024,35," | 35  |   4702       5   4696       2 |   5    0      4478       220 |   2  28    0    0 750f |    2.746       0       5       0       5     28     28      0   4379     319       2  28    0750f a70f      8.940 "
test,1583576398539241984,40," | 40  |   4702       5   4629      65 |   3    0      4400       294 |   5  55    0    0 2a0f |    5.706       0       5       0       5     55     55      0   4289     405       6  55    02a0f a70f     11.700 "
test,1583576398545371904,41," | 41  |   4702       5   4629      59 |   5    0      4651        37 |   5  55    0    0 2a0f |    5.706       0       5       0       5     55     55      0   4533     155       6  55    02a0f a70f     11.880 "
test,1583576398542298112,42," | 42  |   4702       5   4637      61 |   5    0      4596       102 |   4  55    0    0 2a0f |    4.943       0       5       0       5     55     55      0   4492     206       5  55    02a0f a70f     11.850 "
test,1583576398540508928,44," | 44  |   4702       5   4641      57 |   5    0      4599        99 |   4  55    0    0 2a0f |    5.004       0       5       0       5     55     55      0   4508     190       5  55    02a0f a70f     11.850 "
test,1583576398537540864,45," | 45  |   4702       5   4655      43 |   5    0      4550       148 |   5  55    0    0 2a0f |    4.943       0       5       0       5     55     55      0   4465     233       5  55    02a0f a70f     10.950 "
test,1583576398539443968,46," | 46  |   4702       5   4634      57 |   5    0      4483       208 |   5  55    0    0 2a0f |    5.706       0       5       0       5     55     55      0   4402     289       6  55    02a0f a70f     12.420 "
test,1583576398540160768,47," | 47  |   4702       5   4641      57 |   5    0      4537       161 |   5  55    0    0 2a0f |    5.737       0       5       0       5     55     55      0   4457     241       6  55    02a0f a70f     11.790 "
test,1583576398537976064,48," | 48  |   4702       5   4576      55 |   5    0      4521       110 |   4  55    0    0 2a0f |    4.974       0       5       0       5     55     55      0   4438     193       5  55    02a0f a70f     11.850 "
test,1583576398534174976,49," | 49  |   4702       5   4692       0 |   5    0      4603        89 |   1  55    0    0 2a0f |    2.044       0       5       0       5     55     55      0   4567     125       1  55    02a0f a70f      8.970 "
test,1583576398535571200,51," | 51  |   4702       5   4693       0 |   5    0      4649        44 |   3  55    0    0 2a0f |    3.479       0       5       0       5     55     55      0   4632      61       3  55    02a0f a70f      9.690 "
test,1583576398538948096,52," | 52  |   4702       2   4669      25 |   5    0      4476       218 |   4  55    0    0 2a0f |    4.974       0       5       0       5     55     55      0   4384     310       5  55    02a0f a70f     11.850 "
test,1583576398532847872,53," | 53  |   4702       5   4676       0 |   5    0      4419       257 |   1  55    0    0 2a0f |    2.014       0       5       0       5     55     55      0   4371     305       1  55    02a0f a70f      8.280 "
test,1583576398538515200,54," | 54  |   4702       5   4694       0 |   5    0      4612        82 |   2  55    0    0 2a0f |    2.807       0       5       0       5     55     55      0   4536     158       2  55    02a0f a70f      9.000 "
test,1583576398533276928,55," | 55  |   4702       5   4681       0 |   4    0      4506       175 |   4  55    0    1 2a0f |    1.739       0       4       0       4     55     55      0   4470     211       2  55    12a0f a70f      6.510 "
test,1583576398533952000,56," | 56  |   4702       5   4684       0 |   5    0      4610        74 |   2  55    0    0 2a0f |    2.746       0       5       0       5     55     55      0   4555     129       2  55    02a0f a70f      8.970 "
test,1583576398536463104,57," | 57  |   4702       5   4639       0 |   5    0      4522       117 |   2  55    0    0 2a0f |    2.777       0       5       0       5     55     55      0   4246     393       2  55    02a0f a70f      9.000 "
test,1583576398535087104,58," | 58  |   4702       5   4693       0 |   5    0      4627        66 |   1  55    0    0 2a0f |    2.044       0       5       0       5     55     55      0   4428     265       1  55    02a0f a70f      9.000 "
test,1583576398535847936,5," |  5  |   4702       5   4700       0 |   5    0      4285       415 |   3  55    0    0 2a0f |    3.509       0       5       0       5     55     55      0   4205     495       3  55    02a0f a70f      9.690 "
test,1583576398537143040,60," | 60  |   4702       5   4693       0 |   5    0      4400       293 |   4  55    0    0 2a0f |    3.540       0       5       0       5     55     55      0   4311     382       3  55    02a0f a70f      9.690 "
test,1583576398543000832,61," | 61  |   4702       5   4692       0 |   5    0      4476       216 |   2  55    0    0 2a0f |    2.777       0       5       0       5     55     55      0   4320     372       2  55    02a0f a70f      9.720 "
test,1583576398542455040,7," |  7  |   4702       5   4699       0 |   5    0      4626        73 |   3  55    0    0 2a0f |    3.540       0       5       0       5     55     55      0   4597     102       3  55    02a0f a70f      9.630 "
test,1583576398534894848,9," |  9  |   4702       5   4698       0 |   5    0      4535       163 |   3  55    0    0 2a0f |    3.509       0       5       0       5     55     55      0   4515     183       3  55    02a0f a70f      9.720 "
