test,1583576311035958016,10," | 10  |   4352       5   4324       0 |   5    0      4255        69 |   2  61    0    0 620f |    2.777       0       5       0       5     61     61      0   4200     124       2  61    0620f a70f      9.750 "
test,1583576311039920128,12," | 12  |   4352       5   4350       0 |   5    0      4316        34 |   2  61    0    0 620f |    2.807       0       5       0       5     61     61      0   4251      99       2  61    0620f a70f      9.750 "
test,1583576311031441920,13," | 13  |   4352       5   4348       0 |   5    0      4318        30 |   2  61    0    0 620f |    2.838       0       5       0       5     61     61      0   4266      82       2  61    0620f a70f      8.910 "
test,1583576311050885888,15," | 15  |   4352       5   4350       0 |   1    4      4186       164 |   3  26   61    0 380f |    0           0       0       0       8      0      0      0   4001     349       0  26    0380f a70f     30.390 "
test,1583576311040459008,16," | 16  |   4352       5   4348       0 |   5    0      4187       161 |   1  26    0    0 380f |    2.014       0       5       0       5     26     26      0   4071     277       1  26    0380f a70f      8.940 "
test,1583576311036321024,17," | 17  |   4352       5   4343       5 |   5    0      4297        51 |   1  26    0    0 380f |    2.014       0       5       0       5     26     26      0   4167     181       1  26    0380f a70f      8.820 "
test,1583576311053864960,18," | 18  |   4352       5   4347       0 |   5    0      4100       247 |   2  26    0    0 380f |    2.777       0       4       0       4     26     26      0   3921     426       2  26    0380f a70f     30.270 "
test,1583576311036474112,19," | 19  |   4352       5   4339       9 |   5    0      4281        67 |   1  26    0    0 380f |    1.953       0       5       0       5     26     26      0   4153     195       1  26    0380f a70f      9.630 "
test,1583576311032406016,1," |  1  |   4352       4   4349       0 |   5    0      4246       103 |   2  61    0    0 620f |    3.479       0       5       0       5     61     61      0   4215     134       2  61    0620f a70f      9.540 "
test,1583576311051420928,22," | 22  |   4352       5   4346       0 |   3    4      4310        36 |   1  48   26    0 ab0f |    0           0       0       0       8      0      0      0   4105     241       0  48    0ab0f a70f     30.360 "
test,1583576311033138944,23," | 23  |   4352       5   4290       0 |   5    0      4271        19 |   1  26    0    0 380f |    2.014       0       5       0       5     26     26      0   4178     112       1  26    0380f a70f      8.130 "
test,1583576311035132928,24," | 24  |   4352       5   4346       2 |   5    0      4303        45 |   1  26    0    0 380f |    1.953       0       5       0       5     26     26      0   4189     159       1  26    0380f a70f      8.190 "
test,1583576311029598976,26," | 26  |   4352       5   4346       2 |   5    0      4332        16 |   2  26    0    1 380f |    1.739       0       4       0       4     26     26      0   4251      97       2  26    1380f a70f      6.480 "
test,1583576311054032128,27," | 27  |   4352       5   4350       0 |   4    0      4228       122 |   2  26    0    0 380f |    2.777       0       4       0       4     26     26      0   4050     300       2  26    0380f a70f     30.240 "
test,1583576311051126016,28," | 28  |   4352       4   4343       5 |   3    3      4008       340 |   2  48   26    0 ab0f |    0           0       0       0       8      0      0      0   3845     503       0  48    0ab0f a70f     30.360 "
test,1583576311053654784,29," | 29  |   4352       3   4345       5 |   1    0      3856       494 |   3  26    0    0 380f |    2.746       0       3       0       3     26     26      0   3656     694       2  26    0380f a70f     30.300 "
test,1583576311050540032,30," | 30  |   4352       5   4346       2 |   3    0      4291        57 |   2  48    0    0 ab0f |    0           0       0       0       8      0      0      0   4135     213       0  48    0ab0f a70f     30.360 "
test,1583576311050290176,35," | 35  |   4352       5   4346       2 |   3    0      4143       205 |   2  48    0    0 ab0f |    0           0       0       0       8      0      0      0   4050     298       0  48    0ab0f a70f     30.360 "
test,1583576311038004992,40," | 40  |   4352       5   4284      60 |   5    1      4081       263 |   1  48   26    0 ab0f |    2.746       0       5       0       5     48     48      0   3979     365       2  48    0ab0f a70f      9.690 "
test,1583576311035500032,41," | 41  |   4352       5   4279      59 |   5    1      4302        36 |   1  48   26    0 ab0f |    1.983       0       5       0       5     48     48      0   4190     148       1  48    0ab0f a70f      8.250 "
test,1583576311032676864,42," | 42  |   4352       5   4287      61 |   5    1      4252        96 |   1  48   26    0 ab0f |    2.044       0       5       0       5     48     48      0   4151     197       1  48    0ab0f a70f      8.220 "
test,1583576311033971968,44," | 44  |   4352       5   4291      57 |   5    1      4252        96 |   1  48   26    0 ab0f |    2.014       0       5       0       5     48     48      0   4164     184       1  48    0ab0f a70f      8.940 "
test,1583576311035291904,45," | 45  |   4352       5   4305      43 |   5    0      4208       140 |   1  48    0    0 ab0f |    2.014       0       5       0       5     48     48      0   4126     222       1  48    0ab0f a70f      8.070 "
test,1583576311032954880,46," | 46  |   4352       5   4284      57 |   5    0      4146       195 |   1  48    0    0 ab0f |    2.014       0       5       0       5     48     48      0   4066     275       1  48    0ab0f a70f      8.880 "
test,1583576311035002112,47," | 47  |   4352       4   4291      57 |   5    1      4202       146 |   1  48   26    0 ab0f |    2.044       0       5       0       5     48     48      0   4119     229       1  48    0ab0f a70f      8.850 "
test,1583576311033766912,48," | 48  |   4352       5   4226      55 |   4    0      4178       103 |   8  48    0    1 ab0f |    3.204       0       4       0       4     48     48      0   4097     184       4  48    1ab0f a70f      7.950 "
test,1583576311030433792,49," | 49  |   4352       5   4342       0 |   5    0      4258        84 |   1  53    0    0 dd0f |    2.044       0       5       0       5     53     53      0   4223     119       1  53    0dd0f a70f      8.280 "
test,1583576311039254016,51," | 51  |   4352       5   4343       0 |   5    0      4304        39 |   3  26    0    0 380f |    3.509       0       5       0       5     26     26      0   4286      57       3  26    0380f a70f      9.720 "
test,1583576311039449856,52," | 52  |   4352       5   4320      24 |   5    0      4137       207 |   1  26    0    0 380f |    2.716       0       5       0       5     26     26      0   4050     294       2  26    0380f a70f      8.940 "
test,1583576311030904064,53," | 53  |   4352       5   4326       0 |   5    0      4101       225 |   2  53    0    1 dd0f |    1.770       0       4       0       4     53     53      0   4054     272       2  53    1dd0f a70f      6.480 "
test,1583576311033406976,54," | 54  |   4352       5   4344       0 |   5    0      4267        77 |   1  61    0    0 620f |    2.075       0       5       0       5     61     61      0   4200     144       1  61    0620f a70f      8.280 "
test,1583576311048101888,55," | 55  |   4352       5   4331       0 |   0    9      4166       165 |   0  55   61    1 460f |    0           0       0       0       8      0      0      0   4131     200       0  55    1460f a70f     30.180 "
test,1583576311031693056,56," | 56  |   4352       5   4334       0 |   5    0      4266        68 |   2  26    0    0 380f |    2.716       0       5       0       5     26     26      0   4215     119       2  26    0380f a70f      8.910 "
test,1583576311031176960,57," | 57  |   4352       5   4289       0 |   5    0      4182       107 |   1  26    0    0 380f |    2.014       0       5       0       5     26     26      0   3927     362       1  26    0380f a70f      8.220 "
test,1583576311053330944,58," | 58  |   4352       5   4343       0 |   2    0      4282        61 |  10  61    0    0 620f |    2.044       0       2       0       2     61     61      0   4093     250       1  61    0620f a70f     30.330 "
test,1583576311053140992,5," |  5  |   4352       5   4350       0 |   5    0      3968       382 |   3  61    0    0 620f |    3.570       0       4       0       4     61     61      0   3893     457       3  61    0620f a70f     30.360 "
test,1583576311034190848,60," | 60  |   4352       5   4343       0 |   5    0      4068       275 |   2  26    0    0 380f |    2.716       0       5       0       5     26     26      0   3991     352       2  26    0380f a70f      8.940 "
test,1583576311054574080,61," | 61  |   4352       5   4342       0 |   4    1      4148       194 |   2  61   26    1 620f |    1.739       0       1       0       1     61     61      0   4005     337       2  61    1620f a70f     30.300 "
test,1583576311031988992,7," |  7  |   4352       5   4349       0 |   5    0      4281        68 |   2  61    0    0 620f |    2.807       0       5       0       5     61     61      0   4256      93       2  61    0620f a70f      8.940 "
test,1583576311034802944,9," |  9  |   4352       5   4348       0 |   5    0      4195       153 |   2  61    0    0 620f |    2.777       0       5       0       5     61     61      0   4176     172       2  61    0620f a70f      9.030 "
