test,1583576442283302912,10," | 10  |   4877       5   4849       0 |   5    0      4770        79 |   1  54    0    0 240f |    2.014       0       5       0       5     54     54      0   4708     141       1  54    0240f a70f      8.100 "
test,1583576442292169216,12," | 12  |   4877       5   4862      13 |   5    0      4830        45 |   1  54    0    0 240f |    2.075       0       5       0       5     54     54      0   4743     132       1  54    0240f a70f      8.910 "
test,1583576442291880960,13," | 13  |   4877       5   4873       0 |   5    0      4836        37 |   1  54    0    0 240f |    2.044       0       5       0       5     54     54      0   4775      98       1  54    0240f a70f      8.910 "
test,1583576442293120000,15," | 15  |   4877       5   4856      19 |   4    4      4686       189 |   2  54   60    0 240f |    2.746       0       5       0       5     54     54      0   4465     410       2  54    0240f a70f      9.660 "
test,1583576442292960000,16," | 16  |   4877       5   4873       0 |   5    0      4699       174 |   2  46    0    0 2d0f |    2.777       0       5       0       5     46     46      0   4567     306       2  46    02d0f a70f      9.000 "
test,1583576442289169152,17," | 17  |   4877       5   4866       7 |   5    0      4814        59 |   2  46    0    0 2d0f |    2.716       0       5       0       5     46     46      0   4671     202       2  46    02d0f a70f      9.630 "
test,1583576442287282944,18," | 18  |   4877       5   4872       0 |   5    0      4592       280 |   2  46    0    0 2d0f |    2.746       0       5       0       5     46     46      0   4395     477       2  46    02d0f a70f      9.660 "
test,1583576442287745024,19," | 19  |   4877       5   4862      11 |   5    0      4795        78 |   3  46    0    0 2d0f |    3.509       0       5       0       5     46     46      0   4654     219       3  46    02d0f a70f      9.570 "
test,1583576442282913024,1," |  1  |   4877       4   4874       0 |   5    0      4753       121 |   1  54    0    0 240f |    2.716       0       5       0       5     54     54      0   4719     155       1  54    0240f a70f      8.940 "
test,1583576442286891008,22," | 22  |   4877       5   4871       0 |   5    0      4832        39 |   2  46    0    0 2d0f |    2.777       0       5       0       5     46     46      0   4609     262       2  46    02d0f a70f      9.600 "
test,1583576442285878784,23," | 23  |   4877       5   4815       0 |   5    0      4793        22 |   3  46    0    0 2d0f |    3.509       0       5       0       5     46     46      0   4694     121       3  46    02d0f a70f      9.690 "
test,1583576442289756928,24," | 24  |   4877       5   4871       2 |   5    0      4824        49 |   2  46    0    0 2d0f |    2.777       0       5       0       5     46     46      0   4699     174       2  46    02d0f a70f      9.720 "
test,1583576442283654912,26," | 26  |   4877       5   4871       2 |   5    0      4853        20 |   2  46    0    0 2d0f |    2.777       0       5       0       5     46     46      0   4768     105       2  46    02d0f a70f      9.030 "
test,1583576442287083008,27," | 27  |   4877       5   4875       0 |   5    0      4741       134 |   3  46    0    0 2d0f |    3.509       0       5       0       5     46     46      0   4539     336       3  46    02d0f a70f     10.320 "
test,1583576442292695040,28," | 28  |   4877       5   4867       6 |   5    0      4483       390 |   4  46    0    0 2d0f |    3.509       0       5       0       5     46     46      0   4295     578       3  46    02d0f a70f     11.070 "
test,1583576442306492160,29," | 29  |   4877       2   4868       7 |   4    0      4307       568 |   6  46    0    0 2d0f |   10.101       0       1       0       1     46     46      0   4097     778      12  46    02d0f a70f     30.390 "
test,1583576442290415104,30," | 30  |   4877       5   4871       2 |   5    0      4807        66 |   3  46    0    0 2d0f |    3.448       0       5       0       5     46     46      0   4630     243       3  46    02d0f a70f     11.010 "
test,1583576442286695936,35," | 35  |   4877       5   4871       2 |   5    0      4644       229 |   3  46    0    0 2d0f |    3.509       0       5       0       5     46     46      0   4539     334       3  46    02d0f a70f     10.410 "
test,1583576442289392896,40," | 40  |   4877       5   4804      65 |   5    0      4568       301 |   1  46    0    0 2d0f |    2.044       0       5       0       5     46     46      0   4453     416       1  46    02d0f a70f     10.290 "
test,1583576442286459904,41," | 41  |   4877       5   4804      59 |   5    0      4825        38 |   1  46    0    0 2d0f |    1.983       0       5       0       5     46     46      0   4705     158       1  46    02d0f a70f      8.250 "
test,1583576442287575040,42," | 42  |   4877       5   4811      62 |   5    0      4770       103 |   1  46    0    0 2d0f |    1.983       0       5       0       5     46     46      0   4664     209       1  46    02d0f a70f      8.190 "
test,1583576442284611840,44," | 44  |   4877       5   4816      57 |   5    0      4774        99 |   1  46    0    0 2d0f |    2.014       0       5       0       5     46     46      0   4682     191       1  46    02d0f a70f      8.250 "
test,1583576442288567040,45," | 45  |   4877       5   4830      43 |   5    0      4721       152 |   4  46    0    0 2d0f |    2.014       0       5       0       5     46     46      0   4633     240       1  46    02d0f a70f      8.940 "
test,1583576442285278208,46," | 46  |   4877       5   4809      57 |   4    0      4650       216 |   2  46    0    1 2d0f |    1.739       0       4       0       4     46     46      0   4567     299       2  46    12d0f a70f      6.510 "
test,1583576442286076928,47," | 47  |   4877       5   4816      57 |   5    0      4706       167 |   1  46    0    0 2d0f |    2.044       0       5       0       5     46     46      0   4626     247       1  46    02d0f a70f      9.630 "
test,1583576442288220928,48," | 48  |   4877       5   4751      55 |   5    0      4695       111 |   1  46    0    0 2d0f |    2.014       0       5       0       5     46     46      0   4611     195       1  46    02d0f a70f      9.660 "
test,1583576442301636864,49," | 49  |   4877       5   4867       0 |   0    7      4771        96 |   0  49   54    1 c00f |    0           0       0       0       8      0      0      0   4735     132       0  49    1c00f a70f     30.210 "
test,1583576442283900928,51," | 51  |   4877       5   4868       0 |   5    0      4823        45 |   2  54    0    0 240f |    2.777       0       5       0       5     54     54      0   4806      62       2  54    0240f a70f      9.000 "
test,1583576442286286080,52," | 52  |   4877       4   4843      26 |   5    0      4639       230 |   3  46    0    0 2d0f |    3.509       0       5       0       5     46     46      0   4546     323       3  46    02d0f a70f      9.720 "
test,1583576442304754944,53," | 53  |   4877       5   4851       0 |   4    0      4587       264 |   8  53    0    1  70f |    1.770       0       1       0       1     53     53      0   4536     315       2  53    1 70f a70f     30.300 "
test,1583576442285666816,54," | 54  |   4877       5   4869       0 |   4    0      4786        83 |   3  54    0    1 240f |    1.739       0       4       0       4     54     54      0   4706     163       2  54    1240f a70f      7.920 "
test,1583576442306708224,55," | 55  |   4877       5   4856       0 |   5    1      4671       185 |   1  53   49    0  70f |    2.014       0       2       0       2     53     53      0   4633     223       1  53    0 70f a70f     30.360 "
test,1583576442291208960,56," | 56  |   4877       5   4859       0 |   5    0      4782        77 |   1  54    0    0 240f |    3.509       0       5       0       5     54     54      0   4725     134       3  54    0240f a70f      9.630 "
test,1583576442307159040,57," | 57  |   4877       5   4814       0 |   4    6      4691       123 |   2  54   60    0 240f |   11.535       0       1       0       1     54     54      0   4406     408      14  54    0240f a70f     30.360 "
test,1583576442306269952,58," | 58  |   4877       5   4868       0 |   5    2      4798        70 |   1  54   49    0 240f |    3.479       0       4       0       4     54     54      0   4592     276       3  54    0240f a70f     30.270 "
test,1583576442288708864,5," |  5  |   4877       5   4875       0 |   5    0      4442       433 |   2  54    0    0 240f |    2.777       0       5       0       5     54     54      0   4357     518       2  54    0240f a70f      9.690 "
test,1583576442303764992,60," | 60  |   4877       5   4868       0 |   0    9      4561       307 |   0  60   54    1 580f |    0           0       0       0       8      0      0      0   4469     399       0  60    1580f a70f     30.180 "
test,1583576442289988096,61," | 61  |   4877       5   4867       0 |   5    0      4644       223 |   2  54    0    0 240f |    3.479       0       5       0       5     54     54      0   4483     384       3  54    0240f a70f     10.410 "
test,1583576442282684928,7," |  7  |   4877       5   4874       0 |   5    0      4801        73 |   1  54    0    0 240f |    2.044       0       5       0       5     54     54      0   4768     106       1  54    0240f a70f      8.130 "
test,1583576442284930048,9," |  9  |   4877       5   4873       0 |   5    0      4705       168 |   1  54    0    0 240f |    2.044       0       5       0       5     54     54      0   4683     190       1  54    0240f a70f      8.940 "
