test,1583576395054213120,10," | 10  |   4688       5   4660       0 |   5    0      4585        75 |   3   5    0    0 be0f |    2.777       0       4       0       4      5      5      0   4526     134       2   5    0be0f a70f     30.390 "
test,1583576395033193984,12," | 12  |   4688       5   4682       4 |   5    0      4647        39 |   1   5    0    0 be0f |    2.075       0       5       0       5      5      5      0   4577     109       1   5    0be0f a70f      8.310 "
test,1583576395035392000,13," | 13  |   4688       5   4684       0 |   5    0      4650        34 |   1   5    0    0 be0f |    2.075       0       5       0       5      5      5      0   4593      91       1   5    0be0f a70f      8.880 "
test,1583576395035967232,15," | 15  |   4688       5   4679       7 |   4    0      4507       179 |   2   5    0    0 be0f |    2.075       0       5       0       5      5      5      0   4311     375       1   5    0be0f a70f      9.630 "
test,1583576395037317120,16," | 16  |   4688       5   4684       0 |   5    0      4514       170 |   3  30    0    0 880f |    4.150       0       5       0       5     30     30      0   4388     296       4  30    0880f a70f     11.820 "
test,1583576395041704960,17," | 17  |   4688       5   4678       6 |   5    0      4628        56 |   2  30    0    0 880f |    3.448       0       5       0       5     30     30      0   4491     193       3  30    0880f a70f     11.610 "
test,1583576395053449984,18," | 18  |   4688       5   4683       0 |   0    9      4412       271 |   0  18   30    1 770f |    0           0       0       0       8      0      0      0   4222     461       0  18    1770f a70f     30.090 "
test,1583576395038439936,19," | 19  |   4688       5   4674      10 |   5    0      4610        74 |   3  30    0    0 880f |    3.479       0       5       0       5     30     30      0   4475     209       3  30    0880f a70f     11.700 "
test,1583576395034957824,1," |  1  |   4688       4   4685       0 |   5    0      4569       116 |   2   5    0    0 be0f |    3.479       0       5       0       5      5      5      0   4536     149       2   5    0be0f a70f      9.600 "
test,1583576395035805952,22," | 22  |   4688       5   4682       0 |   5    0      4644        38 |   1  30    0    0 880f |    3.417       0       5       0       5     30     30      0   4427     255       3  30    0880f a70f      9.600 "
test,1583576395038091008,23," | 23  |   4688       5   4626       0 |   5    0      4606        20 |   2  30    0    0 880f |    3.448       0       5       0       5     30     30      0   4509     117       3  30    0880f a70f     11.850 "
test,1583576395038564864,24," | 24  |   4688       5   4682       2 |   5    0      4635        49 |   2  30    0    0 880f |    2.716       0       5       0       5     30     30      0   4514     170       2  30    0880f a70f      9.540 "
test,1583576395037153024,26," | 26  |   4688       5   4682       2 |   5    0      4667        17 |   2  30    0    0 880f |    3.479       0       5       0       5     30     30      0   4584     100       3  30    0880f a70f     11.130 "
test,1583576395039532800,27," | 27  |   4688       5   4686       0 |   5    0      4559       127 |   3  30    0    0 880f |    4.211       0       5       0       5     30     30      0   4362     324       4  30    0880f a70f     12.540 "
test,1583576395044231936,28," | 28  |   4688       5   4679       5 |   5    0      4315       369 |   1  30    0    0 880f |    1.953       0       5       0       5     30     30      0   4134     550       1  30    0880f a70f     10.350 "
test,1583576395056022016,29," | 29  |   4688       5   4681       5 |   5    0      4140       546 |   4  30    0    0 880f |    4.180       0       4       0       4     30     30      0   3930     756       4  30    0880f a70f     30.210 "
test,1583576395032340992,30," | 30  |   4688       5   4682       2 |   4    0      4618        66 |   6  30    0    1 880f |    1.739       0       4       0       4     30     30      0   4453     231       2  30    1880f a70f      6.480 "
test,1583576395033709056,35," | 35  |   4688       5   4682       2 |   5    0      4466       218 |   1  30    0    0 880f |    1.983       0       5       0       5     30     30      0   4367     317       1  30    0880f a70f      8.190 "
test,1583576395040709120,40," | 40  |   4688       5   4615      65 |   5    0      4388       292 |   5  30    0    0 880f |    3.448       0       5       0       5     30     30      0   4277     403       3  30    0880f a70f     10.200 "
test,1583576395037765120,41," | 41  |   4688       5   4615      59 |   5    0      4637        37 |   4  30    0    0 880f |    4.943       0       5       0       5     30     30      0   4519     155       5  30    0880f a70f     11.010 "
test,1583576395040446976,42," | 42  |   4688       5   4623      61 |   5    0      4583       101 |   2  30    0    0 880f |    4.943       0       5       0       5     30     30      0   4479     205       5  30    0880f a70f     11.070 "
test,1583576395052848128,44," | 44  |   4688       5   4627      57 |   0    9      4585        99 |   0  44   30    1 260f |    0           0       0       0       8      0      0      0   4494     190       0  44    1260f a70f     30.210 "
test,1583576395040124928,45," | 45  |   4688       5   4641      43 |   5    0      4536       148 |   4  30    0    0 880f |    4.913       0       5       0       5     30     30      0   4451     233       5  30    0880f a70f     11.640 "
test,1583576395036834048,46," | 46  |   4688       5   4620      57 |   5    0      4469       208 |   5  30    0    0 880f |    5.615       0       5       0       5     30     30      0   4388     289       6  30    0880f a70f     11.790 "
test,1583576395055870976,47," | 47  |   4688       5   4627      57 |   4    5      4523       161 |   5  30   44    0 880f |    5.645       0       4       0       4     30     30      0   4443     241       6  30    0880f a70f     30.330 "
test,1583576395055314944,48," | 48  |   4688       5   4562      55 |   5    0      4509       108 |   2  30    0    0 880f |    5.645       0       4       0       4     30     30      0   4426     191       6  30    0880f a70f     30.360 "
test,1583576395032564992,49," | 49  |   4688       5   4678       0 |   5    0      4589        89 |   1  55    0    0 970f |    1.983       0       5       0       5     55     55      0   4553     125       1  55    0970f a70f      8.190 "
test,1583576395034168832,51," | 51  |   4688       5   4679       0 |   5    0      4635        44 |   3   5    0    0 be0f |    2.807       0       5       0       5      5      5      0   4618      61       2   5    0be0f a70f      8.970 "
test,1583576395036104960,52," | 52  |   4688       5   4655      25 |   5    0      4463       217 |   3  30    0    0 880f |    3.448       0       5       0       5     30     30      0   4371     309       3  30    0880f a70f      9.600 "
test,1583576395032783104,53," | 53  |   4688       5   4662       0 |   5    0      4407       255 |   1  55    0    0 970f |    1.983       0       5       0       5     55     55      0   4359     303       1  55    0970f a70f      8.100 "
test,1583576395054925824,54," | 54  |   4688       5   4680       0 |   1    8      4598        82 |   2  55    5    0 970f |    5.706       0       3       0       3     55     55      0   4522     158       6  55    0970f a70f     30.300 "
test,1583576395033591040,55," | 55  |   4688       5   4667       0 |   4    0      4492       175 |   2  55    0    1 970f |    1.739       0       4       0       4     55     55      0   4456     211       2  55    1970f a70f      6.480 "
test,1583576395037942784,56," | 56  |   4688       5   4670       0 |   1    4      4596        74 |   2  55    5    0 970f |    2.716       0       5       0       5     55     55      0   4541     129       2  55    0970f a70f      8.910 "
test,1583576395039049984,57," | 57  |   4688       5   4625       0 |   4    1      4508       117 |   5  30    5    0 880f |    4.180       0       5       0       5     30     30      0   4232     393       4  30    0880f a70f     11.790 "
test,1583576395036361984,58," | 58  |   4688       5   4679       0 |   5    0      4613        66 |   1  55    0    0 970f |    2.014       0       5       0       5     55     55      0   4414     265       1  55    0970f a70f      8.220 "
test,1583576395033000960,5," |  5  |   4688       5   4686       0 |   4    0      4272       414 |   4   5    0    1 be0f |    1.770       0       4       0       4      5      5      0   4193     493       2   5    1be0f a70f      6.510 "
test,1583576395035276032,60," | 60  |   4688       5   4679       0 |   5    0      4386       293 |   4   5    0    0 be0f |    3.509       0       5       0       5      5      5      0   4297     382       3   5    0be0f a70f      9.570 "
test,1583576395055557888,61," | 61  |   4688       5   4678       0 |   4    1      4463       215 |   2  55   30    0 970f |    2.746       0       4       0       4     55     55      0   4307     371       2  55    0970f a70f     30.300 "
test,1583576395034372096,7," |  7  |   4688       5   4685       0 |   5    0      4614        71 |   3   5    0    0 be0f |    2.807       0       5       0       5      5      5      0   4585     100       2   5    0be0f a70f      8.880 "
test,1583576395033291008,9," |  9  |   4688       5   4684       0 |   5    0      4521       163 |   3   5    0    0 be0f |    2.746       0       5       0       5      5      5      0   4501     183       2   5    0be0f a70f      8.820 "
