test,1583576299530205952,10," | 10  |   4306       5   4278       0 |   5    0      4209        69 |   1  13    0    0 9d0f |    2.014       0       5       0       5     13     13      0   4154     124       1  13    09d0f a70f      8.250 "
test,1583576299531769088,12," | 12  |   4306       5   4304       0 |   5    0      4270        34 |   1  13    0    0 9d0f |    1.983       0       5       0       5     13     13      0   4205      99       1  13    09d0f a70f      8.220 "
test,1583576299534152960,13," | 13  |   4306       5   4302       0 |   4    0      4272        30 |   4  13    0    1 9d0f |    1.739       0       4       0       4     13     13      0   4220      82       2  13    19d0f a70f      6.480 "
test,1583576299538270976,15," | 15  |   4306       5   4304       0 |   5    0      4142       162 |   1  13    0    0 9d0f |    2.014       0       5       0       5     13     13      0   3959     345       1  13    09d0f a70f      8.970 "
test,1583576299542195968,16," | 16  |   4306       5   4302       0 |   1    6      4144       158 |   6  45   13    0 c80f |    2.044       0       5       0       5     45     45      0   4029     273       1  45    0c80f a70f     16.710 "
test,1583576299542689024,17," | 17  |   4306       5   4297       5 |   2    2      4251        51 |   2  45   13    0 c80f |   10.711       0       5       0       5     45     45      0   4122     180      13  45    0c80f a70f     16.800 "
test,1583576299537053184,18," | 18  |   4306       5   4301       0 |   3    2      4060       241 |   2  18   48    1 e20f |    1.770       0       4       0       4     18     18      0   3884     417       2  18    1e20f a70f      6.510 "
test,1583576299543809024,19," | 19  |   4306       5   4293       9 |   1    4      4236        66 |   5  45   13    0 c80f |   11.444       0       5       0       5     45     45      0   4110     192      14  45    0c80f a70f     17.520 "
test,1583576299532054784,1," |  1  |   4306       4   4303       0 |   5    0      4200       103 |   1  13    0    0 9d0f |    2.685       0       5       0       5     13     13      0   4169     134       1  13    09d0f a70f      8.820 "
test,1583576299532951040,22," | 22  |   4306       5   4300       0 |   3    6      4264        36 |   1  18   48    0 e20f |    1.983       0       5       0       5     18     18      0   4063     237       1  18    0e20f a70f      8.190 "
test,1583576299533512192,23," | 23  |   4306       5   4244       0 |   5    1      4225        19 |   4  13   45    0 9d0f |    3.448       0       5       0       5     13     13      0   4132     112       3  13    09d0f a70f      9.690 "
test,1583576299531091968,24," | 24  |   4306       5   4300       2 |   2    2      4257        45 |   3  18   48    0 e20f |    2.014       0       5       0       5     18     18      0   4144     158       1  18    0e20f a70f      8.250 "
test,1583576299538705152,26," | 26  |   4306       5   4300       2 |   2    6      4286        16 |   3  45   13    0 c80f |   11.413       0       5       0       5     45     45      0   4206      96      14  45    0c80f a70f     17.460 "
test,1583576299546236160,27," | 27  |   4306       5   4304       0 |   1    3      4182       122 |   5  45   13    0 c80f |   11.444       0       5       0       5     45     45      0   4005     299      14  45    0c80f a70f     17.490 "
test,1583576299551662848,28," | 28  |   4306       5   4297       5 |   0    6      3966       336 |   0  28   35    1  20f |    0           0       0       0       8      0      0      0   3807     495       0  28    1 20f a70f     30.150 "
test,1583576299552891136,29," | 29  |   4306       4   4299       5 |   1    0      3817       487 |   6  45    0    0 c80f |   18.005       0       1       0       1     45     45      0   3620     684      23  45    0c80f a70f     30.360 "
test,1583576299533811968,30," | 30  |   4306       5   4300       2 |   5    0      4246        56 |   1  35    0    0 4d0f |    2.014       0       5       0       5     35     35      0   4091     211       1  35    04d0f a70f      8.220 "
test,1583576299532267008,35," | 35  |   4306       5   4300       2 |   4    0      4098       204 |   2  35    0    1 4d0f |    1.739       0       4       0       4     35     35      0   4007     295       2  35    14d0f a70f      6.510 "
test,1583576299553486080,40," | 40  |   4306       5   4238      60 |   3    4      4036       262 |   1  48   45    0 990f |    2.044       0       4       0       4     48     48      0   3934     364       1  48    0990f a70f     30.390 "
test,1583576299550736896,41," | 41  |   4306       5   4233      59 |   3    8      4256        36 |   1  45   48    0 c80f |    9.948       0       4       0       4     45     45      0   4145     147      12  45    0c80f a70f     30.300 "
test,1583576299536129024,42," | 42  |   4306       5   4241      61 |   5    4      4206        96 |   1  48   45    0 990f |    2.746       0       5       0       5     48     48      0   4105     197       2  48    0990f a70f      8.880 "
test,1583576299540088832,44," | 44  |   4306       5   4245      57 |   3    9      4206        96 |   1  45   48    0 c80f |    4.119       0       5       0       5     45     45      0   4118     184       4  45    0c80f a70f     10.230 "
test,1583576299535904768,45," | 45  |   4306       5   4259      43 |   3    8      4164       138 |   2  45   48    1 c80f |    3.814       0       4       0       4     45     45      0   4082     220       5  45    1c80f a70f      8.520 "
test,1583576299531358976,46," | 46  |   4306       5   4238      57 |   5    2      4102       193 |   1  48   45    0 990f |    2.044       0       5       0       5     48     48      0   4022     273       1  48    0990f a70f      8.100 "
test,1583576299535720192,47," | 47  |   4306       5   4245      57 |   5    4      4156       146 |   1  48   18    0 990f |    1.983       0       5       0       5     48     48      0   4073     229       1  48    0990f a70f      8.070 "
test,1583576299553922048,48," | 48  |   4306       5   4180      55 |   4    4      4133       102 |   5  48   45    1 990f |    1.739       0       3       0       3     48     48      0   4052     183       2  48    1990f a70f     30.300 "
test,1583576299536701952,49," | 49  |   4306       5   4296       0 |   5    0      4213        83 |   3  13    0    0 9d0f |    3.448       0       5       0       5     13     13      0   4178     118       3  13    09d0f a70f      9.630 "
test,1583576299529513984,51," | 51  |   4306       5   4297       0 |   5    0      4258        39 |   1  13    0    0 9d0f |    2.014       0       5       0       5     13     13      0   4240      57       1  13    09d0f a70f      8.220 "
test,1583576299534924032,52," | 52  |   4306       4   4274      24 |   4    0      4093       205 |   5  13    0    0 9d0f |    4.211       0       5       0       5     13     13      0   4007     291       4  13    09d0f a70f     10.230 "
test,1583576299543226880,53," | 53  |   4306       5   4280       0 |   5    0      4058       222 |   4  13    0    0 9d0f |    4.150       0       5       0       5     13     13      0   4011     269       4  13    09d0f a70f     10.350 "
test,1583576299535537920,54," | 54  |   4306       5   4298       0 |   5    0      4222        76 |   1  13    0    0 9d0f |    1.983       0       5       0       5     13     13      0   4155     143       1  13    09d0f a70f      8.940 "
test,1583576299533992960,55," | 55  |   4306       5   4285       0 |   5    0      4123       162 |   3  13    0    0 9d0f |    3.479       0       5       0       5     13     13      0   4088     197       3  13    09d0f a70f      9.630 "
test,1583576299529814016,56," | 56  |   4306       5   4288       0 |   5    0      4221        67 |   2  13    0    0 9d0f |    2.014       0       5       0       5     13     13      0   4171     117       1  13    09d0f a70f      8.130 "
test,1583576299532787200,57," | 57  |   4306       5   4243       0 |   5    1      4136       107 |   3  13   45    0 9d0f |    2.777       0       5       0       5     13     13      0   3883     360       2  13    09d0f a70f      8.910 "
test,1583576299534731008,58," | 58  |   4306       5   4297       0 |   5    0      4236        61 |   2  13    0    0 9d0f |    2.716       0       5       0       5     13     13      0   4050     247       2  13    09d0f a70f      9.630 "
test,1583576299534493952,5," |  5  |   4306       5   4304       0 |   5    0      3926       378 |   1  13    0    0 9d0f |    1.983       0       5       0       5     13     13      0   3851     453       1  13    09d0f a70f      8.190 "
test,1583576299533154048,60," | 60  |   4306       5   4297       0 |   5    0      4029       268 |   2  13    0    0 9d0f |    2.716       0       5       0       5     13     13      0   3952     345       2  13    09d0f a70f      8.910 "
test,1583576299535342848,61," | 61  |   4306       5   4296       0 |   5    0      4104       192 |   2  13    0    0 9d0f |    2.746       0       5       0       5     13     13      0   3962     334       2  13    09d0f a70f     10.410 "
test,1583576299530673920,7," |  7  |   4306       5   4303       0 |   5    0      4235        68 |   1  13    0    0 9d0f |    2.014       0       5       0       5     13     13      0   4210      93       1  13    09d0f a70f      8.250 "
test,1583576299532630016,9," |  9  |   4306       5   4302       0 |   5    0      4149       153 |   1  13    0    0 9d0f |    1.983       0       5       0       5     13     13      0   4130     172       1  13    09d0f a70f      8.250 "
