test,1583576369786619904,10," | 10  |   4587       5   4559       0 |   5    0      4486        73 |   2  12    0    0 3e0f |    2.746       0       5       0       5     12     12      0   4428     131       2  12    03e0f a70f      8.970 "
test,1583576369781416960,12," | 12  |   4587       5   4585       0 |   4    0      4548        37 |   5  12    0    1 3e0f |    1.739       0       4       0       4     12     12      0   4478     107       2  12    13e0f a70f      6.480 "
test,1583576369786835968,13," | 13  |   4587       5   4583       0 |   5    0      4550        33 |   2  12    0    0 3e0f |    2.777       0       5       0       5     12     12      0   4494      89       2  12    03e0f a70f      9.000 "
test,1583576369783392000,15," | 15  |   4587       5   4585       0 |   5    0      4413       172 |   1  12    0    0 3e0f |    2.044       0       5       0       5     12     12      0   4220     365       1  12    03e0f a70f      8.250 "
test,1583576369787216896,16," | 16  |   4587       5   4583       0 |   1    8      4418       165 |   2  27   24    0 160f |    4.211       0       5       0       5     27     27      0   4297     286       4  27    0160f a70f     11.880 "
test,1583576369794283008,17," | 17  |   4587       4   4578       5 |   3    4      4528        55 |   1  27   24    0 160f |   10.803       0       5       0       5     27     27      0   4395     188      13  27    0160f a70f     16.710 "
test,1583576369790194944,18," | 18  |   4587       5   4582       0 |   5    0      4319       263 |   1  24    0    0 5d0f |    2.075       0       5       0       5     24     24      0   4134     448       1  24    05d0f a70f      8.280 "
test,1583576369793127936,19," | 19  |   4587       5   4574       9 |   2    3      4510        73 |   1  27   24    0 160f |   10.040       0       5       0       5     27     27      0   4377     206      12  27    0160f a70f     16.050 "
test,1583576369783142144,1," |  1  |   4587       4   4584       0 |   5    0      4471       113 |   1  12    0    0 3e0f |    2.716       0       5       0       5     12     12      0   4438     146       1  12    03e0f a70f      8.970 "
test,1583576369788315904,22," | 22  |   4587       5   4581       0 |   5    0      4544        37 |   6  24    0    0 5d0f |    2.044       0       5       0       5     24     24      0   4331     250       1  24    05d0f a70f      8.160 "
test,1583576369787983872,23," | 23  |   4587       5   4525       0 |   3    8      4506        19 |   1  27   24    0 160f |    1.983       0       5       0       5     27     27      0   4411     114       1  27    0160f a70f      8.130 "
test,1583576369786010112,24," | 24  |   4587       5   4581       2 |   4    0      4536        47 |   5  24    0    1 5d0f |    1.739       0       4       0       4     24     24      0   4418     165       2  24    15d0f a70f      6.510 "
test,1583576369782426112,26," | 26  |   4587       5   4581       2 |   5    0      4566        17 |   4  24    0    0 5d0f |    2.075       0       5       0       5     24     24      0   4484      99       1  24    05d0f a70f      8.160 "
test,1583576369784787968,27," | 27  |   4587       5   4585       0 |   4    0      4460       125 |   4  27    0    1 160f |    1.739       0       4       0       4     27     27      0   4268     317       2  27    1160f a70f      7.920 "
test,1583576369803590912,28," | 28  |   4587       5   4578       5 |   0    7      4225       358 |   0  28   24    1 910f |    0           0       0       0       8      0      0      0   4051     532       0  28    1910f a70f     30.180 "
test,1583576369789910016,29," | 29  |   4587       4   4580       5 |   5    0      4053       532 |   1  27    0    0 160f |    2.014       0       5       0       5     27     27      0   3845     740       1  27    0160f a70f     12.390 "
test,1583576369786225152,30," | 30  |   4587       5   4581       2 |   5    0      4518        65 |   5  24    0    0 5d0f |    2.807       0       5       0       5     24     24      0   4356     227       2  24    05d0f a70f      9.690 "
test,1583576369783670784,35," | 35  |   4587       5   4581       2 |   5    0      4365       218 |   6  24    0    0 5d0f |    2.746       0       5       0       5     24     24      0   4269     314       2  24    05d0f a70f      8.940 "
test,1583576369791584000,40," | 40  |   4587       5   4514      65 |   5    0      4292       287 |   1  24    0    0 5d0f |    3.448       0       5       0       5     24     24      0   4182     397       3  24    05d0f a70f     10.350 "
test,1583576369806711808,41," | 41  |   4587       5   4514      59 |   1   13      4537        36 |   2  27   46    0 160f |   15.930       0       1       0       1     27     27      0   4421     152      20  27    0160f a70f     30.390 "
test,1583576369791915008,42," | 42  |   4587       5   4522      61 |   5    0      4483       100 |   1  24    0    0 5d0f |    2.777       0       5       0       5     24     24      0   4380     203       2  24    05d0f a70f     10.440 "
test,1583576369784950016,44," | 44  |   4587       5   4526      57 |   5    0      4486        97 |   1  24    0    0 5d0f |    2.746       0       5       0       5     24     24      0   4396     187       2  24    05d0f a70f      8.940 "
test,1583576369789246208,45," | 45  |   4587       5   4540      43 |   5    0      4437       146 |   2  24    0    0 5d0f |    3.479       0       5       0       5     24     24      0   4352     231       3  24    05d0f a70f      9.660 "
test,1583576369802507008,46," | 46  |   4587       5   4519      57 |   0    7      4372       204 |   0  46   24    1 6d0f |    0           0       0       0       8      0      0      0   4290     286       0  46    16d0f a70f     30.210 "
test,1583576369785350144,47," | 47  |   4587       5   4526      57 |   5    0      4431       152 |   2  24    0    0 5d0f |    2.777       0       5       0       5     24     24      0   4349     234       2  24    05d0f a70f      9.690 "
test,1583576369790398976,48," | 48  |   4587       5   4461      55 |   5    0      4411       105 |   2  24    0    0 5d0f |    2.807       0       5       0       5     24     24      0   4329     187       2  24    05d0f a70f      9.660 "
test,1583576369781251072,49," | 49  |   4587       5   4577       0 |   4    0      4490        87 |   2  49    0    1 650f |    1.739       0       4       0       4     49     49      0   4454     123       2  49    1650f a70f      6.480 "
test,1583576369803293952,51," | 51  |   4587       5   4578       0 |   4   11      4536        42 |   5  51   24    1 cb0f |    1.739       0       2       0       2     51     51      0   4518      60       2  51    1cb0f a70f     30.300 "
test,1583576369804646912,52," | 52  |   4587       5   4554      25 |   5    0      4366       213 |   5  24    0    0 5d0f |    2.044       0       4       0       4     24     24      0   4278     301       1  24    05d0f a70f     30.270 "
test,1583576369784197120,53," | 53  |   4587       5   4561       0 |   5    0      4314       247 |   1  49    0    0 650f |    1.983       0       5       0       5     49     49      0   4266     295       1  49    0650f a70f      8.220 "
test,1583576369782860032,54," | 54  |   4587       5   4579       0 |   4    2      4497        82 |   1  12   24    0 3e0f |    2.075       0       5       0       5     12     12      0   4424     155       1  12    03e0f a70f      8.970 "
test,1583576369784424192,55," | 55  |   4587       5   4566       0 |   5    0      4394       172 |   1  49    0    0 650f |    1.983       0       5       0       5     49     49      0   4357     209       1  49    0650f a70f      8.190 "
test,1583576369802042880,56," | 56  |   4587       5   4569       0 |   5    9      4495        74 |   1  51   24    0 cb0f |    2.044       0       3       0       3     51     51      0   4443     126       1  51    0cb0f a70f     30.360 "
test,1583576369803059200,57," | 57  |   4587       4   4524       0 |   2    7      4409       115 |  13  24   51    0 5d0f |    0           0       0       0       8      0      0      0   4137     387       0  24    05d0f a70f     30.360 "
test,1583576369785772032,58," | 58  |   4587       5   4578       0 |   5    0      4514        64 |   1  49    0    0 650f |    2.044       0       5       0       5     49     49      0   4318     260       1  49    0650f a70f      8.880 "
test,1583576369789619968,5," |  5  |   4587       4   4585       0 |   5    0      4181       404 |   1  12    0    0 3e0f |    2.075       0       5       0       5     12     12      0   4103     482       1  12    03e0f a70f      9.570 "
test,1583576369805125888,60," | 60  |   4587       5   4578       0 |   5    4      4290       288 |   1  51   24    0 cb0f |    2.075       0       3       0       3     51     51      0   4204     374       1  51    0cb0f a70f     30.330 "
test,1583576369805614080,61," | 61  |   4587       5   4577       0 |   5    0      4369       208 |   2  49    0    0 650f |    4.241       0       4       0       4     49     49      0   4217     360       4  49    0650f a70f     30.330 "
test,1583576369782618112,7," |  7  |   4587       5   4584       0 |   5    0      4515        69 |   1  12    0    0 3e0f |    2.075       0       5       0       5     12     12      0   4485      99       1  12    03e0f a70f      9.030 "
test,1583576369785118208,9," |  9  |   4587       5   4583       0 |   5    0      4423       160 |   1  12    0    0 3e0f |    2.044       0       5       0       5     12     12      0   4403     180       1  12    03e0f a70f      8.850 "
