test,1583575332517398016,10," | 10  |    438       5    410       0 |   5    0       403         7 |   1   9    0    0 660f |    2.044       0       5       0       5      9      9      0    398      12       1   9    0660f a70f      8.280 "
test,1583575332510793984,12," | 12  |    438       5    436       0 |   5    0       431         5 |   1   9    0    0 660f |    2.044       0       5       0       5      9      9      0    423      13       1   9    0660f a70f      8.250 "
test,1583575332510991104,13," | 13  |    438       5    434       0 |   5    0       427         7 |   1   9    0    0 660f |    2.044       0       5       0       5      9      9      0    421      13       1   9    0660f a70f      8.880 "
test,1583575332512327936,15," | 15  |    438       5    436       0 |   5    0       420        16 |   2   9    0    0 660f |    2.746       0       5       0       5      9      9      0    402      34       2   9    0660f a70f      8.820 "
test,1583575332514141952,16," | 16  |    438       5    434       0 |   5    0       418        16 |   1  23    0    0 6e0f |    2.014       0       5       0       5     23     23      0    413      21       1  23    06e0f a70f      8.820 "
test,1583575332522454016,17," | 17  |    438       5    434       0 |   5    0       427         7 |   1  23    0    0 6e0f |    1.983       0       5       0       5     23     23      0    413      21       1  23    06e0f a70f      8.190 "
test,1583575332528337920,18," | 18  |    438       5    433       0 |   5    5       404        29 |   1  42   23    0  c0f |    0           0       0       0       8      0      0      0    387      46       0  42    0 c0f a70f     30.360 "
test,1583575332531089152,19," | 19  |    438       5    433       1 |   5    0       429         5 |   1  23    0    0 6e0f |    2.014       0       4       0       4     23     23      0    416      18       1  23    06e0f a70f     30.180 "
test,1583575332509143040,1," |  1  |    438       4    435       0 |   5    0       427         8 |   1   9    0    0 660f |    2.716       0       5       0       5      9      9      0    423      12       1   9    0660f a70f      8.850 "
test,1583575332516817920,22," | 22  |    438       5    432       0 |   5    0       427         5 |   3  23    0    0 6e0f |    2.014       0       5       0       5     23     23      0    410      22       1  23    06e0f a70f      8.220 "
test,1583575332512124928,23," | 23  |    438       5    376       0 |   5    0       374         2 |   2  23    0    1 6e0f |    1.739       0       4       0       4     23     23      0    372       4       2  23    16e0f a70f      7.920 "
test,1583575332511950080,24," | 24  |    438       5    434       0 |   5    0       430         4 |   3  23    0    0 6e0f |    2.746       0       5       0       5     23     23      0    424      10       2  23    06e0f a70f      8.790 "
test,1583575332512648192,26," | 26  |    438       5    434       0 |   5    0       431         3 |   1  23    0    0 6e0f |    2.014       0       5       0       5     23     23      0    425       9       1  23    06e0f a70f      8.250 "
test,1583575332510620160,27," | 27  |    438       5    436       0 |   5    0       424        12 |   2  23    0    0 6e0f |    2.044       0       5       0       5     23     23      0    406      30       1  23    06e0f a70f      8.970 "
test,1583575332511320064,28," | 28  |    438       5    434       0 |   5    4       401        33 |   1  30   23    0 780f |    2.075       0       5       0       5     30     30      0    389      45       1  30    0780f a70f      8.250 "
test,1583575332532818176,29," | 29  |    438       4    434       2 |   5    0       388        48 |   2  23    0    0 6e0f |    2.777       0       3       0       3     23     23      0    363      73       2  23    06e0f a70f     30.240 "
test,1583575332509670912,30," | 30  |    438       5    434       0 |   4    2       431         3 |   8  30   23    1 780f |    1.739       0       4       0       4     30     30      0    421      13       2  30    1780f a70f      6.510 "
test,1583575332513720064,35," | 35  |    438       5    434       0 |   5    5       417        17 |   1  30   23    0 780f |    1.983       0       5       0       5     30     30      0    413      21       1  30    0780f a70f      8.220 "
test,1583575332532495872,40," | 40  |    438       4    422       8 |   5    4       393        37 |   2  42   23    0  c0f |    2.777       0       2       0       2     42     42      0    380      50       2  42    0 c0f a70f     30.300 "
test,1583575332529861888,41," | 41  |    438       5    415       9 |   5    2       420         4 |   1  42   23    0  c0f |    2.014       0       3       0       3     42     42      0    412      12       1  42    0 c0f a70f     30.360 "
test,1583575332530391040,42," | 42  |    438       5    424      10 |   4    4       419        15 |   8  42   23    1  c0f |    1.739       0       2       0       2     42     42      0    409      25       2  42    1 c0f a70f     30.300 "
test,1583575332530770176,44," | 44  |    438       5    425       9 |   5    3       426         8 |   1  42   23    0  c0f |    2.014       0       3       0       3     42     42      0    416      18       1  42    0 c0f a70f     30.360 "
test,1583575332529216000,45," | 45  |    438       5    427       7 |   5    1       410        24 |   1  42   23    0  c0f |    2.044       0       3       0       3     42     42      0    403      31       1  42    0 c0f a70f     30.390 "
test,1583575332532133120,46," | 46  |    438       5    418       9 |   5    0       415        12 |   1  42    0    0  c0f |    2.044       0       3       0       3     42     42      0    406      21       1  42    0 c0f a70f     30.300 "
test,1583575332531895040,47," | 47  |    438       5    425       9 |   5    0       420        14 |   1  42    0    0  c0f |    1.983       0       3       0       3     42     42      0    415      19       1  42    0 c0f a70f     30.360 "
test,1583575332531261952,48," | 48  |    438       5    360       7 |   5    5       356        11 |   1  42   23    0  c0f |    2.014       0       3       0       3     42     42      0    345      22       1  42    0 c0f a70f     30.390 "
test,1583575332510274816,49," | 49  |    438       5    428       0 |   5    0       422         6 |   1  55    0    0 a40f |    1.983       0       5       0       5     55     55      0    420       8       1  55    0a40f a70f      8.220 "
test,1583575332510070016,51," | 51  |    438       5    429       0 |   5    0       425         4 |   2   9    0    0 660f |    2.807       0       5       0       5      9      9      0    425       4       2   9    0660f a70f      8.880 "
test,1583575332512468224,52," | 52  |    438       5    426       4 |   5    0       408        22 |   1  23    0    0 6e0f |    2.014       0       5       0       5     23     23      0    400      30       1  23    06e0f a70f      8.250 "
test,1583575332515822848,53," | 53  |    438       5    412       0 |   5    0       392        20 |   1  55    0    0 a40f |    2.014       0       5       0       5     55     55      0    391      21       1  55    0a40f a70f      8.220 "
test,1583575332508956928,54," | 54  |    438       5    430       0 |   4    1       427         3 |   1   9   55    0 660f |    2.014       0       5       0       5      9      9      0    416      14       1   9    0660f a70f      8.250 "
test,1583575332508610048,55," | 55  |    438       5    417       0 |   4    0       399        18 |   4  55    0    1 a40f |    1.739       0       4       0       4     55     55      0    399      18       2  55    1a40f a70f      6.480 "
test,1583575332515261952,56," | 56  |    438       5    420       0 |   4    0       409        11 |   5   9    0    0 660f |    3.479       0       5       0       5      9      9      0    406      14       3   9    0660f a70f      9.600 "
test,1583575332511706112,57," | 57  |    438       5    375       0 |   5    0       359        16 |   1  23    0    0 6e0f |    2.044       0       5       0       5     23     23      0    339      36       1  23    06e0f a70f      9.690 "
test,1583575332516248832,58," | 58  |    438       4    429       0 |   5    0       424         5 |   1  55    0    0 a40f |    2.044       0       5       0       5     55     55      0    416      13       1  55    0a40f a70f      8.190 "
test,1583575332513409024,5," |  5  |    438       5    436       0 |   5    0       396        40 |   2   9    0    0 660f |    2.777       0       5       0       5      9      9      0    385      51       2   9    0660f a70f      9.000 "
test,1583575332511510016,60," | 60  |    438       5    429       0 |   3    0       406        23 |   7   9    0    0 660f |    3.509       0       5       0       5      9      9      0    404      25       3   9    0660f a70f      9.690 "
test,1583575332513054976,61," | 61  |    438       5    428       0 |   5    0       415        13 |   2  55    0    0 a40f |    2.746       0       5       0       5     55     55      0    403      25       2  55    0a40f a70f      8.940 "
test,1583575332509851904,7," |  7  |    438       5    435       0 |   5    0       427         8 |   1   9    0    0 660f |    2.014       0       5       0       5      9      9      0    427       8       1   9    0660f a70f      8.190 "
test,1583575332508416000,9," |  9  |    438       5    434       0 |   4    0       413        21 |   4   9    0    1 660f |    1.770       0       4       0       4      9      9      0    411      23       2   9    1660f a70f      6.510 "
