test,1583576287027089152,10," | 10  |   4256       5   4228       0 |   5    0      4160        68 |   1  13    0    0 510f |    2.014       0       5       0       5     13     13      0   4105     123       1  13    0510f a70f      8.130 "
test,1583576287029641984,12," | 12  |   4256       5   4254       0 |   5    0      4220        34 |   1  13    0    0 510f |    2.075       0       5       0       5     13     13      0   4155      99       1  13    0510f a70f      8.310 "
test,1583576287029211136,13," | 13  |   4256       5   4252       0 |   5    0      4222        30 |   2  13    0    1 510f |    1.770       0       4       0       4     13     13      0   4171      81       2  13    1510f a70f      6.510 "
test,1583576287037808896,15," | 15  |   4256       5   4254       0 |   5    0      4094       160 |   2  13    0    0 510f |    2.716       0       5       0       5     13     13      0   3914     340       2  13    0510f a70f      8.790 "
test,1583576287037281024,16," | 16  |   4256       5   4252       0 |   5    1      4098       154 |   1  23   22    0 9a0f |    2.044       0       5       0       5     23     23      0   3986     266       1  23    09a0f a70f      8.760 "
test,1583576287050978048,17," | 17  |   4256       5   4247       5 |   5    1      4202        50 |   1  23   22    0 9a0f |    2.044       0       2       0       2     23     23      0   4075     177       1  23    09a0f a70f     30.330 "
test,1583576287030332928,18," | 18  |   4256       5   4251       0 |   5    0      4016       235 |   1  22    0    0 1d0f |    2.044       0       5       0       5     22     22      0   3842     409       1  22    01d0f a70f      8.100 "
test,1583576287051700224,19," | 19  |   4256       5   4243       9 |   5    1      4186        66 |   1  23   22    0 9a0f |    2.014       0       4       0       4     23     23      0   4062     190       1  23    09a0f a70f     30.330 "
test,1583576287032860160,1," |  1  |   4256       4   4253       0 |   5    0      4152       101 |   1  13    0    0 510f |    2.716       0       5       0       5     13     13      0   4121     132       1  13    0510f a70f      8.940 "
test,1583576287030067968,22," | 22  |   4256       5   4250       0 |   4    0      4214        36 |   5  22    0    1 1d0f |    1.770       0       4       0       4     22     22      0   4016     234       2  22    11d0f a70f      6.510 "
test,1583576287038319104,23," | 23  |   4256       5   4194       0 |   4    0      4175        19 |  11  23    0    1 9a0f |    3.814       0       4       0       4     23     23      0   4085     109       5  23    19a0f a70f      8.520 "
test,1583576287029881856,24," | 24  |   4256       5   4250       2 |   5    0      4208        44 |   3  22    0    0 1d0f |    2.044       0       5       0       5     22     22      0   4098     154       1  22    01d0f a70f      8.280 "
test,1583576287029444096,26," | 26  |   4256       5   4250       2 |   5    0      4236        16 |   4  22    0    0 1d0f |    2.044       0       5       0       5     22     22      0   4157      95       1  22    01d0f a70f      8.280 "
test,1583576287039207936,27," | 27  |   4256       5   4254       0 |   5    0      4133       121 |   1  23    0    0 9a0f |    2.044       0       5       0       5     23     23      0   3958     296       1  23    09a0f a70f      8.850 "
test,1583576287033996032,28," | 28  |   4256       5   4247       5 |   5    0      3920       332 |   2  22    0    0 1d0f |    2.807       0       5       0       5     22     22      0   3762     490       2  22    01d0f a70f      9.570 "
test,1583576287054219008,29," | 29  |   4256       3   4249       5 |   4    0      3773       481 |   2  23    0    0 9a0f |    2.777       0       4       0       4     23     23      0   3578     676       2  23    09a0f a70f     30.330 "
test,1583576287031265024,30," | 30  |   4256       5   4250       2 |   5    0      4196        56 |   1  22    0    0 1d0f |    2.044       0       5       0       5     22     22      0   4042     210       1  22    01d0f a70f      8.160 "
test,1583576287033623808,35," | 35  |   4256       5   4250       2 |   5    0      4049       203 |   1  22    0    0 1d0f |    2.777       0       5       0       5     22     22      0   3959     293       2  22    01d0f a70f      8.910 "
test,1583576287033451008,40," | 40  |   4256       5   4188      60 |   5    0      3990       258 |   2  22    0    0 1d0f |    2.777       0       5       0       5     22     22      0   3887     361       2  22    01d0f a70f      9.000 "
test,1583576287033249024,41," | 41  |   4256       5   4183      59 |   5    0      4206        36 |   3  22    0    0 1d0f |    2.807       0       5       0       5     22     22      0   4095     147       2  22    01d0f a70f      9.690 "
test,1583576287032133120,42," | 42  |   4256       5   4191      61 |   5    0      4157        95 |   1  22    0    0 1d0f |    2.044       0       5       0       5     22     22      0   4056     196       1  22    01d0f a70f      9.720 "
test,1583576287035130112,44," | 44  |   4256       5   4195      57 |   5    0      4157        95 |   2  22    0    0 1d0f |    2.777       0       5       0       5     22     22      0   4070     182       2  22    01d0f a70f      9.600 "
test,1583576287034635008,45," | 45  |   4256       5   4209      43 |   5    0      4114       138 |   3  22    0    0 1d0f |    2.777       0       5       0       5     22     22      0   4033     219       2  22    01d0f a70f     10.320 "
test,1583576287035993088,46," | 46  |   4256       5   4188      57 |   5    0      4054       191 |   2  22    0    0 1d0f |    2.777       0       5       0       5     22     22      0   3974     271       2  22    01d0f a70f      8.970 "
test,1583576287033829888,47," | 47  |   4256       5   4195      57 |   5    0      4106       146 |   2  22    0    0 1d0f |    2.807       0       5       0       5     22     22      0   4024     228       2  22    01d0f a70f      8.970 "
test,1583576287032443904,48," | 48  |   4256       5   4130      55 |   5    0      4084       101 |   1  22    0    0 1d0f |    2.075       0       5       0       5     22     22      0   4004     181       1  22    01d0f a70f      8.310 "
test,1583576287031059968,49," | 49  |   4256       5   4246       0 |   5    0      4165        81 |   1  53    0    0 b50f |    2.075       0       5       0       5     53     53      0   4130     116       1  53    0b50f a70f      8.280 "
test,1583576287038845184,51," | 51  |   4256       5   4247       0 |   5    0      4208        39 |   1  13    0    0 510f |    2.044       0       5       0       5     13     13      0   4190      57       1  13    0510f a70f      8.280 "
test,1583576287053172992,52," | 52  |   4256       4   4224      24 |   5    6      4043       205 |   1  23   22    0 9a0f |    2.014       0       4       0       4     23     23      0   3959     289       1  23    09a0f a70f     30.360 "
test,1583576287031593984,53," | 53  |   4256       5   4230       0 |   4    0      4009       221 |   2  53    0    1 b50f |    1.770       0       4       0       4     53     53      0   3962     268       2  53    1b50f a70f      6.480 "
test,1583576287035320064,54," | 54  |   4256       5   4248       0 |   5    0      4172        76 |   1  13    0    0 510f |    2.044       0       5       0       5     13     13      0   4105     143       1  13    0510f a70f      8.970 "
test,1583576287049457152,55," | 55  |   4256       5   4235       0 |   0    9      4076       159 |   0  55   13    1 180f |    0           0       0       0       8      0      0      0   4041     194       0  55    1180f a70f     30.180 "
test,1583576287036217088,56," | 56  |   4256       5   4238       0 |   5    0      4171        67 |   2  13    0    0 510f |    2.014       0       5       0       5     13     13      0   4122     116       1  13    0510f a70f      8.940 "
test,1583576287034127104,57," | 57  |   4256       5   4193       0 |   3    2      4086       107 |   1  23   13    0 9a0f |    2.014       0       5       0       5     23     23      0   3839     354       1  23    09a0f a70f     10.260 "
test,1583576287053345792,58," | 58  |   4256       5   4247       0 |   5    0      4187        60 |   4  13    0    0 510f |    4.943       0       3       0       3     13     13      0   4003     244       5  13    0510f a70f     30.390 "
test,1583576287030825984,5," |  5  |   4256       5   4254       0 |   5    0      3880       374 |   1  13    0    0 510f |    2.044       0       5       0       5     13     13      0   3807     447       1  13    0510f a70f      8.280 "
test,1583576287041474048,60," | 60  |   4256       5   4247       0 |   4    1      3982       265 |   4  13   23    0 510f |    2.777       0       5       0       5     13     13      0   3905     342       2  13    0510f a70f      9.000 "
test,1583576287052592896,61," | 61  |   4256       5   4246       0 |   5    0      4055       191 |   3  13    0    0 510f |    4.241       0       4       0       4     13     13      0   3914     332       4  13    0510f a70f     30.330 "
test,1583576287030523904,7," |  7  |   4256       5   4253       0 |   5    0      4187        66 |   1  13    0    0 510f |    2.014       0       5       0       5     13     13      0   4162      91       1  13    0510f a70f      8.130 "
test,1583576287033051904,9," |  9  |   4256       5   4252       0 |   5    0      4100       152 |   1  13    0    0 510f |    2.044       0       5       0       5     13     13      0   4081     171       1  13    0510f a70f      8.130 "
