test,1583576282298629120,10," | 10  |   4237       5   4209       0 |   1    8      4141        68 |   1  56   58    0 cb0f |    8.605       0       5       0       5     56     56      0   4086     123      10  56    0cb0f a70f     15.240 "
test,1583576282279870976,12," | 12  |   4237       5   4235       0 |   5    0      4201        34 |   1   1    0    0 3a0f |    1.312       0       5       0       5      1      1      0   4137      98       1   1    03a0f a70f      7.560 "
test,1583576282290777088,13," | 13  |   4237       5   4233       0 |   1   10      4203        30 |   1  56    1    0 cb0f |    8.605       0       5       0       5     56     56      0   4152      81      10  56    0cb0f a70f     14.670 "
test,1583576282300576000,15," | 15  |   4237       5   4235       0 |   1    5      4075       160 |   1  20   27    0 e70f |    0           0       0       0       8      0      0      0   3895     340       0  20    0e70f a70f     30.390 "
test,1583576282282802944,16," | 16  |   4237       5   4233       0 |   5    0      4079       154 |   3  56    0    0 cb0f |    3.448       0       5       0       5     56     56      0   3967     266       3  56    0cb0f a70f      9.630 "
test,1583576282284115968,17," | 17  |   4237       5   4228       5 |   5    0      4183        50 |   6  56    0    0 cb0f |    4.913       0       5       0       5     56     56      0   4056     177       5  56    0cb0f a70f     12.510 "
test,1583576282284424192,18," | 18  |   4237       5   4232       0 |   2    5      3998       234 |   2  20   56    0 e70f |    2.838       0       5       0       5     20     20      0   3824     408       2  20    0e70f a70f      8.940 "
test,1583576282302059008,19," | 19  |   4237       5   4224       9 |   3    8      4167        66 |   1  27   56    0 310f |    2.014       0       3       0       3     27     27      0   4043     190       1  27    0310f a70f     30.390 "
test,1583576282279130880,1," |  1  |   4237       4   4234       0 |   4    0      4133       101 |   2   1    0    1 3a0f |    1.739       0       4       0       4      1      1      0   4102     132       2   1    13a0f a70f      6.480 "
test,1583576282281426944,22," | 22  |   4237       5   4231       0 |   2    5      4196        35 |   1  20   56    0 e70f |    2.777       0       5       0       5     20     20      0   3998     233       2  20    0e70f a70f      8.970 "
test,1583576282294578944,23," | 23  |   4237       5   4175       0 |   5    0      4156        19 |   2  56    0    0 cb0f |    2.746       0       5       0       5     56     56      0   4066     109       2  56    0cb0f a70f      8.910 "
test,1583576282282371072,24," | 24  |   4237       5   4231       2 |   1    7      4189        44 |   2  20   27    0 e70f |    2.105       0       5       0       5     20     20      0   4080     153       1  20    0e70f a70f      8.190 "
test,1583576282300051968,26," | 26  |   4237       5   4231       2 |   5    0      4217        16 |   5  56    0    0 cb0f |   10.040       0       3       0       3     56     56      0   4138      95      12  56    0cb0f a70f     30.270 "
test,1583576282304442880,27," | 27  |   4237       5   4235       0 |   1    5      4114       121 |   5  27   56    1 310f |   16.723       0       2       0       2     27     27      0   3940     295      23  27    1310f a70f     30.150 "
test,1583576282282219776,28," | 28  |   4237       5   4228       5 |   5    0      3901       332 |   2  20    0    0 e70f |    2.838       0       5       0       5     20     20      0   3743     490       2  20    0e70f a70f      8.940 "
test,1583576282288664064,29," | 29  |   4237       5   4230       5 |   3    0      3756       479 |   1  27    0    0 310f |    1.983       0       5       0       5     27     27      0   3562     673       1  27    0310f a70f     10.770 "
test,1583576282282552832,30," | 30  |   4237       5   4231       2 |   5    0      4178        55 |   1  20    0    0 e70f |    2.105       0       5       0       5     20     20      0   4023     210       1  20    0e70f a70f      8.310 "
test,1583576282281622016,35," | 35  |   4237       5   4231       2 |   5    0      4030       203 |   2  20    0    0 e70f |    2.777       0       5       0       5     20     20      0   3940     293       2  20    0e70f a70f      8.970 "
test,1583576282283899136,40," | 40  |   4237       5   4169      60 |   5    0      3972       257 |   3  20    0    0 e70f |    2.777       0       5       0       5     20     20      0   3869     360       2  20    0e70f a70f      8.910 "
test,1583576282287374848,41," | 41  |   4237       5   4164      59 |   3    1      4187        36 |   3  20   56    0 e70f |    3.570       0       5       0       5     20     20      0   4076     147       3  20    0e70f a70f      9.690 "
test,1583576282286119936,42," | 42  |   4237       5   4172      61 |   5    0      4138        95 |   2  20    0    0 e70f |    2.807       0       5       0       5     20     20      0   4037     196       2  20    0e70f a70f      9.030 "
test,1583576282287956992,44," | 44  |   4237       5   4176      57 |   5    0      4139        94 |   3  20    0    0 e70f |    2.807       0       5       0       5     20     20      0   4053     180       2  20    0e70f a70f      9.720 "
test,1583576282289051136,45," | 45  |   4237       5   4190      43 |   5    0      4095       138 |   3  20    0    0 e70f |    3.540       0       5       0       5     20     20      0   4014     219       3  20    0e70f a70f      9.630 "
test,1583576282288248064,46," | 46  |   4237       5   4169      57 |   5    0      4035       191 |   3  20    0    0 e70f |    3.540       0       5       0       5     20     20      0   3955     271       3  20    0e70f a70f     10.440 "
test,1583576282287022080,47," | 47  |   4237       5   4176      57 |   5    0      4087       146 |   3  20    0    0 e70f |    3.540       0       5       0       5     20     20      0   4005     228       3  20    0e70f a70f      9.780 "
test,1583576282303108096,48," | 48  |   4237       5   4111      55 |   5    0      4065       101 |   2  20    0    0 e70f |    3.570       0       4       0       4     20     20      0   3986     180       3  20    0e70f a70f     30.210 "
test,1583576282283424000,49," | 49  |   4237       5   4227       0 |   5    0      4147        80 |   1  58    0    0 e80f |    2.014       0       5       0       5     58     58      0   4112     115       1  58    0e80f a70f      8.070 "
test,1583576282280322048,51," | 51  |   4237       5   4228       0 |   5    0      4189        39 |   1  56    0    0 cb0f |    1.983       0       5       0       5     56     56      0   4171      57       1  56    0cb0f a70f      8.190 "
test,1583576282284962816,52," | 52  |   4237       5   4205      24 |   5    0      4025       204 |   3  56    0    0 cb0f |    3.479       0       5       0       5     56     56      0   3941     288       3  56    0cb0f a70f      9.660 "
test,1583576282285623040,53," | 53  |   4237       5   4211       0 |   5    0      3990       221 |   2  58    0    0 e80f |    2.746       0       5       0       5     58     58      0   3943     268       2  58    0e80f a70f      8.910 "
test,1583576282281156096,54," | 54  |   4237       5   4229       0 |   5    0      4153        76 |   2   1    0    0 3a0f |    1.312       0       5       0       5      1      1      0   4086     143       1   1    03a0f a70f      7.530 "
test,1583576282280128000,55," | 55  |   4237       5   4216       0 |   5    0      4058       158 |   1  58    0    0 e80f |    2.014       0       5       0       5     58     58      0   4023     193       1  58    0e80f a70f      8.160 "
test,1583576282278873088,56," | 56  |   4237       5   4219       0 |   3    5      4152        67 |   5  56   58    1 cb0f |    1.739       0       4       0       4     56     56      0   4104     115       2  56    1cb0f a70f      6.480 "
test,1583576282294369024,57," | 57  |   4237       5   4174       0 |   5    0      4067       107 |   1  56    0    0 cb0f |    1.983       0       5       0       5     56     56      0   3820     354       1  56    0cb0f a70f     13.770 "
test,1583576282282000128,58," | 58  |   4237       5   4228       0 |   1    0      4168        60 |  11  58    0    1 e80f |    1.739       0       4       0       4     58     58      0   3985     243       2  58    1e80f a70f      6.480 "
test,1583576282302865920,5," |  5  |   4237       5   4235       0 |   1    3      3863       372 |   2  56    1    0 cb0f |    9.338       0       4       0       4     56     56      0   3791     444      11  56    0cb0f a70f     30.330 "
test,1583576282296585984,60," | 60  |   4237       5   4228       0 |   5    0      3963       265 |   2  56    0    0 cb0f |    2.746       0       5       0       5     56     56      0   3887     341       2  56    0cb0f a70f      8.970 "
test,1583576282283036928,61," | 61  |   4237       5   4227       0 |   3    2      4037       190 |   4  58    1    0 e80f |    1.983       0       5       0       5     58     58      0   3897     330       1  58    0e80f a70f      8.250 "
test,1583576282280553216,7," |  7  |   4237       5   4234       0 |   5    0      4169        65 |   1   1    0    0 3a0f |    1.342       0       5       0       5      1      1      0   4144      90       1   1    03a0f a70f      7.500 "
test,1583576282279401984,9," |  9  |   4237       5   4233       0 |   5    0      4081       152 |   1   1    0    0 3a0f |    1.342       0       5       0       5      1      1      0   4062     171       1   1    03a0f a70f      7.590 "
