test,1583576298281788160,10," | 10  |   4301       5   4273       0 |   5    0      4204        69 |   1  56    0    0 740f |    2.044       0       5       0       5     56     56      0   4149     124       1  56    0740f a70f      9.000 "
test,1583576298301363968,12," | 12  |   4301       5   4299       0 |   5    8      4265        34 |   1   5   56    0 b00f |    1.983       0       1       0       1      5      5      0   4200      99       1   5    0b00f a70f     30.390 "
test,1583576298283809024,13," | 13  |   4301       5   4297       0 |   5    0      4267        30 |   2  56    0    0 740f |    2.777       0       5       0       5     56     56      0   4215      82       2  56    0740f a70f      8.910 "
test,1583576298302418944,15," | 15  |   4301       5   4299       0 |   4    0      4137       162 |   2   5    0    0 b00f |    2.716       0       1       0       1      5      5      0   3954     345       2   5    0b00f a70f     30.390 "
test,1583576298285382912,16," | 16  |   4301       5   4297       0 |   5    0      4139       158 |   1  41    0    0 e90f |    2.044       0       5       0       5     41     41      0   4024     273       1  41    0e90f a70f      8.160 "
test,1583576298281990144,17," | 17  |   4301       5   4292       5 |   5    0      4247        50 |   1  41    0    0 e90f |    2.014       0       5       0       5     41     41      0   4118     179       1  41    0e90f a70f      9.600 "
test,1583576298282742016,18," | 18  |   4301       5   4296       0 |   5    0      4055       241 |   2  41    0    0 e90f |    2.746       0       5       0       5     41     41      0   3879     417       2  41    0e90f a70f      8.940 "
test,1583576298285200128,19," | 19  |   4301       5   4288       9 |   5    0      4231        66 |   3  41    0    0 e90f |    2.746       0       5       0       5     41     41      0   4105     192       2  41    0e90f a70f     10.410 "
test,1583576298282164224,1," |  1  |   4301       4   4298       0 |   5    0      4195       103 |   2  56    0    0 740f |    3.417       0       5       0       5     56     56      0   4164     134       2  56    0740f a70f      9.630 "
test,1583576298292411136,22," | 22  |   4301       5   4295       0 |   5    0      4259        36 |   1  41    0    0 e90f |    3.479       0       5       0       5     41     41      0   4058     237       3  41    0e90f a70f      9.660 "
test,1583576298288780800,23," | 23  |   4301       5   4239       0 |   5    0      4220        19 |   2  41    0    0 e90f |    2.777       0       5       0       5     41     41      0   4127     112       2  41    0e90f a70f      8.910 "
test,1583576298282990848,24," | 24  |   4301       5   4295       2 |   5    0      4252        45 |   2  41    0    0 e90f |    2.716       0       5       0       5     41     41      0   4139     158       2  41    0e90f a70f      8.970 "
test,1583576298280672000,26," | 26  |   4301       5   4295       2 |   5    0      4281        16 |   2  41    0    0 e90f |    2.746       0       5       0       5     41     41      0   4201      96       2  41    0e90f a70f      8.850 "
test,1583576298286787072,27," | 27  |   4301       5   4299       0 |   5    0      4177       122 |   2  41    0    0 e90f |    2.685       0       5       0       5     41     41      0   4000     299       2  41    0e90f a70f      9.600 "
test,1583576298286138112,28," | 28  |   4301       5   4292       5 |   5    0      3963       334 |   4  41    0    0 e90f |    2.746       0       5       0       5     41     41      0   3804     493       2  41    0e90f a70f     10.200 "
test,1583576298304215040,29," | 29  |   4301       5   4294       5 |   5    0      3812       487 |   3  41    0    0 e90f |    4.913       0       4       0       4     41     41      0   3615     684       5  41    0e90f a70f     30.360 "
test,1583576298288406016,30," | 30  |   4301       5   4295       2 |   5    0      4241        56 |   3  41    0    0 e90f |    4.943       0       5       0       5     41     41      0   4086     211       5  41    0e90f a70f     10.920 "
test,1583576298287409152,35," | 35  |   4301       5   4295       2 |   5    0      4093       204 |   2  41    0    0 e90f |    4.211       0       5       0       5     41     41      0   4002     295       4  41    0e90f a70f     10.290 "
test,1583576298288968960,40," | 40  |   4301       4   4233      60 |   5    0      4032       261 |   1  41    0    0 e90f |    2.014       0       5       0       5     41     41      0   3930     363       1  41    0e90f a70f      9.000 "
test,1583576298280410880,41," | 41  |   4301       5   4228      59 |   4    0      4251        36 |   2  41    0    1 e90f |    1.739       0       4       0       4     41     41      0   4140     147       2  41    1e90f a70f      6.480 "
test,1583576298281334016,42," | 42  |   4301       5   4236      61 |   5    0      4201        96 |   1  41    0    0 e90f |    1.983       0       5       0       5     41     41      0   4100     197       1  41    0e90f a70f      8.130 "
test,1583576298284562176,44," | 44  |   4301       5   4240      57 |   5    0      4201        96 |   1  41    0    0 e90f |    1.983       0       5       0       5     41     41      0   4113     184       1  41    0e90f a70f      8.190 "
test,1583576298281122816,45," | 45  |   4301       5   4254      43 |   5    0      4159       138 |   1  41    0    0 e90f |    1.983       0       5       0       5     41     41      0   4077     220       1  41    0e90f a70f      8.220 "
test,1583576298284208128,46," | 46  |   4301       5   4233      57 |   5    0      4097       193 |   1  41    0    0 e90f |    2.044       0       5       0       5     41     41      0   4017     273       1  41    0e90f a70f      8.190 "
test,1583576298281491968,47," | 47  |   4301       5   4240      57 |   5    0      4151       146 |   1  41    0    0 e90f |    2.014       0       5       0       5     41     41      0   4068     229       1  41    0e90f a70f      8.220 "
test,1583576298282553856,48," | 48  |   4301       4   4175      55 |   3    0      4128       102 |   1  41    0    0 e90f |    2.044       0       5       0       5     41     41      0   4047     183       1  41    0e90f a70f      8.100 "
test,1583576298291057152,49," | 49  |   4301       5   4291       0 |   5    0      4208        83 |   2  56    0    0 740f |    4.241       0       5       0       5     56     56      0   4173     118       4  56    0740f a70f     10.260 "
test,1583576298279983872,51," | 51  |   4301       5   4292       0 |   5    0      4253        39 |   1  56    0    0 740f |    2.014       0       5       0       5     56     56      0   4235      57       1  56    0740f a70f      8.130 "
test,1583576298283622912,52," | 52  |   4301       4   4269      24 |   5    0      4088       205 |   3  41    0    0 e90f |    2.746       0       5       0       5     41     41      0   4002     291       2  41    0e90f a70f      8.940 "
test,1583576298285538048,53," | 53  |   4301       5   4275       0 |   5    0      4053       222 |   3  56    0    0 740f |    4.913       0       5       0       5     56     56      0   4006     269       5  56    0740f a70f     11.100 "
test,1583576298284966912,54," | 54  |   4301       5   4293       0 |   5    0      4217        76 |   2  56    0    0 740f |    3.509       0       5       0       5     56     56      0   4150     143       3  56    0740f a70f     10.320 "
test,1583576298285961984,55," | 55  |   4301       5   4280       0 |   5    0      4118       162 |   2  56    0    0 740f |    4.211       0       5       0       5     56     56      0   4083     197       4  56    0740f a70f     10.380 "
test,1583576298279323136,56," | 56  |   4301       5   4283       0 |   4    0      4216        67 |   3  56    0    1 740f |    1.739       0       4       0       4     56     56      0   4166     117       2  56    1740f a70f      6.480 "
test,1583576298303618816,57," | 57  |   4301       5   4238       0 |   1    1      4131       107 |   1  56   41    0 740f |    2.044       0       2       0       2     56     56      0   3879     359       1  56    0740f a70f     30.360 "
test,1583576298286944000,58," | 58  |   4301       5   4292       0 |   5    0      4231        61 |   1  56    0    0 740f |    3.479       0       5       0       5     56     56      0   4045     247       3  56    0740f a70f     10.350 "
test,1583576298302684928,5," |  5  |   4301       5   4299       0 |   4    5      3921       378 |   5   5   56    1 b00f |    1.770       0       1       0       1      5      5      0   3846     453       2   5    1b00f a70f     30.300 "
test,1583576298284805888,60," | 60  |   4301       5   4292       0 |   5    0      4024       268 |   1  56    0    0 740f |    2.044       0       5       0       5     56     56      0   3947     345       1  56    0740f a70f      8.880 "
test,1583576298287798784,61," | 61  |   4301       5   4291       0 |   5    0      4099       192 |   1  56    0    0 740f |    2.716       0       5       0       5     56     56      0   3957     334       2  56    0740f a70f      9.660 "
test,1583576298285700096,7," |  7  |   4301       5   4298       0 |   5    0      4230        68 |   3  56    0    0 740f |    3.479       0       5       0       5     56     56      0   4205      93       3  56    0740f a70f      9.600 "
test,1583576298283179008,9," |  9  |   4301       5   4297       0 |   5    0      4144       153 |   2  56    0    0 740f |    2.777       0       5       0       5     56     56      0   4125     172       2  56    0740f a70f      9.000 "
