test,1583576471037601024,10," | 10  |   4992       5   4964       0 |   5    0      4883        81 |   1  13    0    0 e40f |    2.014       0       5       0       5     13     13      0   4820     144       1  13    0e40f a70f      8.970 "
test,1583576471035558912,12," | 12  |   4992       5   4977      13 |   5    0      4942        48 |   1  13    0    0 e40f |    2.014       0       5       0       5     13     13      0   4855     135       1  13    0e40f a70f      8.100 "
test,1583576471036356096,13," | 13  |   4992       5   4988       0 |   4    0      4949        39 |   3  13    0    1 e40f |    3.204       0       4       0       4     13     13      0   4888     100       4  13    1e40f a70f      7.920 "
test,1583576471040519936,15," | 15  |   4992       5   4971      19 |   5    0      4796       194 |   2  13    0    0 e40f |    2.716       0       5       0       5     13     13      0   4572     418       2  13    0e40f a70f      8.940 "
test,1583576471038230016,16," | 16  |   4992       5   4988       0 |   4    3      4809       179 |   3  22   41    0 e40f |    2.746       0       5       0       5     22     22      0   4674     314       2  22    0e40f a70f     10.410 "
test,1583576471036535040,17," | 17  |   4992       5   4981       7 |   5    0      4928        60 |   5  22    0    0 e40f |    2.777       0       5       0       5     22     22      0   4782     206       2  22    0e40f a70f      9.630 "
test,1583576471039952896,18," | 18  |   4992       5   4987       0 |   5    0      4698       289 |   1  22    0    0 e40f |    2.014       0       5       0       5     22     22      0   4495     492       1  22    0e40f a70f      8.070 "
test,1583576471057825024,19," | 19  |   4992       5   4977      11 |   5    0      4906        82 |   4  22    0    0 e40f |    3.509       0       4       0       4     22     22      0   4763     225       3  22    0e40f a70f     30.330 "
test,1583576471039779840,1," |  1  |   4992       4   4989       0 |   5    0      4862       127 |   1  13    0    0 e40f |    2.685       0       5       0       5     13     13      0   4827     162       1  13    0e40f a70f      9.540 "
test,1583576471033550080,22," | 22  |   4992       5   4986       0 |   4    0      4943        43 |   2  22    0    1 e40f |    1.770       0       4       0       4     22     22      0   4713     273       2  22    1e40f a70f      6.510 "
test,1583576471039087104,23," | 23  |   4992       5   4930       0 |   5    0      4908        22 |   1  22    0    0 e40f |    1.983       0       5       0       5     22     22      0   4806     124       1  22    0e40f a70f      9.630 "
test,1583576471037817856,24," | 24  |   4992       5   4986       2 |   5    0      4938        50 |   1  22    0    0 e40f |    2.014       0       5       0       5     22     22      0   4807     181       1  22    0e40f a70f      8.970 "
test,1583576471038899968,26," | 26  |   4992       5   4986       2 |   5    0      4968        20 |   1  22    0    0 e40f |    2.044       0       5       0       5     22     22      0   4879     109       1  22    0e40f a70f      9.600 "
test,1583576471056747008,27," | 27  |   4992       5   4990       0 |   1    2      4851       139 |  20  27   22    1 650f |   14.556       0       2       0       2     27     27      0   4646     344      20  27    1650f a70f     30.270 "
test,1583576471036883200,28," | 28  |   4992       5   4982       6 |   5    0      4588       400 |   4  22    0    0 e40f |    2.014       0       5       0       5     22     22      0   4394     594       1  22    0e40f a70f     10.290 "
test,1583576471048546048,29," | 29  |   4992       5   4983       7 |   5    2      4413       577 |   1  27   22    0 650f |    1.983       0       5       0       5     27     27      0   4200     790       1  27    0650f a70f     16.410 "
test,1583576471037378048,30," | 30  |   4992       5   4986       2 |   5    0      4921        67 |   1  22    0    0 e40f |    2.044       0       5       0       5     22     22      0   4738     250       1  22    0e40f a70f     10.440 "
test,1583576471041035008,35," | 35  |   4992       5   4986       2 |   5    0      4753       235 |   1  22    0    0 e40f |    2.044       0       5       0       5     22     22      0   4644     344       1  22    0e40f a70f      9.690 "
test,1583576471057307904,40," | 40  |   4992       5   4915      69 |   2    4      4677       307 |   1  41   45    0 d90f |    2.014       0       1       0       1     41     41      0   4561     423       1  41    0d90f a70f     30.360 "
test,1583576471033778944,41," | 41  |   4992       5   4919      59 |   1    6      4940        38 |   5  41   45    1 d90f |    1.739       0       4       0       4     41     41      0   4818     160       2  41    1d90f a70f      6.510 "
test,1583576471041773056,42," | 42  |   4992       5   4926      62 |   4    2      4883       105 |   3  45   41    0 6a0f |    4.241       0       5       0       5     45     45      0   4776     212       4  45    06a0f a70f     10.290 "
test,1583576471038023936,44," | 44  |   4992       5   4931      57 |   5    0      4888       100 |   1  45    0    0 6a0f |    2.044       0       5       0       5     45     45      0   4794     194       1  45    06a0f a70f      8.250 "
test,1583576471034384896,45," | 45  |   4992       5   4945      43 |   4    0      4831       157 |   2  45    0    1 6a0f |    1.739       0       4       0       4     45     45      0   4740     248       2  45    16a0f a70f      6.480 "
test,1583576471035998208,46," | 46  |   4992       5   4924      57 |   3    6      4763       218 |   1  41   45    0 d90f |    2.014       0       5       0       5     41     41      0   4679     302       1  41    0d90f a70f      8.220 "
test,1583576471055537920,47," | 47  |   4992       5   4931      57 |   5    0      4817       171 |   3  45    0    0 6a0f |    6.439       0       3       0       3     45     45      0   4736     252       7  45    06a0f a70f     30.390 "
test,1583576471039431936,48," | 48  |   4992       5   4866      55 |   5    0      4809       112 |   2  45    0    0 6a0f |    4.241       0       5       0       5     45     45      0   4723     198       4  45    06a0f a70f     10.290 "
test,1583576471034967040,49," | 49  |   4992       5   4982       0 |   5    0      4885        97 |   2  49    0    1 7b0f |    1.739       0       4       0       4     49     49      0   4848     134       2  49    17b0f a70f      6.480 "
test,1583576471034588928,51," | 51  |   4992       5   4983       0 |   5    0      4936        47 |   1  13    0    0 e40f |    1.983       0       5       0       5     13     13      0   4919      64       1  13    0e40f a70f      8.070 "
test,1583576471056318976,52," | 52  |   4992       5   4958      26 |   5    0      4750       234 |   2  22    0    0 e40f |    5.706       0       4       0       4     22     22      0   4654     330       6  22    0e40f a70f     30.360 "
test,1583576471041549824,53," | 53  |   4992       5   4966       0 |   5    0      4695       271 |   1  49    0    0 7b0f |    2.014       0       5       0       5     49     49      0   4643     323       1  49    07b0f a70f      8.250 "
test,1583576471054748928,54," | 54  |   4992       5   4984       0 |   5    0      4899        85 |   1  13    0    0 e40f |    2.014       0       2       1       3     13     13      0   4817     167       1  13    0e40f a70f     30.330 "
test,1583576471041955072,55," | 55  |   4992       5   4971       0 |   5    0      4782       189 |   1  49    0    0 7b0f |    2.014       0       5       0       5     49     49      0   4742     229       1  49    07b0f a70f      8.160 "
test,1583576471035768064,56," | 56  |   4992       5   4974       0 |   5    0      4896        78 |   2  13    0    0 e40f |    1.983       0       5       0       5     13     13      0   4837     137       1  13    0e40f a70f      8.910 "
test,1583576471040276992,57," | 57  |   4992       5   4929       0 |   5    0      4804       125 |   1  22    0    0 e40f |    2.014       0       5       0       5     22     22      0   4513     416       1  22    0e40f a70f     10.380 "
test,1583576471034776832,58," | 58  |   4992       5   4983       0 |   5    0      4911        72 |   2  49    0    0 7b0f |    2.044       0       5       0       5     49     49      0   4699     284       1  49    07b0f a70f      8.280 "
test,1583576471035191040,5," |  5  |   4992       5   4990       0 |   5    0      4550       440 |   1  13    0    0 e40f |    2.014       0       5       0       5     13     13      0   4464     526       1  13    0e40f a70f      8.070 "
test,1583576471037140992,60," | 60  |   4992       5   4983       0 |   4    0      4668       315 |   4  13    0    0 e40f |    2.716       0       5       0       5     13     13      0   4574     409       2  13    0e40f a70f      8.910 "
test,1583576471055816960,61," | 61  |   4992       5   4982       0 |   1    4      4755       227 |   3  13   49    0 e40f |    7.873       0       1       1       2     13     13      0   4587     395       9  13    0e40f a70f     30.360 "
test,1583576471034221824,7," |  7  |   4992       5   4989       0 |   5    0      4914        75 |   1  13    0    0 e40f |    1.983       0       5       0       5     13     13      0   4883     106       1  13    0e40f a70f      8.940 "
test,1583576471039236096,9," |  9  |   4992       5   4988       0 |   5    0      4817       171 |   1  13    0    0 e40f |    1.983       0       5       0       5     13     13      0   4794     194       1  13    0e40f a70f      8.940 "
