test,1583576278532290048,10," | 10  |   4222       5   4194       0 |   5    0      4126        68 |   1   7    0    0 a00f |    2.044       0       5       0       5      7      7      0   4072     122       1   7    0a00f a70f      8.190 "
test,1583576278528867072,12," | 12  |   4222       5   4220       0 |   5    0      4187        33 |   1   7    0    0 a00f |    1.983       0       5       0       5      7      7      0   4122      98       1   7    0a00f a70f      8.250 "
test,1583576278529917952,13," | 13  |   4222       5   4218       0 |   5    0      4188        30 |   1   7    0    0 a00f |    2.014       0       5       0       5      7      7      0   4137      81       1   7    0a00f a70f      8.130 "
test,1583576278531824128,15," | 15  |   4222       5   4220       0 |   5    0      4060       160 |   2   7    0    0 a00f |    2.746       0       5       0       5      7      7      0   3882     338       2   7    0a00f a70f      8.880 "
test,1583576278537965056,16," | 16  |   4222       5   4218       0 |   5    0      4065       153 |   8  30    0    0 3d0f |    3.479       0       5       0       5     30     30      0   3953     265       3  30    03d0f a70f     11.820 "
test,1583576278535319040,17," | 17  |   4222       5   4213       5 |   5    0      4168        50 |   5  30    0    0 3d0f |    3.479       0       5       0       5     30     30      0   4041     177       3  30    03d0f a70f     11.790 "
test,1583576278534318080,18," | 18  |   4222       5   4217       0 |   5    0      3986       231 |   3  30    0    0 3d0f |    2.777       0       5       0       5     30     30      0   3811     406       2  30    03d0f a70f      8.820 "
test,1583576278552119040,19," | 19  |   4222       5   4209       9 |   1    8      4154        64 |   1  27   30    0 c70f |    2.014       0       1       0       1     27     27      0   4029     189       1  27    0c70f a70f     30.390 "
test,1583576278533291008,1," |  1  |   4222       4   4219       0 |   5    0      4118       101 |   1   7    0    0 a00f |    2.685       0       5       0       5      7      7      0   4087     132       1   7    0a00f a70f      8.910 "
test,1583576278529409024,22," | 22  |   4222       5   4216       0 |   5    0      4181        35 |   1  30    0    0 3d0f |    2.014       0       5       0       5     30     30      0   3985     231       1  30    03d0f a70f      8.100 "
test,1583576278536302080,23," | 23  |   4222       5   4160       0 |   5    0      4141        19 |   7  30    0    0 3d0f |    3.479       0       5       0       5     30     30      0   4051     109       3  30    03d0f a70f     11.010 "
test,1583576278532489984,24," | 24  |   4222       5   4216       2 |   5    0      4175        43 |   2  30    0    0 3d0f |    2.716       0       5       0       5     30     30      0   4066     152       2  30    03d0f a70f      8.940 "
test,1583576278532018944,26," | 26  |   4222       5   4216       2 |   5    0      4202        16 |   2  30    0    0 3d0f |    2.746       0       5       0       5     30     30      0   4123      95       2  30    03d0f a70f      9.690 "
test,1583576278552794880,27," | 27  |   4222       5   4220       0 |   3    4      4099       121 |   8  27   30    1 c70f |    3.814       0       2       0       2     27     27      0   3926     294       5  27    1c70f a70f     30.300 "
test,1583576278535164160,28," | 28  |   4222       5   4213       5 |   5    0      3886       332 |   1  30    0    0 3d0f |    2.014       0       5       0       5     30     30      0   3728     490       1  30    03d0f a70f      8.220 "
test,1583576278554752000,29," | 29  |   4222       3   4215       5 |   5    0      3742       478 |   1  27    0    0 c70f |    2.014       0       3       0       3     27     27      0   3549     671       1  27    0c70f a70f     30.360 "
test,1583576278533835776,30," | 30  |   4222       5   4216       2 |   4    0      4164        54 |   4  30    0    1 3d0f |    1.770       0       4       0       4     30     30      0   4009     209       2  30    13d0f a70f      6.510 "
test,1583576278530119936,35," | 35  |   4222       5   4216       2 |   5    0      4016       202 |   1  30    0    0 3d0f |    2.044       0       5       0       5     30     30      0   3926     292       1  30    03d0f a70f      8.130 "
test,1583576278553606144,40," | 40  |   4222       5   4154      60 |   3    4      3957       257 |   1  47   30    0 690f |    4.852       0       3       0       3     47     47      0   3854     360       5  47    0690f a70f     30.390 "
test,1583576278552344064,41," | 41  |   4222       5   4149      59 |   3    5      4172        36 |   1  47   30    0 690f |    4.119       0       2       0       2     47     47      0   4062     146       4  47    0690f a70f     30.390 "
test,1583576278556289792,42," | 42  |   4222       5   4157      61 |   3    6      4123        95 |   1  47   30    0 690f |    4.089       0       3       0       3     47     47      0   4022     196       4  47    0690f a70f     30.330 "
test,1583576278551817984,44," | 44  |   4222       5   4161      57 |   3    8      4124        94 |   1  47   30    0 690f |    4.089       0       3       0       3     47     47      0   4038     180       4  47    0690f a70f     30.300 "
test,1583576278555175168,45," | 45  |   4222       5   4175      43 |   3    3      4081       137 |   1  47   30    0 690f |    4.821       0       3       0       3     47     47      0   4001     217       5  47    0690f a70f     30.270 "
test,1583576278552622080,46," | 46  |   4222       5   4154      57 |   3    0      4022       189 |   1  47    0    0 690f |    4.089       0       3       0       3     47     47      0   3942     269       4  47    0690f a70f     30.360 "
test,1583576278553415936,47," | 47  |   4222       5   4161      57 |   1    3      4072       146 |   5  47   30    1 690f |    3.814       0       3       0       3     47     47      0   3990     228       5  47    1690f a70f     30.300 "
test,1583576278553159936,48," | 48  |   4222       5   4096      55 |   3    3      4050       101 |   1  47   30    0 690f |    4.150       0       3       0       3     47     47      0   3971     180       4  47    0690f a70f     30.300 "
test,1583576278531436032,49," | 49  |   4222       5   4212       0 |   5    0      4132        80 |   3   7    0    0 a00f |    3.448       0       5       0       5      7      7      0   4098     114       3   7    0a00f a70f      9.630 "
test,1583576278529732096,51," | 51  |   4222       5   4213       0 |   5    0      4174        39 |   1   7    0    0 a00f |    1.983       0       5       0       5      7      7      0   4156      57       1   7    0a00f a70f      8.220 "
test,1583576278535959040,52," | 52  |   4222       5   4190      24 |   5    0      4010       204 |   5  30    0    0 3d0f |    3.448       0       5       0       5     30     30      0   3926     288       3  30    03d0f a70f     11.820 "
test,1583576278539879936,53," | 53  |   4222       5   4196       0 |   5    0      3975       221 |   4   7    0    0 a00f |    4.180       0       5       0       5      7      7      0   3929     267       4   7    0a00f a70f     10.230 "
test,1583576278529163008,54," | 54  |   4222       5   4214       0 |   5    0      4138        76 |   1   7    0    0 a00f |    1.983       0       5       0       5      7      7      0   4071     143       1   7    0a00f a70f      8.190 "
test,1583576278534868992,55," | 55  |   4222       5   4201       0 |   5    0      4043       158 |   3   7    0    0 a00f |    3.448       0       5       0       5      7      7      0   4009     192       3   7    0a00f a70f      9.660 "
test,1583576278532844032,56," | 56  |   4222       5   4204       0 |   5    0      4138        66 |   2   7    0    0 a00f |    2.746       0       5       0       5      7      7      0   4090     114       2   7    0a00f a70f      8.970 "
test,1583576278555412992,57," | 57  |   4222       5   4159       0 |   2    3      4052       107 |   3   7   30    0 a00f |    3.448       0       4       0       4      7      7      0   3806     353       3   7    0a00f a70f     30.330 "
test,1583576278554991872,58," | 58  |   4222       5   4213       0 |   5    0      4153        60 |   2   7    0    0 a00f |    2.746       0       4       0       4      7      7      0   3972     241       2   7    0a00f a70f     30.390 "
test,1583576278531207168,5," |  5  |   4222       5   4220       0 |   5    0      3848       372 |   2   7    0    0 a00f |    2.716       0       5       0       5      7      7      0   3776     444       2   7    0a00f a70f      8.760 "
test,1583576278530791936,60," | 60  |   4222       5   4213       0 |   5    0      3948       265 |   2   7    0    0 a00f |    2.716       0       5       0       5      7      7      0   3872     341       2   7    0a00f a70f      8.880 "
test,1583576278554140160,61," | 61  |   4222       5   4212       0 |   5    0      4022       190 |   2   7    0    0 a00f |    2.746       0       4       0       4      7      7      0   3883     329       2   7    0a00f a70f     30.390 "
test,1583576278528680192,7," |  7  |   4222       5   4219       0 |   4    0      4154        65 |   2   7    0    1 a00f |    1.739       0       4       0       4      7      7      0   4129      90       2   7    1a00f a70f      6.510 "
test,1583576278531622912,9," |  9  |   4222       5   4218       0 |   5    0      4067       151 |   1   7    0    0 a00f |    2.014       0       5       0       5      7      7      0   4047     171       1   7    0a00f a70f      8.250 "
