test,1583576269031488768,10," | 10  |   4184       5   4156       0 |   5    0      4089        67 |   1  58    0    0 280f |    2.044       0       5       0       5     58     58      0   4037     119       1  58    0280f a70f      9.030 "
test,1583576269035060992,12," | 12  |   4184       5   4182       0 |   5    0      4149        33 |   3  58    0    0 280f |    2.746       0       5       0       5     58     58      0   4085      97       2  58    0280f a70f      9.660 "
test,1583576269032125952,13," | 13  |   4184       5   4180       0 |   4    5      4150        30 |   3  58    5    0 280f |    2.746       0       5       0       5     58     58      0   4100      80       2  58    0280f a70f      9.720 "
test,1583576269039004928,15," | 15  |   4184       5   4182       0 |   5    0      4024       158 |   4  58    0    0 280f |    3.509       0       5       0       5     58     58      0   3845     337       3  58    0280f a70f     10.380 "
test,1583576269032680960,16," | 16  |   4184       5   4180       0 |   5    0      4028       152 |   3  58    0    0 280f |    3.479       0       5       0       5     58     58      0   3918     262       3  58    0280f a70f      9.510 "
test,1583576269037538048,17," | 17  |   4184       5   4175       5 |   5    0      4130        50 |   3  58    0    0 280f |    3.509       0       5       0       5     58     58      0   4005     175       3  58    0280f a70f     11.160 "
test,1583576269031294976,18," | 18  |   4184       5   4179       0 |   5    0      3950       229 |   3  58    0    0 280f |    3.509       0       5       0       5     58     58      0   3779     400       3  58    0280f a70f      9.690 "
test,1583576269044003072,19," | 19  |   4184       5   4171       9 |   5    0      4117        63 |   3  58    0    0 280f |    3.509       0       5       0       5     58     58      0   3992     188       3  58    0280f a70f     11.820 "
test,1583576269032419840,1," |  1  |   4184       4   4181       0 |   5    0      4081       100 |   2  58    0    0 280f |    3.448       0       5       0       5     58     58      0   4051     130       2  58    0280f a70f      9.600 "
test,1583576269031729920,22," | 22  |   4184       5   4178       0 |   5    0      4143        35 |   3  58    0    0 280f |    2.746       0       5       0       5     58     58      0   3951     227       2  58    0280f a70f      8.940 "
test,1583576269047337984,23," | 23  |   4184       5   4122       0 |   5    0      4103        19 |   2  58    0    0 280f |    2.716       0       5       0       5     58     58      0   4014     108       2  58    0280f a70f      8.940 "
test,1583576269030873088,24," | 24  |   4184       5   4178       2 |   5    0      4137        43 |   3  58    0    0 280f |    3.479       0       5       0       5     58     58      0   4031     149       3  58    0280f a70f      9.690 "
test,1583576269033734912,26," | 26  |   4184       5   4178       2 |   5    0      4164        16 |   2  58    0    0 280f |    2.777       0       5       0       5     58     58      0   4088      92       2  58    0280f a70f      9.660 "
test,1583576269038372096,27," | 27  |   4184       4   4182       0 |   5    0      4061       121 |   3  58    0    0 280f |    3.509       0       5       0       5     58     58      0   3890     292       3  58    0280f a70f      9.690 "
test,1583576269054029056,28," | 28  |   4184       5   4175       5 |   4    5      3850       330 |   7  58   35    0 280f |    7.141       0       4       0       4     58     58      0   3693     487       8  58    0280f a70f     30.360 "
test,1583576269052998912,29," | 29  |   4184       4   4177       5 |   4    0      3709       473 |   6  58    0    0 280f |    4.241       0       4       0       4     58     58      0   3518     664       4  58    0280f a70f     30.240 "
test,1583576269051928064,30," | 30  |   4184       5   4178       2 |   1    5      4126        54 |  15  58   35    0 280f |    3.479       0       3       0       3     58     58      0   3972     208       3  58    0280f a70f     30.360 "
test,1583576269050714112,35," | 35  |   4184       5   4178       2 |   0    3      3979       201 |   0  35   58    1 da0f |    0           0       0       0       8      0      0      0   3889     291       0  35    1da0f a70f     30.150 "
test,1583576269034424064,40," | 40  |   4184       5   4116      60 |   5    0      3921       255 |   4  58    0    0 280f |    4.241       0       5       0       5     58     58      0   3820     356       4  58    0280f a70f     10.440 "
test,1583576269037730048,41," | 41  |   4184       5   4111      59 |   5    0      4134        36 |   4  58    0    0 280f |    5.676       0       5       0       5     58     58      0   4026     144       6  58    0280f a70f     11.850 "
test,1583576269034887168,42," | 42  |   4184       5   4119      61 |   5    0      4086        94 |   4  58    0    0 280f |    4.943       0       5       0       5     58     58      0   3987     193       5  58    0280f a70f     11.790 "
test,1583576269038170112,44," | 44  |   4184       5   4123      57 |   5    0      4087        93 |   3  58    0    0 280f |    4.211       0       5       0       5     58     58      0   4003     177       4  58    0280f a70f     10.230 "
test,1583576269037996032,45," | 45  |   4184       5   4137      43 |   5    0      4043       137 |   4  58    0    0 280f |    4.241       0       5       0       5     58     58      0   3965     215       4  58    0280f a70f     10.290 "
test,1583576269040208128,46," | 46  |   4184       5   4116      57 |   5    0      3987       186 |   4  58    0    0 280f |    4.943       0       5       0       5     58     58      0   3908     265       5  58    0280f a70f     10.950 "
test,1583576269035927040,47," | 47  |   4184       5   4123      57 |   5    0      4035       145 |   4  58    0    0 280f |    4.211       0       5       0       5     58     58      0   3955     225       4  58    0280f a70f     10.440 "
test,1583576269027672064,48," | 48  |   4184       5   4058      55 |   5    0      4014        99 |   4  58    0    0 280f |    4.974       0       5       0       5     58     58      0   3937     176       5  58    0280f a70f     11.010 "
test,1583576269029336064,49," | 49  |   4184       5   4174       0 |   5    0      4096        78 |   1  58    0    0 280f |    2.014       0       5       0       5     58     58      0   4063     111       1  58    0280f a70f      8.160 "
test,1583576269031045888,51," | 51  |   4184       5   4175       0 |   5    0      4136        39 |   2  58    0    0 280f |    2.777       0       5       0       5     58     58      0   4119      56       2  58    0280f a70f      9.000 "
test,1583576269038649088,52," | 52  |   4184       5   4152      24 |   5    0      3975       201 |   3  58    0    0 280f |    3.479       0       5       0       5     58     58      0   3893     283       3  58    0280f a70f      9.510 "
test,1583576269034153984,53," | 53  |   4184       5   4158       0 |   5    0      3941       217 |   2  58    0    0 280f |    2.716       0       5       0       5     58     58      0   3895     263       2  58    0280f a70f      8.940 "
test,1583576269029745152,54," | 54  |   4184       5   4176       0 |   5    0      4102        74 |   1  58    0    0 280f |    2.014       0       5       0       5     58     58      0   4034     142       1  58    0280f a70f      8.220 "
test,1583576269030055168,55," | 55  |   4184       5   4163       0 |   5    0      4005       158 |   1  58    0    0 280f |    2.044       0       5       0       5     58     58      0   3972     191       1  58    0280f a70f      8.250 "
test,1583576269029572096,56," | 56  |   4184       5   4166       0 |   5    0      4103        63 |   1  58    0    0 280f |    2.044       0       5       0       5     58     58      0   4056     110       1  58    0280f a70f      8.250 "
test,1583576269039586048,57," | 57  |   4184       5   4121       0 |   5    0      4016       105 |   1  58    0    0 280f |    2.075       0       5       0       5     58     58      0   3771     350       1  58    0280f a70f      8.160 "
test,1583576269037061888,58," | 58  |   4184       5   4175       0 |   1    0      4115        60 |  20  58    0    1 280f |    3.814       0       4       0       4     58     58      0   3935     240       5  58    1280f a70f     10.080 "
test,1583576269049572864,5," |  5  |   4184       5   4182       0 |   0    6      3812       370 |   0   5   58    1 a20f |    0           0       0       0       8      0      0      0   3741     441       0   5    1a20f a70f     30.240 "
test,1583576269034668800,60," | 60  |   4184       5   4175       0 |   5    0      3913       262 |   2  58    0    0 280f |    3.448       0       5       0       5     58     58      0   3838     337       3  58    0280f a70f      9.660 "
test,1583576269033377024,61," | 61  |   4184       5   4174       0 |   5    0      3986       188 |   1  58    0    0 280f |    2.044       0       5       0       5     58     58      0   3850     324       1  58    0280f a70f     10.410 "
test,1583576269030317056,7," |  7  |   4184       5   4181       0 |   5    0      4117        64 |   2  58    0    0 280f |    2.746       0       5       0       5     58     58      0   4092      89       2  58    0280f a70f      9.000 "
test,1583576269030494976,9," |  9  |   4184       5   4180       0 |   5    0      4031       149 |   2  58    0    0 280f |    2.746       0       5       0       5     58     58      0   4011     169       2  58    0280f a70f      8.910 "
