test,1583576331557207040,10," | 10  |   4434       5   4406       0 |   5    0      4337        69 |   2  10    0    1 720f |    1.739       0       1       0       1     10     10      0   4279     127       2  10    1720f a70f     30.300 "
test,1583576331554227968,12," | 12  |   4434       5   4432       0 |   5    0      4398        34 |   3  10    0    0 720f |    3.479       0       1       0       1     10     10      0   4330     102       3  10    0720f a70f     30.360 "
test,1583576331553037824,13," | 13  |   4434       5   4430       0 |   5    0      4400        30 |   1  10    0    0 720f |    2.014       0       2       0       2     10     10      0   4347      83       1  10    0720f a70f     30.390 "
test,1583576331557041920,15," | 15  |   4434       4   4432       0 |   3    4      4266       166 |   2  29   10    0 860f |    5.645       0       2       0       2     29     29      0   4080     352       6  29    0860f a70f     30.360 "
test,1583576331555854080,16," | 16  |   4434       5   4430       0 |   1    7      4267       163 |   2  46   48    0 100f |    4.180       0       2       0       2     46     46      0   4150     280       4  46    0100f a70f     30.360 "
test,1583576331544925952,17," | 17  |   4434       5   4425       5 |   5    0      4378        52 |   3  48    0    0 c40f |    8.453       0       5       0       5     48     48      0   4248     182      10  48    0c40f a70f     15.990 "
test,1583576331537885952,18," | 18  |   4434       5   4429       0 |   5    0      4177       252 |   2  48    0    0 c40f |    6.286       0       5       0       5     48     48      0   3995     434       7  48    0c40f a70f     12.420 "
test,1583576331554960896,19," | 19  |   4434       5   4421       9 |   4    8      4362        68 |   1  29   48    0 860f |    2.746       0       3       0       3     29     29      0   4233     197       2  29    0860f a70f     30.360 "
test,1583576331552832000,1," |  1  |   4434       4   4431       0 |   5    0      4327       104 |   2  10    0    0 720f |    3.448       0       1       0       1     10     10      0   4296     135       2  10    0720f a70f     30.360 "
test,1583576331537234944,22," | 22  |   4434       5   4428       0 |   5    0      4391        37 |   1  48    0    0 c40f |    7.019       0       5       0       5     48     48      0   4184     244       8  48    0c40f a70f     13.680 "
test,1583576331539525888,23," | 23  |   4434       5   4372       0 |   5    0      4353        19 |   4  48    0    0 c40f |    8.453       0       5       0       5     48     48      0   4260     112      10  48    0c40f a70f     16.020 "
test,1583576331536751104,24," | 24  |   4434       5   4428       2 |   5    0      4385        45 |   3  48    0    0 c40f |    7.019       0       5       0       5     48     48      0   4271     159       8  48    0c40f a70f     14.460 "
test,1583576331539182848,26," | 26  |   4434       5   4428       2 |   5    0      4414        16 |   2  48    0    0 c40f |    7.751       0       5       0       5     48     48      0   4333      97       9  48    0c40f a70f     15.330 "
test,1583576331556134912,27," | 27  |   4434       5   4432       0 |   5    8      4309       123 |   1  29   48    0 860f |    2.014       0       4       0       4     29     29      0   4128     304       1  29    0860f a70f     30.360 "
test,1583576331539848192,28," | 28  |   4434       5   4425       5 |   4    0      4082       348 |   5  48    0    0 c40f |    8.453       0       5       0       5     48     48      0   3916     514      10  48    0c40f a70f     15.270 "
test,1583576331556657152,29," | 29  |   4434       4   4427       5 |   2    0      3923       509 |  11  29    0    1 860f |    3.204       0       3       0       3     29     29      0   3721     711       4  29    1860f a70f     30.300 "
test,1583576331536552960,30," | 30  |   4434       5   4428       2 |   4    0      4369        61 |   4  48    0    0 c40f |    7.720       0       5       0       5     48     48      0   4211     219       9  48    0c40f a70f     14.550 "
test,1583576331543265024,35," | 35  |   4434       5   4428       2 |   4    0      4222       208 |   4  48    0    0 c40f |    7.720       0       5       0       5     48     48      0   4128     302       9  48    0c40f a70f     13.680 "
test,1583576331537679872,40," | 40  |   4434       5   4366      60 |   5    0      4157       269 |   1  48    0    0 c40f |    4.058       0       5       0       5     48     48      0   4055     371       4  48    0c40f a70f     12.300 "
test,1583576331533255168,41," | 41  |   4434       5   4361      59 |   5    0      4384        36 |   1  46    0    0 100f |    1.983       0       5       0       5     46     46      0   4270     150       1  46    0100f a70f      8.250 "
test,1583576331540306944,42," | 42  |   4434       5   4369      61 |   5    0      4332        98 |   1  48    0    0 c40f |    2.014       0       5       0       5     48     48      0   4231     199       1  48    0c40f a70f     14.610 "
test,1583576331534535936,44," | 44  |   4434       5   4373      57 |   5    0      4333        97 |   1  48    0    0 c40f |    2.014       0       5       0       5     48     48      0   4245     185       1  48    0c40f a70f     10.200 "
test,1583576331535849984,45," | 45  |   4434       5   4387      43 |   5    0      4290       140 |   1  48    0    0 c40f |    2.044       0       5       0       5     48     48      0   4206     224       1  48    0c40f a70f     10.980 "
test,1583576331537074176,46," | 46  |   4434       5   4366      57 |   4    0      4224       199 |   2  46    0    1 100f |    1.770       0       4       0       4     46     46      0   4143     280       2  46    1100f a70f      6.510 "
test,1583576331535156992,47," | 47  |   4434       5   4373      57 |   5    0      4284       146 |   1  48    0    0 c40f |    2.014       0       5       0       5     48     48      0   4201     229       1  48    0c40f a70f     11.010 "
test,1583576331535682816,48," | 48  |   4434       5   4308      55 |   4    0      4260       103 |   2  48    0    1 c40f |    3.814       0       4       0       4     48     48      0   4179     184       5  48    1c40f a70f      8.520 "
test,1583576331533662208,49," | 49  |   4434       5   4424       0 |   5    0      4340        84 |   1  55    0    0 420f |    2.014       0       5       0       5     55     55      0   4305     119       1  55    0420f a70f      8.130 "
test,1583576331553720832,51," | 51  |   4434       5   4425       0 |   5    0      4385        40 |   3  10    0    0 720f |    2.014       0       2       0       2     10     10      0   4366      59       1  10    0720f a70f     30.390 "
test,1583576331541039872,52," | 52  |   4434       4   4401      25 |   5    0      4216       210 |   4  48    0    0 c40f |    8.483       0       5       0       5     48     48      0   4128     298      10  48    0c40f a70f     16.020 "
test,1583576331538095104,53," | 53  |   4434       5   4408       0 |   5    0      4175       233 |   1  55    0    0 420f |    2.014       0       5       0       5     55     55      0   4128     280       1  55    0420f a70f      8.100 "
test,1583576331551144960,54," | 54  |   4434       5   4426       0 |   0    4      4348        78 |   0  54   10    1 420f |    0           0       0       3       3      0     54      0   4280     146       5  54    1420f a70f     30.300 "
test,1583576331535454976,55," | 55  |   4434       5   4413       0 |   4    0      4247       166 |   2  55    0    1 420f |    1.770       0       4       0       4     55     55      0   4212     201       2  55    1420f a70f      6.510 "
test,1583576331545093120,56," | 56  |   4434       5   4416       0 |   1    6      4346        70 |   3  48   10    0 c40f |    9.216       0       5       0       5     48     48      0   4295     121      11  48    0c40f a70f     15.210 "
test,1583576331546397952,57," | 57  |   4434       4   4371       0 |   5    0      4260       111 |   2  48    0    0 c40f |    8.514       0       5       0       5     48     48      0   3998     373      10  48    0c40f a70f     14.610 "
test,1583576331532913920,58," | 58  |   4434       5   4425       0 |   5    0      4363        62 |   2  55    0    0 420f |    2.044       0       5       0       5     55     55      0   4173     252       1  55    0420f a70f      8.850 "
test,1583576331554703872,5," |  5  |   4434       5   4432       0 |   3    5      4039       393 |   3  29   10    0 860f |    6.439       0       2       0       2     29     29      0   3963     469       7  29    0860f a70f     30.300 "
test,1583576331545479168,60," | 60  |   4434       5   4425       0 |   1    3      4146       279 |   3  48   29    0 c40f |    9.216       0       5       0       5     48     48      0   4064     361      11  48    0c40f a70f     15.870 "
test,1583576331538633216,61," | 61  |   4434       5   4424       0 |   4    5      4227       197 |   3  55   54    0 420f |    4.211       0       4       1       5     55     54      0   4082     342       1  55    0420f a70f      9.660 "
test,1583576331555192832,7," |  7  |   4434       5   4431       0 |   5    0      4363        68 |   2  10    0    0 720f |    2.746       0       1       0       1     10     10      0   4337      94       2  10    0720f a70f     30.390 "
test,1583576331548116992,9," |  9  |   4434       5   4430       0 |   0   11      4274       156 |   0   9   10    1 ae0f |    0           0       0       0       8      0      0      0   4255     175       0   9    1ae0f a70f     30.180 "
