test,1583576394291822080,10," | 10  |   4685       5   4657       0 |   5    0      4582        75 |   2  55    0    0 c20f |    2.777       0       5       0       5     55     55      0   4523     134       2  55    0c20f a70f     10.440 "
test,1583576394285294080,12," | 12  |   4685       5   4679       4 |   5    0      4644        39 |   2  55    0    0 c20f |    2.807       0       5       0       5     55     55      0   4574     109       2  55    0c20f a70f      9.030 "
test,1583576394283628032,13," | 13  |   4685       5   4681       0 |   5    0      4647        34 |   3  55    0    0 c20f |    3.509       0       5       0       5     55     55      0   4591      90       3  55    0c20f a70f      9.720 "
test,1583576394290168064,15," | 15  |   4685       5   4676       7 |   4    2      4504       179 |   4  55   30    0 c20f |    3.479       0       5       0       5     55     55      0   4308     375       3  55    0c20f a70f      9.690 "
test,1583576394290575104,16," | 16  |   4685       5   4681       0 |   5    0      4511       170 |   1  23    0    0 6a0f |    1.983       0       5       0       5     23     23      0   4385     296       1  23    06a0f a70f      8.070 "
test,1583576394305161984,17," | 17  |   4685       5   4675       6 |   5    0      4625        56 |   5  42    0    0 540f |    4.943       0       4       0       4     42     42      0   4488     193       5  42    0540f a70f     30.300 "
test,1583576394287854080,18," | 18  |   4685       5   4680       0 |   5    0      4410       270 |   1  42    0    0 540f |    2.777       0       5       0       5     42     42      0   4220     460       2  42    0540f a70f     10.410 "
test,1583576394287628800,19," | 19  |   4685       5   4671      10 |   5    0      4607        74 |   4  42    0    0 540f |    4.211       0       5       0       5     42     42      0   4472     209       4  42    0540f a70f     10.410 "
test,1583576394286626048,1," |  1  |   4685       4   4682       0 |   5    0      4566       116 |   4  55    0    0 c20f |    4.180       0       5       0       5     55     55      0   4533     149       3  55    0c20f a70f     10.380 "
test,1583576394305448960,22," | 22  |   4685       5   4679       0 |   5    0      4642        37 |   4  42    0    0 540f |    3.479       0       4       0       4     42     42      0   4425     254       3  42    0540f a70f     30.300 "
test,1583576394276928000,23," | 23  |   4685       5   4623       0 |   4    0      4603        20 |   2  23    0    1 6a0f |    1.739       0       4       0       4     23     23      0   4506     117       2  23    16a0f a70f      6.510 "
test,1583576394286956032,24," | 24  |   4685       5   4679       2 |   5    0      4632        49 |   2  42    0    0 540f |    3.509       0       5       0       5     42     42      0   4511     170       3  42    0540f a70f      9.630 "
test,1583576394286063872,26," | 26  |   4685       5   4679       2 |   5    0      4664        17 |   2  42    0    0 540f |    4.180       0       5       0       5     42     42      0   4581     100       4  42    0540f a70f     10.230 "
test,1583576394304954112,27," | 27  |   4685       5   4683       0 |   3    4      4556       127 |   3  23   42    0 6a0f |    2.014       0       4       0       4     23     23      0   4359     324       1  23    06a0f a70f     30.300 "
test,1583576394285659904,28," | 28  |   4685       5   4676       5 |   3    0      4312       369 |   1  30    0    0 4e0f |    1.983       0       5       0       5     30     30      0   4131     550       1  30    04e0f a70f      8.220 "
test,1583576394305650944,29," | 29  |   4685       3   4678       5 |   4    0      4138       545 |   5  42    0    0 540f |    4.974       0       4       0       4     42     42      0   3928     755       5  42    0540f a70f     30.270 "
test,1583576394282226176,30," | 30  |   4685       5   4679       2 |   4    1      4615        66 |  11  30   42    1 4e0f |    1.739       0       4       0       4     30     30      0   4450     231       2  30    14e0f a70f      6.480 "
test,1583576394284419072,35," | 35  |   4685       5   4679       2 |   5    1      4463       218 |   1  30   42    0 4e0f |    1.983       0       5       0       5     30     30      0   4364     317       1  30    04e0f a70f      8.190 "
test,1583576394291493888,40," | 40  |   4685       5   4612      65 |   5    0      4385       292 |   2  42    0    0 540f |    2.746       0       5       0       5     42     42      0   4274     403       2  42    0540f a70f     10.230 "
test,1583576394282443008,41," | 41  |   4685       5   4612      59 |   5    0      4634        37 |   4  42    0    0 540f |    2.014       0       5       0       5     42     42      0   4516     155       1  42    0540f a70f      8.280 "
test,1583576394284243200,42," | 42  |   4685       5   4620      61 |   5    0      4580       101 |   4  42    0    1 540f |    1.739       0       4       0       4     42     42      0   4476     205       2  42    1540f a70f      6.510 "
test,1583576394288621056,44," | 44  |   4685       5   4624      57 |   5    0      4583        98 |   2  42    0    0 540f |    2.044       0       5       0       5     42     42      0   4492     189       1  42    0540f a70f      8.820 "
test,1583576394289204992,45," | 45  |   4685       5   4638      43 |   5    0      4533       148 |   3  42    0    0 540f |    2.014       0       5       0       5     42     42      0   4448     233       1  42    0540f a70f      8.940 "
test,1583576394284934912,46," | 46  |   4685       5   4617      57 |   5    0      4466       208 |   2  42    0    0 540f |    1.953       0       5       0       5     42     42      0   4385     289       1  42    0540f a70f      8.160 "
test,1583576394285473024,47," | 47  |   4685       5   4624      57 |   5    0      4520       161 |   5  42    0    0 540f |    2.014       0       5       0       5     42     42      0   4440     241       1  42    0540f a70f      8.100 "
test,1583576394283107072,48," | 48  |   4685       5   4559      55 |   5    0      4506       108 |   1  42    0    0 540f |    2.014       0       5       0       5     42     42      0   4423     191       1  42    0540f a70f      8.130 "
test,1583576394282885120,49," | 49  |   4685       5   4675       0 |   5    0      4586        89 |   1  55    0    0 c20f |    1.983       0       5       0       5     55     55      0   4550     125       1  55    0c20f a70f      8.190 "
test,1583576394286252032,51," | 51  |   4685       5   4676       0 |   5    0      4632        44 |   3  55    0    0 c20f |    3.479       0       5       0       5     55     55      0   4615      61       3  55    0c20f a70f     10.410 "
test,1583576394306294016,52," | 52  |   4685       5   4652      25 |   4    1      4460       217 |   3  42   23    0 540f |    9.307       0       2       0       2     42     42      0   4368     309      11  42    0540f a70f     30.360 "
test,1583576394284729088,53," | 53  |   4685       5   4659       0 |   5    0      4404       255 |   1  55    0    0 c20f |    2.014       0       5       0       5     55     55      0   4356     303       1  55    0c20f a70f      8.130 "
test,1583576394289652224,54," | 54  |   4685       5   4677       0 |   5    0      4595        82 |   2  55    0    0 c20f |    2.807       0       5       0       5     55     55      0   4519     158       2  55    0c20f a70f     10.350 "
test,1583576394282688000,55," | 55  |   4685       5   4664       0 |   4    0      4489       175 |   4  55    0    1 c20f |    1.739       0       4       0       4     55     55      0   4453     211       2  55    1c20f a70f      6.510 "
test,1583576394294830080,56," | 56  |   4685       5   4667       0 |   5    0      4593        74 |   2  55    0    0 c20f |    2.777       0       5       0       5     55     55      0   4538     129       2  55    0c20f a70f     10.410 "
test,1583576394305912064,57," | 57  |   4685       5   4622       0 |   2    1      4505       117 |   2  55   42    0 c20f |    2.777       0       3       0       3     55     55      0   4229     393       2  55    0c20f a70f     30.360 "
test,1583576394292015104,58," | 58  |   4685       5   4676       0 |   5    0      4610        66 |   1  55    0    0 c20f |    2.044       0       5       0       5     55     55      0   4411     265       1  55    0c20f a70f      8.280 "
test,1583576394287223040,5," |  5  |   4685       5   4683       0 |   5    0      4270       413 |   3  55    0    0 c20f |    4.180       0       5       0       5     55     55      0   4191     492       4  55    0c20f a70f     10.230 "
test,1583576394286406144,60," | 60  |   4685       5   4676       0 |   5    0      4383       293 |   4  55    0    0 c20f |    3.509       0       5       0       5     55     55      0   4294     382       3  55    0c20f a70f     10.440 "
test,1583576394292979968,61," | 61  |   4685       5   4675       0 |   5    0      4460       215 |   2  55    0    0 c20f |    2.777       0       5       0       5     55     55      0   4304     371       2  55    0c20f a70f     10.440 "
test,1583576394285818112,7," |  7  |   4685       5   4682       0 |   5    0      4611        71 |   3  55    0    0 c20f |    3.509       0       5       0       5     55     55      0   4582     100       3  55    0c20f a70f      9.720 "
test,1583576394292577024,9," |  9  |   4685       5   4681       0 |   5    0      4518       163 |   3  55    0    0 c20f |    3.479       0       5       0       5     55     55      0   4498     183       3  55    0c20f a70f      9.690 "
