test,1583576394540258816,10," | 10  |   4686       5   4658       0 |   5    0      4583        75 |   2  55    0    0 610f |    2.777       0       5       0       5     55     55      0   4524     134       2  55    0610f a70f      9.750 "
test,1583576394533344000,12," | 12  |   4686       5   4680       4 |   5    0      4645        39 |   2  55    0    0 610f |    2.777       0       5       0       5     55     55      0   4575     109       2  55    0610f a70f      8.910 "
test,1583576394536608000,13," | 13  |   4686       5   4682       0 |   5    0      4648        34 |   3  55    0    0 610f |    3.509       0       5       0       5     55     55      0   4592      90       3  55    0610f a70f      9.720 "
test,1583576394535529984,15," | 15  |   4686       5   4677       7 |   5    0      4505       179 |   3  55    0    0 610f |    3.509       0       5       0       5     55     55      0   4309     375       3  55    0610f a70f      9.720 "
test,1583576394542264832,16," | 16  |   4686       5   4682       0 |   4    0      4512       170 |   1  23    0    0 b20f |    2.044       0       5       0       5     23     23      0   4386     296       1  23    0b20f a70f      9.660 "
test,1583576394537908992,17," | 17  |   4686       5   4676       6 |   5    0      4626        56 |   1  23    0    0 b20f |    2.014       0       5       0       5     23     23      0   4489     193       1  23    0b20f a70f      9.570 "
test,1583576394536016896,18," | 18  |   4686       5   4681       0 |   3    0      4411       270 |   2  23    0    0 b20f |    2.746       0       5       0       5     23     23      0   4221     460       2  23    0b20f a70f      8.940 "
test,1583576394538744832,19," | 19  |   4686       5   4672      10 |   5    0      4608        74 |   1  23    0    0 b20f |    2.014       0       5       0       5     23     23      0   4473     209       1  23    0b20f a70f     10.410 "
test,1583576394544102912,1," |  1  |   4686       4   4683       0 |   5    0      4567       116 |   3  55    0    0 610f |    4.913       0       5       0       5     55     55      0   4534     149       4  55    0610f a70f     11.100 "
test,1583576394540023040,22," | 22  |   4686       5   4680       0 |   5    0      4643        37 |   1  23    0    0 b20f |    2.014       0       5       0       5     23     23      0   4426     254       1  23    0b20f a70f      8.820 "
test,1583576394530720000,23," | 23  |   4686       5   4624       0 |   4    0      4604        20 |   2  23    0    1 b20f |    1.739       0       4       0       4     23     23      0   4507     117       2  23    1b20f a70f      6.480 "
test,1583576394533092864,24," | 24  |   4686       5   4680       2 |   5    0      4633        49 |   1  23    0    0 b20f |    1.983       0       5       0       5     23     23      0   4512     170       1  23    0b20f a70f      8.100 "
test,1583576394535297024,26," | 26  |   4686       5   4680       2 |   5    0      4665        17 |   1  23    0    0 b20f |    2.044       0       5       0       5     23     23      0   4582     100       1  23    0b20f a70f      8.970 "
test,1583576394556670976,27," | 27  |   4686       5   4684       0 |   5    0      4557       127 |   1  23    0    0 b20f |    1.983       0       3       0       3     23     23      0   4360     324       1  23    0b20f a70f     30.300 "
test,1583576394556229120,28," | 28  |   4686       5   4677       5 |   5    0      4313       369 |   2  23    0    0 b20f |    2.746       0       4       0       4     23     23      0   4132     550       2  23    0b20f a70f     30.360 "
test,1583576394554932992,29," | 29  |   4686       2   4679       5 |   0    3      4138       546 |   0  29   23    1 7a0f |    0           0       0       0       8      0      0      0   3928     756       0  29    17a0f a70f     30.210 "
test,1583576394536841984,30," | 30  |   4686       5   4680       2 |   5    0      4616        66 |   2  23    0    0 b20f |    2.746       0       5       0       5     23     23      0   4451     231       2  23    0b20f a70f      9.660 "
test,1583576394534212096,35," | 35  |   4686       5   4680       2 |   5    0      4464       218 |   2  23    0    0 b20f |    2.716       0       5       0       5     23     23      0   4365     317       2  23    0b20f a70f      8.910 "
test,1583576394555980800,40," | 40  |   4686       5   4613      65 |   5    4      4386       292 |   1  48   45    0 7e0f |    1.953       0       3       0       3     48     48      0   4275     403       1  48    07e0f a70f     30.360 "
test,1583576394533576960,41," | 41  |   4686       5   4613      59 |   5    0      4635        37 |   1  45    0    0 3c0f |    1.983       0       5       0       5     45     45      0   4517     155       1  45    03c0f a70f      8.250 "
test,1583576394535749888,42," | 42  |   4686       5   4621      61 |   5    0      4581       101 |   2  45    0    0 3c0f |    2.716       0       5       0       5     45     45      0   4477     205       2  45    03c0f a70f      9.690 "
test,1583576394534735872,44," | 44  |   4686       5   4625      57 |   5    0      4584        98 |   3  45    0    0 3c0f |    2.746       0       5       0       5     45     45      0   4493     189       2  45    03c0f a70f     10.320 "
test,1583576394541949952,45," | 45  |   4686       5   4639      43 |   5    0      4534       148 |   2  45    0    1 3c0f |    1.739       0       4       0       4     45     45      0   4449     233       2  45    13c0f a70f      6.510 "
test,1583576394541760000,46," | 46  |   4686       5   4618      57 |   5    0      4467       208 |   3  45    0    0 3c0f |    2.716       0       5       0       5     45     45      0   4386     289       2  45    03c0f a70f      8.910 "
test,1583576394537345024,47," | 47  |   4686       5   4625      57 |   5    0      4521       161 |   2  45    0    0 3c0f |    2.746       0       5       0       5     45     45      0   4441     241       2  45    03c0f a70f      8.820 "
test,1583576394553586944,48," | 48  |   4686       5   4560      55 |   4    6      4507       108 |   8  48   45    1 7e0f |    1.739       0       2       0       2     48     48      0   4424     191       2  48    17e0f a70f     30.300 "
test,1583576394532624896,49," | 49  |   4686       5   4676       0 |   5    0      4587        89 |   1  55    0    0 610f |    2.014       0       5       0       5     55     55      0   4551     125       1  55    0610f a70f      8.220 "
test,1583576394538062080,51," | 51  |   4686       5   4677       0 |   5    0      4633        44 |   3  55    0    0 610f |    3.479       0       5       0       5     55     55      0   4616      61       3  55    0610f a70f      9.690 "
test,1583576394539595008,52," | 52  |   4686       5   4653      25 |   5    0      4461       217 |   1  23    0    0 b20f |    1.983       0       5       0       5     23     23      0   4369     309       1  23    0b20f a70f      9.660 "
test,1583576394532408832,53," | 53  |   4686       5   4660       0 |   5    0      4405       255 |   1  55    0    0 610f |    2.014       0       5       0       5     55     55      0   4357     303       1  55    0610f a70f      8.070 "
test,1583576394537185024,54," | 54  |   4686       5   4678       0 |   4    0      4596        82 |   2  55    0    0 610f |    2.777       0       5       0       5     55     55      0   4520     158       2  55    0610f a70f      8.850 "
test,1583576394532849152,55," | 55  |   4686       5   4665       0 |   4    0      4490       175 |   2  55    0    1 610f |    1.739       0       4       0       4     55     55      0   4454     211       2  55    1610f a70f      6.510 "
test,1583576394538407936,56," | 56  |   4686       5   4668       0 |   5    0      4594        74 |   2  55    0    0 610f |    3.509       0       5       0       5     55     55      0   4539     129       3  55    0610f a70f     10.410 "
test,1583576394540615168,57," | 57  |   4686       5   4623       0 |   3    0      4506       117 |   3  23    0    0 b20f |    2.044       0       5       0       5     23     23      0   4230     393       1  23    0b20f a70f      8.190 "
test,1583576394536279808,58," | 58  |   4686       5   4677       0 |   5    0      4611        66 |   1  55    0    0 610f |    2.044       0       5       0       5     55     55      0   4412     265       1  55    0610f a70f      9.000 "
test,1583576394553321984,5," |  5  |   4686       5   4684       0 |   0    8      4270       414 |   0   5   55    1 5b0f |    0           0       0       0       8      0      0      0   4191     493       0   5    15b0f a70f     30.150 "
test,1583576394539234048,60," | 60  |   4686       5   4677       0 |   5    0      4384       293 |   3  55    0    0 610f |    4.211       0       5       0       5     55     55      0   4295     382       4  55    0610f a70f     10.380 "
test,1583576394537545984,61," | 61  |   4686       5   4676       0 |   4    0      4461       215 |   3  55    0    0 610f |    2.746       0       5       0       5     55     55      0   4305     371       2  55    0610f a70f      9.690 "
test,1583576394534003968,7," |  7  |   4686       5   4683       0 |   5    0      4612        71 |   3  55    0    0 610f |    3.509       0       5       0       5     55     55      0   4583     100       3  55    0610f a70f      9.720 "
test,1583576394534491136,9," |  9  |   4686       5   4682       0 |   5    0      4519       163 |   3  55    0    0 610f |    3.479       0       5       0       5     55     55      0   4499     183       3  55    0610f a70f      9.690 "
