test,1583576325282011904,10," | 10  |   4409       5   4381       0 |   5    0      4312        69 |   1   1    0    0 e90f |    1.373       0       5       0       5      1      1      0   4254     127       1   1    0e90f a70f      7.560 "
test,1583576325280729088,12," | 12  |   4409       5   4407       0 |   5    0      4373        34 |   1   1    0    0 e90f |    1.342       0       5       0       5      1      1      0   4307     100       1   1    0e90f a70f      7.470 "
test,1583576325282216192,13," | 13  |   4409       5   4405       0 |   5    0      4375        30 |   1   1    0    0 e90f |    1.373       0       5       0       5      1      1      0   4323      82       1   1    0e90f a70f      7.500 "
test,1583576325283490048,15," | 15  |   4409       5   4407       0 |   4    1      4242       165 |   2   1   44    0 e90f |    2.075       0       5       0       5      1      1      0   4057     350       2   1    0e90f a70f      8.280 "
test,1583576325285741056,16," | 16  |   4409       5   4405       0 |   5    0      4243       162 |   2  44    0    0 450f |    2.777       0       5       0       5     44     44      0   4126     279       2  44    0450f a70f      8.910 "
test,1583576325289712896,17," | 17  |   4409       5   4400       5 |   5    0      4354        51 |   2  44    0    0 450f |    2.777       0       5       0       5     44     44      0   4224     181       2  44    0450f a70f      8.820 "
test,1583576325287494912,18," | 18  |   4409       5   4404       0 |   5    0      4152       252 |   2  44    0    0 450f |    2.777       0       5       0       5     44     44      0   3973     431       2  44    0450f a70f      9.570 "
test,1583576325305655040,19," | 19  |   4409       5   4396       9 |   5    0      4337        68 |   3  44    0    0 450f |    2.777       0       4       0       4     44     44      0   4208     197       2  44    0450f a70f     30.300 "
test,1583576325275429888,1," |  1  |   4409       4   4406       0 |   4    0      4302       104 |   2   1    0    1 e90f |    1.739       0       4       0       4      1      1      0   4271     135       2   1    1e90f a70f      6.480 "
test,1583576325289149952,22," | 22  |   4409       5   4403       0 |   5    0      4366        37 |   2  44    0    0 450f |    2.807       0       5       0       5     44     44      0   4160     243       2  44    0450f a70f      8.880 "
test,1583576325285577984,23," | 23  |   4409       5   4347       0 |   5    0      4328        19 |   2  44    0    0 450f |    2.746       0       5       0       5     44     44      0   4235     112       2  44    0450f a70f      9.690 "
test,1583576325285965056,24," | 24  |   4409       5   4403       2 |   5    0      4360        45 |   1  44    0    0 450f |    2.075       0       5       0       5     44     44      0   4246     159       1  44    0450f a70f      8.220 "
test,1583576325281473024,26," | 26  |   4409       5   4403       2 |   5    0      4389        16 |   1  44    0    0 450f |    2.044       0       5       0       5     44     44      0   4308      97       1  44    0450f a70f      8.280 "
test,1583576325288764928,27," | 27  |   4409       5   4407       0 |   4    0      4285       122 |   3  44    0    0 450f |    3.540       0       5       0       5     44     44      0   4104     303       3  44    0450f a70f      9.600 "
test,1583576325304814080,28," | 28  |   4409       5   4400       5 |   4    0      4060       345 |   4  44    0    0 450f |    3.509       0       4       0       4     44     44      0   3894     511       3  44    0450f a70f     30.360 "
test,1583576325305430016,29," | 29  |   4409       5   4402       5 |   1    0      3903       504 |  12  44    0    0 450f |    3.540       0       4       0       4     44     44      0   3701     706       3  44    0450f a70f     30.240 "
test,1583576325285364992,30," | 30  |   4409       5   4403       2 |   5    0      4345        60 |   4  44    0    0 450f |    3.540       0       5       0       5     44     44      0   4187     218       3  44    0450f a70f     10.410 "
test,1583576325286478080,35," | 35  |   4409       5   4403       2 |   5    0      4197       208 |   3  44    0    0 450f |    3.509       0       5       0       5     44     44      0   4103     302       3  44    0450f a70f      9.690 "
test,1583576325303720960,40," | 40  |   4409       5   4341      60 |   5    0      4134       267 |   1  44    0    0 450f |    2.014       0       4       0       4     44     44      0   4032     369       1  44    0450f a70f     30.390 "
test,1583576325283108096,41," | 41  |   4409       5   4336      59 |   5    0      4359        36 |   1  44    0    0 450f |    2.044       0       5       0       5     44     44      0   4245     150       1  44    0450f a70f      9.030 "
test,1583576325282757888,42," | 42  |   4409       5   4344      61 |   5    0      4308        97 |   1  44    0    0 450f |    2.044       0       5       0       5     44     44      0   4207     198       1  44    0450f a70f      8.850 "
test,1583576325285136896,44," | 44  |   4409       5   4348      57 |   4    0      4308        97 |   4  44    0    1 450f |    1.739       0       4       0       4     44     44      0   4220     185       2  44    1450f a70f      7.920 "
test,1583576325284321024,45," | 45  |   4409       5   4362      43 |   5    0      4265       140 |   1  44    0    0 450f |    2.044       0       5       0       5     44     44      0   4182     223       1  44    0450f a70f      8.910 "
test,1583576325283688960,46," | 46  |   4409       5   4341      57 |   5    0      4200       198 |   1  44    0    0 450f |    2.014       0       5       0       5     44     44      0   4119     279       1  44    0450f a70f      8.970 "
test,1583576325283294976,47," | 47  |   4409       5   4348      57 |   5    0      4259       146 |   1  44    0    0 450f |    2.044       0       5       0       5     44     44      0   4176     229       1  44    0450f a70f      8.280 "
test,1583576325284610048,48," | 48  |   4409       5   4283      55 |   5    0      4235       103 |   1  44    0    0 450f |    2.075       0       5       0       5     44     44      0   4154     184       1  44    0450f a70f      9.000 "
test,1583576325303365120,49," | 49  |   4409       5   4399       0 |   5    0      4315        84 |   3   1    0    0 e90f |    2.777       0       2       0       2      1      1      0   4280     119       3   1    0e90f a70f     30.360 "
test,1583576325287197952,51," | 51  |   4409       5   4400       0 |   5    0      4361        39 |   1  60    0    0 b00f |    4.058       0       5       0       5     60     60      0   4343      57       4  60    0b00f a70f     10.230 "
test,1583576325288965888,52," | 52  |   4409       5   4377      24 |   5    0      4192       209 |   2  44    0    0 450f |    2.746       0       5       0       5     44     44      0   4104     297       2  44    0450f a70f      9.660 "
test,1583576325303160832,53," | 53  |   4409       5   4383       0 |   0    4      4150       233 |   0  53    1    1 d10f |    0           0       0       0       8      0      0      0   4103     280       0  53    1d10f a70f     30.210 "
test,1583576325280102912,54," | 54  |   4409       5   4401       0 |   5    0      4324        77 |   1   1    0    0 e90f |    1.342       0       5       0       5      1      1      0   4256     145       1   1    0e90f a70f      7.560 "
test,1583576325304367104,55," | 55  |   4409       5   4388       0 |   5    0      4222       166 |   3   1    0    0 e90f |    2.807       0       2       0       2      1      1      0   4187     201       3   1    0e90f a70f     30.330 "
test,1583576325290080000,56," | 56  |   4409       5   4391       0 |   5    0      4321        70 |   1  60    0    0 b00f |    4.821       0       5       0       5     60     60      0   4270     121       5  60    0b00f a70f     10.950 "
test,1583576325303927808,57," | 57  |   4409       5   4346       0 |   3    0      4237       109 |   5  44    0    0 450f |    2.807       0       4       0       4     44     44      0   3977     369       2  44    0450f a70f     30.240 "
test,1583576325281299968,58," | 58  |   4409       5   4400       0 |   5    0      4339        61 |   2   1    0    0 e90f |    2.105       0       5       0       5      1      1      0   4148     252       2   1    0e90f a70f      8.340 "
test,1583576325282386176,5," |  5  |   4409       5   4407       0 |   5    0      4018       389 |   2   1    0    0 e90f |    2.044       0       5       0       5      1      1      0   3943     464       2   1    0e90f a70f      8.280 "
test,1583576325284146176,60," | 60  |   4409       5   4400       0 |   5    0      4122       278 |   2  60    0    1 b00f |    3.814       0       4       0       4     60     60      0   4040     360       5  60    1b00f a70f      8.520 "
test,1583576325304579072,61," | 61  |   4409       5   4399       0 |   5    0      4203       196 |   2   1    0    0 e90f |    2.075       0       4       0       4      1      1      0   4059     340       2   1    0e90f a70f     30.390 "
test,1583576325279793152,7," |  7  |   4409       5   4406       0 |   5    0      4338        68 |   1   1    0    0 e90f |    1.342       0       5       0       5      1      1      0   4313      93       1   1    0e90f a70f      7.590 "
test,1583576325287031808,9," |  9  |   4409       5   4405       0 |   5    0      4251       154 |   1   1    0    0 e90f |    1.342       0       5       0       5      1      1      0   4232     173       1   1    0e90f a70f      7.500 "
