test,1583575329279077120,10," | 10  |    425       5    397       0 |   5    0       391         6 |   1   9    0    0 650f |    2.014       0       4       0       4      9      9      0    386      11       1   9    0650f a70f     30.300 "
test,1583575329286507008,12," | 12  |    425       5    423       0 |   5    0       418         5 |   1   9    0    0 650f |    2.014       0       3       0       3      9      9      0    410      13       1   9    0650f a70f     30.360 "
test,1583575329287638784,13," | 13  |    425       5    421       0 |   5    0       414         7 |   1   9    0    0 650f |    1.983       0       3       0       3      9      9      0    408      13       1   9    0650f a70f     30.390 "
test,1583575329279450880,15," | 15  |    425       5    423       0 |   5    0       409        14 |   2   9    0    0 650f |    2.685       0       3       0       3      9      9      0    391      32       2   9    0650f a70f     30.360 "
test,1583575329260701952,16," | 16  |    425       5    421       0 |   5    0       405        16 |   2  27    0    0 ac0f |    2.777       0       5       0       5     27     27      0    401      20       2  27    0ac0f a70f      8.940 "
test,1583575329264602880,17," | 17  |    425       5    421       0 |   5    0       415         6 |   1  27    0    0 ac0f |    1.983       0       5       0       5     27     27      0    402      19       1  27    0ac0f a70f      8.940 "
test,1583575329261971968,18," | 18  |    425       5    420       0 |   4    0       392        28 |   7  27    0    0 ac0f |    3.448       0       5       0       5     27     27      0    376      44       3  27    0ac0f a70f      9.630 "
test,1583575329262146048,19," | 19  |    425       5    420       1 |   5    0       416         5 |   1  27    0    0 ac0f |    1.983       0       5       0       5     27     27      0    404      17       1  27    0ac0f a70f      8.910 "
test,1583575329284861952,1," |  1  |    425       4    422       0 |   0   10       414         8 |   0   1    9    1 e90f |    0           0       0       0       8      0      0      0    410      12       0   1    1e90f a70f     30.240 "
test,1583575329260459008,22," | 22  |    425       5    419       0 |   5    0       414         5 |   4  27    0    0 ac0f |    2.746       0       5       0       5     27     27      0    398      21       2  27    0ac0f a70f      8.910 "
test,1583575329258505216,23," | 23  |    425       5    363       0 |   5    0       361         2 |   1  27    0    0 ac0f |    2.014       0       5       0       5     27     27      0    360       3       1  27    0ac0f a70f      8.100 "
test,1583575329260952832,24," | 24  |    425       5    421       0 |   5    0       418         3 |   4  27    0    0 ac0f |    3.448       0       5       0       5     27     27      0    412       9       3  27    0ac0f a70f      9.630 "
test,1583575329261310208,26," | 26  |    425       5    421       0 |   5    0       418         3 |   3  27    0    0 ac0f |    2.746       0       5       0       5     27     27      0    412       9       2  27    0ac0f a70f      9.660 "
test,1583575329263087104,27," | 27  |    425       5    423       0 |   4    0       412        11 |   4  27    0    1 ac0f |    1.739       0       4       0       4     27     27      0    395      28       2  27    1ac0f a70f      8.640 "
test,1583575329282469120,28," | 28  |    425       5    421       0 |   3    2       390        31 |   6  20   27    0 e10f |    3.479       0       3       0       3     20     20      0    378      43       3  20    0e10f a70f     30.390 "
test,1583575329263958016,29," | 29  |    425       5    421       2 |   4    0       377        46 |   1  27    0    0 ac0f |    1.983       0       5       0       5     27     27      0    352      71       1  27    0ac0f a70f      8.790 "
test,1583575329260160000,30," | 30  |    425       5    421       0 |   5    1       418         3 |   1  20   27    0 e10f |    2.044       0       5       0       5     20     20      0    408      13       1  20    0e10f a70f      8.190 "
test,1583575329262583040,35," | 35  |    425       5    421       0 |   4    3       404        17 |   2  20   27    0 e10f |    2.777       0       5       0       5     20     20      0    400      21       2  20    0e10f a70f      8.850 "
test,1583575329282643968,40," | 40  |    425       5    409       8 |   4    2       380        37 |   2  46   27    0 e70f |    2.044       0       2       0       2     46     46      0    367      50       1  46    0e70f a70f     30.360 "
test,1583575329281424128,41," | 41  |    425       5    402       9 |   4    1       407         4 |   1  46   27    0 e70f |    2.075       0       2       0       2     46     46      0    399      12       1  46    0e70f a70f     30.360 "
test,1583575329282060032,42," | 42  |    425       5    411      10 |   4    1       406        15 |   1  46   27    0 e70f |    2.075       0       2       0       2     46     46      0    396      25       1  46    0e70f a70f     30.300 "
test,1583575329282248960,44," | 44  |    425       5    412       9 |   4    3       413         8 |   1  46   27    0 e70f |    2.044       0       2       0       2     46     46      0    403      18       1  46    0e70f a70f     30.300 "
test,1583575329283539968,45," | 45  |    425       5    414       7 |   4    1       397        24 |   2  46   27    0 e70f |    2.838       0       2       0       2     46     46      0    390      31       2  46    0e70f a70f     30.330 "
test,1583575329283078912,46," | 46  |    425       5    405       9 |   4    0       403        11 |   2  46    0    1 e70f |    1.739       0       2       0       2     46     46      0    394      20       2  46    1e70f a70f     30.300 "
test,1583575329283351808,47," | 47  |    425       5    412       9 |   4    1       408        13 |   2  46   27    0 e70f |    4.211       0       1       0       1     46     46      0    403      18       4  46    0e70f a70f     30.360 "
test,1583575329282818048,48," | 48  |    425       5    347       7 |   4    2       343        11 |   1  46   27    0 e70f |    2.044       0       2       0       2     46     46      0    332      22       1  46    0e70f a70f     30.300 "
test,1583575329258305024,49," | 49  |    425       5    415       0 |   4    0       409         6 |   4  49    0    1 c50f |    1.770       0       4       0       4     49     49      0    407       8       2  49    1c50f a70f      6.510 "
test,1583575329279275008,51," | 51  |    425       5    416       0 |   5    0       412         4 |   2   9    0    0 650f |    4.150       0       3       0       3      9      9      0    412       4       4   9    0650f a70f     30.390 "
test,1583575329265142016,52," | 52  |    425       4    413       4 |   5    0       396        21 |   2  27    0    0 ac0f |    2.746       0       5       0       5     27     27      0    388      29       2  27    0ac0f a70f      8.910 "
test,1583575329259731968,53," | 53  |    425       5    399       0 |   5    0       380        19 |   1  49    0    0 c50f |    2.044       0       5       0       5     49     49      0    379      20       1  49    0c50f a70f      8.280 "
test,1583575329287260160,54," | 54  |    425       5    417       0 |   1    5       414         3 |   1   9    1    0 650f |    2.014       0       3       0       3      9      9      0    403      14       1   9    0650f a70f     30.390 "
test,1583575329259100928,55," | 55  |    425       5    404       0 |   5    0       387        17 |   1  49    0    0 c50f |    2.075       0       5       0       5     49     49      0    387      17       1  49    0c50f a70f      8.310 "
test,1583575329269803008,56," | 56  |    425       5    407       0 |   4    0       396        11 |   7  60    0    0 bc0f |    2.014       0       5       0       5     60     60      0    393      14       1  60    0bc0f a70f     15.120 "
test,1583575329284009984,57," | 57  |    425       5    362       0 |   4    9       347        15 |   2  49   60    0 c50f |    9.368       0       1       0       1     49     49      0    328      34      11  49    0c50f a70f     30.360 "
test,1583575329259321856,58," | 58  |    425       5    416       0 |   5    0       411         5 |   1  49    0    0 c50f |    2.044       0       5       0       5     49     49      0    403      13       1  49    0c50f a70f      8.160 "
test,1583575329277607936,5," |  5  |    425       5    423       0 |   5    0       384        39 |   2   9    0    0 650f |    2.716       0       3       0       3      9      9      0    373      50       2   9    0650f a70f     30.300 "
test,1583575329267571968,60," | 60  |    425       5    416       0 |   3    1       395        21 |   8  60    9    1 bc0f |   10.284       0       4       0       4     60     60      0    393      23      14  60    1bc0f a70f     14.850 "
test,1583575329261154048,61," | 61  |    425       5    415       0 |   5    0       402        13 |   2  49    0    0 c50f |    2.807       0       5       0       5     49     49      0    390      25       2  49    0c50f a70f      8.850 "
test,1583575329287817984,7," |  7  |    425       5    422       0 |   5    0       415         7 |   1   9    0    0 650f |    1.983       0       3       0       3      9      9      0    415       7       1   9    0650f a70f     30.390 "
test,1583575329288140032,9," |  9  |    425       5    421       0 |   4    0       400        21 |   4   9    0    1 650f |    1.739       0       3       0       3      9      9      0    398      23       2   9    1650f a70f     30.300 "
