test,1583575333281498880,10," | 10  |    441       5    413       0 |   4    9       406         7 |   5  10    1    1 bb0f |    8.331       0       1       0       1     10     10      0    400      13      11  10    1bb0f a70f     30.300 "
test,1583575333262001152,12," | 12  |    441       5    439       0 |   5    1       434         5 |   1   1   10    0 e90f |    1.312       0       5       0       5      1      1      0    425      14       1   1    0e90f a70f      8.160 "
test,1583575333258435072,13," | 13  |    441       5    437       0 |   5    4       430         7 |   1   1   10    0 e90f |    1.342       0       5       0       5      1      1      0    423      14       1   1    0e90f a70f      7.590 "
test,1583575333263230976,15," | 15  |    441       5    439       0 |   5    1       423        16 |   2   1   16    0 e90f |    2.044       0       5       0       5      1      1      0    404      35       2   1    0e90f a70f      8.970 "
test,1583575333259553792,16," | 16  |    441       5    437       0 |   4    0       421        16 |   2  16    0    1 c40f |    1.739       0       4       0       4     16     16      0    416      21       2  16    1c40f a70f      6.510 "
test,1583575333261384960,17," | 17  |    441       5    437       0 |   5    0       430         7 |   1  16    0    0 c40f |    2.075       0       5       0       5     16     16      0    416      21       1  16    0c40f a70f      8.940 "
test,1583575333282386944,18," | 18  |    441       5    436       0 |   1    9       407        29 |   2  30   16    0  90f |    2.746       0       1       0       1     30     30      0    390      46       2  30    0 90f a70f     30.330 "
test,1583575333262404864,19," | 19  |    441       5    436       1 |   5    0       432         5 |   2  16    0    0 c40f |    3.540       0       5       0       5     16     16      0    419      18       3  16    0c40f a70f      9.600 "
test,1583575333257686016,1," |  1  |    441       4    438       0 |   4    5       430         8 |   5   1   10    1 e90f |    1.739       0       4       0       4      1      1      0    426      12       2   1    1e90f a70f      6.480 "
test,1583575333280477952,22," | 22  |    441       5    435       0 |   1    8       430         5 |   1  30   10    0  90f |    2.044       0       1       0       1     30     30      0    413      22       1  30    0 90f a70f     30.390 "
test,1583575333260112128,23," | 23  |    441       5    379       0 |   5    0       377         2 |   1  16    0    0 c40f |    2.044       0       5       0       5     16     16      0    375       4       1  16    0c40f a70f      8.280 "
test,1583575333271636992,24," | 24  |    441       5    437       0 |   5    0       433         4 |   2  16    0    0 c40f |    2.777       0       5       0       5     16     16      0    427      10       2  16    0c40f a70f      8.910 "
test,1583575333265449984,26," | 26  |    441       5    437       0 |   5    0       434         3 |   1  16    0    0 c40f |    2.044       0       5       0       5     16     16      0    428       9       1  16    0c40f a70f      8.310 "
test,1583575333263044096,27," | 27  |    441       5    439       0 |   5    0       427        12 |   2  16    0    0 c40f |    2.807       0       5       0       5     16     16      0    409      30       2  16    0c40f a70f     10.410 "
test,1583575333259813120,28," | 28  |    441       4    437       0 |   5    0       403        34 |   1  30    0    0  90f |    2.044       0       5       0       5     30     30      0    391      46       1  30    0 90f a70f      8.160 "
test,1583575333262216960,29," | 29  |    441       4    437       2 |   5    0       391        48 |   3  16    0    0 c40f |    3.540       0       5       0       5     16     16      0    366      73       3  16    0c40f a70f     10.410 "
test,1583575333259329024,30," | 30  |    441       5    437       0 |   4    0       434         3 |   2  30    0    1  90f |    1.739       0       4       0       4     30     30      0    424      13       2  30    1 90f a70f      6.510 "
test,1583575333260331008,35," | 35  |    441       5    437       0 |   5    0       419        18 |   1  30    0    0  90f |    2.014       0       5       0       5     30     30      0    415      22       1  30    0 90f a70f      8.070 "
test,1583575333264212992,40," | 40  |    441       5    425       8 |   4    0       396        37 |   2  16    0    0 c40f |    2.777       0       5       0       5     16     16      0    383      50       2  16    0c40f a70f      9.540 "
test,1583575333269732864,41," | 41  |    441       5    418       9 |   5    0       423         4 |   1  16    0    0 c40f |    2.075       0       5       0       5     16     16      0    415      12       1  16    0c40f a70f      9.000 "
test,1583575333271272960,42," | 42  |    441       5    427      10 |   5    0       422        15 |   2  16    0    0 c40f |    2.777       0       5       0       5     16     16      0    412      25       2  16    0c40f a70f      9.750 "
test,1583575333275739904,44," | 44  |    441       5    428       9 |   5    0       429         8 |   2  16    0    0 c40f |    2.807       0       5       0       5     16     16      0    419      18       2  16    0c40f a70f      9.000 "
test,1583575333265911040,45," | 45  |    441       5    430       7 |   5    0       413        24 |   1  16    0    0 c40f |    2.807       0       5       0       5     16     16      0    406      31       2  16    0c40f a70f      9.750 "
test,1583575333263624960,46," | 46  |    441       5    421       9 |   5    0       418        12 |   2  16    0    0 c40f |    2.807       0       5       0       5     16     16      0    409      21       2  16    0c40f a70f      9.720 "
test,1583575333267645952,47," | 47  |    441       5    428       9 |   5    0       423        14 |   2  16    0    0 c40f |    2.807       0       5       0       5     16     16      0    418      19       2  16    0c40f a70f      9.690 "
test,1583575333264410880,48," | 48  |    441       5    363       7 |   4    0       359        11 |   2  16    0    0 c40f |    2.746       0       5       0       5     16     16      0    348      22       2  16    0c40f a70f      9.690 "
test,1583575333261782016,49," | 49  |    441       5    431       0 |   5    0       425         6 |   4   1    0    0 e90f |    2.777       0       5       0       5      1      1      0    423       8       3   1    0e90f a70f      9.000 "
test,1583575333266361856,51," | 51  |    441       5    432       0 |   5    0       428         4 |   2  10    0    0 bb0f |    2.044       0       5       0       5     10     10      0    428       4       1  10    0bb0f a70f      9.630 "
test,1583575333280877056,52," | 52  |    441       5    429       4 |   5    0       411        22 |   1  16    0    0 c40f |    2.746       0       3       0       3     16     16      0    403      30       2  16    0c40f a70f     30.390 "
test,1583575333269510144,53," | 53  |    441       5    415       0 |   5    0       395        20 |   4   1    0    0 e90f |    2.777       0       5       0       5      1      1      0    394      21       3   1    0e90f a70f      9.570 "
test,1583575333278717952,54," | 54  |    441       5    433       0 |   5    1       430         3 |   1   1   10    0 e90f |    1.373       0       4       0       4      1      1      0    419      14       1   1    0e90f a70f     30.300 "
test,1583575333266185984,55," | 55  |    441       5    420       0 |   5    0       402        18 |   4   1    0    0 e90f |    2.807       0       5       0       5      1      1      0    402      18       3   1    0e90f a70f      9.030 "
test,1583575333262624000,56," | 56  |    441       5    423       0 |   5    0       412        11 |   1  10    0    0 bb0f |    2.044       0       5       0       5     10     10      0    409      14       1  10    0bb0f a70f      8.880 "
test,1583575333264636160,57," | 57  |    441       5    378       0 |   1    1       362        16 |  12  10    1    0 bb0f |    3.509       0       5       0       5     10     10      0    342      36       3  10    0bb0f a70f      9.690 "
test,1583575333280051968,58," | 58  |    441       5    432       0 |   5    0       427         5 |   3   1    0    0 e90f |    2.075       0       4       0       4      1      1      0    419      13       2   1    0e90f a70f     30.390 "
test,1583575333259158016,5," |  5  |    441       5    439       0 |   5    0       399        40 |   2   1    0    0 e90f |    2.075       0       5       0       5      1      1      0    387      52       2   1    0e90f a70f      8.310 "
test,1583575333263451136,60," | 60  |    441       5    432       0 |   5    0       409        23 |   2  10    0    0 bb0f |    2.746       0       5       0       5     10     10      0    407      25       2  10    0bb0f a70f      8.940 "
test,1583575333279059968,61," | 61  |    441       5    431       0 |   5    0       418        13 |   2   1    0    0 e90f |    2.105       0       3       0       3      1      1      0    406      25       2   1    0e90f a70f     30.360 "
test,1583575333257899008,7," |  7  |    441       5    438       0 |   5    4       430         8 |   1   1   10    0 e90f |    1.312       0       5       0       5      1      1      0    430       8       1   1    0e90f a70f      7.560 "
test,1583575333258934016,9," |  9  |    441       5    437       0 |   5    3       416        21 |   1   1   10    0 e90f |    1.342       0       5       0       5      1      1      0    414      23       1   1    0e90f a70f      7.410 "
