test,1583576422555619072,10," | 10  |   4798       5   4770       0 |   5    0      4693        77 |   4  57    0    0 180f |    2.716       0       4       0       4     57     57      0   4633     137       2  57    0180f a70f     30.300 "
test,1583576422555063040,12," | 12  |   4798       5   4787       9 |   5    0      4753        43 |   5  57    0    0 180f |    4.943       0       1       0       1     57     57      0   4673     123       5  57    0180f a70f     30.360 "
test,1583576422537576960,13," | 13  |   4798       5   4794       0 |   5    0      4757        37 |   6  57    0    0 180f |    3.479       0       5       0       5     57     57      0   4697      97       3  57    0180f a70f     10.380 "
test,1583576422552950016,15," | 15  |   4798       5   4781      15 |   5    0      4611       185 |   6  57    0    0 180f |    0           0       0       0       8      0      0      0   4396     400       0  57    0180f a70f     30.390 "
test,1583576422558057984,16," | 16  |   4798       5   4794       0 |   5    8      4621       173 |   1  45   57    0 770f |    2.044       0       2       0       2     45     45      0   4493     301       1  45    0770f a70f     30.360 "
test,1583576422556027904,17," | 17  |   4798       5   4787       7 |   5    0      4736        58 |   4  57    0    0 180f |    2.716       0       4       0       4     57     57      0   4596     198       2  57    0180f a70f     30.360 "
test,1583576422537755136,18," | 18  |   4798       5   4793       0 |   5    0      4517       276 |   2  57    0    0 180f |    3.479       0       5       0       5     57     57      0   4324     469       3  57    0180f a70f      9.660 "
test,1583576422556417024,19," | 19  |   4798       5   4783      11 |   1    8      4718        76 |   5  19   57    1 640f |    5.981       0       1       0       1     19     19      0   4580     214       8  19    1640f a70f     30.240 "
test,1583576422554637056,1," |  1  |   4798       4   4795       0 |   5    0      4676       119 |   5  57    0    0 180f |    4.150       0       4       0       4     57     57      0   4644     151       3  57    0180f a70f     30.300 "
test,1583576422535846912,22," | 22  |   4798       5   4792       0 |   5    0      4754        38 |   1  57    0    0 180f |    2.716       0       5       0       5     57     57      0   4534     258       2  57    0180f a70f      8.910 "
test,1583576422536133120,23," | 23  |   4798       5   4736       0 |   5    0      4715        21 |   1  57    0    0 180f |    2.014       0       5       0       5     57     57      0   4618     118       1  57    0180f a70f     10.320 "
test,1583576422534833920,24," | 24  |   4798       5   4792       2 |   5    0      4745        49 |   3  57    0    0 180f |    2.746       0       5       0       5     57     57      0   4622     172       2  57    0180f a70f      8.880 "
test,1583576422538276864,26," | 26  |   4798       5   4792       2 |   5    0      4775        19 |   1  57    0    0 180f |    2.014       0       5       0       5     57     57      0   4692     102       1  57    0180f a70f      9.510 "
test,1583576422559124992,27," | 27  |   4798       5   4796       0 |   4    4      4663       133 |   7  57   19    0 180f |    2.746       0       4       0       4     57     57      0   4463     333       2  57    0180f a70f     30.360 "
test,1583576422534585088,28," | 28  |   4798       5   4788       6 |   5    0      4411       383 |   1  30    0    0 d80f |    2.014       0       5       0       5     30     30      0   4225     569       1  30    0d80f a70f      8.940 "
test,1583576422557240064,29," | 29  |   4798       5   4791       5 |   3    4      4233       563 |   1  19   57    0 640f |    2.044       0       4       0       4     19     19      0   4022     774       1  19    0640f a70f     30.330 "
test,1583576422533085952,30," | 30  |   4798       5   4792       2 |   5    0      4728        66 |   2  30    0    1 d80f |    1.739       0       4       0       4     30     30      0   4557     237       2  30    1d80f a70f      6.480 "
test,1583576422538987008,35," | 35  |   4798       5   4792       2 |   5    0      4570       224 |   1  30    0    0 d80f |    2.014       0       5       0       5     30     30      0   4468     326       1  30    0d80f a70f      8.130 "
test,1583576422537218048,40," | 40  |   4798       5   4725      65 |   5    3      4492       298 |   1  45   57    0 770f |    2.746       0       5       0       5     45     45      0   4377     413       2  45    0770f a70f     11.100 "
test,1583576422536717824,41," | 41  |   4798       5   4725      59 |   5    1      4746        38 |   1  45   57    0 770f |    2.014       0       5       0       5     45     45      0   4626     158       1  45    0770f a70f     10.410 "
test,1583576422537991936,42," | 42  |   4798       5   4732      62 |   5    1      4691       103 |   1  45   57    0 770f |    2.044       0       5       0       5     45     45      0   4585     209       1  45    0770f a70f      9.000 "
test,1583576422532656896,44," | 44  |   4798       5   4737      57 |   5    3      4695        99 |   1  45   57    0 770f |    2.014       0       5       0       5     45     45      0   4603     191       1  45    0770f a70f      8.130 "
test,1583576422534141184,45," | 45  |   4798       5   4751      43 |   4    0      4643       151 |   5  45    0    1 770f |    1.739       0       4       0       4     45     45      0   4556     238       2  45    1770f a70f      7.200 "
test,1583576422537393152,46," | 46  |   4798       5   4730      57 |   5    0      4574       213 |   1  45    0    0 770f |    2.044       0       5       0       5     45     45      0   4491     296       1  45    0770f a70f      9.600 "
test,1583576422538499072,47," | 47  |   4798       5   4737      57 |   5    4      4631       163 |   1  45   57    0 770f |    2.044       0       5       0       5     45     45      0   4550     244       1  45    0770f a70f      8.190 "
test,1583576422545315072,48," | 48  |   4798       5   4672      55 |   5    3      4617       110 |   1  45   57    0 770f |    2.075       0       5       0       5     45     45      0   4533     194       1  45    0770f a70f      8.910 "
test,1583576422538640128,49," | 49  |   4798       5   4788       0 |   5    0      4694        94 |   2  57    0    0 180f |    3.479       0       5       0       5     57     57      0   4658     130       3  57    0180f a70f      9.660 "
test,1583576422533394176,51," | 51  |   4798       5   4789       0 |   5    0      4745        44 |   1  57    0    0 180f |    2.716       0       5       0       5     57     57      0   4728      61       2  57    0180f a70f      8.850 "
test,1583576422535533056,52," | 52  |   4798       4   4764      26 |   5    0      4565       225 |   4  57    0    0 180f |    2.716       0       5       0       5     57     57      0   4472     318       2  57    0180f a70f     10.260 "
test,1583576422545777920,53," | 53  |   4798       5   4772       0 |   5    0      4512       260 |   3  57    0    0 180f |    4.211       0       5       0       5     57     57      0   4462     310       4  57    0180f a70f     10.230 "
test,1583576422553886976,54," | 54  |   4798       5   4790       0 |   5    0      4707        83 |   4  57    0    0 180f |    2.716       0       4       0       4     57     57      0   4629     161       2  57    0180f a70f     30.240 "
test,1583576422536343040,55," | 55  |   4798       5   4777       0 |   5    0      4597       180 |   2  57    0    0 180f |    3.479       0       5       0       5     57     57      0   4560     217       3  57    0180f a70f      9.510 "
test,1583576422532855040,56," | 56  |   4798       5   4780       0 |   5    0      4704        76 |   1  57    0    0 180f |    1.983       0       5       0       5     57     57      0   4648     132       1  57    0180f a70f      8.190 "
test,1583576422534291968,57," | 57  |   4798       5   4735       0 |   4    0      4615       120 |   4  57    0    1 180f |    1.739       0       4       0       4     57     57      0   4333     402       2  57    1180f a70f      6.480 "
test,1583576422540111104,58," | 58  |   4798       5   4789       0 |   5    0      4721        68 |   1  57    0    0 180f |    2.716       0       5       0       5     57     57      0   4517     272       2  57    0180f a70f      8.910 "
test,1583576422553612032,5," |  5  |   4798       5   4796       0 |   0   10      4370       426 |   0   5   57    1 a00f |    0           0       0       0       8      0      0      0   4288     508       0   5    1a00f a70f     30.180 "
test,1583576422533915136,60," | 60  |   4798       5   4789       0 |   5    0      4486       303 |   1  57    0    0 180f |    2.014       0       5       0       5     57     57      0   4396     393       1  57    0180f a70f      8.130 "
test,1583576422535068160,61," | 61  |   4798       5   4788       0 |   5    0      4570       218 |   1  57    0    0 180f |    1.983       0       5       0       5     57     57      0   4410     378       1  57    0180f a70f      8.130 "
test,1583576422554280960,7," |  7  |   4798       5   4795       0 |   5    0      4722        73 |   5  57    0    0 180f |    4.211       0       4       0       4     57     57      0   4692     103       4  57    0180f a70f     30.300 "
test,1583576422550247936,9," |  9  |   4798       5   4794       0 |   0   10      4626       168 |   0   9   57    1 5a0f |    0           0       0       0       8      0      0      0   4606     188       0   9    15a0f a70f     30.180 "
