test,1583576401803386880,10," | 10  |   4715       5   4687       0 |   5    2      4612        75 |   1   9    1    0 400f |    4.089       0       2       0       2      9      9      0   4553     134       4   9    0400f a70f     30.330 "
test,1583576401782543872,12," | 12  |   4715       5   4709       4 |   5    1      4674        39 |   1   1   61    0 1b0f |    1.342       0       5       0       5      1      1      0   4601     112       1   1    01b0f a70f      7.380 "
test,1583576401781325056,13," | 13  |   4715       5   4711       0 |   5    0      4676        35 |   1   1    0    0 1b0f |    1.373       0       5       0       5      1      1      0   4619      92       1   1    01b0f a70f      7.410 "
test,1583576401805020160,15," | 15  |   4715       5   4706       7 |   5    1      4533       180 |   2   1   27    0 1b0f |    2.075       0       4       0       4      1      1      0   4332     381       2   1    01b0f a70f     30.330 "
test,1583576401785168896,16," | 16  |   4715       5   4711       0 |   5    0      4541       170 |   2  22    0    0 760f |    2.746       0       5       0       5     22     22      0   4414     297       2  22    0760f a70f      8.970 "
test,1583576401785029888,17," | 17  |   4715       5   4705       6 |   5    0      4653        58 |   1  22    0    0 760f |    2.044       0       5       0       5     22     22      0   4515     196       1  22    0760f a70f      9.690 "
test,1583576401784641024,18," | 18  |   4715       5   4710       0 |   5    0      4438       272 |   1  22    0    0 760f |    2.075       0       5       0       5     22     22      0   4248     462       1  22    0760f a70f      8.130 "
test,1583576401807127040,19," | 19  |   4715       5   4701      10 |   5    0      4636        75 |   2  22    0    0 760f |    2.746       0       4       0       4     22     22      0   4499     212       2  22    0760f a70f     30.390 "
test,1583576401803891968,1," |  1  |   4715       4   4712       0 |   4    1      4595       117 |   8   1   61    1 1b0f |    6.011       0       2       0       2      1      1      0   4562     150       8   1    11b0f a70f     30.300 "
test,1583576401787104000,22," | 22  |   4715       5   4709       0 |   4    0      4671        38 |   2  22    0    1 760f |    1.770       0       4       0       4     22     22      0   4454     255       2  22    1760f a70f      7.230 "
test,1583576401784077824,23," | 23  |   4715       5   4653       0 |   5    0      4632        21 |   1  22    0    0 760f |    2.044       0       5       0       5     22     22      0   4535     118       1  22    0760f a70f      8.280 "
test,1583576401783346944,24," | 24  |   4715       5   4709       2 |   5    0      4662        49 |   1  22    0    0 760f |    2.014       0       5       0       5     22     22      0   4541     170       1  22    0760f a70f      8.970 "
test,1583576401783155968,26," | 26  |   4715       5   4709       2 |   5    0      4694        17 |   1  22    0    0 760f |    2.044       0       5       0       5     22     22      0   4611     100       1  22    0760f a70f      8.160 "
test,1583576401807442944,27," | 27  |   4715       5   4713       0 |   4    6      4583       130 |   8  27    1    1 ea0f |    8.087       0       1       0       1     27     27      0   4386     327      11  27    1ea0f a70f     30.270 "
test,1583576401807287040,28," | 28  |   4715       5   4706       5 |   4    1      4338       373 |   4  30   22    0 5d0f |    1.983       0       1       0       1     30     30      0   4154     557       1  30    05d0f a70f     30.360 "
test,1583576401806840832,29," | 29  |   4715       4   4708       5 |   5    3      4163       550 |   4  27   22    0 ea0f |    2.075       0       3       0       3     27     27      0   3954     759       1  27    0ea0f a70f     30.330 "
test,1583576401807728896,30," | 30  |   4715       5   4709       2 |   2    0      4645        66 |  14  30    0    1 5d0f |    5.950       0       1       0       1     30     30      0   4477     234       8  30    15d0f a70f     30.300 "
test,1583576401805463040,35," | 35  |   4715       5   4709       2 |   1    3      4490       221 |   5  22   30    0 760f |    3.540       0       3       0       3     22     22      0   4390     321       3  22    0760f a70f     30.330 "
test,1583576401805702912,40," | 40  |   4715       5   4642      65 |   5    0      4413       294 |   2  22    0    0 760f |    7.141       0       3       0       3     22     22      0   4302     405       8  22    0760f a70f     30.360 "
test,1583576401803034112,41," | 41  |   4715       5   4642      59 |   0   10      4663        38 |   0  41   44    1 620f |    0           0       0       0       8      0      0      0   4545     156       0  41    1620f a70f     30.180 "
test,1583576401809246976,42," | 42  |   4715       5   4650      61 |   3   12      4609       102 |   1  22   44    0 760f |    7.171       0       2       0       2     22     22      0   4505     206       8  22    0760f a70f     30.390 "
test,1583576401806520064,44," | 44  |   4715       5   4654      57 |   4   10      4612        99 |   5  44   41    1  a0f |    1.739       0       2       0       2     44     44      0   4521     190       2  44    1 a0f a70f     30.300 "
test,1583576401809118976,45," | 45  |   4715       5   4668      43 |   5    6      4563       148 |   1  44   41    0  a0f |    1.983       0       3       0       3     44     44      0   4478     233       1  44    0 a0f a70f     30.300 "
test,1583576401804754944,46," | 46  |   4715       5   4647      57 |   0    5      4494       210 |   0  46   44    1 c20f |    0           0       0       0       8      0      0      0   4413     291       0  46    1c20f a70f     30.150 "
test,1583576401808595968,47," | 47  |   4715       5   4654      57 |   3   12      4550       161 |   2  22   44    0 760f |    7.141       0       2       0       2     22     22      0   4470     241       8  22    0760f a70f     30.300 "
test,1583576401806117888,48," | 48  |   4715       5   4589      55 |   5    0      4534       110 |   1  22    0    0 760f |   10.070       0       2       0       2     22     22      0   4451     193      12  22    0760f a70f     30.360 "
test,1583576401784493824,49," | 49  |   4715       5   4705       0 |   5    0      4615        90 |   2  61    0    0 5a0f |    2.777       0       5       0       5     61     61      0   4579     126       2  61    05a0f a70f      8.820 "
test,1583576401782373888,51," | 51  |   4715       5   4706       0 |   5    0      4662        44 |   1   1    0    0 1b0f |    1.342       0       5       0       5      1      1      0   4645      61       1   1    01b0f a70f      7.590 "
test,1583576401806991104,52," | 52  |   4715       5   4682      25 |   5    0      4488       219 |   2  22    0    0 760f |    2.777       0       4       0       4     22     22      0   4396     311       2  22    0760f a70f     30.330 "
test,1583576401785611008,53," | 53  |   4715       5   4689       0 |   5    0      4432       257 |   3  61    0    0 5a0f |    3.479       0       5       0       5     61     61      0   4383     306       3  61    05a0f a70f      9.660 "
test,1583576401804454144,54," | 54  |   4715       5   4707       0 |   1   14      4625        82 |   2  61    9    0 5a0f |    2.777       0       1       0       1     61     61      0   4549     158       2  61    05a0f a70f     30.360 "
test,1583576401786770176,55," | 55  |   4715       5   4694       0 |   5    0      4518       176 |   2  61    0    0 5a0f |    2.746       0       5       0       5     61     61      0   4481     213       2  61    05a0f a70f      8.910 "
test,1583576401782934784,56," | 56  |   4715       5   4697       0 |   5    0      4622        75 |   2   1    0    0 1b0f |    2.044       0       5       0       5      1      1      0   4567     130       2   1    01b0f a70f      8.250 "
test,1583576401801389824,57," | 57  |   4715       5   4652       0 |   2    4      4535       117 |   1  22   61    0 760f |    0           0       0       0       8      0      0      0   4257     395       0  22    0760f a70f     30.360 "
test,1583576401805854976,58," | 58  |   4715       5   4706       0 |   5    1      4640        66 |   1  61    1    0 5a0f |    2.014       0       4       0       4     61     61      0   4440     266       1  61    05a0f a70f     30.390 "
test,1583576401781920000,5," |  5  |   4715       5   4713       0 |   5    0      4295       418 |   2   1    0    0 1b0f |    2.075       0       5       0       5      1      1      0   4215     498       2   1    01b0f a70f      8.160 "
test,1583576401783464960,60," | 60  |   4715       5   4706       0 |   5    0      4412       294 |   2   1    0    0 1b0f |    2.105       0       5       0       5      1      1      0   4323     383       2   1    01b0f a70f      8.160 "
test,1583576401788013056,61," | 61  |   4715       5   4705       0 |   3    3      4489       216 |   3  61    9    1 5a0f |    1.770       0       4       0       4     61     61      0   4332     373       2  61    15a0f a70f      6.510 "
test,1583576401782185984,7," |  7  |   4715       5   4712       0 |   5    0      4639        73 |   1   1    0    0 1b0f |    1.342       0       5       0       5      1      1      0   4610     102       1   1    01b0f a70f      8.130 "
test,1583576401801207040,9," |  9  |   4715       5   4711       0 |   4   10      4547       164 |   5   9    1    1 400f |    3.814       0       2       0       2      9      9      0   4527     184       5   9    1400f a70f     30.300 "
