test,1583576276781145088,10," | 10  |   4215       5   4187       0 |   5    0      4120        67 |   1   1    0    0 590f |    1.373       0       5       0       5      1      1      0   4067     120       1   1    0590f a70f      7.620 "
test,1583576276778764032,12," | 12  |   4215       5   4213       0 |   5    0      4180        33 |   1   1    0    0 590f |    1.342       0       5       0       5      1      1      0   4115      98       1   1    0590f a70f      7.530 "
test,1583576276778121984,13," | 13  |   4215       5   4211       0 |   5    0      4181        30 |   1   1    0    0 590f |    1.373       0       5       0       5      1      1      0   4130      81       1   1    0590f a70f      7.620 "
test,1583576276790440960,15," | 15  |   4215       5   4213       0 |   5    0      4053       160 |   2   1    0    0 590f |    2.105       0       5       0       5      1      1      0   3875     338       2   1    0590f a70f      8.220 "
test,1583576276789589760,16," | 16  |   4215       4   4211       0 |   5    0      4058       153 |   3  60    0    0 630f |    7.690       0       5       0       5     60     60      0   3946     265       9  60    0630f a70f     13.800 "
test,1583576276791757056,17," | 17  |   4215       5   4206       5 |   5    0      4161        50 |   3  60    0    0 630f |    7.720       0       5       0       5     60     60      0   4034     177       9  60    0630f a70f     13.770 "
test,1583576276788121088,18," | 18  |   4215       5   4210       0 |   5    1      3979       231 |   4  60   47    0 630f |    7.720       0       5       0       5     60     60      0   3804     406       9  60    0630f a70f     13.710 "
test,1583576276785777152,19," | 19  |   4215       5   4202       9 |   5    0      4147        64 |   3  60    0    0 630f |    7.659       0       5       0       5     60     60      0   4022     189       9  60    0630f a70f     14.370 "
test,1583576276783320832,1," |  1  |   4215       4   4212       0 |   5    0      4111       101 |   4   1    0    1 590f |    1.739       0       4       0       4      1      1      0   4080     132       2   1    1590f a70f      6.480 "
test,1583576276790970112,22," | 22  |   4215       5   4209       0 |   5    0      4174        35 |   7  60    0    0 630f |    6.958       0       5       0       5     60     60      0   3978     231       8  60    0630f a70f     13.650 "
test,1583576276787348992,23," | 23  |   4215       5   4153       0 |   5    0      4134        19 |   2  60    0    0 630f |    6.988       0       5       0       5     60     60      0   4044     109       8  60    0630f a70f     13.140 "
test,1583576276787872000,24," | 24  |   4215       5   4209       2 |   5    0      4168        43 |   3  60    0    0 630f |    7.659       0       5       0       5     60     60      0   4059     152       9  60    0630f a70f     13.830 "
test,1583576276784698880,26," | 26  |   4215       5   4209       2 |   5    0      4195        16 |   2  60    0    0 630f |    6.927       0       5       0       5     60     60      0   4116      95       8  60    0630f a70f     13.110 "
test,1583576276786242048,27," | 27  |   4215       5   4213       0 |   5    0      4092       121 |   6  60    0    0 630f |    7.690       0       5       0       5     60     60      0   3919     294       9  60    0630f a70f     13.800 "
test,1583576276803464960,28," | 28  |   4215       4   4206       5 |   1    3      3879       332 |   4  60    1    0 630f |   12.115       0       2       0       2     60     60      0   3722     489      15  60    0630f a70f     30.300 "
test,1583576276791347968,29," | 29  |   4215       5   4208       5 |   5    0      3736       477 |   4  60    0    0 630f |    8.422       0       5       0       5     60     60      0   3543     670      10  60    0630f a70f     14.520 "
test,1583576276781573888,30," | 30  |   4215       5   4209       2 |   5    0      4157        54 |   4   1    0    0 590f |    3.540       0       5       0       5      1      1      0   4002     209       4   1    0590f a70f      9.630 "
test,1583576276785022976,35," | 35  |   4215       5   4209       2 |   5    0      4009       202 |   5   1    0    0 590f |    4.272       0       5       0       5      1      1      0   3919     292       5   1    0590f a70f     10.440 "
test,1583576276802913024,40," | 40  |   4215       5   4147      60 |   5    0      3950       257 |   1  47    0    0 6d0f |    2.014       0       3       0       3     47     47      0   3847     360       1  47    06d0f a70f     30.390 "
test,1583576276800997120,41," | 41  |   4215       5   4142      59 |   5    0      4165        36 |   1  47    0    0 6d0f |    2.044       0       3       0       3     47     47      0   4055     146       1  47    06d0f a70f     30.300 "
test,1583576276801202944,42," | 42  |   4215       5   4150      61 |   5    0      4117        94 |   1  47    0    0 6d0f |    1.983       0       3       0       3     47     47      0   4016     195       1  47    06d0f a70f     30.360 "
test,1583576276801413120,44," | 44  |   4215       5   4154      57 |   5    0      4117        94 |   1  47    0    0 6d0f |    2.014       0       3       0       3     47     47      0   4031     180       1  47    06d0f a70f     30.390 "
test,1583576276803958016,45," | 45  |   4215       5   4168      43 |   4    0      4074       137 |   3  47    0    0 6d0f |    2.014       0       3       0       3     47     47      0   3994     217       1  47    06d0f a70f     30.330 "
test,1583576276803667968,46," | 46  |   4215       5   4147      57 |   5    0      4016       188 |   1  47    0    0 6d0f |    2.044       0       3       0       3     47     47      0   3936     268       1  47    06d0f a70f     30.300 "
test,1583576276805689088,47," | 47  |   4215       5   4154      57 |   5    0      4065       146 |   2  47    0    1 6d0f |    1.739       0       2       0       2     47     47      0   3983     228       2  47    16d0f a70f     30.300 "
test,1583576276803282944,48," | 48  |   4215       3   4089      55 |   5    0      4043       101 |   1  47    0    0 6d0f |    2.014       0       3       0       3     47     47      0   3964     180       1  47    06d0f a70f     30.390 "
test,1583576276780706048,49," | 49  |   4215       5   4205       0 |   4    0      4126        79 |   2  49    0    1 a10f |    1.739       0       4       0       4     49     49      0   4092     113       2  49    1a10f a70f      6.480 "
test,1583576276781324032,51," | 51  |   4215       5   4206       0 |   5    0      4167        39 |   2   1    0    0 590f |    1.312       0       5       0       5      1      1      0   4149      57       1   1    0590f a70f      8.310 "
test,1583576276786708992,52," | 52  |   4215       5   4183      24 |   5    0      4004       203 |   3  60    0    0 630f |    7.720       0       5       0       5     60     60      0   3920     287       9  60    0630f a70f     13.770 "
test,1583576276782316800,53," | 53  |   4215       5   4189       0 |   5    0      3968       221 |   1  49    0    0 a10f |    1.983       0       5       0       5     49     49      0   3922     267       1  49    0a10f a70f      8.100 "
test,1583576276783823872,54," | 54  |   4215       5   4207       0 |   5    0      4132        75 |   1   1    0    0 590f |    1.373       0       5       0       5      1      1      0   4064     143       1   1    0590f a70f      8.220 "
test,1583576276785257216,55," | 55  |   4215       5   4194       0 |   5    0      4036       158 |   1  49    0    0 a10f |    2.014       0       5       0       5     49     49      0   4002     192       1  49    0a10f a70f      8.100 "
test,1583576276802130944,56," | 56  |   4215       5   4197       0 |   4    2      4131        66 |   2  60    1    0 630f |    9.918       0       4       0       4     60     60      0   4083     114      12  60    0630f a70f     30.360 "
test,1583576276785561088,57," | 57  |   4215       3   4152       0 |   5    0      4046       106 |   1  60    0    0 630f |    6.256       0       5       0       5     60     60      0   3800     352       7  60    0630f a70f     12.270 "
test,1583576276782628096,58," | 58  |   4215       5   4206       0 |   5    0      4146        60 |   1  49    0    0 a10f |    2.044       0       5       0       5     49     49      0   3965     241       1  49    0a10f a70f      8.160 "
test,1583576276779618048,5," |  5  |   4215       5   4213       0 |   5    0      3841       372 |   2   1    0    0 590f |    2.044       0       5       0       5      1      1      0   3769     444       2   1    0590f a70f      8.250 "
test,1583576276788978944,60," | 60  |   4215       5   4206       0 |   4    0      3941       265 |   2  60    0    1 630f |    9.613       0       4       0       4     60     60      0   3865     341      13  60    1630f a70f     14.250 "
test,1583576276803067904,61," | 61  |   4215       5   4205       0 |   4    0      4016       189 |   5   1    0    0 590f |    2.075       0       2       0       2      1      1      0   3877     328       2   1    0590f a70f     30.360 "
test,1583576276779060992,7," |  7  |   4215       5   4212       0 |   5    0      4147        65 |   1   1    0    0 590f |    1.342       0       5       0       5      1      1      0   4122      90       1   1    0590f a70f      7.530 "
test,1583576276785986816,9," |  9  |   4215       5   4211       0 |   5    0      4060       151 |   1   1    0    0 590f |    1.373       0       5       0       5      1      1      0   4040     171       1   1    0590f a70f      7.530 "
