test,1583576323282813952,10," | 10  |   4401       5   4373       0 |   5    0      4304        69 |   1   1    0    0 e90f |    1.373       0       5       0       5      1      1      0   4247     126       1   1    0e90f a70f      7.500 "
test,1583576323282247936,12," | 12  |   4401       5   4399       0 |   5    0      4365        34 |   1   1    0    0 e90f |    2.075       0       5       0       5      1      1      0   4299     100       2   1    0e90f a70f      8.310 "
test,1583576323281108992,13," | 13  |   4401       5   4397       0 |   5    0      4367        30 |   1   1    0    0 e90f |    1.342       0       5       0       5      1      1      0   4315      82       1   1    0e90f a70f      7.530 "
test,1583576323283646976,15," | 15  |   4401       5   4399       0 |   5    0      4234       165 |   2   1    0    0 e90f |    2.105       0       5       0       5      1      1      0   4049     350       2   1    0e90f a70f      8.940 "
test,1583576323285164032,16," | 16  |   4401       5   4397       0 |   5    0      4235       162 |   2  24    0    0 920f |    2.777       0       5       0       5     24     24      0   4119     278       2  24    0920f a70f     10.380 "
test,1583576323284912128,17," | 17  |   4401       5   4392       5 |   5    0      4346        51 |   2  24    0    0 920f |    2.075       0       5       0       5     24     24      0   4216     181       1  24    0920f a70f      8.130 "
test,1583576323276380160,18," | 18  |   4401       5   4396       0 |   5    0      4144       252 |   1  24    0    0 920f |    2.014       0       5       0       5     24     24      0   3965     431       1  24    0920f a70f      8.250 "
test,1583576323294985984,19," | 19  |   4401       5   4388       9 |   4    5      4329        68 |   2  24   29    0 920f |    2.777       0       5       0       5     24     24      0   4200     197       2  24    0920f a70f     10.350 "
test,1583576323279504128,1," |  1  |   4401       4   4398       0 |   4    0      4294       104 |   2   1    0    1 e90f |    1.739       0       4       0       4      1      1      0   4263     135       2   1    1e90f a70f      6.480 "
test,1583576323286928896,22," | 22  |   4401       5   4395       0 |   5    0      4358        37 |   1  24    0    0 920f |    2.044       0       5       0       5     24     24      0   4153     242       1  24    0920f a70f      8.250 "
test,1583576323287633920,23," | 23  |   4401       5   4339       0 |   5    0      4320        19 |   2  24    0    0 920f |    2.746       0       5       0       5     24     24      0   4227     112       2  24    0920f a70f      9.690 "
test,1583576323280523008,24," | 24  |   4401       5   4395       2 |   5    0      4352        45 |   2  24    0    1 920f |    1.739       0       4       0       4     24     24      0   4238     159       2  24    1920f a70f      6.510 "
test,1583576323280931840,26," | 26  |   4401       5   4395       2 |   5    0      4381        16 |   1  24    0    0 920f |    2.044       0       5       0       5     24     24      0   4300      97       1  24    0920f a70f      8.310 "
test,1583576323290009856,27," | 27  |   4401       5   4399       0 |   4    5      4277       122 |   5  24   29    0 920f |    2.807       0       5       0       5     24     24      0   4097     302       2  24    0920f a70f     10.380 "
test,1583576323277795072,28," | 28  |   4401       5   4392       5 |   5    0      4052       345 |   3  24    0    0 920f |    2.807       0       5       0       5     24     24      0   3886     511       2  24    0920f a70f      9.630 "
test,1583576323303428864,29," | 29  |   4401       4   4394       5 |   0    3      3895       504 |   0  29   24    1 b90f |    0           0       0       0       8      0      0      0   3694     705       0  29    1b90f a70f     30.210 "
test,1583576323289398784,30," | 30  |   4401       5   4395       2 |   5    0      4337        60 |   4  24    0    0 920f |    3.540       0       5       0       5     24     24      0   4179     218       3  24    0920f a70f      9.720 "
test,1583576323279279872,35," | 35  |   4401       5   4395       2 |   5    0      4189       208 |   4  24    0    0 920f |    2.746       0       5       0       5     24     24      0   4095     302       2  24    0920f a70f      8.910 "
test,1583576323288948992,40," | 40  |   4401       3   4333      60 |   5    0      4127       266 |   1  24    0    0 920f |    3.509       0       5       0       5     24     24      0   4025     368       3  24    0920f a70f     10.260 "
test,1583576323286177024,41," | 41  |   4401       5   4328      59 |   5    0      4351        36 |   2  24    0    0 920f |    3.479       0       5       0       5     24     24      0   4238     149       3  24    0920f a70f      9.720 "
test,1583576323285782016,42," | 42  |   4401       5   4336      61 |   5    0      4300        97 |   2  24    0    0 920f |    3.540       0       5       0       5     24     24      0   4199     198       3  24    0920f a70f      9.570 "
test,1583576323285346048,44," | 44  |   4401       5   4340      57 |   5    0      4300        97 |   1  24    0    0 920f |    2.807       0       5       0       5     24     24      0   4212     185       2  24    0920f a70f      9.000 "
test,1583576323286569216,45," | 45  |   4401       5   4354      43 |   5    0      4257       140 |   2  24    0    0 920f |    3.448       0       5       0       5     24     24      0   4175     222       3  24    0920f a70f      9.630 "
test,1583576323288016128,46," | 46  |   4401       5   4333      57 |   5    0      4192       198 |   3  24    0    0 920f |    3.479       0       5       0       5     24     24      0   4112     278       3  24    0920f a70f     10.380 "
test,1583576323286390016,47," | 47  |   4401       5   4340      57 |   5    0      4251       146 |   2  24    0    0 920f |    2.746       0       5       0       5     24     24      0   4168     229       2  24    0920f a70f      8.970 "
test,1583576323293764096,48," | 48  |   4401       5   4275      55 |   5    0      4227       103 |   2  24    0    0 920f |    2.777       0       5       0       5     24     24      0   4146     184       2  24    0920f a70f      9.720 "
test,1583576323290726912,49," | 49  |   4401       5   4391       0 |   5    0      4307        84 |   1  55    0    0 cc0f |    2.075       0       5       0       5     55     55      0   4272     119       1  55    0cc0f a70f      8.910 "
test,1583576323281419008,51," | 51  |   4401       5   4392       0 |   5    0      4353        39 |   1   1    0    0 e90f |    1.342       0       5       0       5      1      1      0   4335      57       1   1    0e90f a70f      7.590 "
test,1583576323287465984,52," | 52  |   4401       3   4369      24 |   5    0      4184       209 |   2  24    0    0 920f |    2.044       0       5       0       5     24     24      0   4097     296       1  24    0920f a70f      8.970 "
test,1583576323283293952,53," | 53  |   4401       5   4375       0 |   5    0      4144       231 |   1  55    0    0 cc0f |    2.044       0       5       0       5     55     55      0   4097     278       1  55    0cc0f a70f      8.130 "
test,1583576323285528064,54," | 54  |   4401       5   4393       0 |   4    0      4316        77 |   1   1    0    0 e90f |    1.342       0       5       0       5      1      1      0   4248     145       1   1    0e90f a70f      7.560 "
test,1583576323284370944,55," | 55  |   4401       5   4380       0 |   4    0      4214       166 |   2  55    0    1 cc0f |    1.739       0       4       0       4     55     55      0   4179     201       2  55    1cc0f a70f      6.510 "
test,1583576323284528896,56," | 56  |   4401       5   4383       0 |   4    1      4313        70 |   2   1   24    0 e90f |    2.075       0       5       0       5      1      1      0   4262     121       2   1    0e90f a70f      8.280 "
test,1583576323303734016,57," | 57  |   4401       5   4338       0 |   5    0      4229       109 |   2  24    0    0 920f |    3.540       0       4       0       4     24     24      0   3971     367       3  24    0920f a70f     30.300 "
test,1583576323287083008,58," | 58  |   4401       5   4392       0 |   5    0      4331        61 |   1  55    0    0 cc0f |    2.075       0       5       0       5     55     55      0   4141     251       1  55    0cc0f a70f      8.940 "
test,1583576323290995968,5," |  5  |   4401       5   4399       0 |   5    0      4011       388 |   2   1    0    0 e90f |    2.044       0       5       0       5      1      1      0   3936     463       2   1    0e90f a70f      8.250 "
test,1583576323282388992,60," | 60  |   4401       5   4392       0 |   5    0      4116       276 |   2   1    0    0 e90f |    2.014       0       5       0       5      1      1      0   4034     358       2   1    0e90f a70f      8.280 "
test,1583576323283869952,61," | 61  |   4401       5   4391       0 |   1    3      4196       195 |   2  55   24    0 cc0f |    2.807       0       5       0       5     55     55      0   4052     339       2  55    0cc0f a70f      9.750 "
test,1583576323282077184,7," |  7  |   4401       5   4398       0 |   5    0      4330        68 |   1   1    0    0 e90f |    1.312       0       5       0       5      1      1      0   4305      93       1   1    0e90f a70f      7.560 "
test,1583576323281596928,9," |  9  |   4401       5   4397       0 |   5    0      4243       154 |   1   1    0    0 e90f |    1.373       0       5       0       5      1      1      0   4224     173       1   1    0e90f a70f      7.620 "
