test,1583576226779783936,10," | 10  |   4015       5   3987       0 |   5    0      3921        66 |   1   1    0    0 590f |    1.312       0       5       0       5      1      1      0   3871     116       1   1    0590f a70f      7.470 "
test,1583576226778310912,12," | 12  |   4015       5   4013       0 |   5    0      3982        31 |   1   1    0    0 590f |    1.312       0       5       0       5      1      1      0   3918      95       1   1    0590f a70f      7.560 "
test,1583576226779624960,13," | 13  |   4015       5   4011       0 |   5    0      3984        27 |   1   1    0    0 590f |    1.373       0       5       0       5      1      1      0   3935      76       1   1    0590f a70f      7.440 "
test,1583576226801704960,15," | 15  |   4015       5   4013       0 |   5    0      3860       153 |   2   1    0    0 590f |    2.105       0       4       0       4      1      1      0   3686     327       2   1    0590f a70f     30.330 "
test,1583576226800518144,16," | 16  |   4015       5   4011       0 |   1   10      3866       145 |   1  45   44    0 520f |    2.014       0       1       0       1     45     45      0   3760     251       1  45    0520f a70f     30.360 "
test,1583576226781836032,17," | 17  |   4015       5   4006       5 |   5    0      3963        48 |   3  44    0    0 620f |    2.807       0       5       0       5     44     44      0   3840     171       2  44    0620f a70f      8.970 "
test,1583576226785007104,18," | 18  |   4015       5   4010       0 |   5    0      3790       220 |   2  44    0    0 620f |    2.777       0       5       0       5     44     44      0   3625     385       2  44    0620f a70f     10.410 "
test,1583576226780917760,19," | 19  |   4015       5   4002       9 |   5    0      3949        62 |   3  44    0    0 620f |    2.746       0       5       0       5     44     44      0   3828     183       2  44    0620f a70f      9.540 "
test,1583576226779169024,1," |  1  |   4015       4   4012       0 |   5    0      3915        97 |   4   1    0    1 590f |    1.739       0       4       0       4      1      1      0   3886     126       2   1    1590f a70f      6.480 "
test,1583576226784372992,22," | 22  |   4015       5   4009       0 |   5    0      3977        32 |   3  44    0    0 620f |    3.540       0       5       0       5     44     44      0   3788     221       3  44    0620f a70f     10.380 "
test,1583576226800084224,23," | 23  |   4015       5   3953       0 |   5    0      3934        19 |   3  44    0    0 620f |    3.479       0       4       0       4     44     44      0   3848     105       3  44    0620f a70f     30.390 "
test,1583576226788562176,24," | 24  |   4015       5   4009       2 |   5    0      3971        40 |   1  44    0    0 620f |    2.014       0       5       0       5     44     44      0   3868     143       1  44    0620f a70f      9.600 "
test,1583576226781178880,26," | 26  |   4015       5   4009       2 |   5    0      3996        15 |   2  44    0    0 620f |    2.014       0       5       0       5     44     44      0   3920      91       1  44    0620f a70f      8.850 "
test,1583576226800688896,27," | 27  |   4015       5   4013       0 |   1    3      3898       115 |   8  27   44    1 120f |    0           0       0       0       8      0      0      0   3731     282       0  27    1120f a70f     30.240 "
test,1583576226780427008,28," | 28  |   4015       5   4006       5 |   4    0      3697       314 |   1  30    0    0 9b0f |    2.044       0       5       0       5     30     30      0   3547     464       1  30    09b0f a70f      8.220 "
test,1583576226802030080,29," | 29  |   4015       3   4008       5 |   0    4      3563       450 |   0  29   44    1  b0f |    0           0       0       0       8      0      0      0   3373     640       0  29    1 b0f a70f     30.180 "
test,1583576226778548992,30," | 30  |   4015       5   4009       2 |   4    0      3957        54 |   2  30    0    1 9b0f |    1.739       0       4       0       4     30     30      0   3810     201       2  30    19b0f a70f      6.480 "
test,1583576226780688896,35," | 35  |   4015       5   4009       2 |   5    0      3814       197 |   1  30    0    0 9b0f |    1.922       0       5       0       5     30     30      0   3730     281       1  30    09b0f a70f      8.130 "
test,1583576226781387008,40," | 40  |   4015       5   3947      60 |   5    0      3764       243 |   1  44    0    0 620f |    2.014       0       5       0       5     44     44      0   3666     341       1  44    0620f a70f      9.690 "
test,1583576226800928000,41," | 41  |   4015       5   3942      59 |   5    0      3965        36 |   1  45    0    0 520f |    2.014       0       1       0       1     45     45      0   3861     140       1  45    0520f a70f     30.360 "
test,1583576226783913984,42," | 42  |   4015       5   3950      61 |   5    0      3920        91 |   1  44    0    0 620f |    2.014       0       5       0       5     44     44      0   3823     188       1  44    0620f a70f      8.850 "
test,1583576226786338048,44," | 44  |   4015       5   3954      57 |   5    0      3921        90 |   2  44    0    1 620f |    1.739       0       4       0       4     44     44      0   3839     172       2  44    1620f a70f      6.510 "
test,1583576226802629120,45," | 45  |   4015       5   3968      43 |   5    0      3882       129 |   2  45    0    1 520f |    1.739       0       1       0       1     45     45      0   3808     203       2  45    1520f a70f     30.300 "
test,1583576226786638848,46," | 46  |   4015       5   3947      57 |   5    0      3821       183 |   1  44    0    0 620f |    1.983       0       5       0       5     44     44      0   3744     260       1  44    0620f a70f      8.940 "
test,1583576226787736832,47," | 47  |   4015       5   3954      57 |   5    0      3870       141 |   1  44    0    0 620f |    2.014       0       5       0       5     44     44      0   3791     220       1  44    0620f a70f      8.250 "
test,1583576226784744960,48," | 48  |   4015       5   3889      55 |   5    0      3849        95 |   1  44    0    0 620f |    2.075       0       5       0       5     44     44      0   3772     172       1  44    0620f a70f      8.910 "
test,1583576226781664000,49," | 49  |   4015       5   4005       0 |   5    0      3930        75 |   2  55    0    0 eb0f |    2.075       0       5       0       5     55     55      0   3897     108       1  55    0eb0f a70f      8.880 "
test,1583576226777928192,51," | 51  |   4015       5   4006       0 |   5    0      3967        39 |   1   1    0    0 590f |    1.342       0       5       0       5      1      1      0   3950      56       1   1    0590f a70f      7.620 "
test,1583576226789051904,52," | 52  |   4015       5   3983      24 |   5    0      3818       189 |   3  44    0    0 620f |    2.777       0       5       0       5     44     44      0   3738     269       2  44    0620f a70f      8.910 "
test,1583576226782896896,53," | 53  |   4015       5   3989       0 |   5    0      3781       208 |   1  55    0    0 eb0f |    2.014       0       5       0       5     55     55      0   3736     253       1  55    0eb0f a70f      8.190 "
test,1583576226777623040,54," | 54  |   4015       5   4007       0 |   5    0      3935        72 |   1   1    0    0 590f |    1.373       0       5       0       5      1      1      0   3871     136       1   1    0590f a70f      7.590 "
test,1583576226779941120,55," | 55  |   4015       5   3994       0 |   5    0      3848       146 |   2  55    0    1 eb0f |    1.770       0       4       0       4     55     55      0   3816     178       2  55    1eb0f a70f      6.510 "
test,1583576226779408896,56," | 56  |   4015       5   3997       0 |   5    0      3935        62 |   2   1    0    0 590f |    2.105       0       5       0       5      1      1      0   3891     106       2   1    0590f a70f      8.250 "
test,1583576226802800896,57," | 57  |   4015       5   3952       0 |   1    6      3849       103 |   2   1   44    0 590f |    2.075       0       1       0       1      1      1      0   3615     337       2   1    0590f a70f     30.330 "
test,1583576226799707904,58," | 58  |   4015       5   4006       0 |   5    0      3949        57 |   2   1    0    0 590f |    7.171       0       2       0       2      1      1      0   3779     227       9   1    0590f a70f     30.390 "
test,1583576226778991104,5," |  5  |   4015       5   4013       0 |   5    0      3659       354 |   2   1    0    0 590f |    2.075       0       5       0       5      1      1      0   3590     423       2   1    0590f a70f      8.160 "
test,1583576226783355904,60," | 60  |   4015       5   4006       0 |   5    0      3755       251 |   2   1    0    0 590f |    2.075       0       5       0       5      1      1      0   3682     324       2   1    0590f a70f      8.160 "
test,1583576226791496960,61," | 61  |   4015       5   4005       0 |   5    0      3824       181 |   2   1    0    0 590f |    2.105       0       5       0       5      1      1      0   3694     311       2   1    0590f a70f      8.190 "
test,1583576226777380864,7," |  7  |   4015       5   4012       0 |   5    0      3951        61 |   1   1    0    0 590f |    1.342       0       5       0       5      1      1      0   3927      85       1   1    0590f a70f      7.590 "
test,1583576226778114048,9," |  9  |   4015       5   4011       0 |   5    0      3867       144 |   1   1    0    0 590f |    1.312       0       5       0       5      1      1      0   3847     164       1   1    0590f a70f      7.560 "
