test,1583576289785990912,10," | 10  |   4267       5   4239       0 |   3    2      4170        69 |   2   1   54    0 1b0f |    1.312       0       5       0       5      1      1      0   4115     124       1   1    01b0f a70f      7.560 "
test,1583576289787412992,12," | 12  |   4267       5   4265       0 |   1    4      4231        34 |   1   5   54    0 910f |    8.422       0       5       0       5      5      5      0   4166      99      10   5    0910f a70f     14.430 "
test,1583576289786328064,13," | 13  |   4267       5   4263       0 |   1    7      4233        30 |   1   5   54    0 910f |    8.392       0       5       0       5      5      5      0   4181      82      10   5    0910f a70f     14.310 "
test,1583576289793009920,15," | 15  |   4267       5   4265       0 |   1    1      4105       160 |   1   5   24    0 910f |    9.124       0       5       0       5      5      5      0   3925     340      11   5    0910f a70f     15.240 "
test,1583576289803614976,16," | 16  |   4267       5   4263       0 |   4    4      4108       155 |   1  45   24    0 910f |    2.014       0       1       0       1     45     45      0   3996     267       1  45    0910f a70f     30.360 "
test,1583576289788600832,17," | 17  |   4267       5   4258       5 |   5    0      4213        50 |   1  24    0    0 b30f |    2.044       0       5       0       5     24     24      0   4086     177       1  24    0b30f a70f      9.570 "
test,1583576289784358144,18," | 18  |   4267       5   4262       0 |   5    0      4025       237 |   1  24    0    0 b30f |    2.075       0       5       0       5     24     24      0   3851     411       1  24    0b30f a70f      9.000 "
test,1583576289782969856,19," | 19  |   4267       5   4254       9 |   5    0      4197        66 |   1  24    0    0 b30f |    2.044       0       5       0       5     24     24      0   4073     190       1  24    0b30f a70f     10.470 "
test,1583576289778857984,1," |  1  |   4267       4   4264       0 |   3    2      4163       101 |   2   1   54    1 1b0f |    1.739       0       4       0       4      1      1      0   4132     132       2   1    11b0f a70f      6.480 "
test,1583576289781019904,22," | 22  |   4267       5   4261       0 |   5    0      4225        36 |   1  24    0    0 b30f |    2.014       0       5       0       5     24     24      0   4026     235       1  24    0b30f a70f      8.250 "
test,1583576289781881088,23," | 23  |   4267       5   4205       0 |   5    2      4186        19 |   1  24   45    0 b30f |    2.075       0       5       0       5     24     24      0   4096     109       1  24    0b30f a70f      9.030 "
test,1583576289782275840,24," | 24  |   4267       5   4261       2 |   4    1      4218        45 |   5  24   45    1 b30f |    1.739       0       4       0       4     24     24      0   4108     155       2  24    1b30f a70f      6.510 "
test,1583576289780615936,26," | 26  |   4267       5   4261       2 |   5    0      4247        16 |   1  24    0    0 b30f |    2.075       0       5       0       5     24     24      0   4168      95       1  24    0b30f a70f      9.030 "
test,1583576289784539904,27," | 27  |   4267       5   4265       0 |   5    0      4143       122 |   3  24    0    0 b30f |    2.807       0       5       0       5     24     24      0   3968     297       2  24    0b30f a70f      9.750 "
test,1583576289803816192,28," | 28  |   4267       4   4258       5 |   3    0      3930       333 |   2  24    0    0 b30f |    4.272       0       4       0       4     24     24      0   3771     492       4  24    0b30f a70f     30.210 "
test,1583576289785270016,29," | 29  |   4267       5   4260       5 |   5    0      3781       484 |   2  24    0    0 b30f |    2.807       0       5       0       5     24     24      0   3586     679       2  24    0b30f a70f     10.440 "
test,1583576289782529024,30," | 30  |   4267       5   4261       2 |   5    0      4207        56 |   2  24    0    0 b30f |    2.777       0       5       0       5     24     24      0   4052     211       2  24    0b30f a70f      9.720 "
test,1583576289781452032,35," | 35  |   4267       5   4261       2 |   5    0      4060       203 |   2  24    0    0 b30f |    2.746       0       5       0       5     24     24      0   3969     294       2  24    0b30f a70f      8.940 "
test,1583576289804424960,40," | 40  |   4267       5   4199      60 |   3    2      4001       258 |   2  45   24    0 910f |    2.777       0       4       0       4     45     45      0   3898     361       2  45    0910f a70f     30.270 "
test,1583576289800858880,41," | 41  |   4267       5   4194      59 |   4    0      4217        36 |   1  45    0    0 910f |    2.014       0       4       0       4     45     45      0   4106     147       1  45    0910f a70f     30.270 "
test,1583576289798811904,42," | 42  |   4267       5   4202      61 |   4    2      4168        95 |   1  45   24    0 910f |    1.983       0       4       0       4     45     45      0   4067     196       1  45    0910f a70f     30.360 "
test,1583576289802979840,44," | 44  |   4267       5   4206      57 |   4    2      4168        95 |   1  45   24    0 910f |    1.983       0       4       0       4     45     45      0   4081     182       1  45    0910f a70f     30.390 "
test,1583576289780344064,45," | 45  |   4267       5   4220      43 |   2    0      4125       138 |   6  45    0    1 910f |    1.739       0       4       0       4     45     45      0   4044     219       2  45    1910f a70f      6.480 "
test,1583576289804008960,46," | 46  |   4267       5   4199      57 |   4    0      4065       191 |   2  45    0    0 910f |    2.777       0       4       0       4     45     45      0   3985     271       2  45    0910f a70f     30.240 "
test,1583576289804595968,47," | 47  |   4267       5   4206      57 |   4    2      4117       146 |   1  45   24    0 910f |    2.014       0       4       0       4     45     45      0   4035     228       1  45    0910f a70f     30.390 "
test,1583576289801474048,48," | 48  |   4267       5   4141      55 |   4    1      4095       101 |   1  45   24    0 910f |    2.044       0       4       0       4     45     45      0   4015     181       1  45    0910f a70f     30.390 "
test,1583576289783184896,49," | 49  |   4267       5   4257       0 |   5    0      4175        82 |   2  54    0    0 7d0f |    2.777       0       5       0       5     54     54      0   4140     117       2  54    07d0f a70f      8.820 "
test,1583576289779710976,51," | 51  |   4267       5   4258       0 |   3    0      4219        39 |   1   1    0    0 1b0f |    1.373       0       5       0       5      1      1      0   4201      57       1   1    01b0f a70f      7.500 "
test,1583576289783828992,52," | 52  |   4267       3   4235      24 |   5    0      4054       205 |   1  24    0    0 b30f |    2.044       0       5       0       5     24     24      0   3970     289       1  24    0b30f a70f      8.250 "
test,1583576289788429056,53," | 53  |   4267       5   4241       0 |   5    0      4019       222 |   3  54    0    0 7d0f |    3.479       0       5       0       5     54     54      0   3972     269       3  54    07d0f a70f      9.690 "
test,1583576289801170176,54," | 54  |   4267       5   4259       0 |   4    0      4183        76 |   5  54    0    1 7d0f |    7.415       0       1       0       1     54     54      0   4116     143      10  54    17d0f a70f     30.300 "
test,1583576289785489920,55," | 55  |   4267       5   4246       0 |   5    0      4087       159 |   2  54    0    0 7d0f |    2.746       0       5       0       5     54     54      0   4052     194       2  54    07d0f a70f      8.940 "
test,1583576289789571072,56," | 56  |   4267       5   4249       0 |   1    6      4182        67 |   2   5   54    0 910f |    9.155       0       5       0       5      5      5      0   4133     116      11   5    0910f a70f     15.240 "
test,1583576289799406080,57," | 57  |   4267       5   4204       0 |   1    5      4097       107 |   5   1   24    0 1b0f |    0           0       0       0       8      0      0      0   3848     356       0   1    01b0f a70f     30.330 "
test,1583576289802390016,58," | 58  |   4267       5   4258       0 |   4    0      4198        60 |   1  54    0    0 7d0f |    2.014       0       3       0       3     54     54      0   4013     245       1  54    07d0f a70f     30.330 "
test,1583576289787176960,5," |  5  |   4267       5   4265       0 |   1    0      3890       375 |   2   5    0    1 910f |    8.148       0       4       0       4      5      5      0   3817     448      11   5    1910f a70f     12.630 "
test,1583576289780029184,60," | 60  |   4267       5   4258       0 |   3    0      3992       266 |   2   1    0    0 1b0f |    2.075       0       5       0       5      1      1      0   3915     343       2   1    01b0f a70f      8.340 "
test,1583576289803162112,61," | 61  |   4267       5   4257       0 |   5    0      4065       192 |   1  54    0    0 7d0f |    2.044       0       4       0       4     54     54      0   3924     333       1  54    07d0f a70f     30.360 "
test,1583576289779437056,7," |  7  |   4267       5   4264       0 |   3    2      4198        66 |   1   1   54    0 1b0f |    1.373       0       5       0       5      1      1      0   4173      91       1   1    01b0f a70f      7.470 "
test,1583576289779249920,9," |  9  |   4267       5   4263       0 |   1    2      4111       152 |   2   1   54    0 1b0f |    1.373       0       5       0       5      1      1      0   4092     171       1   1    01b0f a70f      7.470 "
