test,1583576413283668992,10," | 10  |   4761       5   4733       0 |   5    0      4658        75 |   1  54    0    0 460f |    2.044       0       5       0       5     54     54      0   4599     134       1  54    0460f a70f      8.130 "
test,1583576413283886080,12," | 12  |   4761       5   4751       8 |   4    1      4717        42 |   1  54   55    0 460f |    2.044       0       5       0       5     54     54      0   4640     119       1  54    0460f a70f      9.030 "
test,1583576413285011968,13," | 13  |   4761       5   4757       0 |   5    0      4720        37 |   1  54    0    0 460f |    2.075       0       5       0       5     54     54      0   4662      95       1  54    0460f a70f      8.970 "
test,1583576413290412032,15," | 15  |   4761       5   4747      12 |   4    0      4575       184 |   2  54    0    0 460f |    2.746       0       5       0       5     54     54      0   4366     393       2  54    0460f a70f      9.630 "
test,1583576413288563968,16," | 16  |   4761       5   4757       0 |   5    0      4585       172 |   3  48    0    0 870f |    2.746       0       5       0       5     48     48      0   4457     300       2  48    0870f a70f      9.690 "
test,1583576413286788864,17," | 17  |   4761       5   4750       7 |   5    0      4699        58 |   2  48    0    0 870f |    2.746       0       5       0       5     48     48      0   4559     198       2  48    0870f a70f      8.850 "
test,1583576413287920896,18," | 18  |   4761       5   4756       0 |   5    0      4480       276 |   2  48    0    0 870f |    2.777       0       5       0       5     48     48      0   4287     469       2  48    0870f a70f      8.970 "
test,1583576413290981888,19," | 19  |   4761       5   4746      11 |   5    0      4681        76 |   3  48    0    0 870f |    3.479       0       5       0       5     48     48      0   4543     214       3  48    0870f a70f      9.660 "
test,1583576413293399040,1," |  1  |   4761       4   4758       0 |   5    0      4640       118 |   1  54    0    0 460f |    2.716       0       5       0       5     54     54      0   4608     150       1  54    0460f a70f      8.910 "
test,1583576413278074880,22," | 22  |   4761       5   4755       0 |   5    0      4717        38 |   3  48    0    0 870f |    2.014       0       5       0       5     48     48      0   4498     257       1  48    0870f a70f      8.070 "
test,1583576413284625920,23," | 23  |   4761       5   4699       0 |   5    0      4678        21 |   3  48    0    0 870f |    2.777       0       5       0       5     48     48      0   4581     118       2  48    0870f a70f      9.000 "
test,1583576413287401984,24," | 24  |   4761       5   4755       2 |   5    0      4708        49 |   3  48    0    0 870f |    2.807       0       5       0       5     48     48      0   4586     171       2  48    0870f a70f      9.000 "
test,1583576413284137984,26," | 26  |   4761       5   4755       2 |   5    0      4738        19 |   2  48    0    0 870f |    2.777       0       5       0       5     48     48      0   4655     102       2  48    0870f a70f      9.000 "
test,1583576413287195904,27," | 27  |   4761       5   4759       0 |   3    5      4628       131 |   3  48   29    0 870f |    3.509       0       5       0       5     48     48      0   4429     330       3  48    0870f a70f      9.690 "
test,1583576413303756032,28," | 28  |   4761       5   4751       6 |   0    6      4379       378 |   0  28   30    1 880f |    0           0       0       0       8      0      0      0   4194     563       0  28    1880f a70f     30.150 "
test,1583576413304044032,29," | 29  |   4761       5   4754       5 |   0    5      4202       557 |   0  29   48    1 5c0f |    0           0       0       0       8      0      0      0   3991     768       0  29    15c0f a70f     30.150 "
test,1583576413297426944,30," | 30  |   4761       5   4755       2 |   4    0      4691        66 |   8  30    0    1 ca0f |    1.739       0       4       0       4     30     30      0   4522     235       2  30    1ca0f a70f      6.480 "
test,1583576413295243008,35," | 35  |   4761       5   4755       2 |   5    1      4534       223 |   1  30   48    0 ca0f |    2.014       0       5       0       5     30     30      0   4433     324       1  30    0ca0f a70f      8.250 "
test,1583576413285842944,40," | 40  |   4761       5   4688      65 |   5    0      4456       297 |   1  48    0    0 870f |    2.044       0       5       0       5     48     48      0   4343     410       1  48    0870f a70f      8.100 "
test,1583576413285317888,41," | 41  |   4761       5   4688      59 |   5    0      4709        38 |   1  48    0    0 870f |    1.983       0       5       0       5     48     48      0   4590     157       1  48    0870f a70f      8.100 "
test,1583576413286292992,42," | 42  |   4761       5   4695      62 |   5    0      4655       102 |   1  48    0    0 870f |    1.983       0       5       0       5     48     48      0   4550     207       1  48    0870f a70f      8.130 "
test,1583576413288172032,44," | 44  |   4761       5   4700      57 |   5    0      4658        99 |   1  48    0    0 870f |    2.075       0       5       0       5     48     48      0   4566     191       1  48    0870f a70f      8.220 "
test,1583576413286976000,45," | 45  |   4761       5   4714      43 |   5    0      4607       150 |   1  48    0    0 870f |    2.044       0       5       0       5     48     48      0   4521     236       1  48    0870f a70f      8.250 "
test,1583576413283140864,46," | 46  |   4761       5   4693      57 |   5    0      4539       211 |   1  48    0    0 870f |    2.014       0       5       0       5     48     48      0   4457     293       1  48    0870f a70f      8.070 "
test,1583576413284360960,47," | 47  |   4761       5   4700      57 |   5    0      4595       162 |   1  48    0    0 870f |    2.044       0       5       0       5     48     48      0   4514     243       1  48    0870f a70f      8.280 "
test,1583576413282208000,48," | 48  |   4761       5   4635      55 |   4    0      4580       110 |   5  48    0    1 870f |    1.739       0       4       0       4     48     48      0   4496     194       2  48    1870f a70f      6.510 "
test,1583576413284809984,49," | 49  |   4761       5   4751       0 |   5    0      4659        92 |   1  55    0    0 d30f |    2.075       0       5       0       5     55     55      0   4623     128       1  55    0d30f a70f      8.880 "
test,1583576413288385024,51," | 51  |   4761       5   4752       0 |   5    0      4708        44 |   2  54    0    0 460f |    2.807       0       5       0       5     54     54      0   4691      61       2  54    0460f a70f      9.000 "
test,1583576413285613056,52," | 52  |   4761       4   4727      26 |   5    0      4529       224 |   3  48    0    0 870f |    3.509       0       5       0       5     48     48      0   4437     316       3  48    0870f a70f     10.290 "
test,1583576413290115072,53," | 53  |   4761       5   4735       0 |   5    0      4475       260 |   1  55    0    0 d30f |    2.075       0       5       0       5     55     55      0   4426     309       1  55    0d30f a70f      8.250 "
test,1583576413282023936,54," | 54  |   4761       5   4753       0 |   4    0      4670        83 |   4  54    0    1 460f |    1.739       0       4       0       4     54     54      0   4593     160       2  54    1460f a70f      6.480 "
test,1583576413282490112,55," | 55  |   4761       5   4740       0 |   5    0      4562       178 |   2  55    0    1 d30f |    1.739       0       4       0       4     55     55      0   4525     215       2  55    1d30f a70f      6.510 "
test,1583576413289057024,56," | 56  |   4761       5   4743       0 |   5    0      4668        75 |   2  54    0    0 460f |    2.777       0       5       0       5     54     54      0   4612     131       2  54    0460f a70f      8.970 "
test,1583576413305899008,57," | 57  |   4761       5   4698       0 |   2    5      4579       119 |   3  48   61    0 870f |    2.746       0       1       0       1     48     48      0   4299     399       2  48    0870f a70f     30.360 "
test,1583576413304649216,58," | 58  |   4761       5   4752       0 |   5    0      4684        68 |   3  55    0    0 d30f |    2.838       0       2       0       2     55     55      0   4482     270       2  55    0d30f a70f     30.330 "
test,1583576413292520960,5," |  5  |   4761       5   4759       0 |   5    0      4338       421 |   2  54    0    0 460f |    2.746       0       5       0       5     54     54      0   4257     502       2  54    0460f a70f      9.690 "
test,1583576413289803008,60," | 60  |   4761       5   4752       0 |   5    0      4456       296 |   3  54    0    0 460f |    3.509       0       5       0       5     54     54      0   4366     386       3  54    0460f a70f      9.600 "
test,1583576413302776064,61," | 61  |   4761       5   4751       0 |   0    2      4533       218 |   0  61   55    1 790f |    0           0       0       0       8      0      0      0   4375     376       0  61    1790f a70f     30.030 "
test,1583576413283411968,7," |  7  |   4761       5   4758       0 |   5    0      4685        73 |   1  54    0    0 460f |    1.983       0       5       0       5     54     54      0   4655     103       1  54    0460f a70f      8.220 "
test,1583576413282889984,9," |  9  |   4761       5   4757       0 |   5    0      4592       165 |   1  54    0    0 460f |    2.014       0       5       0       5     54     54      0   4572     185       1  54    0460f a70f      8.250 "
