test,1583576389781835008,10," | 10  |   4667       5   4639       0 |   5    0      4564        75 |   1  54    0    0 1e0f |    2.044       0       5       0       5     54     54      0   4505     134       1  54    01e0f a70f      8.280 "
test,1583576389782212096,12," | 12  |   4667       5   4661       4 |   5    0      4626        39 |   1  54    0    0 1e0f |    1.983       0       5       0       5     54     54      0   4556     109       1  54    01e0f a70f      8.220 "
test,1583576389782016000,13," | 13  |   4667       5   4663       0 |   5    0      4629        34 |   1  54    0    0 1e0f |    2.014       0       5       0       5     54     54      0   4573      90       1  54    01e0f a70f      8.130 "
test,1583576389787218944,15," | 15  |   4667       5   4658       7 |   5    0      4486       179 |   2  54    0    0 1e0f |    2.777       0       5       0       5     54     54      0   4290     375       2  54    01e0f a70f      9.000 "
test,1583576389794509824,16," | 16  |   4667       5   4663       0 |   5    0      4495       168 |   2  47    0    0 e40f |    3.509       0       5       0       5     47     47      0   4370     293       3  47    0e40f a70f      9.720 "
test,1583576389790445056,18," | 18  |   4667       5   4662       0 |   5    0      4393       269 |   3  47    0    0 e40f |    3.509       0       5       0       5     47     47      0   4204     458       3  47    0e40f a70f      9.690 "
test,1583576389785732864,1," |  1  |   4667       4   4664       0 |   5    0      4548       116 |   1  54    0    0 1e0f |    2.685       0       5       0       5     54     54      0   4515     149       1  54    01e0f a70f      8.940 "
test,1583576389791086080,22," | 22  |   4667       5   4661       0 |   5    0      4624        37 |   3  47    0    0 e40f |    4.241       0       5       0       5     47     47      0   4409     252       4  47    0e40f a70f     10.350 "
test,1583576389786792960,23," | 23  |   4667       5   4605       0 |   5    0      4585        20 |   4  47    0    0 e40f |    4.211       0       5       0       5     47     47      0   4489     116       4  47    0e40f a70f     10.410 "
test,1583576389789243904,24," | 24  |   4667       5   4661       2 |   5    0      4614        49 |   2  47    0    0 e40f |    2.746       0       5       0       5     47     47      0   4494     169       2  47    0e40f a70f      9.690 "
test,1583576389790218240,26," | 26  |   4667       5   4661       2 |   5    0      4646        17 |   2  47    0    0 e40f |    2.807       0       5       0       5     47     47      0   4563     100       2  47    0e40f a70f     10.290 "
test,1583576389786454016,27," | 27  |   4667       5   4665       0 |   5    0      4539       126 |   3  47    0    0 e40f |    3.540       0       5       0       5     47     47      0   4342     323       3  47    0e40f a70f      9.660 "
test,1583576389806488064,28," | 28  |   4667       5   4658       5 |   2    3      4296       367 |   1  35   47    0 230f |    2.014       0       3       0       3     35     35      0   4116     547       1  35    0230f a70f     30.360 "
test,1583576389806834944,29," | 29  |   4667       5   4660       5 |   1    0      4123       542 |  12  47    0    0 e40f |    7.141       0       2       0       2     47     47      0   3913     752       8  47    0e40f a70f     30.360 "
test,1583576389782521856,30," | 30  |   4667       5   4661       2 |   5    5      4598        65 |   1  35   47    0 230f |    2.044       0       5       0       5     35     35      0   4435     228       1  35    0230f a70f      8.130 "
test,1583576389783389184,35," | 35  |   4667       5   4661       2 |   4    4      4445       218 |   5  35   47    1 230f |    1.739       0       4       0       4     35     35      0   4347     316       2  35    1230f a70f      6.480 "
test,1583576389794132992,40," | 40  |   4667       5   4594      65 |   5    0      4368       291 |   2  47    0    0 e40f |    2.746       0       5       0       5     47     47      0   4258     401       2  47    0e40f a70f      8.880 "
test,1583576389787054080,41," | 41  |   4667       5   4594      59 |   5    0      4616        37 |   1  47    0    0 e40f |    2.044       0       5       0       5     47     47      0   4498     155       1  47    0e40f a70f      8.310 "
test,1583576389790044160,42," | 42  |   4667       5   4602      61 |   5    0      4562       101 |   1  47    0    0 e40f |    2.014       0       5       0       5     47     47      0   4459     204       1  47    0e40f a70f      8.220 "
test,1583576389787408128,44," | 44  |   4667       5   4606      57 |   5    0      4566        97 |   1  47    0    0 e40f |    2.014       0       5       0       5     47     47      0   4476     187       1  47    0e40f a70f      8.220 "
test,1583576389793932800,45," | 45  |   4667       5   4620      43 |   5    0      4515       148 |   1  47    0    0 e40f |    2.044       0       5       0       5     47     47      0   4430     233       1  47    0e40f a70f      9.720 "
test,1583576389792293120,46," | 46  |   4667       5   4599      57 |   5    0      4450       206 |   1  47    0    0 e40f |    2.044       0       5       0       5     47     47      0   4368     288       1  47    0e40f a70f      8.250 "
test,1583576389787756032,47," | 47  |   4667       5   4606      57 |   4    0      4505       158 |   2  47    0    1 e40f |    1.739       0       4       0       4     47     47      0   4424     239       2  47    1e40f a70f      6.480 "
test,1583576389789878016,48," | 48  |   4667       5   4541      55 |   5    0      4488       108 |   1  47    0    0 e40f |    2.044       0       5       0       5     47     47      0   4406     190       1  47    0e40f a70f      8.250 "
test,1583576389785137920,49," | 49  |   4667       5   4657       0 |   5    0      4568        89 |   2  54    0    0 1e0f |    2.746       0       5       0       5     54     54      0   4532     125       2  54    01e0f a70f      8.940 "
test,1583576389783612928,51," | 51  |   4667       5   4658       0 |   5    0      4614        44 |   2  54    0    0 1e0f |    2.746       0       5       0       5     54     54      0   4597      61       2  54    01e0f a70f      8.850 "
test,1583576389794878976,52," | 52  |   4667       5   4634      25 |   5    0      4443       216 |   3  47    0    0 e40f |    3.448       0       5       0       5     47     47      0   4352     307       3  47    0e40f a70f     10.350 "
test,1583576389793243904,53," | 53  |   4667       5   4641       0 |   5    0      4386       255 |   3  54    0    0 1e0f |    3.448       0       5       0       5     54     54      0   4338     303       3  54    01e0f a70f      9.690 "
test,1583576389783160064,54," | 54  |   4667       5   4659       0 |   4    0      4577        82 |   2  54    0    1 1e0f |    1.739       0       4       0       4     54     54      0   4501     158       2  54    11e0f a70f      7.200 "
test,1583576389785556992,55," | 55  |   4667       5   4646       0 |   5    0      4471       175 |   2  54    0    0 1e0f |    2.716       0       5       0       5     54     54      0   4435     211       2  54    01e0f a70f      8.910 "
test,1583576389788023040,56," | 56  |   4667       5   4649       0 |   5    0      4575        74 |   2  54    0    0 1e0f |    2.777       0       5       0       5     54     54      0   4520     129       2  54    01e0f a70f      8.970 "
test,1583576389806659072,57," | 57  |   4667       5   4604       0 |   2    0      4487       117 |   2  54    0    0 1e0f |    2.777       0       4       0       4     54     54      0   4212     392       2  54    01e0f a70f     30.360 "
test,1583576389784801024,58," | 58  |   4667       5   4658       0 |   5    0      4592        66 |   1  54    0    0 1e0f |    2.014       0       5       0       5     54     54      0   4394     264       1  54    01e0f a70f      8.910 "
test,1583576389795663104,5," |  5  |   4667       5   4665       0 |   5    0      4255       410 |   2  54    0    0 1e0f |    2.716       0       5       0       5     54     54      0   4176     489       2  54    01e0f a70f      8.910 "
test,1583576389784332032,60," | 60  |   4667       5   4658       0 |   5    0      4366       292 |   3  54    0    0 1e0f |    3.448       0       5       0       5     54     54      0   4277     381       3  54    01e0f a70f      9.660 "
test,1583576389789575936,61," | 61  |   4667       4   4657       0 |   5    0      4443       214 |   2  54    0    0 1e0f |    2.044       0       5       0       5     54     54      0   4287     370       1  54    01e0f a70f      9.000 "
test,1583576389782705152,7," |  7  |   4667       5   4664       0 |   5    0      4593        71 |   1  54    0    0 1e0f |    2.014       0       5       0       5     54     54      0   4564     100       1  54    01e0f a70f      8.160 "
test,1583576389785363968,9," |  9  |   4667       5   4663       0 |   5    0      4501       162 |   1  54    0    0 1e0f |    2.014       0       5       0       5     54     54      0   4481     182       1  54    01e0f a70f      8.970 "
