test,1583576245528305152,10," | 10  |   4090       5   4062       0 |   5    1      3996        66 |   2   1   51    0 c00f |    1.373       0       5       0       5      1      1      0   3945     117       1   1    0c00f a70f      7.620 "
test,1583576245527172096,12," | 12  |   4090       5   4088       0 |   5    0      4057        31 |   2   1    0    0 c00f |    1.373       0       5       0       5      1      1      0   3993      95       1   1    0c00f a70f      7.620 "
test,1583576245527976960,13," | 13  |   4090       5   4086       0 |   5    1      4059        27 |   1   1   51    0 c00f |    1.403       0       5       0       5      1      1      0   4010      76       1   1    0c00f a70f      7.620 "
test,1583576245549211136,15," | 15  |   4090       5   4088       0 |   0    9      3933       155 |   0  15   27    1 420f |    0           0       0       0       8      0      0      0   3756     332       0  15    1420f a70f     30.210 "
test,1583576245548499968,16," | 16  |   4090       5   4086       0 |   5    0      3938       148 |   3  51    0    0 310f |    0           0       0       0       8      0      0      0   3830     256       0  51    0310f a70f     30.360 "
test,1583576245534877184,17," | 17  |   4090       5   4081       5 |   5    0      4037        49 |   2  42    0    0 230f |    3.540       0       5       0       5     42     42      0   3914     172       3  42    0230f a70f     10.440 "
test,1583576245526113024,18," | 18  |   4090       5   4085       0 |   5    0      3861       224 |   1  42    0    0 230f |    2.075       0       5       0       5     42     42      0   3696     389       1  42    0230f a70f      8.280 "
test,1583576245542642176,19," | 19  |   4090       5   4077       9 |   5    0      4024        62 |   2  42    0    0 230f |    3.540       0       5       0       5     42     42      0   3903     183       3  42    0230f a70f     11.190 "
test,1583576245527544064,1," |  1  |   4090       4   4087       0 |   5    0      3990        97 |   8   1    0    1 c00f |    1.770       0       4       0       4      1      1      0   3960     127       2   1    1c00f a70f      6.510 "
test,1583576245535614976,22," | 22  |   4090       5   4084       0 |   5    0      4052        32 |   2  42    0    0 230f |    2.777       0       5       0       5     42     42      0   3863     221       2  42    0230f a70f      8.880 "
test,1583576245547808768,23," | 23  |   4090       5   4028       0 |   5    0      4009        19 |   2  51    0    0 310f |    0           0       0       0       8      0      0      0   3922     106       0  51    0310f a70f     30.390 "
test,1583576245532016128,24," | 24  |   4090       5   4084       2 |   5    0      4044        42 |   1  42    0    0 230f |    2.044       0       5       0       5     42     42      0   3942     144       1  42    0230f a70f      8.250 "
test,1583576245534329856,26," | 26  |   4090       5   4084       2 |   5    0      4071        15 |   2  42    0    0 230f |    2.807       0       5       0       5     42     42      0   3995      91       2  42    0230f a70f     10.440 "
test,1583576245550520832,27," | 27  |   4090       5   4088       0 |   0    4      3971       117 |   0  27   42    1 590f |    0           0       0       0       8      0      0      0   3802     286       0  27    1590f a70f     30.210 "
test,1583576245550725888,28," | 28  |   4090       5   4081       5 |   5    3      3766       320 |   1  35   42    0 e10f |    2.777       0       4       0       4     35     35      0   3614     472       2  35    0e10f a70f     30.360 "
test,1583576245552972032,29," | 29  |   4090       4   4083       5 |   4    4      3624       464 |   5  42   27    0 230f |   11.596       0       1       0       1     42     42      0   3433     655      14  42    0230f a70f     30.270 "
test,1583576245531193088,30," | 30  |   4090       5   4084       2 |   5    3      4032        54 |   1  35   42    0 e10f |    2.075       0       5       0       5     35     35      0   3884     202       1  35    0e10f a70f      8.280 "
test,1583576245530328064,35," | 35  |   4090       5   4084       2 |   4    4      3888       198 |   5  35   42    1 e10f |    1.739       0       4       0       4     35     35      0   3803     283       2  35    1e10f a70f      6.480 "
test,1583576245551789056,40," | 40  |   4090       5   4022      60 |   5    0      3834       248 |   1  42    0    0 230f |    2.075       0       4       0       4     42     42      0   3734     348       1  42    0230f a70f     30.390 "
test,1583576245533487104,41," | 41  |   4090       5   4017      59 |   5    0      4040        36 |   1  42    0    0 230f |    2.075       0       5       0       5     42     42      0   3935     141       1  42    0230f a70f      8.910 "
test,1583576245530108928,42," | 42  |   4090       5   4025      61 |   4    0      3992        94 |   2  42    0    1 230f |    1.770       0       4       0       4     42     42      0   3893     193       2  42    1230f a70f      7.950 "
test,1583576245530914048,44," | 44  |   4090       5   4029      57 |   5    0      3994        92 |   1  42    0    0 230f |    2.075       0       5       0       5     42     42      0   3912     174       1  42    0230f a70f      8.910 "
test,1583576245535491072,45," | 45  |   4090       5   4043      43 |   5    0      3952       134 |   1  42    0    0 230f |    2.044       0       5       0       5     42     42      0   3877     209       1  42    0230f a70f      8.970 "
test,1583576245533832192,46," | 46  |   4090       5   4022      57 |   5    0      3894       185 |   1  42    0    0 230f |    2.044       0       5       0       5     42     42      0   3816     263       1  42    0230f a70f      9.690 "
test,1583576245536905984,47," | 47  |   4090       5   4029      57 |   5    0      3941       145 |   1  42    0    0 230f |    2.075       0       5       0       5     42     42      0   3861     225       1  42    0230f a70f      9.000 "
test,1583576245530497024,48," | 48  |   4090       5   3964      55 |   5    0      3922        97 |   1  42    0    0 230f |    2.105       0       5       0       5     42     42      0   3845     174       1  42    0230f a70f      8.160 "
test,1583576245529894144,49," | 49  |   4090       5   4080       0 |   5    0      4005        75 |   1  53    0    0 9e0f |    2.044       0       5       0       5     53     53      0   3972     108       1  53    09e0f a70f      8.250 "
test,1583576245527774976,51," | 51  |   4090       5   4081       0 |   4    0      4042        39 |   2  51    0    1 310f |    1.739       0       4       0       4     51     51      0   4025      56       2  51    1310f a70f      6.480 "
test,1583576245532512000,52," | 52  |   4090       5   4058      24 |   5    0      3887       195 |   2  42    0    0 230f |    2.777       0       5       0       5     42     42      0   3807     275       2  42    0230f a70f      8.970 "
test,1583576245528512000,53," | 53  |   4090       5   4064       0 |   4    0      3852       212 |   2  53    0    1 9e0f |    1.739       0       4       0       4     53     53      0   3807     257       2  53    19e0f a70f      6.480 "
test,1583576245532811008,54," | 54  |   4090       5   4082       0 |   5    0      4009        73 |   1   1    0    0 c00f |    1.403       0       5       0       5      1      1      0   3943     139       1   1    0c00f a70f      7.560 "
test,1583576245535782144,55," | 55  |   4090       5   4069       0 |   5    0      3914       155 |   1  53    0    0 9e0f |    2.075       0       5       0       5     53     53      0   3882     187       1  53    09e0f a70f      8.280 "
test,1583576245529526016,56," | 56  |   4090       5   4072       0 |   5    0      4010        62 |   1  51    0    0 310f |    2.044       0       5       0       5     51     51      0   3964     108       1  51    0310f a70f      8.250 "
test,1583576245535075072,57," | 57  |   4090       5   4027       0 |   5    0      3923       104 |   1  51    0    0 310f |    2.746       0       5       0       5     51     51      0   3685     342       2  51    0310f a70f      8.940 "
test,1583576245539954944,58," | 58  |   4090       5   4081       0 |   5    0      4023        58 |   3   1    0    0 c00f |    2.105       0       5       0       5      1      1      0   3849     232       2   1    0c00f a70f      8.340 "
test,1583576245530697984,5," |  5  |   4090       5   4088       0 |   5    0      3723       365 |   2   1    0    0 c00f |    2.105       0       5       0       5      1      1      0   3653     435       2   1    0c00f a70f      8.340 "
test,1583576245529740032,60," | 60  |   4090       5   4081       0 |   5    0      3825       256 |   1  51    0    0 310f |    2.014       0       5       0       5     51     51      0   3750     331       1  51    0310f a70f      8.070 "
test,1583576245537765888,61," | 61  |   4090       5   4080       0 |   5    0      3896       184 |   4   1    0    0 c00f |    2.105       0       5       0       5      1      1      0   3766     314       2   1    0c00f a70f      9.030 "
test,1583576245527388160,7," |  7  |   4090       5   4087       0 |   5    0      4025        62 |   1   1    0    0 c00f |    1.373       0       5       0       5      1      1      0   4001      86       1   1    0c00f a70f      7.620 "
test,1583576245533276160,9," |  9  |   4090       5   4086       0 |   5    0      3940       146 |   1   1    0    0 c00f |    1.403       0       5       0       5      1      1      0   3920     166       1   1    0c00f a70f      7.650 "
