test,1583576225050475008,10," | 10  |   4008       5   3980       0 |   5    6      3914        66 |   1  56    9    0 a90f |    0           0       0       0       8      0      0      0   3864     116       0  56    0a90f a70f     30.390 "
test,1583576225028840960,12," | 12  |   4008       5   4006       0 |   5    0      3975        31 |   2   9    0    0 580f |    2.746       0       5       0       5      9      9      0   3911      95       2   9    0580f a70f      8.820 "
test,1583576225047209984,13," | 13  |   4008       5   4004       0 |   5   10      3977        27 |   1  56    9    0 a90f |    0           0       0       0       8      0      0      0   3928      76       0  56    0a90f a70f     30.390 "
test,1583576225035003904,15," | 15  |   4008       5   4006       0 |   5    0      3853       153 |   3   9    0    0 580f |    3.479       0       5       0       5      9      9      0   3679     327       3   9    0580f a70f      9.720 "
test,1583576225038974976,16," | 16  |   4008       5   4004       0 |   4    2      3859       145 |   8  56   47    0 a90f |    3.509       0       5       0       5     56     56      0   3753     251       3  56    0a90f a70f      9.540 "
test,1583576225032793088,17," | 17  |   4008       5   3999       5 |   5    0      3956        48 |   4  56    0    0 a90f |    3.540       0       5       0       5     56     56      0   3833     171       3  56    0a90f a70f      9.750 "
test,1583576225043483904,18," | 18  |   4008       5   4003       0 |   5    0      3783       220 |   1  47    0    0  e0f |    2.777       0       5       0       5     47     47      0   3618     385       2  47    0 e0f a70f     16.170 "
test,1583576225031513856,19," | 19  |   4008       5   3995       9 |   5    0      3943        61 |   5  56    0    0 a90f |    3.570       0       5       0       5     56     56      0   3821     183       3  56    0a90f a70f      9.630 "
test,1583576225030013184,1," |  1  |   4008       4   4005       0 |   5    0      3908        97 |   1   9    0    0 580f |    2.685       0       5       0       5      9      9      0   3879     126       1   9    0580f a70f      8.910 "
test,1583576225052134912,22," | 22  |   4008       5   4002       0 |   5    0      3970        32 |   2  47    0    0  e0f |   11.596       0       4       0       4     47     47      0   3781     221      14  47    0 e0f a70f     30.300 "
test,1583576225034761984,23," | 23  |   4008       5   3946       0 |   5    0      3927        19 |   2  56    0    0 a90f |    2.838       0       5       0       5     56     56      0   3841     105       2  56    0a90f a70f      9.630 "
test,1583576225037929984,24," | 24  |   4008       5   4002       2 |   5    0      3965        39 |   2  47    0    0  e0f |    2.807       0       5       0       5     47     47      0   3862     142       2  47    0 e0f a70f     15.450 "
test,1583576225030895104,26," | 26  |   4008       5   4002       2 |   5    0      3989        15 |   2  56    0    0 a90f |    2.777       0       5       0       5     56     56      0   3913      91       2  56    0a90f a70f      9.000 "
test,1583576225037518080,27," | 27  |   4008       4   4006       0 |   5    0      3891       115 |   3  56    0    0 a90f |    3.570       0       5       0       5     56     56      0   3725     281       3  56    0a90f a70f     11.100 "
test,1583576225042604800,28," | 28  |   4008       4   3999       5 |   4    2      3690       314 |   4  20   56    0 440f |    4.821       0       5       0       5     20     20      0   3540     464       5  20    0440f a70f     10.830 "
test,1583576225051387904,29," | 29  |   4008       5   4001       5 |   3    0      3558       448 |   4  56    0    0 a90f |    7.202       0       4       0       4     56     56      0   3368     638       8  56    0a90f a70f     30.270 "
test,1583576225036272896,30," | 30  |   4008       5   4002       2 |   5    0      3950        54 |   1  20    0    0 440f |    4.089       0       5       0       5     20     20      0   3803     201       4  20    0440f a70f     10.110 "
test,1583576225036489984,35," | 35  |   4008       5   4002       2 |   5    0      3807       197 |   2  20    0    0 440f |    4.791       0       5       0       5     20     20      0   3723     281       5  20    0440f a70f     10.950 "
test,1583576225036978944,40," | 40  |   4008       5   3940      60 |   5    0      3757       243 |   1  47    0    0  e0f |    2.075       0       5       0       5     47     47      0   3659     341       1  47    0 e0f a70f     10.320 "
test,1583576225032963072,41," | 41  |   4008       5   3935      59 |   5    0      3958        36 |   1  47    0    0  e0f |    2.044       0       5       0       5     47     47      0   3854     140       1  47    0 e0f a70f      8.280 "
test,1583576225030500864,42," | 42  |   4008       5   3943      61 |   5    0      3913        91 |   1  47    0    0  e0f |    2.014       0       5       0       5     47     47      0   3816     188       1  47    0 e0f a70f      8.250 "
test,1583576225030648832,44," | 44  |   4008       5   3947      57 |   5    0      3914        90 |   1  47    0    0  e0f |    2.044       0       5       0       5     47     47      0   3832     172       1  47    0 e0f a70f      8.220 "
test,1583576225032613120,45," | 45  |   4008       5   3961      43 |   5    0      3875       129 |   2  47    0    0  e0f |    2.807       0       5       0       5     47     47      0   3801     203       2  47    0 e0f a70f      8.940 "
test,1583576225034408192,46," | 46  |   4008       5   3940      57 |   5    0      3814       183 |   1  47    0    0  e0f |    2.014       0       5       0       5     47     47      0   3737     260       1  47    0 e0f a70f      8.970 "
test,1583576225031898112,47," | 47  |   4008       5   3947      57 |   5    0      3863       141 |   4  47    0    1  e0f |    1.739       0       4       0       4     47     47      0   3784     220       2  47    1 e0f a70f      7.920 "
test,1583576225036675840,48," | 48  |   4008       5   3882      55 |   5    0      3842        95 |   1  47    0    0  e0f |    2.044       0       5       0       5     47     47      0   3765     172       1  47    0 e0f a70f     11.130 "
test,1583576225029381888,49," | 49  |   4008       5   3998       0 |   5    5      3923        75 |   1  53    9    0 a50f |    2.075       0       5       0       5     53     53      0   3890     108       1  53    0a50f a70f      8.310 "
test,1583576225028297984,51," | 51  |   4008       5   3999       0 |   5    0      3960        39 |   1  56    0    0 a90f |    2.105       0       5       0       5     56     56      0   3943      56       1  56    0a90f a70f      8.220 "
test,1583576225037352192,52," | 52  |   4008       5   3976      24 |   5    0      3811       189 |   7  56    0    0 a90f |    3.540       0       5       0       5     56     56      0   3731     269       3  56    0a90f a70f      9.630 "
test,1583576225030235904,53," | 53  |   4008       5   3982       0 |   4    0      3774       208 |   5  53    0    1 a50f |    1.739       0       4       0       4     53     53      0   3729     253       2  53    1a50f a70f      6.480 "
test,1583576225029555968,54," | 54  |   4008       5   4000       0 |   5    0      3928        72 |   2   9    0    0 580f |    2.044       0       5       0       5      9      9      0   3864     136       1   9    0580f a70f      8.220 "
test,1583576225033575168,55," | 55  |   4008       5   3987       0 |   5    5      3841       146 |   1  53    9    0 a50f |    2.044       0       5       0       5     53     53      0   3809     178       1  53    0a50f a70f      8.250 "
test,1583576225029187840,56," | 56  |   4008       5   3990       0 |   5    0      3928        62 |   4  56    0    1 a90f |    1.739       0       4       0       4     56     56      0   3884     106       2  56    1a90f a70f      6.480 "
test,1583576225033221888,57," | 57  |   4008       5   3945       0 |   5    0      3842       103 |   1  56    0    0 a90f |    2.044       0       5       0       5     56     56      0   3608     337       1  56    0a90f a70f      8.250 "
test,1583576225051649024,58," | 58  |   4008       5   3999       0 |   5    0      3942        57 |   3   9    0    0 580f |    9.338       0       1       0       1      9      9      0   3773     226      11   9    0580f a70f     30.390 "
test,1583576225049197824,5," |  5  |   4008       5   4006       0 |   5    6      3652       354 |   2  56    9    0 a90f |    0           0       0       0       8      0      0      0   3583     423       0  56    0a90f a70f     30.360 "
test,1583576225028670976,60," | 60  |   4008       5   3999       0 |   5    0      3748       251 |   1  56    0    0 a90f |    2.105       0       5       0       5     56     56      0   3676     323       1  56    0a90f a70f      8.190 "
test,1583576225032352000,61," | 61  |   4008       5   3998       0 |   3    9      3818       180 |   1  56    9    0 a90f |    2.075       0       5       0       5     56     56      0   3689     309       1  56    0a90f a70f      8.310 "
test,1583576225029006080,7," |  7  |   4008       5   4005       0 |   5    0      3944        61 |   2   9    0    0 580f |    2.044       0       5       0       5      9      9      0   3920      85       1   9    0580f a70f      9.000 "
test,1583576225028011008,9," |  9  |   4008       5   4004       0 |   5    0      3860       144 |   2   9    0    1 580f |    1.739       0       4       0       4      9      9      0   3840     164       2   9    1580f a70f      6.480 "
