test,1583576435282804992,10," | 10  |   4849       5   4821       0 |   5    0      4743        78 |   2  10    0    1 320f |    1.739       0       4       0       4     10     10      0   4680     141       2  10    1320f a70f      6.510 "
test,1583576435290398976,12," | 12  |   4849       5   4835      12 |   5    0      4804        43 |   1  10    0    0 320f |    1.983       0       5       0       5     10     10      0   4718     129       1  10    0320f a70f      8.220 "
test,1583576435283740160,13," | 13  |   4849       5   4845       0 |   5    0      4808        37 |   1  10    0    0 320f |    1.983       0       5       0       5     10     10      0   4747      98       1  10    0320f a70f      8.220 "
test,1583576435281426944,15," | 15  |   4849       5   4829      18 |   5    0      4660       187 |   2  10    0    0 320f |    2.746       0       5       0       5     10     10      0   4440     407       2  10    0320f a70f      8.970 "
test,1583576435303886848,16," | 16  |   4849       5   4845       0 |   5    0      4671       174 |   3  35    0    0 850f |    0           0       0       0       8      0      0      0   4541     304       0  35    0850f a70f     30.390 "
test,1583576435284733184,17," | 17  |   4849       5   4838       7 |   1    4      4787        58 |   5  24   19    0 2d0f |    2.807       0       5       0       5     24     24      0   4645     200       2  24    02d0f a70f      8.970 "
test,1583576435304361216,18," | 18  |   4849       5   4844       0 |   1    6      4564       280 |   2  35   24    0 850f |    0           0       0       0       8      0      0      0   4370     474       0  35    0850f a70f     30.360 "
test,1583576435306697984,19," | 19  |   4849       5   4834      11 |   3    2      4769        76 |  14  19   35    1 e50f |   10.314       0       2       0       2     19     19      0   4628     217      14  19    1e50f a70f     30.180 "
test,1583576435288177920,1," |  1  |   4849       4   4846       0 |   5    0      4725       121 |   1  10    0    0 320f |    2.685       0       5       0       5     10     10      0   4691     155       1  10    0320f a70f      8.760 "
test,1583576435303720960,22," | 22  |   4849       5   4843       0 |   1    4      4804        39 |   1  35   24    0 850f |    0           0       0       0       8      0      0      0   4583     260       0  35    0850f a70f     30.360 "
test,1583576435301799168,23," | 23  |   4849       5   4787       0 |   5    0      4766        21 |   2  35    0    0 850f |    0           0       0       0       8      0      0      0   4667     120       0  35    0850f a70f     30.600 "
test,1583576435282996992,24," | 24  |   4849       5   4843       2 |   1    1      4796        49 |   5  24   19    1 2d0f |    1.770       0       4       0       4     24     24      0   4673     172       2  24    12d0f a70f      6.510 "
test,1583576435285510912,26," | 26  |   4849       5   4843       2 |   1    3      4825        20 |   4  24   19    0 2d0f |    2.044       0       5       0       5     24     24      0   4742     103       1  24    02d0f a70f      8.280 "
test,1583576435294099968,27," | 27  |   4849       5   4847       0 |   4    0      4714       133 |   1  19    0    0 e50f |    2.044       0       5       0       5     19     19      0   4512     335       1  19    0e50f a70f     13.620 "
test,1583576435307130112,28," | 28  |   4849       4   4839       6 |   4    1      4457       388 |   1  35   19    0 850f |    4.241       0       3       0       3     35     35      0   4269     576       4  35    0850f a70f     30.360 "
test,1583576435288642048,29," | 29  |   4849       5   4841       6 |   5    0      4280       567 |   1  19    0    0 e50f |    2.044       0       5       0       5     19     19      0   4070     777       1  19    0e50f a70f     10.890 "
test,1583576435283162112,30," | 30  |   4849       5   4843       2 |   5    0      4779        66 |   1  35    0    0 850f |    2.044       0       5       0       5     35     35      0   4602     243       1  35    0850f a70f      8.250 "
test,1583576435282558976,35," | 35  |   4849       5   4843       2 |   4    0      4618       227 |   2  35    0    1 850f |    1.739       0       4       0       4     35     35      0   4513     332       2  35    1850f a70f      6.480 "
test,1583576435287510016,40," | 40  |   4849       5   4776      65 |   5    0      4540       301 |   1  24    0    0 2d0f |    4.241       0       5       0       5     24     24      0   4426     415       4  24    02d0f a70f     10.260 "
test,1583576435290074112,41," | 41  |   4849       5   4776      59 |   5    0      4797        38 |   2  24    0    0 2d0f |    3.479       0       5       0       5     24     24      0   4677     158       3  24    02d0f a70f      9.690 "
test,1583576435290978816,42," | 42  |   4849       5   4783      62 |   5    0      4742       103 |   2  24    0    0 2d0f |    3.509       0       5       0       5     24     24      0   4636     209       3  24    02d0f a70f     10.350 "
test,1583576435287979008,44," | 44  |   4849       5   4788      57 |   5    0      4746        99 |   1  24    0    0 2d0f |    2.777       0       5       0       5     24     24      0   4654     191       2  24    02d0f a70f      9.030 "
test,1583576435291150080,45," | 45  |   4849       5   4802      43 |   5    0      4693       152 |   2  24    0    0 2d0f |    3.509       0       5       0       5     24     24      0   4606     239       3  24    02d0f a70f      9.540 "
test,1583576435289413888,46," | 46  |   4849       5   4781      57 |   5    0      4623       215 |   2  24    0    0 2d0f |    3.479       0       5       0       5     24     24      0   4540     298       3  24    02d0f a70f     10.230 "
test,1583576435289263104,47," | 47  |   4849       5   4788      57 |   5    0      4680       165 |   3  24    0    0 2d0f |    3.479       0       5       0       5     24     24      0   4599     246       3  24    02d0f a70f      9.690 "
test,1583576435287222016,48," | 48  |   4849       5   4723      55 |   5    0      4667       111 |   2  24    0    0 2d0f |    3.479       0       5       0       5     24     24      0   4583     195       3  24    02d0f a70f     10.440 "
test,1583576435283521024,49," | 49  |   4849       5   4839       0 |   5    0      4744        95 |   1  55    0    0 650f |    2.075       0       5       0       5     55     55      0   4708     131       1  55    0650f a70f      8.280 "
test,1583576435284910080,51," | 51  |   4849       5   4840       0 |   5    0      4795        45 |   1  10    0    0 320f |    1.983       0       5       0       5     10     10      0   4778      62       1  10    0320f a70f      8.940 "
test,1583576435289638144,52," | 52  |   4849       5   4815      26 |   1    9      4612       229 |   5  24   19    0 2d0f |    2.777       0       5       0       5     24     24      0   4519     322       2  24    02d0f a70f      8.820 "
test,1583576435283924992,53," | 53  |   4849       5   4823       0 |   5    0      4561       262 |   1  55    0    0 650f |    2.014       0       5       0       5     55     55      0   4510     313       1  55    0650f a70f      8.220 "
test,1583576435284396032,54," | 54  |   4849       5   4841       0 |   5    0      4758        83 |   1  10    0    0 320f |    1.983       0       5       0       5     10     10      0   4678     163       1  10    0320f a70f      8.190 "
test,1583576435282337792,55," | 55  |   4849       5   4828       0 |   5    0      4645       183 |   2  55    0    1 650f |    1.739       0       4       0       4     55     55      0   4607     221       2  55    1650f a70f      6.480 "
test,1583576435286489088,56," | 56  |   4849       5   4831       0 |   5    0      4754        77 |   1  10    0    0 320f |    1.953       0       5       0       5     10     10      0   4697     134       1  10    0320f a70f      9.510 "
test,1583576435302656768,57," | 57  |   4849       4   4786       0 |   1    3      4663       123 |   3  35   10    0 850f |    0           0       0       0       8      0      0      0   4379     407       0  35    0850f a70f     30.360 "
test,1583576435285120000,58," | 58  |   4849       5   4840       0 |   5    0      4771        69 |   1  55    0    0 650f |    2.044       0       5       0       5     55     55      0   4565     275       1  55    0650f a70f      8.130 "
test,1583576435286007040,5," |  5  |   4849       5   4847       0 |   5    0      4415       432 |   2  10    0    0 320f |    2.716       0       5       0       5     10     10      0   4331     516       2  10    0320f a70f      8.940 "
test,1583576435296576000,60," | 60  |   4849       5   4840       0 |   5    0      4535       305 |   2  10    0    0 320f |    2.716       0       5       0       5     10     10      0   4443     397       2  10    0320f a70f      9.510 "
test,1583576435305524992,61," | 61  |   4849       5   4839       0 |   4    1      4618       221 |   1  10   55    0 320f |    2.014       0       2       0       2     10     10      0   4457     382       1  10    0320f a70f     30.390 "
test,1583576435284189952,7," |  7  |   4849       5   4846       0 |   5    0      4773        73 |   1  10    0    0 320f |    1.983       0       5       0       5     10     10      0   4741     105       1  10    0320f a70f      8.250 "
test,1583576435285337856,9," |  9  |   4849       5   4845       0 |   5    0      4677       168 |   1  10    0    0 320f |    2.014       0       5       0       5     10     10      0   4655     190       1  10    0320f a70f      8.100 "
