test,1583576470805988096,10," | 10  |   4991       5   4963       0 |   5    1      4882        81 |   1  54   49    0 440f |    1.983       0       4       0       4     54     54      0   4819     144       1  54    0440f a70f     30.390 "
test,1583576470783548160,12," | 12  |   4991       5   4976      13 |   5    0      4941        48 |   1  54    0    0 440f |    2.044       0       5       0       5     54     54      0   4854     135       1  54    0440f a70f      8.160 "
test,1583576470786170112,13," | 13  |   4991       5   4987       0 |   5    0      4948        39 |   1  54    0    0 440f |    2.014       0       5       0       5     54     54      0   4887     100       1  54    0440f a70f      9.000 "
test,1583576470807912192,15," | 15  |   4991       5   4970      19 |   4    0      4795       194 |   2  54    0    0 440f |    2.746       0       4       0       4     54     54      0   4571     418       2  54    0440f a70f     30.390 "
test,1583576470790522112,16," | 16  |   4991       5   4987       0 |   5    0      4808       179 |   2  17    0    0 610f |    2.746       0       5       0       5     17     17      0   4673     314       2  17    0610f a70f      8.970 "
test,1583576470790193152,17," | 17  |   4991       5   4980       7 |   4    0      4927        60 |   4  17    0    1 610f |    3.204       0       4       0       4     17     17      0   4781     206       4  17    1610f a70f      7.950 "
test,1583576470805809920,18," | 18  |   4991       5   4986       0 |   5    0      4697       289 |   2  17    0    0 610f |    4.943       0       4       0       4     17     17      0   4494     492       5  17    0610f a70f     30.300 "
test,1583576470791304960,19," | 19  |   4991       5   4976      11 |   5    0      4905        82 |   1  17    0    0 610f |    2.014       0       5       0       5     17     17      0   4762     225       1  17    0610f a70f      8.880 "
test,1583576470784215040,1," |  1  |   4991       4   4988       0 |   5    1      4861       127 |   1  54   49    0 440f |    2.685       0       5       0       5     54     54      0   4826     162       1  54    0440f a70f      8.760 "
test,1583576470784755968,22," | 22  |   4991       5   4985       0 |   5    0      4942        43 |   2  17    0    0 610f |    2.746       0       5       0       5     17     17      0   4712     273       2  17    0610f a70f      8.940 "
test,1583576470785391104,23," | 23  |   4991       5   4929       0 |   5    0      4907        22 |   1  17    0    0 610f |    2.014       0       5       0       5     17     17      0   4805     124       1  17    0610f a70f      8.160 "
test,1583576470785633024,24," | 24  |   4991       5   4985       2 |   5    0      4937        50 |   2  17    0    0 610f |    2.777       0       5       0       5     17     17      0   4806     181       2  17    0610f a70f      9.690 "
test,1583576470789796096,26," | 26  |   4991       5   4985       2 |   5    0      4967        20 |   1  17    0    0 610f |    2.014       0       5       0       5     17     17      0   4878     109       1  17    0610f a70f      8.910 "
test,1583576470793639936,27," | 27  |   4991       5   4989       0 |   5    0      4850       139 |   1  17    0    0 610f |    1.983       0       5       0       5     17     17      0   4645     344       1  17    0610f a70f      8.910 "
test,1583576470803544064,28," | 28  |   4991       5   4981       6 |   0    4      4587       400 |   0  28   17    1 7e0f |    0           0       0       0       8      0      0      0   4393     594       0  28    17e0f a70f     30.150 "
test,1583576470807374080,29," | 29  |   4991       3   4982       7 |   4    0      4412       577 |   4  17    0    0 610f |    4.241       0       3       0       3     17     17      0   4199     790       4  17    0610f a70f     30.360 "
test,1583576470787906048,30," | 30  |   4991       5   4985       2 |   5    0      4920        67 |   4  17    0    0 610f |    3.509       0       5       0       5     17     17      0   4737     250       3  17    0610f a70f     10.410 "
test,1583576470786028032,35," | 35  |   4991       5   4985       2 |   5    0      4752       235 |   3  17    0    0 610f |    3.448       0       5       0       5     17     17      0   4643     344       3  17    0610f a70f      9.630 "
test,1583576470806749952,40," | 40  |   4991       5   4914      69 |   5    0      4676       307 |   1  44    0    0 d90f |    2.044       0       4       0       4     44     44      0   4560     423       1  44    0d90f a70f     30.240 "
test,1583576470787374848,41," | 41  |   4991       5   4918      59 |   4    0      4939        38 |   2  44    0    0 d90f |    2.044       0       5       0       5     44     44      0   4817     160       1  44    0d90f a70f      8.280 "
test,1583576470786729216,42," | 42  |   4991       5   4925      62 |   5    0      4882       105 |   1  44    0    0 d90f |    1.983       0       5       0       5     44     44      0   4775     212       1  44    0d90f a70f      8.910 "
test,1583576470787751936,44," | 44  |   4991       5   4930      57 |   5    0      4887       100 |   2  44    0    1 d90f |    1.739       0       4       0       4     44     44      0   4793     194       2  44    1d90f a70f      7.920 "
test,1583576470784925952,45," | 45  |   4991       5   4944      43 |   5    0      4830       157 |   1  44    0    0 d90f |    2.044       0       5       0       5     44     44      0   4739     248       1  44    0d90f a70f      9.000 "
test,1583576470786331904,46," | 46  |   4991       5   4923      57 |   5    0      4762       218 |   1  44    0    0 d90f |    2.014       0       5       0       5     44     44      0   4678     302       1  44    0d90f a70f      8.940 "
test,1583576470787201024,47," | 47  |   4991       5   4930      57 |   5    0      4816       171 |   1  44    0    0 d90f |    2.044       0       5       0       5     44     44      0   4735     252       1  44    0d90f a70f      9.000 "
test,1583576470789036032,48," | 48  |   4991       5   4865      55 |   5    0      4808       112 |   1  44    0    0 d90f |    2.014       0       5       0       5     44     44      0   4722     198       1  44    0d90f a70f      8.250 "
test,1583576470791016192,49," | 49  |   4991       5   4981       0 |   4    0      4884        97 |   2  49    0    1 330f |    1.739       0       4       0       4     49     49      0   4847     134       2  49    1330f a70f      6.480 "
test,1583576470788450048,51," | 51  |   4991       5   4982       0 |   5    0      4935        47 |   3  49    0    0 330f |    4.211       0       5       0       5     49     49      0   4918      64       4  49    0330f a70f     10.410 "
test,1583576470787002112,52," | 52  |   4991       5   4957      26 |   4    0      4749       234 |   2  17    0    0 610f |    2.777       0       5       0       5     17     17      0   4653     330       2  17    0610f a70f      9.690 "
test,1583576470797993984,53," | 53  |   4991       5   4965       0 |   5    0      4694       271 |   1  49    0    0 330f |    1.983       0       5       0       5     49     49      0   4642     323       1  49    0330f a70f      8.190 "
test,1583576470784435968,54," | 54  |   4991       5   4983       0 |   3    0      4898        85 |   8  54    0    1 440f |    1.739       0       4       0       4     54     54      0   4816     167       2  54    1440f a70f      7.200 "
test,1583576470790350080,55," | 55  |   4991       5   4970       0 |   5    0      4781       189 |   1  49    0    0 330f |    2.014       0       5       0       5     49     49      0   4741     229       1  49    0330f a70f      8.190 "
test,1583576470792000000,56," | 56  |   4991       5   4973       0 |   5    0      4895        78 |   2  49    0    0 330f |    3.479       0       5       0       5     49     49      0   4836     137       3  49    0330f a70f      9.690 "
test,1583576470806562048,57," | 57  |   4991       5   4928       0 |   3    1      4803       125 |   2  49   54    0 330f |   10.040       0       1       0       1     49     49      0   4512     416      12  49    0330f a70f     30.360 "
test,1583576470783955968,58," | 58  |   4991       5   4982       0 |   5    0      4910        72 |   1  49    0    0 330f |    1.983       0       5       0       5     49     49      0   4698     284       1  49    0330f a70f      8.220 "
test,1583576470789443072,5," |  5  |   4991       5   4989       0 |   5    0      4549       440 |   2  54    0    0 440f |    2.746       0       5       0       5     54     54      0   4463     526       2  54    0440f a70f      9.510 "
test,1583576470790848000,60," | 60  |   4991       5   4982       0 |   5    0      4667       315 |   3  49    0    0 330f |    4.943       0       5       0       5     49     49      0   4573     409       5  49    0330f a70f     11.100 "
test,1583576470791641856,61," | 61  |   4991       5   4981       0 |   5    0      4754       227 |   2  49    0    0 330f |    2.746       0       5       0       5     49     49      0   4586     395       2  49    0330f a70f      8.970 "
test,1583576470783750912,7," |  7  |   4991       5   4988       0 |   5    1      4913        75 |   1  54   49    0 440f |    1.983       0       5       0       5     54     54      0   4882     106       1  54    0440f a70f      8.250 "
test,1583576470785816832,9," |  9  |   4991       5   4987       0 |   5    0      4816       171 |   1  54    0    0 440f |    1.983       0       5       0       5     54     54      0   4793     194       1  54    0440f a70f      8.220 "
