test,1583576440298313984,10," | 10  |   4869       5   4841       0 |   5    0      4763        78 |   3  23    0    0 e00f |    3.509       0       5       0       5     23     23      0   4700     141       3  23    0e00f a70f      9.720 "
test,1583576440288583168,12," | 12  |   4869       5   4854      13 |   5    0      4823        44 |   3  23    0    0 e00f |    3.509       0       5       0       5     23     23      0   4736     131       3  23    0e00f a70f     10.320 "
test,1583576440288754944,13," | 13  |   4869       5   4865       0 |   5    0      4828        37 |   4  23    0    0 e00f |    3.479       0       5       0       5     23     23      0   4767      98       3  23    0e00f a70f     10.410 "
test,1583576440289791232,15," | 15  |   4869       5   4848      19 |   5    0      4680       187 |   3  23    0    0 e00f |    2.746       0       5       0       5     23     23      0   4457     410       2  23    0e00f a70f      9.720 "
test,1583576440283843072,16," | 16  |   4869       5   4865       0 |   5    0      4691       174 |   1  23    0    0 e00f |    2.014       0       5       0       5     23     23      0   4560     305       1  23    0e00f a70f      8.280 "
test,1583576440290550016,17," | 17  |   4869       5   4858       7 |   5    0      4806        59 |   1  23    0    0 e00f |    2.044       0       5       0       5     23     23      0   4663     202       1  23    0e00f a70f     10.290 "
test,1583576440290142976,18," | 18  |   4869       5   4864       0 |   5    0      4584       280 |   2  23    0    0 e00f |    2.746       0       5       0       5     23     23      0   4389     475       2  23    0e00f a70f      8.940 "
test,1583576440295517952,19," | 19  |   4869       5   4854      11 |   5    0      4787        78 |   1  23    0    0 e00f |    2.014       0       5       0       5     23     23      0   4646     219       1  23    0e00f a70f     10.380 "
test,1583576440285423872,1," |  1  |   4869       4   4866       0 |   5    0      4745       121 |   3  23    0    0 e00f |    4.180       0       5       0       5     23     23      0   4711     155       3  23    0e00f a70f     10.230 "
test,1583576440282530048,22," | 22  |   4869       5   4863       0 |   5    0      4824        39 |   1  23    0    0 e00f |    2.014       0       5       0       5     23     23      0   4602     261       1  23    0e00f a70f      8.160 "
test,1583576440283660800,23," | 23  |   4869       5   4807       0 |   4    0      4785        22 |   2  23    0    1 e00f |    1.770       0       4       0       4     23     23      0   4686     121       2  23    1e00f a70f      6.510 "
test,1583576440282979072,24," | 24  |   4869       5   4863       2 |   5    0      4816        49 |   1  23    0    0 e00f |    2.014       0       5       0       5     23     23      0   4692     173       1  23    0e00f a70f      8.100 "
test,1583576440284272896,26," | 26  |   4869       5   4863       2 |   5    0      4845        20 |   1  23    0    0 e00f |    2.044       0       5       0       5     23     23      0   4761     104       1  23    0e00f a70f      9.000 "
test,1583576440292686080,27," | 27  |   4869       5   4867       0 |   4    0      4733       134 |   1  23    0    0 e00f |    2.014       0       5       0       5     23     23      0   4531     336       1  23    0e00f a70f      9.660 "
test,1583576440293317120,28," | 28  |   4869       3   4859       6 |   4    0      4475       390 |   2  23    0    0 e00f |    2.746       0       5       0       5     23     23      0   4287     578       2  23    0e00f a70f     10.920 "
test,1583576440289047040,29," | 29  |   4869       5   4860       7 |   4    0      4299       568 |   2  23    0    0 e00f |    2.777       0       5       0       5     23     23      0   4089     778       2  23    0e00f a70f     10.380 "
test,1583576440285597952,30," | 30  |   4869       5   4863       2 |   5    0      4799        66 |   2  23    0    0 e00f |    2.746       0       5       0       5     23     23      0   4622     243       2  23    0e00f a70f      8.790 "
test,1583576440290811904,35," | 35  |   4869       5   4863       2 |   5    0      4636       229 |   2  23    0    0 e00f |    2.716       0       5       0       5     23     23      0   4531     334       2  23    0e00f a70f      8.910 "
test,1583576440289583872,40," | 40  |   4869       5   4796      65 |   1    4      4560       301 |   1  45   23    0 9e0f |    2.014       0       5       0       5     45     45      0   4445     416       1  45    09e0f a70f      9.690 "
test,1583576440290961920,41," | 41  |   4869       5   4796      59 |   1    2      4817        38 |   1  45   23    0 9e0f |    2.044       0       5       0       5     45     45      0   4697     158       1  45    09e0f a70f      8.250 "
test,1583576440288194816,42," | 42  |   4869       5   4803      62 |   1    2      4762       103 |   1  45   23    0 9e0f |    2.014       0       5       0       5     45     45      0   4656     209       1  45    09e0f a70f      8.910 "
test,1583576440287836160,44," | 44  |   4869       5   4808      57 |   1    6      4766        99 |   1  45   23    0 9e0f |    2.014       0       5       0       5     45     45      0   4674     191       1  45    09e0f a70f      9.540 "
test,1583576440283418880,45," | 45  |   4869       5   4822      43 |   1    1      4713       152 |   2  45   23    1 9e0f |    1.739       0       4       0       4     45     45      0   4625     240       2  45    19e0f a70f      6.480 "
test,1583576440286722048,46," | 46  |   4869       5   4801      57 |   1    0      4642       216 |   2  45    0    0 9e0f |    2.746       0       5       0       5     45     45      0   4559     299       2  45    09e0f a70f      8.940 "
test,1583576440287108864,47," | 47  |   4869       5   4808      57 |   1    4      4698       167 |   1  45   23    0 9e0f |    1.983       0       5       0       5     45     45      0   4618     247       1  45    09e0f a70f      8.940 "
test,1583576440287985920,48," | 48  |   4869       5   4743      55 |   1    4      4687       111 |   1  45   23    0 9e0f |    2.014       0       5       0       5     45     45      0   4603     195       1  45    09e0f a70f      8.880 "
test,1583576440282775040,49," | 49  |   4869       5   4859       0 |   5    1      4764        95 |   1  53   23    0 100f |    2.075       0       5       0       5     53     53      0   4728     131       1  53    0100f a70f      8.220 "
test,1583576440284986112,51," | 51  |   4869       5   4860       0 |   5    0      4815        45 |   2  23    0    0 e00f |    2.746       0       5       0       5     23     23      0   4798      62       2  23    0e00f a70f      8.910 "
test,1583576440296463872,52," | 52  |   4869       5   4835      26 |   5    0      4631       230 |   1  23    0    0 e00f |    2.014       0       5       0       5     23     23      0   4538     323       1  23    0e00f a70f      8.130 "
test,1583576440285764864,53," | 53  |   4869       5   4843       0 |   4    0      4579       264 |   8  53    0    1 100f |    1.739       0       4       0       4     53     53      0   4528     315       2  53    1100f a70f      6.480 "
test,1583576440286034944,54," | 54  |   4869       5   4861       0 |   5    0      4778        83 |   2  23    0    0 e00f |    3.479       0       5       0       5     23     23      0   4698     163       3  23    0e00f a70f      9.660 "
test,1583576440286498048,55," | 55  |   4869       5   4848       0 |   5    1      4664       184 |   1  53   23    0 100f |    2.075       0       5       0       5     53     53      0   4626     222       1  53    0100f a70f      8.130 "
test,1583576440284497920,56," | 56  |   4869       5   4851       0 |   5    0      4774        77 |   2  23    0    0 e00f |    2.777       0       5       0       5     23     23      0   4717     134       2  23    0e00f a70f      8.970 "
test,1583576440298817024,57," | 57  |   4869       3   4806       0 |   5    0      4683       123 |   1  23    0    0 e00f |    2.044       0       5       0       5     23     23      0   4398     408       1  23    0e00f a70f      8.820 "
test,1583576440289388800,58," | 58  |   4869       5   4860       0 |   3    0      4790        70 |   2  23    0    0 e00f |    3.479       0       5       0       5     23     23      0   4584     276       3  23    0e00f a70f      9.600 "
test,1583576440288398080,5," |  5  |   4869       5   4867       0 |   5    0      4434       433 |   5  23    0    0 e00f |    4.211       0       5       0       5     23     23      0   4349     518       4  23    0e00f a70f     10.980 "
test,1583576440286300928,60," | 60  |   4869       5   4860       0 |   5    0      4555       305 |   2  23    0    0 e00f |    2.746       0       5       0       5     23     23      0   4463     397       2  23    0e00f a70f      9.660 "
test,1583576440285229824,61," | 61  |   4869       5   4859       0 |   5    0      4636       223 |   2  23    0    0 e00f |    2.746       0       5       0       5     23     23      0   4475     384       2  23    0e00f a70f      8.820 "
test,1583576440284800000,7," |  7  |   4869       5   4866       0 |   5    0      4793        73 |   3  23    0    0 e00f |    3.448       0       5       0       5     23     23      0   4760     106       3  23    0e00f a70f      9.690 "
test,1583576440296246016,9," |  9  |   4869       5   4865       0 |   5    0      4697       168 |   3  23    0    0 e00f |    4.180       0       5       0       5     23     23      0   4675     190       4  23    0e00f a70f     10.410 "
