test,1583576338531105024,10," | 10  |   4462       5   4434       0 |   5    0      4365        69 |   1   1    0    0 820f |    1.342       0       5       0       5      1      1      0   4305     129       1   1    0820f a70f      7.590 "
test,1583576338531863040,12," | 12  |   4462       5   4460       0 |   5    0      4425        35 |   1   1    0    0 820f |    1.373       0       5       0       5      1      1      0   4357     103       1   1    0820f a70f      7.470 "
test,1583576338530697216,13," | 13  |   4462       5   4458       0 |   5    0      4425        33 |   1   1    0    0 820f |    1.373       0       5       0       5      1      1      0   4372      86       1   1    0820f a70f      7.560 "
test,1583576338532614912,15," | 15  |   4462       5   4460       0 |   5    0      4293       167 |   2   1    0    0 820f |    2.105       0       5       0       5      1      1      0   4104     356       2   1    0820f a70f      8.190 "
test,1583576338533068800,16," | 16  |   4462       5   4458       0 |   5    0      4295       163 |   2  19    0    0 5c0f |    2.685       0       5       0       5     19     19      0   4178     280       2  19    05c0f a70f      8.880 "
test,1583576338536231936,17," | 17  |   4462       5   4453       5 |   5    0      4405        53 |   1  19    0    0 5c0f |    1.953       0       5       0       5     19     19      0   4275     183       1  19    05c0f a70f      8.160 "
test,1583576338534696192,18," | 18  |   4462       5   4457       0 |   5    0      4204       253 |   4  19    0    0 5c0f |    3.448       0       5       0       5     19     19      0   4021     436       3  19    05c0f a70f      9.630 "
test,1583576338541460992,19," | 19  |   4462       5   4449       9 |   4    0      4388        70 |   2  19    0    1 5c0f |    1.739       0       4       0       4     19     19      0   4259     199       2  19    15c0f a70f      6.480 "
test,1583576338530504960,1," |  1  |   4462       4   4459       0 |   5    0      4351       108 |   2   1    0    1 820f |    1.739       0       4       0       4      1      1      0   4319     140       2   1    1820f a70f      6.480 "
test,1583576338540589056,22," | 22  |   4462       5   4456       0 |   5    0      4419        37 |   3  19    0    0 5c0f |    2.685       0       5       0       5     19     19      0   4211     245       2  19    05c0f a70f      8.880 "
test,1583576338531313920,23," | 23  |   4462       5   4400       0 |   5    0      4381        19 |   1  19    0    0 5c0f |    1.953       0       5       0       5     19     19      0   4288     112       1  19    05c0f a70f      8.190 "
test,1583576338536374016,24," | 24  |   4462       5   4456       2 |   5    0      4413        45 |   3  19    0    0 5c0f |    2.685       0       5       0       5     19     19      0   4298     160       2  19    05c0f a70f      8.940 "
test,1583576338531683840,26," | 26  |   4462       5   4456       2 |   5    0      4442        16 |   2  19    0    0 5c0f |    1.953       0       5       0       5     19     19      0   4361      97       1  19    05c0f a70f      8.190 "
test,1583576338535412992,27," | 27  |   4462       5   4460       0 |   5    0      4336       124 |   1  19    0    0 5c0f |    1.983       0       5       0       5     19     19      0   4154     306       1  19    05c0f a70f      8.220 "
test,1583576338536574976,28," | 28  |   4462       5   4453       5 |   5    0      4109       349 |   4  19    0    0 5c0f |    2.685       0       5       0       5     19     19      0   3942     516       2  19    05c0f a70f      9.600 "
test,1583576338537196032,29," | 29  |   4462       5   4455       5 |   4    0      3946       514 |   1  19    0    0 5c0f |    1.983       0       5       0       5     19     19      0   3744     716       1  19    05c0f a70f      8.070 "
test,1583576338533405184,30," | 30  |   4462       5   4456       2 |   5    0      4396        62 |   4  19    0    0 5c0f |    4.211       0       5       0       5     19     19      0   4236     222       4  19    05c0f a70f     10.380 "
test,1583576338534387968,35," | 35  |   4462       5   4456       2 |   5    0      4248       210 |   4  19    0    0 5c0f |    3.448       0       5       0       5     19     19      0   4153     305       3  19    05c0f a70f      9.570 "
test,1583576338555911936,41," | 41  |   4462       5   4389      59 |   5    0      4412        36 |   2  19    0    0 5c0f |    9.277       0       3       0       3     19     19      0   4298     150      11  19    05c0f a70f     30.390 "
test,1583576338535768064,42," | 42  |   4462       5   4397      61 |   1    9      4360        98 |   2  42   19    1 ce0f |    1.739       0       4       0       4     42     42      0   4259     199       2  42    1ce0f a70f      6.510 "
test,1583576338555193856,44," | 44  |   4462       5   4401      57 |   5    0      4361        97 |   4  19    0    0 5c0f |    9.307       0       3       0       3     19     19      0   4273     185      11  19    05c0f a70f     30.390 "
test,1583576338555610880,45," | 45  |   4462       5   4415      43 |   5    0      4317       141 |   3  19    0    0 5c0f |    9.307       0       3       0       3     19     19      0   4233     225      11  19    05c0f a70f     30.300 "
test,1583576338554236928,46," | 46  |   4462       5   4394      57 |   5    1      4251       200 |   3  19   42    0 5c0f |   10.009       0       3       0       3     19     19      0   4170     281      12  19    05c0f a70f     30.360 "
test,1583576338539789056,47," | 47  |   4462       5   4401      57 |   1    9      4312       146 |   2  42   19    0 ce0f |    2.044       0       5       0       5     42     42      0   4229     229       1  42    0ce0f a70f      8.220 "
test,1583576338540419072,48," | 48  |   4462       5   4336      55 |   1    8      4288       103 |   1  42   19    0 ce0f |    2.014       0       5       0       5     42     42      0   4207     184       1  42    0ce0f a70f      8.280 "
test,1583576338532133120,49," | 49  |   4462       5   4452       0 |   5    0      4368        84 |   1  53    0    0 340f |    2.075       0       5       0       5     53     53      0   4333     119       1  53    0340f a70f      8.130 "
test,1583576338533575936,51," | 51  |   4462       5   4453       0 |   5    0      4412        41 |   1   1    0    0 820f |    1.342       0       5       0       5      1      1      0   4394      59       1   1    0820f a70f      7.470 "
test,1583576338539139072,52," | 52  |   4462       5   4429      25 |   5    0      4244       210 |   2  19    0    0 5c0f |    1.983       0       5       0       5     19     19      0   4156     298       1  19    05c0f a70f      8.820 "
test,1583576338535993088,53," | 53  |   4462       5   4436       0 |   4    0      4202       234 |   2  53    0    1 340f |    1.739       0       4       0       4     53     53      0   4155     281       2  53    1340f a70f      6.480 "
test,1583576338534092032,54," | 54  |   4462       5   4454       0 |   5    0      4374        80 |   1   1    0    0 820f |    1.373       0       5       0       5      1      1      0   4305     149       1   1    0820f a70f      7.500 "
test,1583576338533835008,55," | 55  |   4462       5   4441       0 |   5    0      4274       167 |   1  53    0    0 340f |    2.075       0       5       0       5     53     53      0   4239     202       1  53    0340f a70f      8.220 "
test,1583576338532294144,56," | 56  |   4462       5   4444       0 |   2    3      4374        70 |   3   1   19    0 820f |    2.044       0       5       0       5      1      1      0   4323     121       2   1    0820f a70f      8.250 "
test,1583576338554806016,57," | 57  |   4462       5   4399       0 |   4    0      4287       112 |   2  19    0    0 5c0f |    9.338       0       1       0       1     19     19      0   4025     374      11  19    05c0f a70f     30.360 "
test,1583576338552624896,58," | 58  |   4462       5   4453       0 |   2    0      4391        62 |   7   1    0    0 820f |    2.075       0       4       0       4      1      1      0   4200     253       2   1    0820f a70f     30.360 "
test,1583576338549954048,5," |  5  |   4462       5   4460       0 |   0    2      4064       396 |   0   5    1    1 be0f |    0           0       0       0       8      0      0      0   3987     473       0   5    1be0f a70f     30.180 "
test,1583576338537965056,60," | 60  |   4462       5   4453       0 |   5    0      4172       281 |   2   1    0    0 820f |    2.105       0       5       0       5      1      1      0   4090     363       2   1    0820f a70f      8.160 "
test,1583576338553805056,61," | 61  |   4462       5   4452       0 |   3    0      4252       200 |   6   1    0    0 820f |    2.075       0       4       0       4      1      1      0   4105     347       2   1    0820f a70f     30.270 "
test,1583576338532445952,7," |  7  |   4462       5   4459       0 |   5    0      4391        68 |   1   1    0    0 820f |    1.312       0       5       0       5      1      1      0   4364      95       1   1    0820f a70f      7.560 "
test,1583576338530246144,9," |  9  |   4462       5   4458       0 |   5    0      4300       158 |   1   1    0    0 820f |    1.342       0       5       0       5      1      1      0   4280     178       1   1    0820f a70f      7.500 "
