test,1583576414539688960,10," | 10  |   4766       5   4738       0 |   4    0      4663        75 |   4  10    0    1 bb0f |    1.739       0       4       0       4     10     10      0   4604     134       2  10    1bb0f a70f      8.640 "
test,1583576414532459008,12," | 12  |   4766       1   4756       8 |   5    0      4722        42 |   1  10    0    0 bb0f |    2.044       0       5       0       5     10     10      0   4644     120       1  10    0bb0f a70f      8.250 "
test,1583576414536032000,13," | 13  |   4766       5   4762       0 |   5    0      4725        37 |   1  10    0    0 bb0f |    2.014       0       5       0       5     10     10      0   4667      95       1  10    0bb0f a70f      8.070 "
test,1583576414548497920,16," | 16  |   4766       4   4762       0 |   5    0      4590       172 |   2  22    0    0 450f |    6.988       0       5       0       5     22     22      0   4462     300       8  22    0450f a70f     16.710 "
test,1583576414556000000,17," | 17  |   4766       5   4755       7 |   3    5      4704        58 |   2  24   22    0 510f |    2.777       0       4       0       4     24     24      0   4564     198       2  24    0510f a70f     30.240 "
test,1583576414535311104,18," | 18  |   4766       5   4761       0 |   5    0      4485       276 |   1  22    0    0 450f |    2.044       0       5       0       5     22     22      0   4292     469       1  22    0450f a70f     10.170 "
test,1583576414538551040,19," | 19  |   4766       5   4751      11 |   3    1      4686        76 |   1  24   22    0 510f |    2.014       0       5       0       5     24     24      0   4548     214       1  24    0510f a70f      8.280 "
test,1583576414539174912,1," |  1  |   4766       4   4763       0 |   5    0      4645       118 |   1  10    0    0 bb0f |    2.685       0       5       0       5     10     10      0   4613     150       1  10    0bb0f a70f      9.630 "
test,1583576414541373952,22," | 22  |   4766       5   4760       0 |   2    2      4722        38 |  10  22   24    1 450f |    8.148       0       4       0       4     22     22      0   4503     257      11  22    1450f a70f     12.750 "
test,1583576414542983168,23," | 23  |   4766       5   4704       0 |   5    0      4683        21 |   1  22    0    0 450f |    6.225       0       5       0       5     22     22      0   4586     118       7  22    0450f a70f     15.960 "
test,1583576414532702976,24," | 24  |   4766       5   4760       2 |   2    4      4713        49 |   3  24   22    1 510f |    1.739       0       4       0       4     24     24      0   4591     171       2  24    1510f a70f      6.510 "
test,1583576414533063936,26," | 26  |   4766       5   4760       2 |   3    6      4743        19 |   1  24   22    0 510f |    2.044       0       5       0       5     24     24      0   4660     102       1  24    0510f a70f      8.160 "
test,1583576414546237952,27," | 27  |   4766       5   4764       0 |   3    2      4633       131 |   2  22   10    0 450f |    7.019       0       5       0       5     22     22      0   4434     330       8  22    0450f a70f     16.710 "
test,1583576414547362048,28," | 28  |   4766       5   4756       6 |   5    0      4383       379 |   2  22    0    0 450f |    2.777       0       5       0       5     22     22      0   4198     564       2  22    0450f a70f     14.340 "
test,1583576414545167872,29," | 29  |   4766       3   4759       5 |   2    0      4206       558 |   3  22    0    0 450f |    7.720       0       5       0       5     22     22      0   3995     769       9  22    0450f a70f     17.400 "
test,1583576414538262016,30," | 30  |   4766       5   4760       2 |   5    0      4696        66 |   1  22    0    0 450f |    2.044       0       5       0       5     22     22      0   4527     235       1  22    0450f a70f     11.670 "
test,1583576414536737024,35," | 35  |   4766       5   4760       2 |   5    0      4539       223 |   1  22    0    0 450f |    2.014       0       5       0       5     22     22      0   4438     324       1  22    0450f a70f     11.460 "
test,1583576414553273088,40," | 40  |   4766       5   4693      65 |   1    9      4461       297 |   1  24   22    0 510f |    0           0       0       0       8      0      0      0   4347     411       0  24    0510f a70f     30.360 "
test,1583576414540740096,41," | 41  |   4766       5   4693      59 |   5    0      4714        38 |   2  22    0    0 450f |    3.479       0       5       0       5     22     22      0   4595     157       3  22    0450f a70f     14.400 "
test,1583576414537816064,42," | 42  |   4766       5   4700      62 |   5    0      4660       102 |   1  22    0    0 450f |    3.509       0       5       0       5     22     22      0   4555     207       3  22    0450f a70f      9.570 "
test,1583576414555186944,44," | 44  |   4766       5   4705      57 |   1   10      4663        99 |   1  24   45    0 510f |    2.716       0       1       0       1     24     24      0   4571     191       2  24    0510f a70f     30.390 "
test,1583576414553103872,45," | 45  |   4766       5   4719      43 |   0    6      4611       151 |   0  45   22    1  20f |    0           0       0       0       8      0      0      0   4525     237       0  45    1 20f a70f     30.150 "
test,1583576414537604096,46," | 46  |   4766       5   4698      57 |   5    0      4544       211 |   2  22    0    0 450f |    4.180       0       5       0       5     22     22      0   4462     293       4  22    0450f a70f     10.320 "
test,1583576414535675904,47," | 47  |   4766       5   4705      57 |   5    0      4600       162 |   2  22    0    0 450f |    2.746       0       5       0       5     22     22      0   4519     243       2  22    0450f a70f      9.630 "
test,1583576414540899072,48," | 48  |   4766       5   4640      55 |   5    0      4585       110 |   1  22    0    0 450f |    4.211       0       5       0       5     22     22      0   4501     194       4  22    0450f a70f     10.410 "
test,1583576414533276928,49," | 49  |   4766       5   4756       0 |   5    0      4664        92 |   1  55    0    0 1e0f |    2.014       0       5       0       5     55     55      0   4628     128       1  55    01e0f a70f      8.220 "
test,1583576414533907968,51," | 51  |   4766       5   4757       0 |   4    7      4713        44 |   1  56   22    0 800f |    2.044       0       5       0       5     56     56      0   4696      61       1  56    0800f a70f      8.220 "
test,1583576414535831808,52," | 52  |   4766       3   4732      26 |   2    6      4534       224 |   1  24   22    0 510f |    2.014       0       5       0       5     24     24      0   4441     317       1  24    0510f a70f      8.970 "
test,1583576414534388992,53," | 53  |   4766       5   4740       0 |   5    0      4480       260 |   1  55    0    0 1e0f |    2.044       0       5       0       5     55     55      0   4431     309       1  55    01e0f a70f      8.190 "
test,1583576414535038976,54," | 54  |   4766       5   4758       0 |   5    0      4675        83 |   1  10    0    0 bb0f |    2.014       0       5       0       5     10     10      0   4598     160       1  10    0bb0f a70f      8.940 "
test,1583576414537993984,55," | 55  |   4766       5   4745       0 |   4    0      4566       179 |   2  55    0    1 1e0f |    1.739       0       4       0       4     55     55      0   4529     216       2  55    11e0f a70f      6.510 "
test,1583576414531961856,56," | 56  |   4766       5   4748       0 |   3    7      4673        75 |  14  56   22    1 800f |    1.739       0       4       0       4     56     56      0   4617     131       2  56    1800f a70f      6.480 "
test,1583576414547662080,57," | 57  |   4766       5   4703       0 |   5    1      4584       119 |   1  22   56    0 450f |    6.988       0       5       0       5     22     22      0   4304     399       8  22    0450f a70f     16.590 "
test,1583576414555456000,58," | 58  |   4766       5   4757       0 |   1   12      4689        68 |   4  10   56    0 bb0f |    9.307       0       1       0       1     10     10      0   4487     270      11  10    0bb0f a70f     30.390 "
test,1583576414543283968,5," |  5  |   4766       5   4764       0 |   5    0      4343       421 |   2  10    0    0 bb0f |    2.716       0       5       0       5     10     10      0   4262     502       2  10    0bb0f a70f      8.910 "
test,1583576414554362112,60," | 60  |   4766       5   4757       0 |   5    0      4460       297 |   2  22    0    0 450f |    9.155       0       4       0       4     22     22      0   4370     387      11  22    0450f a70f     30.270 "
test,1583576414556598016,61," | 61  |   4766       5   4756       0 |   1    2      4538       218 |  15  22   56    0 450f |   15.045       0       2       0       2     22     22      0   4380     376      19  22    0450f a70f     30.300 "
test,1583576414533687040,7," |  7  |   4766       5   4763       0 |   5    0      4690        73 |   1  10    0    0 bb0f |    2.014       0       5       0       5     10     10      0   4660     103       1  10    0bb0f a70f      8.970 "
test,1583576414534147072,9," |  9  |   4766       5   4762       0 |   5    0      4597       165 |   1  10    0    0 bb0f |    1.983       0       5       0       5     10     10      0   4577     185       1  10    0bb0f a70f      8.820 "
