test,1583576266279987200,10," | 10  |   4173       5   4145       0 |   5    0      4078        67 |   1   1    0    0 3a0f |    1.312       0       5       0       5      1      1      0   4027     118       1   1    03a0f a70f      7.590 "
test,1583576266307058176,12," | 12  |   4173       5   4171       0 |   4    5      4138        33 |   3   1    7    0 3a0f |    1.342       0       4       0       4      1      1      0   4075      96       1   1    03a0f a70f     30.390 "
test,1583576266278743040,13," | 13  |   4173       5   4169       0 |   5    0      4139        30 |   1   1    0    0 3a0f |    1.373       0       5       0       5      1      1      0   4090      79       1   1    03a0f a70f      7.470 "
test,1583576266302710016,15," | 15  |   4173       5   4171       0 |   3    0      4013       158 |   6   1    0    0 3a0f |    2.105       0       4       0       4      1      1      0   3835     336       2   1    03a0f a70f     30.300 "
test,1583576266283705088,16," | 16  |   4173       5   4169       0 |   2    2      4017       152 |  20  16   47    1  20f |    1.770       0       4       0       4     16     16      0   3908     261       2  16    1 20f a70f      6.510 "
test,1583576266299832064,17," | 17  |   4173       5   4164       5 |   4    4      4119        50 |   2  47   16    0 610f |    0           0       0       0       8      0      0      0   3994     175       0  47    0610f a70f     30.390 "
test,1583576266303194880,18," | 18  |   4173       5   4168       0 |   5    0      3939       229 |   1  47    0    0 610f |    2.044       0       4       0       4     47     47      0   3769     399       1  47    0610f a70f     30.270 "
test,1583576266299657984,19," | 19  |   4173       5   4160       9 |   4    4      4106        63 |   3  47   16    0 610f |    0           0       0       0       8      0      0      0   3982     187       0  47    0610f a70f     30.390 "
test,1583576266277853952,1," |  1  |   4173       4   4170       0 |   4    0      4071        99 |   4   1    0    1 3a0f |    1.739       0       4       0       4      1      1      0   4041     129       2   1    13a0f a70f      6.480 "
test,1583576266299257088,22," | 22  |   4173       5   4167       0 |   5    1      4132        35 |   4  47   35    0 610f |    0           0       0       0       8      0      0      0   3940     227       0  47    0610f a70f     30.360 "
test,1583576266282565120,23," | 23  |   4173       5   4111       0 |   4    1      4092        19 |   1  16   47    0  20f |    2.044       0       5       0       5     16     16      0   4004     107       1  16    0 20f a70f      8.220 "
test,1583576266298139136,24," | 24  |   4173       5   4167       2 |   5    2      4126        43 |   2  47   16    0 610f |    0           0       0       0       8      0      0      0   4020     149       0  47    0610f a70f     30.390 "
test,1583576266282233088,26," | 26  |   4173       5   4167       2 |   5    6      4153        16 |   1  16   47    0  20f |    2.014       0       5       0       5     16     16      0   4077      92       1  16    0 20f a70f      8.280 "
test,1583576266287785984,27," | 27  |   4173       5   4171       0 |   5    0      4050       121 |   2  16    0    0  20f |    2.807       0       5       0       5     16     16      0   3880     291       2  16    0 20f a70f      8.850 "
test,1583576266302174208,28," | 28  |   4173       5   4164       5 |   3    5      3839       330 |   3  47   35    0 610f |    0           0       0       0       8      0      0      0   3682     487       0  47    0610f a70f     30.360 "
test,1583576266301995008,29," | 29  |   4173       4   4166       5 |   4    2      3699       472 |   3  16   47    0  20f |    3.540       0       3       0       3     16     16      0   3509     662       3  16    0 20f a70f     30.300 "
test,1583576266284399872,30," | 30  |   4173       5   4167       2 |   5    0      4115        54 |   1  35    0    0 930f |    2.044       0       5       0       5     35     35      0   3962     207       1  35    0930f a70f      8.250 "
test,1583576266283312128,35," | 35  |   4173       5   4167       2 |   4    0      3969       200 |   2  35    0    1 930f |    1.739       0       4       0       4     35     35      0   3880     289       2  35    1930f a70f      6.480 "
test,1583576266302521856,40," | 40  |   4173       5   4105      60 |   3    8      3910       255 |   2  47   48    0 610f |    2.746       0       2       0       2     47     47      0   3809     356       2  47    0610f a70f     30.330 "
test,1583576266300697088,41," | 41  |   4173       5   4100      59 |   5    0      4123        36 |   1  47    0    0 610f |    2.014       0       3       0       3     47     47      0   4016     143       1  47    0610f a70f     30.390 "
test,1583576266304104960,42," | 42  |   4173       5   4108      61 |   5    0      4075        94 |   1  47    0    0 610f |    2.014       0       3       0       3     47     47      0   3976     193       1  47    0610f a70f     30.300 "
test,1583576266304577024,44," | 44  |   4173       5   4112      57 |   5    0      4076        93 |   3  47    0    0 610f |    3.479       0       2       0       2     47     47      0   3992     177       3  47    0610f a70f     30.360 "
test,1583576266302967040,45," | 45  |   4173       5   4126      43 |   5    0      4032       137 |   2  47    0    0 610f |    2.777       0       3       0       3     47     47      0   3955     214       2  47    0610f a70f     30.360 "
test,1583576266303584000,46," | 46  |   4173       5   4105      57 |   5    0      3976       186 |   2  47    0    0 610f |    2.746       0       3       0       3     47     47      0   3897     265       2  47    0610f a70f     30.360 "
test,1583576266299038976,47," | 47  |   4173       5   4112      57 |   4    0      4024       145 |   2  47    0    1 610f |    1.739       0       3       0       3     47     47      0   3944     225       2  47    1610f a70f     30.300 "
test,1583576266298831104,48," | 48  |   4173       5   4047      55 |   0    4      4003        99 |   0  48   47    1 dc0f |    0           0       0       0       8      0      0      0   3926     176       0  48    1dc0f a70f     30.150 "
test,1583576266279321856,49," | 49  |   4173       5   4163       0 |   5    0      4085        78 |   2  49    0    1 b90f |    1.739       0       4       0       4     49     49      0   4052     111       2  49    1b90f a70f      6.480 "
test,1583576266279031040,51," | 51  |   4173       5   4164       0 |   5    0      4125        39 |   1   1    0    0 3a0f |    1.342       0       5       0       5      1      1      0   4108      56       1   1    03a0f a70f      7.440 "
test,1583576266280814848,52," | 52  |   4173       5   4141      24 |   5    1      3964       201 |   1  16   47    0  20f |    2.044       0       5       0       5     16     16      0   3882     283       1  16    0 20f a70f      8.250 "
test,1583576266280643840,53," | 53  |   4173       5   4147       0 |   5    0      3930       217 |   1  49    0    0 b90f |    1.983       0       5       0       5     49     49      0   3884     263       1  49    0b90f a70f      8.100 "
test,1583576266278286080,54," | 54  |   4173       5   4165       0 |   5    1      4092        73 |   1   1   49    0 3a0f |    1.373       0       5       0       5      1      1      0   4025     140       1   1    03a0f a70f      7.440 "
test,1583576266281477888,55," | 55  |   4173       5   4152       0 |   5    0      3994       158 |   1  49    0    0 b90f |    1.983       0       5       0       5     49     49      0   3961     191       1  49    0b90f a70f      8.070 "
test,1583576266281054976,56," | 56  |   4173       5   4155       0 |   2    1      4092        63 |  10   1   16    0 3a0f |    2.075       0       5       0       5      1      1      0   4045     110       2   1    03a0f a70f      8.160 "
test,1583576266301038080,57," | 57  |   4173       5   4110       0 |   5    2      4005       105 |   2  16    1    0  20f |    0           0       0       0       8      0      0      0   3761     349       0  16    0 20f a70f     30.360 "
test,1583576266282998016,58," | 58  |   4173       5   4164       0 |   5    0      4104        60 |   1  49    0    0 b90f |    2.044       0       5       0       5     49     49      0   3925     239       1  49    0b90f a70f      8.880 "
test,1583576266279524096,5," |  5  |   4173       4   4171       0 |   5    0      3802       369 |   2   1    0    0 3a0f |    2.105       0       5       0       5      1      1      0   3732     439       2   1    03a0f a70f      8.190 "
test,1583576266284847872,60," | 60  |   4173       5   4164       0 |   5    0      3902       262 |   2   1    0    0 3a0f |    2.105       0       5       0       5      1      1      0   3827     337       2   1    03a0f a70f      8.250 "
test,1583576266287494912,61," | 61  |   4173       5   4163       0 |   3    1      3975       188 |   2  49    1    0 b90f |    2.777       0       5       0       5     49     49      0   3840     323       2  49    0b90f a70f      9.600 "
test,1583576266296334080,7," |  7  |   4173       5   4170       0 |   0   10      4106        64 |   0   7    1    1 c60f |    0           0       0       0       8      0      0      0   4081      89       0   7    1c60f a70f     30.210 "
test,1583576266279171840,9," |  9  |   4173       5   4169       0 |   5    0      4020       149 |   1   1    0    0 3a0f |    1.312       0       5       0       5      1      1      0   4000     169       1   1    03a0f a70f      7.560 "
