test,1583576432789602048,10," | 10  |   4839       5   4811       0 |   5    0      4733        78 |   1  51    0    0 790f |    2.014       0       5       0       5     51     51      0   4670     141       1  51    0790f a70f      8.970 "
test,1583576432790427904,12," | 12  |   4839       5   4825      12 |   5    0      4794        43 |   2  51    0    0 790f |    2.746       0       5       0       5     51     51      0   4709     128       2  51    0790f a70f      9.660 "
test,1583576432784914944,13," | 13  |   4839       5   4835       0 |   5    0      4798        37 |   1  51    0    0 790f |    2.044       0       5       0       5     51     51      0   4737      98       1  51    0790f a70f      8.970 "
test,1583576432787902976,15," | 15  |   4839       5   4819      18 |   5    0      4650       187 |   2  51    0    0 790f |    2.777       0       5       0       5     51     51      0   4431     406       2  51    0790f a70f     10.440 "
test,1583576432791564032,16," | 16  |   4839       5   4835       0 |   5    0      4661       174 |   1  26    0    0 ac0f |    2.075       0       5       0       5     26     26      0   4532     303       1  26    0ac0f a70f     10.320 "
test,1583576432787010816,17," | 17  |   4839       5   4828       7 |   5    0      4777        58 |   1  26    0    0 ac0f |    2.075       0       5       0       5     26     26      0   4636     199       1  26    0ac0f a70f      8.760 "
test,1583576432785844992,18," | 18  |   4839       5   4834       0 |   5    0      4554       280 |   1  26    0    0 ac0f |    2.807       0       5       0       5     26     26      0   4361     473       2  26    0ac0f a70f      9.000 "
test,1583576432786179072,19," | 19  |   4839       5   4824      11 |   5    0      4759        76 |   1  26    0    0 ac0f |    2.075       0       5       0       5     26     26      0   4619     216       1  26    0ac0f a70f      9.570 "
test,1583576432785101824,1," |  1  |   4839       4   4836       0 |   5    0      4716       120 |   1  51    0    0 790f |    2.716       0       5       0       5     51     51      0   4682     154       1  51    0790f a70f      8.790 "
test,1583576432786802176,22," | 22  |   4839       5   4833       0 |   5    0      4794        39 |   1  26    0    0 ac0f |    2.075       0       5       0       5     26     26      0   4574     259       1  26    0ac0f a70f      8.280 "
test,1583576432786604800,23," | 23  |   4839       5   4777       0 |   5    1      4756        21 |   1  26   51    0 ac0f |    2.044       0       5       0       5     26     26      0   4659     118       1  26    0ac0f a70f      9.600 "
test,1583576432782318080,24," | 24  |   4839       5   4833       2 |   5    0      4786        49 |   1  26    0    0 ac0f |    2.075       0       5       0       5     26     26      0   4663     172       1  26    0ac0f a70f      8.340 "
test,1583576432785621760,26," | 26  |   4839       5   4833       2 |   5    0      4815        20 |   8  26    0    1 ac0f |    3.814       0       4       0       4     26     26      0   4732     103       5  26    1ac0f a70f      8.520 "
test,1583576432789257984,27," | 27  |   4839       5   4837       0 |   5    0      4704       133 |   2  26    0    0 ac0f |    2.777       0       5       0       5     26     26      0   4502     335       2  26    0ac0f a70f     10.230 "
test,1583576432805640960,28," | 28  |   4839       5   4829       6 |   5    0      4448       387 |   2  26    0    0 ac0f |    2.777       0       4       0       4     26     26      0   4261     574       2  26    0ac0f a70f     30.360 "
test,1583576432789063936,29," | 29  |   4839       5   4831       6 |   5    0      4270       567 |   2  26    0    0 ac0f |    2.777       0       5       0       5     26     26      0   4060     777       2  26    0ac0f a70f     10.290 "
test,1583576432785434880,30," | 30  |   4839       5   4833       2 |   5    0      4769        66 |   2  26    0    0 ac0f |    2.746       0       5       0       5     26     26      0   4593     242       2  26    0ac0f a70f      8.820 "
test,1583576432787727104,35," | 35  |   4839       5   4833       2 |   5    0      4609       226 |   2  26    0    0 ac0f |    2.777       0       5       0       5     26     26      0   4505     330       2  26    0ac0f a70f      8.820 "
test,1583576432804733952,40," | 40  |   4839       5   4766      65 |   5    0      4530       301 |   1  42    0    0 670f |    2.014       0       4       0       4     42     42      0   4416     415       1  42    0670f a70f     30.330 "
test,1583576432784055040,41," | 41  |   4839       5   4766      59 |   5    0      4787        38 |   1  42    0    0 670f |    2.044       0       5       0       5     42     42      0   4667     158       1  42    0670f a70f      8.160 "
test,1583576432783006976,42," | 42  |   4839       5   4773      62 |   4    0      4732       103 |   8  42    0    1 670f |    1.739       0       4       0       4     42     42      0   4626     209       2  42    1670f a70f      6.510 "
test,1583576432783620096,44," | 44  |   4839       5   4778      57 |   5    0      4736        99 |   1  42    0    0 670f |    2.044       0       5       0       5     42     42      0   4644     191       1  42    0670f a70f      8.220 "
test,1583576432787355904,45," | 45  |   4839       5   4792      43 |   5    0      4683       152 |   1  42    0    0 670f |    2.014       0       5       0       5     42     42      0   4596     239       1  42    0670f a70f      8.070 "
test,1583576432787552000,46," | 46  |   4839       5   4771      57 |   5    0      4613       215 |   1  42    0    0 670f |    2.014       0       5       0       5     42     42      0   4530     298       1  42    0670f a70f      8.070 "
test,1583576432786422016,47," | 47  |   4839       4   4778      57 |   5    0      4671       164 |   1  42    0    0 670f |    2.044       0       5       0       5     42     42      0   4590     245       1  42    0670f a70f      8.130 "
test,1583576432787195904,48," | 48  |   4839       5   4713      55 |   5    0      4657       111 |   1  42    0    0 670f |    2.014       0       5       0       5     42     42      0   4573     195       1  42    0670f a70f      8.250 "
test,1583576432792257024,49," | 49  |   4839       5   4829       0 |   5    0      4734        95 |   2  55    0    0 500f |    2.044       0       5       0       5     55     55      0   4698     131       1  55    0500f a70f      8.100 "
test,1583576432782841856,51," | 51  |   4839       5   4830       0 |   4    0      4785        45 |   2  51    0    1 790f |    1.770       0       4       0       4     51     51      0   4768      62       2  51    1790f a70f      6.510 "
test,1583576432806124800,52," | 52  |   4839       4   4805      26 |   5    0      4602       229 |   1  26    0    0 ac0f |    2.075       0       4       0       4     26     26      0   4510     321       1  26    0ac0f a70f     30.270 "
test,1583576432789810944,53," | 53  |   4839       5   4813       0 |   5    0      4551       262 |   1  55    0    0 500f |    2.014       0       5       0       5     55     55      0   4500     313       1  55    0500f a70f      8.220 "
test,1583576432790177024,54," | 54  |   4839       5   4831       0 |   5    0      4748        83 |   2  51    0    0 790f |    2.777       0       5       0       5     51     51      0   4668     163       2  51    0790f a70f      9.660 "
test,1583576432783174912,55," | 55  |   4839       5   4818       0 |   5    0      4635       183 |   2  55    0    1 500f |    1.739       0       4       0       4     55     55      0   4597     221       2  55    1500f a70f      6.480 "
test,1583576432782547968,56," | 56  |   4839       5   4821       0 |   5    0      4744        77 |   1  51    0    0 790f |    2.044       0       5       0       5     51     51      0   4687     134       1  51    0790f a70f      8.250 "
test,1583576432805840896,57," | 57  |   4839       5   4776       0 |   1    3      4654       122 |   5  51   26    0 790f |    3.509       0       4       0       4     51     51      0   4370     406       3  51    0790f a70f     30.330 "
test,1583576432806308096,58," | 58  |   4839       5   4830       0 |   5    0      4761        69 |   2  51    0    0 790f |   10.101       0       4       0       4     51     51      0   4555     275      12  51    0790f a70f     30.270 "
test,1583576432788295936,5," |  5  |   4839       5   4837       0 |   5    0      4405       432 |   2  51    0    0 790f |    2.746       0       5       0       5     51     51      0   4321     516       2  51    0790f a70f      9.510 "
test,1583576432784692992,60," | 60  |   4839       5   4830       0 |   5    0      4526       304 |   1  51    0    0 790f |    2.014       0       5       0       5     51     51      0   4434     396       1  51    0790f a70f      8.220 "
test,1583576432790627840,61," | 61  |   4839       5   4829       0 |   4    0      4609       220 |   2  51    0    0 790f |    2.746       0       5       0       5     51     51      0   4448     381       2  51    0790f a70f     13.290 "
test,1583576432784328960,7," |  7  |   4839       5   4836       0 |   5    0      4763        73 |   1  51    0    0 790f |    2.044       0       5       0       5     51     51      0   4731     105       1  51    0790f a70f      8.910 "
test,1583576432783819008,9," |  9  |   4839       5   4835       0 |   5    0      4667       168 |   2  51    0    0 790f |    2.746       0       5       0       5     51     51      0   4645     190       2  51    0790f a70f      8.970 "
