test,1583576328781646080,10," | 10  |   4423       5   4395       0 |   5    0      4326        69 |   2   7    0    0 e90f |    2.014       0       5       0       5      7      7      0   4268     127       1   7    0e90f a70f      8.130 "
test,1583576328780999936,12," | 12  |   4423       5   4421       0 |   5    0      4387        34 |   1   7    0    0 e90f |    1.983       0       5       0       5      7      7      0   4320     101       1   7    0e90f a70f      8.190 "
test,1583576328781377024,13," | 13  |   4423       5   4419       0 |   5    0      4389        30 |   1   7    0    0 e90f |    2.014       0       5       0       5      7      7      0   4337      82       1   7    0e90f a70f      8.130 "
test,1583576328784532992,15," | 15  |   4423       5   4421       0 |   4    0      4255       166 |   4   7    0    0 e90f |    2.746       0       5       0       5      7      7      0   4070     351       2   7    0e90f a70f      8.970 "
test,1583576328782454016,16," | 16  |   4423       5   4419       0 |   5    0      4257       162 |   1  23    0    0 1c0f |    2.014       0       5       0       5     23     23      0   4140     279       1  23    01c0f a70f      8.220 "
test,1583576328791617024,17," | 17  |   4423       5   4414       5 |   5    0      4368        51 |   1  23    0    0 1c0f |    2.105       0       5       0       5     23     23      0   4238     181       1  23    01c0f a70f      8.160 "
test,1583576328796096000,18," | 18  |   4423       5   4418       0 |   5    0      4166       252 |   2  23    0    0 1c0f |    2.777       0       5       0       5     23     23      0   3984     434       2  23    01c0f a70f      8.970 "
test,1583576328777050880,19," | 19  |   4423       5   4410       9 |   5    0      4351        68 |   1  23    0    0 1c0f |    2.105       0       5       0       5     23     23      0   4222     197       1  23    01c0f a70f      8.190 "
test,1583576328789753088,1," |  1  |   4423       4   4420       0 |   5    0      4316       104 |   1   7    0    0 e90f |    2.685       0       5       0       5      7      7      0   4285     135       1   7    0e90f a70f      8.940 "
test,1583576328788147968,22," | 22  |   4423       5   4417       0 |   5    0      4380        37 |   1  23    0    0 1c0f |    2.075       0       5       0       5     23     23      0   4173     244       1  23    01c0f a70f      9.000 "
test,1583576328782607104,23," | 23  |   4423       5   4361       0 |   4    0      4342        19 |   2  23    0    1 1c0f |    1.739       0       4       0       4     23     23      0   4249     112       2  23    11c0f a70f      6.510 "
test,1583576328783580928,24," | 24  |   4423       5   4417       2 |   5    0      4374        45 |   1  23    0    0 1c0f |    2.838       0       5       0       5     23     23      0   4260     159       2  23    01c0f a70f      8.880 "
test,1583576328781914112,26," | 26  |   4423       5   4417       2 |   5    0      4403        16 |   1  23    0    0 1c0f |    2.044       0       5       0       5     23     23      0   4322      97       1  23    01c0f a70f      8.310 "
test,1583576328784326912,27," | 27  |   4423       4   4421       0 |   5    0      4299       122 |   1  23    0    0 1c0f |    2.075       0       5       0       5     23     23      0   4118     303       1  23    01c0f a70f      8.280 "
test,1583576328796659968,28," | 28  |   4423       5   4414       5 |   4    0      4073       346 |   2  28    0    1 d90f |    5.981       0       4       0       4     28     28      0   3907     512       8  28    1d90f a70f     11.910 "
test,1583576328805378816,29," | 29  |   4423       3   4416       5 |   5    0      3915       506 |   2  23    0    0 1c0f |    2.807       0       4       0       4     23     23      0   3713     708       2  23    01c0f a70f     30.360 "
test,1583576328793469952,30," | 30  |   4423       5   4417       2 |   5    0      4359        60 |   1  28    0    0 d90f |    6.225       0       5       0       5     28     28      0   4201     218       7  28    0d90f a70f     12.300 "
test,1583576328794082048,35," | 35  |   4423       5   4417       2 |   5    0      4211       208 |   2  28    0    0 d90f |    6.958       0       5       0       5     28     28      0   4117     302       8  28    0d90f a70f     12.930 "
test,1583576328805559040,40," | 40  |   4423       4   4355      60 |   2    3      4146       269 |  13  46   48    0 b60f |    2.807       0       1       0       1     46     46      0   4044     371       2  46    0b60f a70f     30.390 "
test,1583576328803278080,41," | 41  |   4423       5   4350      59 |   5    1      4373        36 |   1  46   23    0 b60f |    2.044       0       2       0       2     46     46      0   4259     150       1  46    0b60f a70f     30.330 "
test,1583576328782260992,42," | 42  |   4423       5   4358      61 |   5    7      4322        97 |   1  48   46    0 940f |    2.014       0       5       0       5     48     48      0   4221     198       1  48    0940f a70f      8.280 "
test,1583576328782949888,44," | 44  |   4423       5   4362      57 |   5    5      4322        97 |   1  48   46    0 940f |    2.044       0       5       0       5     48     48      0   4234     185       1  48    0940f a70f      8.280 "
test,1583576328786021888,45," | 45  |   4423       5   4376      43 |   5    6      4279       140 |   1  48   46    0 940f |    2.044       0       5       0       5     48     48      0   4195     224       1  48    0940f a70f      8.940 "
test,1583576328802906112,46," | 46  |   4423       5   4355      57 |   4    0      4214       198 |  11  46    0    1 b60f |    1.770       0       2       0       2     46     46      0   4133     279       2  46    1b60f a70f     30.300 "
test,1583576328785008896,47," | 47  |   4423       5   4362      57 |   5    9      4273       146 |   1  48   46    0 940f |    2.014       0       5       0       5     48     48      0   4190     229       1  48    0940f a70f      8.970 "
test,1583576328786420224,48," | 48  |   4423       5   4297      55 |   3    7      4249       103 |   5  48   46    1 940f |    1.739       0       4       0       4     48     48      0   4168     184       2  48    1940f a70f      7.230 "
test,1583576328791169024,49," | 49  |   4423       5   4413       0 |   5    0      4329        84 |   4   7    0    0 e90f |    4.913       0       5       0       5      7      7      0   4294     119       5   7    0e90f a70f     11.070 "
test,1583576328783382016,51," | 51  |   4423       5   4414       0 |   1    5      4375        39 |   2  23    7    0 1c0f |    3.570       0       5       0       5     23     23      0   4357      57       3  23    01c0f a70f      9.690 "
test,1583576328787204096,52," | 52  |   4423       3   4391      24 |   5    0      4205       210 |   1  23    0    0 1c0f |    2.105       0       5       0       5     23     23      0   4117     298       1  23    01c0f a70f      8.310 "
test,1583576328785510144,53," | 53  |   4423       5   4397       0 |   5    0      4164       233 |   5   7    0    0 e90f |    5.645       0       5       0       5      7      7      0   4117     280       6   7    0e90f a70f     11.790 "
test,1583576328788315904,54," | 54  |   4423       5   4415       0 |   5    0      4338        77 |   2   7    0    0 e90f |    2.044       0       5       0       5      7      7      0   4269     146       1   7    0e90f a70f      8.250 "
test,1583576328789490944,55," | 55  |   4423       5   4402       0 |   5    0      4236       166 |   4   7    0    0 e90f |    4.943       0       5       0       5      7      7      0   4201     201       5   7    0e90f a70f     11.100 "
test,1583576328783761920,56," | 56  |   4423       5   4405       0 |   5    0      4335        70 |   2  23    0    0 1c0f |    2.838       0       5       0       5     23     23      0   4284     121       2  23    01c0f a70f      9.030 "
test,1583576328788698880,57," | 57  |   4423       5   4360       0 |   5    0      4250       110 |   1  23    0    0 1c0f |    2.105       0       5       0       5     23     23      0   3988     372       1  23    01c0f a70f      9.060 "
test,1583576328803847168,58," | 58  |   4423       5   4414       0 |   4    0      4352        62 |   3   7    0    0 e90f |    4.241       0       1       0       1      7      7      0   4162     252       4   7    0e90f a70f     30.300 "
test,1583576328788510976,5," |  5  |   4423       5   4421       0 |   5    0      4029       392 |   2   7    0    0 e90f |    2.746       0       5       0       5      7      7      0   3954     467       2   7    0e90f a70f      8.820 "
test,1583576328783913984,60," | 60  |   4423       5   4414       0 |   5    0      4136       278 |   2  23    0    0 1c0f |    2.807       0       5       0       5     23     23      0   4054     360       2  23    01c0f a70f      9.000 "
test,1583576328801814016,61," | 61  |   4423       5   4413       0 |   2    4      4216       197 |   3  23    7    0 1c0f |    0           0       0       0       8      0      0      0   4071     342       0  23    01c0f a70f     30.390 "
test,1583576328780459776,7," |  7  |   4423       5   4420       0 |   5    0      4352        68 |   2   7    0    1 e90f |    1.739       0       4       0       4      7      7      0   4327      93       2   7    1e90f a70f      6.480 "
test,1583576328780765184,9," |  9  |   4423       5   4419       0 |   5    0      4265       154 |   1   7    0    0 e90f |    2.014       0       5       0       5      7      7      0   4246     173       1   7    0e90f a70f      8.190 "
