test,1583576342531512064,10," | 10  |   4478       5   4450       0 |   5    0      4381        69 |   1   1    0    0 820f |    1.342       0       5       0       5      1      1      0   4321     129       1   1    0820f a70f      7.590 "
test,1583576342534221056,12," | 12  |   4478       5   4476       0 |   5    0      4441        35 |   1   1    0    0 820f |    1.342       0       5       0       5      1      1      0   4372     104       1   1    0820f a70f      7.590 "
test,1583576342529812224,13," | 13  |   4478       5   4474       0 |   5    0      4441        33 |   1   1    0    0 820f |    1.342       0       5       0       5      1      1      0   4388      86       1   1    0820f a70f      7.590 "
test,1583576342537704960,15," | 15  |   4478       5   4476       0 |   4    0      4307       169 |   4   1    0    0 820f |    2.075       0       5       0       5      1      1      0   4117     359       2   1    0820f a70f      8.310 "
test,1583576342532547840,16," | 16  |   4478       5   4474       0 |   5    0      4311       163 |   2  27    0    0 9d0f |    2.716       0       5       0       5     27     27      0   4193     281       2  27    09d0f a70f      8.910 "
test,1583576342533536000,17," | 17  |   4478       5   4469       5 |   5    0      4421        53 |   1  27    0    0 9d0f |    1.983       0       5       0       5     27     27      0   4290     184       1  27    09d0f a70f      8.070 "
test,1583576342537244928,18," | 18  |   4478       5   4473       0 |   5    0      4219       254 |   3  27    0    0 9d0f |    3.509       0       5       0       5     27     27      0   4035     438       3  27    09d0f a70f     11.040 "
test,1583576342536508928,19," | 19  |   4478       5   4465       9 |   5    0      4403        71 |   2  27    0    0 9d0f |    2.746       0       5       0       5     27     27      0   4273     201       2  27    09d0f a70f      8.940 "
test,1583576342529606144,1," |  1  |   4478       4   4475       0 |   4    0      4366       109 |   2   1    0    1 820f |    1.739       0       4       0       4      1      1      0   4334     141       2   1    1820f a70f      6.510 "
test,1583576342534950912,22," | 22  |   4478       5   4472       0 |   5    0      4435        37 |   2  27    0    0 9d0f |    3.448       0       5       0       5     27     27      0   4227     245       3  27    09d0f a70f     11.100 "
test,1583576342535142912,23," | 23  |   4478       5   4416       0 |   5    0      4397        19 |   1  27    0    0 9d0f |    1.983       0       5       0       5     27     27      0   4304     112       1  27    09d0f a70f      8.220 "
test,1583576342536279040,24," | 24  |   4478       5   4472       2 |   5    0      4429        45 |   3  27    0    0 9d0f |    3.479       0       5       0       5     27     27      0   4314     160       3  27    09d0f a70f     10.410 "
test,1583576342549502976,26," | 26  |   4478       5   4472       2 |   5    0      4458        16 |   2  27    0    0 9d0f |    2.746       0       5       0       5     27     27      0   4377      97       2  27    09d0f a70f      9.630 "
test,1583576342535904000,27," | 27  |   4478       5   4476       0 |   3    8      4351       125 |   2  27   29    1 9d0f |    1.770       0       4       0       4     27     27      0   4169     307       2  27    19d0f a70f      7.950 "
test,1583576342554450944,28," | 28  |   4478       5   4469       5 |   5    0      4124       350 |   1  30    0    0 650f |    2.014       0       4       0       4     30     30      0   3956     518       1  30    0650f a70f     30.390 "
test,1583576342552841984,29," | 29  |   4478       5   4471       5 |   0    1      3958       518 |   0  29   27    1 c70f |    0           0       0       0       8      0      0      0   3756     720       0  29    1c70f a70f     30.180 "
test,1583576342533952000,30," | 30  |   4478       5   4472       2 |   4    0      4412        62 |   8  30    0    1 650f |    1.739       0       4       0       4     30     30      0   4252     222       2  30    1650f a70f      6.480 "
test,1583576342535668992,35," | 35  |   4478       5   4472       2 |   5    0      4263       211 |   1  30    0    0 650f |    2.044       0       5       0       5     30     30      0   4168     306       1  30    0650f a70f      8.190 "
test,1583576342537473024,40," | 40  |   4478       5   4405      65 |   5    0      4191       279 |   1  44    0    0 330f |    2.014       0       5       0       5     44     44      0   4084     386       1  44    0330f a70f      8.880 "
test,1583576342538201088,41," | 41  |   4478       5   4405      59 |   3    0      4428        36 |   2  44    0    0 330f |    2.716       0       5       0       5     44     44      0   4314     150       2  44    0330f a70f      9.660 "
test,1583576342554703872,42," | 42  |   4478       5   4413      61 |   5    0      4375        99 |   1  44    0    0 330f |    4.913       0       4       0       4     44     44      0   4274     200       5  44    0330f a70f     30.390 "
test,1583576342538003968,44," | 44  |   4478       5   4417      57 |   5    0      4377        97 |   3  44    0    1 330f |    1.739       0       4       0       4     44     44      0   4289     185       2  44    1330f a70f      7.200 "
test,1583576342539761920,45," | 45  |   4478       5   4431      43 |   5    0      4333       141 |   1  44    0    0 330f |    2.014       0       5       0       5     44     44      0   4249     225       1  44    0330f a70f      8.940 "
test,1583576342555064832,46," | 46  |   4478       5   4410      57 |   5    0      4266       201 |   1  44    0    0 330f |    4.943       0       4       0       4     44     44      0   4185     282       5  44    0330f a70f     30.300 "
test,1583576342535345152,47," | 47  |   4478       4   4417      57 |   5    0      4326       148 |   1  44    0    0 330f |    2.777       0       5       0       5     44     44      0   4243     231       2  44    0330f a70f      8.940 "
test,1583576342528692992,48," | 48  |   4478       5   4352      55 |   5    0      4304       103 |   1  44    0    0 330f |    1.983       0       5       0       5     44     44      0   4223     184       1  44    0330f a70f      8.070 "
test,1583576342536886016,49," | 49  |   4478       5   4468       0 |   4    3      4384        84 |   8  49    1    1 e50f |    1.739       0       4       0       4     49     49      0   4349     119       2  49    1e50f a70f      6.480 "
test,1583576342530620160,51," | 51  |   4478       5   4469       0 |   5    0      4428        41 |   1   1    0    0 820f |    1.342       0       5       0       5      1      1      0   4410      59       1   1    0820f a70f      7.470 "
test,1583576342533154048,52," | 52  |   4478       5   4445      25 |   5    0      4260       210 |   3  27    0    0 9d0f |    2.716       0       5       0       5     27     27      0   4172     298       2  27    09d0f a70f      8.940 "
test,1583576342531790080,53," | 53  |   4478       5   4452       0 |   5    0      4218       234 |   1  49    0    0 e50f |    2.014       0       5       0       5     49     49      0   4171     281       1  49    0e50f a70f      8.160 "
test,1583576342531356928,54," | 54  |   4478       5   4470       0 |   5    0      4390        80 |   1   1    0    0 820f |    1.342       0       5       0       5      1      1      0   4320     150       1   1    0820f a70f      7.440 "
test,1583576342532172800,55," | 55  |   4478       5   4457       0 |   5    4      4290       167 |   1  49    1    0 e50f |    2.014       0       5       0       5     49     49      0   4255     202       1  49    0e50f a70f      8.220 "
test,1583576342533360128,56," | 56  |   4478       5   4460       0 |   5    0      4390        70 |   2   1    0    0 820f |    2.105       0       5       0       5      1      1      0   4339     121       2   1    0820f a70f      8.190 "
test,1583576342536708096,57," | 57  |   4478       5   4415       0 |   4    0      4303       112 |   4  27    0    0 9d0f |    2.746       0       5       0       5     27     27      0   4039     376       2  27    09d0f a70f     10.380 "
test,1583576342550631936,58," | 58  |   4478       4   4469       0 |   5    0      4406        63 |   2   1    0    0 820f |    0           0       0       0       8      0      0      0   4215     254       0   1    0820f a70f     30.390 "
test,1583576342537064192,5," |  5  |   4478       4   4476       0 |   5    0      4079       397 |   2   1    0    0 820f |    2.105       0       5       0       5      1      1      0   4002     474       2   1    0820f a70f      8.160 "
test,1583576342532313088,60," | 60  |   4478       5   4469       0 |   5    0      4187       282 |   2   1    0    0 820f |    2.105       0       5       0       5      1      1      0   4105     364       2   1    0820f a70f      8.250 "
test,1583576342553498880,61," | 61  |   4478       4   4468       0 |   5    0      4267       201 |   2   1    0    0 820f |    2.105       0       3       0       3      1      1      0   4119     349       2   1    0820f a70f     30.360 "
test,1583576342530308096,7," |  7  |   4478       5   4475       0 |   5    0      4407        68 |   1   1    0    0 820f |    1.342       0       5       0       5      1      1      0   4380      95       1   1    0820f a70f      7.590 "
test,1583576342539376896,9," |  9  |   4478       5   4474       0 |   5    0      4316       158 |   1   1    0    0 820f |    1.373       0       5       0       5      1      1      0   4296     178       1   1    0820f a70f      7.470 "
