test,1583576308037998848,10," | 10  |   4340       5   4312       0 |   5    0      4243        69 |   4  17    0    0 bb0f |    4.913       0       5       0       5     17     17      0   4188     124       5  17    0bb0f a70f     11.040 "
test,1583576308033576960,12," | 12  |   4340       5   4338       0 |   5    0      4304        34 |   5  17    0    0 bb0f |    4.943       0       5       0       5     17     17      0   4239      99       5  17    0bb0f a70f     11.070 "
test,1583576308035202048,13," | 13  |   4340       5   4336       0 |   5    0      4306        30 |   4  17    0    0 bb0f |    4.974       0       5       0       5     17     17      0   4254      82       5  17    0bb0f a70f     11.010 "
test,1583576308051389952,15," | 15  |   4340       4   4338       0 |   2    6      4174       164 |   3  19   17    0 230f |   17.761       0       5       0       5     19     19      0   3990     348      23  19    0230f a70f     23.760 "
test,1583576308038806016,16," | 16  |   4340       5   4336       0 |   5    0      4177       159 |   1  17    0    0 bb0f |    2.014       0       5       0       5     17     17      0   4061     275       1  17    0bb0f a70f      8.940 "
test,1583576308039644928,17," | 17  |   4340       5   4331       5 |   3    4      4285        51 |   2  17   19    1 bb0f |    1.739       0       4       0       4     17     17      0   4155     181       2  17    1bb0f a70f      7.200 "
test,1583576308035640832,18," | 18  |   4340       5   4335       0 |   5    0      4089       246 |   3  17    0    0 bb0f |    3.479       0       5       0       5     17     17      0   3910     425       3  17    0bb0f a70f     10.380 "
test,1583576308050946048,19," | 19  |   4340       5   4327       9 |   1    1      4269        67 |  17  19   17    1 230f |    0           0       0       0       8      0      0      0   4141     195       0  19    1230f a70f     30.210 "
test,1583576308037188096,1," |  1  |   4340       4   4337       0 |   5    0      4234       103 |   4  17    0    0 bb0f |    5.615       0       5       0       5     17     17      0   4203     134       5  17    0bb0f a70f     11.760 "
test,1583576308032514048,22," | 22  |   4340       5   4334       0 |   5    0      4298        36 |   2  17    0    0 bb0f |    2.716       0       5       0       5     17     17      0   4094     240       2  17    0bb0f a70f      9.510 "
test,1583576308043006976,23," | 23  |   4340       5   4278       0 |   5    0      4259        19 |   2  17    0    0 bb0f |    2.716       0       5       0       5     17     17      0   4166     112       2  17    0bb0f a70f      9.660 "
test,1583576308032768000,24," | 24  |   4340       5   4334       2 |   5    0      4291        45 |   2  17    0    0 bb0f |    2.716       0       5       0       5     17     17      0   4177     159       2  17    0bb0f a70f      8.880 "
test,1583576308031259904,26," | 26  |   4340       5   4334       2 |   5    0      4320        16 |   1  17    0    0 bb0f |    1.983       0       5       0       5     17     17      0   4239      97       1  17    0bb0f a70f      8.940 "
test,1583576308046423040,27," | 27  |   4340       5   4338       0 |   5    3      4216       122 |   2  19   17    0 230f |    4.119       0       5       0       5     19     19      0   4038     300       4  19    0230f a70f     18.660 "
test,1583576308035410944,28," | 28  |   4340       5   4331       5 |   5    0      3997       339 |   1  30    0    0 b70f |    2.014       0       5       0       5     30     30      0   3836     500       1  30    0b70f a70f      8.160 "
test,1583576308040129024,29," | 29  |   4340       5   4333       5 |   5    0      3846       492 |   1  19    0    0 230f |    4.089       0       5       0       5     19     19      0   3647     691       4  19    0230f a70f     17.190 "
test,1583576308029937920,30," | 30  |   4340       5   4334       2 |   5    0      4279        57 |   2  30    0    1 b70f |    1.770       0       4       0       4     30     30      0   4124     212       2  30    1b70f a70f      6.510 "
test,1583576308032188928,35," | 35  |   4340       5   4334       2 |   5    0      4131       205 |   1  30    0    0 b70f |    1.983       0       5       0       5     30     30      0   4039     297       1  30    0b70f a70f      8.040 "
test,1583576308054168832,40," | 40  |   4340       5   4272      60 |   5    0      4069       263 |   1  47    0    0 d90f |    2.014       0       4       0       4     47     47      0   3967     365       1  47    0d90f a70f     30.300 "
test,1583576308050728960,41," | 41  |   4340       5   4267      59 |   5    0      4290        36 |   2  47    0    0 d90f |    2.014       0       4       0       4     47     47      0   4179     147       1  47    0d90f a70f     30.390 "
test,1583576308053445120,42," | 42  |   4340       5   4275      61 |   5    0      4240        96 |   1  47    0    0 d90f |    2.014       0       4       0       4     47     47      0   4139     197       1  47    0d90f a70f     30.240 "
test,1583576308053970944,44," | 44  |   4340       5   4279      57 |   5    0      4240        96 |   1  47    0    0 d90f |    2.014       0       4       0       4     47     47      0   4152     184       1  47    0d90f a70f     30.360 "
test,1583576308052736000,45," | 45  |   4340       5   4293      43 |   5    0      4197       139 |   1  47    0    0 d90f |    1.983       0       4       0       4     47     47      0   4115     221       1  47    0d90f a70f     30.360 "
test,1583576308052550144,46," | 46  |   4340       5   4272      57 |   5    0      4134       195 |   2  47    0    0 d90f |    2.014       0       4       0       4     47     47      0   4054     275       1  47    0d90f a70f     30.360 "
test,1583576308030276096,47," | 47  |   4340       5   4279      57 |   4    0      4190       146 |   3  47    0    1 d90f |    1.739       0       4       0       4     47     47      0   4107     229       2  47    1d90f a70f      6.510 "
test,1583576308053021952,48," | 48  |   4340       5   4214      55 |   5    0      4166       103 |   1  47    0    0 d90f |    2.014       0       4       0       4     47     47      0   4085     184       1  47    0d90f a70f     30.270 "
test,1583576308029728768,49," | 49  |   4340       5   4330       0 |   4    0      4246        84 |   2  49    0    1 340f |    1.739       0       4       0       4     49     49      0   4211     119       2  49    1340f a70f      6.480 "
test,1583576308033783808,51," | 51  |   4340       5   4331       0 |   5    0      4292        39 |   3  17    0    0 bb0f |    4.211       0       5       0       5     17     17      0   4274      57       4  17    0bb0f a70f     10.350 "
test,1583576308033241088,52," | 52  |   4340       5   4308      24 |   5    0      4125       207 |   2  17    0    0 bb0f |    2.746       0       5       0       5     17     17      0   4038     294       2  17    0bb0f a70f      9.660 "
test,1583576308032989952,53," | 53  |   4340       5   4314       0 |   5    0      4090       224 |   1  49    0    0 340f |    1.983       0       5       0       5     49     49      0   4043     271       1  49    0340f a70f      8.160 "
test,1583576308034582016,54," | 54  |   4340       5   4332       0 |   5    0      4255        77 |   3  17    0    0 bb0f |    4.180       0       5       0       5     17     17      0   4188     144       4  17    0bb0f a70f     10.350 "
test,1583576308030693888,55," | 55  |   4340       5   4319       0 |   5    0      4155       164 |   1  49    0    0 340f |    2.075       0       5       0       5     49     49      0   4120     199       1  49    0340f a70f      8.130 "
test,1583576308037751808,56," | 56  |   4340       5   4322       0 |   5    0      4255        67 |   3  17    0    0 bb0f |    4.211       0       5       0       5     17     17      0   4205     117       4  17    0bb0f a70f     10.380 "
test,1583576308028558080,57," | 57  |   4340       5   4277       0 |   5    0      4170       107 |   2  17    0    0 bb0f |    3.479       0       5       0       5     17     17      0   3915     362       3  17    0bb0f a70f     10.380 "
test,1583576308053771008,58," | 58  |   4340       5   4331       0 |   2    5      4270        61 |   3  17   49    0 bb0f |    9.338       0       2       0       2     17     17      0   4081     250      11  17    0bb0f a70f     30.390 "
test,1583576308047909888,5," |  5  |   4340       5   4338       0 |   2    9      3957       381 |   4  19   17    0 230f |   18.524       0       5       0       5     19     19      0   3882     456      24  19    0230f a70f     24.450 "
test,1583576308036744960,60," | 60  |   4340       5   4331       0 |   5    0      4058       273 |   3  17    0    0 bb0f |    4.211       0       5       0       5     17     17      0   3981     350       4  17    0bb0f a70f     10.980 "
test,1583576308036281088,61," | 61  |   4340       5   4330       0 |   5    0      4137       193 |   3  17    0    0 bb0f |    4.241       0       5       0       5     17     17      0   3994     336       4  17    0bb0f a70f     11.850 "
test,1583576308034905856,7," |  7  |   4340       5   4337       0 |   5    0      4269        68 |   4  17    0    0 bb0f |    4.943       0       5       0       5     17     17      0   4244      93       5  17    0bb0f a70f     11.130 "
test,1583576308036534016,9," |  9  |   4340       5   4336       0 |   5    0      4183       153 |   4  17    0    0 bb0f |    4.913       0       5       0       5     17     17      0   4164     172       5  17    0bb0f a70f     10.950 "
