test,1583576265781388032,10," | 10  |   4171       5   4143       0 |   5    0      4076        67 |   1   9    0    0  70f |    2.014       0       5       0       5      9      9      0   4025     118       1   9    0 70f a70f      9.690 "
test,1583576265779982080,12," | 12  |   4171       5   4169       0 |   5    0      4136        33 |   2   9    0    0  70f |    2.716       0       5       0       5      9      9      0   4073      96       2   9    0 70f a70f      8.820 "
test,1583576265781815040,13," | 13  |   4171       5   4167       0 |   5    0      4137        30 |   2   9    0    0  70f |    2.777       0       5       0       5      9      9      0   4088      79       2   9    0 70f a70f      8.910 "
test,1583576265800932864,15," | 15  |   4171       5   4169       0 |   5    0      4011       158 |   3   9    0    0  70f |    3.479       0       4       0       4      9      9      0   3833     336       3   9    0 70f a70f     30.270 "
test,1583576265801804032,16," | 16  |   4171       5   4167       0 |   5    0      4015       152 |   1  52    0    0  50f |    2.044       0       2       0       2     52     52      0   3906     261       1  52    0 50f a70f     30.300 "
test,1583576265802795776,17," | 17  |   4171       5   4162       5 |   5    0      4117        50 |   2  52    0    0  50f |    2.807       0       2       0       2     52     52      0   3993     174       2  52    0 50f a70f     30.360 "
test,1583576265788014848,18," | 18  |   4171       5   4166       0 |   5    0      3937       229 |   2  44    0    0 600f |    5.706       0       5       0       5     44     44      0   3768     398       6  44    0600f a70f     11.790 "
test,1583576265802145024,19," | 19  |   4171       5   4158       9 |   5    0      4104        63 |   1  52    0    0  50f |    2.014       0       2       0       2     52     52      0   3981     186       1  52    0 50f a70f     30.390 "
test,1583576265778851072,1," |  1  |   4171       4   4168       0 |   5    0      4069        99 |   1   9    0    0  70f |    2.685       0       5       0       5      9      9      0   4039     129       1   9    0 70f a70f      8.910 "
test,1583576265785527040,22," | 22  |   4171       5   4165       0 |   4    1      4130        35 |   3  44   52    0 600f |    6.439       0       5       0       5     44     44      0   3939     226       7  44    0600f a70f     12.450 "
test,1583576265803323904,23," | 23  |   4171       5   4109       0 |   5    0      4090        19 |   1  52    0    0  50f |    2.075       0       2       0       2     52     52      0   4002     107       1  52    0 50f a70f     30.390 "
test,1583576265784097024,24," | 24  |   4171       5   4165       2 |   2    4      4124        43 |   1  44   52    0 600f |    2.075       0       5       0       5     44     44      0   4019     148       1  44    0600f a70f     11.040 "
test,1583576265800133888,26," | 26  |   4171       5   4165       2 |   5    2      4151        16 |   1  52   44    0  50f |    2.075       0       2       0       2     52     52      0   4075      92       1  52    0 50f a70f     30.300 "
test,1583576265801593088,27," | 27  |   4171       5   4169       0 |   5    0      4048       121 |   2  52    0    0  50f |    2.777       0       2       0       2     52     52      0   3878     291       2  52    0 50f a70f     30.300 "
test,1583576265804044032,28," | 28  |   4171       5   4162       5 |   5    0      3837       330 |   1  30    0    0 880f |    1.983       0       4       0       4     30     30      0   3681     486       1  30    0880f a70f     30.300 "
test,1583576265803666944,29," | 29  |   4171       5   4164       5 |   5    0      3698       471 |   2  52    0    0  50f |    2.777       0       2       0       2     52     52      0   3508     661       2  52    0 50f a70f     30.360 "
test,1583576265783652096,30," | 30  |   4171       5   4165       2 |   5    0      4113        54 |   2  30    0    1 880f |    1.770       0       4       0       4     30     30      0   3960     207       2  30    1880f a70f      6.510 "
test,1583576265787163904,35," | 35  |   4171       5   4165       2 |   5    0      3967       200 |   1  30    0    0 880f |    1.953       0       5       0       5     30     30      0   3878     289       1  30    0880f a70f      8.100 "
test,1583576265785171968,40," | 40  |   4171       5   4103      60 |   5    0      3908       255 |   1  44    0    0 600f |    2.044       0       5       0       5     44     44      0   3807     356       1  44    0600f a70f      9.000 "
test,1583576265780733952,41," | 41  |   4171       5   4098      59 |   5    0      4121        36 |   1  44    0    0 600f |    2.075       0       5       0       5     44     44      0   4014     143       1  44    0600f a70f      8.310 "
test,1583576265780960000,42," | 42  |   4171       5   4106      61 |   5    0      4073        94 |   1  44    0    0 600f |    2.075       0       5       0       5     44     44      0   3974     193       1  44    0600f a70f      8.190 "
test,1583576265781161984,44," | 44  |   4171       5   4110      57 |   4    0      4074        93 |   2  44    0    1 600f |    1.770       0       4       0       4     44     44      0   3990     177       2  44    1600f a70f      6.510 "
test,1583576265784809984,45," | 45  |   4171       5   4124      43 |   5    0      4030       137 |   1  44    0    0 600f |    2.044       0       5       0       5     44     44      0   3953     214       1  44    0600f a70f      8.250 "
test,1583576265783476992,46," | 46  |   4171       5   4103      57 |   5    0      3974       186 |   1  44    0    0 600f |    2.075       0       5       0       5     44     44      0   3895     265       1  44    0600f a70f      8.220 "
test,1583576265781644032,47," | 47  |   4171       5   4110      57 |   5    0      4022       145 |   1  44    0    0 600f |    2.044       0       5       0       5     44     44      0   3942     225       1  44    0600f a70f      8.280 "
test,1583576265784441088,48," | 48  |   4171       5   4045      55 |   5    0      4002        98 |   1  44    0    0 600f |    2.044       0       5       0       5     44     44      0   3925     175       1  44    0600f a70f      8.160 "
test,1583576265782807040,49," | 49  |   4171       5   4161       0 |   5    0      4083        78 |   4  53    0    0 580f |    2.014       0       5       0       5     53     53      0   4050     111       1  53    0580f a70f      8.220 "
test,1583576265779251968,51," | 51  |   4171       5   4162       0 |   5    0      4123        39 |   1  56    0    0 440f |    2.014       0       5       0       5     56     56      0   4106      56       1  56    0440f a70f      8.220 "
test,1583576265798769920,52," | 52  |   4171       5   4139      24 |   4    0      3962       201 |   2  52    0    1  50f |    1.770       0       2       0       2     52     52      0   3880     283       2  52    1 50f a70f     30.300 "
test,1583576265780472064,53," | 53  |   4171       5   4145       0 |   4    0      3928       217 |   5  53    0    1 580f |    1.739       0       4       0       4     53     53      0   3882     263       2  53    1580f a70f      6.480 "
test,1583576265778137088,54," | 54  |   4171       5   4163       0 |   5    0      4090        73 |   2   9    0    0  70f |    2.044       0       5       0       5      9      9      0   4023     140       1   9    0 70f a70f      8.100 "
test,1583576265782618112,55," | 55  |   4171       5   4150       0 |   5    0      3992       158 |   4  53    0    0 580f |    2.014       0       5       0       5     53     53      0   3959     191       1  53    0580f a70f      8.130 "
test,1583576265778618112,56," | 56  |   4171       5   4153       0 |   5    0      4090        63 |   2  56    0    1 440f |    1.739       0       4       0       4     56     56      0   4043     110       2  56    1440f a70f      6.480 "
test,1583576265802618880,57," | 57  |   4171       5   4108       0 |   5    0      4003       105 |   2  52    0    0  50f |    4.272       0       1       0       1     52     52      0   3760     348       4  52    0 50f a70f     30.300 "
test,1583576265803868160,58," | 58  |   4171       5   4162       0 |   1    7      4102        60 |   1  56    9    0 440f |    2.014       0       4       0       4     56     56      0   3923     239       1  56    0440f a70f     30.330 "
test,1583576265800432896,5," |  5  |   4171       5   4169       0 |   0    6      3800       369 |   0   5    9    1 3c0f |    0           0       0       0       8      0      0      0   3730     439       0   5    13c0f a70f     30.210 "
test,1583576265804638976,60," | 60  |   4171       5   4162       0 |   5    0      3900       262 |   3  52    0    0  50f |    4.974       0       1       0       1     52     52      0   3825     337       5  52    0 50f a70f     30.360 "
test,1583576265799393024,61," | 61  |   4171       5   4161       0 |   1    0      3973       188 |   3  52    0    0  50f |    0           0       0       0       8      0      0      0   3838     323       0  52    0 50f a70f     30.360 "
test,1583576265779508224,7," |  7  |   4171       5   4168       0 |   5    0      4105        63 |   1   9    0    0  70f |    2.014       0       5       0       5      9      9      0   4080      88       1   9    0 70f a70f      8.100 "
test,1583576265779026944,9," |  9  |   4171       5   4167       0 |   5    0      4018       149 |   2   9    0    1  70f |    1.739       0       4       0       4      9      9      0   3998     169       2   9    1 70f a70f      6.510 "
