test,1583576228279140864,10," | 10  |   4021       5   3993       0 |   4    5      3927        66 |   2  13   58    0 100f |    2.044       0       5       0       5     13     13      0   3877     116       1  13    0100f a70f      8.280 "
test,1583576228288368896,12," | 12  |   4021       5   4019       0 |   5    0      3988        31 |   1  13    0    0 100f |    2.777       0       5       0       5     13     13      0   3924      95       2  13    0100f a70f      8.970 "
test,1583576228277561856,13," | 13  |   4021       5   4017       0 |   5    0      3990        27 |   2  13    0    1 100f |    1.739       0       4       0       4     13     13      0   3941      76       2  13    1100f a70f      6.510 "
test,1583576228297022208,15," | 15  |   4021       5   4019       0 |   3    1      3866       153 |   7  13   22    0 100f |    2.075       0       5       0       5     13     13      0   3692     327       1  13    0100f a70f      8.250 "
test,1583576228280368128,16," | 16  |   4021       5   4017       0 |   5    0      3872       145 |   2  22    0    0 8e0f |    2.746       0       5       0       5     22     22      0   3766     251       2  22    08e0f a70f      8.850 "
test,1583576228278470144,17," | 17  |   4021       5   4012       5 |   5    0      3969        48 |   1  22    0    0 8e0f |    2.075       0       5       0       5     22     22      0   3846     171       1  22    08e0f a70f      8.250 "
test,1583576228285927168,18," | 18  |   4021       5   4016       0 |   5    0      3795       221 |   1  22    0    0 8e0f |    2.044       0       5       0       5     22     22      0   3630     386       1  22    08e0f a70f      8.130 "
test,1583576228281454080,19," | 19  |   4021       5   4008       9 |   5    0      3955        62 |   2  22    0    0 8e0f |    2.777       0       5       0       5     22     22      0   3834     183       2  22    08e0f a70f      8.970 "
test,1583576228288572160,1," |  1  |   4021       4   4018       0 |   5    0      3921        97 |   1  13    0    0 100f |    2.716       0       5       0       5     13     13      0   3892     126       1  13    0100f a70f      8.940 "
test,1583576228284542976,22," | 22  |   4021       5   4015       0 |   4    0      3983        32 |   3  22    0    1 8e0f |    1.770       0       4       0       4     22     22      0   3794     221       2  22    18e0f a70f      6.510 "
test,1583576228281135104,23," | 23  |   4021       5   3959       0 |   5    0      3940        19 |   1  22    0    0 8e0f |    2.014       0       5       0       5     22     22      0   3854     105       1  22    08e0f a70f      8.970 "
test,1583576228282087936,24," | 24  |   4021       5   4015       2 |   5    0      3977        40 |   1  22    0    0 8e0f |    2.044       0       5       0       5     22     22      0   3874     143       1  22    08e0f a70f      8.130 "
test,1583576228278228992,26," | 26  |   4021       5   4015       2 |   5    0      4002        15 |   1  22    0    0 8e0f |    2.014       0       5       0       5     22     22      0   3926      91       1  22    08e0f a70f      8.070 "
test,1583576228282318080,27," | 27  |   4021       5   4019       0 |   3    1      3904       115 |   5  22   13    0 8e0f |    3.540       0       5       0       5     22     22      0   3737     282       3  22    08e0f a70f      9.570 "
test,1583576228283514112,28," | 28  |   4021       4   4012       5 |   5    0      3703       314 |   2  22    0    0 8e0f |    2.044       0       5       0       5     22     22      0   3553     464       1  22    08e0f a70f      9.690 "
test,1583576228287885824,29," | 29  |   4021       4   4014       5 |   2    0      3567       452 |   5  22    0    0 8e0f |    3.509       0       5       0       5     22     22      0   3377     642       3  22    08e0f a70f      9.570 "
test,1583576228292630784,30," | 30  |   4021       5   4015       2 |   5    0      3963        54 |   4  22    0    0 8e0f |    2.014       0       5       0       5     22     22      0   3816     201       1  22    08e0f a70f     10.380 "
test,1583576228282535936,35," | 35  |   4021       5   4015       2 |   5    0      3820       197 |   4  22    0    0 8e0f |    1.983       0       5       0       5     22     22      0   3736     281       1  22    08e0f a70f      9.660 "
test,1583576228288804096,40," | 40  |   4021       5   3953      60 |   5    0      3769       244 |   3  22    0    0 8e0f |    2.746       0       5       0       5     22     22      0   3671     342       2  22    08e0f a70f      8.940 "
test,1583576228283323136,41," | 41  |   4021       5   3948      59 |   5    0      3971        36 |   3  22    0    0 8e0f |    2.746       0       5       0       5     22     22      0   3867     140       2  22    08e0f a70f      8.820 "
test,1583576228284941824,42," | 42  |   4021       5   3956      61 |   5    0      3926        91 |   3  22    0    0 8e0f |    2.746       0       5       0       5     22     22      0   3829     188       2  22    08e0f a70f      8.970 "
test,1583576228287148032,44," | 44  |   4021       5   3960      57 |   5    0      3927        90 |   2  22    0    0 8e0f |    2.777       0       5       0       5     22     22      0   3845     172       2  22    08e0f a70f      9.000 "
test,1583576228283952896,45," | 45  |   4021       5   3974      43 |   5    0      3888       129 |   3  22    0    0 8e0f |    2.746       0       5       0       5     22     22      0   3814     203       2  22    08e0f a70f      8.850 "
test,1583576228286118912,46," | 46  |   4021       5   3953      57 |   5    0      3827       183 |   3  22    0    0 8e0f |    2.777       0       5       0       5     22     22      0   3750     260       2  22    08e0f a70f      8.970 "
test,1583576228281292800,47," | 47  |   4021       5   3960      57 |   5    0      3876       141 |   3  22    0    0 8e0f |    2.746       0       5       0       5     22     22      0   3797     220       2  22    08e0f a70f      8.970 "
test,1583576228281865984,48," | 48  |   4021       5   3895      55 |   5    0      3854        96 |   3  22    0    0 8e0f |    2.014       0       5       0       5     22     22      0   3777     173       1  22    08e0f a70f      8.250 "
test,1583576228279830016,49," | 49  |   4021       5   4011       0 |   5    0      3936        75 |   1  58    0    0 eb0f |    2.014       0       5       0       5     58     58      0   3903     108       1  58    0eb0f a70f      8.220 "
test,1583576228278623232,51," | 51  |   4021       5   4012       0 |   5    0      3973        39 |   1  60    0    0 7d0f |    1.983       0       5       0       5     60     60      0   3956      56       1  60    07d0f a70f      8.220 "
test,1583576228301152000,52," | 52  |   4021       5   3989      24 |   5    0      3824       189 |   2  22    0    0 8e0f |    2.716       0       4       0       4     22     22      0   3744     269       2  22    08e0f a70f     30.360 "
test,1583576228282778112,53," | 53  |   4021       5   3995       0 |   5    0      3786       209 |   2  58    0    0 eb0f |    2.685       0       5       0       5     58     58      0   3741     254       2  58    0eb0f a70f      8.880 "
test,1583576228288989184,54," | 54  |   4021       5   4013       0 |   1   13      3941        72 |   1  61   58    0 9c0f |   10.589       0       5       0       5     61     61      0   3876     137      13  61    09c0f a70f     17.310 "
test,1583576228281684992,55," | 55  |   4021       5   4000       0 |   5    0      3854       146 |   1  58    0    0 eb0f |    2.014       0       5       0       5     58     58      0   3822     178       1  58    0eb0f a70f      8.130 "
test,1583576228283715072,56," | 56  |   4021       5   4003       0 |   5    0      3941        62 |   2  60    0    0 7d0f |    2.777       0       5       0       5     60     60      0   3896     107       2  60    07d0f a70f      8.970 "
test,1583576228287319040,57," | 57  |   4021       5   3958       0 |   1    4      3855       103 |   2  22   60    0 8e0f |    2.746       0       5       0       5     22     22      0   3621     337       2  22    08e0f a70f      8.970 "
test,1583576228302539008,58," | 58  |   4021       5   4012       0 |   0    0      3954        58 |   0  58    0    1 eb0f |    1.739       0       2       0       2     58     58      0   3783     229       2  58    1eb0f a70f     30.300 "
test,1583576228284132864,5," |  5  |   4021       5   4019       0 |   5    0      3664       355 |   1  13    0    0 100f |    2.044       0       5       0       5     13     13      0   3595     424       1  13    0100f a70f      8.100 "
test,1583576228284763136,60," | 60  |   4021       5   4012       0 |   4    0      3760       252 |   4  60    0    1 7d0f |    1.739       0       4       0       4     60     60      0   3687     325       2  60    17d0f a70f      6.480 "
test,1583576228291241984,61," | 61  |   4021       5   4011       0 |   0    3      3829       182 |   0  61   58    1 9c0f |   12.451       0       4       0       4     61     61      0   3699     312      17  61    19c0f a70f     16.950 "
test,1583576228277820160,7," |  7  |   4021       5   4018       0 |   5    0      3957        61 |   1  13    0    0 100f |    2.075       0       5       0       5     13     13      0   3933      85       1  13    0100f a70f      8.250 "
test,1583576228285559808,9," |  9  |   4021       5   4017       0 |   5    0      3873       144 |   1  13    0    0 100f |    2.044       0       5       0       5     13     13      0   3853     164       1  13    0100f a70f      8.220 "
