test,1583576429282684160,10," | 10  |   4825       5   4797       0 |   5    0      4719        78 |   1  12    0    0 c60f |    2.014       0       5       0       5     12     12      0   4656     141       1  12    0c60f a70f      8.250 "
test,1583576429282487040,12," | 12  |   4825       5   4812      11 |   4    0      4780        43 |   2  12    0    1 c60f |    1.739       0       4       0       4     12     12      0   4698     125       2  12    1c60f a70f      6.480 "
test,1583576429283305984,13," | 13  |   4825       5   4821       0 |   4    0      4784        37 |   1  12    0    0 c60f |    2.014       0       5       0       5     12     12      0   4723      98       1  12    0c60f a70f      8.250 "
test,1583576429285820928,15," | 15  |   4825       5   4806      17 |   5    0      4636       187 |   1  12    0    0 c60f |    1.983       0       5       0       5     12     12      0   4420     403       1  12    0c60f a70f      8.070 "
test,1583576429288444160,16," | 16  |   4825       5   4821       0 |   5    0      4647       174 |   1  23    0    0 b20f |    2.075       0       5       0       5     23     23      0   4518     303       1  23    0b20f a70f     10.470 "
test,1583576429288628224,17," | 17  |   4825       5   4814       7 |   5    0      4763        58 |   1  23    0    0 b20f |    2.044       0       5       0       5     23     23      0   4622     199       1  23    0b20f a70f      9.630 "
test,1583576429288022016,18," | 18  |   4825       5   4820       0 |   5    0      4542       278 |   2  23    0    0 b20f |    2.807       0       5       0       5     23     23      0   4349     471       2  23    0b20f a70f      9.000 "
test,1583576429291368960,19," | 19  |   4825       5   4810      11 |   5    0      4745        76 |   1  23    0    0 b20f |    2.014       0       5       0       5     23     23      0   4606     215       1  23    0b20f a70f     10.410 "
test,1583576429284318976,1," |  1  |   4825       4   4822       0 |   5    0      4703       119 |   1  12    0    0 c60f |    2.685       0       5       0       5     12     12      0   4669     153       1  12    0c60f a70f      8.820 "
test,1583576429286113024,22," | 22  |   4825       5   4819       0 |   5    0      4780        39 |   1  23    0    0 b20f |    2.044       0       5       0       5     23     23      0   4560     259       1  23    0b20f a70f      8.220 "
test,1583576429285312000,23," | 23  |   4825       5   4763       0 |   5    0      4742        21 |   2  23    0    1 b20f |    1.770       0       4       0       4     23     23      0   4645     118       2  23    1b20f a70f      8.670 "
test,1583576429283139840,24," | 24  |   4825       5   4819       2 |   5    0      4772        49 |   1  23    0    0 b20f |    2.044       0       5       0       5     23     23      0   4649     172       1  23    0b20f a70f      8.220 "
test,1583576429286878208,26," | 26  |   4825       5   4819       2 |   5    0      4801        20 |   1  23    0    0 b20f |    2.014       0       5       0       5     23     23      0   4718     103       1  23    0b20f a70f      8.250 "
test,1583576429291790848,27," | 27  |   4825       5   4823       0 |   4    4      4690       133 |   2  23   29    0 b20f |    2.075       0       5       0       5     23     23      0   4488     335       1  23    0b20f a70f      8.940 "
test,1583576429305964032,28," | 28  |   4825       5   4815       6 |   4    0      4434       387 |   4  23    0    0 b20f |    2.807       0       4       0       4     23     23      0   4248     573       2  23    0b20f a70f     30.360 "
test,1583576429304263168,29," | 29  |   4825       5   4818       5 |   0    4      4257       566 |   0  29   23    1 730f |    0           0       0       0       8      0      0      0   4047     776       0  29    1730f a70f     30.150 "
test,1583576429302632192,30," | 30  |   4825       5   4819       2 |   1    7      4755        66 |   3  12   23    0 c60f |    0           0       0       0       8      0      0      0   4580     241       0  12    0c60f a70f     30.360 "
test,1583576429285060864,35," | 35  |   4825       5   4819       2 |   4    0      4595       226 |   4  23    0    0 b20f |    2.746       0       5       0       5     23     23      0   4492     329       2  23    0b20f a70f      8.940 "
test,1583576429292262912,40," | 40  |   4825       5   4752      65 |   5    0      4516       301 |   2  23    0    0 b20f |    2.777       0       5       0       5     23     23      0   4402     415       2  23    0b20f a70f     10.320 "
test,1583576429305704960,41," | 41  |   4825       5   4752      59 |   5    0      4773        38 |   2  23    0    0 b20f |    2.777       0       4       0       4     23     23      0   4653     158       2  23    0b20f a70f     30.390 "
test,1583576429284702976,42," | 42  |   4825       5   4759      62 |   5    0      4718       103 |   2  23    0    0 b20f |    2.746       0       5       0       5     23     23      0   4612     209       2  23    0b20f a70f      8.880 "
test,1583576429289159168,44," | 44  |   4825       5   4764      57 |   5    0      4722        99 |   2  23    0    0 b20f |    2.746       0       5       0       5     23     23      0   4630     191       2  23    0b20f a70f      9.660 "
test,1583576429295634944,45," | 45  |   4825       5   4778      43 |   4    4      4669       152 |   3  23   46    0 b20f |    2.746       0       5       0       5     23     23      0   4582     239       2  23    0b20f a70f      9.690 "
test,1583576429303087872,46," | 46  |   4825       5   4757      57 |   0    8      4599       215 |   0  46   23    1 2e0f |    0           0       0       0       8      0      0      0   4516     298       0  46    12e0f a70f     30.210 "
test,1583576429290929152,47," | 47  |   4825       5   4764      57 |   5    0      4657       164 |   3  23    0    0 b20f |    3.509       0       5       0       5     23     23      0   4576     245       3  23    0b20f a70f      9.660 "
test,1583576429288260096,48," | 48  |   4825       5   4699      55 |   5    0      4644       110 |   2  23    0    0 b20f |    2.746       0       5       0       5     23     23      0   4560     194       2  23    0b20f a70f      9.690 "
test,1583576429283948800,49," | 49  |   4825       5   4815       0 |   5    0      4721        94 |   1  55    0    0 c60f |    2.014       0       5       0       5     55     55      0   4684     131       1  55    0c60f a70f      8.100 "
test,1583576429286545920,51," | 51  |   4825       5   4816       0 |   5    0      4772        44 |   2  12    0    0 c60f |    2.716       0       5       0       5     12     12      0   4755      61       2  12    0c60f a70f      8.970 "
test,1583576429285955840,52," | 52  |   4825       5   4791      26 |   5    0      4589       228 |   1  23    0    0 b20f |    2.075       0       5       0       5     23     23      0   4496     321       1  23    0b20f a70f      9.660 "
test,1583576429283577088,53," | 53  |   4825       5   4799       0 |   5    0      4537       262 |   1  55    0    0 c60f |    2.014       0       5       0       5     55     55      0   4486     313       1  55    0c60f a70f      8.100 "
test,1583576429303406080,54," | 54  |   4825       5   4817       0 |   5    0      4734        83 |   1  12    0    0 c60f |    2.014       0       2       2       4     12     12      0   4654     163       1  12    0c60f a70f     30.330 "
test,1583576429289923840,55," | 55  |   4825       5   4804       0 |   4    0      4622       182 |   2  55    0    1 c60f |    1.770       0       4       0       4     55     55      0   4584     220       2  55    1c60f a70f      6.510 "
test,1583576429286366976,56," | 56  |   4825       5   4807       0 |   5    0      4731        76 |   2  12    0    0 c60f |    3.479       0       5       0       5     12     12      0   4675     132       3  12    0c60f a70f      9.660 "
test,1583576429306226944,57," | 57  |   4825       5   4762       0 |   3    0      4642       120 |   1  23    0    0 b20f |    2.075       0       2       0       2     23     23      0   4359     403       1  23    0b20f a70f     30.270 "
test,1583576429287342080,58," | 58  |   4825       5   4816       0 |   4    3      4747        69 |   1  55   23    0 c60f |    2.044       0       5       0       5     55     55      0   4541     275       1  55    0c60f a70f      8.880 "
test,1583576429282870016,5," |  5  |   4825       5   4823       0 |   5    0      4393       430 |   1  12    0    0 c60f |    2.014       0       5       0       5     12     12      0   4310     513       1  12    0c60f a70f      8.250 "
test,1583576429285479168,60," | 60  |   4825       5   4816       0 |   5    0      4512       304 |   3  12    0    0 c60f |    3.479       0       5       0       5     12     12      0   4422     394       3  12    0c60f a70f      9.600 "
test,1583576429289576960,61," | 61  |   4825       5   4815       0 |   4    2      4595       220 |   2  55   23    0 c60f |    2.807       0       3       2       5     55     55      0   4434     381       2  55    0c60f a70f      9.630 "
test,1583576429287166208,7," |  7  |   4825       5   4822       0 |   5    0      4749        73 |   1  12    0    0 c60f |    1.983       0       5       0       5     12     12      0   4717     105       1  12    0c60f a70f      8.100 "
test,1583576429283756032,9," |  9  |   4825       5   4821       0 |   5    0      4653       168 |   1  12    0    0 c60f |    1.983       0       5       0       5     12     12      0   4631     190       1  12    0c60f a70f      8.250 "
