test,1583576335051828992,10," | 10  |   4448       5   4420       0 |   2    0      4351        69 |   5  28    0    0 7c0f |    0           0       0       0       8      0      0      0   4291     129       0  28    07c0f a70f     30.390 "
test,1583576335053008128,12," | 12  |   4448       5   4446       0 |   5    0      4412        34 |   4  28    0    0 7c0f |    0           0       0       0       8      0      0      0   4343     103       0  28    07c0f a70f     30.390 "
test,1583576335051537920,13," | 13  |   4448       5   4444       0 |   5    0      4413        31 |   4  28    0    0 7c0f |    0           0       0       0       8      0      0      0   4358      86       0  28    07c0f a70f     30.390 "
test,1583576335053730048,15," | 15  |   4448       5   4446       0 |   5    0      4279       167 |   3  28    0    0 7c0f |    0           0       0       0       8      0      0      0   4091     355       0  28    07c0f a70f     30.390 "
test,1583576335035154176,16," | 16  |   4448       5   4444       0 |   5    0      4281       163 |   2  26    0    0 830f |    2.044       0       5       0       5     26     26      0   4164     280       1  26    0830f a70f      9.570 "
test,1583576335031886080,17," | 17  |   4448       5   4439       5 |   5    0      4392        52 |   2  26    0    0 830f |    2.075       0       5       0       5     26     26      0   4262     182       1  26    0830f a70f      8.850 "
test,1583576335033082112,18," | 18  |   4448       5   4443       0 |   5    1      4191       252 |   1  26   47    0 830f |    2.044       0       5       0       5     26     26      0   4008     435       1  26    0830f a70f      8.850 "
test,1583576335053519872,19," | 19  |   4448       5   4435       9 |   5    0      4374        70 |   1  26    0    0 830f |    4.852       0       4       0       4     26     26      0   4245     199       5  26    0830f a70f     30.390 "
test,1583576335051353088,1," |  1  |   4448       4   4445       0 |   5    0      4339       106 |   5  28    0    0 7c0f |    0           0       0       0       8      0      0      0   4307     138       0  28    07c0f a70f     30.390 "
test,1583576335032114944,22," | 22  |   4448       5   4442       0 |   5    0      4405        37 |   1  26    0    0 830f |    2.044       0       5       0       5     26     26      0   4198     244       1  26    0830f a70f      8.730 "
test,1583576335059046912,23," | 23  |   4448       5   4386       0 |   5    0      4367        19 |   1  26    0    0 830f |    4.241       0       4       0       4     26     26      0   4274     112       4  26    0830f a70f     30.390 "
test,1583576335032681984,24," | 24  |   4448       5   4442       2 |   5    0      4399        45 |   1  26    0    0 830f |    2.044       0       5       0       5     26     26      0   4285     159       1  26    0830f a70f      8.880 "
test,1583576335034987008,26," | 26  |   4448       5   4442       2 |   4    0      4428        16 |   2  26    0    1 830f |    3.814       0       4       0       4     26     26      0   4347      97       5  26    1830f a70f      8.520 "
test,1583576335055241984,27," | 27  |   4448       5   4446       0 |   3    6      4323       123 |   5  27   26    1 980f |   10.253       0       3       0       3     27     27      0   4141     305      14  27    1980f a70f     30.300 "
test,1583576335054097920,28," | 28  |   4448       5   4439       5 |   0    3      4095       349 |   0  28   26    1 7c0f |    0           0       0       0       8      0      0      0   3928     516       0  28    17c0f a70f     30.180 "
test,1583576335038795008,29," | 29  |   4448       3   4441       5 |   4    2      3936       510 |   1  27   26    0 980f |    2.044       0       5       0       5     27     27      0   3734     712       1  27    0980f a70f     13.650 "
test,1583576335050188032,30," | 30  |   4448       5   4442       2 |   1    6      4383        61 |   1  28   35    0 7c0f |    0           0       0       0       8      0      0      0   4223     221       0  28    07c0f a70f     30.360 "
test,1583576335050524928,35," | 35  |   4448       5   4442       2 |   0    2      4235       209 |   0  35   26    1 6d0f |    0           0       0       0       8      0      0      0   4140     304       0  35    16d0f a70f     30.150 "
test,1583576335057188864,40," | 40  |   4448       5   4380      60 |   5    1      4170       270 |   1  47   26    0 680f |    1.983       0       4       0       4     47     47      0   4068     372       1  47    0680f a70f     30.390 "
test,1583576335055973888,41," | 41  |   4448       5   4375      59 |   5    0      4398        36 |   1  47    0    0 680f |    1.983       0       4       0       4     47     47      0   4284     150       1  47    0680f a70f     30.390 "
test,1583576335055515904,42," | 42  |   4448       5   4383      61 |   5    1      4346        98 |   1  47   26    0 680f |    1.983       0       4       0       4     47     47      0   4245     199       1  47    0680f a70f     30.390 "
test,1583576335056729088,44," | 44  |   4448       5   4387      57 |   5    2      4347        97 |   1  47   26    0 680f |    2.044       0       4       0       4     47     47      0   4259     185       1  47    0680f a70f     30.360 "
test,1583576335054630144,45," | 45  |   4448       5   4401      43 |   5    1      4304       140 |   1  47   26    0 680f |    2.014       0       4       0       4     47     47      0   4220     224       1  47    0680f a70f     30.300 "
test,1583576335057678848,46," | 46  |   4448       5   4380      57 |   5    0      4238       199 |   1  47    0    0 680f |    1.983       0       4       0       4     47     47      0   4157     280       1  47    0680f a70f     30.240 "
test,1583576335026982144,47," | 47  |   4448       5   4387      57 |   4    0      4298       146 |   8  47    0    1 680f |    1.739       0       4       0       4     47     47      0   4215     229       2  47    1680f a70f      6.480 "
test,1583576335054996992,48," | 48  |   4448       5   4322      55 |   5    1      4274       103 |   1  47   26    0 680f |    2.014       0       4       0       4     47     47      0   4193     184       1  47    0680f a70f     30.270 "
test,1583576335034328064,49," | 49  |   4448       5   4438       0 |   5    0      4354        84 |   4  26    0    0 830f |    3.540       0       5       0       5     26     26      0   4319     119       3  26    0830f a70f      9.570 "
test,1583576335035568896,51," | 51  |   4448       5   4439       0 |   5    0      4399        40 |   3  26    0    0 830f |    2.777       0       5       0       5     26     26      0   4380      59       2  26    0830f a70f      9.720 "
test,1583576335032494080,52," | 52  |   4448       5   4415      25 |   5    0      4230       210 |   1  26    0    0 830f |    2.044       0       5       0       5     26     26      0   4142     298       1  26    0830f a70f      8.820 "
test,1583576335037251072,53," | 53  |   4448       5   4422       0 |   5    0      4188       234 |   5  26    0    0 830f |    4.211       0       5       0       5     26     26      0   4141     281       4  26    0830f a70f     10.380 "
test,1583576335052339968,54," | 54  |   4448       5   4440       0 |   5    0      4361        79 |   6  28    0    0 7c0f |    0           0       0       0       8      0      0      0   4292     148       0  28    07c0f a70f     30.360 "
test,1583576335033912064,55," | 55  |   4448       5   4427       0 |   5    0      4260       167 |   4  26    0    0 830f |    3.479       0       5       0       5     26     26      0   4225     202       3  26    0830f a70f      9.660 "
test,1583576335033318912,56," | 56  |   4448       5   4430       0 |   5    0      4360        70 |   2  26    0    0 830f |    2.807       0       5       0       5     26     26      0   4309     121       2  26    0830f a70f      8.880 "
test,1583576335036346880,57," | 57  |   4448       3   4385       0 |   5    0      4273       112 |   1  26    0    0 830f |    2.075       0       5       0       5     26     26      0   4012     373       1  26    0830f a70f      8.280 "
test,1583576335055724032,58," | 58  |   4448       5   4439       0 |   2    0      4377        62 |   3  26    0    0 830f |    2.807       0       4       0       4     26     26      0   4187     252       2  26    0830f a70f     30.300 "
test,1583576335054384896,5," |  5  |   4448       5   4446       0 |   5    0      4051       395 |   5  28    0    0 7c0f |    0           0       0       0       8      0      0      0   3974     472       0  28    07c0f a70f     30.360 "
test,1583576335033655808,60," | 60  |   4448       5   4439       0 |   5    0      4158       281 |   4  26    0    0 830f |    2.807       0       5       0       5     26     26      0   4076     363       2  26    0830f a70f      9.000 "
test,1583576335038183936,61," | 61  |   4448       5   4438       0 |   3    1      4239       199 |   2  26   28    0 830f |    2.807       0       5       0       5     26     26      0   4093     345       2  26    0830f a70f      9.060 "
test,1583576335050844928,7," |  7  |   4448       5   4445       0 |   5    0      4377        68 |   5  28    0    0 7c0f |    0           0       0       0       8      0      0      0   4350      95       0  28    07c0f a70f     30.390 "
test,1583576335052589824,9," |  9  |   4448       5   4444       0 |   5    0      4287       157 |   5  28    0    0 7c0f |    0           0       0       0       8      0      0      0   4267     177       0  28    07c0f a70f     30.390 "
