test,1583576362281945088,10," | 10  |   4557       5   4529       0 |   5    0      4457        72 |   1   9    0    0 300f |    2.075       0       5       0       5      9      9      0   4399     130       1   9    0300f a70f      9.030 "
test,1583576362289345024,12," | 12  |   4557       5   4555       0 |   5    8      4518        37 |   1  54    9    0 c80f |    1.983       0       5       0       5     54     54      0   4449     106       1  54    0c80f a70f     15.120 "
test,1583576362282224896,13," | 13  |   4557       5   4553       0 |   5    0      4520        33 |   1   9    0    0 300f |    2.044       0       5       0       5      9      9      0   4464      89       1   9    0300f a70f      8.250 "
test,1583576362305679104,15," | 15  |   4557       5   4555       0 |   2    4      4383       172 |   1  20   54    0 9c0f |    2.014       0       1       0       1     20     20      0   4192     363       1  20    09c0f a70f     30.390 "
test,1583576362304310016,16," | 16  |   4557       5   4553       0 |   1    9      4389       164 |   1  45   48    0 3d0f |    2.044       0       1       0       1     45     45      0   4268     285       1  45    03d0f a70f     30.390 "
test,1583576362291129088,17," | 17  |   4557       5   4548       5 |   5    0      4498        55 |   2  48    0    0 900f |    3.448       0       5       0       5     48     48      0   4367     186       3  48    0900f a70f      9.660 "
test,1583576362286501888,18," | 18  |   4557       5   4552       0 |   5    0      4289       263 |   2  48    0    0 900f |    2.746       0       5       0       5     48     48      0   4104     448       2  48    0900f a70f      8.940 "
test,1583576362285652992,19," | 19  |   4557       5   4544       9 |   5    0      4480        73 |   2  48    0    0 900f |    3.448       0       5       0       5     48     48      0   4349     204       3  48    0900f a70f      9.480 "
test,1583576362284840960,1," |  1  |   4557       4   4554       0 |   5    0      4441       113 |   1   9    0    0 300f |    2.746       0       5       0       5      9      9      0   4408     146       1   9    0300f a70f      8.820 "
test,1583576362290000896,22," | 22  |   4557       5   4551       0 |   5    0      4514        37 |   1  48    0    0 900f |    3.509       0       5       0       5     48     48      0   4303     248       3  48    0900f a70f      9.690 "
test,1583576362285196032,23," | 23  |   4557       5   4495       0 |   5    0      4476        19 |   3  48    0    0 900f |    3.448       0       5       0       5     48     48      0   4382     113       3  48    0900f a70f     10.380 "
test,1583576362290782976,24," | 24  |   4557       5   4551       2 |   5    0      4507        46 |   2  48    0    0 900f |    2.777       0       5       0       5     48     48      0   4389     164       2  48    0900f a70f      8.850 "
test,1583576362286032896,26," | 26  |   4557       5   4551       2 |   5    0      4536        17 |   2  48    0    0 900f |    3.479       0       5       0       5     48     48      0   4455      98       3  48    0900f a70f      9.720 "
test,1583576362301139968,27," | 27  |   4557       5   4555       0 |   1    8      4430       125 |   1  20   48    0 9c0f |    0           0       0       0       8      0      0      0   4243     312       0  20    09c0f a70f     30.360 "
test,1583576362289153024,28," | 28  |   4557       5   4548       5 |   5    0      4199       354 |   1  30    0    0 880f |    1.983       0       5       0       5     30     30      0   4027     526       1  30    0880f a70f      8.220 "
test,1583576362286680832,29," | 29  |   4557       5   4550       5 |   3    0      4027       528 |   5  48    0    0 900f |    4.180       0       5       0       5     48     48      0   3823     732       4  48    0900f a70f     10.350 "
test,1583576362281456896,30," | 30  |   4557       5   4551       2 |   5    0      4490        63 |   2  30    0    1 880f |    1.739       0       4       0       4     30     30      0   4329     224       2  30    1880f a70f      6.480 "
test,1583576362283852032,35," | 35  |   4557       5   4551       2 |   5    0      4336       217 |   1  30    0    0 880f |    1.983       0       5       0       5     30     30      0   4241     312       1  30    0880f a70f      8.220 "
test,1583576362305499904,40," | 40  |   4557       5   4484      65 |   5    2      4262       287 |   1  48   46    0 900f |    3.448       0       4       0       4     48     48      0   4154     395       3  48    0900f a70f     30.360 "
test,1583576362282469120,41," | 41  |   4557       5   4484      59 |   3    9      4507        36 |   4  46   48    0 440f |    2.044       0       5       0       5     46     46      0   4392     151       1  46    0440f a70f      8.280 "
test,1583576362284123904,42," | 42  |   4557       5   4492      61 |   5    5      4453       100 |   1  48   46    0 900f |    1.983       0       5       0       5     48     48      0   4351     202       1  48    0900f a70f      8.100 "
test,1583576362288683776,44," | 44  |   4557       5   4496      57 |   3    8      4456        97 |   4  45   48    0 3d0f |    4.119       0       5       0       5     45     45      0   4367     186       4  45    03d0f a70f     10.290 "
test,1583576362285427968,45," | 45  |   4557       5   4510      43 |   3    7      4407       146 |   5  45   48    1 3d0f |    3.814       0       4       0       4     45     45      0   4323     230       5  45    13d0f a70f      8.520 "
test,1583576362284291072,46," | 46  |   4557       5   4489      57 |   3    8      4344       202 |   5  46   48    1 440f |    1.739       0       4       0       4     46     46      0   4263     283       2  46    1440f a70f      6.480 "
test,1583576362287652096,47," | 47  |   4557       5   4496      57 |   5    6      4404       149 |   1  48   46    0 900f |    2.014       0       5       0       5     48     48      0   4322     231       1  48    0900f a70f      8.970 "
test,1583576362281768960,48," | 48  |   4557       5   4431      55 |   4    6      4381       105 |  10  48   46    1 900f |    1.770       0       4       0       4     48     48      0   4300     186       2  48    1900f a70f      6.510 "
test,1583576362283265024,49," | 49  |   4557       5   4547       0 |   5    0      4461        86 |   1  53    0    0 b30f |    2.044       0       5       0       5     53     53      0   4425     122       1  53    0b30f a70f      8.250 "
test,1583576362284666112,51," | 51  |   4557       5   4548       0 |   5    0      4506        42 |   2   9    0    0 300f |    2.777       0       5       0       5      9      9      0   4488      60       2   9    0300f a70f      9.000 "
test,1583576362288930816,52," | 52  |   4557       4   4524      25 |   5    0      4336       213 |   4  48    0    0 900f |    3.479       0       5       0       5     48     48      0   4248     301       3  48    0900f a70f      9.660 "
test,1583576362282917888,53," | 53  |   4557       5   4531       0 |   5    0      4289       242 |   2  53    0    1 b30f |    1.739       0       4       0       4     53     53      0   4241     290       2  53    1b30f a70f      6.480 "
test,1583576362287374848,54," | 54  |   4557       5   4549       0 |   4    9      4467        82 |   5  54    9    1 c80f |   10.253       0       4       0       4     54     54      0   4395     154      14  54    1c80f a70f     14.820 "
test,1583576362283510016,55," | 55  |   4557       5   4536       0 |   5    0      4364       172 |   1  53    0    0 b30f |    2.014       0       5       0       5     53     53      0   4327     209       1  53    0b30f a70f      8.070 "
test,1583576362302035200,56," | 56  |   4557       5   4539       0 |   5    0      4466        73 |   3  48    0    0 900f |    0           0       0       0       8      0      0      0   4414     125       0  48    0900f a70f     30.360 "
test,1583576362304963072,57," | 57  |   4557       5   4494       0 |   5    0      4381       113 |   2  48    0    0 900f |    4.241       0       4       0       4     48     48      0   4114     380       4  48    0900f a70f     30.240 "
test,1583576362287941888,58," | 58  |   4557       5   4548       0 |   5    2      4484        64 |   1  54   53    0 c80f |    2.014       0       5       0       5     54     54      0   4288     260       1  54    0c80f a70f     12.210 "
test,1583576362297233152,5," |  5  |   4557       5   4555       0 |   5    0      4153       402 |   2   9    0    0 300f |    2.777       0       5       0       5      9      9      0   4075     480       2   9    0300f a70f      8.820 "
test,1583576362306068992,60," | 60  |   4557       5   4548       0 |   5    0      4261       287 |   3  48    0    0 900f |   10.833       0       1       0       1     48     48      0   4175     373      13  48    0900f a70f     30.360 "
test,1583576362289825792,61," | 61  |   4557       5   4547       0 |   5    6      4339       208 |   1  54   48    0 c80f |    2.716       0       5       0       5     54     54      0   4187     360       2  54    0c80f a70f     11.520 "
test,1583576362280812032,7," |  7  |   4557       5   4554       0 |   5    0      4486        68 |   1   9    0    0 300f |    2.044       0       5       0       5      9      9      0   4457      97       1   9    0300f a70f      8.280 "
test,1583576362282723840,9," |  9  |   4557       5   4553       0 |   5    0      4394       159 |   2   9    0    1 300f |    1.739       0       4       0       4      9      9      0   4374     179       2   9    1300f a70f      6.510 "
