test,1583576305033154048,10," | 10  |   4328       5   4300       0 |   1    2      4231        69 |   1   9   55    0 c20f |    2.075       0       5       0       5      9      9      0   4176     124       1   9    0c20f a70f     10.290 "
test,1583576305044611072,12," | 12  |   4328       5   4326       0 |   5    0      4292        34 |   1   9    0    0 c20f |    2.777       0       5       0       5      9      9      0   4227      99       2   9    0c20f a70f      9.600 "
test,1583576305032962048,13," | 13  |   4328       5   4324       0 |   5    0      4294        30 |   1   9    0    0 c20f |    2.044       0       5       0       5      9      9      0   4242      82       1   9    0c20f a70f      8.940 "
test,1583576305053100032,15," | 15  |   4328       5   4326       0 |   0    5      4163       163 |   0  15    9    1 cc0f |    0           0       0       0       8      0      0      0   3980     346       0  15    1cc0f a70f     30.180 "
test,1583576305036713984,16," | 16  |   4328       5   4324       0 |   1    3      4165       159 |   7  16   57    1 6c0f |    1.739       0       4       0       4     16     16      0   4049     275       2  16    16c0f a70f      6.510 "
test,1583576305051625984,17," | 17  |   4328       5   4319       5 |   5    0      4273        51 |   2  57    0    0 660f |    0           0       0       0       8      0      0      0   4143     181       0  57    0660f a70f     30.390 "
test,1583576305050183168,18," | 18  |   4328       5   4323       0 |   5    0      4080       243 |   3  57    0    0 660f |    0           0       0       0       8      0      0      0   3902     421       0  57    0660f a70f     30.360 "
test,1583576305051059968,19," | 19  |   4328       5   4315       9 |   5    0      4258        66 |   4  57    0    0 660f |    0           0       0       0       8      0      0      0   4131     193       0  57    0660f a70f     30.390 "
test,1583576305032602112,1," |  1  |   4328       4   4325       0 |   5    0      4222       103 |   1   9    0    0 c20f |    2.716       0       5       0       5      9      9      0   4191     134       1   9    0c20f a70f      8.940 "
test,1583576305050625024,22," | 22  |   4328       5   4322       0 |   5    0      4286        36 |   2  57    0    0 660f |    0           0       0       0       8      0      0      0   4083     239       0  57    0660f a70f     30.360 "
test,1583576305030973952,23," | 23  |   4328       5   4266       0 |   1    6      4247        19 |   1  16   57    0 6c0f |    2.014       0       5       0       5     16     16      0   4154     112       1  16    06c0f a70f      8.280 "
test,1583576305049810944,24," | 24  |   4328       5   4322       2 |   5    0      4279        45 |   2  57    0    0 660f |    0           0       0       0       8      0      0      0   4165     159       0  57    0660f a70f     30.390 "
test,1583576305049616128,26," | 26  |   4328       5   4322       2 |   5    0      4308        16 |   1  57    0    0 660f |    0           0       0       0       8      0      0      0   4227      97       0  57    0660f a70f     30.390 "
test,1583576305042279936,27," | 27  |   4328       5   4326       0 |   1    9      4204       122 |   2  16   15    0 6c0f |    2.807       0       5       0       5     16     16      0   4026     300       2  16    06c0f a70f      8.940 "
test,1583576305055915008,28," | 28  |   4328       5   4319       5 |   5    1      3986       338 |   1  30   57    0 d10f |    3.479       0       4       0       4     30     30      0   3826     498       3  30    0d10f a70f     30.240 "
test,1583576305050884864,29," | 29  |   4328       5   4321       5 |   4    0      3834       492 |   5  57    0    0 660f |    0           0       0       0       8      0      0      0   3635     691       0  57    0660f a70f     30.360 "
test,1583576305032118016,30," | 30  |   4328       5   4322       2 |   4    1      4267        57 |  11  30   57    1 d10f |    1.770       0       4       0       4     30     30      0   4112     212       2  30    1d10f a70f      6.510 "
test,1583576305033363968,35," | 35  |   4328       5   4322       2 |   5    2      4119       205 |   1  30   57    0 d10f |    2.014       0       5       0       5     30     30      0   4027     297       1  30    0d10f a70f      8.070 "
test,1583576305055718912,40," | 40  |   4328       5   4260      60 |   3    1      4057       263 |   2  40   16    1 ae0f |    1.739       0       3       0       3     40     40      0   3955     365       2  40    1ae0f a70f     30.300 "
test,1583576305040942848,41," | 41  |   4328       5   4255      59 |   4    2      4278        36 |   1  16   57    0 6c0f |    7.904       0       5       0       5     16     16      0   4167     147       9  16    06c0f a70f     14.670 "
test,1583576305038436864,42," | 42  |   4328       5   4263      61 |   2    1      4228        96 |   4  16   57    0 6c0f |    8.636       0       5       0       5     16     16      0   4127     197      10  16    06c0f a70f     14.760 "
test,1583576305038172928,44," | 44  |   4328       5   4267      57 |   2    1      4228        96 |   4  16   57    0 6c0f |    8.666       0       5       0       5     16     16      0   4140     184      10  16    06c0f a70f     14.760 "
test,1583576305039601152,45," | 45  |   4328       5   4281      43 |   4    0      4186       138 |   1  16    0    0 6c0f |    7.934       0       5       0       5     16     16      0   4104     220       9  16    06c0f a70f     14.040 "
test,1583576305043010048,46," | 46  |   4328       5   4260      57 |   4    0      4123       194 |   2  16    0    0 6c0f |    8.666       0       5       0       5     16     16      0   4043     274      10  16    06c0f a70f     14.760 "
test,1583576305042820864,47," | 47  |   4328       5   4267      57 |   3    1      4178       146 |   4  16   57    0 6c0f |    8.666       0       5       0       5     16     16      0   4095     229      10  16    06c0f a70f     14.640 "
test,1583576305055363840,48," | 48  |   4328       5   4202      55 |   3    1      4155       102 |   1  40   57    0 ae0f |    2.014       0       3       0       3     40     40      0   4074     183       1  40    0ae0f a70f     30.360 "
test,1583576305030299904,49," | 49  |   4328       5   4318       0 |   5    0      4234        84 |   1  55    0    0 150f |    2.044       0       5       0       5     55     55      0   4199     119       1  55    0150f a70f      8.130 "
test,1583576305031696128,51," | 51  |   4328       5   4319       0 |   5    0      4280        39 |   2  57    0    0 660f |    2.746       0       5       0       5     57     57      0   4262      57       2  57    0660f a70f      8.970 "
test,1583576305034619136,52," | 52  |   4328       3   4296      24 |   1    7      4113       207 |   1  16   57    0 6c0f |    2.075       0       5       0       5     16     16      0   4026     294       1  16    06c0f a70f      8.130 "
test,1583576305031294208,53," | 53  |   4328       5   4302       0 |   5    0      4078       224 |   1  55    0    0 150f |    2.014       0       5       0       5     55     55      0   4031     271       1  55    0150f a70f      8.250 "
test,1583576305031478784,54," | 54  |   4328       5   4320       0 |   5    0      4243        77 |   1   9    0    0 c20f |    2.075       0       5       0       5      9      9      0   4176     144       1   9    0c20f a70f      8.220 "
test,1583576305030116096,55," | 55  |   4328       5   4307       0 |   5    0      4143       164 |   2  55    0    1 150f |    1.739       0       4       0       4     55     55      0   4108     199       2  55    1150f a70f      6.480 "
test,1583576305031119104,56," | 56  |   4328       5   4310       0 |   5    0      4243        67 |   1  57    0    0 660f |    2.075       0       5       0       5     57     57      0   4193     117       1  57    0660f a70f      8.250 "
test,1583576305055548928,57," | 57  |   4328       5   4265       0 |   2    0      4158       107 |   4  57    0    1 660f |    3.936       0       1       0       1     57     57      0   3903     362       5  57    1660f a70f     30.300 "
test,1583576305033582848,58," | 58  |   4328       5   4319       0 |   4    0      4258        61 |   2  55    0    0 150f |    2.075       0       5       0       5     55     55      0   4071     248       1  55    0150f a70f      8.250 "
test,1583576305031891200,5," |  5  |   4328       5   4326       0 |   5    0      3947       379 |   2   9    0    0 c20f |    2.807       0       5       0       5      9      9      0   3872     454       2   9    0c20f a70f      9.600 "
test,1583576305035166976,60," | 60  |   4328       5   4319       0 |   5    0      4048       271 |   1  57    0    0 660f |    2.075       0       5       0       5     57     57      0   3971     348       1  57    0660f a70f      8.130 "
test,1583576305056807936,61," | 61  |   4328       5   4318       0 |   2    3      4126       192 |   4  57   55    0 660f |    2.075       0       1       0       1     57     57      0   3983     335       1  57    0660f a70f     30.360 "
test,1583576305030589184,7," |  7  |   4328       5   4325       0 |   5    0      4257        68 |   1   9    0    0 c20f |    2.044       0       5       0       5      9      9      0   4232      93       1   9    0c20f a70f      9.030 "
test,1583576305032816896,9," |  9  |   4328       5   4324       0 |   4    0      4171       153 |   4   9    0    1 c20f |    1.770       0       4       0       4      9      9      0   4152     172       2   9    1c20f a70f      6.510 "
