test,1583576705290676992,10," | 10  |   5929       5   5901       0 |   5    0      5805        96 |   1  13    0    0 860f |    1.983       0       5       0       5     13     13      0   5732     169       1  13    0860f a70f      8.160 "
test,1583576705288741120,12," | 12  |   5929       5   5893      34 |   5    0      5862        65 |   1  13    0    0 860f |    1.983       0       5       0       5     13     13      0   5762     165       1  13    0860f a70f      8.220 "
test,1583576705286990848,13," | 13  |   5929       5   5925       0 |   4    0      5875        50 |   3  13    0    1 860f |    1.739       0       4       0       4     13     13      0   5807     118       2  13    1860f a70f      6.480 "
test,1583576705291078144,15," | 15  |   5929       5   5884      43 |   5    0      5695       232 |   1  13    0    0 860f |    1.983       0       5       0       5     13     13      0   5430     497       1  13    0860f a70f      8.940 "
test,1583576705290864896,16," | 16  |   5929       5   5925       0 |   5    0      5711       214 |   1  52    0    0 460f |    2.075       0       5       0       5     52     52      0   5548     377       1  52    0460f a70f      9.000 "
test,1583576705291676160,17," | 17  |   5929       5   5917       8 |   5    0      5850        75 |   2  52    0    0 460f |    2.807       0       5       0       5     52     52      0   5675     250       2  52    0460f a70f      9.000 "
test,1583576705310587904,18," | 18  |   5929       5   5924       0 |   4    7      5603       321 |   8  18   52    1 c60f |    1.739       0       1       0       1     18     18      0   5373     551       2  18    1c60f a70f     30.300 "
test,1583576705291394048,19," | 19  |   5929       5   5913      12 |   5    0      5814       111 |   1  52    0    0 460f |    2.044       0       5       0       5     52     52      0   5652     273       1  52    0460f a70f      8.280 "
test,1583576705292082176,1," |  1  |   5929       4   5926       0 |   5    0      5769       157 |   1  13    0    0 860f |    2.685       0       5       0       5     13     13      0   5731     195       1  13    0860f a70f      8.760 "
test,1583576705309478144,22," | 22  |   5929       5   5923       0 |   5    8      5872        51 |   1  18   52    0 c60f |    2.044       0       1       0       1     18     18      0   5605     318       1  18    0c60f a70f     30.360 "
test,1583576705292656896,23," | 23  |   5929       5   5867       0 |   5    0      5842        25 |   1  52    0    0 460f |    2.075       0       5       0       5     52     52      0   5725     142       1  52    0460f a70f      9.540 "
test,1583576705289588992,24," | 24  |   5929       5   5923       2 |   5    0      5863        62 |   2  52    0    0 460f |    2.777       0       5       0       5     52     52      0   5710     215       2  52    0460f a70f      9.030 "
test,1583576705290384128,26," | 26  |   5929       5   5923       2 |   5    0      5899        26 |   1  52    0    0 460f |    2.044       0       5       0       5     52     52      0   5790     135       1  52    0460f a70f      8.250 "
test,1583576705293259008,27," | 27  |   5929       5   5927       0 |   5    0      5757       170 |   2  52    0    0 460f |    2.807       0       5       0       5     52     52      0   5523     404       2  52    0460f a70f      9.690 "
test,1583576705289413888,28," | 28  |   5929       5   5917       8 |   4    2      5442       483 |   4  35   18    0 c70f |    2.075       0       5       0       5     35     35      0   5216     709       1  35    0c70f a70f      9.000 "
test,1583576705311008000,29," | 29  |   5929       5   5919       8 |   4    0      5237       690 |   3  52    0    0 460f |    2.807       0       3       0       3     52     52      0   4989     938       2  52    0460f a70f     30.330 "
test,1583576705288079104,30," | 30  |   5929       5   5922       3 |   5    0      5844        81 |   1  35    0    0 c70f |    2.044       0       5       0       5     35     35      0   5629     296       1  35    0c70f a70f      8.100 "
test,1583576705288899072,35," | 35  |   5929       5   5922       3 |   5    0      5643       282 |   2  35    0    1 c70f |    1.739       0       4       0       4     35     35      0   5515     410       2  35    1c70f a70f      6.480 "
test,1583576705294493952,40," | 40  |   5929       4   5847      74 |   4    0      5566       355 |   4  40    0    1 6a0f |    1.770       0       4       0       4     40     40      0   5425     496       2  40    16a0f a70f      7.230 "
test,1583576705292429824,41," | 41  |   5929       5   5856      59 |   5    0      5866        49 |   1  40    0    0 6a0f |    2.746       0       5       0       5     40     40      0   5727     188       2  40    06a0f a70f      8.970 "
test,1583576705297275136,42," | 42  |   5929       5   5863      62 |   5    0      5810       115 |   1  40    0    0 6a0f |    2.746       0       5       0       5     40     40      0   5685     240       2  40    06a0f a70f      8.970 "
test,1583576705293519104,44," | 44  |   5929       5   5868      57 |   5    0      5809       116 |   2  40    0    0 6a0f |    2.716       0       5       0       5     40     40      0   5697     228       2  40    06a0f a70f      8.970 "
test,1583576705297487104,45," | 45  |   5929       5   5882      43 |   5    0      5742       183 |   2  40    0    0 6a0f |    2.716       0       5       0       5     40     40      0   5637     288       2  40    06a0f a70f      9.630 "
test,1583576705292249088,46," | 46  |   5929       5   5861      57 |   5    0      5653       265 |   2  40    0    0 6a0f |    2.716       0       5       0       5     40     40      0   5556     362       2  40    06a0f a70f      9.660 "
test,1583576705292814080,47," | 47  |   5929       5   5868      57 |   5    0      5734       191 |   1  40    0    0 6a0f |    2.716       0       5       0       5     40     40      0   5640     285       2  40    06a0f a70f      8.970 "
test,1583576705294104064,48," | 48  |   5929       5   5803      55 |   5    0      5736       122 |   1  40    0    0 6a0f |    1.983       0       5       0       5     40     40      0   5635     223       1  40    06a0f a70f      8.910 "
test,1583576705288596992,49," | 49  |   5929       5   5919       0 |   5    0      5807       112 |   1  55    0    0 340f |    2.014       0       5       0       5     55     55      0   5769     150       1  55    0340f a70f      8.070 "
test,1583576705287686144,51," | 51  |   5929       5   5920       0 |   5    0      5855        65 |   1  13    0    0 860f |    2.014       0       5       0       5     13     13      0   5837      83       1  13    0860f a70f      8.250 "
test,1583576705291828992,52," | 52  |   5929       5   5894      27 |   4    0      5635       286 |   2  52    0    1 460f |    1.739       0       4       0       4     52     52      0   5527     394       2  52    1460f a70f      7.920 "
test,1583576705288482048,53," | 53  |   5929       5   5903       0 |   5    0      5589       314 |   1  55    0    0 340f |    1.983       0       5       0       5     55     55      0   5529     374       1  55    0340f a70f      8.190 "
test,1583576705311901184,54," | 54  |   5929       5   5921       0 |   3    0      5821       100 |   5  13    0    0 860f |    1.983       0       4       0       4     13     13      0   5729     192       1  13    0860f a70f     30.360 "
test,1583576705288335104,55," | 55  |   5929       5   5908       0 |   4    0      5684       224 |   2  55    0    1 340f |    1.770       0       4       0       4     55     55      0   5639     269       2  55    1340f a70f      6.510 "
test,1583576705289992960,56," | 56  |   5929       5   5911       0 |   5    0      5823        88 |   2  13    0    0 860f |    2.014       0       5       0       5     13     13      0   5754     157       1  13    0860f a70f      8.850 "
test,1583576705311427072,57," | 57  |   5929       5   5866       0 |   5    0      5717       149 |   3  13    0    0 860f |    4.943       0       4       0       4     13     13      0   5361     505       5  13    0860f a70f     30.240 "
test,1583576705308530944,58," | 58  |   5929       4   5920       0 |   5    0      5840        80 |   1  55    0    0 340f |    2.044       0       4       0       4     55     55      0   5599     321       1  55    0340f a70f     30.300 "
test,1583576705294696192,5," |  5  |   5929       5   5927       0 |   5    0      5402       525 |   1  13    0    0 860f |    1.983       0       5       0       5     13     13      0   5300     627       1  13    0860f a70f      8.040 "
test,1583576705295436032,60," | 60  |   5929       5   5920       0 |   5    0      5547       373 |   2  13    0    0 860f |    2.716       0       5       0       5     13     13      0   5429     491       2  13    0860f a70f      8.850 "
test,1583576705310145024,61," | 61  |   5929       4   5919       0 |   4    2      5648       271 |   2  55   13    0 340f |    2.777       0       4       0       4     55     55      0   5450     469       2  55    0340f a70f     30.300 "
test,1583576705289260032,7," |  7  |   5929       5   5926       0 |   5    0      5837        89 |   1  13    0    0 860f |    2.014       0       5       0       5     13     13      0   5801     125       1  13    0860f a70f      8.250 "
test,1583576705293076992,9," |  9  |   5929       5   5925       0 |   5    0      5723       202 |   1  13    0    0 860f |    2.014       0       5       0       5     13     13      0   5698     227       1  13    0860f a70f      8.100 "
