test,1583576662808183040,10," | 10  |   5759       5   5731       0 |   1   16      5640        91 |   2   1    9    0 590f |    1.373       0       3       0       3      1      1      0   5569     162       1   1    0590f a70f     30.360 "
test,1583576662787853056,12," | 12  |   5759       5   5723      34 |   2   12      5693        64 |   2   1    9    0 590f |    2.105       0       5       0       5      1      1      0   5593     164       2   1    0590f a70f      8.340 "
test,1583576662788034816,13," | 13  |   5759       5   5755       0 |   3   13      5708        47 |   1   1    9    0 590f |    1.373       0       5       0       5      1      1      0   5641     114       1   1    0590f a70f      8.220 "
test,1583576662800574976,15," | 15  |   5759       5   5714      43 |   0    0      5531       226 |   0  15    0    1 820f |   14.587       0       4       0       4     15     15      0   5268     489      20  15    1820f a70f     20.370 "
test,1583576662814589952,16," | 16  |   5759       5   5755       0 |   5    0      5550       205 |   5  57    0    0 320f |    2.716       0       4       0       4     57     57      0   5391     364       2  57    0320f a70f     30.390 "
test,1583576662788734976,17," | 17  |   5759       5   5748       7 |   4    0      5685        70 |   3  17    0    1 6c0f |    1.739       0       4       0       4     17     17      0   5516     239       2  17    16c0f a70f      6.480 "
test,1583576662810544128,18," | 18  |   5759       5   5754       0 |   5    0      5435       319 |   5  57    0    0 320f |    3.479       0       3       0       3     57     57      0   5209     545       3  57    0320f a70f     30.300 "
test,1583576662790816000,19," | 19  |   5759       5   5744      11 |   5    0      5649       106 |   2  17    0    0 6c0f |    2.014       0       5       0       5     17     17      0   5493     262       1  17    06c0f a70f      8.250 "
test,1583576662809847040,1," |  1  |   5759       4   5756       0 |   0    9      5606       150 |   0   1    9    1 590f |    3.204       0       3       0       3      1      1      0   5569     187       4   1    1590f a70f     30.300 "
test,1583576662810752000,22," | 22  |   5759       5   5753       0 |   5    0      5703        50 |   5  57    0    0 320f |    2.685       0       3       0       3     57     57      0   5445     308       2  57    0320f a70f     30.360 "
test,1583576662809263104,23," | 23  |   5759       5   5697       0 |   5    0      5672        25 |   4  57    0    0 320f |    1.983       0       4       0       4     57     57      0   5558     139       1  57    0320f a70f     30.330 "
test,1583576662806823936,24," | 24  |   5759       5   5753       2 |   0   11      5695        60 |   0  24   57    1 950f |   12.390       0       3       0       3     24     24      0   5545     210      17  24    1950f a70f     30.240 "
test,1583576662811005952,26," | 26  |   5759       5   5753       2 |   5    0      5731        24 |   4  57    0    0 320f |    2.746       0       3       0       3     57     57      0   5624     131       2  57    0320f a70f     30.360 "
test,1583576662812668160,27," | 27  |   5759       5   5757       0 |   1    2      5594       163 |   1  17   57    0 6c0f |    2.014       0       4       0       4     17     17      0   5364     393       1  17    06c0f a70f     30.360 "
test,1583576662793207808,28," | 28  |   5759       4   5748       7 |   3    4      5290       465 |   1  17   15    0 6c0f |    2.014       0       5       0       5     17     17      0   5068     687       1  17    06c0f a70f      8.220 "
test,1583576662812020992,29," | 29  |   5759       4   5749       8 |   4    0      5083       674 |   2  17    0    0 6c0f |    5.676       0       3       0       3     17     17      0   4840     917       6  17    06c0f a70f     30.360 "
test,1583576662801970944,30," | 30  |   5759       5   5752       3 |   5    0      5680        75 |   5  15    0    0 820f |   15.594       0       5       0       5     15     15      0   5470     285      20  15    0820f a70f     21.570 "
test,1583576662802839040,35," | 35  |   5759       5   5752       3 |   5    0      5483       272 |   6  15    0    0 820f |   16.296       0       5       0       5     15     15      0   5358     397      21  15    0820f a70f     22.290 "
test,1583576662794703104,40," | 40  |   5759       5   5677      74 |   5    1      5401       350 |   1  24   46    0 950f |    2.014       0       5       0       5     24     24      0   5267     484       1  24    0950f a70f     18.630 "
test,1583576662788481024,41," | 41  |   5759       5   5686      59 |   5    0      5696        49 |   1  46    0    0  d0f |    1.983       0       5       0       5     46     46      0   5560     185       1  46    0 d0f a70f      8.160 "
test,1583576662792224768,42," | 42  |   5759       5   5693      62 |   5    0      5643       112 |   1  46    0    0  d0f |    2.014       0       5       0       5     46     46      0   5522     233       1  46    0 d0f a70f      8.130 "
test,1583576662789271040,44," | 44  |   5759       5   5698      57 |   5    0      5640       115 |   1  46    0    0  d0f |    2.746       0       5       0       5     46     46      0   5531     224       2  46    0 d0f a70f      8.820 "
test,1583576662813487104,45," | 45  |   5759       5   5712      43 |   3    2      5575       180 |   2  24   46    0 950f |   14.068       0       4       0       4     24     24      0   5471     284      18  24    0950f a70f     30.360 "
test,1583576662782691072,46," | 46  |   5759       5   5691      57 |   4    0      5489       259 |   2  46    0    1  d0f |    1.739       0       4       0       4     46     46      0   5395     353       2  46    1 d0f a70f      6.480 "
test,1583576662791255040,47," | 47  |   5759       5   5698      57 |   5    0      5566       189 |   1  46    0    0  d0f |    1.983       0       5       0       5     46     46      0   5475     280       1  46    0 d0f a70f      8.130 "
test,1583576662804514048,48," | 48  |   5759       5   5633      55 |   5    3      5569       119 |   2  24   46    0 950f |   13.397       0       5       0       5     24     24      0   5472     216      17  24    0950f a70f     19.290 "
test,1583576662792958976,49," | 49  |   5759       5   5749       0 |   5    0      5640       109 |   7  57    0    0 320f |    5.676       0       5       0       5     57     57      0   5602     147       6  57    0320f a70f     11.700 "
test,1583576662808398848,51," | 51  |   5759       5   5750       0 |   1    8      5691        59 |   1   1   56    0 590f |    1.373       0       3       0       3      1      1      0   5672      78       1   1    0590f a70f     30.390 "
test,1583576662809448960,52," | 52  |   5759       2   5724      27 |   5    0      5475       276 |   5  57    0    0 320f |    2.716       0       4       0       4     57     57      0   5369     382       2  57    0320f a70f     30.360 "
test,1583576662792788992,53," | 53  |   5759       5   5733       0 |   5    0      5431       302 |   8  57    0    0 320f |    5.645       0       5       0       5     57     57      0   5373     360       6  57    0320f a70f     12.510 "
test,1583576662807241984,54," | 54  |   5759       5   5751       0 |   1   14      5654        97 |   2   1    9    0 590f |    1.403       0       3       0       3      1      1      0   5562     189       1   1    0590f a70f     30.360 "
test,1583576662796046848,55," | 55  |   5759       5   5738       0 |   5    0      5520       218 |   7  57    0    0 320f |    5.645       0       5       0       5     57     57      0   5476     262       6  57    0320f a70f     11.730 "
test,1583576662808825856,56," | 56  |   5759       5   5741       0 |   0   10      5655        86 |   0  56   57    1 1e0f |    0           0       0       0       8      0      0      0   5586     155       0  56    11e0f a70f     30.240 "
test,1583576662787166976,57," | 57  |   5759       3   5696       0 |   5    0      5552       144 |   5  57    0    1 320f |    1.739       0       4       0       4     57     57      0   5210     486       2  57    1320f a70f      6.480 "
test,1583576662789771008,58," | 58  |   5759       5   5750       0 |   5    0      5671        79 |   6  57    0    0 320f |    4.913       0       5       0       5     57     57      0   5435     315       5  57    0320f a70f     11.040 "
test,1583576662790641920,5," |  5  |   5759       5   5757       0 |   3    3      5241       516 |   2   1   15    0 590f |    2.136       0       5       0       5      1      1      0   5141     616       2   1    0590f a70f      9.060 "
test,1583576662810334976,60," | 60  |   5759       5   5750       0 |   1    7      5386       364 |   2   1   56    0 590f |    2.105       0       3       0       3      1      1      0   5273     477       2   1    0590f a70f     30.360 "
test,1583576662793472000,61," | 61  |   5759       5   5749       0 |   5    0      5487       262 |   6  57    0    0 320f |    5.645       0       5       0       5     57     57      0   5294     455       6  57    0320f a70f     11.820 "
test,1583576662786264832,7," |  7  |   5759       5   5756       0 |   1   10      5668        88 |   1   1    9    0 590f |    1.373       0       5       0       5      1      1      0   5632     124       1   1    0590f a70f      7.620 "
test,1583576662804332032,9," |  9  |   5759       5   5755       0 |   0    1      5557       198 |   0   9    1    1 150f |    0           0       0       0       8      0      0      0   5532     223       0   9    1150f a70f     30.210 "
