test,1583576675056421888,10," | 10  |   5808       5   5780       0 |   3    7      5688        92 |   8  10    9    1 a70f |    8.117       0       3       0       3     10     10      0   5617     163      11  10    1a70f a70f     30.270 "
test,1583576675058850048,12," | 12  |   5808       5   5772      34 |   2    9      5742        64 |   1  15   10    0 3c0f |    6.195       0       1       0       1     15     15      0   5642     164       7  15    03c0f a70f     30.390 "
test,1583576675040882176,13," | 13  |   5808       5   5804       0 |   5    6      5757        47 |   1  10    9    0 a70f |    2.044       0       5       0       5     10     10      0   5690     114       1  10    0a70f a70f     12.360 "
test,1583576675059202816,15," | 15  |   5808       5   5763      43 |   2    2      5577       229 |   2  15   10    1 3c0f |    5.981       0       1       0       1     15     15      0   5314     492       8  15    13c0f a70f     30.240 "
test,1583576675057774080,16," | 16  |   5808       5   5804       0 |   5    0      5594       210 |   2  27    0    0 5a0f |    0           0       0       0       8      0      0      0   5432     372       0  27    05a0f a70f     30.390 "
test,1583576675059572992,17," | 17  |   5808       4   5796       8 |   1   10      5731        73 |   1  27   18    0 5a0f |    0           0       0       0       8      0      0      0   5561     243       0  27    05a0f a70f     30.390 "
test,1583576675038369792,18," | 18  |   5808       5   5803       0 |   5    0      5483       320 |   2  18    0    1 cb0f |    1.739       0       4       0       4     18     18      0   5256     547       2  18    1cb0f a70f      6.480 "
test,1583576675057024000,19," | 19  |   5808       4   5792      12 |   1    2      5695       109 |   1  27   18    0 5a0f |    0           0       0       0       8      0      0      0   5536     268       0  27    05a0f a70f     30.360 "
test,1583576675037455104,1," |  1  |   5808       4   5805       0 |   5    0      5653       152 |   4   9    0    0 e90f |    2.716       0       5       0       5      9      9      0   5616     189       1   9    0e90f a70f      8.940 "
test,1583576675040518144,22," | 22  |   5808       5   5802       0 |   5    0      5751        51 |   2  18    0    0 cb0f |    1.983       0       5       0       5     18     18      0   5492     310       1  18    0cb0f a70f      8.910 "
test,1583576675056675072,23," | 23  |   5808       5   5746       0 |   5    0      5721        25 |   1  27    0    0 5a0f |    0           0       0       0       8      0      0      0   5606     140       0  27    05a0f a70f     30.360 "
test,1583576675037184000,24," | 24  |   5808       5   5802       2 |   5    0      5743        61 |   1  18    0    0 cb0f |    2.014       0       5       0       5     18     18      0   5593     211       1  18    0cb0f a70f      8.160 "
test,1583576675039151872,26," | 26  |   5808       5   5802       2 |   5    0      5779        25 |   2  18    0    0 cb0f |    2.716       0       5       0       5     18     18      0   5671     133       2  18    0cb0f a70f      8.940 "
test,1583576675062170880,27," | 27  |   5808       5   5806       0 |   4    0      5643       163 |   2  27    0    1 5a0f |    1.739       0       2       0       2     27     27      0   5413     393       2  27    15a0f a70f     30.300 "
test,1583576675059726848,28," | 28  |   5808       4   5796       8 |   5    0      5332       472 |   2  27    0    0 5a0f |    0           0       0       0       8      0      0      0   5108     696       0  27    05a0f a70f     30.360 "
test,1583576675064008960,29," | 29  |   5808       5   5798       8 |   5    0      5127       679 |   1  27    0    0 5a0f |    1.983       0       3       0       3     27     27      0   4883     923       1  27    05a0f a70f     30.360 "
test,1583576675061156864,30," | 30  |   5808       5   5801       3 |   5    0      5729        75 |   3  27    0    0 5a0f |    0           0       0       0       8      0      0      0   5516     288       0  27    05a0f a70f     30.360 "
test,1583576675060271872,35," | 35  |   5808       5   5801       3 |   0    4      5530       274 |   0  35   27    1 200f |    0           0       0       0       8      0      0      0   5403     401       0  35    1200f a70f     28.110 "
test,1583576675055483136,40," | 40  |   5808       4   5726      74 |   5    0      5448       352 |   3  27    0    0 5a0f |    0           0       0       0       8      0      0      0   5312     488       0  27    05a0f a70f     30.360 "
test,1583576675056826112,41," | 41  |   5808       3   5735      59 |   5    0      5745        49 |   2  27    0    0 5a0f |    0           0       0       0       8      0      0      0   5608     186       0  27    05a0f a70f     30.390 "
test,1583576675056219136,42," | 42  |   5808       4   5742      62 |   4    0      5692       112 |   5  27    0    0 5a0f |    0           0       0       0       8      0      0      0   5570     234       0  27    05a0f a70f     30.390 "
test,1583576675058535936,44," | 44  |   5808       4   5747      57 |   3    0      5688       116 |   7  27    0    0 5a0f |    0           0       0       0       8      0      0      0   5577     227       0  27    05a0f a70f     30.390 "
test,1583576675058170112,45," | 45  |   5808       4   5761      43 |   5    0      5623       181 |   3  27    0    0 5a0f |    0           0       0       0       8      0      0      0   5518     286       0  27    05a0f a70f     30.360 "
test,1583576675058013952,46," | 46  |   5808       4   5740      57 |   5    0      5534       263 |   3  27    0    0 5a0f |    0           0       0       0       8      0      0      0   5439     358       0  27    05a0f a70f     30.390 "
test,1583576675038204928,47," | 47  |   5808       4   5747      57 |   2    7      5615       189 |   1  18   27    0 cb0f |    2.014       0       5       0       5     18     18      0   5524     280       1  18    0cb0f a70f      8.250 "
test,1583576675039671040,48," | 48  |   5808       4   5682      55 |   2    6      5617       120 |   2  18   27    0 cb0f |    2.746       0       5       0       5     18     18      0   5519     218       2  18    0cb0f a70f      8.970 "
test,1583576675040247808,49," | 49  |   5808       5   5798       0 |   5    0      5688       110 |   2  61    0    0 870f |    2.777       0       5       0       5     61     61      0   5650     148       2  61    0870f a70f      8.970 "
test,1583576675039879168,51," | 51  |   5808       5   5799       0 |   5    0      5736        63 |   1  10    0    0 a70f |    2.044       0       5       0       5     10     10      0   5718      81       1  10    0a70f a70f     10.200 "
test,1583576675057431040,52," | 52  |   5808       5   5773      27 |   1    3      5523       277 |   2  27   18    0 5a0f |    0           0       0       0       8      0      0      0   5416     384       0  27    05a0f a70f     30.390 "
test,1583576675040723968,53," | 53  |   5808       5   5782       0 |   5    0      5472       310 |   3  61    0    0 870f |    3.448       0       5       0       5     61     61      0   5413     369       3  61    0870f a70f      9.630 "
test,1583576675060087808,54," | 54  |   5808       5   5800       0 |   5    0      5703        97 |   5   9    0    0 e90f |    2.777       0       3       0       3      9      9      0   5610     190       2   9    0e90f a70f     30.360 "
test,1583576675041428992,55," | 55  |   5808       5   5787       0 |   5    0      5568       219 |   2  61    0    0 870f |    2.746       0       5       0       5     61     61      0   5523     264       2  61    0870f a70f      8.880 "
test,1583576675062733056,56," | 56  |   5808       5   5790       0 |   4    7      5703        87 |   6  61   10    0 870f |   11.962       0       4       0       4     61     61      0   5634     156      15  61    0870f a70f     30.360 "
test,1583576675045559808,57," | 57  |   5808       5   5745       0 |   3    2      5599       146 |   1  61   10    0 870f |    2.044       0       5       0       5     61     61      0   5254     491       1  61    0870f a70f     14.400 "
test,1583576675044152064,58," | 58  |   5808       5   5799       0 |   5    0      5720        79 |   1  61    0    0 870f |    2.044       0       5       0       5     61     61      0   5484     315       1  61    0870f a70f     15.120 "
test,1583576675042988032,5," |  5  |   5808       5   5806       0 |   5    2      5286       520 |   2  10   15    0 a70f |    2.746       0       5       0       5     10     10      0   5186     620       2  10    0a70f a70f     12.960 "
test,1583576675057252864,60," | 60  |   5808       5   5799       0 |   1    7      5433       366 |   3  15   10    0 3c0f |    0           0       0       0       8      0      0      0   5316     483       0  15    03c0f a70f     30.360 "
test,1583576675044589056,61," | 61  |   5808       5   5798       0 |   4    0      5535       263 |   2  61    0    1 870f |   10.253       0       4       0       4     61     61      0   5342     456      14  61    1870f a70f     14.640 "
test,1583576675037607936,7," |  7  |   5808       5   5805       0 |   5    0      5717        88 |   4   9    0    0 e90f |    2.075       0       5       0       5      9      9      0   5681     124       1   9    0e90f a70f      8.250 "
test,1583576675036951040,9," |  9  |   5808       5   5804       0 |   4    0      5604       200 |   5   9    0    1 e90f |    1.739       0       4       0       4      9      9      0   5579     225       2   9    1e90f a70f      6.510 "
