test,1583576658289308160,10," | 10  |   5741       5   5713       0 |   5    0      5623        90 |   1  13    0    0 bd0f |    1.983       0       5       0       5     13     13      0   5552     161       1  13    0bd0f a70f      8.220 "
test,1583576658291315968,12," | 12  |   5741       5   5705      34 |   5    0      5675        64 |   1  13    0    0 bd0f |    2.044       0       5       0       5     13     13      0   5575     164       1  13    0bd0f a70f      8.130 "
test,1583576658288846848,13," | 13  |   5741       5   5737       0 |   4    0      5690        47 |   2  13    0    1 bd0f |    1.739       0       4       0       4     13     13      0   5623     114       2  13    1bd0f a70f      6.480 "
test,1583576658310988032,15," | 15  |   5741       5   5696      43 |   4    0      5514       225 |   4  13    0    0 bd0f |    2.044       0       4       0       4     13     13      0   5251     488       1  13    0bd0f a70f     30.300 "
test,1583576658307770112,16," | 16  |   5741       5   5737       0 |   1    6      5532       205 |   2  46   18    0 460f |    0           0       0       0       8      0      0      0   5373     364       0  46    0460f a70f     30.390 "
test,1583576658295675904,17," | 17  |   5741       5   5730       7 |   5    0      5667        70 |   2  18    0    0 e50f |    2.746       0       5       0       5     18     18      0   5498     239       2  18    0e50f a70f      9.690 "
test,1583576658288107008,18," | 18  |   5741       5   5736       0 |   5    0      5419       317 |   2  18    0    1 e50f |    1.739       0       4       0       4     18     18      0   5193     543       2  18    1e50f a70f      7.200 "
test,1583576658295901184,19," | 19  |   5741       5   5726      11 |   5    0      5631       106 |   3  18    0    0 e50f |    2.777       0       5       0       5     18     18      0   5475     262       2  18    0e50f a70f     10.320 "
test,1583576658290290944,1," |  1  |   5741       4   5738       0 |   5    0      5590       148 |   1  13    0    0 bd0f |    2.685       0       5       0       5     13     13      0   5552     186       1  13    0bd0f a70f      8.910 "
test,1583576658287819008,22," | 22  |   5741       5   5735       0 |   5    0      5685        50 |   1  18    0    0 e50f |    2.044       0       5       0       5     18     18      0   5427     308       1  18    0e50f a70f      8.940 "
test,1583576658301795072,23," | 23  |   5741       5   5679       0 |   5    0      5654        25 |   3  55    0    0 870f |   10.803       0       5       0       5     55     55      0   5540     139      13  55    0870f a70f     16.770 "
test,1583576658290704896,24," | 24  |   5741       5   5735       2 |   5    0      5678        59 |   1  18    0    0 e50f |    2.014       0       5       0       5     18     18      0   5527     210       1  18    0e50f a70f      8.820 "
test,1583576658287065088,26," | 26  |   5741       5   5735       2 |   5    0      5713        24 |   2  18    0    0 e50f |    2.014       0       5       0       5     18     18      0   5606     131       1  18    0e50f a70f      8.220 "
test,1583576658294008064,27," | 27  |   5741       5   5739       0 |   4    3      5576       163 |   3  18   13    0 e50f |    3.509       0       5       0       5     18     18      0   5346     393       3  18    0e50f a70f     10.410 "
test,1583576658289947136,28," | 28  |   5741       5   5730       7 |   5    0      5272       465 |   3  18    0    0 e50f |    3.509       0       5       0       5     18     18      0   5052     685       3  18    0e50f a70f      9.540 "
test,1583576658298135040,29," | 29  |   5741       5   5731       8 |   3    0      5068       671 |   4  18    0    0 e50f |    3.479       0       5       0       5     18     18      0   4825     914       3  18    0e50f a70f     11.100 "
test,1583576658292898816,30," | 30  |   5741       5   5734       3 |   5    0      5662        75 |   2  18    0    0 e50f |    4.241       0       5       0       5     18     18      0   5453     284       4  18    0e50f a70f     10.410 "
test,1583576658299321856,35," | 35  |   5741       5   5734       3 |   5    0      5467       270 |   2  18    0    0 e50f |    4.180       0       5       0       5     18     18      0   5342     395       4  18    0e50f a70f     11.100 "
test,1583576658310764032,40," | 40  |   5741       5   5659      74 |   5    2      5383       350 |   1  46   18    0 460f |    2.777       0       4       0       4     46     46      0   5250     483       2  46    0460f a70f     30.300 "
test,1583576658306083072,41," | 41  |   5741       5   5668      59 |   5    0      5679        48 |   1  46    0    0 460f |    2.075       0       5       0       5     46     46      0   5544     183       1  46    0460f a70f      8.280 "
test,1583576658296096000,42," | 42  |   5741       5   5675      62 |   5    0      5625       112 |   1  46    0    0 460f |    2.075       0       5       0       5     46     46      0   5505     232       1  46    0460f a70f      8.220 "
test,1583576658289036032,44," | 44  |   5741       5   5680      57 |   4    0      5622       115 |   1  46    0    0 460f |    2.044       0       5       0       5     46     46      0   5513     224       1  46    0460f a70f      8.250 "
test,1583576658292322048,45," | 45  |   5741       5   5694      43 |   5    0      5557       180 |   2  46    0    0 460f |    2.777       0       5       0       5     46     46      0   5453     284       2  46    0460f a70f      8.850 "
test,1583576658288660992,46," | 46  |   5741       5   5673      57 |   4    0      5472       258 |   4  46    0    1 460f |    1.739       0       4       0       4     46     46      0   5379     351       2  46    1460f a70f      6.480 "
test,1583576658291909888,47," | 47  |   5741       4   5680      57 |   5    0      5549       188 |   1  46    0    0 460f |    2.044       0       5       0       5     46     46      0   5458     279       1  46    0460f a70f      8.310 "
test,1583576658291493888,48," | 48  |   5741       3   5615      55 |   5    0      5551       119 |   1  46    0    0 460f |    2.075       0       5       0       5     46     46      0   5455     215       1  46    0460f a70f      9.750 "
test,1583576658290875904,49," | 49  |   5741       5   5731       0 |   5    0      5622       109 |   1  55    0    0 870f |    1.983       0       5       0       5     55     55      0   5584     147       1  55    0870f a70f      8.160 "
test,1583576658288321024,51," | 51  |   5741       5   5732       0 |   5    0      5674        58 |   1  13    0    0 bd0f |    1.983       0       5       0       5     13     13      0   5655      77       1  13    0bd0f a70f      8.250 "
test,1583576658295036160,52," | 52  |   5741       5   5706      27 |   5    0      5457       276 |   3  18    0    0 e50f |    2.746       0       5       0       5     18     18      0   5351     382       2  18    0e50f a70f      8.970 "
test,1583576658292126976,53," | 53  |   5741       5   5715       0 |   5    0      5415       300 |   1  55    0    0 870f |    1.953       0       5       0       5     55     55      0   5357     358       1  55    0870f a70f      8.160 "
test,1583576658310322944,54," | 54  |   5741       5   5733       0 |   4    4      5636        97 |   2  55   13    0 870f |    9.277       0       3       0       3     55     55      0   5544     189      11  55    0870f a70f     30.390 "
test,1583576658291750912,55," | 55  |   5741       5   5720       0 |   5    0      5504       216 |   2  55    0    1 870f |    1.739       0       4       0       4     55     55      0   5460     260       2  55    1870f a70f      6.480 "
test,1583576658294528000,56," | 56  |   5741       5   5723       0 |   4    1      5638        85 |   2  55   13    0 870f |    9.338       0       5       0       5     55     55      0   5570     153      11  55    0870f a70f     15.420 "
test,1583576658298469120,57," | 57  |   5741       5   5678       0 |   5    0      5536       142 |   2  55    0    0 870f |   10.070       0       5       0       5     55     55      0   5194     484      12  55    0870f a70f     16.050 "
test,1583576658286498048,58," | 58  |   5741       5   5732       0 |   5    0      5653        79 |   1  55    0    0 870f |    2.014       0       5       0       5     55     55      0   5417     315       1  55    0870f a70f      8.970 "
test,1583576658289555968,5," |  5  |   5741       5   5739       0 |   5    0      5226       513 |   1  13    0    0 bd0f |    2.044       0       5       0       5     13     13      0   5126     613       1  13    0bd0f a70f      8.130 "
test,1583576658292654080,60," | 60  |   5741       5   5732       0 |   3    0      5370       362 |   6  13    0    0 bd0f |    2.746       0       5       0       5     13     13      0   5257     475       2  13    0bd0f a70f      8.790 "
test,1583576658289737984,61," | 61  |   5741       5   5731       0 |   5    0      5470       261 |   2  55    0    0 870f |    2.746       0       5       0       5     55     55      0   5277     454       2  55    0870f a70f      9.690 "
test,1583576658290488832,7," |  7  |   5741       5   5738       0 |   5    0      5650        88 |   1  13    0    0 bd0f |    2.044       0       5       0       5     13     13      0   5614     124       1  13    0bd0f a70f      8.280 "
test,1583576658290157056,9," |  9  |   5741       5   5737       0 |   5    0      5541       196 |   1  13    0    0 bd0f |    2.014       0       5       0       5     13     13      0   5516     221       1  13    0bd0f a70f      8.130 "
