test,1583576672538126848,10," | 10  |   5798       5   5770       0 |   5    0      5679        91 |   1  12    0    0 5c0f |    2.014       0       5       0       5     12     12      0   5608     162       1  12    05c0f a70f      8.130 "
test,1583576672540261120,12," | 12  |   5798       5   5762      34 |   4    0      5732        64 |   2  12    0    1 5c0f |    1.739       0       4       0       4     12     12      0   5632     164       2  12    15c0f a70f      6.480 "
test,1583576672538477824,13," | 13  |   5798       5   5794       0 |   5    0      5747        47 |   1  12    0    0 5c0f |    2.014       0       5       0       5     12     12      0   5680     114       1  12    05c0f a70f      9.000 "
test,1583576672561004032,15," | 15  |   5798       5   5753      43 |   5    0      5567       229 |   1  12    0    0 5c0f |    3.479       0       4       0       4     12     12      0   5305     491       3  12    05c0f a70f     30.330 "
test,1583576672544230912,16," | 16  |   5798       5   5794       0 |   5    0      5585       209 |   1  45    0    0 110f |    2.044       0       5       0       5     45     45      0   5425     369       1  45    0110f a70f      8.190 "
test,1583576672552956160,17," | 17  |   5798       5   5786       8 |   5    0      5721        73 |   2  20    0    0 140f |   13.397       0       5       0       5     20     20      0   5552     242      17  20    0140f a70f     20.880 "
test,1583576672555757056,18," | 18  |   5798       5   5793       0 |   4    6      5473       320 |   3  20   22    0 140f |   13.427       0       5       0       5     20     20      0   5246     547      17  20    0140f a70f     20.160 "
test,1583576672555321088,19," | 19  |   5798       5   5782      12 |   5    0      5685       109 |   3  20    0    0 140f |   13.397       0       5       0       5     20     20      0   5528     266      17  20    0140f a70f     20.850 "
test,1583576672538665984,1," |  1  |   5798       4   5795       0 |   5    0      5643       152 |   1  12    0    0 5c0f |    2.685       0       5       0       5     12     12      0   5606     189       1  12    05c0f a70f      8.790 "
test,1583576672562030080,22," | 22  |   5798       5   5792       0 |   3    8      5741        51 |  11  22   20    1  40f |   10.406       0       1       0       1     22     22      0   5483     309      14  22    1 40f a70f     30.270 "
test,1583576672540097024,23," | 23  |   5798       5   5736       0 |   5    0      5711        25 |   2  45    0    0 110f |    2.746       0       5       0       5     45     45      0   5597     139       2  45    0110f a70f      8.940 "
test,1583576672555049984,24," | 24  |   5798       5   5792       2 |   5    0      5733        61 |   1  20    0    0 140f |   12.664       0       5       0       5     20     20      0   5583     211      16  20    0140f a70f     19.320 "
test,1583576672552520960,26," | 26  |   5798       5   5792       2 |   5    0      5769        25 |   2  20    0    0 140f |   13.397       0       5       0       5     20     20      0   5661     133      17  20    0140f a70f     20.190 "
test,1583576672548126976,27," | 27  |   5798       5   5796       0 |   3    1      5633       163 |   7  45   20    0 110f |    3.479       0       5       0       5     45     45      0   5403     393       3  45    0110f a70f      9.660 "
test,1583576672560823808,28," | 28  |   5798       5   5786       8 |   5    2      5324       470 |   1  22   20    0  40f |    4.882       0       4       0       4     22     22      0   5101     693       5  22    0 40f a70f     30.240 "
test,1583576672554208000,29," | 29  |   5798       5   5788       8 |   2    0      5119       677 |   6  20    0    0 140f |   14.160       0       5       0       5     20     20      0   4876     920      18  20    0140f a70f     21.540 "
test,1583576672542088960,30," | 30  |   5798       5   5791       3 |   5    5      5719        75 |   1  22   20    0  40f |    4.882       0       5       0       5     22     22      0   5507     287       5  22    0 40f a70f     10.890 "
test,1583576672542598912,35," | 35  |   5798       5   5791       3 |   5    0      5521       273 |   1  22    0    0  40f |    4.119       0       5       0       5     22     22      0   5394     400       4  22    0 40f a70f     10.230 "
test,1583576672543618048,40," | 40  |   5798       5   5716      74 |   5    0      5438       352 |   2  45    0    0 110f |    2.746       0       5       0       5     45     45      0   5303     487       2  45    0110f a70f      9.660 "
test,1583576672544566016,41," | 41  |   5798       5   5725      59 |   5    0      5735        49 |   1  45    0    0 110f |    2.044       0       5       0       5     45     45      0   5599     185       1  45    0110f a70f      8.850 "
test,1583576672547565824,42," | 42  |   5798       5   5732      62 |   5    0      5682       112 |   1  45    0    0 110f |    1.983       0       5       0       5     45     45      0   5561     233       1  45    0110f a70f      9.600 "
test,1583576672546996992,44," | 44  |   5798       5   5737      57 |   5    0      5678       116 |   1  45    0    0 110f |    1.983       0       5       0       5     45     45      0   5568     226       1  45    0110f a70f      9.630 "
test,1583576672533600000,45," | 45  |   5798       5   5751      43 |   4    0      5613       181 |   3  45    0    1 110f |    1.739       0       4       0       4     45     45      0   5509     285       2  45    1110f a70f      6.480 "
test,1583576672545882880,46," | 46  |   5798       5   5730      57 |   5    0      5524       263 |   2  45    0    0 110f |    2.716       0       5       0       5     45     45      0   5430     357       2  45    0110f a70f      9.600 "
test,1583576672540988928,47," | 47  |   5798       5   5737      57 |   5    0      5605       189 |   1  45    0    0 110f |    1.983       0       5       0       5     45     45      0   5514     280       1  45    0110f a70f      9.660 "
test,1583576672546547968,48," | 48  |   5798       5   5672      55 |   5    0      5607       120 |   1  45    0    0 110f |    2.014       0       5       0       5     45     45      0   5510     217       1  45    0110f a70f      9.600 "
test,1583576672539808000,49," | 49  |   5798       5   5788       0 |   5    0      5678       110 |   2  12    0    0 5c0f |    2.746       0       5       0       5     12     12      0   5640     148       2  12    05c0f a70f      8.940 "
test,1583576672539108864,51," | 51  |   5798       5   5789       0 |   5    0      5727        62 |   2  12    0    0 5c0f |    2.746       0       5       0       5     12     12      0   5708      81       2  12    05c0f a70f      8.820 "
test,1583576672556659968,52," | 52  |   5798       5   5763      27 |   4    0      5513       277 |   3  20    0    0 140f |   13.397       0       5       0       5     20     20      0   5407     383      17  20    0140f a70f     20.070 "
test,1583576672545433088,53," | 53  |   5798       5   5772       0 |   5    0      5464       308 |   3  12    0    0 5c0f |    3.448       0       5       0       5     12     12      0   5405     367       3  12    05c0f a70f      9.600 "
test,1583576672544792832,54," | 54  |   5798       5   5790       0 |   5    0      5693        97 |   1  12    0    0 5c0f |    2.014       0       5       0       5     12     12      0   5601     189       1  12    05c0f a70f      9.690 "
test,1583576672541639168,55," | 55  |   5798       5   5777       0 |   5    0      5558       219 |   2  12    0    0 5c0f |    2.746       0       5       0       5     12     12      0   5513     264       2  12    05c0f a70f      8.940 "
test,1583576672540801024,56," | 56  |   5798       5   5780       0 |   5    0      5693        87 |   2  12    0    0 5c0f |    2.685       0       5       0       5     12     12      0   5624     156       2  12    05c0f a70f      8.880 "
test,1583576672542313984,57," | 57  |   5798       5   5735       0 |   1    5      5589       146 |   2  12   22    0 5c0f |    2.746       0       5       0       5     12     12      0   5244     491       2  12    05c0f a70f     10.290 "
test,1583576672543795968,58," | 58  |   5798       5   5789       0 |   5    0      5710        79 |   1  12    0    0 5c0f |    1.983       0       5       0       5     12     12      0   5474     315       1  12    05c0f a70f      8.940 "
test,1583576672537758208,5," |  5  |   5798       4   5796       0 |   5    0      5277       519 |   1  12    0    0 5c0f |    2.014       0       5       0       5     12     12      0   5177     619       1  12    05c0f a70f      8.070 "
test,1583576672546422016,60," | 60  |   5798       5   5789       0 |   5    0      5423       366 |   3  12    0    0 5c0f |    3.479       0       5       0       5     12     12      0   5308     481       3  12    05c0f a70f      9.570 "
test,1583576672540621056,61," | 61  |   5798       5   5788       0 |   5    0      5526       262 |   2  12    0    0 5c0f |    2.746       0       5       0       5     12     12      0   5333     455       2  12    05c0f a70f      9.690 "
test,1583576672537303040,7," |  7  |   5798       5   5795       0 |   5    0      5707        88 |   1  12    0    0 5c0f |    2.014       0       5       0       5     12     12      0   5671     124       1  12    05c0f a70f      8.190 "
test,1583576672542802944,9," |  9  |   5798       5   5794       0 |   5    0      5594       200 |   1  12    0    0 5c0f |    2.014       0       5       0       5     12     12      0   5569     225       1  12    05c0f a70f      8.940 "
