test,1583575353010610944,10," | 10  |    520       5    492       0 |   5    0       484         8 |   1   9    0    0  a0f |    2.044       0       5       0       5      9      9      0    476      16       1   9    0 a0f a70f      8.910 "
test,1583575353030818048,12," | 12  |    520       5    518       0 |   4    6       513         5 |   1   9   15    0  a0f |    2.807       0       4       0       4      9      9      0    504      14       2   9    0 a0f a70f     30.300 "
test,1583575353009132032,13," | 13  |    520       5    516       0 |   5    0       509         7 |   1   9    0    0  a0f |    2.044       0       5       0       5      9      9      0    501      15       1   9    0 a0f a70f      8.250 "
test,1583575353019773952,15," | 15  |    520       4    518       0 |   1    2       500        18 |  26  15    9    1 670f |   10.253       0       4       0       4     15     15      0    478      40      14  15    1670f a70f     14.850 "
test,1583575353011863040,16," | 16  |    520       5    516       0 |   4    1       495        21 |   1  23   26    0 cb0f |    1.983       0       5       0       5     23     23      0    487      29       1  23    0cb0f a70f      8.790 "
test,1583575353031909888,17," | 17  |    520       5    516       0 |   2    5       509         7 |   5  26   23    0 1e0f |    2.075       0       3       0       3     26     26      0    493      23       1  26    01e0f a70f     30.360 "
test,1583575353032882944,18," | 18  |    520       5    515       0 |   5    0       483        32 |   4  26    0    0 1e0f |    2.044       0       3       0       3     26     26      0    462      53       1  26    01e0f a70f     30.360 "
test,1583575353031641856,19," | 19  |    520       5    515       1 |   3    5       511         5 |   4  26   23    0 1e0f |    2.044       0       3       0       3     26     26      0    494      22       1  26    01e0f a70f     30.330 "
test,1583575353009967104,1," |  1  |    520       4    517       0 |   5    0       507        10 |   1   9    0    0  a0f |    2.716       0       5       0       5      9      9      0    503      14       1   9    0 a0f a70f      8.970 "
test,1583575353029742848,22," | 22  |    520       5    514       0 |   4    2       509         5 |   5  26   23    0 1e0f |    2.044       0       3       0       3     26     26      0    488      26       1  26    01e0f a70f     30.360 "
test,1583575353014842112,23," | 23  |    520       5    458       0 |   1    1       456         2 |  17  23   26    1 cb0f |    3.814       0       4       0       4     23     23      0    452       6       5  23    1cb0f a70f      9.930 "
test,1583575353030481152,24," | 24  |    520       5    516       0 |   4    2       512         4 |   5  26   23    0 1e0f |    2.044       0       3       0       3     26     26      0    503      13       1  26    01e0f a70f     30.390 "
test,1583575353029916928,26," | 26  |    520       5    516       0 |   4    0       513         3 |   5  26    0    1 1e0f |    3.814       0       1       0       1     26     26      0    504      12       5  26    11e0f a70f     30.300 "
test,1583575353011424000,27," | 27  |    520       5    518       0 |   5    1       504        14 |   1  23   26    0 cb0f |    1.983       0       5       0       5     23     23      0    482      36       1  23    0cb0f a70f      8.790 "
test,1583575353018546944,28," | 28  |    520       5    516       0 |   3    1       475        41 |   3  15   26    0 670f |   11.993       0       5       0       5     15     15      0    462      54      15  15    0670f a70f     18.000 "
test,1583575353032740096,29," | 29  |    520       5    516       2 |   3    1       458        60 |   2  23   26    0 cb0f |    7.751       0       1       0       1     23     23      0    429      89       9  23    0cb0f a70f     30.330 "
test,1583575353025765888,30," | 30  |    520       5    516       0 |   5    0       512         4 |   2  15    0    0 670f |   11.199       0       5       0       5     15     15      0    501      15      14  15    0670f a70f     17.280 "
test,1583575353025115904,35," | 35  |    520       5    516       0 |   5    0       497        19 |   3  15    0    0 670f |   11.932       0       5       0       5     15     15      0    493      23      15  15    0670f a70f     17.970 "
test,1583575353014633984,40," | 40  |    520       5    504       8 |   5    0       471        41 |   3  23    0    0 cb0f |    4.760       0       5       0       5     23     23      0    454      58       5  23    0cb0f a70f     11.640 "
test,1583575353013008128,41," | 41  |    520       5    497       9 |   5    0       502         4 |   2  23    0    0 cb0f |    4.028       0       5       0       5     23     23      0    491      15       4  23    0cb0f a70f     10.920 "
test,1583575353020702976,42," | 42  |    520       5    506      10 |   5    0       499        17 |   3  23    0    0 cb0f |    4.821       0       5       0       5     23     23      0    487      29       5  23    0cb0f a70f     12.270 "
test,1583575353017242880,44," | 44  |    520       5    507       9 |   4    0       508         8 |   3  23    0    0 cb0f |    5.523       0       5       0       5     23     23      0    496      20       6  23    0cb0f a70f     11.610 "
test,1583575353013216000,45," | 45  |    520       5    509       7 |   5    0       491        25 |   2  23    0    0 cb0f |    4.791       0       5       0       5     23     23      0    483      33       5  23    0cb0f a70f     10.950 "
test,1583575353013389056,46," | 46  |    520       5    500       9 |   5    0       494        15 |   3  23    0    0 cb0f |    4.821       0       5       0       5     23     23      0    485      24       5  23    0cb0f a70f     10.860 "
test,1583575353015505152,47," | 47  |    520       5    507       9 |   5    0       498        18 |   3  23    0    0 cb0f |    4.760       0       5       0       5     23     23      0    492      24       5  23    0cb0f a70f     10.800 "
test,1583575353015304960,48," | 48  |    520       5    442       7 |   4    0       436        13 |   3  23    0    0 cb0f |    4.760       0       5       0       5     23     23      0    423      26       5  23    0cb0f a70f     12.390 "
test,1583575353012579072,49," | 49  |    520       5    510       0 |   5    0       500        10 |   3   9    0    0  a0f |    3.540       0       5       0       5      9      9      0    498      12       3   9    0 a0f a70f      9.630 "
test,1583575353009756160,51," | 51  |    520       5    511       0 |   5    0       507         4 |   2   9    0    0  a0f |    2.807       0       5       0       5      9      9      0    507       4       2   9    0 a0f a70f      9.000 "
test,1583575353035723008,52," | 52  |    520       4    507       5 |   3    4       486        26 |   4  23   26    0 cb0f |    7.019       0       2       0       2     23     23      0    476      36       8  23    0cb0f a70f     30.330 "
test,1583575353014344960,53," | 53  |    520       5    494       0 |   5    0       473        21 |   4   9    0    0  a0f |    4.211       0       5       0       5      9      9      0    470      24       4   9    0 a0f a70f     10.410 "
test,1583575353009417984,54," | 54  |    520       5    512       0 |   5    0       509         3 |   1   9    0    0  a0f |    2.014       0       5       0       5      9      9      0    496      16       1   9    0 a0f a70f      8.250 "
test,1583575353012326912,55," | 55  |    520       5    499       0 |   5    0       479        20 |   3   9    0    0  a0f |    3.540       0       5       0       5      9      9      0    479      20       3   9    0 a0f a70f      9.630 "
test,1583575353024024064,56," | 56  |    520       5    502       0 |   5    0       489        13 |   2   9    0    0  a0f |    3.479       0       5       0       5      9      9      0    484      18       3   9    0 a0f a70f      9.690 "
test,1583575353033442048,57," | 57  |    520       5    457       0 |   3    1       438        19 |   4  23   26    0 cb0f |    2.014       0       4       0       4     23     23      0    415      42       1  23    0cb0f a70f     30.330 "
test,1583575353030144000,58," | 58  |    520       5    511       0 |   5    0       504         7 |   2   9    0    0  a0f |    2.746       0       4       0       4      9      9      0    494      17       2   9    0 a0f a70f     30.390 "
test,1583575353011077888,5," |  5  |    520       5    518       0 |   5    0       474        44 |   2   9    0    0  a0f |    2.777       0       5       0       5      9      9      0    461      57       2   9    0 a0f a70f      9.000 "
test,1583575353016194048,60," | 60  |    520       5    511       0 |   5    0       482        29 |   3   9    0    0  a0f |    3.479       0       5       0       5      9      9      0    480      31       3   9    0 a0f a70f      9.690 "
test,1583575353013586944,61," | 61  |    520       5    510       0 |   5    0       493        17 |   2   9    0    0  a0f |    3.540       0       5       0       5      9      9      0    478      32       3   9    0 a0f a70f     10.440 "
test,1583575353012098048,7," |  7  |    520       5    517       0 |   5    0       508         9 |   1   9    0    0  a0f |    2.044       0       5       0       5      9      9      0    507      10       1   9    0 a0f a70f      8.850 "
test,1583575353011265024,9," |  9  |    520       5    516       0 |   4    0       492        24 |   2   9    0    1  a0f |    1.739       0       4       0       4      9      9      0    490      26       2   9    1 a0f a70f      6.480 "
