test,1583576482036532992,10," | 10  |   5036       5   5008       0 |   5    1      4926        82 |   1  54    7    0 da0f |    2.075       0       5       0       5     54     54      0   4863     145       1  54    0da0f a70f      9.690 "
test,1583576482033330944,12," | 12  |   5036       5   5019      15 |   5    0      4985        49 |   4   7    0    0 240f |    2.014       0       5       0       5      7      7      0   4896     138       1   7    0240f a70f      8.250 "
test,1583576482034859776,13," | 13  |   5036       5   5032       0 |   5    0      4992        40 |   5   7    0    0 240f |    2.014       0       5       0       5      7      7      0   4929     103       1   7    0240f a70f      8.160 "
test,1583576482038927104,15," | 15  |   5036       5   5011      23 |   5    0      4837       197 |   5   7    0    0 240f |    2.746       0       5       0       5      7      7      0   4612     422       2   7    0240f a70f      8.970 "
test,1583576482041556992,16," | 16  |   5036       5   5032       0 |   5    0      4851       181 |   1  45    0    0 260f |    2.044       0       5       0       5     45     45      0   4715     317       1  45    0260f a70f      8.850 "
test,1583576482035238144,17," | 17  |   5036       5   5025       7 |   5    2      4971        61 |   1  27   45    0 110f |    2.014       0       5       0       5     27     27      0   4824     208       1  27    0110f a70f      8.100 "
test,1583576482055226112,18," | 18  |   5036       5   5031       0 |   5    0      4739       292 |   4  45    0    0 260f |    2.777       0       4       0       4     45     45      0   4536     495       2  45    0260f a70f     30.240 "
test,1583576482037728000,19," | 19  |   5036       5   5021      11 |   5    3      4948        84 |   1  27   45    0 110f |    2.716       0       5       0       5     27     27      0   4805     227       2  27    0110f a70f      8.760 "
test,1583576482042170880,1," |  1  |   5036       4   5033       0 |   5    0      4904       129 |   4   7    0    0 240f |    2.685       0       5       0       5      7      7      0   4868     165       1   7    0240f a70f      8.760 "
test,1583576482055571200,22," | 22  |   5036       5   5030       0 |   0    6      4986        44 |   0  22   27    1 de0f |    0           0       0       0       8      0      0      0   4754     276       0  22    1de0f a70f     30.180 "
test,1583576482040097024,23," | 23  |   5036       5   4974       0 |   5    0      4952        22 |   2  45    0    0 260f |    2.716       0       5       0       5     45     45      0   4849     125       2  45    0260f a70f     11.100 "
test,1583576482034702080,24," | 24  |   5036       5   5030       2 |   5    0      4980        52 |   3  45    0    0 260f |    2.716       0       5       0       5     45     45      0   4847     185       2  45    0260f a70f      8.940 "
test,1583576482038777088,26," | 26  |   5036       5   5030       2 |   5    0      5012        20 |   2  45    0    0 260f |    3.448       0       5       0       5     45     45      0   4921     111       3  45    0260f a70f      9.510 "
test,1583576482040962048,27," | 27  |   5036       5   5034       0 |   4    2      4893       141 |  17  27    7    1 110f |    1.770       0       4       0       4     27     27      0   4686     348       2  27    1110f a70f      8.640 "
test,1583576482057178880,28," | 28  |   5036       5   5026       6 |   3    7      4623       409 |   2  27   22    0 110f |    2.716       0       3       0       3     27     27      0   4429     603       2  27    0110f a70f     30.330 "
test,1583576482036040960,29," | 29  |   5036       2   5027       7 |   5    0      4449       585 |   1  27    0    0 110f |    2.014       0       5       0       5     27     27      0   4236     798       1  27    0110f a70f      9.540 "
test,1583576482047066880,30," | 30  |   5036       5   5030       2 |   5    0      4964        68 |   2  22    0    0 de0f |    2.807       0       5       0       5     22     22      0   4780     252       2  22    0de0f a70f     10.860 "
test,1583576482037959936,35," | 35  |   5036       5   5030       2 |   5    0      4794       238 |   1  22    0    0 de0f |    2.014       0       5       0       5     22     22      0   4685     347       1  22    0de0f a70f     10.170 "
test,1583576482038255872,40," | 40  |   5036       4   4954      74 |   5    0      4715       313 |   3  45    0    0 260f |    2.777       0       5       0       5     45     45      0   4598     430       2  45    0260f a70f     10.290 "
test,1583576482036765952,41," | 41  |   5036       5   4963      59 |   5    0      4983        39 |   2  45    0    0 260f |    2.014       0       5       0       5     45     45      0   4861     161       1  45    0260f a70f      8.250 "
test,1583576482032741120,42," | 42  |   5036       5   4970      62 |   5    0      4926       106 |   3  45    0    0 260f |    2.014       0       5       0       5     45     45      0   4819     213       1  45    0260f a70f      8.130 "
test,1583576482037339904,44," | 44  |   5036       5   4975      57 |   5    0      4931       101 |   3  45    0    0 260f |    1.983       0       5       0       5     45     45      0   4837     195       1  45    0260f a70f      9.660 "
test,1583576482046902016,45," | 45  |   5036       5   4989      43 |   4    0      4875       157 |   2  45    0    1 260f |    1.739       0       4       0       4     45     45      0   4784     248       2  45    1260f a70f      9.360 "
test,1583576482041718016,46," | 46  |   5036       5   4968      57 |   5    0      4806       219 |   3  45    0    0 260f |    2.716       0       5       0       5     45     45      0   4722     303       2  45    0260f a70f      8.760 "
test,1583576482041201152,47," | 47  |   5036       5   4975      57 |   5    0      4860       172 |   3  45    0    0 260f |    2.014       0       5       0       5     45     45      0   4779     253       1  45    0260f a70f      8.130 "
test,1583576482043436032,48," | 48  |   5036       5   4910      55 |   4    5      4853       112 |   3  45   22    0 260f |    2.044       0       5       0       5     45     45      0   4767     198       1  45    0260f a70f     11.010 "
test,1583576482035888896,49," | 49  |   5036       5   5026       0 |   5    0      4928        98 |   2  54    0    0 da0f |    2.838       0       5       0       5     54     54      0   4891     135       2  54    0da0f a70f      8.880 "
test,1583576482036262912,51," | 51  |   5036       5   5027       0 |   5    0      4980        47 |   3  54    0    0 da0f |    2.777       0       5       0       5     54     54      0   4962      65       2  54    0da0f a70f      8.880 "
test,1583576482040786944,52," | 52  |   5036       5   5002      26 |   2    2      4792       236 |   2  45   27    0 260f |    2.777       0       5       0       5     45     45      0   4695     333       2  45    0260f a70f     10.380 "
test,1583576482042959872,53," | 53  |   5036       5   5010       0 |   5    0      4737       273 |   3  54    0    0 da0f |    3.540       0       5       0       5     54     54      0   4684     326       3  54    0da0f a70f      9.750 "
test,1583576482057379840,54," | 54  |   5036       5   5028       0 |   4    5      4942        86 |   8  54    7    1 da0f |   10.253       0       2       0       2     54     54      0   4861     167      14  54    1da0f a70f     28.860 "
test,1583576482043187968,55," | 55  |   5036       5   5015       0 |   5    0      4825       190 |   2  54    0    0 da0f |    2.777       0       5       0       5     54     54      0   4784     231       2  54    0da0f a70f      8.970 "
test,1583576482035672064,56," | 56  |   5036       5   5018       0 |   5    0      4940        78 |   2  54    0    0 da0f |    2.807       0       5       0       5     54     54      0   4878     140       2  54    0da0f a70f      9.600 "
test,1583576482056770048,57," | 57  |   5036       5   4973       0 |   3    5      4845       128 |   3  45   22    0 260f |    3.509       0       4       0       4     45     45      0   4550     423       3  45    0260f a70f     30.240 "
test,1583576482041372928,58," | 58  |   5036       5   5027       0 |   5    0      4955        72 |   1  54    0    0 da0f |    2.105       0       5       0       5     54     54      0   4742     285       1  54    0da0f a70f     12.210 "
test,1583576482047262976,5," |  5  |   5036       5   5034       0 |   5    0      4589       445 |   5   7    0    0 240f |    2.746       0       5       0       5      7      7      0   4502     532       2   7    0240f a70f      8.850 "
test,1583576482037570048,60," | 60  |   5036       5   5027       0 |   5    0      4711       316 |   3  54    0    0 da0f |    3.570       0       5       0       5     54     54      0   4614     413       3  54    0da0f a70f      9.630 "
test,1583576482038610944,61," | 61  |   5036       5   5026       0 |   5    0      4797       229 |   1  54    0    0 da0f |    2.075       0       5       0       5     54     54      0   4628     398       1  54    0da0f a70f     12.330 "
test,1583576482033172992,7," |  7  |   5036       5   5033       0 |   4    0      4957        76 |   5   7    0    1 240f |    1.739       0       4       0       4      7      7      0   4926     107       2   7    1240f a70f      6.480 "
test,1583576482033762048,9," |  9  |   5036       5   5032       0 |   5    0      4857       175 |   4   7    0    0 240f |    2.014       0       5       0       5      7      7      0   4834     198       1   7    0240f a70f      8.130 "
