test,1583576656306770944,10," | 10  |   5733       5   5705       0 |   4    3      5615        90 |  14  10   13    1 530f |    1.739       0       1       0       1     10     10      0   5544     161       2  10    1530f a70f     30.300 "
test,1583576656290254080,12," | 12  |   5733       5   5697      34 |   5    0      5667        64 |   2  13    0    0 a60f |    2.716       0       5       0       5     13     13      0   5568     163       2  13    0a60f a70f      8.940 "
test,1583576656286573824,13," | 13  |   5733       5   5729       0 |   4    0      5682        47 |   2  13    0    1 a60f |    1.739       0       4       0       4     13     13      0   5615     114       2  13    1a60f a70f      6.480 "
test,1583576656308218880,15," | 15  |   5733       5   5688      43 |   0    4      5507       224 |   0  15   13    1 bb0f |    0           0       0       0       8      0      0      0   5245     486       0  15    1bb0f a70f     30.180 "
test,1583576656296519936,16," | 16  |   5733       5   5729       0 |   5    0      5524       205 |   3  29    0    0 200f |    3.479       0       5       0       5     29     29      0   5367     362       3  29    0200f a70f      9.690 "
test,1583576656293630976,17," | 17  |   5733       4   5722       7 |   5    0      5659        70 |   2  29    0    0 200f |    2.746       0       5       0       5     29     29      0   5490     239       2  29    0200f a70f     10.410 "
test,1583576656288685056,18," | 18  |   5733       5   5728       0 |   5    0      5411       317 |   4  29    0    0 200f |    3.479       0       5       0       5     29     29      0   5185     543       3  29    0200f a70f      9.510 "
test,1583576656292817152,19," | 19  |   5733       4   5718      11 |   5    0      5623       106 |   2  29    0    0 200f |    2.014       0       5       0       5     29     29      0   5467     262       1  29    0200f a70f      8.940 "
test,1583576656287769088,1," |  1  |   5733       4   5730       0 |   5    0      5583       147 |   1  13    0    0 a60f |    2.685       0       5       0       5     13     13      0   5545     185       1  13    0a60f a70f      8.910 "
test,1583576656294942976,22," | 22  |   5733       5   5727       0 |   5    0      5677        50 |   3  29    0    0 200f |    3.448       0       5       0       5     29     29      0   5419     308       3  29    0200f a70f      9.660 "
test,1583576656301840896,23," | 23  |   5733       5   5671       0 |   5    0      5646        25 |   2  29    0    0 200f |    2.716       0       5       0       5     29     29      0   5532     139       2  29    0200f a70f      8.910 "
test,1583576656292474112,24," | 24  |   5733       5   5727       2 |   5    0      5670        59 |   3  29    0    0 200f |    3.448       0       5       0       5     29     29      0   5519     210       3  29    0200f a70f      9.510 "
test,1583576656293778944,26," | 26  |   5733       5   5727       2 |   5    0      5705        24 |   3  29    0    0 200f |    2.746       0       5       0       5     29     29      0   5598     131       2  29    0200f a70f      8.880 "
test,1583576656293445120,27," | 27  |   5733       5   5731       0 |   5    0      5568       163 |   1  29    0    0 200f |    1.983       0       5       0       5     29     29      0   5339     392       1  29    0200f a70f     11.100 "
test,1583576656294491904,28," | 28  |   5733       3   5722       7 |   5    0      5265       464 |   3  29    0    0 200f |    3.479       0       5       0       5     29     29      0   5045     684       3  29    0200f a70f     10.380 "
test,1583576656311505152,29," | 29  |   5733       5   5723       8 |   3    0      5062       669 |   2  29    0    1 200f |    1.739       0       3       0       3     29     29      0   4819     912       2  29    1200f a70f     30.300 "
test,1583576656301118976,30," | 30  |   5733       5   5726       3 |   5    0      5654        75 |   3  29    0    0 200f |    4.913       0       5       0       5     29     29      0   5445     284       5  29    0200f a70f     11.070 "
test,1583576656294622976,35," | 35  |   5733       5   5726       3 |   5    0      5460       269 |   4  29    0    0 200f |    4.180       0       5       0       5     29     29      0   5335     394       4  29    0200f a70f     10.350 "
test,1583576656292004096,40," | 40  |   5733       5   5651      74 |   5    0      5375       350 |   1  46    0    0 d80f |    2.075       0       5       0       5     46     46      0   5243     482       1  46    0d80f a70f      9.720 "
test,1583576656291034880,41," | 41  |   5733       5   5660      59 |   5    0      5671        48 |   1  46    0    0 d80f |    2.044       0       5       0       5     46     46      0   5537     182       1  46    0d80f a70f      8.130 "
test,1583576656291675136,42," | 42  |   5733       5   5667      62 |   5    0      5617       112 |   1  46    0    0 d80f |    2.014       0       5       0       5     46     46      0   5498     231       1  46    0d80f a70f      8.220 "
test,1583576656294272000,44," | 44  |   5733       5   5672      57 |   5    0      5614       115 |   1  46    0    0 d80f |    2.014       0       5       0       5     46     46      0   5505     224       1  46    0d80f a70f      8.250 "
test,1583576656309463040,45," | 45  |   5733       5   5686      43 |   5    0      5550       179 |   1  46    0    0 d80f |    4.241       0       3       0       3     46     46      0   5447     282       4  46    0d80f a70f     30.330 "
test,1583576656291857920,46," | 46  |   5733       5   5665      57 |   5    0      5464       258 |   2  46    0    1 d80f |    1.739       0       4       0       4     46     46      0   5372     350       2  46    1d80f a70f      6.480 "
test,1583576656290443008,47," | 47  |   5733       5   5672      57 |   5    0      5541       188 |   1  46    0    0 d80f |    2.044       0       5       0       5     46     46      0   5451     278       1  46    0d80f a70f      8.190 "
test,1583576656291377152,48," | 48  |   5733       5   5607      55 |   5    0      5543       119 |   1  46    0    0 d80f |    2.044       0       5       0       5     46     46      0   5448     214       1  46    0d80f a70f      8.850 "
test,1583576656287592960,49," | 49  |   5733       5   5723       0 |   5    0      5614       109 |   1  53    0    0  a0f |    2.044       0       5       0       5     53     53      0   5576     147       1  53    0 a0f a70f      8.250 "
test,1583576656286305024,51," | 51  |   5733       5   5724       0 |   4    0      5666        58 |   2  51    0    1 4a0f |    1.770       0       4       0       4     51     51      0   5647      77       2  51    14a0f a70f      6.510 "
test,1583576656311698944,52," | 52  |   5733       2   5698      27 |   5    0      5451       274 |   3  29    0    0 200f |    2.746       0       3       0       3     29     29      0   5345     380       2  29    0200f a70f     30.360 "
test,1583576656289125888,53," | 53  |   5733       5   5707       0 |   4    0      5408       299 |   2  53    0    1  a0f |    1.739       0       4       0       4     53     53      0   5350     357       2  53    1 a0f a70f      6.480 "
test,1583576656307930880,54," | 54  |   5733       5   5725       0 |   5    2      5628        97 |   1  10   13    0 530f |    2.014       0       2       0       2     10     10      0   5536     189       1  10    0530f a70f     30.390 "
test,1583576656289755136,55," | 55  |   5733       5   5712       0 |   5    0      5497       215 |   1  53    0    0  a0f |    2.014       0       5       0       5     53     53      0   5453     259       1  53    0 a0f a70f      8.160 "
test,1583576656288963072,56," | 56  |   5733       5   5715       0 |   5    0      5630        85 |   1  51    0    0 4a0f |    1.983       0       5       0       5     51     51      0   5562     153       1  51    04a0f a70f      8.040 "
test,1583576656309645824,57," | 57  |   5733       5   5670       0 |   1    5      5528       142 |   2  51   29    0 4a0f |    2.716       0       4       0       4     51     51      0   5187     483       2  51    04a0f a70f     30.360 "
test,1583576656310110976,58," | 58  |   5733       3   5724       0 |   5    0      5645        79 |   1  10    0    0 530f |    3.540       0       4       0       4     10     10      0   5409     315       3  10    0530f a70f     30.360 "
test,1583576656287225088,5," |  5  |   5733       5   5731       0 |   5    0      5218       513 |   1  13    0    0 a60f |    2.014       0       5       0       5     13     13      0   5119     612       1  13    0a60f a70f      8.070 "
test,1583576656288163072,60," | 60  |   5733       5   5724       0 |   5    0      5362       362 |   1  51    0    0 4a0f |    2.014       0       5       0       5     51     51      0   5249     475       1  51    04a0f a70f      8.070 "
test,1583576656309789952,61," | 61  |   5733       3   5723       0 |   5    0      5463       260 |   2  10    0    0 530f |    2.777       0       4       0       4     10     10      0   5270     453       2  10    0530f a70f     30.360 "
test,1583576656289968896,7," |  7  |   5733       5   5730       0 |   5    0      5643        87 |   1  13    0    0 a60f |    2.044       0       5       0       5     13     13      0   5607     123       1  13    0a60f a70f      9.000 "
test,1583576656307138816,9," |  9  |   5733       5   5729       0 |   5    6      5533       196 |   1  10   13    0 530f |    2.075       0       2       0       2     10     10      0   5508     221       1  10    0530f a70f     30.300 "
