test,1583576491293008128,10," | 10  |   5073       5   5045       0 |   5    0      4963        82 |   5  54    0    0 bb0f |    2.075       0       5       0       5     54     54      0   4899     146       1  54    0bb0f a70f      9.750 "
test,1583576491290832128,12," | 12  |   5073       5   5055      16 |   5    0      5020        51 |   1  54    0    0 bb0f |    2.777       0       5       0       5     54     54      0   4930     141       2  54    0bb0f a70f     10.440 "
test,1583576491285542912,13," | 13  |   5073       5   5069       0 |   5    0      5029        40 |   3  54    0    0 bb0f |    2.807       0       5       0       5     54     54      0   4966     103       2  54    0bb0f a70f      8.970 "
test,1583576491289328128,15," | 15  |   5073       5   5047      24 |   4    4      4873       198 |   7  54   27    0 bb0f |    3.540       0       5       0       5     54     54      0   4645     426       3  54    0bb0f a70f     11.130 "
test,1583576491306864128,16," | 16  |   5073       5   5069       0 |   0    3      4887       182 |   0  16   27    1 830f |    0           0       0       0       8      0      0      0   4750     319       0  16    1830f a70f     30.210 "
test,1583576491286142208,17," | 17  |   5073       5   5062       7 |   5    0      5007        62 |   3  44    0    0 150f |    2.716       0       5       0       5     44     44      0   4859     210       2  44    0150f a70f     10.320 "
test,1583576491289492992,18," | 18  |   5073       5   5068       0 |   5    0      4774       294 |   2  44    0    0 150f |    2.716       0       5       0       5     44     44      0   4571     497       2  44    0150f a70f      9.540 "
test,1583576491287374080,19," | 19  |   5073       5   5058      11 |   5    0      4984        85 |   4  44    0    0 150f |    2.746       0       5       0       5     44     44      0   4840     229       2  44    0150f a70f      9.540 "
test,1583576491293225984,1," |  1  |   5073       4   5070       0 |   5    0      4940       130 |   1  54    0    0 bb0f |    2.746       0       5       0       5     54     54      0   4904     166       1  54    0bb0f a70f      8.880 "
test,1583576491286642944,22," | 22  |   5073       5   5067       0 |   5    0      5023        44 |   2  44    0    0 150f |    2.746       0       5       0       5     44     44      0   4791     276       2  44    0150f a70f      8.940 "
test,1583576491306366976,23," | 23  |   5073       5   5011       0 |   5    6      4989        22 |   1  27   16    0 320f |    0           0       0       0       8      0      0      0   4884     127       0  27    0320f a70f     30.390 "
test,1583576491283813888,24," | 24  |   5073       5   5067       2 |   5    0      5017        52 |   1  44    0    0 150f |    1.983       0       5       0       5     44     44      0   4883     186       1  44    0150f a70f      8.220 "
test,1583576491289860096,26," | 26  |   5073       5   5067       2 |   5    0      5049        20 |   2  44    0    0 150f |    2.746       0       5       0       5     44     44      0   4957     112       2  44    0150f a70f     10.410 "
test,1583576491309164032,27," | 27  |   5073       5   5071       0 |   4    4      4928       143 |   5  27   44    1 320f |    1.739       0       1       0       1     27     27      0   4720     351       2  27    1320f a70f     30.300 "
test,1583576491291740928,28," | 28  |   5073       5   5063       6 |   4    0      4657       412 |   5  44    0    0 150f |    3.479       0       5       0       5     44     44      0   4459     610       3  44    0150f a70f     11.100 "
test,1583576491307400960,29," | 29  |   5073       5   5064       7 |   5    4      4481       590 |   1  27   44    0 320f |    2.014       0       1       0       1     27     27      0   4268     803       1  27    0320f a70f     30.330 "
test,1583576491288169984,30," | 30  |   5073       5   5067       2 |   5    0      5001        68 |   4  44    0    0 150f |    3.479       0       5       0       5     44     44      0   4815     254       3  44    0150f a70f     10.290 "
test,1583576491286320896,35," | 35  |   5073       5   5067       2 |   5    0      4829       240 |   3  44    0    0 150f |    3.448       0       5       0       5     44     44      0   4719     350       3  44    0150f a70f      9.660 "
test,1583576491293862144,40," | 40  |   5073       5   4991      74 |   5    0      4750       315 |   2  44    0    0 150f |    2.014       0       5       0       5     44     44      0   4633     432       1  44    0150f a70f      9.660 "
test,1583576491290437888,41," | 41  |   5073       5   5000      59 |   5    0      5020        39 |   1  44    0    0 150f |    2.014       0       5       0       5     44     44      0   4897     162       1  44    0150f a70f      8.130 "
test,1583576491284430080,42," | 42  |   5073       5   5007      62 |   5    0      4962       107 |   1  44    0    0 150f |    2.014       0       5       0       5     44     44      0   4855     214       1  44    0150f a70f      8.220 "
test,1583576491292794880,44," | 44  |   5073       5   5012      57 |   4    0      4968       101 |   2  44    0    1 150f |    1.739       0       4       0       4     44     44      0   4873     196       2  44    1150f a70f      9.360 "
test,1583576491288688896,45," | 45  |   5073       5   5026      43 |   5    0      4912       157 |   1  44    0    0 150f |    1.953       0       5       0       5     44     44      0   4820     249       1  44    0150f a70f      8.760 "
test,1583576491297046784,46," | 46  |   5073       5   5005      57 |   5    0      4843       219 |   1  44    0    0 150f |    1.983       0       5       0       5     44     44      0   4758     304       1  44    0150f a70f     10.350 "
test,1583576491294569984,47," | 47  |   5073       5   5012      57 |   5    0      4896       173 |   1  44    0    0 150f |    1.953       0       5       0       5     44     44      0   4815     254       1  44    0150f a70f      8.760 "
test,1583576491288503040,48," | 48  |   5073       5   4947      55 |   5    0      4889       113 |   1  44    0    0 150f |    1.983       0       5       0       5     44     44      0   4803     199       1  44    0150f a70f      8.940 "
test,1583576491285337088,49," | 49  |   5073       5   5063       0 |   5    0      4965        98 |   5  54    0    0 bb0f |    2.807       0       5       0       5     54     54      0   4928     135       2  54    0bb0f a70f      9.000 "
test,1583576491284250880,51," | 51  |   5073       5   5064       0 |   5   10      5016        48 |   1  56   54    0 c50f |    2.014       0       5       0       5     56     56      0   4997      67       1  56    0c50f a70f      8.100 "
test,1583576491292514048,52," | 52  |   5073       5   5039      26 |   4    6      4829       236 |   5  44   27    0 150f |    3.479       0       5       0       5     44     44      0   4731     334       3  44    0150f a70f     10.980 "
test,1583576491286937856,53," | 53  |   5073       5   5047       0 |   5    0      4774       273 |   6  54    0    0 bb0f |    3.509       0       5       0       5     54     54      0   4721     326       3  54    0bb0f a70f      9.630 "
test,1583576491283986944,54," | 54  |   5073       5   5065       0 |   5    0      4976        89 |   5  54    0    1 bb0f |    1.770       0       4       0       4     54     54      0   4895     170       2  54    1bb0f a70f      7.230 "
test,1583576491287538944,55," | 55  |   5073       5   5052       0 |   5    0      4861       191 |   5  54    0    0 bb0f |    2.807       0       5       0       5     54     54      0   4820     232       2  54    0bb0f a70f      8.940 "
test,1583576491285006080,56," | 56  |   5073       5   5055       0 |   4    2      4977        78 |   5  56   54    1 c50f |    1.739       0       4       0       4     56     56      0   4914     141       2  56    1c50f a70f      6.480 "
test,1583576491307126016,57," | 57  |   5073       4   5010       0 |   2    8      4880       130 |   1  56   27    0 c50f |    1.983       0       3       0       3     56     56      0   4580     430       1  56    0c50f a70f     30.360 "
test,1583576491285765888,58," | 58  |   5073       5   5064       0 |   5    0      4992        72 |   4  54    0    0 bb0f |    2.075       0       5       0       5     54     54      0   4777     287       1  54    0bb0f a70f      8.940 "
test,1583576491290589184,5," |  5  |   5073       5   5071       0 |   5    0      4621       450 |   2  54    0    0 bb0f |    3.509       0       5       0       5     54     54      0   4534     537       3  54    0bb0f a70f      9.540 "
test,1583576491289676032,60," | 60  |   5073       5   5064       0 |   5    0      4746       318 |   1  56    0    0 c50f |    1.983       0       5       0       5     56     56      0   4648     416       1  56    0c50f a70f      8.940 "
test,1583576491291065088,61," | 61  |   5073       5   5063       0 |   5    0      4832       231 |   4  54    0    0 bb0f |    2.044       0       5       0       5     54     54      0   4662     401       1  54    0bb0f a70f      9.630 "
test,1583576491284642048,7," |  7  |   5073       5   5070       0 |   5    0      4994        76 |   1  54    0    0 bb0f |    2.044       0       5       0       5     54     54      0   4963     107       1  54    0bb0f a70f      8.250 "
test,1583576491287174912,9," |  9  |   5073       5   5069       0 |   5    0      4893       176 |   1  54    0    0 bb0f |    2.807       0       5       0       5     54     54      0   4870     199       2  54    0bb0f a70f      8.940 "
