test,1583576593305288960,10," | 10  |   5481       5   5453       0 |   4    0      5365        88 |   4  10    0    1 d10f |    8.117       0       2       0       2     10     10      0   5296     157      11  10    1d10f a70f     30.270 "
test,1583576593285104896,12," | 12  |   5481       5   5451      28 |   5    0      5418        61 |   2   1    0    0 e90f |    1.342       0       5       0       5      1      1      0   5324     155       1   1    0e90f a70f      7.590 "
test,1583576593284885760,13," | 13  |   5481       5   5477       0 |   5    0      5430        47 |   1   1    0    0 e90f |    1.373       0       5       0       5      1      1      0   5364     113       1   1    0e90f a70f      7.530 "
test,1583576593309572864,15," | 15  |   5481       5   5443      36 |   4    1      5264       215 |   3   1   24    0 e90f |    2.105       0       4       0       4      1      1      0   5016     463       2   1    0e90f a70f     30.330 "
test,1583576593292809984,16," | 16  |   5481       5   5477       0 |   5    0      5282       195 |   2  57    0    0 530f |    2.777       0       5       0       5     57     57      0   5131     346       2  57    0530f a70f      9.600 "
test,1583576593294120192,17," | 17  |   5481       5   5470       7 |   5    0      5410        67 |   2  57    0    0 530f |    2.746       0       5       0       5     57     57      0   5249     228       2  57    0530f a70f      9.630 "
test,1583576593308280832,18," | 18  |   5481       5   5476       0 |   5    0      5172       304 |   2  57    0    0 530f |    3.448       0       4       0       4     57     57      0   4954     522       3  57    0530f a70f     30.300 "
test,1583576593282557952,19," | 19  |   5481       5   5466      11 |   4    3      5381        96 |   4  57   29    0 530f |    2.746       0       5       0       5     57     57      0   5231     246       2  57    0530f a70f      8.940 "
test,1583576593284645120,1," |  1  |   5481       4   5478       0 |   5    0      5340       138 |   2   1    0    1 e90f |    1.739       0       4       0       4      1      1      0   5302     176       2   1    1e90f a70f      6.480 "
test,1583576593308465920,22," | 22  |   5481       5   5475       0 |   5    0      5428        47 |   1  57    0    0 530f |    2.716       0       4       0       4     57     57      0   5183     292       2  57    0530f a70f     30.360 "
test,1583576593289839872,23," | 23  |   5481       5   5419       0 |   5    0      5394        25 |   1  57    0    0 530f |    1.983       0       5       0       5     57     57      0   5285     134       1  57    0530f a70f      8.910 "
test,1583576593306862080,24," | 24  |   5481       5   5475       2 |   1    8      5423        54 |   8  24   57    1 920f |   21.057       0       2       0       2     24     24      0   5279     198      29  24    1920f a70f     30.240 "
test,1583576593307964160,26," | 26  |   5481       5   5475       2 |   5    0      5453        24 |   1  57    0    0 530f |    2.746       0       4       0       4     57     57      0   5353     124       2  57    0530f a70f     30.360 "
test,1583576593290631168,27," | 27  |   5481       5   5479       0 |   5    0      5322       157 |   2  57    0    0 530f |    2.685       0       5       0       5     57     57      0   5101     378       2  57    0530f a70f      9.600 "
test,1583576593295648000,28," | 28  |   5481       5   5470       7 |   5    0      5029       448 |   3  57    0    0 530f |    3.448       0       5       0       5     57     57      0   4821     656       3  57    0530f a70f     11.610 "
test,1583576593307107840,29," | 29  |   5481       5   5472       7 |   0    4      4837       642 |   0  29   24    1 b60f |    0           0       0       0       8      0      0      0   4602     877       0  29    1b60f a70f     30.180 "
test,1583576593293935104,30," | 30  |   5481       5   5474       3 |   5    0      5403        74 |   2  57    0    0 530f |    3.448       0       5       0       5     57     57      0   5204     273       3  57    0530f a70f     12.510 "
test,1583576593299294976,35," | 35  |   5481       5   5474       3 |   5    0      5218       259 |   2  57    0    0 530f |    3.448       0       5       0       5     57     57      0   5099     378       3  57    0530f a70f     13.230 "
test,1583576593290093056,40," | 40  |   5481       5   5399      74 |   5    0      5132       341 |   1  42    0    0 500f |    2.014       0       5       0       5     42     42      0   5004     469       1  42    0500f a70f      9.600 "
test,1583576593290426112,41," | 41  |   5481       5   5408      59 |   4    0      5425        42 |   1  42    0    0 500f |    2.014       0       5       0       5     42     42      0   5295     172       1  42    0500f a70f      9.690 "
test,1583576593288043008,42," | 42  |   5481       5   5415      62 |   4    0      5366       111 |   2  42    0    1 500f |    1.770       0       4       0       4     42     42      0   5255     222       2  42    1500f a70f      6.510 "
test,1583576593296758016,44," | 44  |   5481       5   5420      57 |   5    0      5368       109 |   1  42    0    0 500f |    2.044       0       5       0       5     42     42      0   5263     214       1  42    0500f a70f      9.630 "
test,1583576593294617856,45," | 45  |   5481       5   5434      43 |   5    0      5305       172 |   1  42    0    0 500f |    1.983       0       5       0       5     42     42      0   5205     272       1  42    0500f a70f      9.630 "
test,1583576593291395840,46," | 46  |   5481       5   5413      57 |   5    0      5228       242 |   1  42    0    0 500f |    2.044       0       5       0       5     42     42      0   5139     331       1  42    0500f a70f     10.320 "
test,1583576593286947840,47," | 47  |   5481       5   5420      57 |   5    0      5295       182 |   1  42    0    0 500f |    2.044       0       5       0       5     42     42      0   5207     270       1  42    0500f a70f      8.130 "
test,1583576593290999040,48," | 48  |   5481       5   5355      55 |   4    0      5293       117 |   4  42    0    0 500f |    1.983       0       5       0       5     42     42      0   5201     209       1  42    0500f a70f      8.940 "
test,1583576593289312000,49," | 49  |   5481       5   5471       0 |   5    0      5366       105 |   1  53    0    0 360f |    2.075       0       5       0       5     53     53      0   5328     143       1  53    0360f a70f      8.280 "
test,1583576593292530944,51," | 51  |   5481       5   5472       0 |   5    0      5420        52 |   1  10    0    0 d10f |    2.014       0       5       0       5     10     10      0   5401      71       1  10    0d10f a70f     10.080 "
test,1583576593288444928,52," | 52  |   5481       5   5446      27 |   5    0      5212       261 |   2  57    0    0 530f |    2.746       0       5       0       5     57     57      0   5108     365       2  57    0530f a70f      9.660 "
test,1583576593286281216,53," | 53  |   5481       5   5455       0 |   5    0      5162       293 |   2  53    0    1 360f |    1.770       0       4       0       4     53     53      0   5106     349       2  53    1360f a70f      6.510 "
test,1583576593289133056,54," | 54  |   5481       5   5473       0 |   5    0      5376        97 |   2   1    0    0 e90f |    1.373       0       5       0       5      1      1      0   5291     182       1   1    0e90f a70f      9.780 "
test,1583576593287499008,55," | 55  |   5481       5   5460       0 |   5    0      5254       206 |   1  53    0    0 360f |    2.044       0       5       0       5     53     53      0   5211     249       1  53    0360f a70f      8.250 "
test,1583576593298033920,56," | 56  |   5481       5   5463       0 |   4    2      5383        80 |   2  10   57    0 d10f |    2.746       0       5       0       5     10     10      0   5317     146       2  10    0d10f a70f     10.800 "
test,1583576593287671040,57," | 57  |   5481       5   5418       0 |   2    0      5279       139 |  10  57    0    1 530f |    1.739       0       4       0       4     57     57      0   4953     465       2  57    1530f a70f      7.200 "
test,1583576593293481216,58," | 58  |   5481       5   5472       0 |   2    1      5395        77 |   6   1   57    0 e90f |    6.469       0       5       0       5      1      1      0   5166     306       8   1    0e90f a70f     12.480 "
test,1583576593286080000,5," |  5  |   5481       5   5479       0 |   5    0      4992       487 |   2   1    0    0 e90f |    2.044       0       5       0       5      1      1      0   4898     581       2   1    0e90f a70f      8.250 "
test,1583576593291632896,60," | 60  |   5481       5   5472       0 |   4    1      5123       349 |   4  10   57    0 d10f |    2.746       0       5       0       5     10     10      0   5016     456       2  10    0d10f a70f     10.800 "
test,1583576593292354048,61," | 61  |   5481       5   5471       0 |   3    1      5221       250 |   5   1   57    0 e90f |    5.737       0       5       0       5      1      1      0   5035     436       7   1    0e90f a70f     11.820 "
test,1583576593285273088,7," |  7  |   5481       5   5478       0 |   5    0      5393        85 |   3   1    0    0 e90f |    1.373       0       5       0       5      1      1      0   5358     120       1   1    0e90f a70f      7.500 "
test,1583576593285676032,9," |  9  |   5481       5   5477       0 |   5    0      5289       188 |   1   1    0    0 e90f |    1.373       0       5       0       5      1      1      0   5266     211       1   1    0e90f a70f      7.440 "
