test,1583576474305533952,10," | 10  |   5005       5   4977       0 |   1    5      4896        81 |  12  17   58    0 b40f |   10.070       0       2       0       2     17     17      0   4833     144      12  17    0b40f a70f     30.390 "
test,1583576474288054016,12," | 12  |   5005       5   4989      14 |   5    0      4954        49 |   1  58    0    0 700f |    2.716       0       5       0       5     58     58      0   4867     136       2  58    0700f a70f      9.690 "
test,1583576474286198016,13," | 13  |   5005       5   5001       0 |   2    0      4961        40 |  12  58    0    0 700f |    2.746       0       5       0       5     58     58      0   4900     101       2  58    0700f a70f      8.820 "
test,1583576474289426944,15," | 15  |   5005       5   4983      20 |   4    1      4808       195 |   4  58   17    0 700f |    3.509       0       5       0       5     58     58      0   4584     419       3  58    0700f a70f     10.350 "
test,1583576474286031872,16," | 16  |   5005       5   5001       0 |   5    0      4822       179 |   1  17    0    0 b40f |    2.746       0       5       0       5     17     17      0   4686     315       2  17    0b40f a70f      9.510 "
test,1583576474285336064,17," | 17  |   5005       5   4994       7 |   4    0      4941        60 |   7  17    0    1 b40f |    1.739       0       4       0       4     17     17      0   4795     206       2  17    1b40f a70f      6.510 "
test,1583576474287655168,18," | 18  |   5005       5   5000       0 |   5    0      4711       289 |   2  17    0    0 b40f |    2.777       0       5       0       5     17     17      0   4507     493       2  17    0b40f a70f      9.600 "
test,1583576474287884032,19," | 19  |   5005       4   4990      11 |   5    0      4919        82 |   1  17    0    0 b40f |    2.044       0       5       0       5     17     17      0   4776     225       1  17    0b40f a70f      9.630 "
test,1583576474286659072,1," |  1  |   5005       4   5002       0 |   5    0      4875       127 |   2  58    0    0 700f |    3.417       0       5       0       5     58     58      0   4839     163       2  58    0700f a70f      9.630 "
test,1583576474293605120,22," | 22  |   5005       5   4999       0 |   5    0      4956        43 |   3  17    0    0 b40f |    3.448       0       5       0       5     17     17      0   4725     274       3  17    0b40f a70f     11.820 "
test,1583576474285812992,23," | 23  |   5005       5   4943       0 |   5    0      4921        22 |   1  17    0    0 b40f |    2.044       0       5       0       5     17     17      0   4819     124       1  17    0b40f a70f      8.940 "
test,1583576474285174016,24," | 24  |   5005       5   4999       2 |   5    0      4951        50 |   1  17    0    0 b40f |    2.014       0       5       0       5     17     17      0   4819     182       1  17    0b40f a70f      8.970 "
test,1583576474283226112,26," | 26  |   5005       5   4999       2 |   5    0      4981        20 |   1  17    0    0 b40f |    2.014       0       5       0       5     17     17      0   4891     110       1  17    0b40f a70f      8.190 "
test,1583576474286384128,27," | 27  |   5005       5   5003       0 |   5    0      4863       140 |   1  17    0    0 b40f |    2.075       0       5       0       5     17     17      0   4658     345       1  17    0b40f a70f      8.880 "
test,1583576474288777216,28," | 28  |   5005       5   4995       6 |   5    0      4598       403 |   1  17    0    0 b40f |    2.014       0       5       0       5     17     17      0   4404     597       1  17    0b40f a70f     10.380 "
test,1583576474306816000,29," | 29  |   5005       4   4996       7 |   5    0      4424       579 |   2  17    0    0 b40f |    4.241       0       3       0       3     17     17      0   4211     792       4  17    0b40f a70f     30.270 "
test,1583576474287414016,30," | 30  |   5005       5   4999       2 |   5    0      4934        67 |   4  17    0    0 b40f |    4.974       0       5       0       5     17     17      0   4751     250       5  17    0b40f a70f     10.980 "
test,1583576474290440960,35," | 35  |   5005       5   4999       2 |   5    0      4766       235 |   4  17    0    0 b40f |    4.211       0       5       0       5     17     17      0   4657     344       4  17    0b40f a70f     10.290 "
test,1583576474286999040,40," | 40  |   5005       5   4928      69 |   5    0      4689       308 |   2  42    0    0 6a0f |    2.075       0       5       0       5     42     42      0   4573     424       1  42    06a0f a70f      8.850 "
test,1583576474289624064,41," | 41  |   5005       5   4932      59 |   5    0      4952        39 |   2  42    0    0 6a0f |    2.075       0       5       0       5     42     42      0   4830     161       1  42    06a0f a70f      8.220 "
test,1583576474297530880,42," | 42  |   5005       5   4939      62 |   4    0      4896       105 |   4  42    0    1 6a0f |    1.739       0       4       0       4     42     42      0   4789     212       2  42    16a0f a70f      7.920 "
test,1583576474280651008,44," | 44  |   5005       5   4944      57 |   5    0      4900       101 |   1  42    0    0 6a0f |    2.044       0       5       0       5     42     42      0   4806     195       1  42    06a0f a70f      8.970 "
test,1583576474280431104,45," | 45  |   5005       5   4958      43 |   5    0      4844       157 |   1  42    0    0 6a0f |    2.044       0       5       0       5     42     42      0   4753     248       1  42    06a0f a70f      9.000 "
test,1583576474295803136,46," | 46  |   5005       5   4937      57 |   5    0      4776       218 |   1  42    0    0 6a0f |    1.983       0       5       0       5     42     42      0   4692     302       1  42    06a0f a70f      8.910 "
test,1583576474288294144,47," | 47  |   5005       5   4944      57 |   5    0      4829       172 |   1  42    0    0 6a0f |    2.044       0       5       0       5     42     42      0   4748     253       1  42    06a0f a70f      8.910 "
test,1583576474293960192,48," | 48  |   5005       5   4879      55 |   5    0      4822       112 |   1  42    0    0 6a0f |    2.075       0       5       0       5     42     42      0   4736     198       1  42    06a0f a70f      8.310 "
test,1583576474284715776,49," | 49  |   5005       5   4995       0 |   5    0      4898        97 |   1  58    0    0 700f |    1.983       0       5       0       5     58     58      0   4861     134       1  58    0700f a70f      8.220 "
test,1583576474291151104,51," | 51  |   5005       5   4996       0 |   5    0      4949        47 |   4  17    0    0 b40f |    5.706       0       5       0       5     17     17      0   4931      65       6  17    0b40f a70f     11.820 "
test,1583576474285538048,52," | 52  |   5005       5   4971      26 |   5    0      4763       234 |   2  17    0    0 b40f |    2.777       0       5       0       5     17     17      0   4667     330       2  17    0b40f a70f      9.000 "
test,1583576474291834112,53," | 53  |   5005       5   4979       0 |   5    0      4708       271 |   2  58    0    0 700f |    2.716       0       5       0       5     58     58      0   4656     323       2  58    0700f a70f      8.940 "
test,1583576474283951872,54," | 54  |   5005       5   4997       0 |   5    1      4912        85 |   3  58   17    0 700f |    2.044       0       5       0       5     58     58      0   4830     167       1  58    0700f a70f      8.100 "
test,1583576474284308992,55," | 55  |   5005       5   4984       0 |   5    0      4795       189 |   1  58    0    0 700f |    2.014       0       5       0       5     58     58      0   4755     229       1  58    0700f a70f      8.070 "
test,1583576474290839040,56," | 56  |   5005       5   4987       0 |   5    0      4909        78 |   3  17    0    0 b40f |    4.974       0       5       0       5     17     17      0   4849     138       5  17    0b40f a70f     11.130 "
test,1583576474293044992,57," | 57  |   5005       5   4942       0 |   5    0      4816       126 |   2  17    0    0 b40f |    4.241       0       5       0       5     17     17      0   4523     419       4  17    0b40f a70f     10.410 "
test,1583576474304774912,58," | 58  |   5005       4   4996       0 |   2    5      4924        72 |  13  58   17    1 700f |    1.739       0       1       0       1     58     58      0   4712     284       2  58    1700f a70f     30.300 "
test,1583576474290148864,5," |  5  |   5005       5   5003       0 |   5    0      4561       442 |   2  58    0    0 700f |    3.417       0       5       0       5     58     58      0   4475     528       3  58    0700f a70f      9.600 "
test,1583576474292505088,60," | 60  |   5005       5   4996       0 |   5    0      4680       316 |   3  17    0    0 b40f |    4.943       0       5       0       5     17     17      0   4585     411       5  17    0b40f a70f     11.130 "
test,1583576474289200128,61," | 61  |   5005       3   4995       0 |   4    3      4768       227 |   4  17   58    0 b40f |    4.974       0       5       0       5     17     17      0   4600     395       5  17    0b40f a70f     11.010 "
test,1583576474284894976,7," |  7  |   5005       5   5002       0 |   5    0      4926        76 |   2  58    0    0 700f |    2.777       0       5       0       5     58     58      0   4895     107       2  58    0700f a70f      8.940 "
test,1583576474291329024,9," |  9  |   5005       5   5001       0 |   5    0      4828       173 |   2  58    0    0 700f |    2.716       0       5       0       5     58     58      0   4805     196       2  58    0700f a70f      8.970 "
