test,1583576513285022976,10," | 10  |   5161       5   5133       0 |   5    1      5050        83 |   1  13   23    0 430f |    2.014       0       5       0       5     13     13      0   4985     148       1  13    0430f a70f      8.250 "
test,1583576513292396032,12," | 12  |   5161       5   5139      20 |   5    0      5106        53 |   2  13    0    0 430f |    2.777       0       5       0       5     13     13      0   5016     143       2  13    0430f a70f      9.630 "
test,1583576513283505920,13," | 13  |   5161       5   5157       0 |   5    1      5114        43 |   2  13   23    1 430f |    1.739       0       4       0       4     13     13      0   5050     107       2  13    1430f a70f      6.480 "
test,1583576513296000000,15," | 15  |   5161       5   5131      28 |   5    0      4956       203 |   7  13    0    0 430f |    3.479       0       5       0       5     13     13      0   4723     436       3  13    0430f a70f     10.410 "
test,1583576513307529984,16," | 16  |   5161       5   5157       0 |   1    4      4974       183 |   3  41   23    0 7d0f |    6.439       0       2       0       2     41     41      0   4835     322       7  41    07d0f a70f     30.390 "
test,1583576513286950144,17," | 17  |   5161       5   5150       7 |   5    0      5094        63 |   2  23    0    0 560f |    2.075       0       5       0       5     23     23      0   4943     214       1  23    0560f a70f      9.690 "
test,1583576513289671936,18," | 18  |   5161       5   5156       0 |   4    0      4861       295 |   5  23    0    0 560f |    2.777       0       5       0       5     23     23      0   4656     500       2  23    0560f a70f      8.970 "
test,1583576513287045888,19," | 19  |   5161       5   5146      11 |   5    0      5071        86 |   1  23    0    0 560f |    2.075       0       5       0       5     23     23      0   4924     233       1  23    0560f a70f      9.000 "
test,1583576513285775872,1," |  1  |   5161       4   5158       0 |   5    0      5027       131 |   1  13    0    0 430f |    2.716       0       5       0       5     13     13      0   4989     169       1  13    0430f a70f      8.820 "
test,1583576513286330112,22," | 22  |   5161       5   5155       0 |   5    0      5110        45 |   1  23    0    0 560f |    2.044       0       5       0       5     23     23      0   4876     279       1  23    0560f a70f      8.280 "
test,1583576513289302016,23," | 23  |   5161       5   5099       0 |   2    0      5077        22 |  11  23    0    1 560f |    1.770       0       4       0       4     23     23      0   4971     128       2  23    1560f a70f      8.670 "
test,1583576513285207040,24," | 24  |   5161       5   5155       2 |   5    0      5104        53 |   1  23    0    0 560f |    2.014       0       5       0       5     23     23      0   4968     189       1  23    0560f a70f      8.970 "
test,1583576513286798080,26," | 26  |   5161       5   5155       2 |   5    0      5136        21 |   1  23    0    0 560f |    2.014       0       5       0       5     23     23      0   5043     114       1  23    0560f a70f      8.970 "
test,1583576513307360000,27," | 27  |   5161       3   5159       0 |   5    0      5015       144 |   1  23    0    0 560f |    2.075       0       3       0       3     23     23      0   4803     356       1  23    0560f a70f     30.270 "
test,1583576513294809088,28," | 28  |   5161       5   5151       6 |   5    0      4736       421 |   3  23    0    0 560f |    2.777       0       5       0       5     23     23      0   4536     621       2  23    0560f a70f      8.970 "
test,1583576513307789056,29," | 29  |   5161       3   5152       7 |   5    0      4559       600 |   2  23    0    0 560f |    6.439       0       3       0       3     23     23      0   4342     817       7  23    0560f a70f     30.360 "
test,1583576513289174016,30," | 30  |   5161       5   5155       2 |   5    0      5087        70 |   2  23    0    0 560f |    2.807       0       5       0       5     23     23      0   4900     257       2  23    0560f a70f      9.660 "
test,1583576513288568064,35," | 35  |   5161       5   5155       2 |   5    0      4910       247 |   2  23    0    0 560f |    2.777       0       5       0       5     23     23      0   4799     358       2  23    0560f a70f      9.000 "
test,1583576513285358848,40," | 40  |   5161       5   5079      74 |   2    4      4836       317 |   1  41   23    0 7d0f |    2.014       0       5       0       5     41     41      0   4714     439       1  41    07d0f a70f      8.190 "
test,1583576513287831040,41," | 41  |   5161       5   5088      59 |   1    4      5108        39 |   2  41   23    1 7d0f |    1.739       0       4       0       4     41     41      0   4985     162       2  41    17d0f a70f      6.510 "
test,1583576513288423168,42," | 42  |   5161       5   5095      62 |   2    6      5050       107 |   1  41   23    0 7d0f |    2.044       0       5       0       5     41     41      0   4942     215       1  41    07d0f a70f      8.190 "
test,1583576513280247808,44," | 44  |   5161       5   5100      57 |   2    7      5055       102 |   1  41   23    0 7d0f |    2.044       0       5       0       5     41     41      0   4958     199       1  41    07d0f a70f      8.130 "
test,1583576513294467072,45," | 45  |   5161       5   5114      43 |   2    0      4996       161 |   1  41    0    0 7d0f |    1.983       0       5       0       5     41     41      0   4903     254       1  41    07d0f a70f      8.220 "
test,1583576513288152064,46," | 46  |   5161       5   5093      57 |   2    0      4924       226 |   1  41    0    0 7d0f |    2.014       0       5       0       5     41     41      0   4838     312       1  41    07d0f a70f      8.250 "
test,1583576513290157056,47," | 47  |   5161       5   5100      57 |   2    2      4983       174 |   1  41   23    0 7d0f |    2.014       0       5       0       5     41     41      0   4899     258       1  41    07d0f a70f      8.250 "
test,1583576513307143936,48," | 48  |   5161       5   5035      55 |   2    4      4976       114 |   1  41   23    0 7d0f |    2.044       0       4       0       4     41     41      0   4889     201       1  41    07d0f a70f     30.300 "
test,1583576513283698944,49," | 49  |   5161       5   5151       0 |   4    0      5052        99 |   4  49    0    1  50f |    1.739       0       4       0       4     49     49      0   5015     136       2  49    1 50f a70f      6.480 "
test,1583576513288834048,51," | 51  |   5161       5   5152       0 |   4   12      5104        48 |   5  23   60    0 560f |    3.509       0       5       0       5     23     23      0   5085      67       3  23    0560f a70f      9.570 "
test,1583576513288706048,52," | 52  |   5161       3   5127      26 |   5    0      4914       239 |   1  23    0    0 560f |    2.044       0       5       0       5     23     23      0   4814     339       1  23    0560f a70f      9.690 "
test,1583576513285562880,53," | 53  |   5161       5   5135       0 |   5    0      4855       280 |   1  49    0    0  50f |    2.014       0       5       0       5     49     49      0   4801     334       1  49    0 50f a70f      8.280 "
test,1583576513304090112,54," | 54  |   5161       5   5153       0 |   1   14      5064        89 |   2  49   13    0  50f |    0           0       0       0       8      0      0      0   4981     172       0  49    0 50f a70f     30.390 "
test,1583576513288003840,55," | 55  |   5161       5   5140       0 |   5    0      4948       192 |   1  49    0    0  50f |    2.044       0       5       0       5     49     49      0   4906     234       1  49    0 50f a70f      8.130 "
test,1583576513290627072,56," | 56  |   5161       5   5143       0 |   5    0      5064        79 |   2  23    0    0 560f |    2.777       0       5       0       5     23     23      0   5000     143       2  23    0560f a70f      9.000 "
test,1583576513285906944,57," | 57  |   5161       5   5098       0 |   5    0      4965       133 |   1  23    0    0 560f |    2.044       0       5       0       5     23     23      0   4656     442       1  23    0560f a70f      8.190 "
test,1583576513286500096,58," | 58  |   5161       5   5152       0 |   5    0      5079        73 |   1  49    0    0  50f |    2.044       0       5       0       5     49     49      0   4861     291       1  49    0 50f a70f      8.850 "
test,1583576513284475136,5," |  5  |   5161       5   5159       0 |   5    0      4700       459 |   3  13    0    0 430f |    2.014       0       5       0       5     13     13      0   4612     547       1  13    0430f a70f      8.250 "
test,1583576513304878848,60," | 60  |   5161       5   5152       0 |   0    7      4827       325 |   0  60   13    1  50f |    0           0       0       0       8      0      0      0   4728     424       0  60    1 50f a70f     30.180 "
test,1583576513291522048,61," | 61  |   5161       5   5151       0 |   5    0      4917       234 |   2  49    0    0  50f |    2.807       0       5       0       5     49     49      0   4741     410       2  49    0 50f a70f      9.750 "
test,1583576513284749056,7," |  7  |   5161       5   5158       0 |   5    0      5078        80 |   1  13    0    0 430f |    2.044       0       5       0       5     13     13      0   5046     112       1  13    0430f a70f      8.940 "
test,1583576513290385920,9," |  9  |   5161       5   5157       0 |   5    0      4977       180 |   1  13    0    0 430f |    2.746       0       5       0       5     13     13      0   4954     203       2  13    0430f a70f      8.850 "
