test,1583576567304968960,10," | 10  |   5377       5   5349       0 |   1    5      5263        86 |   1  51    9    0 5e0f |    0           0       0       0       8      0      0      0   5194     155       0  51    05e0f a70f     30.390 "
test,1583576567285757952,12," | 12  |   5377       5   5350      25 |   5    0      5316        59 |   2   9    0    0 210f |    1.983       0       5       0       5      9      9      0   5222     153       1   9    0210f a70f      8.220 "
test,1583576567304290048,13," | 13  |   5377       5   5373       0 |   1   10      5327        46 |   1  51    9    0 5e0f |    0           0       0       0       8      0      0      0   5262     111       0  51    05e0f a70f     30.390 "
test,1583576567289185024,15," | 15  |   5377       5   5342      33 |   5    0      5164       211 |   3   9    0    0 210f |    2.746       0       5       0       5      9      9      0   4916     459       2   9    0210f a70f      8.970 "
test,1583576567289699072,16," | 16  |   5377       5   5373       0 |   5    0      5185       188 |   3  18    0    0 720f |    3.509       0       5       0       5     18     18      0   5037     336       3  18    0720f a70f      9.660 "
test,1583576567291368960,17," | 17  |   5377       5   5366       7 |   5    0      5307        66 |   2  18    0    0 720f |    2.746       0       5       0       5     18     18      0   5148     225       2  18    0720f a70f      8.970 "
test,1583576567287492864,18," | 18  |   5377       5   5372       0 |   4    0      5070       302 |   2  18    0    1 720f |    1.770       0       4       0       4     18     18      0   4858     514       2  18    1720f a70f      6.510 "
test,1583576567290704128,19," | 19  |   5377       5   5362      11 |   5    0      5280        93 |   2  18    0    0 720f |    2.746       0       5       0       5     18     18      0   5131     242       2  18    0720f a70f     11.040 "
test,1583576567286084864,1," |  1  |   5377       4   5374       0 |   5    0      5238       136 |   1   9    0    0 210f |    2.685       0       5       0       5      9      9      0   5200     174       1   9    0210f a70f      8.910 "
test,1583576567287100160,22," | 22  |   5377       5   5371       0 |   5    0      5325        46 |   1  18    0    0 720f |    1.983       0       5       0       5     18     18      0   5085     286       1  18    0720f a70f      8.910 "
test,1583576567288014848,23," | 23  |   5377       5   5315       0 |   5    0      5292        23 |   2  18    0    0 720f |    2.716       0       5       0       5     18     18      0   5184     131       2  18    0720f a70f      8.910 "
test,1583576567289019136,24," | 24  |   5377       5   5371       2 |   5    0      5320        53 |   1  18    0    0 720f |    1.983       0       5       0       5     18     18      0   5178     195       1  18    0720f a70f      8.940 "
test,1583576567286376960,26," | 26  |   5377       5   5371       2 |   5    0      5351        22 |   1  18    0    0 720f |    1.983       0       5       0       5     18     18      0   5254     119       1  18    0720f a70f      8.070 "
test,1583576567299738880,27," | 27  |   5377       4   5375       0 |   4    0      5222       153 |   3  18    0    0 720f |    3.479       0       5       0       5     18     18      0   5003     372       3  18    0720f a70f      9.690 "
test,1583576567289444864,28," | 28  |   5377       5   5367       6 |   5    0      4932       441 |   3  18    0    0 720f |    3.479       0       5       0       5     18     18      0   4727     646       3  18    0720f a70f     10.380 "
test,1583576567293167104,29," | 29  |   5377       4   5368       7 |   3    0      4744       631 |   3  18    0    0 720f |    3.479       0       5       0       5     18     18      0   4515     860       3  18    0720f a70f     10.350 "
test,1583576567291968000,30," | 30  |   5377       5   5371       2 |   5    0      5301        72 |   2  18    0    0 720f |    2.777       0       5       0       5     18     18      0   5104     269       2  18    0720f a70f      9.630 "
test,1583576567287290112,35," | 35  |   5377       5   5371       2 |   5    0      5119       254 |   2  18    0    0 720f |    2.655       0       5       0       5     18     18      0   5001     372       2  18    0720f a70f      8.850 "
test,1583576567307229952,40," | 40  |   5377       5   5295      74 |   4    0      5036       333 |   1  48    0    0 2a0f |    2.014       0       3       0       3     48     48      0   4910     459       1  48    02a0f a70f     30.360 "
test,1583576567308151040,41," | 41  |   5377       5   5304      59 |   5    0      5322        41 |   1  48    0    0 2a0f |    2.014       0       4       0       4     48     48      0   5193     170       1  48    02a0f a70f     30.390 "
test,1583576567310471936,42," | 42  |   5377       5   5311      62 |   5    0      5263       110 |   1  48    0    0 2a0f |    2.014       0       4       0       4     48     48      0   5153     220       1  48    02a0f a70f     30.330 "
test,1583576567309520128,44," | 44  |   5377       5   5316      57 |   5    0      5267       106 |   1  48    0    0 2a0f |    2.044       0       4       0       4     48     48      0   5163     210       1  48    02a0f a70f     30.360 "
test,1583576567308871936,45," | 45  |   5377       5   5330      43 |   5    0      5209       164 |   1  48    0    0 2a0f |    2.014       0       4       0       4     48     48      0   5111     262       1  48    02a0f a70f     30.240 "
test,1583576567307764992,46," | 46  |   5377       5   5309      57 |   5    0      5130       236 |   1  48    0    0 2a0f |    1.983       0       3       0       3     48     48      0   5042     324       1  48    02a0f a70f     30.300 "
test,1583576567308721152,47," | 47  |   5377       5   5316      57 |   5    0      5195       178 |   2  48    0    0 2a0f |    2.014       0       4       0       4     48     48      0   5109     264       1  48    02a0f a70f     30.390 "
test,1583576567305184000,48," | 48  |   5377       5   5251      55 |   3    0      5190       116 |   3  48    0    1 2a0f |    1.739       0       3       0       3     48     48      0   5099     207       2  48    12a0f a70f     30.300 "
test,1583576567287805184,49," | 49  |   5377       5   5367       0 |   5    0      5265       102 |   2  49    0    1 160f |    1.739       0       4       0       4     49     49      0   5227     140       2  49    1160f a70f      6.480 "
test,1583576567285125120,51," | 51  |   5377       5   5368       0 |   5    0      5316        52 |   2  51    0    1 5e0f |    1.770       0       4       0       4     51     51      0   5297      71       2  51    15e0f a70f      6.510 "
test,1583576567288233984,52," | 52  |   5377       2   5343      26 |   5    0      5113       256 |   2  18    0    0 720f |    2.716       0       5       0       5     18     18      0   5010     359       2  18    0720f a70f      8.940 "
test,1583576567290955008,53," | 53  |   5377       5   5351       0 |   5    0      5062       289 |   1  49    0    0 160f |    2.014       0       5       0       5     49     49      0   5006     345       1  49    0160f a70f      8.220 "
test,1583576567305613056,54," | 54  |   5377       5   5369       0 |   1    8      5275        94 |   3  18    9    0 720f |   10.101       0       1       0       1     18     18      0   5192     177      12  18    0720f a70f     30.330 "
test,1583576567293764096,55," | 55  |   5377       5   5356       0 |   5    0      5155       201 |   1  49    0    0 160f |    2.044       0       5       0       5     49     49      0   5112     244       1  49    0160f a70f      8.250 "
test,1583576567288711936,56," | 56  |   5377       5   5359       0 |   5    0      5279        80 |   3  51    0    0 5e0f |    2.014       0       5       0       5     51     51      0   5214     145       1  51    05e0f a70f      8.220 "
test,1583576567294518016,57," | 57  |   5377       4   5314       0 |   5    0      5180       134 |   2  18    0    0 720f |    3.479       0       5       0       5     18     18      0   4861     453       3  18    0720f a70f      9.660 "
test,1583576567285430784,58," | 58  |   5377       5   5368       0 |   5    0      5293        75 |   1  49    0    0 160f |    2.075       0       5       0       5     49     49      0   5066     302       1  49    0160f a70f      8.310 "
test,1583576567306149888,5," |  5  |   5377       5   5375       0 |   1    7      4895       480 |   2  51    9    0 5e0f |    0           0       0       0       8      0      0      0   4802     573       0  51    05e0f a70f     30.360 "
test,1583576567286871808,60," | 60  |   5377       5   5368       0 |   4    1      5025       343 |   4  51    9    0 5e0f |    1.983       0       5       0       5     51     51      0   4921     447       1  51    05e0f a70f      8.190 "
test,1583576567307534080,61," | 61  |   5377       5   5367       0 |   2    4      5120       247 |   3  18   51    0 720f |   10.070       0       1       0       1     18     18      0   4938     429      12  18    0720f a70f     30.360 "
test,1583576567284775936,7," |  7  |   5377       5   5374       0 |   5    0      5291        83 |   2   9    0    0 210f |    2.044       0       5       0       5      9      9      0   5256     118       1   9    0210f a70f      8.190 "
test,1583576567284101888,9," |  9  |   5377       5   5373       0 |   5    0      5189       184 |   2   9    0    1 210f |    1.739       0       4       0       4      9      9      0   5166     207       2   9    1210f a70f      6.480 "
