test,1583575356531699968,10," | 10  |    534       5    506       0 |   5    0       498         8 |   2   5    0    0 9c0f |    2.777       0       4       0       4      5      5      0    490      16       2   5    09c0f a70f     30.240 "
test,1583575356510780928,12," | 12  |    534       5    532       0 |   5    0       527         5 |   1   5    0    0 9c0f |    2.044       0       5       0       5      5      5      0    517      15       1   5    09c0f a70f      8.970 "
test,1583575356512745984,13," | 13  |    534       5    530       0 |   5    0       523         7 |   1   5    0    0 9c0f |    2.014       0       5       0       5      5      5      0    515      15       1   5    09c0f a70f     11.130 "
test,1583575356511864064,15," | 15  |    534       5    532       0 |   5    0       513        19 |   2   5    0    0 9c0f |    2.777       0       5       0       5      5      5      0    491      41       2   5    09c0f a70f      9.570 "
test,1583575356518074112,16," | 16  |    534       5    530       0 |   5    0       507        23 |   5   5    0    0 9c0f |    4.943       0       5       0       5      5      5      0    499      31       5   5    09c0f a70f     13.290 "
test,1583575356516345088,17," | 17  |    534       5    530       0 |   5    0       523         7 |   5   5    0    0 9c0f |    4.211       0       5       0       5      5      5      0    507      23       4   5    09c0f a70f     10.260 "
test,1583575356520435968,18," | 18  |    534       5    529       0 |   5    0       496        33 |   6   5    0    0 9c0f |    4.943       0       5       0       5      5      5      0    474      55       5   5    09c0f a70f     11.730 "
test,1583575356513238016,19," | 19  |    534       5    529       1 |   5    0       525         5 |   5   5    0    0 9c0f |    4.211       0       5       0       5      5      5      0    508      22       4   5    09c0f a70f     11.130 "
test,1583575356532811008,1," |  1  |    534       4    531       0 |   0    9       520        11 |   0   1    5    1 820f |    0           0       0       0       8      0      0      0    516      15       0   1    1820f a70f     30.210 "
test,1583575356515620096,22," | 22  |    534       5    528       0 |   5    0       523         5 |   6   5    0    0 9c0f |    4.943       0       5       0       5      5      5      0    501      27       5   5    09c0f a70f     11.100 "
test,1583575356514348032,23," | 23  |    534       5    472       0 |   5    0       470         2 |   4   5    0    0 9c0f |    4.211       0       5       0       5      5      5      0    466       6       4   5    09c0f a70f     12.540 "
test,1583575356513942016,24," | 24  |    534       5    530       0 |   5    0       526         4 |   5   5    0    0 9c0f |    4.943       0       5       0       5      5      5      0    517      13       5   5    09c0f a70f     11.040 "
test,1583575356522748928,26," | 26  |    534       5    530       0 |   5    0       527         3 |   4   5    0    0 9c0f |    4.211       0       5       0       5      5      5      0    518      12       4   5    09c0f a70f     10.290 "
test,1583575356519321088,27," | 27  |    534       5    532       0 |   5    0       518        14 |   5   5    0    0 9c0f |    3.479       0       5       0       5      5      5      0    496      36       3   5    09c0f a70f     13.290 "
test,1583575356533090048,28," | 28  |    534       5    530       0 |   5    0       487        43 |   2  35    0    0 860f |    2.777       0       4       0       4     35     35      0    474      56       2  35    0860f a70f     30.390 "
test,1583575356522139904,29," | 29  |    534       5    530       2 |   4    0       472        60 |   4   5    0    0 9c0f |    4.241       0       5       0       5      5      5      0    443      89       4   5    09c0f a70f     14.010 "
test,1583575356510307072,30," | 30  |    534       5    530       0 |   5    0       525         5 |   1  35    0    0 860f |    2.075       0       5       0       5     35     35      0    514      16       1  35    0860f a70f      8.160 "
test,1583575356509246208,35," | 35  |    534       5    530       0 |   5    0       509        21 |   2  35    0    1 860f |    1.770       0       4       0       4     35     35      0    504      26       2  35    1860f a70f      6.510 "
test,1583575356513421056,40," | 40  |    534       5    518       8 |   5    0       485        41 |   2  48    0    0 c90f |    2.044       0       5       0       5     48     48      0    468      58       1  48    0c90f a70f      9.570 "
test,1583575356512140032,41," | 41  |    534       5    511       9 |   5    0       516         4 |   1  48    0    0 c90f |    2.044       0       5       0       5     48     48      0    505      15       1  48    0c90f a70f      8.820 "
test,1583575356526189056,42," | 42  |    534       5    520      10 |   5    0       512        18 |   1  48    0    0 c90f |    2.044       0       5       0       5     48     48      0    500      30       1  48    0c90f a70f     10.260 "
test,1583575356512552960,44," | 44  |    534       5    521       9 |   5    0       521         9 |   1  48    0    0 c90f |    2.075       0       5       0       5     48     48      0    509      21       1  48    0c90f a70f     10.440 "
test,1583575356515990016,45," | 45  |    534       5    523       7 |   5    0       505        25 |   1  48    0    0 c90f |    2.044       0       5       0       5     48     48      0    497      33       1  48    0c90f a70f      9.720 "
test,1583575356515011072,46," | 46  |    534       5    514       9 |   5    0       508        15 |   2  48    0    0 c90f |    2.075       0       5       0       5     48     48      0    498      25       1  48    0c90f a70f      9.750 "
test,1583575356521505024,47," | 47  |    534       5    521       9 |   5    0       511        19 |   1  48    0    0 c90f |    2.044       0       5       0       5     48     48      0    505      25       1  48    0c90f a70f      9.690 "
test,1583575356517330944,48," | 48  |    534       5    456       7 |   4    0       450        13 |   2  48    0    1 c90f |    1.739       0       4       0       4     48     48      0    437      26       2  48    1c90f a70f      8.640 "
test,1583575356509808128,49," | 49  |    534       5    524       0 |   5    1       514        10 |   1  53    5    0 560f |    2.075       0       5       0       5     53     53      0    512      12       1  53    0560f a70f      8.160 "
test,1583575356511485184,51," | 51  |    534       5    525       0 |   5    0       521         4 |   2   5    0    0 9c0f |    2.746       0       5       0       5      5      5      0    521       4       2   5    09c0f a70f      8.970 "
test,1583575356517746944,52," | 52  |    534       5    521       5 |   5    0       498        28 |   5   5    0    0 9c0f |    4.943       0       5       0       5      5      5      0    488      38       5   5    09c0f a70f     12.540 "
test,1583575356509991936,53," | 53  |    534       5    508       0 |   4    1       486        22 |   8  53    5    1 560f |    1.770       0       4       0       4     53     53      0    483      25       2  53    1560f a70f      6.510 "
test,1583575356522324992,54," | 54  |    534       5    526       0 |   5    0       521         5 |   2   5    0    0 9c0f |    2.716       0       5       0       5      5      5      0    509      17       2   5    09c0f a70f     11.100 "
test,1583575356511694080,55," | 55  |    534       5    513       0 |   5    1       493        20 |   1  53    5    0 560f |    2.044       0       5       0       5     53     53      0    493      20       1  53    0560f a70f      8.280 "
test,1583575356511138048,56," | 56  |    534       5    516       0 |   5    0       503        13 |   2   5    0    0 9c0f |    2.716       0       5       0       5      5      5      0    498      18       2   5    09c0f a70f      8.940 "
test,1583575356514134016,57," | 57  |    534       5    471       0 |   5    0       452        19 |   3   5    0    0 9c0f |    3.479       0       5       0       5      5      5      0    427      44       3   5    09c0f a70f      9.660 "
test,1583575356514801920,58," | 58  |    534       5    525       0 |   3    0       518         7 |   4   5    0    0 9c0f |    3.479       0       5       0       5      5      5      0    508      17       3   5    09c0f a70f     11.130 "
test,1583575356509051136,5," |  5  |    534       5    532       0 |   4    0       487        45 |   2   5    0    1 9c0f |    1.739       0       4       0       4      5      5      0    474      58       2   5    19c0f a70f      6.510 "
test,1583575356515321088,60," | 60  |    534       5    525       0 |   5    0       496        29 |   3   5    0    0 9c0f |    3.448       0       5       0       5      5      5      0    494      31       3   5    09c0f a70f      9.570 "
test,1583575356516812032,61," | 61  |    534       5    524       0 |   5    0       507        17 |   4   5    0    0 9c0f |    3.479       0       5       0       5      5      5      0    492      32       3   5    09c0f a70f     10.230 "
test,1583575356512962048,7," |  7  |    534       5    531       0 |   5    0       522         9 |   2   5    0    0 9c0f |    2.746       0       5       0       5      5      5      0    521      10       2   5    09c0f a70f     11.130 "
test,1583575356514596096,9," |  9  |    534       5    530       0 |   5    0       506        24 |   2   5    0    0 9c0f |    2.746       0       5       0       5      5      5      0    504      26       2   5    09c0f a70f     11.100 "
