test,1583576661788044032,10," | 10  |   5755       5   5727       0 |   5    0      5636        91 |   1  51    0    0 200f |    2.014       0       5       0       5     51     51      0   5565     162       1  51    0200f a70f      8.250 "
test,1583576661793263872,12," | 12  |   5755       5   5719      34 |   5    0      5689        64 |   2  51    0    0 200f |    2.746       0       5       0       5     51     51      0   5589     164       2  51    0200f a70f      8.970 "
test,1583576661790544896,13," | 13  |   5755       5   5751       0 |   5    0      5704        47 |   1  51    0    0 200f |    2.044       0       5       0       5     51     51      0   5637     114       1  51    0200f a70f      8.190 "
test,1583576661791404032,15," | 15  |   5755       5   5710      43 |   5    0      5528       225 |   3  51    0    0 200f |    2.777       0       5       0       5     51     51      0   5264     489       2  51    0200f a70f      9.720 "
test,1583576661787502080,16," | 16  |   5755       5   5751       0 |   5    0      5546       205 |   1  17    0    0 d70f |    1.983       0       5       0       5     17     17      0   5387     364       1  17    0d70f a70f      8.220 "
test,1583576661790747904,17," | 17  |   5755       5   5744       7 |   4    0      5681        70 |   2  17    0    1 d70f |    3.204       0       4       0       4     17     17      0   5512     239       4  17    1d70f a70f      8.640 "
test,1583576661795606016,18," | 18  |   5755       5   5750       0 |   5    0      5431       319 |   2  17    0    0 d70f |    2.716       0       5       0       5     17     17      0   5205     545       2  17    0d70f a70f      9.660 "
test,1583576661812439808,19," | 19  |   5755       4   5740      11 |   2    2      5645       106 |  17  19   17    1 330f |   10.253       0       2       0       2     19     19      0   5489     262      14  19    1330f a70f     30.270 "
test,1583576661787822848,1," |  1  |   5755       4   5752       0 |   5    0      5603       149 |   1  51    0    0 200f |    2.716       0       5       0       5     51     51      0   5565     187       1  51    0200f a70f      8.940 "
test,1583576661792156928,22," | 22  |   5755       5   5749       0 |   5    0      5699        50 |   1  17    0    0 d70f |    2.685       0       5       0       5     17     17      0   5441     308       2  17    0d70f a70f      8.880 "
test,1583576661788769024,23," | 23  |   5755       5   5693       0 |   5    0      5668        25 |   2  17    0    0 d70f |    2.716       0       5       0       5     17     17      0   5554     139       2  17    0d70f a70f      8.910 "
test,1583576661788433920,24," | 24  |   5755       5   5749       2 |   5    0      5692        59 |   2  17    0    0 d70f |    2.746       0       5       0       5     17     17      0   5541     210       2  17    0d70f a70f      8.970 "
test,1583576661789921024,26," | 26  |   5755       5   5749       2 |   5    0      5727        24 |   1  17    0    0 d70f |    2.014       0       5       0       5     17     17      0   5620     131       1  17    0d70f a70f      8.850 "
test,1583576661810159872,27," | 27  |   5755       5   5753       0 |   4    5      5590       163 |   6  17   19    0 d70f |    4.943       0       4       0       4     17     17      0   5360     393       5  17    0d70f a70f     30.210 "
test,1583576661789607168,28," | 28  |   5755       4   5744       7 |   5    0      5286       465 |   1  17    0    0 d70f |    2.014       0       5       0       5     17     17      0   5065     686       1  17    0d70f a70f      8.220 "
test,1583576661795425792,29," | 29  |   5755       3   5745       8 |   4    1      5079       674 |   1  19   17    0 330f |    2.044       0       5       0       5     19     19      0   4836     917       1  19    0330f a70f     12.270 "
test,1583576661790172928,30," | 30  |   5755       5   5748       3 |   5    0      5676        75 |   2  17    0    0 d70f |    2.746       0       5       0       5     17     17      0   5466     285       2  17    0d70f a70f      8.790 "
test,1583576661791091968,35," | 35  |   5755       5   5748       3 |   5    0      5479       272 |   2  17    0    0 d70f |    3.448       0       5       0       5     17     17      0   5354     397       3  17    0d70f a70f      9.630 "
test,1583576661799025152,40," | 40  |   5755       5   5673      74 |   4    0      5397       350 |   2  17    0    0 d70f |    4.180       0       5       0       5     17     17      0   5263     484       4  17    0d70f a70f     11.070 "
test,1583576661793719040,41," | 41  |   5755       5   5682      59 |   5    0      5693        48 |   1  17    0    0 d70f |    3.479       0       5       0       5     17     17      0   5557     184       3  17    0d70f a70f     11.040 "
test,1583576661797000960,42," | 42  |   5755       5   5689      62 |   4    0      5639       112 |   2  17    0    0 d70f |    3.448       0       5       0       5     17     17      0   5518     233       3  17    0d70f a70f     10.950 "
test,1583576661793477888,44," | 44  |   5755       5   5694      57 |   4    0      5636       115 |   2  17    0    0 d70f |    3.479       0       5       0       5     17     17      0   5527     224       3  17    0d70f a70f      9.720 "
test,1583576661792325120,45," | 45  |   5755       5   5708      43 |   4    0      5571       180 |   2  17    0    0 d70f |    2.716       0       5       0       5     17     17      0   5467     284       2  17    0d70f a70f     10.380 "
test,1583576661810728192,46," | 46  |   5755       5   5687      57 |   5    0      5485       259 |   2  17    0    0 d70f |    4.180       0       4       0       4     17     17      0   5391     353       4  17    0d70f a70f     30.390 "
test,1583576661792658176,47," | 47  |   5755       5   5694      57 |   5    0      5562       189 |   2  17    0    0 d70f |    3.479       0       5       0       5     17     17      0   5471     280       3  17    0d70f a70f     10.980 "
test,1583576661800126976,48," | 48  |   5755       5   5629      55 |   3    0      5565       119 |   2  17    0    0 d70f |    3.448       0       5       0       5     17     17      0   5468     216       3  17    0d70f a70f     11.070 "
test,1583576661809937920,49," | 49  |   5755       5   5745       0 |   5    0      5636       109 |   2  61    0    0 4c0f |    2.746       0       1       0       1     61     61      0   5598     147       2  61    04c0f a70f     30.360 "
test,1583576661786706944,51," | 51  |   5755       5   5746       0 |   4    0      5688        58 |   2  51    0    1 200f |    1.770       0       4       0       4     51     51      0   5669      77       2  51    1200f a70f      6.510 "
test,1583576661791644928,52," | 52  |   5755       5   5720      27 |   5    0      5471       276 |   3  17    0    0 d70f |    2.685       0       5       0       5     17     17      0   5365     382       2  17    0d70f a70f      8.910 "
test,1583576661807969024,53," | 53  |   5755       5   5729       0 |   0    3      5427       302 |   0  53   61    1 a60f |    0           0       0       0       8      0      0      0   5369     360       0  53    1a60f a70f     30.210 "
test,1583576661790947072,54," | 54  |   5755       5   5747       0 |   5    0      5650        97 |   2  51    0    0 200f |    3.509       0       5       0       5     51     51      0   5558     189       3  51    0200f a70f      9.570 "
test,1583576661809734144,55," | 55  |   5755       5   5734       0 |   5    0      5516       218 |   2  61    0    0 4c0f |    2.777       0       1       0       1     61     61      0   5472     262       2  61    04c0f a70f     30.330 "
test,1583576661787293952,56," | 56  |   5755       5   5737       0 |   5    0      5652        85 |   1  51    0    0 200f |    2.075       0       5       0       5     51     51      0   5584     153       1  51    0200f a70f      8.130 "
test,1583576661797502976,57," | 57  |   5755       5   5692       0 |   2    7      5548       144 |   3  17   61    0 d70f |    3.479       0       5       0       5     17     17      0   5206     486       3  17    0d70f a70f      9.510 "
test,1583576661810504960,58," | 58  |   5755       5   5746       0 |   5    3      5667        79 |   1  61   51    0 4c0f |    1.983       0       2       0       2     61     61      0   5431     315       1  61    04c0f a70f     30.390 "
test,1583576661793085952,5," |  5  |   5755       5   5753       0 |   5    0      5237       516 |   2  51    0    0 200f |    2.777       0       5       0       5     51     51      0   5137     616       2  51    0200f a70f      8.970 "
test,1583576661793991168,60," | 60  |   5755       5   5746       0 |   5    0      5383       363 |   1  51    0    0 200f |    2.044       0       5       0       5     51     51      0   5270     476       1  51    0200f a70f      8.250 "
test,1583576661811675904,61," | 61  |   5755       5   5745       0 |   4    3      5483       262 |  17  61   51    1 4c0f |    1.739       0       2       0       2     61     61      0   5290     455       2  61    14c0f a70f     30.300 "
test,1583576661789009920,7," |  7  |   5755       5   5752       0 |   5    0      5664        88 |   1  51    0    0 200f |    2.044       0       5       0       5     51     51      0   5628     124       1  51    0200f a70f      9.000 "
test,1583576661789239040,9," |  9  |   5755       5   5751       0 |   5    0      5554       197 |   2  51    0    0 200f |    2.746       0       5       0       5     51     51      0   5529     222       2  51    0200f a70f      8.940 "
