test,1583576689291603200,10," | 10  |   5865       5   5837       0 |   5    4      5743        94 |   2  61    7    0 340f |    3.509       0       5       0       5     61     61      0   5671     166       3  61    0340f a70f      9.570 "
test,1583576689301469952,12," | 12  |   5865       5   5829      34 |   5    0      5799        64 |   1   7    0    0 490f |    2.014       0       5       0       5      7      7      0   5698     165       1   7    0490f a70f      8.070 "
test,1583576689287121152,13," | 13  |   5865       5   5861       0 |   5    0      5813        48 |   1   7    0    0 490f |    2.014       0       5       0       5      7      7      0   5746     115       1   7    0490f a70f      8.220 "
test,1583576689292279040,15," | 15  |   5865       5   5820      43 |   5    0      5633       230 |   2   7    0    0 490f |    2.716       0       5       0       5      7      7      0   5369     494       2   7    0490f a70f      8.940 "
test,1583576689295344128,16," | 16  |   5865       5   5861       0 |   5    0      5649       212 |   3  61    0    0 340f |    3.509       0       5       0       5     61     61      0   5486     375       3  61    0340f a70f     11.790 "
test,1583576689291774976,17," | 17  |   5865       5   5853       8 |   5    0      5786        75 |   3  61    0    0 340f |    3.448       0       5       0       5     61     61      0   5614     247       3  61    0340f a70f     11.100 "
test,1583576689296706048,18," | 18  |   5865       5   5860       0 |   5    0      5539       321 |   4  61    0    0 340f |    3.479       0       5       0       5     61     61      0   5311     549       3  61    0340f a70f      9.570 "
test,1583576689293242880,19," | 19  |   5865       5   5849      12 |   5    0      5750       111 |   3  61    0    0 340f |    4.211       0       5       0       5     61     61      0   5590     271       4  61    0340f a70f     11.820 "
test,1583576689292807168,1," |  1  |   5865       4   5862       0 |   5    0      5709       153 |   1   7    0    0 490f |    2.685       0       5       0       5      7      7      0   5671     191       1   7    0490f a70f      8.760 "
test,1583576689289797120,22," | 22  |   5865       5   5859       0 |   5    0      5808        51 |   3  61    0    0 340f |    3.479       0       5       0       5     61     61      0   5543     316       3  61    0340f a70f      9.690 "
test,1583576689291239936,23," | 23  |   5865       5   5803       0 |   5    0      5778        25 |   2  61    0    0 340f |    2.746       0       5       0       5     61     61      0   5661     142       2  61    0340f a70f     11.130 "
test,1583576689290720000,24," | 24  |   5865       5   5859       2 |   5    0      5799        62 |   4  61    0    0 340f |    3.448       0       5       0       5     61     61      0   5648     213       3  61    0340f a70f      9.660 "
test,1583576689290919936,26," | 26  |   5865       5   5859       2 |   5    0      5836        25 |   2  61    0    0 340f |    2.746       0       5       0       5     61     61      0   5728     133       2  61    0340f a70f      9.720 "
test,1583576689311665920,27," | 27  |   5865       5   5863       0 |   5    0      5696       167 |   3  61    0    0 340f |    3.479       0       4       0       4     61     61      0   5464     399       3  61    0340f a70f     30.360 "
test,1583576689293557760,28," | 28  |   5865       5   5853       8 |   4    0      5381       480 |   1  35    0    0 e10f |    2.075       0       5       0       5     35     35      0   5157     704       1  35    0e10f a70f      8.880 "
test,1583576689310777856,29," | 29  |   5865       4   5855       8 |   3    0      5182       681 |   6  61    0    0 340f |    4.211       0       2       0       2     61     61      0   4935     928       4  61    0340f a70f     30.360 "
test,1583576689288537088,30," | 30  |   5865       5   5858       3 |   5    0      5784        77 |   1  35    0    0 e10f |    2.044       0       5       0       5     35     35      0   5570     291       1  35    0e10f a70f      8.100 "
test,1583576689287753216,35," | 35  |   5865       5   5858       3 |   5    0      5585       276 |   2  35    0    1 e10f |    1.739       0       4       0       4     35     35      0   5457     404       2  35    1e10f a70f      6.480 "
test,1583576689315584000,40," | 40  |   5865       5   5783      74 |   1    4      5504       353 |   1  47   61    0 370f |    2.014       0       1       0       1     47     47      0   5366     491       1  47    0370f a70f     30.360 "
test,1583576689309474048,41," | 41  |   5865       5   5792      59 |   1    2      5802        49 |   1  47   61    0 370f |    2.014       0       1       0       1     47     47      0   5663     188       1  47    0370f a70f     30.390 "
test,1583576689312500992,42," | 42  |   5865       5   5799      62 |   1    4      5747       114 |   1  47   61    0 370f |    2.044       0       1       0       1     47     47      0   5625     236       1  47    0370f a70f     30.390 "
test,1583576689311002112,44," | 44  |   5865       5   5804      57 |   1    5      5745       116 |   1  47   61    0 370f |    2.044       0       1       0       1     47     47      0   5634     227       1  47    0370f a70f     30.360 "
test,1583576689311471104,45," | 45  |   5865       5   5818      43 |   1    3      5679       182 |   2  47   61    0 370f |    2.014       0       1       0       1     47     47      0   5574     287       1  47    0370f a70f     30.330 "
test,1583576689309750016,46," | 46  |   5865       5   5797      57 |   1    0      5591       263 |   1  47    0    0 370f |    2.044       0       1       0       1     47     47      0   5495     359       1  47    0370f a70f     30.390 "
test,1583576689312686080,47," | 47  |   5865       5   5804      57 |   1    3      5671       190 |   2  47   61    1 370f |    1.739       0       1       0       1     47     47      0   5578     283       2  47    1370f a70f     30.300 "
test,1583576689312017920,48," | 48  |   5865       5   5739      55 |   1    4      5673       121 |   1  47   61    0 370f |    1.983       0       1       0       1     47     47      0   5574     220       1  47    0370f a70f     30.360 "
test,1583576689288766976,49," | 49  |   5865       5   5855       0 |   4    0      5744       111 |   2  49    0    1 650f |    1.739       0       4       0       4     49     49      0   5706     149       2  49    1650f a70f      6.480 "
test,1583576689289419008,51," | 51  |   5865       5   5856       0 |   5    0      5793        63 |   2  61    0    0 340f |    2.746       0       5       0       5     61     61      0   5775      81       2  61    0340f a70f      9.000 "
test,1583576689307204864,52," | 52  |   5865       5   5830      27 |   0    6      5575       282 |   0  52   61    1 da0f |    0           0       0       0       8      0      0      0   5468     389       0  52    1da0f a70f     30.150 "
test,1583576689290572800,53," | 53  |   5865       5   5839       0 |   5    0      5528       311 |   1  49    0    0 650f |    2.014       0       5       0       5     49     49      0   5468     371       1  49    0650f a70f      8.070 "
test,1583576689304184832,54," | 54  |   5865       5   5857       0 |   5    7      5760        97 |   1  61    7    0 340f |   10.009       0       5       0       5     61     61      0   5667     190      12  61    0340f a70f     19.320 "
test,1583576689289577984,55," | 55  |   5865       5   5844       0 |   5    0      5625       219 |   1  49    0    0 650f |    2.014       0       5       0       5     49     49      0   5580     264       1  49    0650f a70f      8.070 "
test,1583576689295015936,56," | 56  |   5865       5   5847       0 |   5    0      5760        87 |   1  61    0    0 340f |    2.044       0       5       0       5     61     61      0   5691     156       1  61    0340f a70f      8.100 "
test,1583576689292084992,57," | 57  |   5865       5   5802       0 |   5    0      5656       146 |   1  61    0    0 340f |    1.983       0       5       0       5     61     61      0   5305     497       1  61    0340f a70f      8.190 "
test,1583576689310311168,58," | 58  |   5865       5   5856       0 |   4    8      5776        80 |   3  49   61    0 650f |    2.746       0       3       0       3     49     49      0   5536     320       2  49    0650f a70f     30.300 "
test,1583576689294799104,5," |  5  |   5865       5   5863       0 |   5    0      5340       523 |   2   7    0    0 490f |    2.716       0       5       0       5      7      7      0   5239     624       2   7    0490f a70f      9.630 "
test,1583576689292481024,60," | 60  |   5865       5   5856       0 |   5    0      5489       367 |   2  61    0    0 340f |    2.777       0       5       0       5     61     61      0   5372     484       2  61    0340f a70f      9.630 "
test,1583576689300312064,61," | 61  |   5865       5   5855       0 |   2    4      5588       267 |   7  61   49    1 340f |   14.556       0       4       0       4     61     61      0   5391     464      20  61    1340f a70f     18.870 "
test,1583576689288388864,7," |  7  |   5865       5   5862       0 |   5    0      5773        89 |   2   7    0    1 490f |    1.739       0       4       0       4      7      7      0   5737     125       2   7    1490f a70f      6.480 "
test,1583576689289079808,9," |  9  |   5865       5   5861       0 |   5    0      5661       200 |   1   7    0    0 490f |    2.014       0       5       0       5      7      7      0   5636     225       1   7    0490f a70f      8.160 "
