test,1583575359016494080,10," | 10  |    544       5    516       0 |   2    1       508         8 |   1   7   35    0 6a0f |    2.075       0       5       0       5      7      7      0    500      16       1   7    06a0f a70f      8.880 "
test,1583575359011620096,12," | 12  |    544       5    542       0 |   5    0       537         5 |   1   7    0    0 6a0f |    2.044       0       5       0       5      7      7      0    527      15       1   7    06a0f a70f      8.250 "
test,1583575359009360128,13," | 13  |    544       5    540       0 |   5    0       533         7 |   1   7    0    0 6a0f |    2.014       0       5       0       5      7      7      0    525      15       1   7    06a0f a70f      8.190 "
test,1583575359015059968,15," | 15  |    544       5    542       0 |   5    0       523        19 |   2   7    0    0 6a0f |    2.777       0       5       0       5      7      7      0    501      41       2   7    06a0f a70f      8.970 "
test,1583575359032655104,16," | 16  |    544       5    540       0 |   1    7       516        24 |   1  41   35    0 490f |    2.044       0       3       0       3     41     41      0    508      32       1  41    0490f a70f     30.360 "
test,1583575359033757952,17," | 17  |    544       5    540       0 |   1    9       533         7 |   1  41   30    0 490f |    1.983       0       1       0       1     41     41      0    517      23       1  41    0490f a70f     30.300 "
test,1583575359012660992,18," | 18  |    544       5    539       0 |   5    0       506        33 |   2  35    0    0 130f |    2.746       0       5       0       5     35     35      0    484      55       2  35    0130f a70f      9.660 "
test,1583575359014315008,19," | 19  |    544       5    539       1 |   5    0       535         5 |   5  35    0    0 130f |    4.241       0       5       0       5     35     35      0    518      22       4  35    0130f a70f     10.440 "
test,1583575359013104896,1," |  1  |    544       4    541       0 |   5    0       530        11 |   1   7    0    0 6a0f |    2.716       0       5       0       5      7      7      0    525      16       1   7    06a0f a70f      8.940 "
test,1583575359011810048,22," | 22  |    544       5    538       0 |   5    0       533         5 |   1  35    0    0 130f |    2.044       0       5       0       5     35     35      0    511      27       1  35    0130f a70f      8.970 "
test,1583575359012258048,23," | 23  |    544       5    482       0 |   5    0       480         2 |   2  35    0    0 130f |    3.509       0       5       0       5     35     35      0    476       6       3  35    0130f a70f      9.600 "
test,1583575359017876992,24," | 24  |    544       5    540       0 |   5    0       536         4 |   4  35    0    0 130f |    2.746       0       5       0       5     35     35      0    527      13       2  35    0130f a70f      8.970 "
test,1583575359014600960,26," | 26  |    544       5    540       0 |   5    0       537         3 |   2  35    0    0 130f |    3.540       0       5       0       5     35     35      0    528      12       3  35    0130f a70f      9.750 "
test,1583575359014070016,27," | 27  |    544       5    542       0 |   5    0       527        15 |   6  35    0    0 130f |    4.272       0       5       0       5     35     35      0    506      36       4  35    0130f a70f     10.500 "
test,1583575359032886016,28," | 28  |    544       4    540       0 |   5    1       496        44 |   1  30   35    0 b80f |    2.044       0       3       0       3     30     30      0    483      57       1  30    0b80f a70f     30.390 "
test,1583575359029608960,29," | 29  |    544       4    540       2 |   0    7       480        62 |   0  29   35    1 530f |    0           0       0       0       8      0      0      0    451      91       0  29    1530f a70f     30.180 "
test,1583575359029942016,30," | 30  |    544       5    540       0 |   1    1       535         5 |  20  30   35    1 b80f |    3.814       0       1       0       1     30     30      0    524      16       5  30    1b80f a70f     30.300 "
test,1583575359013842176,35," | 35  |    544       5    540       0 |   2    3       519        21 |  11  35   30    1 130f |    1.770       0       4       0       4     35     35      0    514      26       2  35    1130f a70f      8.670 "
test,1583575359016283136,40," | 40  |    544       5    528       8 |   2    8       495        41 |   1  41   44    0 490f |    1.983       0       5       0       5     41     41      0    478      58       1  41    0490f a70f      8.190 "
test,1583575359011166976,41," | 41  |    544       5    521       9 |   1    5       526         4 |   3  41   44    1 490f |    1.770       0       4       0       4     41     41      0    515      15       2  41    1490f a70f      7.230 "
test,1583575359010426112,42," | 42  |    544       5    530      10 |   2    7       522        18 |   1  41   44    0 490f |    2.044       0       5       0       5     41     41      0    510      30       1  41    0490f a70f      8.190 "
test,1583575359029382912,44," | 44  |    544       5    531       9 |   0    4       530        10 |   0  44   35    1 930f |    0           0       0       0       8      0      0      0    518      22       0  44    1930f a70f     30.150 "
test,1583575359033185024,45," | 45  |    544       5    533       7 |   1    4       515        25 |   4  41   44    0 490f |    2.716       0       4       0       4     41     41      0    506      34       2  41    0490f a70f     30.390 "
test,1583575359011346176,46," | 46  |    544       5    524       9 |   2    4       518        15 |   1  41   44    0 490f |    2.014       0       5       0       5     41     41      0    508      25       1  41    0490f a70f      8.190 "
test,1583575359012022016,47," | 47  |    544       5    531       9 |   2    6       521        19 |   1  41   44    0 490f |    1.983       0       5       0       5     41     41      0    515      25       1  41    0490f a70f      8.190 "
test,1583575359031779072,48," | 48  |    544       5    466       7 |   2    7       460        13 |   2  41   44    0 490f |    2.746       0       4       0       4     41     41      0    447      26       2  41    0490f a70f     30.330 "
test,1583575359014853120,49," | 49  |    544       5    534       0 |   5    0       523        11 |   2  55    0    0 e40f |    2.075       0       5       0       5     55     55      0    521      13       1  55    0e40f a70f      8.310 "
test,1583575359031074048,51," | 51  |    544       5    535       0 |   4    0       531         4 |   6  35    0    0 130f |    7.171       0       4       0       4     35     35      0    531       4       8  35    0130f a70f     30.360 "
test,1583575359022703872,52," | 52  |    544       5    531       5 |   5    0       508        28 |   5  35    0    0 130f |    3.509       0       5       0       5     35     35      0    498      38       3  35    0130f a70f     10.440 "
test,1583575359009819136,53," | 53  |    544       5    518       0 |   5    0       496        22 |   1  55    0    0 e40f |    2.075       0       5       0       5     55     55      0    492      26       1  55    0e40f a70f      8.310 "
test,1583575359008811008,54," | 54  |    544       5    536       0 |   5    0       531         5 |   1   7    0    0 6a0f |    2.075       0       5       0       5      7      7      0    519      17       1   7    06a0f a70f      8.250 "
test,1583575359009538816,55," | 55  |    544       5    523       0 |   4    0       503        20 |   2  55    0    1 e40f |    1.739       0       4       0       4     55     55      0    503      20       2  55    1e40f a70f      6.480 "
test,1583575359015220992,56," | 56  |    544       5    526       0 |   5    0       513        13 |   3  35    0    0 130f |    5.004       0       5       0       5     35     35      0    508      18       5  35    0130f a70f     11.070 "
test,1583575359019314176,57," | 57  |    544       5    481       0 |   5    0       462        19 |   2  35    0    0 130f |    4.241       0       5       0       5     35     35      0    437      44       4  35    0130f a70f     11.160 "
test,1583575359033332992,58," | 58  |    544       5    535       0 |   4    2       528         7 |   5  35   55    0 130f |   10.833       0       1       0       1     35     35      0    517      18      13  35    0130f a70f     30.360 "
test,1583575359013540864,5," |  5  |    544       5    542       0 |   5    0       497        45 |   2   7    0    0 6a0f |    2.746       0       5       0       5      7      7      0    484      58       2   7    06a0f a70f      8.880 "
test,1583575359015459072,60," | 60  |    544       5    535       0 |   5    0       504        31 |   3  35    0    0 130f |    4.974       0       5       0       5     35     35      0    503      32       5  35    0130f a70f     11.160 "
test,1583575359032337920,61," | 61  |    544       5    534       0 |   5    0       517        17 |   4  35    0    0 130f |    5.004       0       4       0       4     35     35      0    501      33       5  35    0130f a70f     30.360 "
test,1583575359009010176,7," |  7  |    544       5    541       0 |   5    0       532         9 |   2   7    0    1 6a0f |    1.739       0       4       0       4      7      7      0    531      10       2   7    16a0f a70f      6.480 "
test,1583575359009992960,9," |  9  |    544       5    540       0 |   5    0       515        25 |   1   7    0    0 6a0f |    2.044       0       5       0       5      7      7      0    513      27       1   7    06a0f a70f      8.190 "
