test,1583576551540333056,10," | 10  |   5314       5   5286       0 |   1    4      5201        85 |  12  12   13    0 8e0f |    3.479       0       5       0       5     12     12      0   5135     151       3  12    08e0f a70f      9.690 "
test,1583576551536939008,12," | 12  |   5314       5   5289      23 |   4    0      5254        58 |   5  12    0    1 8e0f |    1.739       0       4       0       4     12     12      0   5161     151       2  12    18e0f a70f      7.920 "
test,1583576551555502848,13," | 13  |   5314       5   5310       0 |   0    9      5264        46 |   0  13   12    1 650f |   10.253       0       2       0       2     13     13      0   5201     109      14  13    1650f a70f     30.180 "
test,1583576551539941120,15," | 15  |   5314       5   5281      31 |   5    0      5102       210 |   1  12    0    0 8e0f |    1.983       0       5       0       5     12     12      0   4857     455       1  12    08e0f a70f      9.510 "
test,1583576551538393856,16," | 16  |   5314       5   5310       0 |   5    0      5123       187 |   2  22    0    0 830f |    2.807       0       5       0       5     22     22      0   4977     333       2  22    0830f a70f      8.940 "
test,1583576551539175936,17," | 17  |   5314       5   5303       7 |   5    0      5244        66 |   3  22    0    0 830f |    2.807       0       5       0       5     22     22      0   5086     224       2  22    0830f a70f      9.030 "
test,1583576551535415808,18," | 18  |   5314       5   5309       0 |   5    0      5011       298 |   1  22    0    0 830f |    2.044       0       5       0       5     22     22      0   4803     506       1  22    0830f a70f      8.250 "
test,1583576551541960960,19," | 19  |   5314       5   5299      11 |   5    0      5219        91 |   3  22    0    0 830f |    3.509       0       5       0       5     22     22      0   5071     239       3  22    0830f a70f      9.690 "
test,1583576551537988864,1," |  1  |   5314       4   5311       0 |   5    0      5178       133 |   3  12    0    0 8e0f |    3.387       0       5       0       5     12     12      0   5140     171       2  12    08e0f a70f     10.230 "
test,1583576551538683904,22," | 22  |   5314       5   5308       0 |   4    0      5262        46 |   4  22    0    1 830f |    1.770       0       4       0       4     22     22      0   5027     281       2  22    1830f a70f      6.510 "
test,1583576551543324928,23," | 23  |   5314       5   5252       0 |   5    0      5229        23 |   1  22    0    0 830f |    2.075       0       5       0       5     22     22      0   5122     130       1  22    0830f a70f      9.720 "
test,1583576551535725056,24," | 24  |   5314       5   5308       2 |   5    0      5257        53 |   2  22    0    0 830f |    2.044       0       5       0       5     22     22      0   5119     191       1  22    0830f a70f      8.880 "
test,1583576551539747072,26," | 26  |   5314       5   5308       2 |   5    0      5288        22 |   1  22    0    0 830f |    2.075       0       5       0       5     22     22      0   5193     117       1  22    0830f a70f     10.440 "
test,1583576551543777024,27," | 27  |   5314       5   5312       0 |   4    0      5161       151 |   6  22    0    0 830f |    2.777       0       5       0       5     22     22      0   4947     365       2  22    0830f a70f     10.440 "
test,1583576551541452800,28," | 28  |   5314       5   5304       6 |   5    0      4877       433 |   4  22    0    0 830f |    3.509       0       5       0       5     22     22      0   4676     634       3  22    0830f a70f     10.440 "
test,1583576551542172928,29," | 29  |   5314       5   5305       7 |   5    0      4687       625 |   4  22    0    0 830f |    3.540       0       5       0       5     22     22      0   4463     849       3  22    0830f a70f     10.350 "
test,1583576551539550976,30," | 30  |   5314       5   5308       2 |   5    0      5239        71 |   4  22    0    0 830f |    3.540       0       5       0       5     22     22      0   5046     264       3  22    0830f a70f      9.600 "
test,1583576551542884096,35," | 35  |   5314       5   5308       2 |   5    0      5061       249 |   4  22    0    0 830f |    3.479       0       5       0       5     22     22      0   4945     365       3  22    0830f a70f     10.260 "
test,1583576551540695808,40," | 40  |   5314       5   5232      74 |   5    0      4977       329 |   2  22    0    0 830f |    2.746       0       5       0       5     22     22      0   4853     453       2  22    0830f a70f      8.940 "
test,1583576551558093056,41," | 41  |   5314       5   5241      59 |   5    0      5259        41 |   4  22    0    0 830f |    3.509       0       4       0       4     22     22      0   5133     167       3  22    0830f a70f     30.390 "
test,1583576551549582080,42," | 42  |   5314       5   5248      62 |   5    0      5202       108 |   1  22    0    0 830f |    2.777       0       5       0       5     22     22      0   5092     218       2  22    0830f a70f      8.880 "
test,1583576551547348992,44," | 44  |   5314       5   5253      57 |   5    0      5206       104 |   2  22    0    0 830f |    2.807       0       5       0       5     22     22      0   5104     206       2  22    0830f a70f      8.970 "
test,1583576551546530048,45," | 45  |   5314       5   5267      43 |   5    0      5148       162 |   3  22    0    0 830f |    3.509       0       5       0       5     22     22      0   5051     259       3  22    0830f a70f      9.540 "
test,1583576551556931072,46," | 46  |   5314       5   5246      57 |   0    9      5069       234 |   0  46   22    1 d60f |    0           0       0       0       8      0      0      0   4982     321       0  46    1d60f a70f     30.180 "
test,1583576551541249024,47," | 47  |   5314       5   5253      57 |   5    0      5132       178 |   2  22    0    0 830f |    2.777       0       5       0       5     22     22      0   5047     263       2  22    0830f a70f      9.000 "
test,1583576551550375936,48," | 48  |   5314       5   5188      55 |   5    0      5127       116 |   1  22    0    0 830f |    3.479       0       5       0       5     22     22      0   5038     205       3  22    0830f a70f      9.540 "
test,1583576551544809216,49," | 49  |   5314       5   5304       0 |   5    0      5203       101 |   3  12    0    0 8e0f |    2.716       0       5       0       5     12     12      0   5165     139       2  12    08e0f a70f      8.910 "
test,1583576551540864000,51," | 51  |   5314       5   5305       0 |   5    0      5255        50 |   1  13    0    0 650f |    1.983       0       5       0       5     13     13      0   5236      69       1  13    0650f a70f     12.240 "
test,1583576551537520896,52," | 52  |   5314       5   5280      26 |   5    0      5053       253 |   2  22    0    0 830f |    2.777       0       5       0       5     22     22      0   4951     355       2  22    0830f a70f      8.970 "
test,1583576551539350016,53," | 53  |   5314       5   5288       0 |   5    0      5001       287 |   4  12    0    0 8e0f |    3.417       0       5       0       5     12     12      0   4945     343       3  12    08e0f a70f      9.600 "
test,1583576551535058944,54," | 54  |   5314       5   5306       0 |   5    0      5213        93 |   1  12    0    0 8e0f |    1.983       0       5       0       5     12     12      0   5130     176       1  12    08e0f a70f      8.130 "
test,1583576551537312000,55," | 55  |   5314       5   5293       0 |   5    0      5093       200 |   3  12    0    0 8e0f |    2.685       0       5       0       5     12     12      0   5050     243       2  12    08e0f a70f      8.910 "
test,1583576551553550848,56," | 56  |   5314       5   5296       0 |   5    0      5216        80 |   2  13    0    0 650f |    1.983       0       5       0       5     13     13      0   5151     145       1  13    0650f a70f     12.870 "
test,1583576551541058048,57," | 57  |   5314       5   5251       0 |   4    0      5117       134 |   2  22    0    0 830f |    2.044       0       5       0       5     22     22      0   4801     450       1  22    0830f a70f     10.410 "
test,1583576551544122880,58," | 58  |   5314       5   5305       0 |   5    0      5230        75 |   2  12    0    0 8e0f |    1.983       0       5       0       5     12     12      0   5005     300       1  12    08e0f a70f      8.760 "
test,1583576551560506112,5," |  5  |   5314       5   5312       0 |   0    4      4837       475 |   0   5   13    1 790f |    0           0       0       0       8      0      0      0   4746     566       0   5    1790f a70f     30.180 "
test,1583576551545967104,60," | 60  |   5314       5   5305       0 |   5    0      4967       338 |   2  13    0    0 650f |    2.746       0       5       0       5     13     13      0   4864     441       2  13    0650f a70f     12.990 "
test,1583576551558406144,61," | 61  |   5314       5   5304       0 |   5    0      5060       244 |   2  12    0    0 8e0f |    2.746       0       4       0       4     12     12      0   4882     422       2  12    08e0f a70f     30.390 "
test,1583576551538868992,7," |  7  |   5314       5   5311       0 |   5    0      5228        83 |   4  12    0    0 8e0f |    2.685       0       5       0       5     12     12      0   5194     117       2  12    08e0f a70f     10.260 "
test,1583576551536678912,9," |  9  |   5314       5   5310       0 |   5    0      5127       183 |   2  12    0    0 8e0f |    2.746       0       5       0       5     12     12      0   5104     206       2  12    08e0f a70f      8.970 "
