test,1583576521534571008,10," | 10  |   5194       5   5166       0 |   5    5      5082        84 |   1  54   49    0 ed0f |    2.075       0       5       0       5     54     54      0   5017     149       1  54    0ed0f a70f      8.250 "
test,1583576521545766144,12," | 12  |   5194       5   5172      20 |   5    0      5137        55 |   1  54    0    0 ed0f |    2.075       0       5       0       5     54     54      0   5046     146       1  54    0ed0f a70f      8.880 "
test,1583576521535851008,13," | 13  |   5194       5   5190       0 |   5    3      5146        44 |   1  54   49    0 ed0f |    2.044       0       5       0       5     54     54      0   5082     108       1  54    0ed0f a70f      9.030 "
test,1583576521541594880,15," | 15  |   5194       5   5164      28 |   5    0      4987       205 |   2  54    0    0 ed0f |    2.777       0       5       0       5     54     54      0   4751     441       2  54    0ed0f a70f      9.600 "
test,1583576521534912000,16," | 16  |   5194       5   5190       0 |   5    0      5006       184 |   2  16    0    1 a80f |    1.770       0       4       0       4     16     16      0   4866     324       2  16    1a80f a70f      6.510 "
test,1583576521544184064,17," | 17  |   5194       5   5183       7 |   5    0      5127        63 |   6  42    0    0 420f |    4.943       0       5       0       5     42     42      0   4975     215       5  42    0420f a70f     11.040 "
test,1583576521538256896,18," | 18  |   5194       5   5189       0 |   5    0      4894       295 |   2  42    0    0 420f |    2.746       0       5       0       5     42     42      0   4689     500       2  42    0420f a70f      8.850 "
test,1583576521545548800,19," | 19  |   5194       5   5179      11 |   5    0      5104        86 |   7  42    0    0 420f |    5.676       0       5       0       5     42     42      0   4957     233       6  42    0420f a70f     11.670 "
test,1583576521536791040,1," |  1  |   5194       4   5191       0 |   5    0      5059       132 |   1  54    0    0 ed0f |    2.716       0       5       0       5     54     54      0   5021     170       1  54    0ed0f a70f      8.970 "
test,1583576521541230080,22," | 22  |   5194       5   5188       0 |   5    0      5143        45 |   3  42    0    0 420f |    3.509       0       5       0       5     42     42      0   4909     279       3  42    0420f a70f      9.540 "
test,1583576521535378944,23," | 23  |   5194       5   5132       0 |   5    0      5110        22 |   1  16    0    0 a80f |    2.044       0       5       0       5     16     16      0   5004     128       1  16    0a80f a70f      8.100 "
test,1583576521538624000,24," | 24  |   5194       5   5188       2 |   5    0      5137        53 |   2  42    0    0 420f |    3.509       0       5       0       5     42     42      0   5001     189       3  42    0420f a70f      9.660 "
test,1583576521540165888,26," | 26  |   5194       5   5188       2 |   5    0      5169        21 |   5  42    0    0 420f |    4.180       0       5       0       5     42     42      0   5076     114       4  42    0420f a70f     10.380 "
test,1583576521558326016,27," | 27  |   5194       5   5192       0 |   2    5      5047       145 |   4  16   42    0 a80f |    2.746       0       4       0       4     16     16      0   4834     358       2  16    0a80f a70f     30.360 "
test,1583576521557792000,28," | 28  |   5194       5   5184       6 |   0    7      4768       422 |   0  28   42    1 860f |    0           0       0       0       8      0      0      0   4568     622       0  28    1860f a70f     30.180 "
test,1583576521558824960,29," | 29  |   5194       4   5185       7 |   1    2      4586       606 |   5  16   42    0 a80f |    3.479       0       2       0       2     16     16      0   4368     824       3  16    0a80f a70f     30.360 "
test,1583576521537421056,30," | 30  |   5194       5   5188       2 |   4    0      5120        70 |   2  30    0    1 850f |    1.770       0       4       0       4     30     30      0   4932     258       2  30    1850f a70f      6.510 "
test,1583576521537636096,35," | 35  |   5194       5   5188       2 |   5    0      4942       248 |   1  30    0    0 850f |    1.983       0       5       0       5     30     30      0   4830     360       1  30    0850f a70f      8.190 "
test,1583576521549437952,40," | 40  |   5194       5   5112      74 |   5    0      4869       317 |   1  42    0    0 420f |    2.044       0       5       0       5     42     42      0   4747     439       1  42    0420f a70f      8.130 "
test,1583576521541861888,41," | 41  |   5194       5   5121      59 |   5    0      5141        39 |   1  42    0    0 420f |    2.044       0       5       0       5     42     42      0   5018     162       1  42    0420f a70f      8.130 "
test,1583576521547143936,42," | 42  |   5194       5   5128      62 |   4    0      5083       107 |   4  42    0    1 420f |    1.739       0       4       0       4     42     42      0   4975     215       2  42    1420f a70f      6.510 "
test,1583576521537189120,44," | 44  |   5194       5   5133      57 |   5    0      5087       103 |   1  42    0    0 420f |    2.044       0       5       0       5     42     42      0   4989     201       1  42    0420f a70f      8.130 "
test,1583576521536518144,45," | 45  |   5194       5   5147      43 |   5    0      5029       161 |   1  42    0    0 420f |    1.953       0       5       0       5     42     42      0   4934     256       1  42    0420f a70f      8.190 "
test,1583576521547700992,46," | 46  |   5194       5   5126      57 |   5    0      4955       228 |   1  42    0    0 420f |    1.983       0       5       0       5     42     42      0   4869     314       1  42    0420f a70f      8.190 "
test,1583576521538834176,47," | 47  |   5194       5   5133      57 |   5    0      5015       175 |   1  42    0    0 420f |    1.983       0       5       0       5     42     42      0   4931     259       1  42    0420f a70f      8.220 "
test,1583576521543945984,48," | 48  |   5194       5   5068      55 |   5    0      5008       115 |   1  42    0    0 420f |    1.983       0       5       0       5     42     42      0   4920     203       1  42    0420f a70f      8.220 "
test,1583576521535110912,49," | 49  |   5194       5   5184       0 |   4    0      5084       100 |   2  49    0    1 b50f |    1.739       0       4       0       4     49     49      0   5047     137       2  49    1b50f a70f      6.480 "
test,1583576521543014144,51," | 51  |   5194       5   5185       0 |   5    0      5136        49 |   4  49    0    0 b50f |    8.605       0       5       0       5     49     49      0   5117      68      10  49    0b50f a70f     14.730 "
test,1583576521543165952,52," | 52  |   5194       5   5160      26 |   5    0      4943       243 |   2  16    0    0 a80f |    2.777       0       5       0       5     16     16      0   4842     344       2  16    0a80f a70f      8.910 "
test,1583576521536278016,53," | 53  |   5194       5   5168       0 |   5    0      4886       282 |   1  49    0    0 b50f |    1.983       0       5       0       5     49     49      0   4831     337       1  49    0b50f a70f      8.220 "
test,1583576521538059008,54," | 54  |   5194       5   5186       0 |   4    0      5097        89 |   2  54    0    1 ed0f |    1.739       0       4       0       4     54     54      0   5014     172       2  54    1ed0f a70f      6.480 "
test,1583576521536998144,55," | 55  |   5194       5   5173       0 |   5    0      4979       194 |   1  49    0    0 b50f |    2.044       0       5       0       5     49     49      0   4937     236       1  49    0b50f a70f      8.880 "
test,1583576521541409024,56," | 56  |   5194       5   5176       0 |   5    0      5097        79 |   3  49    0    0 b50f |    7.873       0       5       0       5     49     49      0   5033     143       9  49    0b50f a70f     13.830 "
test,1583576521548721152,57," | 57  |   5194       5   5131       0 |   1    5      4997       134 |   2  49   42    0 b50f |   10.040       0       5       0       5     49     49      0   4687     444      12  49    0b50f a70f     16.110 "
test,1583576521540598016,58," | 58  |   5194       4   5185       0 |   5    0      5112        73 |   1  49    0    0 b50f |    2.014       0       5       0       5     49     49      0   4891     294       1  49    0b50f a70f      8.970 "
test,1583576521542377984,5," |  5  |   5194       5   5192       0 |   5    0      4729       463 |   2  54    0    0 ed0f |    2.777       0       5       0       5     54     54      0   4640     552       2  54    0ed0f a70f      9.690 "
test,1583576521551659008,60," | 60  |   5194       5   5185       0 |   5    0      4855       330 |   5  49    0    0 b50f |    9.307       0       5       0       5     49     49      0   4754     431      11  49    0b50f a70f     15.390 "
test,1583576521543524864,61," | 61  |   5194       4   5184       0 |   5    0      4947       237 |   2  49    0    0 b50f |    4.241       0       5       0       5     49     49      0   4771     413       4  49    0b50f a70f     11.010 "
test,1583576521534333952,7," |  7  |   5194       5   5191       0 |   5    0      5111        80 |   1  54    0    0 ed0f |    2.044       0       5       0       5     54     54      0   5078     113       1  54    0ed0f a70f      8.220 "
test,1583576521536036096,9," |  9  |   5194       5   5190       0 |   5    0      5009       181 |   1  54    0    0 ed0f |    2.044       0       5       0       5     54     54      0   4986     204       1  54    0ed0f a70f      9.000 "
