test,1583576586537729024,10," | 10  |   5454       5   5426       0 |   5    0      5339        87 |   1   1    0    0 820f |    1.373       0       5       0       5      1      1      0   5270     156       1   1    0820f a70f      7.620 "
test,1583576586540219904,12," | 12  |   5454       5   5425      27 |   5    0      5392        60 |   1   1    0    0 820f |    1.312       0       5       0       5      1      1      0   5298     154       1   1    0820f a70f      8.280 "
test,1583576586535566080,13," | 13  |   5454       5   5450       0 |   5    0      5404        46 |   1   1    0    0 820f |    1.342       0       5       0       5      1      1      0   5338     112       1   1    0820f a70f      7.590 "
test,1583576586541708032,15," | 15  |   5454       5   5417      35 |   5    0      5238       214 |   2   1    0    0 820f |    2.044       0       5       0       5      1      1      0   4990     462       2   1    0820f a70f      9.000 "
test,1583576586557841152,16," | 16  |   5454       5   5450       0 |   5    0      5257       193 |   5  22    0    0 e50f |    4.272       0       2       0       2     22     22      0   5106     344       4  22    0e50f a70f     30.390 "
test,1583576586560307968,17," | 17  |   5454       5   5443       7 |   5    0      5383        67 |   5  22    0    0 e50f |    3.540       0       2       0       2     22     22      0   5222     228       3  22    0e50f a70f     30.390 "
test,1583576586559330816,18," | 18  |   5454       5   5449       0 |   5    0      5145       304 |   1  22    0    0 e50f |    2.014       0       3       0       3     22     22      0   4928     521       1  22    0e50f a70f     30.360 "
test,1583576586560610048,19," | 19  |   5454       5   5439      11 |   5    0      5355        95 |   4  22    0    0 e50f |    3.540       0       2       0       2     22     22      0   5204     246       3  22    0e50f a70f     30.330 "
test,1583576586534230016,1," |  1  |   5454       4   5451       0 |   5    0      5313       138 |   2   1    0    1 820f |    1.739       0       4       0       4      1      1      0   5275     176       2   1    1820f a70f      6.480 "
test,1583576586561275904,22," | 22  |   5454       5   5448       0 |   5    0      5401        47 |   3  22    0    1 e50f |    1.770       0       2       0       2     22     22      0   5158     290       2  22    1e50f a70f     30.300 "
test,1583576586559576064,23," | 23  |   5454       5   5392       0 |   5    0      5368        24 |   4  22    0    0 e50f |    3.540       0       2       0       2     22     22      0   5260     132       3  22    0e50f a70f     30.300 "
test,1583576586559025920,24," | 24  |   5454       5   5448       2 |   4    0      5396        54 |   5  22    0    0 e50f |    2.777       0       2       0       2     22     22      0   5252     198       2  22    0e50f a70f     30.330 "
test,1583576586557202176,26," | 26  |   5454       5   5448       2 |   0    8      5426        24 |   0  26   22    1 910f |    0           0       0       0       8      0      0      0   5327     123       0  26    1910f a70f     30.150 "
test,1583576586559964928,27," | 27  |   5454       5   5452       0 |   5    0      5295       157 |   6  22    0    0 e50f |    5.737       0       1       0       1     22     22      0   5074     378       6  22    0e50f a70f     30.360 "
test,1583576586554964992,28," | 28  |   5454       5   5444       6 |   0    8      5005       445 |   0  28   22    1 dd0f |    0           0       0       0       8      0      0      0   4798     652       0  28    1dd0f a70f     30.180 "
test,1583576586558469120,29," | 29  |   5454       4   5445       7 |   0    3      4812       640 |   0  29   22    1 100f |    0           0       0       0       8      0      0      0   4577     875       0  29    1100f a70f     30.180 "
test,1583576586536994816,30," | 30  |   5454       5   5448       2 |   5    0      5376        74 |   2  22    0    0 e50f |    2.807       0       5       0       5     22     22      0   5178     272       2  22    0e50f a70f      8.850 "
test,1583576586537198080,35," | 35  |   5454       5   5448       2 |   5    0      5193       257 |   1  22    0    0 e50f |    2.044       0       5       0       5     22     22      0   5074     376       1  22    0e50f a70f      8.160 "
test,1583576586558281984,40," | 40  |   5454       4   5372      74 |   4    0      5108       338 |   4  47    0    0 3c0f |    2.777       0       4       0       4     47     47      0   4981     465       2  47    03c0f a70f     30.390 "
test,1583576586538033920,41," | 41  |   5454       5   5381      59 |   5    0      5398        42 |   2  47    0    0 3c0f |    2.044       0       5       0       5     47     47      0   5268     172       1  47    03c0f a70f      8.910 "
test,1583576586539587072,42," | 42  |   5454       5   5388      62 |   5    0      5340       110 |   2  47    0    0 3c0f |    2.014       0       5       0       5     47     47      0   5229     221       1  47    03c0f a70f      8.250 "
test,1583576586538563072,44," | 44  |   5454       5   5393      57 |   5    0      5343       107 |   1  47    0    0 3c0f |    2.014       0       5       0       5     47     47      0   5238     212       1  47    03c0f a70f      8.100 "
test,1583576586542131968,45," | 45  |   5454       5   5407      43 |   5    0      5279       171 |   2  47    0    0 3c0f |    2.777       0       5       0       5     47     47      0   5179     271       2  47    03c0f a70f      8.820 "
test,1583576586537511936,46," | 46  |   5454       5   5386      57 |   5    0      5202       241 |   1  47    0    0 3c0f |    2.044       0       5       0       5     47     47      0   5113     330       1  47    03c0f a70f      9.000 "
test,1583576586535778048,47," | 47  |   5454       5   5393      57 |   4    0      5268       182 |   2  47    0    1 3c0f |    1.739       0       4       0       4     47     47      0   5180     270       2  47    13c0f a70f      6.510 "
test,1583576586546468096,48," | 48  |   5454       4   5328      55 |   5    0      5266       117 |   2  47    0    0 3c0f |    2.044       0       5       0       5     47     47      0   5174     209       1  47    03c0f a70f      8.130 "
test,1583576586541069056,49," | 49  |   5454       5   5444       0 |   5    0      5340       104 |   1  53    0    0 3a0f |    2.075       0       5       0       5     53     53      0   5302     142       1  53    03a0f a70f      8.130 "
test,1583576586534942976,51," | 51  |   5454       5   5445       0 |   5    0      5393        52 |   1   1    0    0 820f |    1.373       0       5       0       5      1      1      0   5374      71       1   1    0820f a70f      7.470 "
test,1583576586558718976,52," | 52  |   5454       5   5419      27 |   5    0      5185       261 |   5  22    0    0 e50f |    3.540       0       2       0       2     22     22      0   5081     365       3  22    0e50f a70f     30.270 "
test,1583576586536623104,53," | 53  |   5454       5   5428       0 |   4    0      5136       292 |   2  53    0    1 3a0f |    1.770       0       4       0       4     53     53      0   5080     348       2  53    13a0f a70f      6.510 "
test,1583576586535942144,54," | 54  |   5454       5   5446       0 |   5    0      5349        97 |   1   1    0    0 820f |    1.342       0       5       0       5      1      1      0   5265     181       1   1    0820f a70f      7.560 "
test,1583576586548041216,55," | 55  |   5454       5   5433       0 |   5    0      5229       204 |   1  53    0    0 3a0f |    2.014       0       5       0       5     53     53      0   5186     247       1  53    03a0f a70f      8.250 "
test,1583576586538262016,56," | 56  |   5454       5   5436       0 |   5    0      5356        80 |   2   1    0    0 820f |    2.105       0       5       0       5      1      1      0   5290     146       2   1    0820f a70f      8.910 "
test,1583576586556216064,57," | 57  |   5454       5   5391       0 |   0    0      5253       138 |   0   0    0    0    0 |    0           0       0       0       8      0      0      0   4930     461       0   0    0   0 a70f     30.360 "
test,1583576586544913920,58," | 58  |   5454       5   5445       0 |   5    0      5370        75 |   4   1    0    0 820f |    3.509       0       5       0       5      1      1      0   5140     305       4   1    0820f a70f      9.630 "
test,1583576586538932992,5," |  5  |   5454       5   5452       0 |   5    0      4967       485 |   2   1    0    0 820f |    2.014       0       5       0       5      1      1      0   4873     579       2   1    0820f a70f      8.220 "
test,1583576586531162112,60," | 60  |   5454       5   5445       0 |   5    0      5097       348 |   2   1    0    0 820f |    2.075       0       5       0       5      1      1      0   4991     454       2   1    0820f a70f      8.220 "
test,1583576586543214080,61," | 61  |   5454       5   5444       0 |   5    0      5194       250 |   2   1    0    0 820f |    2.777       0       5       0       5      1      1      0   5008     436       3   1    0820f a70f     10.440 "
test,1583576586534562048,7," |  7  |   5454       5   5451       0 |   5    0      5366        85 |   1   1    0    0 820f |    1.342       0       5       0       5      1      1      0   5331     120       1   1    0820f a70f      7.440 "
test,1583576586536392960,9," |  9  |   5454       5   5450       0 |   5    0      5263       187 |   1   1    0    0 820f |    1.312       0       5       0       5      1      1      0   5240     210       1   1    0820f a70f      7.530 "
