test,1583576722812047872,10," | 10  |   5999       5   5971       0 |   5    0      5875        96 |   1  58    0    0 410f |    2.075       0       4       0       4     58     58      0   5801     170       1  58    0410f a70f     30.390 "
test,1583576722808552960,12," | 12  |   5999       5   5963      34 |   5    0      5932        65 |   1  58    0    0 410f |    2.044       0       4       0       4     58     58      0   5831     166       1  58    0410f a70f     30.390 "
test,1583576722806595072,13," | 13  |   5999       5   5995       0 |   5    0      5945        50 |   3  58    0    0 410f |    2.807       0       3       0       3     58     58      0   5875     120       2  58    0410f a70f     30.270 "
test,1583576722813837056,15," | 15  |   5999       5   5954      43 |   5    0      5761       236 |   2  58    0    0 410f |    2.746       0       4       0       4     58     58      0   5492     505       2  58    0410f a70f     30.360 "
test,1583576722811053056,16," | 16  |   5999       5   5995       0 |   1    7      5777       218 |   2  46   24    0 900f |    7.934       0       1       0       1     46     46      0   5613     382       9  46    0900f a70f     30.300 "
test,1583576722812264960,17," | 17  |   5999       3   5987       8 |   3    4      5918        77 |   2  24   58    0 aa0f |    4.180       0       2       0       2     24     24      0   5740     255       4  24    0aa0f a70f     30.360 "
test,1583576722790978816,18," | 18  |   5999       5   5994       0 |   4    2      5672       322 |   2  24   58    0 aa0f |    1.983       0       5       0       5     24     24      0   5438     556       1  24    0aa0f a70f      8.190 "
test,1583576722816300032,19," | 19  |   5999       3   5983      12 |   3    1      5884       111 |   1  24   58    0 aa0f |    3.479       0       3       0       3     24     24      0   5720     275       3  24    0aa0f a70f     30.390 "
test,1583576722805005056,1," |  1  |   5999       4   5996       0 |   0    9      5838       158 |   0   1   58    1 590f |    0           0       0       0       8      0      0      0   5799     197       0   1    1590f a70f     30.180 "
test,1583576722792012032,22," | 22  |   5999       5   5993       0 |   4    2      5942        51 |   1  24   58    0 aa0f |    1.983       0       5       0       5     24     24      0   5671     322       1  24    0aa0f a70f      8.910 "
test,1583576722792694016,23," | 23  |   5999       5   5937       0 |   5    0      5912        25 |   2  58    0    0 410f |    5.004       0       5       0       5     58     58      0   5795     142       5  58    0410f a70f     11.040 "
test,1583576722788416000,24," | 24  |   5999       5   5993       2 |   4    2      5933        62 |   2  24   58    1 aa0f |    1.739       0       4       0       4     24     24      0   5777     218       2  24    1aa0f a70f      6.510 "
test,1583576722809651968,26," | 26  |   5999       5   5993       2 |   2    3      5969        26 |   8  58   24    0 410f |   10.131       0       2       0       2     58     58      0   5860     135      12  58    0410f a70f     30.300 "
test,1583576722812496896,27," | 27  |   5999       5   5997       0 |   5    0      5825       172 |   3  24    0    0 aa0f |    4.211       0       1       0       1     24     24      0   5589     408       4  24    0aa0f a70f     30.330 "
test,1583576722795151872,28," | 28  |   5999       2   5987       8 |   3    1      5507       488 |   4  35   24    0 a60f |    2.746       0       5       0       5     35     35      0   5279     716       2  35    0a60f a70f      8.940 "
test,1583576722813219072,29," | 29  |   5999       4   5989       8 |   5    0      5303       694 |   4  24    0    0 aa0f |    4.211       0       2       0       2     24     24      0   5054     943       4  24    0aa0f a70f     30.360 "
test,1583576722790803968,30," | 30  |   5999       5   5992       3 |   5    0      5912        83 |   1  35    0    0 a60f |    2.044       0       5       0       5     35     35      0   5695     300       1  35    0a60f a70f      8.220 "
test,1583576722790659072,35," | 35  |   5999       5   5992       3 |   4    0      5712       283 |   2  35    0    1 a60f |    1.739       0       4       0       4     35     35      0   5582     413       2  35    1a60f a70f      6.510 "
test,1583576722811784960,40," | 40  |   5999       5   5917      74 |   3    0      5635       356 |   2  46    0    0 900f |    2.746       0       4       0       4     46     46      0   5492     499       2  46    0900f a70f     30.360 "
test,1583576722795367936,41," | 41  |   5999       5   5926      59 |   3    2      5935        50 |   1  46   24    0 900f |    2.044       0       5       0       5     46     46      0   5794     191       1  46    0900f a70f      9.000 "
test,1583576722793210880,42," | 42  |   5999       5   5933      62 |   3    1      5879       116 |   1  46   24    0 900f |    2.044       0       5       0       5     46     46      0   5753     242       1  46    0900f a70f      9.030 "
test,1583576722792412160,44," | 44  |   5999       5   5938      57 |   3    1      5878       117 |   1  46   24    0 900f |    2.777       0       5       0       5     46     46      0   5766     229       2  46    0900f a70f      8.910 "
test,1583576722797171968,45," | 45  |   5999       5   5952      43 |   3    0      5811       184 |   2  46    0    0 900f |    2.777       0       5       0       5     46     46      0   5705     290       2  46    0900f a70f      9.600 "
test,1583576722784271872,46," | 46  |   5999       5   5931      57 |   3    0      5721       267 |   2  46    0    1 900f |    1.739       0       4       0       4     46     46      0   5622     366       2  46    1900f a70f      6.480 "
test,1583576722790286080,47," | 47  |   5999       5   5938      57 |   3    2      5803       192 |   1  46   24    0 900f |    2.075       0       5       0       5     46     46      0   5706     289       1  46    0900f a70f      8.250 "
test,1583576722792893952,48," | 48  |   5999       5   5873      55 |   2    1      5806       122 |   1  46   24    0 900f |    2.044       0       5       0       5     46     46      0   5704     224       1  46    0900f a70f      8.940 "
test,1583576722791212032,49," | 49  |   5999       5   5989       0 |   5    0      5876       113 |   1  58    0    0 410f |    2.044       0       5       0       5     58     58      0   5837     152       1  58    0410f a70f      8.100 "
test,1583576722788926976,51," | 51  |   5999       5   5990       0 |   5    0      5925        65 |   2  58    0    0 410f |    2.777       0       5       0       5     58     58      0   5906      84       2  58    0410f a70f      9.000 "
test,1583576722789359104,52," | 52  |   5999       5   5964      27 |   3    3      5695       296 |   3  24   58    0 aa0f |    1.983       0       5       0       5     24     24      0   5587     404       1  24    0aa0f a70f      8.100 "
test,1583576722784967936,53," | 53  |   5999       5   5973       0 |   5    0      5656       317 |   2  58    0    0 410f |    2.777       0       5       0       5     58     58      0   5596     377       2  58    0410f a70f      8.850 "
test,1583576722809431040,54," | 54  |   5999       5   5991       0 |   5    0      5889       102 |   1  58    0    0 410f |    2.044       0       3       0       3     58     58      0   5798     193       1  58    0410f a70f     30.390 "
test,1583576722795538944,55," | 55  |   5999       5   5978       0 |   5    0      5751       227 |   1  58    0    0 410f |    2.014       0       5       0       5     58     58      0   5705     273       1  58    0410f a70f      8.250 "
test,1583576722787947776,56," | 56  |   5999       5   5981       0 |   5    0      5892        89 |   1  58    0    0 410f |    2.075       0       5       0       5     58     58      0   5823     158       1  58    0410f a70f      8.280 "
test,1583576722798897920,57," | 57  |   5999       5   5936       0 |   5    0      5787       149 |   1  58    0    0 410f |    2.014       0       5       0       5     58     58      0   5428     508       1  58    0410f a70f      8.940 "
test,1583576722789678080,58," | 58  |   5999       5   5990       0 |   4    0      5910        80 |   5  58    0    1 410f |    1.770       0       4       0       4     58     58      0   5665     325       2  58    1410f a70f      7.230 "
test,1583576722811460096,5," |  5  |   5999       5   5997       0 |   5    0      5462       535 |   3  58    0    0 410f |    2.777       0       4       0       4     58     58      0   5357     640       2  58    0410f a70f     30.240 "
test,1583576722796704000,60," | 60  |   5999       5   5990       0 |   5    0      5611       379 |   2  58    0    0 410f |    2.777       0       5       0       5     58     58      0   5492     498       2  58    0410f a70f      9.690 "
test,1583576722789943040,61," | 61  |   5999       5   5989       0 |   5    0      5716       273 |   1  58    0    0 410f |    2.044       0       5       0       5     58     58      0   5517     472       1  58    0410f a70f      9.030 "
test,1583576722808121856,7," |  7  |   5999       5   5996       0 |   5    0      5906        90 |   3  58    0    0 410f |    2.807       0       3       0       3     58     58      0   5869     127       2  58    0410f a70f     30.300 "
test,1583576722809065984,9," |  9  |   5999       5   5995       0 |   4    3      5792       203 |   4  58    1    0 410f |    2.777       0       3       0       3     58     58      0   5766     229       2  58    0410f a70f     30.360 "
