test,1583576538034256896,10," | 10  |   5260       5   5232       0 |   5    0      5148        84 |   1   1    0    0 220f |    1.342       0       5       0       5      1      1      0   5082     150       1   1    0220f a70f      7.530 "
test,1583576538035382016,12," | 12  |   5260       5   5237      21 |   5    0      5201        57 |   1   1    0    0 220f |    1.373       0       5       0       5      1      1      0   5109     149       1   1    0220f a70f      8.340 "
test,1583576538034040064,13," | 13  |   5260       5   5256       0 |   5    0      5211        45 |   1   1    0    0 220f |    1.373       0       5       0       5      1      1      0   5147     109       1   1    0220f a70f      7.530 "
test,1583576538038014976,15," | 15  |   5260       5   5229      29 |   5    0      5050       208 |   2   1    0    0 220f |    2.044       0       5       0       5      1      1      0   4810     448       2   1    0220f a70f      9.000 "
test,1583576538036290048,16," | 16  |   5260       5   5256       0 |   5    0      5070       186 |   2  46    0    0 890f |    2.777       0       5       0       5     46     46      0   4927     329       2  46    0890f a70f      8.850 "
test,1583576538040163072,17," | 17  |   5260       5   5249       7 |   5    0      5192        64 |   2  46    0    0 890f |    2.777       0       5       0       5     46     46      0   5036     220       2  46    0890f a70f      9.570 "
test,1583576538038749952,18," | 18  |   5260       5   5255       0 |   5    0      4958       297 |   2  46    0    0 890f |    2.807       0       5       0       5     46     46      0   4751     504       2  46    0890f a70f      8.910 "
test,1583576538039782144,19," | 19  |   5260       5   5245      11 |   5    0      5167        89 |   3  46    0    0 890f |    3.479       0       5       0       5     46     46      0   5019     237       3  46    0890f a70f     11.100 "
test,1583576538033828864,1," |  1  |   5260       4   5257       0 |   5    0      5124       133 |   2   1    0    1 220f |    1.739       0       4       0       4      1      1      0   5086     171       2   1    1220f a70f      6.480 "
test,1583576538037161984,22," | 22  |   5260       5   5254       0 |   5    0      5208        46 |   2  46    0    0 890f |    2.746       0       5       0       5     46     46      0   4973     281       2  46    0890f a70f      8.940 "
test,1583576538039355904,23," | 23  |   5260       5   5198       0 |   5    0      5175        23 |   3  46    0    0 890f |    3.509       0       5       0       5     46     46      0   5069     129       3  46    0890f a70f      9.660 "
test,1583576538040502016,24," | 24  |   5260       5   5254       2 |   5    0      5203        53 |   2  46    0    0 890f |    3.479       0       5       0       5     46     46      0   5065     191       3  46    0890f a70f     10.410 "
test,1583576538045327872,26," | 26  |   5260       5   5254       2 |   5    0      5235        21 |   3  46    0    0 890f |    3.479       0       5       0       5     46     46      0   5140     116       3  46    0890f a70f      9.690 "
test,1583576538038566144,27," | 27  |   5260       5   5258       0 |   5    0      5108       150 |   3  46    0    0 890f |    3.479       0       5       0       5     46     46      0   4895     363       3  46    0890f a70f      9.690 "
test,1583576538057126912,28," | 28  |   5260       5   5250       6 |   0    6      4828       428 |   0  28   46    1  b0f |    0           0       0       0       8      0      0      0   4627     629       0  28    1 b0f a70f     30.180 "
test,1583576538058935040,29," | 29  |   5260       5   5251       7 |   4    0      4640       618 |   4  46    0    0 890f |    7.171       0       4       0       4     46     46      0   4418     840       8  46    0890f a70f     30.240 "
test,1583576538042066176,30," | 30  |   5260       5   5254       2 |   5    0      5186        70 |   6  46    0    0 890f |    4.974       0       5       0       5     46     46      0   4995     261       5  46    0890f a70f     11.760 "
test,1583576538041071872,35," | 35  |   5260       5   5254       2 |   5    0      5008       248 |   5  46    0    0 890f |    4.974       0       5       0       5     46     46      0   4893     363       5  46    0890f a70f     11.070 "
test,1583576538042211072,40," | 40  |   5260       5   5178      74 |   4    0      4927       325 |   1  46    0    0 890f |    4.211       0       5       0       5     46     46      0   4803     449       4  46    0890f a70f     11.730 "
test,1583576538039563008,41," | 41  |   5260       5   5187      59 |   5    0      5206        40 |   1  46    0    0 890f |    2.014       0       5       0       5     46     46      0   5081     165       1  46    0890f a70f      8.250 "
test,1583576538037728000,42," | 42  |   5260       4   5194      62 |   5    0      5149       107 |   1  46    0    0 890f |    2.044       0       5       0       5     46     46      0   5039     217       1  46    0890f a70f      8.820 "
test,1583576538041594880,44," | 44  |   5260       5   5199      57 |   5    0      5153       103 |   2  46    0    0 890f |    4.241       0       5       0       5     46     46      0   5053     203       4  46    0890f a70f     10.440 "
test,1583576538047343872,45," | 45  |   5260       5   5213      43 |   5    0      5094       162 |   1  46    0    0 890f |    4.211       0       5       0       5     46     46      0   4997     259       4  46    0890f a70f     10.980 "
test,1583576538041253120,46," | 46  |   5260       5   5192      57 |   4    0      5017       232 |   2  46    0    1 890f |    1.770       0       4       0       4     46     46      0   4930     319       2  46    1890f a70f      6.510 "
test,1583576538036705024,47," | 47  |   5260       5   5199      57 |   5    0      5078       178 |   1  46    0    0 890f |    2.014       0       5       0       5     46     46      0   4993     263       1  46    0890f a70f      8.970 "
test,1583576538038973952,48," | 48  |   5260       5   5134      55 |   5    0      5073       116 |   1  46    0    0 890f |    2.044       0       5       0       5     46     46      0   4984     205       1  46    0890f a70f      8.970 "
test,1583576538036921856,49," | 49  |   5260       5   5250       0 |   4    0      5149       101 |   5  49    0    1 180f |    1.739       0       4       0       4     49     49      0   5111     139       2  49    1180f a70f      6.480 "
test,1583576538034435072,51," | 51  |   5260       5   5251       0 |   5    0      5201        50 |   1   1    0    0 220f |    1.342       0       5       0       5      1      1      0   5182      69       1   1    0220f a70f      7.440 "
test,1583576538040678144,52," | 52  |   5260       5   5226      26 |   4    0      5004       248 |   3  46    0    0 890f |    3.448       0       5       0       5     46     46      0   4902     350       3  46    0890f a70f     10.470 "
test,1583576538042674944,53," | 53  |   5260       5   5234       0 |   5    0      4949       285 |   1  49    0    0 180f |    1.983       0       5       0       5     49     49      0   4893     341       1  49    0180f a70f      8.190 "
test,1583576538034887168,54," | 54  |   5260       5   5252       0 |   5    0      5162        90 |   1   1    0    0 220f |    1.342       0       5       0       5      1      1      0   5078     174       1   1    0220f a70f      7.440 "
test,1583576538038281984,55," | 55  |   5260       5   5239       0 |   5    0      5043       196 |   1  49    0    0 180f |    2.014       0       5       0       5     49     49      0   5000     239       1  49    0180f a70f      8.220 "
test,1583576538035731968,56," | 56  |   5260       5   5242       0 |   1    5      5162        80 |   3   1   49    0 220f |    2.044       0       5       0       5      1      1      0   5097     145       2   1    0220f a70f      8.280 "
test,1583576538058021120,57," | 57  |   5260       5   5197       0 |   5    0      5063       134 |   4  46    0    0 890f |    9.338       0       1       0       1     46     46      0   4749     448      11  46    0890f a70f     30.360 "
test,1583576538057331968,58," | 58  |   5260       5   5251       0 |   5    5      5178        73 |   1  49    1    0 180f |    2.777       0       3       0       3     49     49      0   4952     299       2  49    0180f a70f     30.330 "
test,1583576538040320000,5," |  5  |   5260       5   5258       0 |   5    0      4789       469 |   2   1    0    0 220f |    2.105       0       5       0       5      1      1      0   4698     560       2   1    0220f a70f      8.160 "
test,1583576538035588096,60," | 60  |   5260       5   5251       0 |   2    1      4915       336 |   2   1   46    0 220f |    2.105       0       5       0       5      1      1      0   4812     439       2   1    0220f a70f      8.250 "
test,1583576538056590080,61," | 61  |   5260       5   5250       0 |   0    4      5007       243 |   0  61   49    1 d70f |    0           0       0       0       8      0      0      0   4829     421       0  61    1d70f a70f     30.060 "
test,1583576538033627904,7," |  7  |   5260       5   5257       0 |   5    0      5177        80 |   1   1    0    0 220f |    1.342       0       5       0       5      1      1      0   5143     114       1   1    0220f a70f      7.590 "
test,1583576538035083008,9," |  9  |   5260       5   5256       0 |   5    0      5075       181 |   1   1    0    0 220f |    1.342       0       5       0       5      1      1      0   5052     204       1   1    0220f a70f      7.440 "
