test,1583576657536922880,10," | 10  |   5738       5   5710       0 |   5    0      5620        90 |   2  10    0    1 d90f |    1.739       0       4       0       4     10     10      0   5549     161       2  10    1d90f a70f      6.480 "
test,1583576657561076992,12," | 12  |   5738       5   5702      34 |   1   11      5672        64 |   5  12   20    1  e0f |    1.739       0       1       0       1     12     12      0   5572     164       2  12    1 e0f a70f     30.300 "
test,1583576657540412928,13," | 13  |   5738       5   5734       0 |   5    0      5687        47 |   3  10    0    0 d90f |    3.479       0       5       0       5     10     10      0   5620     114       3  10    0d90f a70f      9.600 "
test,1583576657560698880,15," | 15  |   5738       5   5693      43 |   4    4      5511       225 |   1  20   12    0 c30f |    6.225       0       1       0       1     20     20      0   5248     488       7  20    0c30f a70f     30.390 "
test,1583576657540157952,16," | 16  |   5738       5   5734       0 |   5    0      5529       205 |   1  52    0    0  a0f |    2.807       0       5       0       5     52     52      0   5371     363       2  52    0 a0f a70f      8.970 "
test,1583576657559710976,17," | 17  |   5738       5   5727       7 |   4    0      5664        70 |   2  52    0    0  a0f |    2.807       0       4       0       4     52     52      0   5495     239       2  52    0 a0f a70f     30.330 "
test,1583576657542646784,18," | 18  |   5738       5   5733       0 |   5    0      5416       317 |   2  52    0    0  a0f |    2.807       0       5       0       5     52     52      0   5190     543       2  52    0 a0f a70f      9.660 "
test,1583576657534264064,19," | 19  |   5738       5   5723      11 |   5    0      5628       106 |   1  52    0    0  a0f |    2.044       0       5       0       5     52     52      0   5472     262       1  52    0 a0f a70f      9.690 "
test,1583576657541820928,1," |  1  |   5738       4   5735       0 |   5    0      5588       147 |   3  10    0    0 d90f |    3.448       0       5       0       5     10     10      0   5550     185       2  10    0d90f a70f      9.510 "
test,1583576657550343936,22," | 22  |   5738       5   5732       0 |   5    0      5682        50 |   2  52    0    0  a0f |    2.746       0       5       0       5     52     52      0   5424     308       2  52    0 a0f a70f      9.690 "
test,1583576657537335040,23," | 23  |   5738       5   5676       0 |   5    0      5651        25 |   1  52    0    0  a0f |    2.044       0       5       0       5     52     52      0   5537     139       1  52    0 a0f a70f      8.250 "
test,1583576657544569088,24," | 24  |   5738       5   5732       2 |   5    0      5675        59 |   1  52    0    0  a0f |    2.746       0       5       0       5     52     52      0   5524     210       2  52    0 a0f a70f      8.970 "
test,1583576657539393024,26," | 26  |   5738       5   5732       2 |   5    0      5710        24 |   1  52    0    0  a0f |    2.014       0       5       0       5     52     52      0   5603     131       1  52    0 a0f a70f      8.250 "
test,1583576657545562880,27," | 27  |   5738       4   5736       0 |   5    0      5573       163 |   2  52    0    0  a0f |    2.777       0       5       0       5     52     52      0   5344     392       2  52    0 a0f a70f      9.690 "
test,1583576657560504064,28," | 28  |   5738       5   5727       7 |   5    0      5269       465 |   6  52    0    0  a0f |    2.746       0       4       0       4     52     52      0   5049     685       2  52    0 a0f a70f     30.360 "
test,1583576657561376000,29," | 29  |   5738       5   5728       8 |   4    0      5066       670 |   2  52    0    0  a0f |    2.746       0       2       0       2     52     52      0   4823     913       2  52    0 a0f a70f     30.360 "
test,1583576657559474944,30," | 30  |   5738       5   5731       3 |   5    0      5659        75 |   5  52    0    0  a0f |    3.509       0       2       0       2     52     52      0   5450     284       3  52    0 a0f a70f     30.360 "
test,1583576657557411840,35," | 35  |   5738       5   5731       3 |   0    9      5464       270 |   0  35   52    1 140f |    0           0       0       0       8      0      0      0   5339     395       0  35    1140f a70f     30.180 "
test,1583576657540615168,40," | 40  |   5738       5   5656      74 |   4    1      5380       350 |   1  41   52    0 b90f |    2.746       0       5       0       5     41     41      0   5247     483       2  41    0b90f a70f      9.570 "
test,1583576657536706048,41," | 41  |   5738       5   5665      59 |   3    0      5676        48 |   2  41    0    1 b90f |    1.739       0       4       0       4     41     41      0   5542     182       2  41    1b90f a70f      6.510 "
test,1583576657544347904,42," | 42  |   5738       5   5672      62 |   4    0      5622       112 |   1  41    0    0 b90f |    2.746       0       5       0       5     41     41      0   5502     232       2  41    0b90f a70f      8.880 "
test,1583576657543340800,44," | 44  |   5738       5   5677      57 |   3    2      5619       115 |   2  41   52    0 b90f |    2.746       0       5       0       5     41     41      0   5510     224       2  41    0b90f a70f      9.510 "
test,1583576657561219072,45," | 45  |   5738       5   5691      43 |   4    2      5554       180 |   1  41   52    0 b90f |    1.983       0       4       0       4     41     41      0   5451     283       1  41    0b90f a70f     30.360 "
test,1583576657539547904,46," | 46  |   5738       5   5670      57 |   4    0      5469       258 |   1  41    0    0 b90f |    2.014       0       5       0       5     41     41      0   5377     350       1  41    0b90f a70f      8.220 "
test,1583576657538245888,47," | 47  |   5738       5   5677      57 |   4    1      5546       188 |   1  41   52    0 b90f |    2.014       0       5       0       5     41     41      0   5456     278       1  41    0b90f a70f      8.250 "
test,1583576657541024000,48," | 48  |   5738       5   5612      55 |   4    1      5548       119 |   1  41   52    0 b90f |    2.777       0       5       0       5     41     41      0   5452     215       2  41    0b90f a70f      9.000 "
test,1583576657539083008,49," | 49  |   5738       5   5728       0 |   5    0      5619       109 |   1  55    0    0 b20f |    2.075       0       5       0       5     55     55      0   5581     147       1  55    0b20f a70f      8.220 "
test,1583576657537100032,51," | 51  |   5738       5   5729       0 |   5    0      5671        58 |   1  10    0    0 d90f |    2.014       0       5       0       5     10     10      0   5652      77       1  10    0d90f a70f      8.220 "
test,1583576657562647040,52," | 52  |   5738       5   5703      27 |   4    0      5454       276 |   4  52    0    1  a0f |    6.134       0       1       0       1     52     52      0   5348     382       8  52    1 a0f a70f     30.300 "
test,1583576657539726848,53," | 53  |   5738       5   5712       0 |   5    0      5412       300 |   1  55    0    0 b20f |    2.075       0       5       0       5     55     55      0   5354     358       1  55    0b20f a70f      8.310 "
test,1583576657558635008,54," | 54  |   5738       5   5730       0 |   5    0      5633        97 |   3  10    0    0 d90f |    4.913       0       4       0       4     10     10      0   5541     189       5  10    0d90f a70f     30.360 "
test,1583576657538685184,55," | 55  |   5738       5   5717       0 |   4    0      5502       215 |   2  55    0    1 b20f |    1.770       0       4       0       4     55     55      0   5458     259       2  55    1b20f a70f      6.510 "
test,1583576657537532160,56," | 56  |   5738       5   5720       0 |   5    0      5635        85 |   2  10    0    0 d90f |    2.014       0       5       0       5     10     10      0   5567     153       1  10    0d90f a70f      8.220 "
test,1583576657556585984,57," | 57  |   5738       5   5675       0 |   5    0      5533       142 |   2  52    0    0  a0f |    0           0       0       0       8      0      0      0   5191     484       0  52    0 a0f a70f     30.360 "
test,1583576657561747200,58," | 58  |   5738       5   5729       0 |   5    0      5650        79 |   2  55    0    0 b20f |    2.777       0       3       0       3     55     55      0   5414     315       2  55    0b20f a70f     30.300 "
test,1583576657559953920,5," |  5  |   5738       4   5736       0 |   2    6      5223       513 |   1  12   20    0  e0f |    2.044       0       1       0       1     12     12      0   5123     613       1  12    0 e0f a70f     30.360 "
test,1583576657538465024,60," | 60  |   5738       5   5729       0 |   5    0      5367       362 |   2  10    0    0 d90f |    2.777       0       5       0       5     10     10      0   5254     475       2  10    0d90f a70f      8.970 "
test,1583576657557224960,61," | 61  |   5738       5   5728       0 |   0    0      5467       261 |   0  61    0    1 310f |    0           0       0       0       8      0      0      0   5274     454       0  61    1310f a70f     30.180 "
test,1583576657557952000,7," |  7  |   5738       5   5735       0 |   0   10      5647        88 |   0   7   10    1  b0f |    0           0       0       0       8      0      0      0   5611     124       0   7    1 b0f a70f     30.150 "
test,1583576657539966208,9," |  9  |   5738       5   5734       0 |   5    0      5538       196 |   3  10    0    0 d90f |    3.509       0       5       0       5     10     10      0   5513     221       3  10    0d90f a70f      9.720 "
