test,1583576496048289024,10," | 10  |   5092       5   5064       0 |   5    4      4982        82 |   1   9   60    0 a90f |   10.498       0       5       0       5      9      9      0   4918     146      13   9    0a90f a70f     16.530 "
test,1583576496034439168,12," | 12  |   5092       5   5072      18 |   5    0      5039        51 |   1   1    0    0 220f |    1.373       0       5       0       5      1      1      0   4949     141       1   1    0220f a70f      7.440 "
test,1583576496033377024,13," | 13  |   5092       5   5088       0 |   1   10      5048        40 |   1   1    9    0 220f |    1.373       0       5       0       5      1      1      0   4985     103       1   1    0220f a70f      7.440 "
test,1583576496043036928,15," | 15  |   5092       5   5064      26 |   5    0      4892       198 |   2   1    0    0 220f |    2.105       0       5       0       5      1      1      0   4662     428       2   1    0220f a70f      8.160 "
test,1583576496057619968,16," | 16  |   5092       5   5088       0 |   5    0      4906       182 |   3  60    0    0 900f |    4.943       0       3       0       3     60     60      0   4768     320       5  60    0900f a70f     30.300 "
test,1583576496041275904,17," | 17  |   5092       5   5081       7 |   5    0      5026        62 |   2  24    0    0 820f |    2.044       0       5       0       5     24     24      0   4877     211       1  24    0820f a70f      8.850 "
test,1583576496034029056,18," | 18  |   5092       5   5087       0 |   5    0      4793       294 |   1  24    0    0 820f |    2.075       0       5       0       5     24     24      0   4590     497       1  24    0820f a70f      8.280 "
test,1583576496039476992,19," | 19  |   5092       5   5077      11 |   4    0      5003        85 |   3  24    0    0 820f |    2.075       0       5       0       5     24     24      0   4858     230       1  24    0820f a70f      8.850 "
test,1583576496055547904,1," |  1  |   5092       4   5089       0 |   1   11      4959       130 |   8   1    9    1 220f |    5.279       0       3       0       3      1      1      0   4923     166       7   1    1220f a70f     30.300 "
test,1583576496035629056,22," | 22  |   5092       5   5086       0 |   5    0      5041        45 |   1  24    0    0 820f |    1.983       0       5       0       5     24     24      0   4809     277       1  24    0820f a70f      8.250 "
test,1583576496057428992,23," | 23  |   5092       5   5030       0 |   5    0      5008        22 |   2  60    0    0 900f |    4.211       0       3       0       3     60     60      0   4903     127       4  60    0900f a70f     30.390 "
test,1583576496034867968,24," | 24  |   5092       5   5086       2 |   5    0      5036        52 |   2  24    0    1 820f |    1.770       0       4       0       4     24     24      0   4901     187       2  24    1820f a70f      6.510 "
test,1583576496034700032,26," | 26  |   5092       5   5086       2 |   5    0      5068        20 |   1  24    0    0 820f |    2.075       0       5       0       5     24     24      0   4975     113       1  24    0820f a70f      8.310 "
test,1583576496057032192,27," | 27  |   5092       5   5090       0 |   3    1      4946       144 |   3  24   60    0 820f |    2.777       0       2       0       2     24     24      0   4737     353       2  24    0820f a70f     30.360 "
test,1583576496055996928,28," | 28  |   5092       5   5082       6 |   0    5      4673       415 |   0  28   24    1  40f |    0           0       0       0       8      0      0      0   4475     613       0  28    1 40f a70f     30.210 "
test,1583576496040378112,29," | 29  |   5092       4   5083       7 |   4    0      4496       594 |   6  24    0    0 820f |    2.807       0       5       0       5     24     24      0   4283     807       2  24    0820f a70f      9.600 "
test,1583576496037376000,30," | 30  |   5092       5   5086       2 |   5    0      5020        68 |   3  24    0    0 820f |    2.807       0       5       0       5     24     24      0   4834     254       2  24    0820f a70f      9.720 "
test,1583576496036444928,35," | 35  |   5092       5   5086       2 |   5    0      4846       242 |   2  24    0    0 820f |    2.807       0       5       0       5     24     24      0   4736     352       2  24    0820f a70f      8.880 "
test,1583576496058267136,40," | 40  |   5092       4   5010      74 |   4    0      4769       315 |   5  45    0    0 6e0f |    2.716       0       4       0       4     45     45      0   4650     434       2  45    06e0f a70f     30.360 "
test,1583576496060158976,41," | 41  |   5092       5   5019      59 |   5    0      5039        39 |   1  45    0    0 6e0f |    1.983       0       4       0       4     45     45      0   4916     162       1  45    06e0f a70f     30.300 "
test,1583576496058013952,42," | 42  |   5092       5   5026      62 |   5    0      4981       107 |   1  45    0    0 6e0f |    2.014       0       4       0       4     45     45      0   4874     214       1  45    06e0f a70f     30.360 "
test,1583576496059554048,44," | 44  |   5092       5   5031      57 |   5    0      4987       101 |   1  45    0    0 6e0f |    2.014       0       4       0       4     45     45      0   4891     197       1  45    06e0f a70f     30.360 "
test,1583576496040560128,45," | 45  |   5092       5   5045      43 |   4    0      4930       158 |   3  45    0    1 6e0f |    1.739       0       4       0       4     45     45      0   4837     251       2  45    16e0f a70f      6.480 "
test,1583576496058953984,46," | 46  |   5092       5   5024      57 |   5    0      4861       220 |   2  45    0    0 6e0f |    2.746       0       4       0       4     45     45      0   4776     305       2  45    06e0f a70f     30.240 "
test,1583576496059360000,47," | 47  |   5092       5   5031      57 |   5    0      4915       173 |   2  45    0    0 6e0f |    1.983       0       4       0       4     45     45      0   4834     254       1  45    06e0f a70f     30.270 "
test,1583576496058636800,48," | 48  |   5092       5   4966      55 |   5    0      4908       113 |   1  45    0    0 6e0f |    1.983       0       4       0       4     45     45      0   4821     200       1  45    06e0f a70f     30.270 "
test,1583576496035811840,49," | 49  |   5092       5   5082       0 |   5    0      4984        98 |   1  53    0    0 a30f |    2.044       0       5       0       5     53     53      0   4947     135       1  53    0a30f a70f      8.250 "
test,1583576496034252032,51," | 51  |   5092       5   5083       0 |   5    0      5035        48 |   3  60    0    0 900f |    1.983       0       5       0       5     60     60      0   5016      67       1  60    0900f a70f      8.220 "
test,1583576496038046976,52," | 52  |   5092       4   5058      26 |   1    4      4847       237 |   1  24   60    0 820f |    2.075       0       5       0       5     24     24      0   4748     336       1  24    0820f a70f      8.910 "
test,1583576496033669120,53," | 53  |   5092       5   5066       0 |   5    0      4790       276 |   2  53    0    1 a30f |    1.739       0       4       0       4     53     53      0   4737     329       2  53    1a30f a70f      6.480 "
test,1583576496036286208,54," | 54  |   5092       5   5084       0 |   2   10      4995        89 |   1   1    9    0 220f |    1.373       0       5       0       5      1      1      0   4914     170       1   1    0220f a70f      9.660 "
test,1583576496041703936,55," | 55  |   5092       5   5071       0 |   5    0      4879       192 |   1  53    0    0 a30f |    1.983       0       5       0       5     53     53      0   4838     233       1  53    0a30f a70f      8.190 "
test,1583576496036941056,56," | 56  |   5092       5   5074       0 |   5    0      4996        78 |   2  60    0    0 900f |    2.777       0       5       0       5     60     60      0   4933     141       2  60    0900f a70f      8.880 "
test,1583576496042321920,57," | 57  |   5092       3   5029       0 |   4    0      4898       131 |   1  60    0    0 900f |    2.044       0       5       0       5     60     60      0   4595     434       1  60    0900f a70f      8.190 "
test,1583576496029412096,58," | 58  |   5092       5   5083       0 |   1    6      5010        73 |   2   1    9    0 220f |    2.105       0       5       0       5      1      1      0   4794     289       2   1    0220f a70f      8.100 "
test,1583576496038739968,5," |  5  |   5092       5   5090       0 |   4    0      4638       452 |   2   1    0    0 220f |    2.105       0       5       0       5      1      1      0   4551     539       2   1    0220f a70f      8.130 "
test,1583576496035410944,60," | 60  |   5092       5   5083       0 |   4    0      4763       320 |   4  60    0    1 900f |    1.739       0       4       0       4     60     60      0   4665     418       2  60    1900f a70f      6.480 "
test,1583576496056422912,61," | 61  |   5092       5   5082       0 |   1    5      4851       231 |   3   1    9    0 220f |    2.044       0       4       0       4      1      1      0   4678     404       2   1    0220f a70f     30.300 "
test,1583576496038297856,7," |  7  |   5092       5   5089       0 |   2   11      5013        76 |   1   1    9    0 220f |    1.373       0       5       0       5      1      1      0   4982     107       1   1    0220f a70f      8.220 "
test,1583576496039094016,9," |  9  |   5092       5   5088       0 |   4    1      4912       176 |  17   9    1    1 a90f |   10.253       0       4       0       4      9      9      0   4889     199      14   9    1a90f a70f     14.850 "
