test,1583576526037265920,10," | 10  |   5212       5   5184       0 |   5    0      5100        84 |   1  54    0    0 670f |    1.983       0       5       0       5     54     54      0   5035     149       1  54    0670f a70f      8.940 "
test,1583576526034686976,12," | 12  |   5212       5   5190      20 |   5    0      5154        56 |   1  54    0    0 670f |    1.953       0       5       0       5     54     54      0   5063     147       1  54    0670f a70f      8.940 "
test,1583576526036616192,13," | 13  |   5212       5   5208       0 |   5    0      5164        44 |   1  54    0    0 670f |    1.983       0       5       0       5     54     54      0   5100     108       1  54    0670f a70f      8.850 "
test,1583576526039511040,15," | 15  |   5212       5   5182      28 |   5    0      5005       205 |   2  54    0    0 670f |    2.716       0       5       0       5     54     54      0   4768     442       2  54    0670f a70f      9.660 "
test,1583576526058326016,16," | 16  |   5212       5   5208       0 |   4    0      5023       185 |   2  16    0    1 eb0f |    1.770       0       2       0       2     16     16      0   4883     325       2  16    1eb0f a70f     30.300 "
test,1583576526058151936,17," | 17  |   5212       5   5201       7 |   5    2      5144        64 |   4  24   16    0 1b0f |    8.422       0       2       0       2     24     24      0   4992     216      10  24    01b0f a70f     30.360 "
test,1583576526037664768,18," | 18  |   5212       5   5207       0 |   2    9      4911       296 |   2  18   26    1 940f |    1.770       0       4       0       4     18     18      0   4706     501       2  18    1940f a70f      6.510 "
test,1583576526060561920,19," | 19  |   5212       4   5197      11 |   5    4      5121        87 |   4  24   16    0 1b0f |    8.453       0       2       0       2     24     24      0   4974     234      10  24    01b0f a70f     30.330 "
test,1583576526037067776,1," |  1  |   5212       4   5209       0 |   5    0      5077       132 |   1  54    0    0 670f |    2.685       0       5       0       5     54     54      0   5039     170       1  54    0670f a70f      8.850 "
test,1583576526057566976,22," | 22  |   5212       5   5206       0 |   1   11      5161        45 |   1  18   26    0 940f |    3.509       0       3       0       3     18     18      0   4927     279       3  18    0940f a70f     30.210 "
test,1583576526055290880,23," | 23  |   5212       5   5150       0 |   5    0      5128        22 |   1  16    0    0 eb0f |    2.075       0       3       0       3     16     16      0   5022     128       1  16    0eb0f a70f     30.390 "
test,1583576526055469056,24," | 24  |   5212       5   5206       2 |   2    5      5155        53 |  17  24   26    1 1b0f |   10.284       0       1       0       1     24     24      0   5019     189      14  24    11b0f a70f     30.270 "
test,1583576526055917056,26," | 26  |   5212       5   5206       2 |   2   11      5187        21 |  11  26   24    1 540f |    5.981       0       1       0       1     26     26      0   5094     114       8  26    1540f a70f     30.240 "
test,1583576526057764096,27," | 27  |   5212       5   5210       0 |   3    5      5064       146 |   3  54   24    0 670f |    8.575       0       2       0       2     54     54      0   4851     359      10  54    0670f a70f     30.360 "
test,1583576526047907072,28," | 28  |   5212       5   5202       6 |   4    1      4785       423 |   3  18   24    0 940f |    4.943       0       5       0       5     18     18      0   4585     623       5  18    0940f a70f     11.040 "
test,1583576526055059968,29," | 29  |   5212       4   5203       7 |   1    3      4599       611 |  11  54   24    0 670f |    0           0       0       0       8      0      0      0   4379     831       0  54    0670f a70f     30.360 "
test,1583576526041251840,30," | 30  |   5212       5   5206       2 |   5    0      5138        70 |   2  18    0    0 940f |    4.211       0       5       0       5     18     18      0   4949     259       4  18    0940f a70f     10.230 "
test,1583576526041086976,35," | 35  |   5212       5   5206       2 |   5    0      4960       248 |   2  18    0    0 940f |    4.913       0       5       0       5     18     18      0   4847     361       5  18    0940f a70f     10.950 "
test,1583576526041945856,40," | 40  |   5212       5   5130      74 |   4    3      4885       319 |   5  18   24    0 940f |    2.777       0       5       0       5     18     18      0   4763     441       2  18    0940f a70f      9.600 "
test,1583576526036871936,41," | 41  |   5212       5   5139      59 |   5    0      5159        39 |   2  18    0    0 940f |    2.777       0       5       0       5     18     18      0   5036     162       2  18    0940f a70f      8.940 "
test,1583576526037484800,42," | 42  |   5212       5   5146      62 |   5    0      5101       107 |   2  18    0    0 940f |    2.746       0       5       0       5     18     18      0   4992     216       2  18    0940f a70f      8.970 "
test,1583576526037873152,44," | 44  |   5212       5   5151      57 |   5    0      5105       103 |   2  18    0    0 940f |    2.777       0       5       0       5     18     18      0   5007     201       2  18    0940f a70f      9.000 "
test,1583576526038216192,45," | 45  |   5212       5   5165      43 |   5    0      5047       161 |   2  18    0    0 940f |    3.448       0       5       0       5     18     18      0   4952     256       3  18    0940f a70f      9.630 "
test,1583576526039713024,46," | 46  |   5212       5   5144      57 |   5    0      4973       228 |   2  18    0    0 940f |    2.746       0       5       0       5     18     18      0   4887     314       2  18    0940f a70f      8.850 "
test,1583576526038387968,47," | 47  |   5212       5   5151      57 |   5    0      5032       176 |   1  18    0    0 940f |    1.983       0       5       0       5     18     18      0   4948     260       1  18    0940f a70f      8.940 "
test,1583576526042718976,48," | 48  |   5212       5   5086      55 |   5    0      5026       115 |   2  18    0    0 940f |    2.777       0       5       0       5     18     18      0   4938     203       2  18    0940f a70f      8.940 "
test,1583576526036397824,49," | 49  |   5212       5   5202       0 |   5    0      5102       100 |   2  55    0    0 4e0f |    2.014       0       5       0       5     55     55      0   5065     137       1  55    04e0f a70f      8.970 "
test,1583576526036199936,51," | 51  |   5212       5   5203       0 |   5    0      5154        49 |   2  54    0    0 670f |    2.746       0       5       0       5     54     54      0   5135      68       2  54    0670f a70f      8.970 "
test,1583576526056431104,52," | 52  |   5212       3   5178      26 |   0   12      4959       245 |   0  52   26    1 7e0f |    0           0       0       0       8      0      0      0   4858     346       0  52    17e0f a70f     30.210 "
test,1583576526035453184,53," | 53  |   5212       5   5186       0 |   5    0      4903       283 |   1  55    0    0 4e0f |    2.044       0       5       0       5     55     55      0   4848     338       1  55    04e0f a70f      8.100 "
test,1583576526039216896,54," | 54  |   5212       5   5204       0 |   4    0      5115        89 |   4  54    0    1 670f |    1.739       0       4       0       4     54     54      0   5032     172       2  54    1670f a70f      8.640 "
test,1583576526034439168,55," | 55  |   5212       5   5191       0 |   5    0      4996       195 |   2  55    0    1 4e0f |    1.739       0       4       0       4     55     55      0   4954     237       2  55    14e0f a70f      6.480 "
test,1583576526042382080,56," | 56  |   5212       5   5194       0 |   5    0      5115        79 |   2  54    0    0 670f |    3.448       0       5       0       5     54     54      0   5051     143       3  54    0670f a70f      9.570 "
test,1583576526058823168,57," | 57  |   5212       4   5149       0 |   5    1      5015       134 |   1  26   54    0 540f |    2.014       0       3       0       3     26     26      0   4704     445       1  26    0540f a70f     30.300 "
test,1583576526038795008,58," | 58  |   5212       5   5203       0 |   4    4      5130        73 |   1  54   26    0 670f |    2.746       0       5       0       5     54     54      0   4909     294       2  54    0670f a70f     10.410 "
test,1583576526045660928,5," |  5  |   5212       5   5210       0 |   5    0      4744       466 |   2  54    0    0 670f |    2.746       0       5       0       5     54     54      0   4655     555       2  54    0670f a70f      9.600 "
test,1583576526041769984,60," | 60  |   5212       5   5203       0 |   5    0      4872       331 |   3  54    0    0 670f |    3.448       0       5       0       5     54     54      0   4771     432       3  54    0670f a70f      9.630 "
test,1583576526038969088,61," | 61  |   5212       5   5202       0 |   4    3      4964       238 |   1  54   26    0 670f |    1.953       0       5       0       5     54     54      0   4788     414       1  54    0670f a70f     11.070 "
test,1583576526034995968,7," |  7  |   5212       5   5209       0 |   5    0      5129        80 |   1  54    0    0 670f |    2.014       0       5       0       5     54     54      0   5096     113       1  54    0670f a70f      8.100 "
test,1583576526035869952,9," |  9  |   5212       5   5208       0 |   5    0      5027       181 |   1  54    0    0 670f |    2.014       0       5       0       5     54     54      0   5004     204       1  54    0670f a70f      8.910 "
