test,1583576480533110016,10," | 10  |   5030       5   5002       0 |   5    0      4920        82 |   2  10    0    1  30f |    1.739       0       4       0       4     10     10      0   4857     145       2  10    1 30f a70f      6.480 "
test,1583576480535657984,12," | 12  |   5030       5   5013      15 |   5    0      4979        49 |   2  10    0    0  30f |    2.716       0       5       0       5     10     10      0   4890     138       2  10    0 30f a70f      8.880 "
test,1583576480533772032,13," | 13  |   5030       5   5026       0 |   5    0      4986        40 |   1  10    0    0  30f |    2.014       0       5       0       5     10     10      0   4923     103       1  10    0 30f a70f      8.100 "
test,1583576480538820096,15," | 15  |   5030       5   5005      23 |   5    0      4832       196 |   3  10    0    0  30f |    3.479       0       5       0       5     10     10      0   4606     422       3  10    0 30f a70f      9.510 "
test,1583576480538113024,16," | 16  |   5030       5   5026       0 |   5    0      4845       181 |   1  52    0    0 520f |    2.044       0       5       0       5     52     52      0   4709     317       1  52    0520f a70f     10.320 "
test,1583576480538646016,17," | 17  |   5030       5   5019       7 |   5    0      4966        60 |   2  52    0    0 520f |    2.746       0       5       0       5     52     52      0   4819     207       2  52    0520f a70f      8.910 "
test,1583576480554928896,18," | 18  |   5030       5   5025       0 |   0    9      4734       291 |   0  18   48    1 3d0f |    0           0       0       0       8      0      0      0   4530     495       0  18    13d0f a70f     30.060 "
test,1583576480539442944,19," | 19  |   5030       5   5015      11 |   5    0      4943        83 |   1  52    0    0 520f |    2.777       0       5       0       5     52     52      0   4799     227       2  52    0520f a70f      9.720 "
test,1583576480537630976,1," |  1  |   5030       4   5027       0 |   5    0      4898       129 |   1  10    0    0  30f |    2.685       0       5       0       5     10     10      0   4862     165       1  10    0 30f a70f      8.820 "
test,1583576480548238080,22," | 22  |   5030       5   5024       0 |   5    0      4981        43 |   3  52    0    0 520f |    2.746       0       5       0       5     52     52      0   4749     275       2  52    0520f a70f     13.980 "
test,1583576480535145984,23," | 23  |   5030       5   4968       0 |   5    0      4946        22 |   1  52    0    0 520f |    2.044       0       5       0       5     52     52      0   4843     125       1  52    0520f a70f      9.570 "
test,1583576480536529152,24," | 24  |   5030       5   5024       2 |   5    0      4975        51 |   1  52    0    0 520f |    2.716       0       5       0       5     52     52      0   4842     184       2  52    0520f a70f      8.970 "
test,1583576480536039168,26," | 26  |   5030       5   5024       2 |   5    0      5006        20 |   1  52    0    0 520f |    2.014       0       5       0       5     52     52      0   4915     111       1  52    0520f a70f      8.250 "
test,1583576480556658944,27," | 27  |   5030       4   5028       0 |   5    0      4887       141 |   3  52    0    0 520f |    2.777       0       4       0       4     52     52      0   4680     348       2  52    0520f a70f     30.210 "
test,1583576480554036992,28," | 28  |   5030       5   5020       6 |   0    3      4618       408 |   0  28   52    1 5a0f |    0           0       0       0       8      0      0      0   4424     602       0  28    15a0f a70f     30.150 "
test,1583576480555730176,29," | 29  |   5030       4   5021       7 |   0    3      4443       585 |   0  29   52    1 400f |    0           0       0       0       8      0      0      0   4230     798       0  29    1400f a70f     28.080 "
test,1583576480545171968,30," | 30  |   5030       5   5024       2 |   5    0      4959        67 |   5  52    0    0 520f |    3.509       0       5       0       5     52     52      0   4775     251       3  52    0520f a70f     11.700 "
test,1583576480540550912,35," | 35  |   5030       5   5024       2 |   5    0      4789       237 |   4  52    0    0 520f |    3.509       0       5       0       5     52     52      0   4680     346       3  52    0520f a70f     12.540 "
test,1583576480537795072,40," | 40  |   5030       5   4948      74 |   4    7      4709       313 |   1  48   52    0 db0f |    2.014       0       5       0       5     48     48      0   4592     430       1  48    0db0f a70f      8.250 "
test,1583576480545396992,41," | 41  |   5030       5   4957      59 |   5    0      4977        39 |   3  52    0    0 520f |   10.803       0       5       0       5     52     52      0   4855     161      13  52    0520f a70f     16.740 "
test,1583576480548939008,42," | 42  |   5030       5   4964      62 |   5    0      4921       105 |   4  52    0    0 520f |   10.040       0       5       0       5     52     52      0   4814     212      12  52    0520f a70f     16.140 "
test,1583576480546715904,44," | 44  |   5030       5   4969      57 |   5    0      4925       101 |   4  52    0    0 520f |   10.772       0       5       0       5     52     52      0   4831     195      13  52    0520f a70f     16.830 "
test,1583576480550380032,45," | 45  |   5030       5   4983      43 |   5    0      4869       157 |   4  52    0    0 520f |   10.803       0       5       0       5     52     52      0   4778     248      13  52    0520f a70f     16.890 "
test,1583576480540948992,46," | 46  |   5030       5   4962      57 |   5   10      4800       219 |   1  48   52    0 db0f |    2.014       0       5       0       5     48     48      0   4716     303       1  48    0db0f a70f      8.940 "
test,1583576480542906880,47," | 47  |   5030       5   4969      57 |   5   10      4854       172 |   1  48   52    0 db0f |    2.075       0       5       0       5     48     48      0   4773     253       1  48    0db0f a70f      8.310 "
test,1583576480529558016,48," | 48  |   5030       5   4904      55 |   3   10      4847       112 |   5  48   52    1 db0f |    1.739       0       4       0       4     48     48      0   4761     198       2  48    1db0f a70f      6.510 "
test,1583576480533504000,49," | 49  |   5030       5   5020       0 |   5    0      4922        98 |   1  53    0    0 e90f |    2.014       0       5       0       5     53     53      0   4885     135       1  53    0e90f a70f      8.190 "
test,1583576480533325824,51," | 51  |   5030       5   5021       0 |   5    0      4974        47 |   1  10    0    0  30f |    1.953       0       5       0       5     10     10      0   4956      65       1  10    0 30f a70f      8.190 "
test,1583576480537465088,52," | 52  |   5030       5   4996      26 |   2    0      4786       236 |   8  52    0    1 520f |    1.739       0       4       0       4     52     52      0   4689     333       2  52    1520f a70f      6.480 "
test,1583576480536324096,53," | 53  |   5030       5   5004       0 |   5    0      4731       273 |   2  53    0    1 e90f |    1.739       0       4       0       4     53     53      0   4678     326       2  53    1e90f a70f      6.480 "
test,1583576480533999872,54," | 54  |   5030       5   5022       0 |   5    0      4936        86 |   1  10    0    0  30f |    1.983       0       5       0       5     10     10      0   4855     167       1  10    0 30f a70f      8.190 "
test,1583576480534814976,55," | 55  |   5030       5   5009       0 |   5    0      4819       190 |   1  53    0    0 e90f |    2.014       0       5       0       5     53     53      0   4778     231       1  53    0e90f a70f      8.220 "
test,1583576480534573056,56," | 56  |   5030       5   5012       0 |   5    0      4934        78 |   2  10    0    0  30f |    1.983       0       5       0       5     10     10      0   4873     139       1  10    0 30f a70f      8.190 "
test,1583576480556956928,57," | 57  |   5030       5   4967       0 |   4    3      4839       128 |   2  52   10    0 520f |    8.605       0       3       0       3     52     52      0   4544     423      10  52    0520f a70f     30.360 "
test,1583576480536824832,58," | 58  |   5030       5   5021       0 |   5    0      4949        72 |   3  10    0    0  30f |    1.983       0       5       0       5     10     10      0   4736     285       1  10    0 30f a70f      9.570 "
test,1583576480553724160,5," |  5  |   5030       5   5028       0 |   0   10      4583       445 |   0   5   10    1 470f |    0           0       0       0       8      0      0      0   4496     532       0   5    1470f a70f     30.150 "
test,1583576480539164928,60," | 60  |   5030       5   5021       0 |   4    0      4705       316 |   4  10    0    0  30f |    2.746       0       5       0       5     10     10      0   4609     412       2  10    0 30f a70f      8.940 "
test,1583576480547005952,61," | 61  |   5030       5   5020       0 |   5    0      4791       229 |   4  10    0    0  30f |    2.014       0       5       0       5     10     10      0   4623     397       1  10    0 30f a70f     10.380 "
test,1583576480534243072,7," |  7  |   5030       5   5027       0 |   5    0      4951        76 |   1  10    0    0  30f |    1.983       0       5       0       5     10     10      0   4920     107       1  10    0 30f a70f      8.220 "
test,1583576480540306944,9," |  9  |   5030       5   5026       0 |   5    0      4851       175 |   1  10    0    0  30f |    2.014       0       5       0       5     10     10      0   4828     198       1  10    0 30f a70f      8.100 "
