test,1583576668787166208,10," | 10  |   5783       5   5755       0 |   4    1      5664        91 |   1   7   12    0 710f |    2.014       0       5       0       5      7      7      0   5593     162       1   7    0710f a70f      8.130 "
test,1583576668812724224,12," | 12  |   5783       5   5747      34 |   1    6      5717        64 |   5  12    7    1 260f |    8.117       0       1       0       1     12     12      0   5617     164      11  12    1260f a70f     30.270 "
test,1583576668788492800,13," | 13  |   5783       5   5779       0 |   5    2      5732        47 |   1   7   12    0 710f |    1.983       0       5       0       5      7      7      0   5665     114       1   7    0710f a70f      8.220 "
test,1583576668809961984,15," | 15  |   5783       5   5738      43 |   3    1      5552       229 |   1  12   26    0 260f |    2.014       0       4       0       4     12     12      0   5290     491       1  12    0260f a70f     30.390 "
test,1583576668798173952,16," | 16  |   5783       5   5779       0 |   5    0      5573       206 |   1  26    0    0 930f |    3.509       0       5       0       5     26     26      0   5414     365       3  26    0930f a70f      9.600 "
test,1583576668807215872,18," | 18  |   5783       5   5778       0 |   3    5      5459       319 |   4  41   22    0 280f |    0           0       0       0       8      0      0      0   5232     546       0  41    0280f a70f     30.360 "
test,1583576668790016768,1," |  1  |   5783       4   5780       0 |   5    1      5629       151 |   1   7   12    0 710f |    2.685       0       5       0       5      7      7      0   5592     188       1   7    0710f a70f      8.820 "
test,1583576668809004032,22," | 22  |   5783       5   5777       0 |   0    2      5726        51 |   0  22   41    1 d10f |    0           0       0       0       8      0      0      0   5468     309       0  22    1d10f a70f     30.090 "
test,1583576668795293184,23," | 23  |   5783       5   5721       0 |   5    0      5696        25 |   2  26    0    0 930f |    2.807       0       5       0       5     26     26      0   5582     139       2  26    0930f a70f      9.000 "
test,1583576668807737088,24," | 24  |   5783       5   5777       2 |   0    0      5718        61 |   0  24    0    1 c30f |    0           0       0       0       8      0      0      0   5568     211       0  24    1c30f a70f     30.210 "
test,1583576668811887104,26," | 26  |   5783       5   5777       2 |   0    1      5754        25 |   0  26   17    1 930f |    1.770       0       2       0       2     26     26      0   5646     133       2  26    1930f a70f     30.300 "
test,1583576668811705088,27," | 27  |   5783       5   5781       0 |   4    4      5618       163 |   5  26   19    0 930f |    3.509       0       4       0       4     26     26      0   5388     393       3  26    0930f a70f     30.360 "
test,1583576668799806976,29," | 29  |   5783       4   5773       8 |   5    4      5106       675 |   1  19   26    0 640f |    2.044       0       5       0       5     19     19      0   4863     918       1  19    0640f a70f     19.260 "
test,1583576668788172032,30," | 30  |   5783       5   5776       3 |   5    0      5704        75 |   1  35    0    0 500f |    2.075       0       5       0       5     35     35      0   5494     285       1  35    0500f a70f      8.220 "
test,1583576668787532032,35," | 35  |   5783       5   5776       3 |   5    0      5506       273 |   2  35    0    1 500f |    1.739       0       4       0       4     35     35      0   5381     398       2  35    1500f a70f      6.510 "
test,1583576668810893056,40," | 40  |   5783       5   5701      74 |   5    0      5424       351 |   1  41    0    0 280f |    2.044       0       2       0       2     41     41      0   5290     485       1  41    0280f a70f     30.300 "
test,1583576668812325120,41," | 41  |   5783       5   5710      59 |   5    0      5720        49 |   2  41    0    1 280f |    1.739       0       1       0       1     41     41      0   5584     185       2  41    1280f a70f     30.300 "
test,1583576668811072000,42," | 42  |   5783       5   5717      62 |   5    0      5667       112 |   1  41    0    0 280f |    2.075       0       2       0       2     41     41      0   5546     233       1  41    0280f a70f     30.330 "
test,1583576668810693888,44," | 44  |   5783       5   5722      57 |   5    0      5663       116 |   1  41    0    0 280f |    2.075       0       2       0       2     41     41      0   5554     225       1  41    0280f a70f     30.390 "
test,1583576668811512064,45," | 45  |   5783       5   5736      43 |   5    0      5598       181 |   1  41    0    0 280f |    2.014       0       2       0       2     41     41      0   5494     285       1  41    0280f a70f     30.360 "
test,1583576668809497088,46," | 46  |   5783       5   5715      57 |   5    0      5511       261 |   1  41    0    0 280f |    2.044       0       2       0       2     41     41      0   5417     355       1  41    0280f a70f     30.360 "
test,1583576668810412032,47," | 47  |   5783       5   5722      57 |   5    0      5590       189 |   1  41    0    0 280f |    2.075       0       2       0       2     41     41      0   5499     280       1  41    0280f a70f     30.330 "
test,1583576668812137984,48," | 48  |   5783       5   5657      55 |   5    0      5592       120 |   1  41    0    0 280f |    2.044       0       2       0       2     41     41      0   5495     217       1  41    0280f a70f     30.360 "
test,1583576668792953088,49," | 49  |   5783       5   5773       0 |   5    0      5664       109 |   1  55    0    0 e40f |    2.075       0       5       0       5     55     55      0   5626     147       1  55    0e40f a70f      8.280 "
test,1583576668786663936,51," | 51  |   5783       5   5774       0 |   5    0      5714        60 |   1   7    0    0 710f |    1.983       0       5       0       5      7      7      0   5695      79       1   7    0710f a70f      8.070 "
test,1583576668796993024,52," | 52  |   5783       5   5748      27 |   5    0      5498       277 |   2  26    0    0 930f |    2.075       0       5       0       5     26     26      0   5392     383       1  26    0930f a70f      8.220 "
test,1583576668790380032,53," | 53  |   5783       5   5757       0 |   5    0      5451       306 |   1  55    0    0 e40f |    2.044       0       5       0       5     55     55      0   5393     364       1  55    0e40f a70f      8.280 "
test,1583576668788886016,54," | 54  |   5783       5   5775       0 |   5    1      5678        97 |   1   7   55    0 710f |    1.983       0       5       0       5      7      7      0   5586     189       1   7    0710f a70f      8.220 "
test,1583576668792417024,55," | 55  |   5783       5   5762       0 |   4    0      5544       218 |   4  55    0    1 e40f |    1.770       0       4       0       4     55     55      0   5500     262       2  55    1e40f a70f      6.510 "
test,1583576668793760000,56," | 56  |   5783       5   5765       0 |   4    0      5679        86 |   3  55    0    0 e40f |    3.540       0       5       0       5     55     55      0   5610     155       3  55    0e40f a70f      9.600 "
test,1583576668791269120,57," | 57  |   5783       5   5720       0 |   1    6      5575       145 |   7  55   26    0 e40f |    4.272       0       5       0       5     55     55      0   5231     489       4  55    0e40f a70f     10.440 "
test,1583576668789402880,58," | 58  |   5783       5   5774       0 |   5    0      5695        79 |   1  55    0    0 e40f |    2.044       0       5       0       5     55     55      0   5459     315       1  55    0e40f a70f      8.310 "
test,1583576668812989952,5," |  5  |   5783       5   5781       0 |   3    3      5263       518 |   1  12    7    0 260f |    2.014       0       4       0       4     12     12      0   5163     618       1  12    0260f a70f     30.330 "
test,1583576668787742976,60," | 60  |   5783       5   5774       0 |   5    0      5408       366 |   2   7    0    0 710f |    2.746       0       5       0       5      7      7      0   5294     480       2   7    0710f a70f      8.790 "
test,1583576668789751040,61," | 61  |   5783       5   5773       0 |   5    0      5511       262 |   2  55    0    0 e40f |    2.807       0       5       0       5     55     55      0   5318     455       2  55    0e40f a70f      8.970 "
test,1583576668786982144,7," |  7  |   5783       5   5780       0 |   4    1      5692        88 |   4   7   12    1 710f |    1.770       0       4       0       4      7      7      0   5656     124       2   7    1710f a70f      6.510 "
test,1583576668788674048,9," |  9  |   5783       5   5779       0 |   5    1      5579       200 |   1   7   12    0 710f |    1.983       0       5       0       5      7      7      0   5554     225       1   7    0710f a70f      8.190 "
