test,1583576481787394048,10," | 10  |   5035       5   5007       0 |   5    0      4925        82 |   3  23    0    0 190f |    3.479       0       5       0       5     23     23      0   4862     145       3  23    0190f a70f      9.540 "
test,1583576481786631168,12," | 12  |   5035       5   5018      15 |   5    0      4984        49 |   5  23    0    0 190f |    3.509       0       5       0       5     23     23      0   4895     138       3  23    0190f a70f      9.690 "
test,1583576481796300800,13," | 13  |   5035       5   5031       0 |   5    0      4991        40 |   3  23    0    0 190f |    4.211       0       5       0       5     23     23      0   4928     103       4  23    0190f a70f     10.440 "
test,1583576481791651072,15," | 15  |   5035       5   5010      23 |   5    0      4836       197 |   6  23    0    0 190f |    2.777       0       5       0       5     23     23      0   4611     422       2  23    0190f a70f      8.910 "
test,1583576481790541824,16," | 16  |   5035       5   5031       0 |   3    7      4850       181 |   1  23   46    0 190f |    2.014       0       5       0       5     23     23      0   4714     317       1  23    0190f a70f     11.070 "
test,1583576481788768000,17," | 17  |   5035       5   5024       7 |   4    5      4970        61 |   1  23   46    0 190f |    2.044       0       5       0       5     23     23      0   4823     208       1  23    0190f a70f     10.290 "
test,1583576481803149056,18," | 18  |   5035       5   5030       0 |   0    7      4738       292 |   0  18   24    1 1a0f |   12.451       0       4       0       4     18     18      0   4535     495      17  18    11a0f a70f     18.210 "
test,1583576481791450880,19," | 19  |   5035       5   5020      11 |   2    4      4947        84 |   2  23   24    0 190f |    2.716       0       5       0       5     23     23      0   4804     227       2  23    0190f a70f      9.660 "
test,1583576481809367808,1," |  1  |   5035       4   5032       0 |   5    0      4903       129 |   4  23    0    0 190f |    4.913       0       4       0       4     23     23      0   4867     165       4  23    0190f a70f     30.330 "
test,1583576481807395840,22," | 22  |   5035       5   5029       0 |   5    0      4986        43 |   5  24    0    0 9b0f |    2.746       0       3       0       3     24     24      0   4754     275       2  24    09b0f a70f     30.330 "
test,1583576481789964800,23," | 23  |   5035       5   4973       0 |   1    6      4951        22 |   5  23   24    1 190f |    1.770       0       4       0       4     23     23      0   4848     125       2  23    1190f a70f      9.390 "
test,1583576481783698176,24," | 24  |   5035       5   5029       2 |   4    0      4979        52 |   5  24    0    1 9b0f |    1.739       0       4       0       4     24     24      0   4846     185       2  24    19b0f a70f      6.510 "
test,1583576481785172992,26," | 26  |   5035       5   5029       2 |   5    0      5011        20 |   4  24    0    0 9b0f |    2.014       0       5       0       5     24     24      0   4920     111       1  24    09b0f a70f      8.250 "
test,1583576481786406912,27," | 27  |   5035       5   5033       0 |   5    0      4892       141 |   1  23    0    0 190f |    2.014       0       5       0       5     23     23      0   4685     348       1  23    0190f a70f     10.380 "
test,1583576481807678976,28," | 28  |   5035       5   5025       6 |   2    4      4622       409 |   4  23   24    0 190f |    2.716       0       4       0       4     23     23      0   4428     603       2  23    0190f a70f     30.360 "
test,1583576481788279040,29," | 29  |   5035       4   5026       7 |   5    0      4448       585 |   2  23    0    0 190f |    2.777       0       5       0       5     23     23      0   4235     798       2  23    0190f a70f     10.290 "
test,1583576481789069056,30," | 30  |   5035       5   5029       2 |   5    0      4963        68 |   7  24    0    0 9b0f |    4.241       0       5       0       5     24     24      0   4779     252       4  24    09b0f a70f     10.290 "
test,1583576481789468928,35," | 35  |   5035       5   5029       2 |   5    0      4793       238 |   6  24    0    0 9b0f |    3.479       0       5       0       5     24     24      0   4684     347       3  24    09b0f a70f      9.660 "
test,1583576481804909056,40," | 40  |   5035       5   4953      74 |   5    5      4714       313 |   2  46   18    0 190f |    0           0       0       2       2      0     23      0   4597     430       7  46    0190f a70f     30.300 "
test,1583576481784583936,41," | 41  |   5035       5   4962      59 |   5    8      4982        39 |   1  46   18    0 190f |    2.044       0       2       3       5     46     46      0   4860     161       1  46    0190f a70f      8.910 "
test,1583576481797662976,42," | 42  |   5035       5   4969      62 |   5    0      4925       106 |   2  18    0    0 1a0f |   13.458       0       5       0       5     18     18      0   4818     213      17  18    01a0f a70f     19.470 "
test,1583576481801101056,44," | 44  |   5035       5   4974      57 |   5    0      4930       101 |   3  18    0    0 1a0f |   13.458       0       5       0       5     18     18      0   4836     195      17  18    01a0f a70f     19.470 "
test,1583576481793032960,45," | 45  |   5035       5   4988      43 |   5    0      4874       157 |   4  18    0    0 1a0f |   13.458       0       5       0       5     18     18      0   4783     248      17  18    01a0f a70f     19.470 "
test,1583576481785708800,46," | 46  |   5035       5   4967      57 |   4    5      4805       219 |   8  46   18    1 190f |    1.770       0       2       2       4     46     46      0   4721     303       2  46    1190f a70f      7.170 "
test,1583576481795195136,47," | 47  |   5035       5   4974      57 |   5    0      4859       172 |   1  18    0    0 1a0f |   12.725       0       5       0       5     18     18      0   4778     253      16  18    01a0f a70f     18.780 "
test,1583576481803889920,48," | 48  |   5035       5   4909      55 |   5    0      4852       112 |   5  18    0    0 1a0f |   13.458       0       5       0       5     18     18      0   4766     198      17  18    01a0f a70f     19.350 "
test,1583576481787875840,49," | 49  |   5035       5   5025       0 |   5    0      4927        98 |   5  23    0    0 190f |    4.241       0       5       0       5     23     23      0   4890     135       4  23    0190f a70f     10.290 "
test,1583576481789270016,51," | 51  |   5035       5   5026       0 |   5    0      4979        47 |   3  23    0    0 190f |    3.479       0       5       0       5     23     23      0   4961      65       3  23    0190f a70f     10.410 "
test,1583576481806575104,52," | 52  |   5035       5   5001      26 |   2    6      4791       236 |   1  23   24    0 190f |    1.983       0       4       0       4     23     23      0   4694     333       1  23    0190f a70f     30.360 "
test,1583576481789638144,53," | 53  |   5035       5   5009       0 |   5    0      4736       273 |   6  23    0    0 190f |    4.943       0       5       0       5     23     23      0   4683     326       5  23    0190f a70f     10.980 "
test,1583576481788507904,54," | 54  |   5035       5   5027       0 |   5    0      4941        86 |   3  23    0    0 190f |    3.479       0       5       0       5     23     23      0   4860     167       3  23    0190f a70f     10.260 "
test,1583576481791787008,55," | 55  |   5035       5   5014       0 |   5    0      4824       190 |   5  23    0    0 190f |    4.180       0       5       0       5     23     23      0   4783     231       4  23    0190f a70f     10.350 "
test,1583576481797430016,56," | 56  |   5035       5   5017       0 |   5    0      4939        78 |   2  23    0    0 190f |    2.777       0       5       0       5     23     23      0   4877     140       2  23    0190f a70f      9.690 "
test,1583576481785912064,57," | 57  |   5035       5   4972       0 |   3    4      4844       128 |   1  23   24    0 190f |    2.044       0       5       0       5     23     23      0   4549     423       1  23    0190f a70f      8.250 "
test,1583576481790148096,58," | 58  |   5035       5   5026       0 |   4    0      4954        72 |   4  23    0    0 190f |    3.509       0       5       0       5     23     23      0   4741     285       3  23    0190f a70f     10.290 "
test,1583576481785413888,5," |  5  |   5035       5   5033       0 |   5    0      4588       445 |   4  23    0    0 190f |    3.509       0       5       0       5     23     23      0   4501     532       3  23    0190f a70f      9.540 "
test,1583576481789793024,60," | 60  |   5035       5   5026       0 |   4    0      4710       316 |   2  23    0    0 190f |    2.746       0       5       0       5     23     23      0   4613     413       2  23    0190f a70f      9.660 "
test,1583576481787667968,61," | 61  |   5035       5   5025       0 |   5    0      4796       229 |   2  23    0    0 190f |    2.777       0       5       0       5     23     23      0   4627     398       2  23    0190f a70f      9.600 "
test,1583576481786220032,7," |  7  |   5035       5   5032       0 |   5    0      4956        76 |   4  23    0    0 190f |    4.241       0       5       0       5     23     23      0   4925     107       4  23    0190f a70f     10.440 "
test,1583576481787048960,9," |  9  |   5035       5   5031       0 |   5    0      4856       175 |   4  23    0    0 190f |    4.241       0       5       0       5     23     23      0   4833     198       4  23    0190f a70f     10.410 "
