test,1583576667292276992,10," | 10  |   5777       5   5749       0 |   5    0      5658        91 |   1  51    0    0 3d0f |    2.807       0       5       0       5     51     51      0   5587     162       2  51    03d0f a70f     11.730 "
test,1583576667291533056,12," | 12  |   5777       5   5741      34 |   5    0      5711        64 |   2  51    0    0 3d0f |    3.479       0       5       0       5     51     51      0   5611     164       3  51    03d0f a70f     11.130 "
test,1583576667299901952,13," | 13  |   5777       5   5773       0 |   5    0      5726        47 |   1  51    0    0 3d0f |    3.540       0       5       0       5     51     51      0   5659     114       3  51    03d0f a70f     11.820 "
test,1583576667295660032,15," | 15  |   5777       5   5732      43 |   5    0      5547       228 |   3  51    0    0 3d0f |    4.241       0       5       0       5     51     51      0   5285     490       4  51    03d0f a70f     11.790 "
test,1583576667289943808,16," | 16  |   5777       5   5773       0 |   5    0      5567       206 |   3  27    0    0 5e0f |    2.777       0       5       0       5     27     27      0   5408     365       2  27    05e0f a70f      9.000 "
test,1583576667308293120,17," | 17  |   5777       5   5766       7 |   4    0      5703        70 |   2  27    0    0 5e0f |    2.044       0       1       0       1     27     27      0   5534     239       1  27    05e0f a70f     30.360 "
test,1583576667287576064,18," | 18  |   5777       5   5772       0 |   5    0      5453       319 |   1  47    0    0 ec0f |    2.044       0       5       0       5     47     47      0   5227     545       1  47    0ec0f a70f      8.250 "
test,1583576667312995072,19," | 19  |   5777       5   5762      11 |   5    0      5667       106 |   1  27    0    0 5e0f |    2.044       0       1       0       1     27     27      0   5510     263       1  27    05e0f a70f     30.360 "
test,1583576667310447872,1," |  1  |   5777       4   5774       0 |   5    0      5623       151 |   1  51    0    0 3d0f |    4.211       0       4       0       4     51     51      0   5586     188       3  51    03d0f a70f     30.390 "
test,1583576667289704960,22," | 22  |   5777       5   5771       0 |   5    0      5721        50 |   2  47    0    0 ec0f |    2.746       0       5       0       5     47     47      0   5463     308       2  47    0ec0f a70f      8.940 "
test,1583576667288083200,23," | 23  |   5777       5   5715       0 |   5    0      5690        25 |   1  27    0    0 5e0f |    2.014       0       5       0       5     27     27      0   5576     139       1  27    05e0f a70f      8.250 "
test,1583576667288541184,24," | 24  |   5777       5   5771       2 |   5    0      5713        60 |   3  47    0    0 ec0f |    2.777       0       5       0       5     47     47      0   5563     210       2  47    0ec0f a70f      8.850 "
test,1583576667290347008,26," | 26  |   5777       5   5771       2 |   2    2      5749        24 |   9  47   27    0 ec0f |    3.540       0       5       0       5     47     47      0   5641     132       3  47    0ec0f a70f      9.750 "
test,1583576667282279936,27," | 27  |   5777       5   5775       0 |   5    0      5612       163 |   4  27    0    1 5e0f |    1.739       0       4       0       4     27     27      0   5382     393       2  27    15e0f a70f      6.480 "
test,1583576667312654848,28," | 28  |   5777       5   5766       7 |   2    5      5306       467 |   5  27   47    0 5e0f |    2.746       0       1       0       1     27     27      0   5084     689       2  27    05e0f a70f     30.360 "
test,1583576667311078912,29," | 29  |   5777       4   5767       8 |   4    0      5100       675 |   1  27    0    0 5e0f |    2.044       0       4       0       4     27     27      0   4857     918       1  27    05e0f a70f     30.240 "
test,1583576667290572800,30," | 30  |   5777       5   5770       3 |   5    0      5698        75 |   3  47    0    0 ec0f |    4.211       0       5       0       5     47     47      0   5488     285       4  47    0ec0f a70f     10.410 "
test,1583576667292082176,35," | 35  |   5777       5   5770       3 |   5    0      5500       273 |   3  47    0    0 ec0f |    3.509       0       5       0       5     47     47      0   5375     398       3  47    0ec0f a70f      9.690 "
test,1583576667295484928,40," | 40  |   5777       5   5695      74 |   4    0      5418       351 |   1  47    0    0 ec0f |    4.241       0       5       0       5     47     47      0   5284     485       4  47    0ec0f a70f     12.570 "
test,1583576667295216128,41," | 41  |   5777       5   5704      59 |   5    0      5714        49 |   1  47    0    0 ec0f |    4.241       0       5       0       5     47     47      0   5578     185       4  47    0ec0f a70f     11.850 "
test,1583576667295877888,42," | 42  |   5777       5   5711      62 |   5    0      5661       112 |   1  47    0    0 ec0f |    4.211       0       5       0       5     47     47      0   5540     233       4  47    0ec0f a70f     11.820 "
test,1583576667290988032,44," | 44  |   5777       5   5716      57 |   5    0      5657       116 |   1  47    0    0 ec0f |    4.211       0       5       0       5     47     47      0   5548     225       4  47    0ec0f a70f     10.410 "
test,1583576667294390016,45," | 45  |   5777       5   5730      43 |   5    0      5592       181 |   2  47    0    0 ec0f |    4.211       0       5       0       5     47     47      0   5488     285       4  47    0ec0f a70f     11.040 "
test,1583576667294819072,46," | 46  |   5777       5   5709      57 |   5    0      5505       261 |   1  47    0    0 ec0f |    4.211       0       5       0       5     47     47      0   5411     355       4  47    0ec0f a70f     12.570 "
test,1583576667293636096,47," | 47  |   5777       5   5716      57 |   4    0      5584       189 |   4  47    0    1 ec0f |    1.739       0       4       0       4     47     47      0   5493     280       2  47    1ec0f a70f      6.480 "
test,1583576667292790784,48," | 48  |   5777       5   5651      55 |   5    0      5586       120 |   1  47    0    0 ec0f |    3.540       0       5       0       5     47     47      0   5489     217       3  47    0ec0f a70f     13.110 "
test,1583576667310724864,49," | 49  |   5777       5   5767       0 |   3    8      5658       109 |   5  49   53    1 d10f |    6.134       0       2       0       2     49     49      0   5620     147       8  49    1d10f a70f     30.300 "
test,1583576667287163904,51," | 51  |   5777       5   5768       0 |   5    0      5708        60 |   2  51    0    1 3d0f |    1.770       0       4       0       4     51     51      0   5689      79       2  51    13d0f a70f      6.510 "
test,1583576667310269952,52," | 52  |   5777       5   5742      27 |   4    0      5492       277 |   2  27    0    0 5e0f |    2.746       0       1       0       1     27     27      0   5386     383       2  27    05e0f a70f     30.360 "
test,1583576667311290880,53," | 53  |   5777       5   5751       0 |   5    0      5446       305 |   2  53    0    1 3e0f |    1.739       0       1       0       1     53     53      0   5388     363       2  53    13e0f a70f     30.300 "
test,1583576667293486080,54," | 54  |   5777       5   5769       0 |   4    7      5672        97 |   4  51    9    0 3d0f |    3.540       0       5       0       5     51     51      0   5580     189       3  51    03d0f a70f     11.820 "
test,1583576667310044160,55," | 55  |   5777       5   5756       0 |   5    0      5538       218 |   1  53    0    0 3e0f |    2.044       0       2       0       2     53     53      0   5494     262       1  53    03e0f a70f     30.300 "
test,1583576667287367936,56," | 56  |   5777       5   5759       0 |   5    0      5673        86 |   1  51    0    0 3d0f |    2.014       0       5       0       5     51     51      0   5604     155       1  51    03d0f a70f      8.250 "
test,1583576667307763200,57," | 57  |   5777       5   5714       0 |   1    2      5569       145 |   2  27   49    0 5e0f |    0           0       0       0       8      0      0      0   5225     489       0  27    05e0f a70f     30.360 "
test,1583576667296453888,58," | 58  |   5777       5   5768       0 |   5    3      5689        79 |   1  49   51    0 d10f |    2.014       0       5       0       5     49     49      0   5453     315       1  49    0d10f a70f      8.250 "
test,1583576667294048000,5," |  5  |   5777       5   5775       0 |   5    0      5258       517 |   2  51    0    0 3d0f |    4.241       0       5       0       5     51     51      0   5158     617       4  51    03d0f a70f     11.130 "
test,1583576667289083904,60," | 60  |   5777       5   5768       0 |   5    0      5403       365 |   1  51    0    0 3d0f |    2.044       0       5       0       5     51     51      0   5289     479       1  51    03d0f a70f      8.280 "
test,1583576667292623104,61," | 61  |   5777       5   5767       0 |   4    4      5505       262 |   2  49   51    0 d10f |    2.716       0       5       0       5     49     49      0   5312     455       2  49    0d10f a70f      8.940 "
test,1583576667293302016,7," |  7  |   5777       5   5774       0 |   5    0      5686        88 |   1  51    0    0 3d0f |    3.540       0       5       0       5     51     51      0   5650     124       3  51    03d0f a70f     11.910 "
test,1583576667308600064,9," |  9  |   5777       5   5773       0 |   0    9      5573       200 |   0   9   51    1 2a0f |    0           0       0       0       8      0      0      0   5548     225       0   9    12a0f a70f     30.180 "
