test,1583576592536797952,10," | 10  |   5478       5   5450       0 |   5    0      5362        88 |   1  13    0    0 720f |    1.983       0       5       0       5     13     13      0   5293     157       1  13    0720f a70f      8.220 "
test,1583576592539269888,12," | 12  |   5478       5   5448      28 |   5    0      5415        61 |   2  13    0    0 720f |    2.746       0       5       0       5     13     13      0   5321     155       2  13    0720f a70f      8.820 "
test,1583576592535725056,13," | 13  |   5478       5   5474       0 |   4    0      5427        47 |   4  13    0    1 720f |    1.739       0       4       0       4     13     13      0   5361     113       2  13    1720f a70f      6.510 "
test,1583576592559673088,15," | 15  |   5478       5   5440      36 |   2    4      5261       215 |   8  15    5    1 ce0f |   10.284       0       2       0       2     15     15      0   5013     463      14  15    1ce0f a70f     30.150 "
test,1583576592538585856,16," | 16  |   5478       5   5474       0 |   5    0      5279       195 |   2  19    0    0 690f |    2.746       0       5       0       5     19     19      0   5128     346       2  19    0690f a70f      9.000 "
test,1583576592538907136,17," | 17  |   5478       5   5467       7 |   5    0      5407        67 |   1  19    0    0 690f |    2.044       0       5       0       5     19     19      0   5246     228       1  19    0690f a70f      9.000 "
test,1583576592548979968,18," | 18  |   5478       5   5473       0 |   5    0      5169       304 |   3  19    0    0 690f |    3.448       0       5       0       5     19     19      0   4951     522       3  19    0690f a70f      9.660 "
test,1583576592559101184,19," | 19  |   5478       5   5463      11 |   4    0      5378        96 |   3  19    0    1 690f |    7.598       0       1       0       1     19     19      0   5228     246      10  19    1690f a70f     30.300 "
test,1583576592543952896,1," |  1  |   5478       4   5475       0 |   5    0      5337       138 |   1  13    0    0 720f |    2.685       0       5       0       5     13     13      0   5299     176       1  13    0720f a70f      8.910 "
test,1583576592540796160,22," | 22  |   5478       5   5472       0 |   5    0      5425        47 |   2  19    0    0 690f |    2.716       0       5       0       5     19     19      0   5180     292       2  19    0690f a70f      9.630 "
test,1583576592542117120,23," | 23  |   5478       5   5416       0 |   5    0      5391        25 |   1  19    0    0 690f |    2.014       0       5       0       5     19     19      0   5282     134       1  19    0690f a70f      8.250 "
test,1583576592537720832,24," | 24  |   5478       5   5472       2 |   5    0      5420        54 |   2  19    0    0 690f |    2.746       0       5       0       5     19     19      0   5276     198       2  19    0690f a70f      8.970 "
test,1583576592539836928,26," | 26  |   5478       5   5472       2 |   5    0      5450        24 |   1  19    0    0 690f |    2.044       0       5       0       5     19     19      0   5350     124       1  19    0690f a70f      8.790 "
test,1583576592541327104,27," | 27  |   5478       5   5476       0 |   5    0      5319       157 |   2  19    0    0 690f |    2.044       0       5       0       5     19     19      0   5098     378       1  19    0690f a70f      8.970 "
test,1583576592540018176,28," | 28  |   5478       5   5467       7 |   5    0      5026       448 |   1  30    0    0 600f |    1.953       0       5       0       5     30     30      0   4818     656       1  30    0600f a70f      8.880 "
test,1583576592558576128,29," | 29  |   5478       5   5469       7 |   5    0      4835       641 |   3  19    0    0 690f |    2.014       0       4       0       4     19     19      0   4600     876       1  19    0690f a70f     30.300 "
test,1583576592536154880,30," | 30  |   5478       5   5471       3 |   5    0      5400        74 |   2  30    0    1 600f |    1.770       0       4       0       4     30     30      0   5201     273       2  30    1600f a70f      6.510 "
test,1583576592537036032,35," | 35  |   5478       5   5471       3 |   5    0      5215       259 |   1  30    0    0 600f |    2.014       0       5       0       5     30     30      0   5096     378       1  30    0600f a70f      8.220 "
test,1583576592558819072,40," | 40  |   5478       5   5396      74 |   3    1      5129       341 |   1  44   19    0  20f |    2.014       0       4       0       4     44     44      0   5001     469       1  44    0 20f a70f     30.330 "
test,1583576592559323136,41," | 41  |   5478       5   5405      59 |   3    2      5422        42 |   1  44   19    0  20f |    1.983       0       4       0       4     44     44      0   5292     172       1  44    0 20f a70f     30.360 "
test,1583576592538433024,42," | 42  |   5478       5   5412      62 |   3    2      5363       111 |   1  44   19    0  20f |    1.983       0       5       0       5     44     44      0   5252     222       1  44    0 20f a70f      8.220 "
test,1583576592531163904,44," | 44  |   5478       5   5417      57 |   3    2      5365       109 |   2  44   19    1  20f |    1.739       0       4       0       4     44     44      0   5260     214       2  44    1 20f a70f      6.480 "
test,1583576592541954048,45," | 45  |   5478       5   5431      43 |   3    1      5302       172 |   1  44   19    0  20f |    2.014       0       5       0       5     44     44      0   5202     272       1  44    0 20f a70f      8.100 "
test,1583576592540308992,46," | 46  |   5478       5   5410      57 |   3    0      5225       242 |   1  44    0    0  20f |    2.014       0       5       0       5     44     44      0   5136     331       1  44    0 20f a70f      8.160 "
test,1583576592542260992,47," | 47  |   5478       5   5417      57 |   4    2      5292       182 |   1  44   19    0  20f |    2.044       0       5       0       5     44     44      0   5204     270       1  44    0 20f a70f      8.190 "
test,1583576592538182144,48," | 48  |   5478       5   5352      55 |   3    1      5290       117 |   1  44   19    0  20f |    2.014       0       5       0       5     44     44      0   5198     209       1  44    0 20f a70f      8.250 "
test,1583576592535965952,49," | 49  |   5478       5   5468       0 |   5    0      5363       105 |   1  53    0    0 780f |    2.075       0       5       0       5     53     53      0   5325     143       1  53    0780f a70f      8.280 "
test,1583576592537169920,51," | 51  |   5478       5   5469       0 |   5    0      5417        52 |   1  13    0    0 720f |    1.983       0       5       0       5     13     13      0   5398      71       1  13    0720f a70f      8.220 "
test,1583576592560144896,52," | 52  |   5478       3   5443      27 |   5    0      5209       261 |   1  19    0    0 690f |    2.044       0       4       0       4     19     19      0   5105     365       1  19    0690f a70f     30.240 "
test,1583576592539105792,53," | 53  |   5478       5   5452       0 |   4    0      5160       292 |   2  53    0    1 780f |    1.770       0       4       0       4     53     53      0   5104     348       2  53    1780f a70f      6.510 "
test,1583576592536463872,54," | 54  |   5478       5   5470       0 |   5    0      5373        97 |   1  13    0    0 720f |    2.044       0       5       0       5     13     13      0   5288     182       1  13    0720f a70f      8.220 "
test,1583576592536613888,55," | 55  |   5478       5   5457       0 |   5    0      5251       206 |   1  53    0    0 780f |    2.014       0       5       0       5     53     53      0   5208     249       1  53    0780f a70f      8.220 "
test,1583576592541527040,56," | 56  |   5478       5   5460       0 |   5    0      5380        80 |   1  13    0    0 720f |    2.014       0       5       0       5     13     13      0   5314     146       1  13    0720f a70f      9.630 "
test,1583576592559933952,57," | 57  |   5478       5   5415       0 |   5    0      5276       139 |   2  13    0    0 720f |    4.943       0       3       0       3     13     13      0   4950     465       5  13    0720f a70f     30.360 "
test,1583576592543013120,58," | 58  |   5478       4   5469       0 |   2    0      5392        77 |  11  13    0    0 720f |    3.479       0       5       0       5     13     13      0   5163     306       3  13    0720f a70f      9.690 "
test,1583576592555517952,5," |  5  |   5478       5   5476       0 |   0    5      4989       487 |   0   5   15    1 2c0f |    0           0       0       0       8      0      0      0   4895     581       0   5    12c0f a70f     30.180 "
test,1583576592541711104,60," | 60  |   5478       5   5469       0 |   5    0      5120       349 |   2  13    0    0 720f |    2.716       0       5       0       5     13     13      0   5013     456       2  13    0720f a70f      8.820 "
test,1583576592544898048,61," | 61  |   5478       5   5468       0 |   5    0      5218       250 |   2  13    0    0 720f |    4.211       0       5       0       5     13     13      0   5032     436       4  13    0720f a70f     10.380 "
test,1583576592535479040,7," |  7  |   5478       5   5475       0 |   5    0      5390        85 |   1  13    0    0 720f |    2.014       0       5       0       5     13     13      0   5355     120       1  13    0720f a70f      8.100 "
test,1583576592537914880,9," |  9  |   5478       5   5474       0 |   5    0      5286       188 |   1  13    0    0 720f |    2.777       0       5       0       5     13     13      0   5263     211       2  13    0720f a70f      8.910 "
