test,1583576678538388992,10," | 10  |   5822       5   5794       0 |   4    0      5701        93 |   3  10    0    1 5b0f |    1.739       0       4       0       4     10     10      0   5630     164       2  10    15b0f a70f      6.480 "
test,1583576678539407872,12," | 12  |   5822       5   5786      34 |   5    9      5756        64 |   1  15   10    0 dd0f |    1.983       0       5       0       5     15     15      0   5655     165       1  15    0dd0f a70f      8.250 "
test,1583576678540122880,13," | 13  |   5822       5   5818       0 |   5    0      5771        47 |   1  10    0    0 5b0f |    2.075       0       5       0       5     10     10      0   5704     114       1  10    05b0f a70f      8.160 "
test,1583576678544281856,15," | 15  |   5822       5   5777      43 |   4    1      5590       230 |   5  15   10    1 dd0f |    1.739       0       4       0       4     15     15      0   5326     494       2  15    1dd0f a70f      6.510 "
test,1583576678542563072,16," | 16  |   5822       5   5818       0 |   4    7      5607       211 |   4  23   52    0 e80f |    2.044       0       5       0       5     23     23      0   5445     373       1  23    0e80f a70f      8.280 "
test,1583576678541099008,17," | 17  |   5822       5   5810       8 |   4    0      5745        73 |   4  17    0    1 dd0f |    1.739       0       4       0       4     17     17      0   5575     243       2  17    1dd0f a70f      7.920 "
test,1583576678562952960,18," | 18  |   5822       5   5817       0 |   5    6      5497       320 |   1  47   17    0 ac0f |    2.044       0       4       0       4     47     47      0   5270     547       1  47    0ac0f a70f     30.240 "
test,1583576678549318912,19," | 19  |   5822       5   5806      12 |   5    1      5709       109 |   1  17   23    0 dd0f |    2.014       0       5       0       5     17     17      0   5550     268       1  17    0dd0f a70f      8.940 "
test,1583576678539228928,1," |  1  |   5822       4   5819       0 |   5    0      5666       153 |   1  10    0    0 5b0f |    2.716       0       5       0       5     10     10      0   5629     190       1  10    05b0f a70f      8.940 "
test,1583576678558240000,22," | 22  |   5822       5   5816       0 |   4    5      5765        51 |   2  47   17    0 ac0f |    0           0       0       0       8      0      0      0   5503     313       0  47    0ac0f a70f     30.360 "
test,1583576678541996032,23," | 23  |   5822       5   5760       0 |   3    9      5735        25 |   5  23   15    1 e80f |    1.770       0       4       0       4     23     23      0   5620     140       2  23    1e80f a70f      6.510 "
test,1583576678543625216,24," | 24  |   5822       5   5816       2 |   5    2      5756        62 |   2  17   47    0 dd0f |    2.044       0       5       0       5     17     17      0   5606     212       1  17    0dd0f a70f      8.910 "
test,1583576678539602944,26," | 26  |   5822       5   5816       2 |   5    0      5793        25 |   1  17    0    0 dd0f |    2.044       0       5       0       5     17     17      0   5685     133       1  17    0dd0f a70f      8.190 "
test,1583576678557954048,27," | 27  |   5822       5   5820       0 |   5    6      5656       164 |   1  15   17    0 dd0f |    0           0       0       4       4      0     17      0   5426     394       2  15    0dd0f a70f     30.360 "
test,1583576678557754112,28," | 28  |   5822       4   5810       8 |   0    4      5342       476 |   0  28   47    1 b70f |    0           0       0       0       8      0      0      0   5118     700       0  28    1b70f a70f     30.180 "
test,1583576678538793984,29," | 29  |   5822       4   5812       8 |   5    4      5141       679 |   2  15   17    0 dd0f |    0           0       0       5       5      0     17      0   4897     923       2  15    0dd0f a70f      9.690 "
test,1583576678556272128,30," | 30  |   5822       5   5815       3 |   5    1      5743        75 |   3  47   28    0 ac0f |    0           0       0       0       8      0      0      0   5529     289       0  47    0ac0f a70f     30.360 "
test,1583576678556489984,35," | 35  |   5822       5   5815       3 |   5    0      5544       274 |   3  47    0    0 ac0f |    0           0       0       0       8      0      0      0   5416     402       0  47    0ac0f a70f     30.360 "
test,1583576678561434880,40," | 40  |   5822       5   5740      74 |   5    2      5462       352 |   1  47   17    0 ac0f |    2.014       0       4       0       4     47     47      0   5325     489       1  47    0ac0f a70f     30.270 "
test,1583576678559688960,41," | 41  |   5822       5   5749      59 |   5    1      5759        49 |   1  47   23    0 ac0f |    1.983       0       4       0       4     47     47      0   5622     186       1  47    0ac0f a70f     30.390 "
test,1583576678560283904,42," | 42  |   5822       5   5756      62 |   5    1      5706       112 |   1  47   17    0 ac0f |    2.014       0       4       0       4     47     47      0   5584     234       1  47    0ac0f a70f     30.270 "
test,1583576678560462080,44," | 44  |   5822       5   5761      57 |   5    3      5702       116 |   1  47   17    0 ac0f |    2.044       0       4       0       4     47     47      0   5591     227       1  47    0ac0f a70f     30.360 "
test,1583576678561188864,45," | 45  |   5822       5   5775      43 |   5    1      5637       181 |   1  47   23    0 ac0f |    2.014       0       4       0       4     47     47      0   5532     286       1  47    0ac0f a70f     30.360 "
test,1583576678559896832,46," | 46  |   5822       5   5754      57 |   5    0      5548       263 |   1  47    0    0 ac0f |    2.044       0       4       0       4     47     47      0   5453     358       1  47    0ac0f a70f     30.270 "
test,1583576678537866240,47," | 47  |   5822       5   5761      57 |   4    0      5628       190 |   2  47    0    1 ac0f |    1.739       0       4       0       4     47     47      0   5537     281       2  47    1ac0f a70f      6.510 "
test,1583576678560663040,48," | 48  |   5822       5   5696      55 |   5    0      5631       120 |   1  47    0    0 ac0f |    2.014       0       4       0       4     47     47      0   5533     218       1  47    0ac0f a70f     30.390 "
test,1583576678538140928,49," | 49  |   5822       5   5812       0 |   5    0      5702       110 |   1  55    0    0 da0f |    2.075       0       5       0       5     55     55      0   5664     148       1  55    0da0f a70f      8.280 "
test,1583576678537090048,51," | 51  |   5822       5   5813       0 |   5    0      5750        63 |   1  10    0    0 5b0f |    2.044       0       5       0       5     10     10      0   5732      81       1  10    05b0f a70f      8.220 "
test,1583576678560936960,52," | 52  |   5822       5   5787      27 |   0    6      5536       278 |   0  52   17    1 d40f |    0           0       0       0       8      0      0      0   5429     385       0  52    1d40f a70f     30.180 "
test,1583576678539025152,53," | 53  |   5822       5   5796       0 |   5    0      5486       310 |   1  55    0    0 da0f |    2.014       0       5       0       5     55     55      0   5427     369       1  55    0da0f a70f      8.250 "
test,1583576678541649152,54," | 54  |   5822       5   5814       0 |   5    0      5717        97 |   1  10    0    0 5b0f |    2.014       0       5       0       5     10     10      0   5624     190       1  10    05b0f a70f      8.250 "
test,1583576678537256960,55," | 55  |   5822       5   5801       0 |   4    0      5582       219 |   2  55    0    1 da0f |    1.770       0       4       0       4     55     55      0   5537     264       2  55    1da0f a70f      6.510 "
test,1583576678542999040,56," | 56  |   5822       5   5804       0 |   5    0      5717        87 |   1  10    0    0 5b0f |    2.044       0       5       0       5     10     10      0   5648     156       1  10    05b0f a70f      8.250 "
test,1583576678542748928,57," | 57  |   5822       5   5759       0 |   2    2      5613       146 |   4  23   47    0 e80f |    2.044       0       5       0       5     23     23      0   5267     492       1  23    0e80f a70f      8.250 "
test,1583576678542393088,58," | 58  |   5822       5   5813       0 |   5    0      5733        80 |   1  55    0    0 da0f |    2.075       0       5       0       5     55     55      0   5498     315       1  55    0da0f a70f      8.310 "
test,1583576678559372032,5," |  5  |   5822       5   5820       0 |   5    4      5299       521 |   1  15   10    0 dd0f |    7.873       0       1       0       1     15     15      0   5198     622       9  15    0dd0f a70f     30.360 "
test,1583576678543780096,60," | 60  |   5822       5   5813       0 |   5    0      5446       367 |   2  10    0    0 5b0f |    2.777       0       5       0       5     10     10      0   5329     484       2  10    05b0f a70f      8.970 "
test,1583576678540455168,61," | 61  |   5822       5   5812       0 |   5    0      5549       263 |   2  55    0    0 da0f |    2.807       0       5       0       5     55     55      0   5356     456       2  55    0da0f a70f      9.000 "
test,1583576678537491200,7," |  7  |   5822       5   5819       0 |   5    0      5730        89 |   2  10    0    0 5b0f |    2.075       0       5       0       5     10     10      0   5695     124       1  10    05b0f a70f      8.220 "
test,1583576678538564864,9," |  9  |   5822       5   5818       0 |   5    0      5618       200 |   1  10    0    0 5b0f |    2.014       0       5       0       5     10     10      0   5593     225       1  10    05b0f a70f      8.190 "
