test,1583576638289385984,10," | 10  |   5661       5   5633       0 |   5    0      5543        90 |   1  58    0    0 140f |    2.044       0       5       0       5     58     58      0   5473     160       1  58    0140f a70f      8.130 "
test,1583576638294897152,12," | 12  |   5661       5   5625      34 |   5    0      5597        62 |   1  58    0    0 140f |    1.983       0       5       0       5     58     58      0   5498     161       1  58    0140f a70f      8.070 "
test,1583576638290424064,13," | 13  |   5661       5   5657       0 |   5    0      5610        47 |   2  58    0    0 140f |    2.777       0       5       0       5     58     58      0   5543     114       2  58    0140f a70f      8.970 "
test,1583576638291081984,15," | 15  |   5661       5   5616      43 |   5    0      5438       221 |   2  58    0    0 140f |    2.716       0       5       0       5     58     58      0   5182     477       2  58    0140f a70f      8.940 "
test,1583576638289993984,16," | 16  |   5661       5   5657       0 |   5    0      5455       202 |   4  24    0    0 1e0f |    2.807       0       5       0       5     24     24      0   5301     356       2  24    01e0f a70f      8.880 "
test,1583576638288899840,17," | 17  |   5661       5   5650       7 |   5    0      5589        68 |   1  24    0    0 1e0f |    2.075       0       5       0       5     24     24      0   5422     235       1  24    01e0f a70f      9.000 "
test,1583576638288184832,18," | 18  |   5661       5   5656       0 |   5    0      5343       313 |   1  24    0    0 1e0f |    2.075       0       5       0       5     24     24      0   5119     537       1  24    01e0f a70f      8.130 "
test,1583576638292813056,19," | 19  |   5661       5   5646      11 |   5    0      5555       102 |   2  24    0    0 1e0f |    2.807       0       5       0       5     24     24      0   5399     258       2  24    01e0f a70f      9.690 "
test,1583576638291449088,1," |  1  |   5661       4   5658       0 |   4    0      5511       147 |   2  58    0    0 140f |    3.417       0       5       0       5     58     58      0   5473     185       2  58    0140f a70f      9.630 "
test,1583576638288593152,22," | 22  |   5661       5   5655       0 |   5    0      5607        48 |   2  24    0    0 1e0f |    2.075       0       5       0       5     24     24      0   5354     301       1  24    01e0f a70f      8.280 "
test,1583576638288347904,23," | 23  |   5661       5   5599       0 |   5    0      5574        25 |   3  24    0    0 1e0f |    2.075       0       5       0       5     24     24      0   5462     137       1  24    01e0f a70f      8.130 "
test,1583576638287966976,24," | 24  |   5661       5   5655       2 |   4    0      5598        59 |   3  24    0    1 1e0f |    1.739       0       4       0       4     24     24      0   5451     206       2  24    11e0f a70f      6.510 "
test,1583576638289207040,26," | 26  |   5661       5   5655       2 |   5    0      5633        24 |   1  24    0    0 1e0f |    2.044       0       5       0       5     24     24      0   5529     128       1  24    01e0f a70f      8.250 "
test,1583576638309721088,27," | 27  |   5661       5   5659       0 |   5    7      5499       160 |   1  29   24    0 3d0f |    1.983       0       1       0       1     29     29      0   5273     386       1  29    03d0f a70f     30.360 "
test,1583576638292041984,28," | 28  |   5661       5   5650       7 |   5    0      5197       460 |   1  30    0    0 de0f |    2.044       0       5       0       5     30     30      0   4982     675       1  30    0de0f a70f      8.100 "
test,1583576638309499904,29," | 29  |   5661       5   5652       7 |   4    4      4999       660 |   5  29   24    1 3d0f |    1.739       0       1       0       1     29     29      0   4760     899       2  29    13d0f a70f     30.300 "
test,1583576638286836992,30," | 30  |   5661       5   5654       3 |   4    0      5582        75 |   2  30    0    1 de0f |    1.770       0       4       0       4     30     30      0   5379     278       2  30    1de0f a70f      6.510 "
test,1583576638287730944,35," | 35  |   5661       5   5654       3 |   5    0      5394       263 |   1  30    0    0 de0f |    2.014       0       5       0       5     30     30      0   5272     385       1  30    0de0f a70f      8.220 "
test,1583576638290667008,40," | 40  |   5661       5   5579      74 |   5    0      5306       347 |   1  24    0    0 1e0f |    2.044       0       5       0       5     24     24      0   5176     477       1  24    01e0f a70f      8.100 "
test,1583576638310158080,41," | 41  |   5661       5   5588      59 |   5    0      5600        47 |   4  24    0    0 1e0f |    2.777       0       4       0       4     24     24      0   5467     180       2  24    01e0f a70f     30.360 "
test,1583576638311804928,42," | 42  |   5661       5   5595      62 |   5    0      5546       111 |   1  24    0    0 1e0f |    2.807       0       4       0       4     24     24      0   5430     227       2  24    01e0f a70f     30.360 "
test,1583576638310980096,44," | 44  |   5661       5   5600      57 |   5    0      5545       112 |   1  24    0    0 1e0f |    2.807       0       3       0       3     24     24      0   5438     219       2  24    01e0f a70f     30.330 "
test,1583576638307478784,45," | 45  |   5661       5   5614      43 |   0   10      5478       179 |   0  45   24    1  40f |    0           0       0       0       8      0      0      0   5376     281       0  45    1 40f a70f     30.240 "
test,1583576638312019968,46," | 46  |   5661       5   5593      57 |   5    0      5396       254 |   5  24    0    0 1e0f |    3.540       0       4       0       4     24     24      0   5304     346       3  24    01e0f a70f     30.360 "
test,1583576638310572032,47," | 47  |   5661       5   5600      57 |   5    0      5470       187 |   5  24    0    0 1e0f |    3.509       0       4       0       4     24     24      0   5380     277       3  24    01e0f a70f     30.300 "
test,1583576638310774016,48," | 48  |   5661       5   5535      55 |   5    0      5472       118 |   5  24    0    0 1e0f |    2.746       0       4       0       4     24     24      0   5378     212       2  24    01e0f a70f     30.390 "
test,1583576638293282048,49," | 49  |   5661       5   5651       0 |   5    0      5543       108 |   1  58    0    0 140f |    1.983       0       5       0       5     58     58      0   5505     146       1  58    0140f a70f      8.190 "
test,1583576638290281984,51," | 51  |   5661       5   5652       0 |   5    0      5595        57 |   2  58    0    0 140f |    2.777       0       5       0       5     58     58      0   5577      75       2  58    0140f a70f      8.970 "
test,1583576638292360192,52," | 52  |   5661       5   5626      27 |   5    0      5383       270 |   1  24    0    0 1e0f |    2.014       0       5       0       5     24     24      0   5278     375       1  24    01e0f a70f      9.690 "
test,1583576638299496960,53," | 53  |   5661       5   5635       0 |   5    0      5338       297 |   2  58    0    0 140f |    2.716       0       5       0       5     58     58      0   5280     355       2  58    0140f a70f      8.940 "
test,1583576638293788928,54," | 54  |   5661       5   5653       0 |   5    0      5556        97 |   1  58    0    0 140f |    1.983       0       5       0       5     58     58      0   5465     188       1  58    0140f a70f      8.820 "
test,1583576638289586944,55," | 55  |   5661       5   5640       0 |   5    0      5428       212 |   1  58    0    0 140f |    2.044       0       5       0       5     58     58      0   5384     256       1  58    0140f a70f      8.100 "
test,1583576638286529024,56," | 56  |   5661       5   5643       0 |   5    0      5560        83 |   1  58    0    0 140f |    2.044       0       5       0       5     58     58      0   5493     150       1  58    0140f a70f      8.100 "
test,1583576638287240960,57," | 57  |   5661       5   5598       0 |   1    2      5457       141 |   1  58   24    0 140f |    2.044       0       5       0       5     58     58      0   5124     474       1  58    0140f a70f      8.130 "
test,1583576638289777152,58," | 58  |   5661       5   5652       0 |   4    0      5574        78 |   2  58    0    1 140f |    1.739       0       4       0       4     58     58      0   5340     312       2  58    1140f a70f      6.480 "
test,1583576638309995008,5," |  5  |   5661       5   5659       0 |   5    0      5156       503 |   2  58    0    0 140f |    4.211       0       4       0       4     58     58      0   5058     601       4  58    0140f a70f     30.360 "
test,1583576638291816960,60," | 60  |   5661       5   5652       0 |   5    0      5291       361 |   2  58    0    0 140f |    3.448       0       5       0       5     58     58      0   5180     472       3  58    0140f a70f      9.660 "
test,1583576638293577984,61," | 61  |   5661       5   5651       0 |   5    0      5394       257 |   1  58    0    0 140f |    2.014       0       5       0       5     58     58      0   5201     450       1  58    0140f a70f      8.220 "
test,1583576638290860800,7," |  7  |   5661       5   5658       0 |   5    0      5571        87 |   2  58    0    0 140f |    2.746       0       5       0       5     58     58      0   5535     123       2  58    0140f a70f      8.970 "
test,1583576638294531072,9," |  9  |   5661       5   5657       0 |   5    0      5464       193 |   2  58    0    0 140f |    2.746       0       5       0       5     58     58      0   5440     217       2  58    0140f a70f      8.970 "
