test,1583576494287389952,10," | 10  |   5085       5   5057       0 |   5    0      4975        82 |   2  61    0    0 780f |    2.746       0       5       0       5     61     61      0   4911     146       2  61    0780f a70f      8.970 "
test,1583576494286343168,12," | 12  |   5085       5   5066      17 |   5    0      5032        51 |   2  61    0    0 780f |    2.716       0       5       0       5     61     61      0   4942     141       2  61    0780f a70f      9.660 "
test,1583576494287916032,13," | 13  |   5085       5   5081       0 |   5    0      5041        40 |   2  61    0    0 780f |    2.746       0       5       0       5     61     61      0   4978     103       2  61    0780f a70f      9.690 "
test,1583576494287746048,15," | 15  |   5085       5   5058      25 |   5    0      4885       198 |   3  61    0    0 780f |    3.448       0       5       0       5     61     61      0   4656     427       3  61    0780f a70f     10.380 "
test,1583576494280247040,16," | 16  |   5085       5   5081       0 |   5    0      4899       182 |   1  26    0    0 d60f |    2.014       0       5       0       5     26     26      0   4762     319       1  26    0d60f a70f      8.970 "
test,1583576494285774080,17," | 17  |   5085       5   5074       7 |   5    0      5019        62 |   1  26    0    0 d60f |    1.983       0       5       0       5     26     26      0   4871     210       1  26    0d60f a70f      8.910 "
test,1583576494290377984,18," | 18  |   5085       5   5080       0 |   4    0      4786       294 |   2  26    0    0 d60f |    1.983       0       5       0       5     26     26      0   4583     497       1  26    0d60f a70f      8.910 "
test,1583576494294702080,19," | 19  |   5085       4   5070      11 |   5    0      4996        85 |   1  26    0    0 d60f |    2.044       0       5       0       5     26     26      0   4852     229       1  26    0d60f a70f      9.570 "
test,1583576494285476096,1," |  1  |   5085       4   5082       0 |   5    0      4952       130 |   2  61    0    0 780f |    3.417       0       5       0       5     61     61      0   4916     166       2  61    0780f a70f      9.630 "
test,1583576494287147008,22," | 22  |   5085       5   5079       0 |   5    0      5034        45 |   2  26    0    0 d60f |    1.983       0       5       0       5     26     26      0   4802     277       1  26    0d60f a70f      8.820 "
test,1583576494296623872,23," | 23  |   5085       5   5023       0 |   5    0      5001        22 |   3  26    0    0 d60f |    2.014       0       5       0       5     26     26      0   4896     127       1  26    0d60f a70f      8.970 "
test,1583576494284989952,24," | 24  |   5085       5   5079       2 |   5    0      5029        52 |   1  26    0    0 d60f |    2.044       0       5       0       5     26     26      0   4895     186       1  26    0d60f a70f      8.850 "
test,1583576494286663936,26," | 26  |   5085       5   5079       2 |   5    0      5061        20 |   2  26    0    1 d60f |    1.739       0       4       0       4     26     26      0   4969     112       2  26    1d60f a70f      7.200 "
test,1583576494292110848,27," | 27  |   5085       5   5083       0 |   4    5      4940       143 |   6  26   29    0 d60f |    2.746       0       5       0       5     26     26      0   4732     351       2  26    0d60f a70f      9.540 "
test,1583576494293344000,28," | 28  |   5085       5   5075       6 |   5    7      4669       412 |   2  35   26    0 cb0f |    2.014       0       5       0       5     35     35      0   4471     610       1  35    0cb0f a70f      8.940 "
test,1583576494305943040,29," | 29  |   5085       5   5076       7 |   0    2      4490       593 |   0  29   26    1 8d0f |    0           0       0       0       8      0      0      0   4277     806       0  29    18d0f a70f     30.150 "
test,1583576494286166016,30," | 30  |   5085       5   5079       2 |   5    5      5013        68 |   1  35   26    0 cb0f |    2.044       0       5       0       5     35     35      0   4827     254       1  35    0cb0f a70f      8.250 "
test,1583576494285981952,35," | 35  |   5085       5   5079       2 |   4    5      4839       242 |   5  35   26    1 cb0f |    1.739       0       4       0       4     35     35      0   4729     352       2  35    1cb0f a70f      6.480 "
test,1583576494288584960,40," | 40  |   5085       5   5003      74 |   1    3      4762       315 |   2  46   26    0 c70f |    4.821       0       5       0       5     46     46      0   4644     433       5  46    0c70f a70f     11.010 "
test,1583576494290030080,41," | 41  |   5085       5   5012      59 |   1    2      5032        39 |   1  46   26    0 c70f |    4.089       0       5       0       5     46     46      0   4909     162       4  46    0c70f a70f     10.320 "
test,1583576494307492096,42," | 42  |   5085       5   5019      62 |   1    4      4974       107 |   1  46   26    0 c70f |    4.119       0       4       0       4     46     46      0   4867     214       4  46    0c70f a70f     30.390 "
test,1583576494292311040,44," | 44  |   5085       4   5024      57 |   1    8      4980       101 |   2  46   26    0 c70f |    4.852       0       5       0       5     46     46      0   4885     196       5  46    0c70f a70f     11.040 "
test,1583576494292753920,45," | 45  |   5085       5   5038      43 |   1    1      4924       157 |   2  46   26    0 c70f |    4.852       0       5       0       5     46     46      0   4832     249       5  46    0c70f a70f     10.980 "
test,1583576494287554048,46," | 46  |   5085       5   5017      57 |   1    0      4854       220 |   2  46    0    1 c70f |    3.814       0       4       0       4     46     46      0   4769     305       5  46    1c70f a70f      8.520 "
test,1583576494289051904,47," | 47  |   5085       5   5024      57 |   1    3      4908       173 |   1  46   26    0 c70f |    4.119       0       5       0       5     46     46      0   4827     254       4  46    0c70f a70f     11.070 "
test,1583576494291196160,48," | 48  |   5085       5   4959      55 |   1    4      4901       113 |   1  46   26    0 c70f |    4.150       0       5       0       5     46     46      0   4815     199       4  46    0c70f a70f     10.980 "
test,1583576494290556928,49," | 49  |   5085       5   5075       0 |   5    0      4977        98 |   3  61    0    0 780f |    3.479       0       5       0       5     61     61      0   4940     135       3  61    0780f a70f      9.540 "
test,1583576494284246016,51," | 51  |   5085       5   5076       0 |   5    0      5028        48 |   2  61    0    0 780f |    2.716       0       5       0       5     61     61      0   5009      67       2  61    0780f a70f      8.940 "
test,1583576494296279040,52," | 52  |   5085       4   5051      26 |   5    0      4841       236 |   1  26    0    0 d60f |    2.746       0       5       0       5     26     26      0   4743     334       2  26    0d60f a70f      8.940 "
test,1583576494291745024,53," | 53  |   5085       5   5059       0 |   5    0      4784       275 |   4  61    0    0 780f |    4.211       0       5       0       5     61     61      0   4731     328       4  61    0780f a70f     10.320 "
test,1583576494283698176,54," | 54  |   5085       5   5077       0 |   5    0      4988        89 |   1  61    0    0 780f |    2.014       0       5       0       5     61     61      0   4907     170       1  61    0780f a70f      8.190 "
test,1583576494290203136,55," | 55  |   5085       5   5064       0 |   5    0      4872       192 |   3  61    0    0 780f |    3.448       0       5       0       5     61     61      0   4831     233       3  61    0780f a70f      9.480 "
test,1583576494283511040,56," | 56  |   5085       5   5067       0 |   5    0      4989        78 |   1  61    0    0 780f |    2.014       0       5       0       5     61     61      0   4926     141       1  61    0780f a70f      8.070 "
test,1583576494307281920,57," | 57  |   5085       5   5022       0 |   1    3      4892       130 |   1  61   26    0 780f |   10.833       0       1       0       1     61     61      0   4591     431      13  61    0780f a70f     30.360 "
test,1583576494293797120,58," | 58  |   5085       4   5076       0 |   5    0      5003        73 |   2  61    0    0 780f |    2.777       0       5       0       5     61     61      0   4788     288       2  61    0780f a70f     11.040 "
test,1583576494307687936,5," |  5  |   5085       5   5083       0 |   4    0      4632       451 |   3  61    0    0 780f |    3.479       0       4       0       4     61     61      0   4545     538       3  61    0780f a70f     30.330 "
test,1583576494288849152,60," | 60  |   5085       5   5076       0 |   5    0      4757       319 |   2  61    0    0 780f |    2.746       0       5       0       5     61     61      0   4659     417       2  61    0780f a70f      9.660 "
test,1583576494289844992,61," | 61  |   5085       4   5075       0 |   4    0      4844       231 |   3  61    0    1 780f |    1.739       0       4       0       4     61     61      0   4674     401       2  61    1780f a70f      9.360 "
test,1583576494284795904,7," |  7  |   5085       5   5082       0 |   5    0      5006        76 |   2  61    0    0 780f |    2.746       0       5       0       5     61     61      0   4975     107       2  61    0780f a70f      8.940 "
test,1583576494289680896,9," |  9  |   5085       5   5081       0 |   5    0      4905       176 |   2  61    0    0 780f |    2.746       0       5       0       5     61     61      0   4882     199       2  61    0780f a70f      9.600 "
