test,1583576490287788032,10," | 10  |   5069       5   5041       0 |   5    0      4959        82 |   1  51    0    0 110f |    1.983       0       5       0       5     51     51      0   4895     146       1  51    0110f a70f      8.940 "
test,1583576490285939968,12," | 12  |   5069       5   5051      16 |   5    0      5016        51 |   2  51    0    0 110f |    2.777       0       5       0       5     51     51      0   4926     141       2  51    0110f a70f      8.910 "
test,1583576490287604992,13," | 13  |   5069       5   5065       0 |   5    0      5025        40 |   1  51    0    0 110f |    2.014       0       5       0       5     51     51      0   4962     103       1  51    0110f a70f      8.970 "
test,1583576490289011968,15," | 15  |   5069       5   5043      24 |   5    0      4869       198 |   3  51    0    0 110f |    3.479       0       5       0       5     51     51      0   4641     426       3  51    0110f a70f      9.690 "
test,1583576490289539072,16," | 16  |   5069       5   5065       0 |   5    0      4884       181 |   2  22    0    0 d20f |    2.777       0       5       0       5     22     22      0   4747     318       2  22    0d20f a70f      9.000 "
test,1583576490293787904,17," | 17  |   5069       5   5058       7 |   5    0      5003        62 |   2  22    0    0 d20f |    2.746       0       5       0       5     22     22      0   4855     210       2  22    0d20f a70f      8.970 "
test,1583576490285059072,18," | 18  |   5069       5   5064       0 |   5    0      4770       294 |   1  22    0    0 d20f |    2.044       0       5       0       5     22     22      0   4567     497       1  22    0d20f a70f      8.160 "
test,1583576490288621824,19," | 19  |   5069       4   5054      11 |   5    0      4980        85 |   1  22    0    0 d20f |    2.777       0       5       0       5     22     22      0   4836     229       2  22    0d20f a70f      9.540 "
test,1583576490286128128,1," |  1  |   5069       4   5066       0 |   5    0      4936       130 |   1  51    0    0 110f |    2.685       0       5       0       5     51     51      0   4900     166       1  51    0110f a70f      8.910 "
test,1583576490295648000,22," | 22  |   5069       5   5063       0 |   4    0      5019        44 |   2  22    0    1 d20f |    1.739       0       4       0       4     22     22      0   4787     276       2  22    1d20f a70f      6.480 "
test,1583576490283811072,23," | 23  |   5069       5   5007       0 |   5    0      4985        22 |   1  22    0    0 d20f |    2.044       0       5       0       5     22     22      0   4881     126       1  22    0d20f a70f      8.280 "
test,1583576490284622080,24," | 24  |   5069       5   5063       2 |   5    0      5013        52 |   1  22    0    0 d20f |    2.044       0       5       0       5     22     22      0   4879     186       1  22    0d20f a70f      8.220 "
test,1583576490286607872,26," | 26  |   5069       5   5063       2 |   5    0      5045        20 |   1  22    0    0 d20f |    2.075       0       5       0       5     22     22      0   4953     112       1  22    0d20f a70f      8.160 "
test,1583576490305536000,27," | 27  |   5069       5   5067       0 |   0    5      4924       143 |   0  27   22    1 700f |    0           0       0       0       8      0      0      0   4716     351       0  27    1700f a70f     30.180 "
test,1583576490296758784,28," | 28  |   5069       5   5059       6 |   5    0      4655       410 |   1  30    0    0 a10f |    2.014       0       5       0       5     30     30      0   4458     607       1  30    0a10f a70f      8.220 "
test,1583576490307233024,29," | 29  |   5069       4   5060       7 |   2    3      4477       590 |   8  22   27    0 d20f |    3.509       0       3       0       3     22     22      0   4264     803       3  22    0d20f a70f     30.360 "
test,1583576490283607040,30," | 30  |   5069       5   5063       2 |   4    0      4997        68 |   2  30    0    1 a10f |    1.770       0       4       0       4     30     30      0   4811     254       2  30    1a10f a70f      6.510 "
test,1583576490288027904,35," | 35  |   5069       5   5063       2 |   5    0      4825       240 |   1  30    0    0 a10f |    1.983       0       5       0       5     30     30      0   4715     350       1  30    0a10f a70f      8.040 "
test,1583576490290745856,40," | 40  |   5069       4   4987      74 |   5    0      4746       315 |   3  44    0    0 530f |    2.044       0       5       0       5     44     44      0   4629     432       1  44    0530f a70f     10.230 "
test,1583576490298562048,41," | 41  |   5069       5   4996      59 |   5    0      5016        39 |   2  44    0    0 530f |    2.044       0       5       0       5     44     44      0   4893     162       1  44    0530f a70f     10.950 "
test,1583576490293311232,42," | 42  |   5069       5   5003      62 |   5    0      4958       107 |   3  44    0    0 530f |    1.983       0       5       0       5     44     44      0   4851     214       1  44    0530f a70f      9.690 "
test,1583576490279089920,44," | 44  |   5069       5   5008      57 |   5    0      4964       101 |   4  44    0    1 530f |    1.739       0       4       0       4     44     44      0   4869     196       2  44    1530f a70f      6.480 "
test,1583576490287208960,45," | 45  |   5069       5   5022      43 |   5    0      4908       157 |   1  44    0    0 530f |    2.014       0       5       0       5     44     44      0   4816     249       1  44    0530f a70f      8.100 "
test,1583576490291815936,46," | 46  |   5069       5   5001      57 |   5    0      4839       219 |   4  44    0    0 530f |    2.044       0       5       0       5     44     44      0   4754     304       1  44    0530f a70f      8.910 "
test,1583576490290082816,47," | 47  |   5069       5   5008      57 |   5    0      4892       173 |   3  44    0    0 530f |    2.014       0       5       0       5     44     44      0   4811     254       1  44    0530f a70f      8.100 "
test,1583576490288212992,48," | 48  |   5069       5   4943      55 |   4    0      4885       113 |   4  44    0    0 530f |    2.014       0       5       0       5     44     44      0   4799     199       1  44    0530f a70f      8.220 "
test,1583576490284014080,49," | 49  |   5069       5   5059       0 |   4    0      4961        98 |   4  49    0    1 250f |    1.739       0       4       0       4     49     49      0   4924     135       2  49    1250f a70f      6.480 "
test,1583576490283389184,51," | 51  |   5069       5   5060       0 |   4    0      5012        48 |   4  51    0    1 110f |    1.739       0       4       0       4     51     51      0   4993      67       2  51    1110f a70f      6.510 "
test,1583576490307568128,52," | 52  |   5069       5   5035      26 |   5    0      4825       236 |   2  22    0    0 d20f |    2.777       0       4       0       4     22     22      0   4727     334       2  22    0d20f a70f     30.360 "
test,1583576490285743872,53," | 53  |   5069       5   5043       0 |   5    0      4770       273 |   1  49    0    0 250f |    2.014       0       5       0       5     49     49      0   4717     326       1  49    0250f a70f      8.250 "
test,1583576490286406144,54," | 54  |   5069       5   5061       0 |   5    0      4972        89 |   2  51    0    0 110f |    2.746       0       5       0       5     51     51      0   4891     170       2  51    0110f a70f      8.970 "
test,1583576490285351936,55," | 55  |   5069       5   5048       0 |   5    0      4857       191 |   1  49    0    0 250f |    2.014       0       5       0       5     49     49      0   4816     232       1  49    0250f a70f      8.190 "
test,1583576490286806016,56," | 56  |   5069       5   5051       0 |   5    1      4973        78 |   1  51   49    0 110f |    2.014       0       5       0       5     51     51      0   4910     141       1  51    0110f a70f      8.190 "
test,1583576490305277184,57," | 57  |   5069       5   5006       0 |   2    1      4876       130 |   4  22   51    0 d20f |    0           0       0       0       8      0      0      0   4576     430       0  22    0d20f a70f     30.360 "
test,1583576490289197056,58," | 58  |   5069       5   5060       0 |   5    0      4988        72 |   1  49    0    0 250f |    2.014       0       5       0       5     49     49      0   4773     287       1  49    0250f a70f      8.880 "
test,1583576490291016960,5," |  5  |   5069       5   5067       0 |   5    0      4617       450 |   2  51    0    0 110f |    2.746       0       5       0       5     51     51      0   4530     537       2  51    0110f a70f      9.690 "
test,1583576490284833792,60," | 60  |   5069       5   5060       0 |   3    0      4742       318 |   1  51    0    0 110f |    2.014       0       5       0       5     51     51      0   4645     415       1  51    0110f a70f      8.220 "
test,1583576490288427008,61," | 61  |   5069       5   5059       0 |   5    0      4828       231 |   2  49    0    0 250f |    2.777       0       5       0       5     49     49      0   4659     400       2  49    0250f a70f      9.750 "
test,1583576490284282880,7," |  7  |   5069       5   5066       0 |   5    0      4990        76 |   1  51    0    0 110f |    2.014       0       5       0       5     51     51      0   4959     107       1  51    0110f a70f      8.190 "
test,1583576490287023104,9," |  9  |   5069       5   5065       0 |   5    0      4889       176 |   2  51    0    0 110f |    2.716       0       5       0       5     51     51      0   4866     199       2  51    0110f a70f      8.940 "
