test,1583576607291047936,10," | 10  |   5537       5   5509       0 |   5    0      5420        89 |   2  55    0    0 210f |    2.746       0       5       0       5     55     55      0   5351     158       2  55    0210f a70f      9.540 "
test,1583576607288814080,12," | 12  |   5537       5   5505      30 |   5    0      5474        61 |   2  55    0    0 210f |    2.716       0       5       0       5     55     55      0   5378     157       2  55    0210f a70f      8.940 "
test,1583576607291297792,13," | 13  |   5537       5   5533       0 |   5    0      5486        47 |   3  55    0    0 210f |    3.509       0       5       0       5     55     55      0   5420     113       3  55    0210f a70f      9.690 "
test,1583576607294439936,15," | 15  |   5537       5   5497      38 |   5    0      5319       216 |   3  55    0    0 210f |    3.479       0       5       0       5     55     55      0   5068     467       3  55    0210f a70f      9.570 "
test,1583576607294254080,16," | 16  |   5537       5   5533       0 |   5    0      5337       196 |   1  17    0    0 1b0f |    2.716       0       5       0       5     17     17      0   5183     350       2  17    01b0f a70f      8.790 "
test,1583576607286324992,17," | 17  |   5537       5   5526       7 |   4    0      5465        68 |   2  17    0    1 1b0f |    1.739       0       4       0       4     17     17      0   5302     231       2  17    11b0f a70f      6.480 "
test,1583576607296446208,18," | 18  |   5537       5   5532       0 |   5    0      5224       308 |   1  17    0    0 1b0f |    2.685       0       5       0       5     17     17      0   5003     529       2  17    01b0f a70f     10.170 "
test,1583576607301915904,19," | 19  |   5537       5   5522      11 |   5    0      5435        98 |   1  17    0    0 1b0f |    1.983       0       5       0       5     17     17      0   5283     250       1  17    01b0f a70f      8.190 "
test,1583576607288144128,1," |  1  |   5537       4   5534       0 |   5    0      5392       142 |   4  55    0    0 210f |    4.150       0       5       0       5     55     55      0   5355     179       3  55    0210f a70f     10.350 "
test,1583576607290856960,22," | 22  |   5537       5   5531       0 |   5    0      5484        47 |   1  17    0    0 1b0f |    2.685       0       5       0       5     17     17      0   5237     294       2  17    01b0f a70f      9.600 "
test,1583576607286786048,23," | 23  |   5537       5   5475       0 |   5    0      5450        25 |   1  17    0    0 1b0f |    1.983       0       5       0       5     17     17      0   5339     136       1  17    01b0f a70f      8.190 "
test,1583576607289895936,24," | 24  |   5537       5   5531       2 |   5    0      5476        57 |   1  17    0    0 1b0f |    2.746       0       5       0       5     17     17      0   5331     202       2  17    01b0f a70f     10.320 "
test,1583576607292841984,26," | 26  |   5537       5   5531       2 |   5    0      5509        24 |   1  17    0    0 1b0f |    1.983       0       5       0       5     17     17      0   5407     126       1  17    01b0f a70f      9.480 "
test,1583576607309707008,27," | 27  |   5537       5   5535       0 |   4    1      5378       157 |   1  17   55    0 1b0f |    2.014       0       3       0       3     17     17      0   5155     380       1  17    01b0f a70f     30.180 "
test,1583576607290407936,28," | 28  |   5537       5   5526       7 |   5    0      5081       452 |   1  17    0    0 1b0f |    2.746       0       5       0       5     17     17      0   4872     661       2  17    01b0f a70f      8.940 "
test,1583576607308783104,29," | 29  |   5537       2   5528       7 |   2    0      4887       648 |   7  17    0    0 1b0f |    2.746       0       2       0       2     17     17      0   4650     885       2  17    01b0f a70f     30.330 "
test,1583576607293246976,30," | 30  |   5537       5   5530       3 |   5    0      5459        74 |   3  17    0    0 1b0f |    3.479       0       5       0       5     17     17      0   5259     274       3  17    01b0f a70f      9.690 "
test,1583576607290606848,35," | 35  |   5537       5   5530       3 |   5    0      5273       260 |   2  17    0    0 1b0f |    3.479       0       5       0       5     17     17      0   5154     379       3  17    01b0f a70f     10.230 "
test,1583576607309199104,40," | 40  |   5537       4   5455      74 |   5    0      5185       344 |   2  17    0    0 1b0f |    9.307       0       2       0       2     17     17      0   5055     474      11  17    01b0f a70f     30.360 "
test,1583576607308440064,41," | 41  |   5537       5   5464      59 |   5    0      5480        43 |   1  17    0    0 1b0f |    9.277       0       3       0       3     17     17      0   5350     173      11  17    01b0f a70f     30.390 "
test,1583576607307991040,42," | 42  |   5537       5   5471      62 |   4    4      5422       111 |   2  17   44    0 1b0f |    9.338       0       3       0       3     17     17      0   5310     223      11  17    01b0f a70f     30.390 "
test,1583576607294994944,44," | 44  |   5537       5   5476      57 |   4    2      5424       109 |  14  44   17    1 2e0f |    1.739       0       4       0       4     44     44      0   5318     215       2  44    12e0f a70f      6.510 "
test,1583576607288305152,45," | 45  |   5537       5   5490      43 |   5    1      5359       174 |   1  44   17    0 2e0f |    2.014       0       5       0       5     44     44      0   5259     274       1  44    02e0f a70f      8.250 "
test,1583576607308232960,46," | 46  |   5537       5   5469      57 |   5    0      5281       245 |   2  17    0    0 1b0f |   10.009       0       3       0       3     17     17      0   5191     335      12  17    01b0f a70f     30.360 "
test,1583576607308982016,47," | 47  |   5537       5   5476      57 |   4    5      5349       184 |   2  17   44    0 1b0f |    9.338       0       3       0       3     17     17      0   5260     273      11  17    01b0f a70f     30.300 "
test,1583576607287195904,48," | 48  |   5537       5   5411      55 |   5    2      5349       117 |   1  44   17    0 2e0f |    2.044       0       5       0       5     44     44      0   5256     210       1  44    02e0f a70f      8.130 "
test,1583576607285868800,49," | 49  |   5537       5   5527       0 |   5    0      5421       106 |   1  55    0    0 210f |    2.014       0       5       0       5     55     55      0   5383     144       1  55    0210f a70f      8.160 "
test,1583576607292195072,51," | 51  |   5537       5   5528       0 |   5    0      5476        52 |   3  55    0    0 210f |    3.509       0       5       0       5     55     55      0   5457      71       3  55    0210f a70f      9.630 "
test,1583576607292545024,52," | 52  |   5537       5   5502      27 |   4    0      5265       264 |   4  17    0    0 1b0f |    2.716       0       5       0       5     17     17      0   5161     368       2  17    01b0f a70f      8.760 "
test,1583576607286601984,53," | 53  |   5537       5   5511       0 |   5    0      5217       294 |   1  55    0    0 210f |    1.983       0       5       0       5     55     55      0   5160     351       1  55    0210f a70f      8.040 "
test,1583576607289423104,54," | 54  |   5537       5   5529       0 |   5    0      5432        97 |   2  55    0    0 210f |    2.746       0       5       0       5     55     55      0   5344     185       2  55    0210f a70f      9.570 "
test,1583576607286135808,55," | 55  |   5537       5   5516       0 |   4    0      5308       208 |   2  55    0    1 210f |    1.739       0       4       0       4     55     55      0   5265     251       2  55    1210f a70f      6.480 "
test,1583576607290081024,56," | 56  |   5537       5   5519       0 |   5    0      5438        81 |   2  55    0    0 210f |    2.746       0       5       0       5     55     55      0   5372     147       2  55    0210f a70f      8.940 "
test,1583576607293843968,57," | 57  |   5537       5   5474       0 |   2    1      5334       140 |   3  55   17    0 210f |    3.509       0       5       0       5     55     55      0   5007     467       3  55    0210f a70f      9.630 "
test,1583576607289086976,58," | 58  |   5537       5   5528       0 |   5    0      5451        77 |   1  55    0    0 210f |    2.014       0       5       0       5     55     55      0   5221     307       1  55    0210f a70f      8.130 "
test,1583576607287926016,5," |  5  |   5537       5   5535       0 |   5    0      5043       492 |   3  55    0    0 210f |    3.509       0       5       0       5     55     55      0   4948     587       3  55    0210f a70f      9.570 "
test,1583576607293520896,60," | 60  |   5537       5   5528       0 |   5    0      5176       352 |   4  55    0    0 210f |    4.211       0       5       0       5     55     55      0   5068     460       4  55    0210f a70f     10.290 "
test,1583576607291992832,61," | 61  |   5537       4   5527       0 |   5    0      5275       252 |   2  55    0    0 210f |    2.746       0       5       0       5     55     55      0   5088     439       2  55    0210f a70f      9.690 "
test,1583576607288500992,7," |  7  |   5537       5   5534       0 |   5    0      5449        85 |   3  55    0    0 210f |    3.509       0       5       0       5     55     55      0   5414     120       3  55    0210f a70f      9.630 "
test,1583576607289670912,9," |  9  |   5537       5   5533       0 |   5    0      5345       188 |   4  55    0    0 210f |    3.509       0       5       0       5     55     55      0   5321     212       3  55    0210f a70f      9.540 "
