test,1583576609281476864,10," | 10  |   5545       5   5517       0 |   5    0      5427        90 |   1   9    0    0 ce0f |    2.044       0       5       0       5      9      9      0   5359     158       1   9    0ce0f a70f      8.160 "
test,1583576609288167936,12," | 12  |   5545       5   5513      30 |   5    0      5482        61 |   1   9    0    0 ce0f |    2.014       0       5       0       5      9      9      0   5386     157       1   9    0ce0f a70f      8.280 "
test,1583576609285773056,13," | 13  |   5545       5   5541       0 |   5    0      5494        47 |   1   9    0    0 ce0f |    2.075       0       5       0       5      9      9      0   5428     113       1   9    0ce0f a70f      8.310 "
test,1583576609293175808,15," | 15  |   5545       5   5505      38 |   5    0      5327       216 |   2   9    0    0 ce0f |    2.807       0       5       0       5      9      9      0   5076     467       2   9    0ce0f a70f      9.030 "
test,1583576609309595136,16," | 16  |   5545       5   5541       0 |   5    0      5344       197 |   3  26    0    0 a40f |    2.044       0       4       0       4     26     26      0   5190     351       1  26    0a40f a70f     30.270 "
test,1583576609307771904,17," | 17  |   5545       4   5534       7 |   5    4      5473        68 |   1  24   26    0 3e0f |    9.887       0       1       0       1     24     24      0   5310     231      12  24    03e0f a70f     30.360 "
test,1583576609308090880,18," | 18  |   5545       5   5540       0 |   3    8      5231       309 |   1  47   24    0 450f |    4.974       0       1       0       1     47     47      0   5010     530       5  47    0450f a70f     30.300 "
test,1583576609306256128,19," | 19  |   5545       5   5530      11 |   3    9      5443        98 |   1  29   24    0 910f |    0           0       0       0       8      0      0      0   5290     251       0  29    0910f a70f     30.360 "
test,1583576609286436096,1," |  1  |   5545       4   5542       0 |   5    0      5400       142 |   1   9    0    0 ce0f |    2.716       0       5       0       5      9      9      0   5363     179       1   9    0ce0f a70f      8.940 "
test,1583576609304953088,22," | 22  |   5545       5   5539       0 |   3    9      5492        47 |   1  35   24    0  50f |    0           0       0       0       8      0      0      0   5244     295       0  35    0 50f a70f     30.360 "
test,1583576609308548864,23," | 23  |   5545       5   5483       0 |   5    0      5458        25 |   2  26    0    0 a40f |    2.014       0       4       0       4     26     26      0   5347     136       1  26    0a40f a70f     30.210 "
test,1583576609309179904,24," | 24  |   5545       5   5539       2 |   3    4      5484        57 |  14  24   26    1 3e0f |    8.117       0       1       0       1     24     24      0   5339     202      11  24    13e0f a70f     30.300 "
test,1583576609305376000,26," | 26  |   5545       5   5539       2 |   2   12      5517        24 |   4  26   24    1 a40f |    1.739       0       3       0       3     26     26      0   5415     126       2  26    1a40f a70f     30.300 "
test,1583576609309377024,27," | 27  |   5545       5   5543       0 |   5    0      5386       157 |   1  29    0    0 910f |    2.044       0       2       0       2     29     29      0   5163     380       1  29    0910f a70f     30.360 "
test,1583576609287748096,28," | 28  |   5545       5   5534       7 |   5    0      5088       453 |   1  35    0    0  50f |    2.044       0       5       0       5     35     35      0   4879     662       1  35    0 50f a70f      8.220 "
test,1583576609310759168,29," | 29  |   5545       5   5536       7 |   4    0      4894       649 |   2  29    0    1 910f |    1.739       0       1       0       1     29     29      0   4657     886       2  29    1910f a70f     30.300 "
test,1583576609286825984,30," | 30  |   5545       5   5538       3 |   5    0      5467        74 |   1  35    0    0  50f |    2.044       0       5       0       5     35     35      0   5267     274       1  35    0 50f a70f      8.100 "
test,1583576609294307072,35," | 35  |   5545       5   5538       3 |   4    0      5281       260 |   4  35    0    1  50f |    1.739       0       4       0       4     35     35      0   5162     379       2  35    1 50f a70f      6.480 "
test,1583576609290072832,40," | 40  |   5545       5   5463      74 |   5    0      5193       344 |   2  47    0    0 450f |    2.777       0       5       0       5     47     47      0   5063     474       2  47    0450f a70f      8.820 "
test,1583576609290954240,41," | 41  |   5545       5   5472      59 |   4    3      5488        43 |   1  47   24    0 450f |    2.014       0       5       0       5     47     47      0   5358     173       1  47    0450f a70f      8.100 "
test,1583576609287399168,42," | 42  |   5545       5   5479      62 |   5    0      5430       111 |   1  47    0    0 450f |    2.014       0       5       0       5     47     47      0   5318     223       1  47    0450f a70f      8.250 "
test,1583576609288712960,44," | 44  |   5545       5   5484      57 |   5    1      5432       109 |   1  47   24    0 450f |    2.044       0       5       0       5     47     47      0   5326     215       1  47    0450f a70f      8.130 "
test,1583576609289666048,45," | 45  |   5545       5   5498      43 |   5    0      5367       174 |   1  47    0    0 450f |    2.014       0       5       0       5     47     47      0   5267     274       1  47    0450f a70f      8.790 "
test,1583576609287038208,46," | 46  |   5545       5   5477      57 |   5    0      5289       245 |   1  47    0    0 450f |    2.014       0       5       0       5     47     47      0   5199     335       1  47    0450f a70f      8.220 "
test,1583576609287975168,47," | 47  |   5545       5   5484      57 |   4    0      5357       184 |   4  47    0    1 450f |    1.770       0       4       0       4     47     47      0   5268     273       2  47    1450f a70f      6.510 "
test,1583576609289244928,48," | 48  |   5545       5   5419      55 |   5    0      5357       117 |   1  47    0    0 450f |    1.983       0       5       0       5     47     47      0   5264     210       1  47    0450f a70f      8.250 "
test,1583576609297207040,49," | 49  |   5545       5   5535       0 |   5    0      5429       106 |   5  26    0    0 a40f |    4.211       0       5       0       5     26     26      0   5391     144       4  26    0a40f a70f     10.350 "
test,1583576609287205888,51," | 51  |   5545       5   5536       0 |   5    0      5483        53 |   2   9    0    0 ce0f |    2.746       0       5       0       5      9      9      0   5464      72       2   9    0ce0f a70f      8.820 "
test,1583576609310115072,52," | 52  |   5545       4   5510      27 |   5    8      5273       264 |   1  24   26    0 3e0f |    8.392       0       2       0       2     24     24      0   5169     368      10  24    03e0f a70f     30.360 "
test,1583576609291325184,53," | 53  |   5545       5   5519       0 |   5    0      5225       294 |   6  26    0    0 a40f |    4.913       0       5       0       5     26     26      0   5168     351       5  26    0a40f a70f     11.070 "
test,1583576609292846080,54," | 54  |   5545       5   5537       0 |   5    0      5440        97 |   1   9    0    0 ce0f |    2.044       0       5       0       5      9      9      0   5352     185       1   9    0ce0f a70f      8.190 "
test,1583576609290589952,55," | 55  |   5545       5   5524       0 |   5    0      5316       208 |   5  26    0    0 a40f |    4.180       0       5       0       5     26     26      0   5273     251       4  26    0a40f a70f     10.350 "
test,1583576609298372096,56," | 56  |   5545       5   5527       0 |   3    5      5446        81 |   2  26    9    0 a40f |    2.746       0       5       0       5     26     26      0   5380     147       2  26    0a40f a70f     15.420 "
test,1583576609288884992,57," | 57  |   5545       5   5482       0 |   5    0      5342       140 |   1  26    0    0 a40f |    2.044       0       5       0       5     26     26      0   5015     467       1  26    0a40f a70f      8.880 "
test,1583576609295312896,58," | 58  |   5545       5   5536       0 |   5    0      5459        77 |   4  26    0    0 a40f |    3.509       0       5       0       5     26     26      0   5229     307       3  26    0a40f a70f     10.260 "
test,1583576609289451008,5," |  5  |   5545       5   5543       0 |   5    0      5051       492 |   2   9    0    0 ce0f |    2.777       0       5       0       5      9      9      0   4956     587       2   9    0ce0f a70f      8.820 "
test,1583576609300886016,60," | 60  |   5545       5   5536       0 |   2    3      5184       352 |   2  26    9    0 a40f |    2.777       0       5       0       5     26     26      0   5075     461       2  26    0a40f a70f     16.110 "
test,1583576609293391872,61," | 61  |   5545       5   5535       0 |   5    0      5283       252 |   3  26    0    0 a40f |    3.509       0       5       0       5     26     26      0   5096     439       3  26    0a40f a70f      9.720 "
test,1583576609286156032,7," |  7  |   5545       5   5542       0 |   5    0      5457        85 |   1   9    0    0 ce0f |    2.075       0       5       0       5      9      9      0   5422     120       1   9    0ce0f a70f      8.190 "
test,1583576609285137920,9," |  9  |   5545       5   5541       0 |   5    0      5353       188 |   2   9    0    1 ce0f |    1.739       0       4       0       4      9      9      0   5329     212       2   9    1ce0f a70f      6.510 "
