test,1583576686788926976,10," | 10  |   5855       5   5827       0 |   5    0      5733        94 |   1   9    0    0 4d0f |    2.044       0       5       0       5      9      9      0   5662     165       1   9    04d0f a70f      8.280 "
test,1583576686792769024,12," | 12  |   5855       5   5819      34 |   5    2      5789        64 |   1   7    9    0 780f |    2.044       0       5       0       5      7      7      0   5688     165       1   7    0780f a70f     10.230 "
test,1583576686790299904,13," | 13  |   5855       5   5851       0 |   5    3      5803        48 |   1   7    9    0 780f |    2.044       0       5       0       5      7      7      0   5736     115       1   7    0780f a70f     10.950 "
test,1583576686799536896,15," | 15  |   5855       5   5810      43 |   5    0      5623       230 |   2   7    0    0 780f |    2.777       0       5       0       5      7      7      0   5359     494       2   7    0780f a70f     10.860 "
test,1583576686797627904,16," | 16  |   5855       5   5851       0 |   5    0      5639       212 |   2  22    0    0 310f |    2.746       0       5       0       5     22     22      0   5476     375       2  22    0310f a70f      8.970 "
test,1583576686792118016,17," | 17  |   5855       5   5843       8 |   5    0      5776        75 |   1  22    0    0 310f |    2.044       0       5       0       5     22     22      0   5604     247       1  22    0310f a70f     10.290 "
test,1583576686795875072,18," | 18  |   5855       5   5850       0 |   5    0      5529       321 |   1  22    0    0 310f |    2.014       0       5       0       5     22     22      0   5302     548       1  22    0310f a70f      8.220 "
test,1583576686810484992,19," | 19  |   5855       4   5839      12 |   5    0      5740       111 |   1  22    0    0 310f |    2.044       0       4       0       4     22     22      0   5580     271       1  22    0310f a70f     30.360 "
test,1583576686787297024,1," |  1  |   5855       4   5852       0 |   5    0      5699       153 |   1   9    0    0 4d0f |    2.716       0       5       0       5      9      9      0   5661     191       1   9    04d0f a70f      8.910 "
test,1583576686789808896,22," | 22  |   5855       5   5849       0 |   4    0      5798        51 |   2  22    0    1 310f |    1.739       0       4       0       4     22     22      0   5535     314       2  22    1310f a70f      6.480 "
test,1583576686796189952,23," | 23  |   5855       5   5793       0 |   5    0      5768        25 |   1  22    0    0 310f |    3.479       0       5       0       5     22     22      0   5652     141       3  22    0310f a70f     10.350 "
test,1583576686788228096,24," | 24  |   5855       5   5849       2 |   5    0      5789        62 |   1  22    0    0 310f |    2.044       0       5       0       5     22     22      0   5638     213       1  22    0310f a70f      8.130 "
test,1583576686791284992,26," | 26  |   5855       5   5849       2 |   5    0      5826        25 |   1  22    0    0 310f |    2.044       0       5       0       5     22     22      0   5718     133       1  22    0310f a70f      8.280 "
test,1583576686811328768,27," | 27  |   5855       5   5853       0 |   5    0      5687       166 |   2  22    0    0 310f |    5.706       0       4       0       4     22     22      0   5455     398       6  22    0310f a70f     30.240 "
test,1583576686791759104,28," | 28  |   5855       5   5843       8 |   5    0      5373       478 |   1  22    0    0 310f |    2.044       0       5       0       5     22     22      0   5149     702       1  22    0310f a70f      9.600 "
test,1583576686812102144,29," | 29  |   5855       4   5845       8 |   3    0      5172       681 |   2  22    0    0 310f |    6.439       0       2       0       2     22     22      0   4925     928       7  22    0310f a70f     30.360 "
test,1583576686789285888,30," | 30  |   5855       5   5848       3 |   5    0      5774        77 |   1  22    0    0 310f |    2.014       0       5       0       5     22     22      0   5560     291       1  22    0310f a70f      8.790 "
test,1583576686788500992,35," | 35  |   5855       5   5848       3 |   5    0      5576       275 |   1  22    0    0 310f |    2.044       0       5       0       5     22     22      0   5448     403       1  22    0310f a70f      8.160 "
test,1583576686810699008,40," | 40  |   5855       5   5773      74 |   5    0      5494       353 |   2  45    0    0 3b0f |    2.777       0       4       0       4     45     45      0   5356     491       2  45    03b0f a70f     30.270 "
test,1583576686792994048,41," | 41  |   5855       5   5782      59 |   5    0      5792        49 |   3  45    0    0 3b0f |    2.075       0       5       0       5     45     45      0   5654     187       1  45    03b0f a70f      9.030 "
test,1583576686795707904,42," | 42  |   5855       5   5789      62 |   5    0      5737       114 |   1  45    0    0 3b0f |    2.044       0       5       0       5     45     45      0   5615     236       1  45    03b0f a70f      9.000 "
test,1583576686794290176,44," | 44  |   5855       5   5794      57 |   5    0      5735       116 |   1  45    0    0 3b0f |    2.075       0       5       0       5     45     45      0   5624     227       1  45    03b0f a70f      8.220 "
test,1583576686783721984,45," | 45  |   5855       5   5808      43 |   4    0      5669       182 |   3  45    0    1 3b0f |    1.739       0       4       0       4     45     45      0   5564     287       2  45    13b0f a70f      6.480 "
test,1583576686799971072,46," | 46  |   5855       5   5787      57 |   5    0      5581       263 |   2  45    0    0 3b0f |    2.777       0       5       0       5     45     45      0   5485     359       2  45    03b0f a70f      9.600 "
test,1583576686793943808,47," | 47  |   5855       5   5794      57 |   5    0      5661       190 |   2  45    0    0 3b0f |    2.044       0       5       0       5     45     45      0   5568     283       1  45    03b0f a70f      9.000 "
test,1583576686793312000,48," | 48  |   5855       5   5729      55 |   5    0      5663       121 |   1  45    0    0 3b0f |    2.044       0       5       0       5     45     45      0   5564     220       1  45    03b0f a70f      8.820 "
test,1583576686808009984,49," | 49  |   5855       5   5845       0 |   0   11      5734       111 |   0  49    9    1 d00f |    0           0       0       0       8      0      0      0   5696     149       0  49    1d00f a70f     23.820 "
test,1583576686791515136,51," | 51  |   5855       5   5846       0 |   5    0      5783        63 |   1   7    0    0 780f |    2.014       0       5       0       5      7      7      0   5765      81       1   7    0780f a70f     11.670 "
test,1583576686790082048,52," | 52  |   5855       4   5820      27 |   5    0      5567       280 |   2  22    0    0 310f |    2.777       0       5       0       5     22     22      0   5460     387       2  22    0310f a70f      8.970 "
test,1583576686808370176,53," | 53  |   5855       5   5829       0 |   5    0      5518       311 |   7   9    0    0 4d0f |    0           0       0       0       8      0      0      0   5458     371       0   9    04d0f a70f     30.330 "
test,1583576686794462976,54," | 54  |   5855       5   5847       0 |   5    0      5750        97 |   1   9    0    0 4d0f |    3.479       0       5       0       5      9      9      0   5657     190       3   9    04d0f a70f     12.540 "
test,1583576686809859072,55," | 55  |   5855       5   5834       0 |   5    0      5615       219 |   7   9    0    0 4d0f |    5.676       0       2       0       2      9      9      0   5570     264       6   9    04d0f a70f     30.360 "
test,1583576686793143040,56," | 56  |   5855       5   5837       0 |   5    0      5750        87 |   2   7    0    0 780f |    2.746       0       5       0       5      7      7      0   5681     156       2   7    0780f a70f     12.360 "
test,1583576686801826048,57," | 57  |   5855       5   5792       0 |   5    1      5646       146 |   1  22    7    0 310f |    2.044       0       5       0       5     22     22      0   5296     496       1  22    0310f a70f      8.970 "
test,1583576686810054912,58," | 58  |   5855       5   5846       0 |   5    0      5766        80 |   2   9    0    0 4d0f |    4.974       0       4       0       4      9      9      0   5528     318       5   9    04d0f a70f     30.390 "
test,1583576686790703104,5," |  5  |   5855       5   5853       0 |   5    0      5331       522 |   2   7    0    0 780f |    2.746       0       5       0       5      7      7      0   5230     623       2   7    0780f a70f      8.760 "
test,1583576686794675200,60," | 60  |   5855       5   5846       0 |   5    0      5479       367 |   2   7    0    0 780f |    2.777       0       5       0       5      7      7      0   5362     484       2   7    0780f a70f     12.360 "
test,1583576686798577920,61," | 61  |   5855       5   5845       0 |   5    0      5579       266 |   3   9    0    0 4d0f |    4.211       0       5       0       5      9      9      0   5383     462       4   9    04d0f a70f     13.200 "
test,1583576686806935040,7," |  7  |   5855       5   5852       0 |   4    3      5763        89 |  14   7    9    1 780f |    8.117       0       3       0       3      7      7      0   5727     125      11   7    1780f a70f     30.300 "
test,1583576686787491072,9," |  9  |   5855       5   5851       0 |   4    0      5651       200 |   2   9    0    1 4d0f |    1.770       0       4       0       4      9      9      0   5626     225       2   9    14d0f a70f      6.510 "
