test,1583576697547264000,10," | 10  |   5898       5   5870       0 |   5    0      5775        95 |   4  30    0    0 680f |   10.131       0       5       0       5     30     30      0   5703     167      12  30    0680f a70f     16.080 "
test,1583576697541385984,12," | 12  |   5898       5   5862      34 |   5    0      5831        65 |   3  30    0    0 680f |    9.368       0       5       0       5     30     30      0   5731     165      11  30    0680f a70f     15.480 "
test,1583576697551400960,13," | 13  |   5898       5   5894       0 |   5    0      5845        49 |   5  30    0    0 680f |   10.101       0       5       0       5     30     30      0   5778     116      12  30    0680f a70f     16.200 "
test,1583576697546540032,15," | 15  |   5898       5   5853      43 |   5    0      5666       230 |   2  30    0    0 680f |    8.636       0       5       0       5     30     30      0   5400     496      10  30    0680f a70f     14.610 "
test,1583576697546215936,16," | 16  |   5898       5   5894       0 |   5    0      5682       212 |   3  30    0    0 680f |   12.268       0       5       0       5     30     30      0   5519     375      15  30    0680f a70f     18.210 "
test,1583576697539287040,17," | 17  |   5898       5   5886       8 |   5    1      5819        75 |   8  17   30    1 bd0f |    1.739       0       4       0       4     17     17      0   5645     249       2  17    1bd0f a70f      6.480 "
test,1583576697558337024,18," | 18  |   5898       5   5893       0 |   5    0      5572       321 |   2  30    0    0 680f |    0           0       0       0       8      0      0      0   5343     550       0  30    0680f a70f     30.360 "
test,1583576697540792832,19," | 19  |   5898       5   5882      12 |   5    0      5783       111 |   1  17    0    0 bd0f |    1.983       0       5       0       5     17     17      0   5622     272       1  17    0bd0f a70f      8.940 "
test,1583576697545017088,1," |  1  |   5898       4   5895       0 |   5    0      5740       155 |   4  30    0    0 680f |   10.772       0       5       0       5     30     30      0   5702     193      12  30    0680f a70f     16.800 "
test,1583576697559506944,22," | 22  |   5898       5   5892       0 |   5    0      5841        51 |   1  30    0    0 680f |    0           0       0       0       8      0      0      0   5575     317       0  30    0680f a70f     30.360 "
test,1583576697550240000,23," | 23  |   5898       5   5836       0 |   5    0      5811        25 |   2  30    0    0 680f |   11.535       0       5       0       5     30     30      0   5694     142      14  30    0680f a70f     17.580 "
test,1583576697556827904,24," | 24  |   5898       5   5892       2 |   5    0      5832        62 |   2  30    0    0 680f |    0           0       0       0       8      0      0      0   5680     214       0  30    0680f a70f     30.390 "
test,1583576697538383872,26," | 26  |   5898       5   5892       2 |   5    4      5869        25 |   1  17   30    0 bd0f |    1.983       0       5       0       5     17     17      0   5761     133       1  17    0bd0f a70f      8.100 "
test,1583576697541630976,27," | 27  |   5898       5   5896       0 |   3    1      5728       168 |   1  17   30    0 bd0f |    2.014       0       5       0       5     17     17      0   5495     401       1  17    0bd0f a70f      9.660 "
test,1583576697543046912,28," | 28  |   5898       5   5886       8 |   4    4      5412       482 |   1  30   17    0 680f |    2.014       0       5       0       5     30     30      0   5188     706       1  30    0680f a70f      8.910 "
test,1583576697562881024,29," | 29  |   5898       5   5888       8 |   5    0      5211       685 |   2  17    0    0 bd0f |    7.141       0       2       0       2     17     17      0   4963     933       8  17    0bd0f a70f     30.360 "
test,1583576697538902016,30," | 30  |   5898       5   5891       3 |   4    0      5815        79 |   2  30    0    1 680f |    1.739       0       4       0       4     30     30      0   5602     292       2  30    1680f a70f      6.480 "
test,1583576697538667008,35," | 35  |   5898       5   5891       3 |   5    0      5614       280 |   1  30    0    0 680f |    2.014       0       5       0       5     30     30      0   5487     407       1  30    0680f a70f      8.220 "
test,1583576697558542848,40," | 40  |   5898       5   5816      74 |   1   10      5536       354 |   3  30   45    0 680f |    0           0       0       0       8      0      0      0   5396     494       0  30    0680f a70f     30.360 "
test,1583576697542232064,41," | 41  |   5898       5   5825      59 |   5    0      5835        49 |   1  17    0    0 bd0f |    3.479       0       5       0       5     17     17      0   5696     188       3  17    0bd0f a70f     11.850 "
test,1583576697558067200,42," | 42  |   5898       5   5832      62 |   1   15      5779       115 |   2  30   45    0 680f |    0           0       0       0       8      0      0      0   5655     239       0  30    0680f a70f     30.390 "
test,1583576697561547008,44," | 44  |   5898       5   5837      57 |   5    0      5778       116 |   3  17    0    0 bd0f |    2.746       0       4       0       4     17     17      0   5666     228       2  17    0bd0f a70f     30.360 "
test,1583576697557039104,45," | 45  |   5898       5   5851      43 |   0    8      5711       183 |   0  45   17    1 ea0f |    0           0       0       0       8      0      0      0   5606     288       0  45    1ea0f a70f     30.210 "
test,1583576697543756032,46," | 46  |   5898       5   5830      57 |   5    0      5622       265 |   2  17    0    0 bd0f |    3.479       0       5       0       5     17     17      0   5525     362       3  17    0bd0f a70f     11.070 "
test,1583576697542536960,47," | 47  |   5898       5   5837      57 |   5    0      5704       190 |   4  17    0    0 bd0f |    3.509       0       5       0       5     17     17      0   5610     284       3  17    0bd0f a70f     11.070 "
test,1583576697557558016,48," | 48  |   5898       5   5772      55 |   1   12      5705       122 |   2  30   45    0 680f |    0           0       0       0       8      0      0      0   5604     223       0  30    0680f a70f     30.360 "
test,1583576697554269952,49," | 49  |   5898       5   5888       0 |   5    0      5776       112 |   4  30    0    0 680f |   10.833       0       5       0       5     30     30      0   5738     150      13  30    0680f a70f     16.740 "
test,1583576697552337920,51," | 51  |   5898       5   5889       0 |   5    0      5825        64 |   3  30    0    0 680f |   10.833       0       5       0       5     30     30      0   5807      82      13  30    0680f a70f     16.770 "
test,1583576697539858944,52," | 52  |   5898       5   5863      27 |   5    6      5607       283 |   2  17   30    0 bd0f |    2.746       0       5       0       5     17     17      0   5500     390       2  17    0bd0f a70f      8.940 "
test,1583576697545225984,53," | 53  |   5898       5   5872       0 |   5    0      5559       313 |   5  30    0    0 680f |   11.535       0       5       0       5     30     30      0   5499     373      14  30    0680f a70f     17.610 "
test,1583576697559129088,54," | 54  |   5898       5   5890       0 |   5    0      5791        99 |   5  30    0    0 680f |   10.101       0       4       0       4     30     30      0   5699     191      12  30    0680f a70f     30.390 "
test,1583576697544812032,55," | 55  |   5898       5   5877       0 |   5    0      5655       222 |   4  30    0    0 680f |   10.833       0       5       0       5     30     30      0   5610     267      13  30    0680f a70f     16.890 "
test,1583576697544594176,56," | 56  |   5898       5   5880       0 |   5    0      5793        87 |   3  30    0    0 680f |   10.833       0       5       0       5     30     30      0   5724     156      13  30    0680f a70f     16.920 "
test,1583576697548336896,57," | 57  |   5898       5   5835       0 |   5    0      5687       148 |   2  30    0    0 680f |   10.772       0       5       0       5     30     30      0   5333     502      13  30    0680f a70f     16.830 "
test,1583576697562244864,58," | 58  |   5898       5   5889       0 |   5    0      5809        80 |   3  30    0    0 680f |   10.101       0       4       0       4     30     30      0   5568     321      12  30    0680f a70f     30.390 "
test,1583576697547468800,5," |  5  |   5898       5   5896       0 |   5    0      5372       524 |   3  30    0    0 680f |    9.368       0       5       0       5     30     30      0   5271     625      11  30    0680f a70f     15.390 "
test,1583576697554089984,60," | 60  |   5898       5   5889       0 |   5    0      5520       369 |   3  30    0    0 680f |   11.535       0       5       0       5     30     30      0   5402     487      14  30    0680f a70f     17.460 "
test,1583576697561320960,61," | 61  |   5898       5   5888       0 |   5    0      5619       269 |   3  30    0    0 680f |   10.833       0       4       0       4     30     30      0   5422     466      13  30    0680f a70f     30.390 "
test,1583576697552098048,7," |  7  |   5898       5   5895       0 |   5    0      5806        89 |   4  30    0    0 680f |   10.101       0       5       0       5     30     30      0   5770     125      12  30    0680f a70f     16.200 "
test,1583576697552726016,9," |  9  |   5898       5   5894       0 |   5    0      5693       201 |   4  30    0    0 680f |   10.070       0       5       0       5     30     30      0   5668     226      12  30    0680f a70f     16.170 "
