test,1583576638536233984,10," | 10  |   5662       5   5634       0 |   5    0      5544        90 |   1   7    0    0 620f |    2.044       0       5       0       5      7      7      0   5474     160       1   7    0620f a70f      8.190 "
test,1583576638537676032,12," | 12  |   5662       5   5626      34 |   5    0      5598        62 |   1   7    0    0 620f |    2.044       0       5       0       5      7      7      0   5499     161       1   7    0620f a70f      8.190 "
test,1583576638536434944,13," | 13  |   5662       5   5658       0 |   5    0      5611        47 |   1   7    0    0 620f |    2.014       0       5       0       5      7      7      0   5544     114       1   7    0620f a70f      8.220 "
test,1583576638538280960,15," | 15  |   5662       5   5617      43 |   5    0      5439       221 |   2   7    0    0 620f |    2.716       0       5       0       5      7      7      0   5183     477       2   7    0620f a70f      8.970 "
test,1583576638544676096,16," | 16  |   5662       5   5658       0 |   5    0      5456       202 |   1  52    0    0 2a0f |    2.044       0       5       0       5     52     52      0   5302     356       1  52    02a0f a70f      8.310 "
test,1583576638539629056,17," | 17  |   5662       5   5651       7 |   5    0      5590        68 |   2  52    0    0 2a0f |    2.716       0       5       0       5     52     52      0   5423     235       2  52    02a0f a70f      8.970 "
test,1583576638540406016,18," | 18  |   5662       5   5657       0 |   5    0      5344       313 |   2  52    0    0 2a0f |    2.777       0       5       0       5     52     52      0   5120     537       2  52    02a0f a70f      9.540 "
test,1583576638541214976,19," | 19  |   5662       5   5647      11 |   5    0      5556       102 |   1  52    0    0 2a0f |    2.044       0       5       0       5     52     52      0   5400     258       1  52    02a0f a70f      8.220 "
test,1583576638538067200,1," |  1  |   5662       4   5659       0 |   5    0      5512       147 |   1   7    0    0 620f |    2.685       0       5       0       5      7      7      0   5474     185       1   7    0620f a70f      8.910 "
test,1583576638541522944,22," | 22  |   5662       5   5656       0 |   5    0      5608        48 |   2  52    0    0 2a0f |    2.777       0       5       0       5     52     52      0   5355     301       2  52    02a0f a70f      9.630 "
test,1583576638539869184,23," | 23  |   5662       5   5600       0 |   5    0      5575        25 |   1  52    0    0 2a0f |    2.014       0       5       0       5     52     52      0   5463     137       1  52    02a0f a70f      8.910 "
test,1583576638538784000,24," | 24  |   5662       5   5656       2 |   5    0      5599        59 |   1  52    0    0 2a0f |    2.716       0       5       0       5     52     52      0   5452     206       2  52    02a0f a70f      8.940 "
test,1583576638537043968,26," | 26  |   5662       5   5656       2 |   5    0      5634        24 |   1  52    0    0 2a0f |    2.044       0       5       0       5     52     52      0   5530     128       1  52    02a0f a70f      8.100 "
test,1583576638544871936,27," | 27  |   5662       5   5660       0 |   5    0      5500       160 |   2  52    0    0 2a0f |    2.777       0       5       0       5     52     52      0   5274     386       2  52    02a0f a70f      9.690 "
test,1583576638539313920,28," | 28  |   5662       5   5651       7 |   3    0      5198       460 |   1  30    0    0 390f |    2.014       0       5       0       5     30     30      0   4983     675       1  30    0390f a70f      8.070 "
test,1583576638543318016,29," | 29  |   5662       5   5653       7 |   5    0      5000       660 |   2  52    0    0 2a0f |    3.479       0       5       0       5     52     52      0   4761     899       3  52    02a0f a70f     10.380 "
test,1583576638536830976,30," | 30  |   5662       5   5655       3 |   5    0      5583        75 |   2  30    0    1 390f |    1.770       0       4       0       4     30     30      0   5380     278       2  30    1390f a70f      6.510 "
test,1583576638538444032,35," | 35  |   5662       5   5655       3 |   5    0      5395       263 |   1  30    0    0 390f |    1.983       0       5       0       5     30     30      0   5273     385       1  30    0390f a70f      8.190 "
test,1583576638559828992,40," | 40  |   5662       5   5580      74 |   5    0      5307       347 |   2  52    0    0 2a0f |    3.509       0       4       0       4     52     52      0   5177     477       3  52    02a0f a70f     30.240 "
test,1583576638545035008,41," | 41  |   5662       5   5589      59 |   5    0      5601        47 |   5  52    0    0 2a0f |    2.777       0       5       0       5     52     52      0   5468     180       2  52    02a0f a70f      8.880 "
test,1583576638562352896,42," | 42  |   5662       5   5596      62 |   5    0      5547       111 |   4  52    0    0 2a0f |    3.479       0       4       0       4     52     52      0   5431     227       3  52    02a0f a70f     30.270 "
test,1583576638558528000,44," | 44  |   5662       5   5601      57 |   0   12      5545       113 |   0  44   52    1 d50f |    0           0       0       0       8      0      0      0   5438     220       0  44    1d50f a70f     30.180 "
test,1583576638561836032,45," | 45  |   5662       5   5615      43 |   5    0      5479       179 |   5  52    0    0 2a0f |    2.746       0       3       0       3     52     52      0   5377     281       2  52    02a0f a70f     30.300 "
test,1583576638548688896,46," | 46  |   5662       5   5594      57 |   5    0      5397       254 |   5  52    0    0 2a0f |    3.509       0       5       0       5     52     52      0   5305     346       3  52    02a0f a70f      9.690 "
test,1583576638545364992,47," | 47  |   5662       5   5601      57 |   5    0      5471       187 |   5  52    0    0 2a0f |    3.509       0       5       0       5     52     52      0   5381     277       3  52    02a0f a70f      9.630 "
test,1583576638560611072,48," | 48  |   5662       5   5536      55 |   5    0      5473       118 |   5  52    0    0 2a0f |    3.448       0       4       0       4     52     52      0   5379     212       3  52    02a0f a70f     30.390 "
test,1583576638540816128,49," | 49  |   5662       5   5652       0 |   5    0      5544       108 |   3   7    0    0 620f |    3.479       0       5       0       5      7      7      0   5506     146       3   7    0620f a70f      9.660 "
test,1583576638558075904,51," | 51  |   5662       5   5653       0 |   5    0      5596        57 |   1   7    0    0 620f |    2.746       0       3       0       3      7      7      0   5578      75       2   7    0620f a70f     30.330 "
test,1583576638537501184,52," | 52  |   5662       4   5627      27 |   4    0      5384       270 |   2  52    0    1 2a0f |    1.739       0       4       0       4     52     52      0   5279     375       2  52    12a0f a70f      6.480 "
test,1583576638541351936,53," | 53  |   5662       5   5636       0 |   5    0      5339       297 |   4   7    0    0 620f |    4.180       0       5       0       5      7      7      0   5281     355       4   7    0620f a70f     10.380 "
test,1583576638544017920,54," | 54  |   5662       5   5654       0 |   5    0      5557        97 |   1   7    0    0 620f |    2.014       0       5       0       5      7      7      0   5466     188       1   7    0620f a70f      8.130 "
test,1583576638539095040,55," | 55  |   5662       5   5641       0 |   5    0      5429       212 |   3   7    0    0 620f |    3.479       0       5       0       5      7      7      0   5385     256       3   7    0620f a70f      9.510 "
test,1583576638554491904,56," | 56  |   5662       5   5644       0 |   0    8      5560        84 |   0  56    7    1 610f |    0           0       0       0       8      0      0      0   5493     151       0  56    1610f a70f     30.210 "
test,1583576638558806016,57," | 57  |   5662       5   5599       0 |   4    5      5458       141 |   2  52   56    0 2a0f |    2.777       0       4       0       4     52     52      0   5125     474       2  52    02a0f a70f     30.360 "
test,1583576638558284032,58," | 58  |   5662       5   5653       0 |   5    0      5575        78 |   2   7    0    0 620f |    2.716       0       4       0       4      7      7      0   5341     312       2   7    0620f a70f     30.390 "
test,1583576638542390016,5," |  5  |   5662       5   5660       0 |   5    0      5157       503 |   2   7    0    0 620f |    2.777       0       5       0       5      7      7      0   5059     601       2   7    0620f a70f      8.940 "
test,1583576638561598976,60," | 60  |   5662       5   5653       0 |   5    0      5292       361 |   2   7    0    0 620f |    3.479       0       4       0       4      7      7      0   5181     472       3   7    0620f a70f     30.360 "
test,1583576638559552000,61," | 61  |   5662       5   5652       0 |   4    5      5395       257 |   3   7   56    0 620f |    2.777       0       4       0       4      7      7      0   5202     450       2   7    0620f a70f     30.360 "
test,1583576638536612096,7," |  7  |   5662       5   5659       0 |   5    0      5572        87 |   7   7    0    1 620f |    1.770       0       4       0       4      7      7      0   5536     123       2   7    1620f a70f      6.510 "
test,1583576638548037888,9," |  9  |   5662       5   5658       0 |   5    0      5465       193 |   1   7    0    0 620f |    1.983       0       5       0       5      7      7      0   5441     217       1   7    0620f a70f      8.190 "
