test,1583575369777939968,10," | 10  |    587       5    559       0 |   5    0       550         9 |   2   7    0    0 630f |    2.044       0       4       0       4      7      7      0    542      17       1   7    0630f a70f     30.270 "
test,1583575369760050176,12," | 12  |    587       5    585       0 |   5    0       579         6 |   1   7    0    0 630f |    2.044       0       5       0       5      7      7      0    569      16       1   7    0630f a70f      8.280 "
test,1583575369759299072,13," | 13  |    587       5    583       0 |   5    0       576         7 |   1   7    0    0 630f |    2.044       0       5       0       5      7      7      0    568      15       1   7    0630f a70f      8.250 "
test,1583575369782051072,15," | 15  |    587       5    585       0 |   5    5       563        22 |   1  20    7    0 a50f |   10.528       0       2       0       2     20     20      0    539      46      13  20    0a50f a70f     30.330 "
test,1583575369764969216,16," | 16  |    587       5    583       0 |   5    0       558        25 |   2  57    0    0 220f |    2.807       0       5       0       5     57     57      0    546      37       2  57    0220f a70f      9.600 "
test,1583575369763362048,17," | 17  |    587       5    583       0 |   5    0       576         7 |   3  57    0    0 220f |    2.807       0       5       0       5     57     57      0    559      24       2  57    0220f a70f     10.380 "
test,1583575369762798080,18," | 18  |    587       5    582       0 |   5    0       545        37 |   4  57    0    0 220f |    2.807       0       5       0       5     57     57      0    521      61       2  57    0220f a70f      9.720 "
test,1583575369764626944,19," | 19  |    587       5    582       1 |   4    0       577         6 |   2  57    0    0 220f |    2.807       0       5       0       5     57     57      0    558      25       2  57    0220f a70f      9.720 "
test,1583575369760515072,1," |  1  |    587       4    584       0 |   5    0       573        11 |   2   7    0    0 630f |    2.716       0       5       0       5      7      7      0    568      16       1   7    0630f a70f      8.940 "
test,1583575369761195776,22," | 22  |    587       5    581       0 |   5    0       576         5 |   1  57    0    0 220f |    2.807       0       5       0       5     57     57      0    551      30       2  57    0220f a70f      8.940 "
test,1583575369761619200,23," | 23  |    587       5    525       0 |   5    0       523         2 |   1  57    0    0 220f |    2.044       0       5       0       5     57     57      0    516       9       1  57    0220f a70f      8.280 "
test,1583575369778274048,24," | 24  |    587       5    583       0 |   1   10       578         5 |   1  20   57    0 a50f |    0           0       0       0       8      0      0      0    567      16       0  20    0a50f a70f     30.360 "
test,1583575369759762176,26," | 26  |    587       5    583       0 |   5    0       580         3 |   1  57    0    0 220f |    2.044       0       5       0       5     57     57      0    570      13       1  57    0220f a70f      8.310 "
test,1583575369762604032,27," | 27  |    587       5    585       0 |   5    0       569        16 |   3  57    0    0 220f |    2.777       0       5       0       5     57     57      0    543      42       2  57    0220f a70f      8.850 "
test,1583575369783857152,28," | 28  |    587       5    583       0 |   1    0       532        51 |   1  20    0    0 a50f |    6.988       0       3       0       3     20     20      0    517      66       8  20    0a50f a70f     30.390 "
test,1583575369766351104,29," | 29  |    587       3    583       2 |   4    0       518        67 |   3  57    0    0 220f |    3.509       0       5       0       5     57     57      0    486      99       3  57    0220f a70f      9.690 "
test,1583575369762381056,30," | 30  |    587       5    583       0 |   5    0       578         5 |   1  20    0    0 a50f |    4.028       0       5       0       5     20     20      0    565      18       4  20    0a50f a70f     10.230 "
test,1583575369771364096,35," | 35  |    587       5    583       0 |   5    0       559        24 |   2  20    0    0 a50f |    4.760       0       5       0       5     20     20      0    552      31       5  20    0a50f a70f     10.950 "
test,1583575369778795008,40," | 40  |    587       5    569      10 |   1    6       533        46 |   2  20   57    0 a50f |    0           0       0       0       8      0      0      0    511      68       0  20    0a50f a70f     30.360 "
test,1583575369783078912,41," | 41  |    587       5    562      11 |   5    0       569         4 |   4  57    0    0 220f |    7.171       0       3       0       3     57     57      0    557      16       8  57    0220f a70f     30.270 "
test,1583575369766524928,42," | 42  |    587       5    571      12 |   5    0       562        21 |   5  57    0    0 220f |    3.509       0       5       0       5     57     57      0    547      36       3  57    0220f a70f     10.320 "
test,1583575369767949056,44," | 44  |    587       5    573      10 |   5    0       571        12 |   4  57    0    0 220f |    2.807       0       5       0       5     57     57      0    553      30       2  57    0220f a70f      8.940 "
test,1583575369772651008,45," | 45  |    587       5    576       7 |   5    0       558        25 |   5  57    0    0 220f |    3.509       0       5       0       5     57     57      0    544      39       3  57    0220f a70f      9.720 "
test,1583575369764808960,46," | 46  |    587       5    565      11 |   5    0       558        18 |   5  57    0    0 220f |    3.509       0       5       0       5     57     57      0    546      30       3  57    0220f a70f     11.070 "
test,1583575369765351168,47," | 47  |    587       5    572      11 |   5    0       560        23 |   6  57    0    0 220f |    3.509       0       5       0       5     57     57      0    553      30       3  57    0220f a70f     11.040 "
test,1583575369767303936,48," | 48  |    587       5    507       9 |   5    0       499        17 |   2  57    0    0 220f |    3.509       0       5       0       5     57     57      0    484      32       3  57    0220f a70f     10.440 "
test,1583575369763788032,49," | 49  |    587       5    577       0 |   5    0       566        11 |   2  57    0    0 220f |    2.807       0       5       0       5     57     57      0    564      13       2  57    0220f a70f      9.030 "
test,1583575369764211968,51," | 51  |    587       5    578       0 |   1    8       574         4 |   1  57    7    0 220f |    2.838       0       5       0       5     57     57      0    574       4       2  57    0220f a70f      8.940 "
test,1583575369761910016,52," | 52  |    587       5    574       5 |   5    0       549        30 |   3  57    0    0 220f |    2.777       0       5       0       5     57     57      0    537      42       2  57    0220f a70f      8.850 "
test,1583575369763994880,53," | 53  |    587       5    561       0 |   5    0       536        25 |   3  57    0    0 220f |    3.479       0       5       0       5     57     57      0    532      29       3  57    0220f a70f      9.720 "
test,1583575369759546112,54," | 54  |    587       5    579       0 |   5    0       573         6 |   1   7    0    0 630f |    2.044       0       5       0       5      7      7      0    560      19       1   7    0630f a70f      8.250 "
test,1583575369763143936,55," | 55  |    587       5    566       0 |   5    0       545        21 |   2  57    0    0 220f |    2.807       0       5       0       5     57     57      0    545      21       2  57    0220f a70f      8.910 "
test,1583575369765537024,56," | 56  |    587       5    569       0 |   1    5       556        13 |   1  57    7    0 220f |    2.044       0       5       0       5     57     57      0    551      18       1  57    0220f a70f      8.310 "
test,1583575369782860032,57," | 57  |    587       5    524       0 |   4    0       504        20 |   2  57    0    1 220f |    1.770       0       2       0       2     57     57      0    476      48       2  57    1220f a70f     30.300 "
test,1583575369783478016,58," | 58  |    587       5    578       0 |   2    3       569         9 |   1  57    7    0 220f |    2.105       0       3       0       3     57     57      0    556      22       1  57    0220f a70f     30.240 "
test,1583575369781282816,5," |  5  |    587       5    585       0 |   4    6       535        50 |   2  20    7    0 a50f |   12.695       0       1       0       1     20     20      0    522      63      16  20    0a50f a70f     30.330 "
test,1583575369757451008,60," | 60  |    587       5    578       0 |   5    0       543        35 |   1  57    0    0 220f |    2.044       0       5       0       5     57     57      0    540      38       1  57    0220f a70f      8.280 "
test,1583575369782252032,61," | 61  |    587       5    577       0 |   2    1       556        21 |   1  57    7    0 220f |    2.075       0       4       0       4     57     57      0    538      39       1  57    0220f a70f     30.360 "
test,1583575369760720896,7," |  7  |    587       5    584       0 |   5    0       574        10 |   4   7    0    1 630f |    1.739       0       4       0       4      7      7      0    573      11       2   7    1630f a70f      6.480 "
test,1583575369760977152,9," |  9  |    587       5    583       0 |   5    0       557        26 |   1   7    0    0 630f |    2.075       0       5       0       5      7      7      0    554      29       1   7    0630f a70f      8.850 "
