test,1583576621055335936,10," | 10  |   5592       5   5564       0 |   5    5      5474        90 |   1  56   54    0  10f |    0           0       0       0       8      0      0      0   5404     160       0  56    0 10f a70f     30.390 "
test,1583576621056169984,12," | 12  |   5592       5   5558      32 |   5    3      5528        62 |   3  56   54    0  10f |    0           0       0       0       8      0      0      0   5429     161       0  56    0 10f a70f     30.390 "
test,1583576621053929984,13," | 13  |   5592       5   5588       0 |   5    0      5541        47 |   1  56    0    0  10f |    0           0       0       0       8      0      0      0   5474     114       0  56    0 10f a70f     30.390 "
test,1583576621061604864,15," | 15  |   5592       5   5550      40 |   5    0      5371       219 |   2  56    0    0  10f |    0           0       0       0       8      0      0      0   5116     474       0  56    0 10f a70f     30.390 "
test,1583576621041080832,16," | 16  |   5592       5   5588       0 |   3    1      5390       198 |   1  23   47    0 9e0f |    2.014       0       5       0       5     23     23      0   5237     351       1  23    09e0f a70f      8.280 "
test,1583576621042537984,17," | 17  |   5592       5   5581       7 |   1   11      5520        68 |   1  19   23    0 c60f |    1.983       0       5       0       5     19     19      0   5357     231       1  19    0c60f a70f     10.920 "
test,1583576621039216128,18," | 18  |   5592       5   5587       0 |   5    0      5275       312 |   2  23    0    0 9e0f |    2.746       0       5       0       5     23     23      0   5054     533       2  23    09e0f a70f      8.940 "
test,1583576621046510848,19," | 19  |   5592       3   5577      11 |   1   10      5489        99 |   2  19   23    1 c60f |    5.950       0       4       0       4     19     19      0   5336     252       8  19    1c60f a70f     10.620 "
test,1583576621036875008,1," |  1  |   5592       4   5589       0 |   4    7      5446       143 |   4  54   56    0 810f |    2.746       0       5       0       5     54     54      0   5409     180       1  54    0810f a70f      8.910 "
test,1583576621039771136,22," | 22  |   5592       5   5586       0 |   5    0      5539        47 |   1  23    0    0 9e0f |    2.746       0       5       0       5     23     23      0   5290     296       2  23    09e0f a70f      8.790 "
test,1583576621035670016,23," | 23  |   5592       5   5530       0 |   4    0      5505        25 |   5  23    0    1 9e0f |    1.770       0       4       0       4     23     23      0   5394     136       2  23    19e0f a70f      6.510 "
test,1583576621041495040,24," | 24  |   5592       5   5586       2 |   3    0      5529        59 |   1  23    0    0 9e0f |    2.746       0       5       0       5     23     23      0   5383     205       2  23    09e0f a70f      8.820 "
test,1583576621039535872,26," | 26  |   5592       5   5586       2 |   5    0      5564        24 |   4  23    0    0 9e0f |    2.044       0       5       0       5     23     23      0   5461     127       1  23    09e0f a70f      8.250 "
test,1583576621041693952,27," | 27  |   5592       5   5590       0 |   1    5      5432       158 |   2  19   23    0 c60f |    4.089       0       5       0       5     19     19      0   5209     381       4  19    0c60f a70f     10.230 "
test,1583576621044962816,28," | 28  |   5592       4   5581       7 |   4    0      5130       458 |   4  28    0    1 ec0f |    8.148       0       4       0       4     28     28      0   4919     669      11  28    1ec0f a70f     12.750 "
test,1583576621042355968,29," | 29  |   5592       5   5583       7 |   1    0      4939       651 |   3  19    0    0 c60f |    2.044       0       5       0       5     19     19      0   4701     889       1  19    0c60f a70f     12.300 "
test,1583576621048203008,30," | 30  |   5592       4   5585       3 |   5    0      5513        75 |   1  28    0    0 ec0f |    8.422       0       5       0       5     28     28      0   5311     277      10  28    0ec0f a70f     14.490 "
test,1583576621044247040,35," | 35  |   5592       4   5585       3 |   5    0      5327       261 |   2  28    0    0 ec0f |    9.185       0       5       0       5     28     28      0   5206     382      11  28    0ec0f a70f     15.150 "
test,1583576621045741056,40," | 40  |   5592       5   5510      74 |   5    0      5240       344 |   2  47    0    0 650f |    2.014       0       5       0       5     47     47      0   5110     474       1  47    0650f a70f      9.570 "
test,1583576621043467008,41," | 41  |   5592       5   5519      59 |   5    0      5533        45 |   1  47    0    0 650f |    2.014       0       5       0       5     47     47      0   5401     177       1  47    0650f a70f      8.970 "
test,1583576621040617984,42," | 42  |   5592       5   5526      62 |   5    0      5477       111 |   1  47    0    0 650f |    2.044       0       5       0       5     47     47      0   5363     225       1  47    0650f a70f      8.940 "
test,1583576621041271808,44," | 44  |   5592       5   5531      57 |   5    0      5479       109 |   1  47    0    0 650f |    2.044       0       5       0       5     47     47      0   5372     216       1  47    0650f a70f      8.190 "
test,1583576621060716032,45," | 45  |   5592       5   5545      43 |   5    0      5413       175 |   2  47    0    0 650f |    2.014       0       4       0       4     47     47      0   5311     277       1  47    0650f a70f     30.360 "
test,1583576621040802048,46," | 46  |   5592       5   5524      57 |   5    0      5330       251 |   1  47    0    0 650f |    2.777       0       5       0       5     47     47      0   5239     342       2  47    0650f a70f      9.600 "
test,1583576621040412928,47," | 47  |   5592       5   5531      57 |   4    0      5404       184 |   4  47    0    1 650f |    1.739       0       4       0       4     47     47      0   5314     274       2  47    1650f a70f      6.510 "
test,1583576621040043008,48," | 48  |   5592       5   5466      55 |   5    0      5404       117 |   1  47    0    0 650f |    2.014       0       5       0       5     47     47      0   5311     210       1  47    0650f a70f      8.790 "
test,1583576621057168896,49," | 49  |   5592       5   5582       0 |   5    0      5475       107 |   2  56    0    0  10f |    0           0       0       0       8      0      0      0   5437     145       0  56    0 10f a70f     30.360 "
test,1583576621037491968,51," | 51  |   5592       5   5583       0 |   5    4      5529        54 |   1  56   23    0  10f |    1.983       0       5       0       5     56     56      0   5511      72       1  56    0 10f a70f      8.070 "
test,1583576621043990016,52," | 52  |   5592       4   5557      27 |   5    0      5316       268 |   5  23    0    0 9e0f |    2.746       0       5       0       5     23     23      0   5213     371       2  23    09e0f a70f      8.940 "
test,1583576621058653184,53," | 53  |   5592       5   5566       0 |   5    0      5271       295 |   3  56    0    0  10f |    0           0       0       0       8      0      0      0   5213     353       0  56    0 10f a70f     30.360 "
test,1583576621035913984,54," | 54  |   5592       5   5584       0 |   3    8      5487        97 |   5  54   56    1 810f |    1.770       0       4       0       4     54     54      0   5399     185       2  54    1810f a70f      6.510 "
test,1583576621056338944,55," | 55  |   5592       5   5571       0 |   5    0      5360       211 |   2  56    0    0  10f |    0           0       0       0       8      0      0      0   5316     255       0  56    0 10f a70f     30.360 "
test,1583576621036397056,56," | 56  |   5592       5   5574       0 |   4    5      5491        83 |   5  56   23    1  10f |    1.739       0       4       0       4     56     56      0   5425     149       2  56    1 10f a70f      6.480 "
test,1583576621038841088,57," | 57  |   5592       5   5529       0 |   5    0      5388       141 |   5  23    0    0 9e0f |    2.777       0       5       0       5     23     23      0   5059     470       2  23    09e0f a70f      8.820 "
test,1583576621057387008,58," | 58  |   5592       5   5583       0 |   5    6      5506        77 |   1  56   23    0  10f |    0           0       0       0       8      0      0      0   5275     308       0  56    0 10f a70f     30.390 "
test,1583576621058275072,5," |  5  |   5592       4   5590       0 |   5    0      5091       499 |   2  56    0    0  10f |    0           0       0       0       8      0      0      0   4995     595       0  56    0 10f a70f     30.360 "
test,1583576621047951872,60," | 60  |   5592       5   5583       0 |   5    5      5228       355 |   1  56   23    0  10f |    1.983       0       5       0       5     56     56      0   5119     464       1  56    0 10f a70f      8.910 "
test,1583576621057638912,61," | 61  |   5592       5   5582       0 |   4    7      5328       254 |   4  54   56    0 810f |    0           0       0       0       8      0      0      0   5139     443       0  54    0810f a70f     30.360 "
test,1583576621036574976,7," |  7  |   5592       5   5589       0 |   4    7      5504        85 |   4  54   56    0 810f |    2.075       0       5       0       5     54     54      0   5469     120       1  54    0810f a70f      8.220 "
test,1583576621038476032,9," |  9  |   5592       5   5588       0 |   4    7      5398       190 |   4  54   56    0 810f |    2.044       0       5       0       5     54     54      0   5374     214       1  54    0810f a70f      8.910 "
