test,1583576486785012992,10," | 10  |   5055       5   5027       0 |   5    0      4945        82 |   2  61    0    0  b0f |    2.777       0       5       0       5     61     61      0   4882     145       2  61    0 b0f a70f      8.940 "
test,1583576486789043968,12," | 12  |   5055       5   5038      15 |   5    0      5003        50 |   2  61    0    0  b0f |    2.746       0       5       0       5     61     61      0   4913     140       2  61    0 b0f a70f      9.570 "
test,1583576486788347904,13," | 13  |   5055       5   5051       0 |   5    0      5011        40 |   2  61    0    0  b0f |    2.777       0       5       0       5     61     61      0   4948     103       2  61    0 b0f a70f      8.940 "
test,1583576486806140928,15," | 15  |   5055       5   5030      23 |   1    6      4856       197 |   2  29   22    0 e30f |    0           0       0       0       8      0      0      0   4629     424       0  29    0e30f a70f     30.390 "
test,1583576486792248064,16," | 16  |   5055       5   5051       0 |   5    0      4870       181 |   3  22    0    0 da0f |    2.777       0       5       0       5     22     22      0   4733     318       2  22    0da0f a70f      9.000 "
test,1583576486788494080,17," | 17  |   5055       5   5044       7 |   4    0      4989        62 |   3  22    0    0 da0f |    2.746       0       5       0       5     22     22      0   4841     210       2  22    0da0f a70f      8.820 "
test,1583576486784653056,18," | 18  |   5055       5   5050       0 |   5    0      4756       294 |   1  22    0    0 da0f |    2.044       0       5       0       5     22     22      0   4553     497       1  22    0da0f a70f      8.250 "
test,1583576486786973952,19," | 19  |   5055       5   5040      11 |   4    0      4966        85 |   4  22    0    0 da0f |    3.509       0       5       0       5     22     22      0   4822     229       3  22    0da0f a70f      9.720 "
test,1583576486786731008,1," |  1  |   5055       4   5052       0 |   5    0      4922       130 |   2  61    0    0  b0f |    3.448       0       5       0       5     61     61      0   4886     166       2  61    0 b0f a70f      9.540 "
test,1583576486785944064,22," | 22  |   5055       5   5049       0 |   4    0      5005        44 |   3  22    0    1 da0f |    1.770       0       4       0       4     22     22      0   4773     276       2  22    1da0f a70f      6.510 "
test,1583576486783917056,23," | 23  |   5055       5   4993       0 |   5    0      4971        22 |   2  22    0    0 da0f |    2.014       0       5       0       5     22     22      0   4867     126       1  22    0da0f a70f      8.130 "
test,1583576486783514880,24," | 24  |   5055       5   5049       2 |   5    0      4999        52 |   1  22    0    0 da0f |    2.044       0       5       0       5     22     22      0   4865     186       1  22    0da0f a70f      8.130 "
test,1583576486784163072,26," | 26  |   5055       5   5049       2 |   5    0      5031        20 |   2  22    0    0 da0f |    2.014       0       5       0       5     22     22      0   4939     112       1  22    0da0f a70f      8.250 "
test,1583576486806718208,27," | 27  |   5055       5   5053       0 |   1    8      4912       141 |   1  29   22    0 e30f |    2.014       0       1       0       1     29     29      0   4704     349       1  29    0e30f a70f     30.330 "
test,1583576486790230016,28," | 28  |   5055       5   5045       6 |   5    0      4641       410 |   1  22    0    0 da0f |    2.044       0       5       0       5     22     22      0   4445     606       1  22    0da0f a70f     10.290 "
test,1583576486808111872,29," | 29  |   5055       5   5046       7 |   1    4      4464       589 |   2  29   22    1 e30f |    1.739       0       1       0       1     29     29      0   4251     802       2  29    1e30f a70f     30.300 "
test,1583576486787173888,30," | 30  |   5055       5   5049       2 |   5    0      4983        68 |   1  22    0    0 da0f |    2.044       0       5       0       5     22     22      0   4797     254       1  22    0da0f a70f      8.970 "
test,1583576486786478080,35," | 35  |   5055       5   5049       2 |   5    0      4812       239 |   1  22    0    0 da0f |    2.044       0       5       0       5     22     22      0   4702     349       1  22    0da0f a70f      8.160 "
test,1583576486787998976,40," | 40  |   5055       5   4973      74 |   5    0      4732       315 |   2  22    0    0 da0f |    2.716       0       5       0       5     22     22      0   4615     432       2  22    0da0f a70f     10.380 "
test,1583576486788909056,41," | 41  |   5055       5   4982      59 |   5    0      5002        39 |   2  22    0    0 da0f |    2.746       0       5       0       5     22     22      0   4879     162       2  22    0da0f a70f      9.540 "
test,1583576486785731072,42," | 42  |   5055       5   4989      62 |   5    0      4945       106 |   1  22    0    0 da0f |    2.014       0       5       0       5     22     22      0   4838     213       1  22    0da0f a70f      8.250 "
test,1583576486787851008,44," | 44  |   5055       5   4994      57 |   5    0      4950       101 |   2  22    0    0 da0f |    2.746       0       5       0       5     22     22      0   4856     195       2  22    0da0f a70f      8.850 "
test,1583576486789992960,45," | 45  |   5055       5   5008      43 |   5    0      4894       157 |   2  22    0    0 da0f |    2.716       0       5       0       5     22     22      0   4803     248       2  22    0da0f a70f      8.820 "
test,1583576486792468992,46," | 46  |   5055       5   4987      57 |   5    0      4825       219 |   2  22    0    0 da0f |    3.479       0       5       0       5     22     22      0   4740     304       3  22    0da0f a70f     10.380 "
test,1583576486787471104,47," | 47  |   5055       5   4994      57 |   5    0      4879       172 |   2  22    0    0 da0f |    2.746       0       5       0       5     22     22      0   4798     253       2  22    0da0f a70f      8.970 "
test,1583576486785551104,48," | 48  |   5055       5   4929      55 |   5    0      4871       113 |   1  22    0    0 da0f |    2.014       0       5       0       5     22     22      0   4785     199       1  22    0da0f a70f      9.540 "
test,1583576486785285120,49," | 49  |   5055       5   5045       0 |   5    0      4947        98 |   3  61    0    0  b0f |    2.746       0       5       0       5     61     61      0   4910     135       2  61    0 b0f a70f      8.940 "
test,1583576486787666176,51," | 51  |   5055       5   5046       0 |   5    0      4998        48 |   2  61    0    0  b0f |    2.746       0       5       0       5     61     61      0   4980      66       2  61    0 b0f a70f      8.970 "
test,1583576486789302016,52," | 52  |   5055       5   5021      26 |   4    0      4811       236 |   2  22    0    0 da0f |    2.777       0       5       0       5     22     22      0   4713     334       2  22    0da0f a70f      9.540 "
test,1583576486795289088,53," | 53  |   5055       5   5029       0 |   5    0      4756       273 |   4  61    0    0  b0f |    3.448       0       5       0       5     61     61      0   4703     326       3  61    0 b0f a70f      9.660 "
test,1583576486784299008,54," | 54  |   5055       5   5047       0 |   5    0      4960        87 |   1  61    0    0  b0f |    2.014       0       5       0       5     61     61      0   4879     168       1  61    0 b0f a70f      8.160 "
test,1583576486792748032,55," | 55  |   5055       5   5034       0 |   5    0      4843       191 |   3  61    0    0  b0f |    2.746       0       5       0       5     61     61      0   4802     232       2  61    0 b0f a70f      8.940 "
test,1583576486783714048,56," | 56  |   5055       5   5037       0 |   5    0      4959        78 |   1  61    0    0  b0f |    2.044       0       5       0       5     61     61      0   4897     140       1  61    0 b0f a70f      8.160 "
test,1583576486807149824,57," | 57  |   5055       5   4992       0 |   2    0      4863       129 |   1  61    0    0  b0f |    4.974       0       3       0       3     61     61      0   4566     426       5  61    0 b0f a70f     30.270 "
test,1583576486793837056,58," | 58  |   5055       3   5046       0 |   5    0      4974        72 |   2  61    0    0  b0f |    2.044       0       5       0       5     61     61      0   4759     287       1  61    0 b0f a70f      8.280 "
test,1583576486790437888,5," |  5  |   5055       5   5053       0 |   5    0      4604       449 |   3  61    0    0  b0f |    3.509       0       5       0       5     61     61      0   4517     536       3  61    0 b0f a70f      9.540 "
test,1583576486791224064,60," | 60  |   5055       5   5046       0 |   5    0      4730       316 |   2  61    0    0  b0f |    2.746       0       5       0       5     61     61      0   4633     413       2  61    0 b0f a70f      9.660 "
test,1583576486793004032,61," | 61  |   5055       4   5045       0 |   3    0      4814       231 |   8  61    0    1  b0f |    1.739       0       4       0       4     61     61      0   4645     400       2  61    1 b0f a70f      9.360 "
test,1583576486788183040,7," |  7  |   5055       5   5052       0 |   5    0      4976        76 |   2  61    0    0  b0f |    2.746       0       5       0       5     61     61      0   4945     107       2  61    0 b0f a70f      8.970 "
test,1583576486786200064,9," |  9  |   5055       5   5051       0 |   5    0      4876       175 |   2  61    0    0  b0f |    3.479       0       5       0       5     61     61      0   4853     198       3  61    0 b0f a70f      9.690 "
