test,1583576516033588992,10," | 10  |   5172       5   5144       0 |   5    0      5061        83 |   2   1    0    0 220f |    1.342       0       5       0       5      1      1      0   4996     148       1   1    0220f a70f      7.620 "
test,1583576516051408896,12," | 12  |   5172       5   5150      20 |   0    0      5116        54 |   0  12    0    1 c60f |    0           0       0       0       8      0      0      0   5026     144       0  12    1c60f a70f     30.210 "
test,1583576516034051840,13," | 13  |   5172       5   5168       0 |   5    0      5125        43 |   1   1    0    0 220f |    1.342       0       5       0       5      1      1      0   5061     107       1   1    0220f a70f      7.590 "
test,1583576516053682944,15," | 15  |   5172       5   5142      28 |   0    0      4966       204 |   0  15    0    1 120f |    0           0       0       0       8      0      0      0   4731     439       0  15    1120f a70f     30.180 "
test,1583576516042865152,16," | 16  |   5172       5   5168       0 |   5    0      4985       183 |   5  42    0    0 dc0f |    6.256       0       5       0       5     42     42      0   4846     322       7  42    0dc0f a70f     12.390 "
test,1583576516059708160,17," | 17  |   5172       5   5161       7 |   5    0      5105        63 |   2  42    0    0 dc0f |    5.554       0       4       0       4     42     42      0   4953     215       6  42    0dc0f a70f     30.390 "
test,1583576516059026944,18," | 18  |   5172       5   5167       0 |   1    8      4872       295 |   1  47   42    0 730f |    2.044       0       1       0       1     47     47      0   4667     500       1  47    0730f a70f     30.330 "
test,1583576516040246016,19," | 19  |   5172       5   5157      11 |   5    0      5082        86 |   2  42    0    0 dc0f |    5.554       0       5       0       5     42     42      0   4935     233       6  42    0dc0f a70f     13.050 "
test,1583576516033051136,1," |  1  |   5172       4   5169       0 |   4    0      5038       131 |   2   1    0    1 220f |    1.739       0       4       0       4      1      1      0   5000     169       2   1    1220f a70f      6.480 "
test,1583576516039446016,22," | 22  |   5172       5   5166       0 |   5    0      5121        45 |   3  42    0    0 dc0f |    5.523       0       5       0       5     42     42      0   4887     279       6  42    0dc0f a70f     11.460 "
test,1583576516041032960,23," | 23  |   5172       5   5110       0 |   5    0      5088        22 |   4  42    0    0 dc0f |    5.523       0       5       0       5     42     42      0   4982     128       6  42    0dc0f a70f     11.670 "
test,1583576516039881984,24," | 24  |   5172       5   5166       2 |   5    0      5115        53 |   1  42    0    0 dc0f |    4.821       0       5       0       5     42     42      0   4979     189       5  42    0dc0f a70f     10.980 "
test,1583576516044193024,26," | 26  |   5172       5   5166       2 |   5    0      5147        21 |   2  42    0    0 dc0f |    5.523       0       5       0       5     42     42      0   5054     114       6  42    0dc0f a70f     12.990 "
test,1583576516056210944,27," | 27  |   5172       5   5170       0 |   5    0      5025       145 |   3  42    0    0 dc0f |    6.317       0       4       0       4     42     42      0   4813     357       7  42    0dc0f a70f     30.180 "
test,1583576516038736128,28," | 28  |   5172       4   5162       6 |   4    2      4747       421 |   1  35   42    0 a40f |    2.044       0       5       0       5     35     35      0   4547     621       1  35    0a40f a70f      8.970 "
test,1583576516042042112,29," | 29  |   5172       5   5163       7 |   5    0      4569       601 |   3  42    0    0 dc0f |    7.019       0       5       0       5     42     42      0   4352     818       8  42    0dc0f a70f     13.860 "
test,1583576516034599168,30," | 30  |   5172       5   5166       2 |   5    0      5098        70 |   1  35    0    0 a40f |    2.014       0       5       0       5     35     35      0   4911     257       1  35    0a40f a70f      8.070 "
test,1583576516034811904,35," | 35  |   5172       5   5166       2 |   4    0      4920       248 |   2  35    0    1 a40f |    1.739       0       4       0       4     35     35      0   4809     359       2  35    1a40f a70f      6.510 "
test,1583576516036858112,40," | 40  |   5172       5   5090      74 |   5    0      4847       317 |   2  42    0    0 dc0f |    1.983       0       5       0       5     42     42      0   4725     439       1  42    0dc0f a70f      9.480 "
test,1583576516057914880,41," | 41  |   5172       5   5099      59 |   4    3      5119        39 |   3  47   42    0 730f |   10.528       0       2       0       2     47     47      0   4996     162      13  47    0730f a70f     30.330 "
test,1583576516058856960,42," | 42  |   5172       5   5106      62 |   1    8      5061       107 |  11  42   47    1 dc0f |    3.814       0       3       0       3     42     42      0   4953     215       5  42    1dc0f a70f     30.300 "
test,1583576516035676928,44," | 44  |   5172       5   5111      57 |   5    0      5066       102 |   2  42    0    0 dc0f |    2.014       0       5       0       5     42     42      0   4969     199       1  42    0dc0f a70f      8.850 "
test,1583576516037936896,45," | 45  |   5172       5   5125      43 |   5    0      5007       161 |   3  42    0    0 dc0f |    2.014       0       5       0       5     42     42      0   4914     254       1  42    0dc0f a70f      9.540 "
test,1583576516059307008,46," | 46  |   5172       5   5104      57 |   4    1      4935       226 |   3  47   42    0 730f |   10.528       0       2       0       2     47     47      0   4849     312      13  47    0730f a70f     30.360 "
test,1583576516058311936,47," | 47  |   5172       5   5111      57 |   4    0      4994       174 |   2  47    0    1 730f |   10.284       0       2       0       2     47     47      0   4910     258      14  47    1730f a70f     30.210 "
test,1583576516038331904,48," | 48  |   5172       5   5046      55 |   5    0      4987       114 |   3  42    0    0 dc0f |    1.983       0       5       0       5     42     42      0   4900     201       1  42    0dc0f a70f      9.390 "
test,1583576516053384192,49," | 49  |   5172       5   5162       0 |   0    6      5062       100 |   0  49    1    1 350f |    0           0       0       0       8      0      0      0   5025     137       0  49    1350f a70f     30.150 "
test,1583576516034391040,51," | 51  |   5172       5   5163       0 |   5    0      5115        48 |   1   1    0    0 220f |    1.403       0       5       0       5      1      1      0   5096      67       1   1    0220f a70f      7.620 "
test,1583576516055430912,52," | 52  |   5172       5   5138      26 |   0    9      4923       241 |   0  52   42    1 7b0f |    0           0       0       0       8      0      0      0   4822     342       0  52    17b0f a70f     30.180 "
test,1583576516054276096,53," | 53  |   5172       5   5146       0 |   1    7      4866       280 |   4  55   49    0 3d0f |    0           0       0       0       8      0      0      0   4811     335       0  55    03d0f a70f     30.390 "
test,1583576516033835776,54," | 54  |   5172       5   5164       0 |   5    0      5075        89 |   1   1    0    0 220f |    1.342       0       5       0       5      1      1      0   4992     172       1   1    0220f a70f      7.620 "
test,1583576516051848960,55," | 55  |   5172       5   5151       0 |   0    5      4958       193 |   0  55   49    1 3d0f |    0           0       0       0       8      0      0      0   4916     235       0  55    13d0f a70f     30.180 "
test,1583576516036386048,56," | 56  |   5172       5   5154       0 |   5    0      5075        79 |   2   1    0    0 220f |    2.075       0       5       0       5      1      1      0   5011     143       2   1    0220f a70f      8.280 "
test,1583576516056587008,57," | 57  |   5172       5   5109       0 |   5    0      4975       134 |   3   1    0    0 220f |    2.838       0       4       0       4      1      1      0   4666     443       3   1    0220f a70f     30.270 "
test,1583576516057441024,58," | 58  |   5172       5   5163       0 |   5    1      5090        73 |   2   1   55    0 220f |    2.868       0       3       0       3      1      1      0   4872     291       3   1    0220f a70f     30.330 "
test,1583576516035065856,5," |  5  |   5172       5   5170       0 |   5    0      4709       461 |   2   1    0    0 220f |    2.105       0       5       0       5      1      1      0   4621     549       2   1    0220f a70f      8.310 "
test,1583576516055141888,60," | 60  |   5172       5   5163       0 |   0    7      4833       330 |   0  60   15    1 560f |    0           0       0       0       8      0      0      0   4734     429       0  60    1560f a70f     30.180 "
test,1583576516056973824,61," | 61  |   5172       5   5162       0 |   5    0      4928       234 |   2   1    0    0 220f |    2.075       0       4       0       4      1      1      0   4752     410       2   1    0220f a70f     30.390 "
test,1583576516033248000,7," |  7  |   5172       5   5169       0 |   5    0      5089        80 |   2   1    0    0 220f |    1.373       0       5       0       5      1      1      0   5057     112       1   1    0220f a70f      7.590 "
test,1583576516035241984,9," |  9  |   5172       5   5168       0 |   5    0      4988       180 |   3   1    0    0 220f |    1.373       0       5       0       5      1      1      0   4965     203       1   1    0220f a70f      7.620 "
