test,1583576695287794944,10," | 10  |   5889       5   5861       0 |   5    0      5766        95 |   1  51    0    0  70f |    2.044       0       5       0       5     51     51      0   5694     167       1  51    0 70f a70f      8.280 "
test,1583576695292128000,12," | 12  |   5889       5   5853      34 |   5    0      5822        65 |   3  51    0    0  70f |    3.479       0       5       0       5     51     51      0   5722     165       3  51    0 70f a70f     10.440 "
test,1583576695308214784,13," | 13  |   5889       5   5885       0 |   0   11      5836        49 |   0  13   51    1 790f |    0           0       0       0       8      0      0      0   5769     116       0  13    1790f a70f     30.180 "
test,1583576695292833024,15," | 15  |   5889       5   5844      43 |   5    0      5657       230 |   4  51    0    0  70f |    4.272       0       5       0       5     51     51      0   5392     495       4  51    0 70f a70f     11.190 "
test,1583576695287947776,16," | 16  |   5889       5   5885       0 |   5    0      5673       212 |   2  16    0    1  e0f |    1.739       0       4       0       4     16     16      0   5510     375       2  16    1 e0f a70f      6.510 "
test,1583576695294904832,17," | 17  |   5889       5   5877       8 |   5    0      5810        75 |   3  16    0    0  e0f |    3.509       0       5       0       5     16     16      0   5636     249       3  16    0 e0f a70f     10.440 "
test,1583576695291323904,18," | 18  |   5889       5   5884       0 |   5    0      5563       321 |   3  16    0    0  e0f |    3.448       0       5       0       5     16     16      0   5335     549       3  16    0 e0f a70f      9.630 "
test,1583576695294269952,19," | 19  |   5889       5   5873      12 |   5    0      5774       111 |   3  16    0    0  e0f |    3.479       0       5       0       5     16     16      0   5613     272       3  16    0 e0f a70f      9.660 "
test,1583576695291960832,1," |  1  |   5889       4   5886       0 |   5    0      5732       154 |   3  51    0    0  70f |    3.479       0       5       0       5     51     51      0   5694     192       2  51    0 70f a70f     10.290 "
test,1583576695294611968,22," | 22  |   5889       5   5883       0 |   3    0      5832        51 |   8  16    0    0  e0f |    3.448       0       5       0       5     16     16      0   5567     316       3  16    0 e0f a70f      9.660 "
test,1583576695288461824,23," | 23  |   5889       5   5827       0 |   5    0      5802        25 |   1  16    0    0  e0f |    2.044       0       5       0       5     16     16      0   5685     142       1  16    0 e0f a70f      8.160 "
test,1583576695293647104,24," | 24  |   5889       5   5883       2 |   5    0      5823        62 |   4  16    0    0  e0f |    4.241       0       5       0       5     16     16      0   5672     213       4  16    0 e0f a70f     10.290 "
test,1583576695292238848,26," | 26  |   5889       5   5883       2 |   5    0      5860        25 |   3  16    0    0  e0f |    3.448       0       5       0       5     16     16      0   5752     133       3  16    0 e0f a70f      9.690 "
test,1583576695290766848,27," | 27  |   5889       5   5887       0 |   5    0      5720       167 |   2  16    0    0  e0f |    2.777       0       5       0       5     16     16      0   5487     400       2  16    0 e0f a70f      8.820 "
test,1583576695292958976,28," | 28  |   5889       5   5877       8 |   4    2      5403       482 |   3  30   16    0 360f |    2.014       0       5       0       5     30     30      0   5179     706       1  30    0360f a70f      8.220 "
test,1583576695290963968,29," | 29  |   5889       4   5879       8 |   4    0      5204       683 |   3  16    0    0  e0f |    3.479       0       5       0       5     16     16      0   4956     931       3  16    0 e0f a70f      9.660 "
test,1583576695287302912,30," | 30  |   5889       5   5882       3 |   5    0      5806        79 |   2  30    0    1 360f |    1.739       0       4       0       4     30     30      0   5593     292       2  30    1360f a70f      6.480 "
test,1583576695289165056,35," | 35  |   5889       5   5882       3 |   5    0      5605       280 |   1  30    0    0 360f |    1.953       0       5       0       5     30     30      0   5478     407       1  30    0360f a70f      8.190 "
test,1583576695298032896,40," | 40  |   5889       5   5807      74 |   5    0      5527       354 |   2  16    0    0  e0f |    2.746       0       5       0       5     16     16      0   5388     493       2  16    0 e0f a70f      9.600 "
test,1583576695295060992,41," | 41  |   5889       5   5816      59 |   5    0      5826        49 |   1  16    0    0  e0f |    2.014       0       5       0       5     16     16      0   5687     188       1  16    0 e0f a70f      8.850 "
test,1583576695292510976,42," | 42  |   5889       5   5823      62 |   5    0      5770       115 |   2  16    0    0  e0f |    2.746       0       5       0       5     16     16      0   5647     238       2  16    0 e0f a70f      8.910 "
test,1583576695290230016,44," | 44  |   5889       5   5828      57 |   5    0      5769       116 |   2  16    0    0  e0f |    2.685       0       5       0       5     16     16      0   5657     228       2  16    0 e0f a70f      8.910 "
test,1583576695291485952,45," | 45  |   5889       5   5842      43 |   5    0      5703       182 |   1  16    0    0  e0f |    2.014       0       5       0       5     16     16      0   5598     287       1  16    0 e0f a70f      9.450 "
test,1583576695311111936,46," | 46  |   5889       5   5821      57 |   5    0      5613       265 |   2  16    0    0  e0f |    2.746       0       4       0       4     16     16      0   5516     362       2  16    0 e0f a70f     30.210 "
test,1583576695294106112,47," | 47  |   5889       5   5828      57 |   5    0      5695       190 |   2  16    0    0  e0f |    2.716       0       5       0       5     16     16      0   5601     284       2  16    0 e0f a70f      8.970 "
test,1583576695294738944,48," | 48  |   5889       5   5763      55 |   5    0      5697       121 |   2  16    0    0  e0f |    2.746       0       5       0       5     16     16      0   5597     221       2  16    0 e0f a70f      8.910 "
test,1583576695291798016,49," | 49  |   5889       5   5879       0 |   5    0      5768       111 |   3  51    0    0  70f |    3.479       0       5       0       5     51     51      0   5730     149       3  51    0 70f a70f      9.660 "
test,1583576695287565056,51," | 51  |   5889       5   5880       0 |   5    0      5817        63 |   2  51    0    1  70f |    1.739       0       4       0       4     51     51      0   5799      81       2  51    1 70f a70f      6.510 "
test,1583576695297436928,52," | 52  |   5889       3   5854      27 |   5    0      5599       282 |   1  16    0    0  e0f |    2.746       0       5       0       5     16     16      0   5492     389       2  16    0 e0f a70f      8.910 "
test,1583576695293356800,53," | 53  |   5889       5   5863       0 |   5    0      5551       312 |   4  51    0    0  70f |    4.211       0       5       0       5     51     51      0   5491     372       4  51    0 70f a70f     10.410 "
test,1583576695290066944,54," | 54  |   5889       5   5881       0 |   5    0      5782        99 |   3  51    0    0  70f |    2.807       0       5       0       5     51     51      0   5690     191       2  51    0 70f a70f      9.030 "
test,1583576695292371968,55," | 55  |   5889       5   5868       0 |   5    0      5648       220 |   3  51    0    0  70f |    3.509       0       5       0       5     51     51      0   5603     265       3  51    0 70f a70f      9.570 "
test,1583576695288169984,56," | 56  |   5889       5   5871       0 |   5    0      5784        87 |   1  51    0    0  70f |    2.044       0       5       0       5     51     51      0   5715     156       1  51    0 70f a70f      8.250 "
test,1583576695311347968,57," | 57  |   5889       2   5826       0 |   3    4      5678       148 |  12  16   60    0  e0f |    2.746       0       2       0       2     16     16      0   5324     502       2  16    0 e0f a70f     30.360 "
test,1583576695289297152,58," | 58  |   5889       4   5880       0 |   5    0      5800        80 |   2  51    0    0  70f |    2.807       0       5       0       5     51     51      0   5560     320       2  51    0 70f a70f      9.030 "
test,1583576695309636096,5," |  5  |   5889       5   5887       0 |   0    8      5363       524 |   0   5   51    1 c30f |    0           0       0       0       8      0      0      0   5262     625       0   5    1c30f a70f     30.150 "
test,1583576695308724992,60," | 60  |   5889       5   5880       0 |   0   12      5511       369 |   0  60   16    1 190f |    0           0       0       0       8      0      0      0   5394     486       0  60    1190f a70f     30.210 "
test,1583576695310717184,61," | 61  |   5889       5   5879       0 |   5    0      5611       268 |   2  51    0    0  70f |    2.807       0       4       0       4     51     51      0   5414     465       2  51    0 70f a70f     30.300 "
test,1583576695293487104,7," |  7  |   5889       5   5886       0 |   5    0      5797        89 |   3  51    0    0  70f |    2.807       0       5       0       5     51     51      0   5761     125       2  51    0 70f a70f     10.470 "
test,1583576695292649984,9," |  9  |   5889       5   5885       0 |   5    0      5684       201 |   4  51    0    0  70f |    2.777       0       5       0       5     51     51      0   5659     226       2  51    0 70f a70f      9.000 "
