test,1583575354768027904,10," | 10  |    527       5    499       0 |   5    0       491         8 |   1  51    0    0 d00f |    1.983       0       5       0       5     51     51      0    483      16       1  51    0d00f a70f      8.910 "
test,1583575354763503104,12," | 12  |    527       5    525       0 |   5    0       520         5 |   2  51    0    0 d00f |    2.716       0       5       0       5     51     51      0    510      15       2  51    0d00f a70f      8.970 "
test,1583575354759470080,13," | 13  |    527       5    523       0 |   5    0       516         7 |   1  51    0    0 d00f |    2.014       0       5       0       5     51     51      0    508      15       1  51    0d00f a70f      8.280 "
test,1583575354767644928,15," | 15  |    527       5    525       0 |   5    0       506        19 |   3  51    0    0 d00f |    3.479       0       5       0       5     51     51      0    484      41       3  51    0d00f a70f      9.540 "
test,1583575354763292160,16," | 16  |    527       5    523       0 |   5    0       501        22 |   1  17    0    0 330f |    2.777       0       5       0       5     17     17      0    493      30       2  17    0330f a70f      8.850 "
test,1583575354763700992,17," | 17  |    527       5    523       0 |   4    0       516         7 |   2  17    0    1 330f |    3.204       0       4       0       4     17     17      0    500      23       4  17    1330f a70f      7.920 "
test,1583575354765212928,18," | 18  |    527       5    522       0 |   5    0       490        32 |   2  17    0    0 330f |    2.777       0       5       0       5     17     17      0    468      54       2  17    0330f a70f      9.570 "
test,1583575354761300992,19," | 19  |    527       5    522       1 |   5    0       518         5 |   1  17    0    0 330f |    2.014       0       5       0       5     17     17      0    501      22       1  17    0330f a70f      8.970 "
test,1583575354759952128,1," |  1  |    527       4    524       0 |   5    0       514        10 |   1  51    0    0 d00f |    2.685       0       5       0       5     51     51      0    510      14       1  51    0d00f a70f      8.790 "
test,1583575354763105024,22," | 22  |    527       5    521       0 |   5    0       516         5 |   2  17    0    0 330f |    2.777       0       5       0       5     17     17      0    495      26       2  17    0330f a70f      8.970 "
test,1583575354759290880,23," | 23  |    527       5    465       0 |   5    0       463         2 |   1  17    0    0 330f |    2.014       0       5       0       5     17     17      0    459       6       1  17    0330f a70f      8.070 "
test,1583575354765971968,24," | 24  |    527       5    523       0 |   5    0       519         4 |   1  17    0    0 330f |    2.777       0       5       0       5     17     17      0    510      13       2  17    0330f a70f      9.000 "
test,1583575354760763904,26," | 26  |    527       5    523       0 |   5    0       520         3 |   1  17    0    0 330f |    2.044       0       5       0       5     17     17      0    511      12       1  17    0330f a70f      8.280 "
test,1583575354762706944,27," | 27  |    527       5    525       0 |   5    0       511        14 |   1  17    0    0 330f |    1.983       0       5       0       5     17     17      0    489      36       1  17    0330f a70f      8.070 "
test,1583575354764779008,28," | 28  |    527       5    523       0 |   4    0       481        42 |   1  17    0    0 330f |    2.044       0       5       0       5     17     17      0    468      55       1  17    0330f a70f      9.720 "
test,1583575354779212032,29," | 29  |    527       3    523       2 |   5    0       465        60 |   2  17    0    0 330f |    2.777       0       3       0       3     17     17      0    436      89       2  17    0330f a70f     30.360 "
test,1583575354761522944,30," | 30  |    527       5    523       0 |   5    0       519         4 |   2  17    0    0 330f |    2.777       0       5       0       5     17     17      0    508      15       2  17    0330f a70f      8.940 "
test,1583575354765794048,35," | 35  |    527       5    523       0 |   5    0       502        21 |   3  17    0    0 330f |    3.479       0       5       0       5     17     17      0    498      25       3  17    0330f a70f      9.660 "
test,1583575354782202112,40," | 40  |    527       5    511       8 |   4    6       478        41 |   1  48   44    0 720f |    2.044       0       3       0       3     48     48      0    461      58       1  48    0720f a70f     30.330 "
test,1583575354767831040,41," | 41  |    527       5    504       9 |   5    0       509         4 |   7  17    0    0 330f |   10.101       0       5       0       5     17     17      0    498      15      12  17    0330f a70f     16.170 "
test,1583575354768638976,42," | 42  |    527       5    513      10 |   5    0       506        17 |   7  17    0    0 330f |    3.479       0       5       0       5     17     17      0    494      29       3  17    0330f a70f     14.040 "
test,1583575354780476928,44," | 44  |    527       5    514       9 |   4   10       514         9 |   5  44   17    1 270f |    3.814       0       1       0       1     44     44      0    502      21       5  44    1270f a70f     30.300 "
test,1583575354781667840,45," | 45  |    527       5    516       7 |   5    5       498        25 |   1  44   17    0 270f |    2.044       0       3       0       3     44     44      0    490      33       1  44    0270f a70f     30.300 "
test,1583575354777904128,46," | 46  |    527       5    507       9 |   5    0       501        15 |   8  17    0    0 330f |   10.803       0       5       0       5     17     17      0    492      24      13  17    0330f a70f     16.800 "
test,1583575354770221056,47," | 47  |    527       5    514       9 |   4    1       505        18 |  10  17   44    0 330f |    3.479       0       5       0       5     17     17      0    499      24       3  17    0330f a70f     14.580 "
test,1583575354780952832,48," | 48  |    527       5    449       7 |   3    9       443        13 |   5  48   44    1 720f |    3.814       0       1       0       1     48     48      0    430      26       5  48    1720f a70f     30.300 "
test,1583575354762940928,49," | 49  |    527       5    517       0 |   5    0       507        10 |   3  51    0    0 d00f |    3.417       0       5       0       5     51     51      0    505      12       3  51    0d00f a70f      9.630 "
test,1583575354759042048,51," | 51  |    527       5    518       0 |   4    0       514         4 |   4  51    0    1 d00f |    1.770       0       4       0       4     51     51      0    514       4       2  51    1d00f a70f      6.510 "
test,1583575354762185216,52," | 52  |    527       5    514       5 |   5    0       492        27 |   4  17    0    0 330f |    2.777       0       5       0       5     17     17      0    482      37       2  17    0330f a70f      9.030 "
test,1583575354770454784,53," | 53  |    527       5    501       0 |   5    0       480        21 |   4  51    0    0 d00f |    4.211       0       5       0       5     51     51      0    477      24       4  51    0d00f a70f     10.320 "
test,1583575354760539904,54," | 54  |    527       5    519       0 |   5    0       516         3 |   2  51    0    0 d00f |    2.777       0       5       0       5     51     51      0    502      17       2  51    0d00f a70f      9.000 "
test,1583575354766127104,55," | 55  |    527       5    506       0 |   5    0       486        20 |   3  51    0    0 d00f |    3.448       0       5       0       5     51     51      0    486      20       3  51    0d00f a70f      9.660 "
test,1583575354761022976,56," | 56  |    527       5    509       0 |   5    0       496        13 |   1  51    0    0 d00f |    1.983       0       5       0       5     51     51      0    491      18       1  51    0d00f a70f      8.040 "
test,1583575354779654912,57," | 57  |    527       5    464       0 |   1    0       445        19 |  10  17    0    0 330f |    0           0       0       0       8      0      0      0    421      43       0  17    0330f a70f     30.360 "
test,1583575354767323136,58," | 58  |    527       5    518       0 |   5    0       511         7 |   2  51    0    0 d00f |    2.716       0       5       0       5     51     51      0    501      17       2  51    0d00f a70f      9.690 "
test,1583575354764084992,5," |  5  |    527       5    525       0 |   5    0       481        44 |   2  51    0    0 d00f |    2.716       0       5       0       5     51     51      0    468      57       2  51    0d00f a70f      8.970 "
test,1583575354764467968,60," | 60  |    527       5    518       0 |   5    0       489        29 |   1  51    0    0 d00f |    2.014       0       5       0       5     51     51      0    487      31       1  51    0d00f a70f      8.190 "
test,1583575354765011968,61," | 61  |    527       5    517       0 |   5    0       500        17 |   2  51    0    0 d00f |    2.746       0       5       0       5     51     51      0    485      32       2  51    0d00f a70f      8.970 "
test,1583575354761763072,7," |  7  |    527       5    524       0 |   5    0       515         9 |   1  51    0    0 d00f |    1.953       0       5       0       5     51     51      0    514      10       1  51    0d00f a70f      8.910 "
test,1583575354764275968,9," |  9  |    527       5    523       0 |   5    0       499        24 |   2  51    0    0 d00f |    2.716       0       5       0       5     51     51      0    497      26       2  51    0d00f a70f      8.790 "
