test,1583576527536678144,10," | 10  |   5218       5   5190       0 |   5    0      5106        84 |   1   1    0    0 c00f |    1.342       0       5       0       5      1      1      0   5040     150       1   1    0c00f a70f      7.530 "
test,1583576527535835136,12," | 12  |   5218       5   5196      20 |   5    8      5160        56 |   1   7    1    0 9b0f |    2.014       0       5       0       5      7      7      0   5068     148       1   7    09b0f a70f      9.540 "
test,1583576527543820032,13," | 13  |   5218       5   5214       0 |   5    0      5170        44 |   1   1    0    0 c00f |    1.342       0       5       0       5      1      1      0   5105     109       1   1    0c00f a70f      8.880 "
test,1583576527538192896,15," | 15  |   5218       5   5188      28 |   5    3      5010       206 |   2   7   52    0 9b0f |    2.716       0       5       0       5      7      7      0   4773     443       2   7    09b0f a70f     10.200 "
test,1583576527539710976,16," | 16  |   5218       5   5214       0 |   5    0      5029       185 |   1  52    0    0 760f |    2.075       0       5       0       5     52     52      0   4888     326       1  52    0760f a70f      8.970 "
test,1583576527542409984,17," | 17  |   5218       5   5207       7 |   5    0      5150        64 |   2  52    0    0 760f |    2.777       0       5       0       5     52     52      0   4997     217       2  52    0760f a70f      9.000 "
test,1583576527548854016,18," | 18  |   5218       5   5213       0 |   5    0      4917       296 |   2  52    0    0 760f |    2.746       0       5       0       5     52     52      0   4712     501       2  52    0760f a70f      8.790 "
test,1583576527544966912,19," | 19  |   5218       5   5203      11 |   5    0      5127        87 |   1  52    0    0 760f |    2.014       0       5       0       5     52     52      0   4980     234       1  52    0760f a70f      8.250 "
test,1583576527536129024,1," |  1  |   5218       4   5215       0 |   4    0      5083       132 |   2   1    0    1 c00f |    1.739       0       4       0       4      1      1      0   5045     170       2   1    1c00f a70f      8.640 "
test,1583576527537039104,22," | 22  |   5218       4   5212       0 |   5    0      5167        45 |   2  52    0    0 760f |    2.746       0       5       0       5     52     52      0   4933     279       2  52    0760f a70f      9.690 "
test,1583576527538635008,23," | 23  |   5218       5   5156       0 |   5    0      5134        22 |   1  52    0    0 760f |    2.044       0       5       0       5     52     52      0   5028     128       1  52    0760f a70f      8.250 "
test,1583576527535281920,24," | 24  |   5218       5   5212       2 |   5    0      5161        53 |   1  52    0    0 760f |    2.014       0       5       0       5     52     52      0   5025     189       1  52    0760f a70f      8.100 "
test,1583576527544639232,26," | 26  |   5218       5   5212       2 |   5    0      5193        21 |   1  52    0    0 760f |    2.014       0       5       0       5     52     52      0   5100     114       1  52    0760f a70f      8.100 "
test,1583576527557550848,27," | 27  |   5218       5   5216       0 |   5    0      5070       146 |   4  52    0    0 760f |    2.777       0       4       0       4     52     52      0   4857     359       2  52    0760f a70f     30.360 "
test,1583576527557723904,28," | 28  |   5218       4   5208       6 |   5    0      4791       423 |   6  52    0    0 760f |    4.241       0       4       0       4     52     52      0   4591     623       4  52    0760f a70f     30.360 "
test,1583576527542992128,29," | 29  |   5218       5   5209       7 |   5    0      4605       611 |   4  52    0    0 760f |    2.777       0       5       0       5     52     52      0   4385     831       2  52    0760f a70f      8.880 "
test,1583576527537841920,30," | 30  |   5218       5   5212       2 |   5    0      5144        70 |   6  52    0    0 760f |    3.509       0       5       0       5     52     52      0   4955     259       3  52    0760f a70f      9.570 "
test,1583576527539890944,35," | 35  |   5218       5   5212       2 |   5    0      4966       248 |   6  52    0    0 760f |    4.180       0       5       0       5     52     52      0   4853     361       4  52    0760f a70f     10.200 "
test,1583576527541134080,40," | 40  |   5218       4   5136      74 |   5    0      4891       319 |   2  52    0    0 760f |    4.241       0       5       0       5     52     52      0   4769     441       4  52    0760f a70f     11.880 "
test,1583576527558063872,41," | 41  |   5218       5   5145      59 |   5    0      5165        39 |   2  52    0    0 760f |    3.509       0       4       0       4     52     52      0   5042     162       3  52    0760f a70f     30.300 "
test,1583576527543273984,42," | 42  |   5218       5   5152      62 |   5    0      5107       107 |   2  52    0    0 760f |    3.479       0       5       0       5     52     52      0   4998     216       3  52    0760f a70f     11.850 "
test,1583576527540648960,44," | 44  |   5218       5   5157      57 |   5    0      5111       103 |   2  52    0    0 760f |    4.241       0       5       0       5     52     52      0   5013     201       4  52    0760f a70f     11.790 "
test,1583576527543956992,45," | 45  |   5218       5   5171      43 |   5    0      5053       161 |   2  52    0    0 760f |    4.211       0       5       0       5     52     52      0   4958     256       4  52    0760f a70f     11.820 "
test,1583576527556364032,46," | 46  |   5218       5   5150      57 |   0   10      4977       230 |   0  46   52    1 7e0f |    0           0       0       0       8      0      0      0   4891     316       0  46    17e0f a70f     30.180 "
test,1583576527540855040,47," | 47  |   5218       5   5157      57 |   5    0      5038       176 |   3  52    0    0 760f |    3.509       0       5       0       5     52     52      0   4954     260       3  52    0760f a70f      9.720 "
test,1583576527550195968,48," | 48  |   5218       5   5092      55 |   5    0      5032       115 |   4  52    0    0 760f |    3.479       0       5       0       5     52     52      0   4944     203       3  52    0760f a70f     11.160 "
test,1583576527539012864,49," | 49  |   5218       5   5208       0 |   5    0      5108       100 |   1  58    0    0 200f |    2.014       0       5       0       5     58     58      0   5071     137       1  58    0200f a70f     10.170 "
test,1583576527534018048,51," | 51  |   5218       5   5209       0 |   5    0      5160        49 |   1   1    0    0 c00f |    1.373       0       5       0       5      1      1      0   5141      68       1   1    0c00f a70f      7.620 "
test,1583576527537220864,52," | 52  |   5218       5   5184      26 |   3    0      4965       245 |   4  52    0    1 760f |    1.739       0       4       0       4     52     52      0   4864     346       2  52    1760f a70f      6.480 "
test,1583576527547441920,53," | 53  |   5218       5   5192       0 |   5    0      4908       284 |   1  58    0    0 200f |    2.746       0       5       0       5     58     58      0   4853     339       2  58    0200f a70f     10.770 "
test,1583576527534224896,54," | 54  |   5218       5   5210       0 |   5    0      5121        89 |   1   1    0    0 c00f |    1.312       0       5       0       5      1      1      0   5037     173       1   1    0c00f a70f      8.250 "
test,1583576527540206848,55," | 55  |   5218       5   5197       0 |   5    0      5001       196 |   1  58    0    0 200f |    1.983       0       5       0       5     58     58      0   4959     238       1  58    0200f a70f     10.110 "
test,1583576527534782976,56," | 56  |   5218       5   5200       0 |   5    0      5121        79 |   2   1    0    0 c00f |    2.044       0       5       0       5      1      1      0   5057     143       2   1    0c00f a70f      8.250 "
test,1583576527555186944,57," | 57  |   5218       5   5155       0 |   4    5      5021       134 |   2  52   58    0 760f |    0           0       0       0       8      0      0      0   4709     446       0  52    0760f a70f     30.360 "
test,1583576527552491008,58," | 58  |   5218       5   5209       0 |   4    6      5136        73 |   5  58   52    1 200f |    0           0       0       0       8      0      0      0   4914     295       0  58    1200f a70f     30.180 "
test,1583576527542550016,5," |  5  |   5218       5   5216       0 |   5    0      4750       466 |   2   1    0    0 c00f |    2.105       0       5       0       5      1      1      0   4660     556       2   1    0c00f a70f      9.630 "
test,1583576527534617856,60," | 60  |   5218       5   5209       0 |   5    0      4878       331 |   2   1    0    0 c00f |    2.044       0       5       0       5      1      1      0   4777     432       2   1    0c00f a70f      8.250 "
test,1583576527557351168,61," | 61  |   5218       5   5208       0 |   3    6      4970       238 |   6   1   58    0 c00f |    2.807       0       3       0       3      1      1      0   4793     415       3   1    0c00f a70f     30.300 "
test,1583576527562072064,7," |  7  |   5218       5   5215       0 |   4    8      5135        80 |   5   7    1    1 9b0f |    5.981       0       3       0       3      7      7      0   5102     113       8   7    19b0f a70f     30.300 "
test,1583576527536320000,9," |  9  |   5218       5   5214       0 |   5    0      5033       181 |   1   1    0    0 c00f |    1.342       0       5       0       5      1      1      0   5010     204       1   1    0c00f a70f      8.880 "
