test,1583576500555319040,10," | 10  |   5110       5   5082       0 |   5    0      4999        83 |   1  13    0    0 130f |    2.044       0       4       0       4     13     13      0   4936     146       1  13    0130f a70f     30.360 "
test,1583576500554231040,12," | 12  |   5110       5   5090      18 |   5    0      5057        51 |   1  13    0    0 130f |    1.983       0       4       0       4     13     13      0   4967     141       1  13    0130f a70f     30.390 "
test,1583576500536889088,13," | 13  |   5110       5   5106       0 |   4    0      5066        40 |   3  13    0    1 130f |    1.739       0       4       0       4     13     13      0   5003     103       2  13    1130f a70f      7.920 "
test,1583576500555841024,15," | 15  |   5110       5   5082      26 |   4    0      4908       200 |   2  13    0    0 130f |    2.044       0       4       0       4     13     13      0   4678     430       1  13    0130f a70f     30.240 "
test,1583576500536603904,16," | 16  |   5110       5   5106       0 |   5    0      4923       183 |   2  22    0    0 750f |    2.777       0       5       0       5     22     22      0   4785     321       2  22    0750f a70f      9.030 "
test,1583576500540256000,17," | 17  |   5110       5   5099       7 |   5    0      5044        62 |   2  22    0    0 750f |    2.746       0       5       0       5     22     22      0   4895     211       2  22    0750f a70f      8.910 "
test,1583576500538557952,18," | 18  |   5110       5   5105       0 |   5    0      4811       294 |   1  22    0    0 750f |    2.014       0       5       0       5     22     22      0   4608     497       1  22    0750f a70f      8.940 "
test,1583576500538355200,19," | 19  |   5110       5   5095      11 |   5    0      5020        86 |   2  22    0    0 750f |    2.014       0       5       0       5     22     22      0   4875     231       1  22    0750f a70f      8.250 "
test,1583576500553819904,1," |  1  |   5110       4   5107       0 |   0   10      4976       131 |   0   1   13    1 820f |    0           0       0       0       8      0      0      0   4940     167       0   1    1820f a70f     30.180 "
test,1583576500537188096,22," | 22  |   5110       5   5104       0 |   4    0      5059        45 |   2  22    0    1 750f |    1.770       0       4       0       4     22     22      0   4826     278       2  22    1750f a70f      8.670 "
test,1583576500534312960,23," | 23  |   5110       5   5048       0 |   5    0      5026        22 |   1  22    0    0 750f |    2.044       0       5       0       5     22     22      0   4921     127       1  22    0750f a70f      8.160 "
test,1583576500535851008,24," | 24  |   5110       5   5104       2 |   5    0      5054        52 |   1  22    0    0 750f |    2.014       0       5       0       5     22     22      0   4918     188       1  22    0750f a70f      8.910 "
test,1583576500534016000,26," | 26  |   5110       5   5104       2 |   5    0      5086        20 |   1  22    0    0 750f |    2.044       0       5       0       5     22     22      0   4993     113       1  22    0750f a70f      8.280 "
test,1583576500546149888,27," | 27  |   5110       5   5108       0 |   5    0      4964       144 |   2  22    0    0 750f |    2.777       0       5       0       5     22     22      0   4755     353       2  22    0750f a70f      8.970 "
test,1583576500539619072,28," | 28  |   5110       5   5100       6 |   5    0      4691       415 |   1  22    0    0 750f |    2.044       0       5       0       5     22     22      0   4492     614       1  22    0750f a70f      8.160 "
test,1583576500538084096,29," | 29  |   5110       5   5101       7 |   3    0      4514       594 |   3  22    0    0 750f |    2.777       0       5       0       5     22     22      0   4301     807       2  22    0750f a70f      8.880 "
test,1583576500535142912,30," | 30  |   5110       5   5104       2 |   5    0      5036        70 |   1  22    0    0 750f |    2.044       0       5       0       5     22     22      0   4850     256       1  22    0750f a70f      9.000 "
test,1583576500537755904,35," | 35  |   5110       5   5104       2 |   5    0      4863       243 |   1  22    0    0 750f |    2.014       0       5       0       5     22     22      0   4752     354       1  22    0750f a70f      8.220 "
test,1583576500542331904,40," | 40  |   5110       5   5028      74 |   5    0      4787       315 |   2  47    0    0 810f |    2.746       0       5       0       5     47     47      0   4667     435       2  47    0810f a70f      9.570 "
test,1583576500539791104,41," | 41  |   5110       5   5037      59 |   5    0      5057        39 |   1  47    0    0 810f |    2.044       0       5       0       5     47     47      0   4934     162       1  47    0810f a70f      9.000 "
test,1583576500535442944,42," | 42  |   5110       5   5044      62 |   5    0      4999       107 |   1  47    0    0 810f |    2.075       0       5       0       5     47     47      0   4892     214       1  47    0810f a70f      8.160 "
test,1583576500535639040,44," | 44  |   5110       5   5049      57 |   5    0      5004       102 |   2  47    0    0 810f |    2.014       0       5       0       5     47     47      0   4908     198       1  47    0810f a70f      8.280 "
test,1583576500537573120,45," | 45  |   5110       5   5063      43 |   5    0      4948       158 |   1  47    0    0 810f |    2.075       0       5       0       5     47     47      0   4855     251       1  47    0810f a70f     10.350 "
test,1583576500539970048,46," | 46  |   5110       5   5042      57 |   5    0      4877       222 |   1  47    0    0 810f |    2.075       0       5       0       5     47     47      0   4792     307       1  47    0810f a70f      8.250 "
test,1583576500533787904,47," | 47  |   5110       5   5049      57 |   4    0      4932       174 |   3  47    0    1 810f |    1.739       0       4       0       4     47     47      0   4850     256       2  47    1810f a70f      6.480 "
test,1583576500550621952,48," | 48  |   5110       5   4984      55 |   5    0      4926       113 |   1  47    0    0 810f |    2.075       0       5       0       5     47     47      0   4839     200       1  47    0810f a70f      8.970 "
test,1583576500539138048,49," | 49  |   5110       5   5100       0 |   5    0      5002        98 |   4  13    0    0 130f |    4.241       0       5       0       5     13     13      0   4965     135       4  13    0130f a70f     10.380 "
test,1583576500534706944,51," | 51  |   5110       5   5101       0 |   5    0      5053        48 |   1  13    0    0 130f |    1.983       0       5       0       5     13     13      0   5034      67       1  13    0130f a70f      8.130 "
test,1583576500539299072,52," | 52  |   5110       5   5076      26 |   5    0      4865       237 |   2  22    0    0 750f |    2.746       0       5       0       5     22     22      0   4766     336       2  22    0750f a70f      8.940 "
test,1583576500541282048,53," | 53  |   5110       5   5084       0 |   5    0      4808       276 |   5  13    0    0 130f |    4.943       0       5       0       5     13     13      0   4755     329       5  13    0130f a70f     11.130 "
test,1583576500553587968,54," | 54  |   5110       5   5102       0 |   5    0      5013        89 |   2  13    0    0 130f |    2.746       0       4       0       4     13     13      0   4932     170       2  13    0130f a70f     30.360 "
test,1583576500540760064,55," | 55  |   5110       5   5089       0 |   5    0      4897       192 |   4  13    0    0 130f |    4.180       0       5       0       5     13     13      0   4856     233       4  13    0130f a70f     10.350 "
test,1583576500536318976,56," | 56  |   5110       5   5092       0 |   5    0      5014        78 |   2  13    0    0 130f |    2.716       0       5       0       5     13     13      0   4951     141       2  13    0130f a70f      8.820 "
test,1583576500542524160,57," | 57  |   5110       5   5047       0 |   2    5      4915       132 |   1  22   61    0 750f |    2.777       0       5       0       5     22     22      0   4611     436       2  22    0750f a70f      8.970 "
test,1583576500557376000,58," | 58  |   5110       4   5101       0 |   5    0      5028        73 |   3  13    0    0 130f |    3.479       0       4       0       4     13     13      0   4811     290       3  13    0130f a70f     30.390 "
test,1583576500536043008,5," |  5  |   5110       5   5108       0 |   5    0      4652       456 |   1  13    0    0 130f |    1.983       0       5       0       5     13     13      0   4565     543       1  13    0130f a70f      8.940 "
test,1583576500542851840,60," | 60  |   5110       5   5101       0 |   4    0      4780       321 |   4  13    0    0 130f |    2.746       0       5       0       5     13     13      0   4682     419       2  13    0130f a70f      8.940 "
test,1583576500556033024,61," | 61  |   5110       5   5100       0 |   0    7      4867       233 |   0  61   13    1 a00f |    0           0       0       0       8      0      0      0   4693     407       0  61    1a00f a70f     30.240 "
test,1583576500554508800,7," |  7  |   5110       5   5107       0 |   5    0      5031        76 |   1  13    0    0 130f |    2.014       0       4       0       4     13     13      0   5000     107       1  13    0130f a70f     30.390 "
test,1583576500554686976,9," |  9  |   5110       5   5106       0 |   5    0      4930       176 |   1  13    0    0 130f |    2.014       0       4       0       4     13     13      0   4907     199       1  13    0130f a70f     30.390 "
