test,1583576600539021056,10," | 10  |   5510       5   5482       0 |   5    0      5394        88 |   1  13    0    0 ad0f |    1.983       0       5       0       5     13     13      0   5325     157       1  13    0ad0f a70f      8.700 "
test,1583576600537288960,12," | 12  |   5510       5   5479      29 |   5    0      5447        61 |   1  13    0    0 ad0f |    2.044       0       5       0       5     13     13      0   5353     155       1  13    0ad0f a70f      8.880 "
test,1583576600544473856,13," | 13  |   5510       5   5506       0 |   4    0      5459        47 |   2  13    0    1 ad0f |    3.814       0       4       0       4     13     13      0   5393     113       5  13    1ad0f a70f      9.180 "
test,1583576600536932096,15," | 15  |   5510       5   5471      37 |   5    0      5293       215 |   1  13    0    0 ad0f |    1.983       0       5       0       5     13     13      0   5044     464       1  13    0ad0f a70f      8.100 "
test,1583576600536521984,16," | 16  |   5510       5   5506       0 |   5    0      5311       195 |   1  23    0    0 c00f |    2.044       0       5       0       5     23     23      0   5160     346       1  23    0c00f a70f      8.250 "
test,1583576600539442176,17," | 17  |   5510       5   5499       7 |   5    0      5438        68 |   1  23    0    0 c00f |    2.014       0       5       0       5     23     23      0   5277     229       1  23    0c00f a70f      8.100 "
test,1583576600559884032,18," | 18  |   5510       5   5505       0 |   5    8      5199       306 |   1  22   47    0 a80f |    2.014       0       2       0       2     22     22      0   4980     525       1  22    0a80f a70f     30.360 "
test,1583576600538529024,19," | 19  |   5510       5   5495      11 |   5    0      5409        97 |   1  23    0    0 c00f |    2.044       0       5       0       5     23     23      0   5259     247       1  23    0c00f a70f      9.660 "
test,1583576600537741056,1," |  1  |   5510       4   5507       0 |   5    0      5368       139 |   1  13    0    0 ad0f |    2.685       0       5       0       5     13     13      0   5330     177       1  13    0ad0f a70f      9.480 "
test,1583576600561657856,22," | 22  |   5510       5   5504       0 |   3    3      5457        47 |  14  22   23    1 a80f |    1.770       0       1       0       1     22     22      0   5212     292       2  22    1a80f a70f     30.300 "
test,1583576600536022016,23," | 23  |   5510       5   5448       0 |   4    0      5423        25 |   3  23    0    1 c00f |    1.739       0       4       0       4     23     23      0   5314     134       2  23    1c00f a70f      6.480 "
test,1583576600540043008,24," | 24  |   5510       5   5504       2 |   4    8      5449        57 |   4  23   22    0 c00f |    3.448       0       5       0       5     23     23      0   5305     201       3  23    0c00f a70f     10.410 "
test,1583576600539855104,26," | 26  |   5510       5   5504       2 |   5    0      5482        24 |   2  23    0    0 c00f |    2.746       0       5       0       5     23     23      0   5381     125       2  23    0c00f a70f      9.690 "
test,1583576600544270080,27," | 27  |   5510       5   5508       0 |   3    0      5351       157 |   1  23    0    0 c00f |    1.983       0       5       0       5     23     23      0   5129     379       1  23    0c00f a70f      9.630 "
test,1583576600559556096,28," | 28  |   5510       5   5499       7 |   3    4      5056       450 |   2  22   23    0 a80f |    2.075       0       2       0       2     22     22      0   4848     658       1  22    0a80f a70f     30.360 "
test,1583576600560453888,29," | 29  |   5510       5   5501       7 |   3    0      4863       645 |   2  23    0    0 c00f |    6.378       0       2       0       2     23     23      0   4627     881       7  23    0c00f a70f     30.360 "
test,1583576600556417024,30," | 30  |   5510       5   5503       3 |   5    1      5432        74 |   1  22   13    0 a80f |    2.014       0       2       0       2     22     22      0   5233     273       1  22    0a80f a70f     30.360 "
test,1583576600557656064,35," | 35  |   5510       5   5503       3 |   5    0      5247       259 |   1  22    0    0 a80f |    2.044       0       2       0       2     22     22      0   5128     378       1  22    0a80f a70f     30.360 "
test,1583576600544110080,40," | 40  |   5510       5   5428      74 |   5    0      5159       343 |   2  22    0    0 a80f |    4.211       0       5       0       5     22     22      0   5031     471       4  22    0a80f a70f     10.380 "
test,1583576600558244864,41," | 41  |   5510       5   5437      59 |   5    0      5454        42 |   2  22    0    0 a80f |    5.004       0       3       0       3     22     22      0   5324     172       5  22    0a80f a70f     30.300 "
test,1583576600561372160,42," | 42  |   5510       5   5444      62 |   5    0      5395       111 |   1  22    0    0 a80f |    5.706       0       3       0       3     22     22      0   5284     222       6  22    0a80f a70f     30.390 "
test,1583576600540824832,44," | 44  |   5510       5   5449      57 |   5    0      5397       109 |   2  22    0    0 a80f |    4.272       0       5       0       5     22     22      0   5291     215       4  22    0a80f a70f     10.320 "
test,1583576600541605120,45," | 45  |   5510       5   5463      43 |   4    4      5332       174 |   3  22   47    0 a80f |    4.211       0       5       0       5     22     22      0   5232     274       4  22    0a80f a70f     10.380 "
test,1583576600544660992,46," | 46  |   5510       5   5442      57 |   5    0      5257       242 |   2  22    0    0 a80f |    4.211       0       5       0       5     22     22      0   5168     331       4  22    0a80f a70f     10.320 "
test,1583576600557871104,47," | 47  |   5510       5   5449      57 |   0   10      5323       183 |   0  47   22    1 be0f |    0           0       0       0       8      0      0      0   5234     272       0  47    1be0f a70f     30.180 "
test,1583576600542403072,48," | 48  |   5510       5   5384      55 |   5    0      5322       117 |   1  22    0    0 a80f |    3.479       0       5       0       5     22     22      0   5230     209       3  22    0a80f a70f      9.690 "
test,1583576600536248064,49," | 49  |   5510       5   5500       0 |   5    0      5395       105 |   2  49    0    1 1e0f |    1.739       0       4       0       4     49     49      0   5357     143       2  49    11e0f a70f      6.480 "
test,1583576600543251968,51," | 51  |   5510       5   5501       0 |   5    0      5449        52 |   2  13    0    0 ad0f |    2.044       0       5       0       5     13     13      0   5430      71       1  13    0ad0f a70f      8.820 "
test,1583576600542206976,52," | 52  |   5510       5   5475      27 |   5    0      5240       262 |   1  23    0    0 c00f |    1.953       0       5       0       5     23     23      0   5137     365       1  23    0c00f a70f      9.510 "
test,1583576600538149120,53," | 53  |   5510       5   5484       0 |   5    0      5191       293 |   1  49    0    0 1e0f |    1.983       0       5       0       5     49     49      0   5135     349       1  49    01e0f a70f      8.070 "
test,1583576600540640000,54," | 54  |   5510       5   5502       0 |   5    0      5405        97 |   1  13    0    0 ad0f |    1.953       0       5       0       5     13     13      0   5318     184       1  13    0ad0f a70f      9.390 "
test,1583576600536729088,55," | 55  |   5510       5   5489       0 |   5    0      5283       206 |   2  49    0    0 1e0f |    2.014       0       5       0       5     49     49      0   5240     249       1  49    01e0f a70f      8.100 "
test,1583576600538362112,56," | 56  |   5510       5   5492       0 |   5    0      5412        80 |   1  13    0    0 ad0f |    2.014       0       5       0       5     13     13      0   5346     146       1  13    0ad0f a70f      9.540 "
test,1583576600559254784,57," | 57  |   5510       5   5447       0 |   3    4      5307       140 |   1  23   22    0 c00f |    2.014       0       2       0       2     23     23      0   4982     465       1  23    0c00f a70f     30.360 "
test,1583576600557454080,58," | 58  |   5510       5   5501       0 |   2    1      5424        77 |   2  13   49    0 ad0f |    9.948       0       1       0       1     13     13      0   5195     306      12  13    0ad0f a70f     30.330 "
test,1583576600537970176,5," |  5  |   5510       5   5508       0 |   5    0      5017       491 |   1  13    0    0 ad0f |    1.983       0       5       0       5     13     13      0   4922     586       1  13    0ad0f a70f      8.790 "
test,1583576600541029888,60," | 60  |   5510       5   5501       0 |   4    0      5150       351 |   4  13    0    0 ad0f |    2.746       0       5       0       5     13     13      0   5043     458       2  13    0ad0f a70f      9.510 "
test,1583576600559081984,61," | 61  |   5510       5   5500       0 |   4    0      5249       251 |   3  13    0    0 ad0f |    4.821       0       3       0       3     13     13      0   5063     437       5  13    0ad0f a70f     30.300 "
test,1583576600537453056,7," |  7  |   5510       5   5507       0 |   5    0      5422        85 |   1  13    0    0 ad0f |    2.014       0       5       0       5     13     13      0   5387     120       1  13    0ad0f a70f      8.790 "
test,1583576600539657216,9," |  9  |   5510       5   5506       0 |   5    0      5318       188 |   1  13    0    0 ad0f |    2.044       0       5       0       5     13     13      0   5294     212       1  13    0ad0f a70f      9.540 "
