test,1583576511293184000,10," | 10  |   5153       5   5125       0 |   5    0      5042        83 |   1  56    0    0 5a0f |    2.044       0       5       0       5     56     56      0   4977     148       1  56    05a0f a70f      8.220 "
test,1583576511283795968,13," | 13  |   5153       5   5149       0 |   5    0      5106        43 |   2  56    0    0 5a0f |    2.075       0       5       0       5     56     56      0   5042     107       1  56    05a0f a70f      8.310 "
test,1583576511286226944,16," | 16  |   5153       5   5149       0 |   5    0      4966       183 |   2  22    0    0 200f |    2.807       0       5       0       5     22     22      0   4827     322       2  22    0200f a70f      8.910 "
test,1583576511286031872,17," | 17  |   5153       5   5142       7 |   5    0      5086        63 |   1  22    0    0 200f |    2.044       0       5       0       5     22     22      0   4935     214       1  22    0200f a70f      8.250 "
test,1583576511285153024,18," | 18  |   5153       5   5148       0 |   5    0      4853       295 |   1  22    0    0 200f |    2.075       0       5       0       5     22     22      0   4648     500       1  22    0200f a70f      8.280 "
test,1583576511289190144,19," | 19  |   5153       5   5138      11 |   4    0      5063        86 |   2  22    0    0 200f |    2.044       0       5       0       5     22     22      0   4916     233       1  22    0200f a70f      8.970 "
test,1583576511292033024,1," |  1  |   5153       4   5150       0 |   5    0      5019       131 |   2  56    0    0 5a0f |    3.417       0       5       0       5     56     56      0   4981     169       2  56    05a0f a70f      9.630 "
test,1583576511283556096,22," | 22  |   5153       5   5147       0 |   4    0      5102        45 |   4  22    0    1 200f |    1.770       0       4       0       4     22     22      0   4868     279       2  22    1200f a70f      6.510 "
test,1583576511284822016,23," | 23  |   5153       5   5091       0 |   5    0      5069        22 |   2  22    0    0 200f |    2.044       0       5       0       5     22     22      0   4963     128       1  22    0200f a70f      8.160 "
test,1583576511284017920,24," | 24  |   5153       5   5147       2 |   5    0      5096        53 |   1  22    0    0 200f |    2.044       0       5       0       5     22     22      0   4960     189       1  22    0200f a70f      8.250 "
test,1583576511291591936,26," | 26  |   5153       5   5147       2 |   5    0      5128        21 |   1  22    0    0 200f |    2.075       0       5       0       5     22     22      0   5035     114       1  22    0200f a70f      8.220 "
test,1583576511307064064,27," | 27  |   5153       5   5151       0 |   5    0      5007       144 |   2  22    0    0 200f |    2.807       0       4       0       4     22     22      0   4795     356       2  22    0200f a70f     30.360 "
test,1583576511306759168,28," | 28  |   5153       5   5143       6 |   5    0      4730       419 |   1  22    0    0 200f |    2.075       0       3       0       3     22     22      0   4531     618       1  22    0200f a70f     30.270 "
test,1583576511310213120,29," | 29  |   5153       5   5144       7 |   4    0      4551       600 |   5  22    0    0 200f |    3.509       0       2       0       2     22     22      0   4334     817       3  22    0200f a70f     30.360 "
test,1583576511305507072,30," | 30  |   5153       5   5147       2 |   5    0      5079        70 |   1  22    0    0 200f |    2.075       0       4       0       4     22     22      0   4892     257       1  22    0200f a70f     30.360 "
test,1583576511305864960,35," | 35  |   5153       5   5147       2 |   5    0      4903       246 |   1  22    0    0 200f |    2.075       0       4       0       4     22     22      0   4792     357       1  22    0200f a70f     30.330 "
test,1583576511292529152,40," | 40  |   5153       5   5071      74 |   5    0      4828       317 |   2  22    0    0 200f |    2.746       0       5       0       5     22     22      0   4706     439       2  22    0200f a70f      8.970 "
test,1583576511290534912,41," | 41  |   5153       5   5080      59 |   5    0      5100        39 |   2  22    0    0 200f |    2.777       0       5       0       5     22     22      0   4977     162       2  22    0200f a70f      9.720 "
test,1583576511287769088,42," | 42  |   5153       5   5087      62 |   5    0      5042       107 |   1  22    0    0 200f |    2.777       0       5       0       5     22     22      0   4934     215       2  22    0200f a70f      8.850 "
test,1583576511288027136,44," | 44  |   5153       5   5092      57 |   5    0      5047       102 |   2  22    0    0 200f |    2.746       0       5       0       5     22     22      0   4950     199       2  22    0200f a70f      9.000 "
test,1583576511289556992,45," | 45  |   5153       5   5106      43 |   5    0      4989       160 |   2  22    0    0 200f |    3.509       0       5       0       5     22     22      0   4896     253       3  22    0200f a70f      9.630 "
test,1583576511291096832,46," | 46  |   5153       5   5085      57 |   5    0      4916       226 |   2  22    0    0 200f |    3.540       0       5       0       5     22     22      0   4830     312       3  22    0200f a70f      9.720 "
test,1583576511291877888,47," | 47  |   5153       5   5092      57 |   5    0      4975       174 |   2  22    0    0 200f |    3.479       0       5       0       5     22     22      0   4891     258       3  22    0200f a70f      9.690 "
test,1583576511307326976,48," | 48  |   5153       5   5027      55 |   5    0      4968       114 |   1  22    0    0 200f |    4.272       0       4       0       4     22     22      0   4881     201       4  22    0200f a70f     30.240 "
test,1583576511285748992,49," | 49  |   5153       5   5143       0 |   5    0      5044        99 |   3  56    0    0 5a0f |    2.746       0       5       0       5     56     56      0   5007     136       2  56    05a0f a70f      8.940 "
test,1583576511284653824,51," | 51  |   5153       5   5144       0 |   3    0      5096        48 |   7  56    0    0 5a0f |    2.044       0       5       0       5     56     56      0   5077      67       1  56    05a0f a70f      8.190 "
test,1583576511307864064,52," | 52  |   5153       3   5119      26 |   5    0      4906       239 |   3  22    0    0 200f |    2.807       0       4       0       4     22     22      0   4806     339       2  22    0200f a70f     30.360 "
test,1583576511287065088,53," | 53  |   5153       5   5127       0 |   5    0      4848       279 |   4  56    0    0 5a0f |    3.479       0       5       0       5     56     56      0   4794     333       3  56    05a0f a70f      9.540 "
test,1583576511295209984,54," | 54  |   5153       5   5145       0 |   5    0      5056        89 |   2  56    0    0 5a0f |    2.777       0       5       0       5     56     56      0   4974     171       2  56    05a0f a70f      9.000 "
test,1583576511287600128,55," | 55  |   5153       5   5132       0 |   5    0      4940       192 |   3  56    0    0 5a0f |    2.746       0       5       0       5     56     56      0   4898     234       2  56    05a0f a70f      8.970 "
test,1583576511284296960,56," | 56  |   5153       5   5135       0 |   5    0      5057        78 |   2  56    0    1 5a0f |    1.739       0       4       0       4     56     56      0   4993     142       2  56    15a0f a70f      6.480 "
test,1583576511308257024,57," | 57  |   5153       5   5090       0 |   5    0      4958       132 |   1  22    0    0 200f |    2.777       0       4       0       4     22     22      0   4649     441       2  22    0200f a70f     30.360 "
test,1583576511290739968,58," | 58  |   5153       5   5144       0 |   5    0      5071        73 |   2  56    0    0 5a0f |    2.044       0       5       0       5     56     56      0   4853     291       1  56    05a0f a70f      9.600 "
test,1583576511287427072,5," |  5  |   5153       5   5151       0 |   5    0      4692       459 |   3  56    0    0 5a0f |    2.746       0       5       0       5     56     56      0   4604     547       2  56    05a0f a70f      8.940 "
test,1583576511307549952,60," | 60  |   5153       5   5144       0 |   3    2      4821       323 |   2  22   56    0 200f |    3.509       0       4       0       4     22     22      0   4722     422       3  22    0200f a70f     30.360 "
test,1583576511288743936,61," | 61  |   5153       5   5143       0 |   3    1      4909       234 |   5  56   22    0 5a0f |    2.014       0       5       0       5     56     56      0   4734     409       1  56    05a0f a70f     10.260 "
test,1583576511287239936,7," |  7  |   5153       5   5150       0 |   5    0      5070        80 |   2  56    0    0 5a0f |    2.746       0       5       0       5     56     56      0   5038     112       2  56    05a0f a70f      9.000 "
test,1583576511288284160,9," |  9  |   5153       5   5149       0 |   5    0      4969       180 |   2  56    0    0 5a0f |    2.777       0       5       0       5     56     56      0   4946     203       2  56    05a0f a70f      8.940 "
