test,1583576695792804864,10," | 10  |   5891       5   5863       0 |   5    1      5768        95 |   1   9   58    0 b10f |    2.044       0       5       0       5      9      9      0   5696     167       1   9    0b10f a70f      9.540 "
test,1583576695790964992,12," | 12  |   5891       5   5855      34 |   4    0      5824        65 |   1   9    0    0 b10f |    2.014       0       5       0       5      9      9      0   5724     165       1   9    0b10f a70f      8.880 "
test,1583576695789248000,13," | 13  |   5891       5   5887       0 |   5    0      5838        49 |   1   9    0    0 b10f |    2.044       0       5       0       5      9      9      0   5771     116       1   9    0b10f a70f      8.970 "
test,1583576695793178112,15," | 15  |   5891       5   5846      43 |   5    0      5659       230 |   2   9    0    0 b10f |    2.807       0       5       0       5      9      9      0   5394     495       2   9    0b10f a70f      9.570 "
test,1583576695790262016,16," | 16  |   5891       5   5887       0 |   5    6      5675       212 |   1  26   40    0 390f |    2.044       0       5       0       5     26     26      0   5512     375       1  26    0390f a70f      9.000 "
test,1583576695800525824,17," | 17  |   5891       5   5879       8 |   5    6      5812        75 |   1  26   40    0 390f |    3.417       0       5       0       5     26     26      0   5638     249       3  26    0390f a70f     10.350 "
test,1583576695794255104,18," | 18  |   5891       5   5886       0 |   5    2      5565       321 |   1  26   40    0 390f |    2.044       0       5       0       5     26     26      0   5337     549       1  26    0390f a70f      8.250 "
test,1583576695795371008,19," | 19  |   5891       4   5875      12 |   5    5      5776       111 |   1  26   27    0 390f |    4.211       0       5       0       5     26     26      0   5615     272       4  26    0390f a70f     10.380 "
test,1583576695788080896,1," |  1  |   5891       4   5888       0 |   5    0      5734       154 |   1   9    0    0 b10f |    2.716       0       5       0       5      9      9      0   5696     192       1   9    0b10f a70f      8.760 "
test,1583576695792215040,22," | 22  |   5891       5   5885       0 |   5    2      5834        51 |   1  26   40    0 390f |    2.044       0       5       0       5     26     26      0   5569     316       1  26    0390f a70f      8.190 "
test,1583576695790620928,23," | 23  |   5891       5   5829       0 |   5    4      5804        25 |   1  26   27    0 390f |    2.777       0       5       0       5     26     26      0   5687     142       2  26    0390f a70f      9.600 "
test,1583576695787730944,24," | 24  |   5891       5   5885       2 |   5    2      5825        62 |   1  26   40    0 390f |    2.014       0       5       0       5     26     26      0   5674     213       1  26    0390f a70f      8.160 "
test,1583576695787200000,26," | 26  |   5891       5   5885       2 |   4    2      5862        25 |   5  26   40    1 390f |    1.739       0       4       0       4     26     26      0   5754     133       2  26    1390f a70f      6.510 "
test,1583576695811302912,27," | 27  |   5891       5   5889       0 |   2    5      5722       167 |   8  27   26    1 c40f |    1.739       0       1       0       1     27     27      0   5489     400       2  27    1c40f a70f     30.300 "
test,1583576695792535040,28," | 28  |   5891       5   5879       8 |   5    0      5405       482 |   2  26    0    0 390f |    3.479       0       5       0       5     26     26      0   5181     706       3  26    0390f a70f     10.290 "
test,1583576695811480064,29," | 29  |   5891       5   5881       8 |   4    4      5205       684 |   1  27   26    0 c40f |    1.983       0       2       0       2     27     27      0   4957     932       1  27    0c40f a70f     30.360 "
test,1583576695791336960,30," | 30  |   5891       5   5884       3 |   5    3      5808        79 |   2  26    9    0 390f |    2.777       0       5       0       5     26     26      0   5595     292       2  26    0390f a70f      9.690 "
test,1583576695795224832,35," | 35  |   5891       5   5884       3 |   5    0      5607       280 |   2  26    0    0 390f |    2.746       0       5       0       5     26     26      0   5480     407       2  26    0390f a70f      8.940 "
test,1583576695789004032,40," | 40  |   5891       5   5809      74 |   4    0      5529       354 |   3  40    0    1  70f |    1.739       0       4       0       4     40     40      0   5390     493       2  40    1 70f a70f      6.480 "
test,1583576695790051072,41," | 41  |   5891       5   5818      59 |   5    0      5828        49 |   1  40    0    0  70f |    1.953       0       5       0       5     40     40      0   5689     188       1  40    0 70f a70f      8.880 "
test,1583576695791766016,42," | 42  |   5891       5   5825      62 |   5    0      5772       115 |   1  40    0    0  70f |    2.014       0       5       0       5     40     40      0   5649     238       1  40    0 70f a70f      8.280 "
test,1583576695793356800,44," | 44  |   5891       5   5830      57 |   5    0      5771       116 |   2  40    0    0  70f |    2.746       0       5       0       5     40     40      0   5659     228       2  40    0 70f a70f      8.910 "
test,1583576695789596160,45," | 45  |   5891       5   5844      43 |   5    0      5705       182 |   1  40    0    0  70f |    2.746       0       5       0       5     40     40      0   5600     287       2  40    0 70f a70f      8.970 "
test,1583576695790461952,46," | 46  |   5891       5   5823      57 |   5    0      5615       265 |   2  40    0    0  70f |    2.746       0       5       0       5     40     40      0   5518     362       2  40    0 70f a70f      9.510 "
test,1583576695788659200,47," | 47  |   5891       5   5830      57 |   5    0      5697       190 |   1  40    0    0  70f |    1.983       0       5       0       5     40     40      0   5603     284       1  40    0 70f a70f      8.220 "
test,1583576695794934016,48," | 48  |   5891       5   5765      55 |   5    0      5699       121 |   1  40    0    0  70f |    2.014       0       5       0       5     40     40      0   5599     221       1  40    0 70f a70f      8.220 "
test,1583576695796025088,49," | 49  |   5891       5   5881       0 |   5    0      5769       112 |   1  58    0    0 a50f |    2.014       0       5       0       5     58     58      0   5731     150       1  58    0a50f a70f      8.220 "
test,1583576695806344960,51," | 51  |   5891       5   5882       0 |   0   11      5818        64 |   0  51   26    1 ae0f |    0           0       0       0       8      0      0      0   5800      82       0  51    1ae0f a70f     30.150 "
test,1583576695793849856,52," | 52  |   5891       5   5856      27 |   5    0      5601       282 |   1  26    0    0 390f |    2.044       0       5       0       5     26     26      0   5494     389       1  26    0390f a70f      8.220 "
test,1583576695796695040,53," | 53  |   5891       5   5865       0 |   5    0      5552       313 |   2  58    0    0 a50f |    2.777       0       5       0       5     58     58      0   5492     373       2  58    0a50f a70f      8.970 "
test,1583576695789868032,54," | 54  |   5891       5   5883       0 |   3    2      5784        99 |   1   9   26    0 b10f |    2.014       0       5       0       5      9      9      0   5692     191       1   9    0b10f a70f      8.250 "
test,1583576695792998912,55," | 55  |   5891       5   5870       0 |   5    0      5649       221 |   1  58    0    0 a50f |    2.044       0       5       0       5     58     58      0   5604     266       1  58    0a50f a70f      8.160 "
test,1583576695808640000,56," | 56  |   5891       5   5873       0 |   1    9      5786        87 |   5   9   26    0 b10f |    7.904       0       2       0       2      9      9      0   5717     156       9   9    0b10f a70f     30.360 "
test,1583576695791944960,57," | 57  |   5891       5   5828       0 |   5    3      5680       148 |   1  26   58    0 390f |    2.014       0       5       0       5     26     26      0   5326     502       1  26    0390f a70f      8.220 "
test,1583576695811959040,58," | 58  |   5891       5   5882       0 |   4    0      5802        80 |   6  58    0    1 a50f |    3.814       0       2       0       2     58     58      0   5562     320       5  58    1a50f a70f     30.300 "
test,1583576695793584128,5," |  5  |   5891       5   5889       0 |   5    0      5365       524 |   2   9    0    0 b10f |    2.777       0       5       0       5      9      9      0   5264     625       2   9    0b10f a70f      9.720 "
test,1583576695808314112,60," | 60  |   5891       5   5882       0 |   2    5      5513       369 |   5   9   26    0 b10f |    0           0       0       0       8      0      0      0   5395     487       0   9    0b10f a70f     30.330 "
test,1583576695810703104,61," | 61  |   5891       5   5881       0 |   5    1      5613       268 |   1  58    9    0 a50f |    2.014       0       3       0       3     58     58      0   5416     465       1  58    0a50f a70f     30.360 "
test,1583576695790790912,7," |  7  |   5891       5   5888       0 |   5    0      5799        89 |   1   9    0    0 b10f |    2.044       0       5       0       5      9      9      0   5763     125       1   9    0b10f a70f      9.000 "
test,1583576695787467008,9," |  9  |   5891       5   5887       0 |   3    0      5686       201 |  11   9    0    1 b10f |    1.739       0       4       0       4      9      9      0   5661     226       2   9    1b10f a70f      6.510 "
