test,1583576488285264128,10," | 10  |   5061       5   5033       0 |   5    0      4951        82 |   1   1    0    0 3a0f |    1.342       0       5       0       5      1      1      0   4887     146       1   1    03a0f a70f      7.590 "
test,1583576488284523008,12," | 12  |   5061       5   5044      15 |   5    0      5008        51 |   1   1    0    0 3a0f |    1.373       0       5       0       5      1      1      0   4918     141       1   1    03a0f a70f      7.530 "
test,1583576488282816768,13," | 13  |   5061       5   5057       0 |   5    0      5017        40 |   1   1    0    0 3a0f |    1.312       0       5       0       5      1      1      0   4954     103       1   1    03a0f a70f      7.590 "
test,1583576488287453952,15," | 15  |   5061       5   5036      23 |   5    0      4862       197 |   2   1    0    0 3a0f |    3.509       0       5       0       5      1      1      0   4634     425       4   1    03a0f a70f      9.720 "
test,1583576488286305024,16," | 16  |   5061       5   5057       0 |   4    0      4876       181 |   4  16    0    1  b0f |    1.770       0       4       0       4     16     16      0   4739     318       2  16    1 b0f a70f      6.510 "
test,1583576488292715008,17," | 17  |   5061       5   5050       7 |   5    0      4995        62 |   2  16    0    0  b0f |    2.716       0       5       0       5     16     16      0   4847     210       2  16    0 b0f a70f     10.230 "
test,1583576488307742976,18," | 18  |   5061       5   5056       0 |   5    9      4762       294 |   2  48   16    0 320f |    2.777       0       1       0       1     48     48      0   4559     497       2  48    0320f a70f     30.360 "
test,1583576488305064960,19," | 19  |   5061       5   5046      11 |   5    0      4972        85 |   3  16    0    0  b0f |    6.408       0       4       0       4     16     16      0   4828     229       7  16    0 b0f a70f     30.360 "
test,1583576488282095872,1," |  1  |   5061       4   5058       0 |   4    0      4928       130 |   2   1    0    1 3a0f |    1.739       0       4       0       4      1      1      0   4892     166       2   1    13a0f a70f      6.480 "
test,1583576488307966976,22," | 22  |   5061       5   5055       0 |   5    8      5011        44 |   1  48   16    0 320f |    2.075       0       1       0       1     48     48      0   4779     276       1  48    0320f a70f     30.360 "
test,1583576488283726080,23," | 23  |   5061       5   4999       0 |   5    0      4977        22 |   1  16    0    0  b0f |    2.044       0       5       0       5     16     16      0   4873     126       1  16    0 b0f a70f      8.100 "
test,1583576488287251968,24," | 24  |   5061       5   5055       2 |   5    0      5005        52 |   2  16    0    0  b0f |    2.777       0       5       0       5     16     16      0   4871     186       2  16    0 b0f a70f      8.850 "
test,1583576488283979776,26," | 26  |   5061       5   5055       2 |   5    0      5037        20 |   1  16    0    0  b0f |    2.014       0       5       0       5     16     16      0   4945     112       1  16    0 b0f a70f      8.250 "
test,1583576488308846080,27," | 27  |   5061       5   5059       0 |   3    4      4918       141 |   8  27   16    1 be0f |    3.814       0       1       0       1     27     27      0   4710     349       5  27    1be0f a70f     30.300 "
test,1583576488307543040,28," | 28  |   5061       3   5051       6 |   5    0      4647       410 |   3  48    0    0 320f |    2.807       0       1       0       1     48     48      0   4451     606       2  48    0320f a70f     30.330 "
test,1583576488307159808,29," | 29  |   5061       3   5052       7 |   4    5      4469       590 |   1  27    1    0 be0f |    2.044       0       3       0       3     27     27      0   4256     803       1  27    0be0f a70f     30.330 "
test,1583576488306103040,30," | 30  |   5061       5   5055       2 |   5    0      4989        68 |   2  48    0    0 320f |    2.746       0       1       0       1     48     48      0   4803     254       2  48    0320f a70f     30.330 "
test,1583576488305537024,35," | 35  |   5061       5   5055       2 |   5    0      4817       240 |   2  48    0    0 320f |    2.777       0       1       0       1     48     48      0   4707     350       2  48    0320f a70f     30.330 "
test,1583576488307373056,40," | 40  |   5061       5   4979      74 |   5    4      4738       315 |   1  48   16    0 320f |    2.044       0       4       0       4     48     48      0   4621     432       1  48    0320f a70f     30.270 "
test,1583576488288121088,41," | 41  |   5061       5   4988      59 |   4    3      5008        39 |   1  46   48    0 ad0f |    2.044       0       5       0       5     46     46      0   4885     162       1  46    0ad0f a70f      8.160 "
test,1583576488288491008,42," | 42  |   5061       5   4995      62 |   5    0      4951       106 |   1  48    0    0 320f |    2.044       0       5       0       5     48     48      0   4844     213       1  48    0320f a70f      8.280 "
test,1583576488289655040,44," | 44  |   5061       5   5000      57 |   5    8      4956       101 |   1  48   16    0 320f |    2.044       0       5       0       5     48     48      0   4862     195       1  48    0320f a70f      8.130 "
test,1583576488289452032,45," | 45  |   5061       5   5014      43 |   5    2      4900       157 |   1  48   16    0 320f |    2.075       0       5       0       5     48     48      0   4809     248       1  48    0320f a70f      8.130 "
test,1583576488279280896,46," | 46  |   5061       5   4993      57 |   3    3      4831       219 |   5  46   48    1 ad0f |    1.770       0       4       0       4     46     46      0   4746     304       2  46    1ad0f a70f      6.510 "
test,1583576488289047040,47," | 47  |   5061       5   5000      57 |   5    0      4884       173 |   1  48    0    0 320f |    2.044       0       5       0       5     48     48      0   4803     254       1  48    0320f a70f      8.280 "
test,1583576488288641024,48," | 48  |   5061       5   4935      55 |   4    0      4877       113 |   5  48    0    1 320f |    1.739       0       4       0       4     48     48      0   4791     199       2  48    1320f a70f      6.510 "
test,1583576488286148096,49," | 49  |   5061       5   5051       0 |   5    0      4953        98 |   3   1    0    0 3a0f |    2.807       0       5       0       5      1      1      0   4916     135       3   1    03a0f a70f      8.880 "
test,1583576488283288064,51," | 51  |   5061       5   5052       0 |   5    0      5004        48 |   1   1    0    0 3a0f |    1.373       0       5       0       5      1      1      0   4985      67       1   1    03a0f a70f      7.500 "
test,1583576488289999104,52," | 52  |   5061       5   5027      26 |   5    0      4817       236 |   1  16    0    0  b0f |    2.044       0       5       0       5     16     16      0   4719     334       1  16    0 b0f a70f      9.630 "
test,1583576488296480000,53," | 53  |   5061       5   5035       0 |   5    0      4762       273 |   4   1    0    0 3a0f |    3.509       0       5       0       5      1      1      0   4709     326       4   1    03a0f a70f      9.720 "
test,1583576488288317952,54," | 54  |   5061       5   5053       0 |   5    0      4966        87 |   1   1    0    0 3a0f |    1.312       0       5       0       5      1      1      0   4884     169       1   1    03a0f a70f      7.530 "
test,1583576488285998080,55," | 55  |   5061       5   5040       0 |   5    0      4849       191 |   3   1    0    0 3a0f |    2.807       0       5       0       5      1      1      0   4808     232       3   1    03a0f a70f      8.850 "
test,1583576488284267776,56," | 56  |   5061       5   5043       0 |   5    0      4965        78 |   2   1    0    0 3a0f |    2.014       0       5       0       5      1      1      0   4902     141       2   1    03a0f a70f      8.940 "
test,1583576488303589120,57," | 57  |   5061       5   4998       0 |   4    3      4869       129 |   5  16   48    0  b0f |    0           0       0       0       8      0      0      0   4571     427       0  16    0 b0f a70f     30.360 "
test,1583576488287790080,58," | 58  |   5061       5   5052       0 |   5    0      4980        72 |   2   1    0    0 3a0f |    2.014       0       5       0       5      1      1      0   4765     287       2   1    03a0f a70f      8.970 "
test,1583576488286909184,5," |  5  |   5061       5   5059       0 |   5    0      4610       449 |   2   1    0    0 3a0f |    2.105       0       5       0       5      1      1      0   4523     536       2   1    03a0f a70f      8.190 "
test,1583576488291220992,60," | 60  |   5061       5   5052       0 |   5    0      4735       317 |   2   1    0    0 3a0f |    2.044       0       5       0       5      1      1      0   4638     414       2   1    03a0f a70f      8.250 "
test,1583576488293193984,61," | 61  |   5061       5   5051       0 |   5    0      4820       231 |   2   1    0    0 3a0f |    2.105       0       5       0       5      1      1      0   4651     400       2   1    03a0f a70f      9.720 "
test,1583576488286708992,7," |  7  |   5061       5   5058       0 |   5    0      4982        76 |   1   1    0    0 3a0f |    1.342       0       5       0       5      1      1      0   4951     107       1   1    03a0f a70f      7.530 "
test,1583576488283493888,9," |  9  |   5061       5   5057       0 |   5    0      4882       175 |   1   1    0    0 3a0f |    1.342       0       5       0       5      1      1      0   4859     198       1   1    03a0f a70f      7.470 "
