test,1583576552793569024,10," | 10  |   5319       5   5291       0 |   5    0      5206        85 |   2  13    0    0 2b0f |    2.746       0       5       0       5     13     13      0   5140     151       2  13    02b0f a70f      8.820 "
test,1583576552790028032,12," | 12  |   5319       5   5294      23 |   5    0      5259        58 |   1  13    0    0 2b0f |    2.014       0       5       0       5     13     13      0   5166     151       1  13    02b0f a70f      8.250 "
test,1583576552784261888,13," | 13  |   5319       5   5315       0 |   5    0      5269        46 |   2  13    0    1 2b0f |    1.739       0       4       0       4     13     13      0   5206     109       2  13    12b0f a70f      6.480 "
test,1583576552782176000,15," | 15  |   5319       5   5286      31 |   5    0      5107       210 |   2  13    0    0 2b0f |    1.983       0       5       0       5     13     13      0   4862     455       1  13    02b0f a70f      8.970 "
test,1583576552788546048,16," | 16  |   5319       5   5315       0 |   5    4      5128       187 |   1  23   40    0 c00f |    2.105       0       5       0       5     23     23      0   4981     334       1  23    0c00f a70f      8.820 "
test,1583576552808094976,17," | 17  |   5319       5   5308       7 |   5    5      5249        66 |   1  23   40    0 c00f |    2.105       0       4       0       4     23     23      0   5091     224       1  23    0c00f a70f     30.330 "
test,1583576552792573952,18," | 18  |   5319       5   5314       0 |   5    0      5015       299 |   2  40    0    0 770f |    3.479       0       5       0       5     40     40      0   4806     508       3  40    0770f a70f     11.100 "
test,1583576552786917888,19," | 19  |   5319       5   5304      11 |   5    4      5224        91 |   1  23   40    0 c00f |    2.105       0       5       0       5     23     23      0   5076     239       1  23    0c00f a70f      8.160 "
test,1583576552786237952,1," |  1  |   5319       4   5316       0 |   5    0      5183       133 |   1  13    0    0 2b0f |    2.685       0       5       0       5     13     13      0   5145     171       1  13    02b0f a70f      8.910 "
test,1583576552792401920,22," | 22  |   5319       5   5313       0 |   5    0      5267        46 |   2  40    0    0 770f |    7.171       0       5       0       5     40     40      0   5030     283       8  40    0770f a70f     14.010 "
test,1583576552808759040,23," | 23  |   5319       5   5257       0 |   4    5      5234        23 |   5  23   40    1 c00f |    3.814       0       3       0       3     23     23      0   5126     131       5  23    1c00f a70f     30.300 "
test,1583576552792768000,24," | 24  |   5319       5   5313       2 |   5    0      5262        53 |   1  40    0    0 770f |    3.509       0       5       0       5     40     40      0   5122     193       3  40    0770f a70f     12.420 "
test,1583576552792192000,26," | 26  |   5319       5   5313       2 |   5    0      5293        22 |   2  40    0    0 770f |    3.540       0       5       0       5     40     40      0   5197     118       3  40    0770f a70f     14.670 "
test,1583576552791341056,27," | 27  |   5319       5   5317       0 |   5    0      5166       151 |   1  23    0    0 c00f |    2.105       0       5       0       5     23     23      0   4950     367       1  23    0c00f a70f      8.790 "
test,1583576552806341888,28," | 28  |   5319       4   5309       6 |   0    7      4881       434 |   0  28   23    1 da0f |    0           0       0       0       8      0      0      0   4680     635       0  28    1da0f a70f     30.150 "
test,1583576552790839040,29," | 29  |   5319       5   5310       7 |   1    0      4690       627 |  11  23    0    0 c00f |    2.777       0       5       0       5     23     23      0   4464     853       2  23    0c00f a70f      9.000 "
test,1583576552801364992,30," | 30  |   5319       5   5313       2 |   5    0      5244        71 |   4  40    0    0 770f |    9.368       0       5       0       5     40     40      0   5051     264      11  40    0770f a70f     18.210 "
test,1583576552801000960,35," | 35  |   5319       5   5313       2 |   5    0      5066       249 |   3  40    0    0 770f |    9.338       0       5       0       5     40     40      0   4950     365      11  40    0770f a70f     17.580 "
test,1583576552787163136,40," | 40  |   5319       5   5237      74 |   4    0      4981       330 |   3  40    0    1 770f |    1.739       0       4       0       4     40     40      0   4857     454       2  40    1770f a70f      7.920 "
test,1583576552807369984,41," | 41  |   5319       5   5246      59 |   5    0      5264        41 |   2  40    0    0 770f |    2.777       0       4       0       4     40     40      0   5138     167       2  40    0770f a70f     30.240 "
test,1583576552787705856,42," | 42  |   5319       5   5253      62 |   5    0      5207       108 |   2  40    0    0 770f |    2.746       0       5       0       5     40     40      0   5097     218       2  40    0770f a70f      9.690 "
test,1583576552810113792,44," | 44  |   5319       5   5258      57 |   5    0      5211       104 |   2  40    0    0 770f |    2.807       0       4       0       4     40     40      0   5109     206       2  40    0770f a70f     30.330 "
test,1583576552805988096,45," | 45  |   5319       5   5272      43 |   0    9      5152       163 |   0  45   23    1 7d0f |    0           0       0       0       8      0      0      0   5055     260       0  45    17d0f a70f     30.240 "
test,1583576552788332032,46," | 46  |   5319       5   5251      57 |   5    0      5074       234 |   2  40    0    0 770f |    2.746       0       5       0       5     40     40      0   4987     321       2  40    0770f a70f      9.690 "
test,1583576552786700032,47," | 47  |   5319       5   5258      57 |   5    0      5137       178 |   2  40    0    0 770f |    2.746       0       5       0       5     40     40      0   5052     263       2  40    0770f a70f      9.000 "
test,1583576552788704000,48," | 48  |   5319       5   5193      55 |   5    0      5132       116 |   1  40    0    0 770f |    2.044       0       5       0       5     40     40      0   5043     205       1  40    0770f a70f      9.690 "
test,1583576552789745152,49," | 49  |   5319       5   5309       0 |   5    0      5208       101 |   4  13    0    0 2b0f |    3.509       0       5       0       5     13     13      0   5170     139       3  13    02b0f a70f      9.570 "
test,1583576552784024064,51," | 51  |   5319       5   5310       0 |   4    9      5259        51 |   5  51   13    1 1d0f |    1.739       0       4       0       4     51     51      0   5240      70       2  51    11d0f a70f      6.510 "
test,1583576552807660032,52," | 52  |   5319       5   5285      26 |   5    7      5058       253 |   1  23   40    0 c00f |    2.075       0       4       0       4     23     23      0   4955     356       1  23    0c00f a70f     30.360 "
test,1583576552788110848,53," | 53  |   5319       5   5293       0 |   5    0      5006       287 |   5  13    0    0 2b0f |    4.180       0       5       0       5     13     13      0   4950     343       4  13    02b0f a70f     10.350 "
test,1583576552786019072,54," | 54  |   5319       5   5311       0 |   5    0      5218        93 |   1  13    0    0 2b0f |    1.983       0       5       0       5     13     13      0   5135     176       1  13    02b0f a70f      8.910 "
test,1583576552790571008,55," | 55  |   5319       5   5298       0 |   5    0      5098       200 |   4  13    0    0 2b0f |    3.448       0       5       0       5     13     13      0   5055     243       3  13    02b0f a70f      9.630 "
test,1583576552809210112,56," | 56  |   5319       5   5301       0 |   5    0      5221        80 |   4  13    0    0 2b0f |   10.742       0       1       0       1     13     13      0   5156     145      13  13    02b0f a70f     30.360 "
test,1583576552791817984,57," | 57  |   5319       5   5256       0 |   5    5      5122       134 |   1  23   13    0 c00f |    2.075       0       5       0       5     23     23      0   4805     451       1  23    0c00f a70f      8.880 "
test,1583576552789453056,58," | 58  |   5319       5   5310       0 |   5    0      5235        75 |   3  13    0    0 2b0f |    2.777       0       5       0       5     13     13      0   5010     300       2  13    02b0f a70f     10.410 "
test,1583576552795922944,5," |  5  |   5319       5   5317       0 |   5    0      4840       477 |   1  13    0    0 2b0f |    1.983       0       5       0       5     13     13      0   4749     568       1  13    02b0f a70f      8.190 "
test,1583576552785702912,60," | 60  |   5319       5   5310       0 |   5    1      4972       338 |   1  51   13    0 1d0f |    2.014       0       5       0       5     51     51      0   4868     442       1  51    01d0f a70f      8.220 "
test,1583576552805790976,61," | 61  |   5319       5   5309       0 |   4    8      5065       244 |   2  23   13    0 c00f |    0           0       0       0       8      0      0      0   4886     423       0  23    0c00f a70f     30.390 "
test,1583576552785118208,7," |  7  |   5319       5   5316       0 |   5    0      5233        83 |   1  13    0    0 2b0f |    1.983       0       5       0       5     13     13      0   5199     117       1  13    02b0f a70f      8.220 "
test,1583576552786487040,9," |  9  |   5319       5   5315       0 |   5    0      5132       183 |   1  13    0    0 2b0f |    2.014       0       5       0       5     13     13      0   5109     206       1  13    02b0f a70f      8.880 "
