test,1583576499284028928,10," | 10  |   5105       5   5077       0 |   5    0      4994        83 |   1   7    0    0 d10f |    1.983       0       5       0       5      7      7      0   4931     146       1   7    0d10f a70f      8.220 "
test,1583576499286696960,12," | 12  |   5105       5   5085      18 |   5    0      5052        51 |   1   7    0    0 d10f |    1.983       0       5       0       5      7      7      0   4962     141       1   7    0d10f a70f      8.220 "
test,1583576499284740096,13," | 13  |   5105       5   5101       0 |   5    0      5061        40 |   1   7    0    0 d10f |    1.983       0       5       0       5      7      7      0   4998     103       1   7    0d10f a70f      8.250 "
test,1583576499305113088,15," | 15  |   5105       5   5077      26 |   0    3      4903       200 |   0  15   35    1 5a0f |    0           0       0       0       8      0      0      0   4673     430       0  15    15a0f a70f     30.180 "
test,1583576499300097024,16," | 16  |   5105       5   5101       0 |   5    0      4918       183 |   3  35    0    0 cc0f |    6.469       0       5       0       5     35     35      0   4780     321       7  35    0cc0f a70f     12.630 "
test,1583576499290210048,17," | 17  |   5105       5   5094       7 |   5    0      5039        62 |   2  35    0    0 cc0f |    5.737       0       5       0       5     35     35      0   4890     211       6  35    0cc0f a70f     11.820 "
test,1583576499288922112,18," | 18  |   5105       5   5100       0 |   5    0      4806       294 |   2  35    0    0 cc0f |    5.737       0       5       0       5     35     35      0   4603     497       6  35    0cc0f a70f     11.760 "
test,1583576499291456000,19," | 19  |   5105       5   5090      11 |   4    0      5016        85 |   2  35    0    0 cc0f |    5.706       0       5       0       5     35     35      0   4871     230       6  35    0cc0f a70f     12.480 "
test,1583576499284244992,1," |  1  |   5105       4   5102       0 |   5    0      4972       130 |   1   7    0    0 d10f |    2.685       0       5       0       5      7      7      0   4936     166       1   7    0d10f a70f      8.910 "
test,1583576499289291008,22," | 22  |   5105       5   5099       0 |   5    0      5054        45 |   1  35    0    0 cc0f |    4.974       0       5       0       5     35     35      0   4822     277       5  35    0cc0f a70f     11.040 "
test,1583576499290883072,23," | 23  |   5105       5   5043       0 |   5    0      5021        22 |   2  35    0    0 cc0f |    5.737       0       5       0       5     35     35      0   4916     127       6  35    0cc0f a70f     11.790 "
test,1583576499291268096,24," | 24  |   5105       5   5099       2 |   5    0      5049        52 |   2  35    0    0 cc0f |    5.737       0       5       0       5     35     35      0   4914     187       6  35    0cc0f a70f     11.790 "
test,1583576499295444992,26," | 26  |   5105       5   5099       2 |   5    0      5081        20 |   2  35    0    0 cc0f |    5.737       0       5       0       5     35     35      0   4988     113       6  35    0cc0f a70f     11.910 "
test,1583576499298505984,27," | 27  |   5105       5   5103       0 |   5    0      4959       144 |   5  35    0    0 cc0f |    6.500       0       5       0       5     35     35      0   4750     353       7  35    0cc0f a70f     15.390 "
test,1583576499287568128,28," | 28  |   5105       5   5095       6 |   5    0      4686       415 |   1  35    0    0 cc0f |    2.044       0       5       0       5     35     35      0   4488     613       1  35    0cc0f a70f      8.880 "
test,1583576499294974976,29," | 29  |   5105       4   5096       7 |   4    0      4509       594 |   6  35    0    0 cc0f |    6.469       0       5       0       5     35     35      0   4296     807       7  35    0cc0f a70f     14.760 "
test,1583576499285017088,30," | 30  |   5105       5   5099       2 |   5    0      5032        69 |   1  35    0    0 cc0f |    2.044       0       5       0       5     35     35      0   4847     254       1  35    0cc0f a70f      8.160 "
test,1583576499283822080,35," | 35  |   5105       5   5099       2 |   4    0      4858       243 |   6  35    0    1 cc0f |    1.739       0       4       0       4     35     35      0   4748     353       2  35    1cc0f a70f      6.480 "
test,1583576499293000960,40," | 40  |   5105       5   5023      74 |   5    0      4782       315 |   3  35    0    0 cc0f |    6.469       0       5       0       5     35     35      0   4663     434       7  35    0cc0f a70f     13.170 "
test,1583576499298702080,41," | 41  |   5105       5   5032      59 |   5    0      5052        39 |   3  35    0    0 cc0f |    6.469       0       5       0       5     35     35      0   4929     162       7  35    0cc0f a70f     13.170 "
test,1583576499288613120,42," | 42  |   5105       5   5039      62 |   5    0      4994       107 |   2  35    0    0 cc0f |    5.706       0       5       0       5     35     35      0   4887     214       6  35    0cc0f a70f     11.880 "
test,1583576499293209088,44," | 44  |   5105       5   5044      57 |   5    0      4999       102 |   3  35    0    0 cc0f |    6.408       0       5       0       5     35     35      0   4903     198       7  35    0cc0f a70f     12.420 "
test,1583576499291075072,45," | 45  |   5105       5   5058      43 |   5    0      4943       158 |   3  35    0    0 cc0f |    6.469       0       5       0       5     35     35      0   4850     251       7  35    0cc0f a70f     13.320 "
test,1583576499296800000,46," | 46  |   5105       5   5037      57 |   5    0      4873       221 |   3  35    0    0 cc0f |    6.469       0       5       0       5     35     35      0   4788     306       7  35    0cc0f a70f     13.320 "
test,1583576499296348928,47," | 47  |   5105       5   5044      57 |   5    0      4927       174 |   3  35    0    0 cc0f |    6.469       0       5       0       5     35     35      0   4845     256       7  35    0cc0f a70f     12.510 "
test,1583576499294326016,48," | 48  |   5105       5   4979      55 |   5    0      4921       113 |   2  35    0    0 cc0f |    5.737       0       5       0       5     35     35      0   4834     200       6  35    0cc0f a70f     12.630 "
test,1583576499286464000,49," | 49  |   5105       5   5095       0 |   5    0      4997        98 |   1  55    0    0 8b0f |    2.044       0       5       0       5     55     55      0   4960     135       1  55    08b0f a70f      8.190 "
test,1583576499286902016,51," | 51  |   5105       5   5096       0 |   5    0      5048        48 |   1   7    0    0 d10f |    2.716       0       5       0       5      7      7      0   5029      67       2   7    0d10f a70f      8.850 "
test,1583576499300803072,52," | 52  |   5105       5   5071      26 |   5    0      4860       237 |   4  35    0    0 cc0f |    5.706       0       5       0       5     35     35      0   4761     336       6  35    0cc0f a70f     11.850 "
test,1583576499289946112,53," | 53  |   5105       5   5079       0 |   5    0      4803       276 |   1  55    0    0 8b0f |    2.014       0       5       0       5     55     55      0   4750     329       1  55    08b0f a70f      8.250 "
test,1583576499286236928,54," | 54  |   5105       5   5097       0 |   5    0      5008        89 |   1   7    0    0 d10f |    2.014       0       5       0       5      7      7      0   4927     170       1   7    0d10f a70f      8.160 "
test,1583576499285445888,55," | 55  |   5105       5   5084       0 |   5    0      4892       192 |   2  55    0    1 8b0f |    1.770       0       4       0       4     55     55      0   4851     233       2  55    18b0f a70f      6.510 "
test,1583576499285634048,56," | 56  |   5105       5   5087       0 |   5    0      5009        78 |   2   7    0    0 d10f |    2.746       0       5       0       5      7      7      0   4946     141       2   7    0d10f a70f      8.940 "
test,1583576499308860928,57," | 57  |   5105       5   5042       0 |   2    4      4911       131 |  12  55   60    0 8b0f |    2.777       0       1       0       1     55     55      0   4607     435       2  55    08b0f a70f     30.360 "
test,1583576499288360960,58," | 58  |   5105       5   5096       0 |   5    0      5023        73 |   5  55    0    0 8b0f |    2.044       0       5       0       5     55     55      0   4806     290       1  55    08b0f a70f      8.130 "
test,1583576499285937152,5," |  5  |   5105       5   5103       0 |   5    0      4648       455 |   2   7    0    0 d10f |    2.746       0       5       0       5      7      7      0   4561     542       2   7    0d10f a70f      8.850 "
test,1583576499306267904,60," | 60  |   5105       5   5096       0 |   0    8      4775       321 |   0  60   55    1 b40f |    0           0       0       0       8      0      0      0   4677     419       0  60    1b40f a70f     30.180 "
test,1583576499307589120,61," | 61  |   5105       5   5095       0 |   2    3      4864       231 |   2   7   55    0 d10f |    6.439       0       2       0       2      7      7      0   4690     405       7   7    0d10f a70f     30.300 "
test,1583576499283627008,7," |  7  |   5105       5   5102       0 |   4    0      5026        76 |   4   7    0    1 d10f |    1.739       0       4       0       4      7      7      0   4995     107       2   7    1d10f a70f      6.480 "
test,1583576499287840000,9," |  9  |   5105       5   5101       0 |   5    0      4925       176 |   1   7    0    0 d10f |    1.983       0       5       0       5      7      7      0   4902     199       1   7    0d10f a70f      8.250 "
