test,1583576566786312192,10," | 10  |   5375       5   5347       0 |   5    0      5261        86 |   1  12    0    0 e00f |    1.953       0       5       0       5     12     12      0   5193     154       1  12    0e00f a70f      8.220 "
test,1583576566785524992,12," | 12  |   5375       5   5348      25 |   4    0      5314        59 |   5  12    0    1 e00f |    1.739       0       4       0       4     12     12      0   5220     153       2  12    1e00f a70f      6.480 "
test,1583576566789124864,13," | 13  |   5375       5   5371       0 |   5    0      5325        46 |   1  12    0    0 e00f |    2.014       0       5       0       5     12     12      0   5261     110       1  12    0e00f a70f      8.160 "
test,1583576566793025024,15," | 15  |   5375       5   5340      33 |   5    0      5162       211 |   1  12    0    0 e00f |    2.044       0       5       0       5     12     12      0   4914     459       1  12    0e00f a70f      8.130 "
test,1583576566788208128,16," | 16  |   5375       5   5371       0 |   5    0      5183       188 |   3  22    0    0 710f |    2.746       0       5       0       5     22     22      0   5036     335       2  22    0710f a70f      8.940 "
test,1583576566790740992,17," | 17  |   5375       5   5364       7 |   5    0      5305        66 |   2  22    0    0 710f |    2.777       0       5       0       5     22     22      0   5146     225       2  22    0710f a70f      8.970 "
test,1583576566792599040,18," | 18  |   5375       5   5370       0 |   5    0      5068       302 |   1  22    0    0 710f |    2.075       0       5       0       5     22     22      0   4856     514       1  22    0710f a70f      8.190 "
test,1583576566795718912,19," | 19  |   5375       5   5360      11 |   5    0      5278        93 |   2  22    0    0 710f |    2.807       0       5       0       5     22     22      0   5129     242       2  22    0710f a70f      9.660 "
test,1583576566784719872,1," |  1  |   5375       4   5372       0 |   5    0      5236       136 |   1  12    0    0 e00f |    2.685       0       5       0       5     12     12      0   5198     174       1  12    0e00f a70f      8.940 "
test,1583576566790074112,22," | 22  |   5375       5   5369       0 |   5    0      5323        46 |   2  22    0    1 710f |    1.770       0       4       0       4     22     22      0   5083     286       2  22    1710f a70f      6.510 "
test,1583576566785176064,23," | 23  |   5375       5   5313       0 |   5    0      5290        23 |   2  22    0    0 710f |    2.044       0       5       0       5     22     22      0   5182     131       1  22    0710f a70f      8.220 "
test,1583576566804663808,24," | 24  |   5375       5   5369       2 |   5    0      5318        53 |   1  22    0    0 710f |    2.075       0       5       0       5     22     22      0   5176     195       1  22    0710f a70f      8.970 "
test,1583576566788003072,26," | 26  |   5375       5   5369       2 |   5    0      5349        22 |   1  22    0    0 710f |    2.014       0       5       0       5     22     22      0   5252     119       1  22    0710f a70f      8.250 "
test,1583576566809639936,27," | 27  |   5375       5   5373       0 |   1    6      5220       153 |   2  27   22    1 b00f |   10.253       0       3       0       3     27     27      0   5001     372      14  27    1b00f a70f     30.300 "
test,1583576566808621824,28," | 28  |   5375       4   5365       6 |   4    5      4930       441 |   3  22   35    0 710f |    3.540       0       3       0       3     22     22      0   4725     646       3  22    0710f a70f     30.270 "
test,1583576566793901056,29," | 29  |   5375       3   5366       7 |   1    2      4742       631 |   1  27   22    0 b00f |    4.089       0       5       0       5     27     27      0   4513     860       4  27    0b00f a70f     13.560 "
test,1583576566805722880,30," | 30  |   5375       5   5369       2 |   4    5      5299        72 |   3  22   35    0 710f |    3.540       0       2       0       2     22     22      0   5102     269       3  22    0710f a70f     30.330 "
test,1583576566804876032,35," | 35  |   5375       5   5369       2 |   0    9      5117       254 |   0  35   22    1 870f |    0           0       0       0       8      0      0      0   4999     372       0  35    1870f a70f     30.180 "
test,1583576566795452160,40," | 40  |   5375       5   5293      74 |   5    0      5034       333 |   1  48    0    0 700f |    2.014       0       5       0       5     48     48      0   4908     459       1  48    0700f a70f      8.250 "
test,1583576566786065152,41," | 41  |   5375       5   5302      59 |   5    0      5320        41 |   1  48    0    0 700f |    2.044       0       5       0       5     48     48      0   5191     170       1  48    0700f a70f      8.280 "
test,1583576566791559936,42," | 42  |   5375       5   5309      62 |   4    0      5262       109 |   4  48    0    0 700f |    2.044       0       5       0       5     48     48      0   5152     219       1  48    0700f a70f      8.190 "
test,1583576566788922112,44," | 44  |   5375       5   5314      57 |   5    0      5265       106 |   1  48    0    0 700f |    2.014       0       5       0       5     48     48      0   5161     210       1  48    0700f a70f      8.160 "
test,1583576566786822912,45," | 45  |   5375       5   5328      43 |   5    0      5207       164 |   1  48    0    0 700f |    2.044       0       5       0       5     48     48      0   5109     262       1  48    0700f a70f      8.250 "
test,1583576566791214080,46," | 46  |   5375       5   5307      57 |   5    0      5128       236 |   1  48    0    0 700f |    2.075       0       5       0       5     48     48      0   5040     324       1  48    0700f a70f      8.160 "
test,1583576566788687104,47," | 47  |   5375       5   5314      57 |   5    0      5193       178 |   1  48    0    0 700f |    2.075       0       5       0       5     48     48      0   5107     264       1  48    0700f a70f      8.310 "
test,1583576566790225152,48," | 48  |   5375       5   5249      55 |   5    0      5188       116 |   2  48    0    1 700f |    1.739       0       4       0       4     48     48      0   5097     207       2  48    1700f a70f      6.510 "
test,1583576566789349120,49," | 49  |   5375       5   5365       0 |   5    0      5263       102 |   1  55    0    0 890f |    2.014       0       5       0       5     55     55      0   5225     140       1  55    0890f a70f      8.790 "
test,1583576566787601920,51," | 51  |   5375       5   5366       0 |   5    0      5314        52 |   2  12    0    0 e00f |    2.777       0       5       0       5     12     12      0   5295      71       2  12    0e00f a70f      8.940 "
test,1583576566792259840,52," | 52  |   5375       3   5341      26 |   5    0      5111       256 |   2  22    0    0 710f |    2.746       0       5       0       5     22     22      0   5008     359       2  22    0710f a70f     10.230 "
test,1583576566795288064,53," | 53  |   5375       5   5349       0 |   5    0      5060       289 |   1  55    0    0 890f |    1.983       0       5       0       5     55     55      0   5004     345       1  55    0890f a70f      8.190 "
test,1583576566811944960,54," | 54  |   5375       5   5367       0 |   4    1      5273        94 |   1  12   55    0 e00f |    2.014       0       4       0       4     12     12      0   5190     177       1  12    0e00f a70f     30.390 "
test,1583576566788374784,55," | 55  |   5375       5   5354       0 |   4    0      5153       201 |   2  55    0    1 890f |    1.770       0       4       0       4     55     55      0   5110     244       2  55    1890f a70f      6.510 "
test,1583576566790540032,56," | 56  |   5375       5   5357       0 |   3    1      5277        80 |   5  12   22    0 e00f |    3.448       0       5       0       5     12     12      0   5212     145       3  12    0e00f a70f      9.630 "
test,1583576566808235008,57," | 57  |   5375       5   5312       0 |   3    1      5178       134 |   5  22   12    0 710f |    2.014       0       2       0       2     22     22      0   4859     453       1  22    0710f a70f     30.360 "
test,1583576566787064064,58," | 58  |   5375       5   5366       0 |   5    0      5291        75 |   1  55    0    0 890f |    2.014       0       5       0       5     55     55      0   5064     302       1  55    0890f a70f      9.000 "
test,1583576566783130880,5," |  5  |   5375       5   5373       0 |   5    0      4894       479 |   1  12    0    0 e00f |    2.014       0       5       0       5     12     12      0   4802     571       1  12    0e00f a70f      8.130 "
test,1583576566787791872,60," | 60  |   5375       5   5366       0 |   5    0      5023       343 |   2  12    0    0 e00f |    3.479       0       5       0       5     12     12      0   4919     447       3  12    0e00f a70f      9.690 "
test,1583576566791023872,61," | 61  |   5375       5   5365       0 |   4    1      5118       247 |   2  55   12    0 890f |    2.746       0       5       0       5     55     55      0   4936     429       2  55    0890f a70f      9.660 "
test,1583576566784989184,7," |  7  |   5375       5   5372       0 |   5    0      5289        83 |   1  12    0    0 e00f |    2.044       0       5       0       5     12     12      0   5254     118       1  12    0e00f a70f      8.280 "
test,1583576566785849088,9," |  9  |   5375       5   5371       0 |   5    0      5187       184 |   1  12    0    0 e00f |    2.014       0       5       0       5     12     12      0   5164     207       1  12    0e00f a70f      8.190 "
