test,1583576657786622976,10," | 10  |   5739       5   5711       0 |   4    0      5621        90 |   2  10    0    1 b00f |    1.739       0       4       0       4     10     10      0   5550     161       2  10    1b00f a70f   1972.470 "
test,1583576657799011840,12," | 12  |   5739       5   5703      34 |   5    0      5673        64 |   1  10    0    0 b00f |    2.044       0       5       0       5     10     10      0   5573     164       1  10    0b00f a70f      8.190 "
test,1583576657788027136,13," | 13  |   5739       5   5735       0 |   5    0      5688        47 |   1  10    0    0 b00f |    2.044       0       5       0       5     10     10      0   5621     114       1  10    0b00f a70f      8.100 "
test,1583576657793588992,15," | 15  |   5739       5   5694      43 |   5    0      5512       225 |   1  10    0    0 b00f |    2.777       0       5       0       5     10     10      0   5249     488       2  10    0b00f a70f      9.000 "
test,1583576657796946944,16," | 16  |   5739       5   5735       0 |   5    0      5530       205 |   2  48    0    0 580f |    2.807       0       5       0       5     48     48      0   5372     363       2  48    0580f a70f      9.660 "
test,1583576657810077952,17," | 17  |   5739       5   5728       7 |   5    0      5665        70 |   3  48    0    0 580f |    4.241       0       3       0       3     48     48      0   5496     239       4  48    0580f a70f     30.390 "
test,1583576657793324032,18," | 18  |   5739       5   5734       0 |   5    0      5417       317 |   2  48    0    0 580f |    2.807       0       5       0       5     48     48      0   5191     543       2  48    0580f a70f      8.910 "
test,1583576657814883840,19," | 19  |   5739       5   5724      11 |   5    0      5629       106 |   3  48    0    0 580f |    4.943       0       2       0       2     48     48      0   5473     262       5  48    0580f a70f     30.330 "
test,1583576657787427840,1," |  1  |   5739       4   5736       0 |   5    0      5589       147 |   1  10    0    0 b00f |    2.716       0       5       0       5     10     10      0   5551     185       1  10    0b00f a70f      8.970 "
test,1583576657794086912,22," | 22  |   5739       5   5733       0 |   5    0      5683        50 |   1  48    0    0 580f |    3.509       0       5       0       5     48     48      0   5425     308       3  48    0580f a70f     11.880 "
test,1583576657791742208,23," | 23  |   5739       5   5677       0 |   5    0      5652        25 |   3  48    0    0 580f |    4.241       0       5       0       5     48     48      0   5538     139       4  48    0580f a70f     10.410 "
test,1583576657791212032,24," | 24  |   5739       5   5733       2 |   5    0      5676        59 |   2  48    0    0 580f |    4.211       0       5       0       5     48     48      0   5525     210       4  48    0580f a70f     10.980 "
test,1583576657792555008,26," | 26  |   5739       5   5733       2 |   5    0      5711        24 |   2  48    0    0 580f |    4.211       0       5       0       5     48     48      0   5604     131       4  48    0580f a70f     10.230 "
test,1583576657808094976,27," | 27  |   5739       5   5737       0 |   1    8      5574       163 |   2  10   29    0 b00f |    0           0       0       0       8      0      0      0   5344     393       0  10    0b00f a70f     30.360 "
test,1583576657810290176,28," | 28  |   5739       3   5728       7 |   5    0      5270       465 |   4  48    0    0 580f |    5.706       0       2       0       2     48     48      0   5050     685       6  48    0580f a70f     30.330 "
test,1583576657809072896,29," | 29  |   5739       5   5729       8 |   0    3      5066       671 |   0  29   48    1 aa0f |    0           0       0       0       8      0      0      0   4823     914       0  29    1aa0f a70f     30.180 "
test,1583576657794531072,30," | 30  |   5739       5   5732       3 |   5    0      5660        75 |   3  48    0    0 580f |    4.943       0       5       0       5     48     48      0   5451     284       5  48    0580f a70f     11.100 "
test,1583576657801148928,35," | 35  |   5739       5   5732       3 |   5    0      5465       270 |   2  48    0    0 580f |    4.180       0       5       0       5     48     48      0   5340     395       4  48    0580f a70f     10.380 "
test,1583576657789263872,40," | 40  |   5739       5   5657      74 |   5    0      5381       350 |   1  48    0    0 580f |    2.014       0       5       0       5     48     48      0   5248     483       1  48    0580f a70f      8.940 "
test,1583576657799351040,41," | 41  |   5739       5   5666      59 |   5    0      5677        48 |   1  48    0    0 580f |    2.014       0       5       0       5     48     48      0   5543     182       1  48    0580f a70f     10.320 "
test,1583576657790822144,42," | 42  |   5739       5   5673      62 |   4    0      5623       112 |   1  48    0    0 580f |    2.014       0       5       0       5     48     48      0   5503     232       1  48    0580f a70f      8.970 "
test,1583576657791906048,44," | 44  |   5739       5   5678      57 |   5    0      5620       115 |   1  48    0    0 580f |    1.983       0       5       0       5     48     48      0   5511     224       1  48    0580f a70f      8.940 "
test,1583576657792139008,45," | 45  |   5739       5   5692      43 |   5    0      5555       180 |   1  48    0    0 580f |    2.014       0       5       0       5     48     48      0   5452     283       1  48    0580f a70f      9.600 "
test,1583576657800926976,46," | 46  |   5739       5   5671      57 |   5    0      5470       258 |   1  48    0    0 580f |    2.044       0       5       0       5     48     48      0   5378     350       1  48    0580f a70f      8.970 "
test,1583576657789496832,47," | 47  |   5739       5   5678      57 |   5    0      5547       188 |   1  48    0    0 580f |    2.044       0       5       0       5     48     48      0   5457     278       1  48    0580f a70f      8.130 "
test,1583576657788603136,48," | 48  |   5739       5   5613      55 |   4    0      5549       119 |   4  48    0    1 580f |    1.770       0       4       0       4     48     48      0   5453     215       2  48    1580f a70f      6.510 "
test,1583576657808758016,49," | 49  |   5739       5   5729       0 |   5    0      5620       109 |   1  53    0    0 d00f |    2.075       0       2       0       2     53     53      0   5582     147       1  53    0d00f a70f     30.360 "
test,1583576657787059968,51," | 51  |   5739       5   5730       0 |   5    0      5672        58 |   1  10    0    0 b00f |    2.044       0       5       0       5     10     10      0   5653      77       1  10    0b00f a70f      8.160 "
test,1583576657812628992,52," | 52  |   5739       4   5704      27 |   5    0      5455       276 |   3  48    0    0 580f |    5.706       0       4       0       4     48     48      0   5349     382       6  48    0580f a70f     30.390 "
test,1583576657810694912,53," | 53  |   5739       5   5713       0 |   5    0      5413       300 |   2  53    0    1 d00f |    1.739       0       1       0       1     53     53      0   5355     358       2  53    1d00f a70f     30.300 "
test,1583576657794307072,54," | 54  |   5739       5   5731       0 |   5    0      5634        97 |   1  10    0    0 b00f |    2.014       0       5       0       5     10     10      0   5542     189       1  10    0b00f a70f      8.220 "
test,1583576657806399232,55," | 55  |   5739       5   5718       0 |   0    7      5502       216 |   0  55   53    1 cd0f |    0           0       0       0       8      0      0      0   5458     260       0  55    1cd0f a70f     30.150 "
test,1583576657786830848,56," | 56  |   5739       5   5721       0 |   5    0      5636        85 |   1  10    0    0 b00f |    2.044       0       5       0       5     10     10      0   5568     153       1  10    0b00f a70f      8.250 "
test,1583576657790054144,57," | 57  |   5739       5   5676       0 |   1    6      5534       142 |   2  10   48    0 b00f |    2.777       0       5       0       5     10     10      0   5192     484       2  10    0b00f a70f      9.000 "
test,1583576657811202048,58," | 58  |   5739       5   5730       0 |   4    0      5651        79 |   2  10    0    0 b00f |    3.509       0       4       0       4     10     10      0   5415     315       3  10    0b00f a70f     30.390 "
test,1583576657796196096,5," |  5  |   5739       5   5737       0 |   5    0      5224       513 |   2  10    0    0 b00f |    2.807       0       5       0       5     10     10      0   5124     613       2  10    0b00f a70f      9.000 "
test,1583576657788944896,60," | 60  |   5739       5   5730       0 |   5    0      5368       362 |   2  10    0    0 b00f |    2.807       0       5       0       5     10     10      0   5255     475       2  10    0b00f a70f      9.000 "
test,1583576657792712960,61," | 61  |   5739       5   5729       0 |   5    0      5468       261 |   2  10    0    0 b00f |    2.807       0       5       0       5     10     10      0   5275     454       2  10    0b00f a70f      9.540 "
test,1583576657792923904,7," |  7  |   5739       5   5736       0 |   5    0      5648        88 |   1  10    0    0 b00f |    2.014       0       5       0       5     10     10      0   5612     124       1  10    0b00f a70f      8.250 "
test,1583576657787664896,9," |  9  |   5739       5   5735       0 |   5    0      5539       196 |   1  10    0    0 b00f |    2.044       0       5       0       5     10     10      0   5514     221       1  10    0b00f a70f      8.130 "
