test,1583576508534721024,10," | 10  |   5142       5   5114       0 |   5    0      5031        83 |   1   1    0    0 820f |    1.342       0       5       0       5      1      1      0   4968     146       1   1    0820f a70f      7.590 "
test,1583576508534157056,12," | 12  |   5142       5   5121      19 |   5    0      5087        53 |   1   1    0    0 820f |    1.342       0       5       0       5      1      1      0   4997     143       1   1    0820f a70f      7.500 "
test,1583576508540140032,13," | 13  |   5142       5   5138       0 |   5    0      5096        42 |   1   1    0    0 820f |    1.342       0       5       0       5      1      1      0   5032     106       1   1    0820f a70f      7.590 "
test,1583576508542884096,15," | 15  |   5142       5   5113      27 |   5    0      4939       201 |   2   1    0    0 820f |    2.075       0       5       0       5      1      1      0   4707     433       2   1    0820f a70f      8.190 "
test,1583576508535790848,16," | 16  |   5142       5   5138       0 |   5    0      4955       183 |   4  48    0    0 e60f |    2.777       0       5       0       5     48     48      0   4816     322       2  48    0e60f a70f      9.000 "
test,1583576508558263040,17," | 17  |   5142       5   5131       7 |   5    0      5075        63 |   4  48    0    0 e60f |    2.807       0       3       0       3     48     48      0   4924     214       2  48    0e60f a70f     30.300 "
test,1583576508558022912,18," | 18  |   5142       5   5137       0 |   5    0      4843       294 |   4  48    0    0 e60f |    2.777       0       4       0       4     48     48      0   4638     499       2  48    0e60f a70f     30.360 "
test,1583576508557022208,19," | 19  |   5142       5   5127      11 |   5    0      5052        86 |   5  48    0    0 e60f |    3.540       0       4       0       4     48     48      0   4905     233       3  48    0e60f a70f     30.210 "
test,1583576508532512000,1," |  1  |   5142       4   5139       0 |   5    0      5008       131 |   2   1    0    1 820f |    1.739       0       4       0       4      1      1      0   4971     168       2   1    1820f a70f      6.480 "
test,1583576508557679872,22," | 22  |   5142       5   5136       0 |   5    0      5091        45 |   5  48    0    0 e60f |    3.479       0       3       0       3     48     48      0   4857     279       3  48    0e60f a70f     30.270 "
test,1583576508535357952,23," | 23  |   5142       5   5080       0 |   5    0      5058        22 |   5  48    0    0 e60f |    3.509       0       5       0       5     48     48      0   4952     128       3  48    0e60f a70f      9.810 "
test,1583576508556709120,24," | 24  |   5142       5   5136       2 |   5    0      5085        53 |   4  48    0    0 e60f |    3.509       0       3       0       3     48     48      0   4949     189       3  48    0e60f a70f     30.360 "
test,1583576508554804992,26," | 26  |   5142       5   5136       2 |   0   10      5117        21 |   0  26   48    1 1e0f |    0           0       0       0       8      0      0      0   5024     114       0  26    11e0f a70f     30.150 "
test,1583576508546608896,27," | 27  |   5142       5   5140       0 |   4    0      4996       144 |   5  48    0    0 e60f |    3.540       0       5       0       5     48     48      0   4784     356       3  48    0e60f a70f     10.410 "
test,1583576508542315008,28," | 28  |   5142       5   5132       6 |   5    0      4720       418 |   1  30    0    0 3a0f |    2.014       0       5       0       5     30     30      0   4521     617       1  30    03a0f a70f      8.220 "
test,1583576508557841152,29," | 29  |   5142       4   5133       7 |   4    0      4542       598 |   6  48    0    0 e60f |    6.439       0       3       0       3     48     48      0   4326     814       7  48    0e60f a70f     30.300 "
test,1583576508534892032,30," | 30  |   5142       5   5136       2 |   5    0      5068        70 |   2  30    0    1 3a0f |    1.770       0       4       0       4     30     30      0   4881     257       2  30    13a0f a70f      6.510 "
test,1583576508537137920,35," | 35  |   5142       5   5136       2 |   5    0      4893       245 |   1  30    0    0 3a0f |    1.983       0       5       0       5     30     30      0   4782     356       1  30    03a0f a70f      8.190 "
test,1583576508542135040,40," | 40  |   5142       5   5060      74 |   5    0      4817       317 |   1  48    0    0 e60f |    2.014       0       5       0       5     48     48      0   4695     439       1  48    0e60f a70f      8.100 "
test,1583576508544410880,41," | 41  |   5142       5   5069      59 |   5    0      5089        39 |   1  48    0    0 e60f |    2.014       0       5       0       5     48     48      0   4966     162       1  48    0e60f a70f      8.100 "
test,1583576508536945152,42," | 42  |   5142       5   5076      62 |   5    0      5031       107 |   1  48    0    0 e60f |    2.044       0       5       0       5     48     48      0   4923     215       1  48    0e60f a70f      8.280 "
test,1583576508543340032,44," | 44  |   5142       5   5081      57 |   5    0      5036       102 |   1  48    0    0 e60f |    2.075       0       5       0       5     48     48      0   4939     199       1  48    0e60f a70f      8.310 "
test,1583576508539942912,45," | 45  |   5142       5   5095      43 |   5    0      4979       159 |   1  48    0    0 e60f |    2.014       0       5       0       5     48     48      0   4886     252       1  48    0e60f a70f      8.160 "
test,1583576508541958144,46," | 46  |   5142       5   5074      57 |   5    0      4908       223 |   1  48    0    0 e60f |    2.014       0       5       0       5     48     48      0   4822     309       1  48    0e60f a70f      8.130 "
test,1583576508540340992,47," | 47  |   5142       5   5081      57 |   5    0      4964       174 |   1  48    0    0 e60f |    2.044       0       5       0       5     48     48      0   4881     257       1  48    0e60f a70f      8.280 "
test,1583576508536534016,48," | 48  |   5142       5   5016      55 |   4    0      4957       114 |   2  48    0    1 e60f |    1.739       0       4       0       4     48     48      0   4870     201       2  48    1e60f a70f      6.510 "
test,1583576508551053056,49," | 49  |   5142       5   5132       0 |   5    1      5033        99 |   1  53    1    0 bc0f |    2.044       0       5       0       5     53     53      0   4996     136       1  53    0bc0f a70f      8.160 "
test,1583576508533413888,51," | 51  |   5142       5   5133       0 |   5    0      5085        48 |   1   1    0    0 820f |    1.342       0       5       0       5      1      1      0   5066      67       1   1    0820f a70f      7.440 "
test,1583576508558567936,52," | 52  |   5142       4   5108      26 |   5    0      4895       239 |   6  48    0    0 e60f |    3.509       0       4       0       4     48     48      0   4795     339       3  48    0e60f a70f     30.360 "
test,1583576508545309184,53," | 53  |   5142       5   5116       0 |   4    0      4838       278 |   8  53    0    1 bc0f |    1.739       0       4       0       4     53     53      0   4784     332       2  53    1bc0f a70f      6.480 "
test,1583576508533776896,54," | 54  |   5142       5   5134       0 |   5    0      5045        89 |   1   1    0    0 820f |    1.342       0       5       0       5      1      1      0   4964     170       1   1    0820f a70f      7.500 "
test,1583576508535977984,55," | 55  |   5142       5   5121       0 |   5    1      4929       192 |   1  53    1    0 bc0f |    2.014       0       5       0       5     53     53      0   4887     234       1  53    0bc0f a70f      8.250 "
test,1583576508535609088,56," | 56  |   5142       5   5124       0 |   5    0      5046        78 |   2   1    0    0 820f |    2.105       0       5       0       5      1      1      0   4983     141       2   1    0820f a70f      8.220 "
test,1583576508557261056,57," | 57  |   5142       5   5079       0 |   1    5      4947       132 |   4   1   26    0 820f |    2.777       0       2       0       2      1      1      0   4638     441       3   1    0820f a70f     30.360 "
test,1583576508539601920,58," | 58  |   5142       5   5133       0 |   3    0      5060        73 |   3   1    0    0 820f |    2.075       0       5       0       5      1      1      0   4842     291       2   1    0820f a70f     10.350 "
test,1583576508537452032,5," |  5  |   5142       5   5140       0 |   5    0      4681       459 |   2   1    0    0 820f |    2.075       0       5       0       5      1      1      0   4594     546       2   1    0820f a70f      8.280 "
test,1583576508535144960,60," | 60  |   5142       5   5133       0 |   5    0      4810       323 |   2   1    0    0 820f |    2.075       0       5       0       5      1      1      0   4711     422       2   1    0820f a70f      8.160 "
test,1583576508537611008,61," | 61  |   5142       5   5132       0 |   5    0      4898       234 |   2   1    0    0 820f |    2.075       0       5       0       5      1      1      0   4723     409       2   1    0820f a70f     10.290 "
test,1583576508532952064,7," |  7  |   5142       5   5139       0 |   5    0      5060        79 |   1   1    0    0 820f |    1.312       0       5       0       5      1      1      0   5029     110       1   1    0820f a70f      7.440 "
test,1583576508534419968,9," |  9  |   5142       5   5138       0 |   5    0      4961       177 |   1   1    0    0 820f |    1.342       0       5       0       5      1      1      0   4938     200       1   1    0820f a70f      7.590 "
