test,1583576578535661824,10," | 10  |   5422       5   5394       0 |   5    0      5307        87 |   1   7    0    0 580f |    2.014       0       5       0       5      7      7      0   5239     155       1   7    0580f a70f      8.250 "
test,1583576578538999040,12," | 12  |   5422       5   5394      26 |   5    0      5361        59 |   1   7    0    0 580f |    2.014       0       5       0       5      7      7      0   5267     153       1   7    0580f a70f      8.250 "
test,1583576578535878912,13," | 13  |   5422       5   5418       0 |   5    0      5372        46 |   1   7    0    0 580f |    2.014       0       5       0       5      7      7      0   5307     111       1   7    0580f a70f      8.100 "
test,1583576578557213952,15," | 15  |   5422       5   5386      34 |   5    0      5208       212 |   2   7    0    0 580f |    2.746       0       4       0       4      7      7      0   4960     460       2   7    0580f a70f     30.360 "
test,1583576578544868864,16," | 16  |   5422       5   5418       0 |   5    0      5228       190 |   4  19    0    0 450f |    4.241       0       5       0       5     19     19      0   5077     341       4  19    0450f a70f     14.730 "
test,1583576578539685888,17," | 17  |   5422       5   5411       7 |   5    0      5352        66 |   1  19    0    0 450f |    2.014       0       5       0       5     19     19      0   5191     227       1  19    0450f a70f      9.000 "
test,1583576578555433984,18," | 18  |   5422       5   5417       0 |   1   10      5113       304 |   2  42   19    0 c50f |    0           0       0       0       8      0      0      0   4897     520       0  42    0c50f a70f     30.360 "
test,1583576578542835968,19," | 19  |   5422       5   5407      11 |   5    0      5325        93 |   2  19    0    1 450f |    1.739       0       4       0       4     19     19      0   5173     245       2  19    1450f a70f      7.920 "
test,1583576578535484160,1," |  1  |   5422       4   5419       0 |   5    0      5281       138 |   1   7    0    0 580f |    2.685       0       5       0       5      7      7      0   5243     176       1   7    0580f a70f      8.760 "
test,1583576578542539008,22," | 22  |   5422       5   5416       0 |   5    0      5369        47 |   3  19    0    0 450f |    2.777       0       5       0       5     19     19      0   5126     290       2  19    0450f a70f      8.970 "
test,1583576578543152128,23," | 23  |   5422       5   5360       0 |   5    0      5336        24 |   4  19    0    0 450f |    4.241       0       5       0       5     19     19      0   5228     132       4  19    0450f a70f     14.040 "
test,1583576578536848896,24," | 24  |   5422       5   5416       2 |   5    0      5364        54 |   2  19    0    0 450f |    2.777       0       5       0       5     19     19      0   5220     198       2  19    0450f a70f      9.000 "
test,1583576578536147200,26," | 26  |   5422       5   5416       2 |   5    0      5395        23 |   1  19    0    0 450f |    2.044       0       5       0       5     19     19      0   5296     122       1  19    0450f a70f      8.250 "
test,1583576578555727872,27," | 27  |   5422       5   5420       0 |   0    7      5264       156 |   0  27   19    1 5e0f |    0           0       0       0       8      0      0      0   5044     376       0  27    15e0f a70f     30.180 "
test,1583576578553658880,28," | 28  |   5422       5   5412       6 |   5    0      4974       444 |   1  19    0    0 450f |    2.807       0       5       0       5     19     19      0   4767     651       2  19    0450f a70f      9.600 "
test,1583576578559303936,29," | 29  |   5422       5   5413       7 |   5    0      4783       637 |   3  19    0    0 450f |    3.509       0       3       0       3     19     19      0   4550     870       3  19    0450f a70f     30.360 "
test,1583576578548110080,30," | 30  |   5422       5   5416       2 |   5    0      5344        74 |   2  19    0    0 450f |    4.211       0       5       0       5     19     19      0   5146     272       4  19    0450f a70f     10.410 "
test,1583576578539401984,35," | 35  |   5422       5   5416       2 |   5    0      5161       257 |   3  19    0    0 450f |    3.509       0       5       0       5     19     19      0   5042     376       3  19    0450f a70f      9.540 "
test,1583576578537959936,40," | 40  |   5422       5   5340      74 |   3    2      5078       336 |   1  42   19    0 c50f |    2.746       0       5       0       5     42     42      0   4951     463       2  42    0c50f a70f      8.910 "
test,1583576578541039872,41," | 41  |   5422       5   5349      59 |   3    1      5367        41 |   1  42   19    0 c50f |    2.014       0       5       0       5     42     42      0   5236     172       1  42    0c50f a70f      8.250 "
test,1583576578537731840,42," | 42  |   5422       5   5356      62 |   2    2      5308       110 |   8  42   19    1 c50f |    1.770       0       4       0       4     42     42      0   5197     221       2  42    1c50f a70f      7.230 "
test,1583576578545572096,44," | 44  |   5422       5   5361      57 |   3    2      5311       107 |   1  42   19    0 c50f |    2.044       0       5       0       5     42     42      0   5206     212       1  42    0c50f a70f      9.720 "
test,1583576578543507968,45," | 45  |   5422       5   5375      43 |   2    2      5251       167 |   1  42   19    0 c50f |    2.014       0       5       0       5     42     42      0   5151     267       1  42    0c50f a70f      8.940 "
test,1583576578542043904,46," | 46  |   5422       5   5354      57 |   4    0      5171       240 |   1  42    0    0 c50f |    2.746       0       5       0       5     42     42      0   5082     329       2  42    0c50f a70f      8.940 "
test,1583576578539862016,47," | 47  |   5422       5   5361      57 |   4    0      5238       180 |   1  42    0    0 c50f |    2.044       0       5       0       5     42     42      0   5149     269       1  42    0c50f a70f      8.280 "
test,1583576578539248896,48," | 48  |   5422       5   5296      55 |   3    1      5234       117 |   1  42   19    0 c50f |    2.044       0       5       0       5     42     42      0   5142     209       1  42    0c50f a70f      8.910 "
test,1583576578540036864,49," | 49  |   5422       5   5412       0 |   5    0      5308       104 |   3   7    0    0 580f |    3.479       0       5       0       5      7      7      0   5270     142       3   7    0580f a70f      9.570 "
test,1583576578534817024,51," | 51  |   5422       5   5413       0 |   5    0      5361        52 |   1   7    0    0 580f |    1.983       0       5       0       5      7      7      0   5342      71       1   7    0580f a70f      8.250 "
test,1583576578544125952,52," | 52  |   5422       5   5388      26 |   5    0      5154       260 |   1  19    0    0 450f |    2.014       0       5       0       5     19     19      0   5050     364       1  19    0450f a70f      9.660 "
test,1583576578541373952,53," | 53  |   5422       5   5396       0 |   5    0      5104       292 |   4   7    0    0 580f |    4.211       0       5       0       5      7      7      0   5048     348       4   7    0580f a70f     10.230 "
test,1583576578538584064,54," | 54  |   5422       5   5414       0 |   5    0      5319        95 |   1   7    0    0 580f |    1.983       0       5       0       5      7      7      0   5236     178       1   7    0580f a70f      8.220 "
test,1583576578542999040,55," | 55  |   5422       5   5401       0 |   5    0      5199       202 |   3   7    0    0 580f |    3.417       0       5       0       5      7      7      0   5156     245       3   7    0580f a70f      9.600 "
test,1583576578540673024,56," | 56  |   5422       5   5404       0 |   5    0      5324        80 |   2   7    0    0 580f |    2.746       0       5       0       5      7      7      0   5259     145       2   7    0580f a70f      8.850 "
test,1583576578558358784,57," | 57  |   5422       5   5359       0 |   1    3      5223       136 |   3   7   19    0 580f |    6.408       0       3       0       3      7      7      0   4902     457       7   7    0580f a70f     30.330 "
test,1583576578540445952,58," | 58  |   5422       5   5413       0 |   5    0      5338        75 |   2   7    0    0 580f |    2.746       0       5       0       5      7      7      0   5109     304       2   7    0580f a70f      9.690 "
test,1583576578538149120,5," |  5  |   5422       5   5420       0 |   5    0      4937       483 |   2   7    0    0 580f |    2.716       0       5       0       5      7      7      0   4843     577       2   7    0580f a70f      8.940 "
test,1583576578536627968,60," | 60  |   5422       5   5413       0 |   5    0      5069       344 |   2   7    0    0 580f |    2.746       0       5       0       5      7      7      0   4964     449       2   7    0580f a70f      8.940 "
test,1583576578536328960,61," | 61  |   5422       5   5412       0 |   5    0      5164       248 |   2   7    0    0 580f |    2.746       0       5       0       5      7      7      0   4980     432       2   7    0580f a70f      8.970 "
test,1583576578534315008,7," |  7  |   5422       5   5419       0 |   4    0      5335        84 |   4   7    0    1 580f |    1.770       0       4       0       4      7      7      0   5300     119       2   7    1580f a70f      6.510 "
test,1583576578537057024,9," |  9  |   5422       5   5418       0 |   5    0      5232       186 |   1   7    0    0 580f |    2.014       0       5       0       5      7      7      0   5209     209       1   7    0580f a70f      8.220 "
