test,1583576474037491200,10," | 10  |   5004       5   4976       0 |   5    0      4895        81 |   2  61    0    0 560f |    2.777       0       5       0       5     61     61      0   4832     144       2  61    0560f a70f      8.940 "
test,1583576474037704960,12," | 12  |   5004       5   4988      14 |   5    0      4953        49 |   2  61    0    0 560f |    2.777       0       5       0       5     61     61      0   4866     136       2  61    0560f a70f      9.630 "
test,1583576474035352064,13," | 13  |   5004       5   5000       0 |   5    0      4960        40 |   2  61    0    0 560f |    2.807       0       5       0       5     61     61      0   4899     101       2  61    0560f a70f      9.030 "
test,1583576474040644864,15," | 15  |   5004       5   4982      20 |   5    0      4807       195 |   3  61    0    0 560f |    3.540       0       5       0       5     61     61      0   4583     419       3  61    0560f a70f     10.470 "
test,1583576474040263936,16," | 16  |   5004       5   5000       0 |   5    0      4821       179 |   1  26    0    0 e80f |    1.983       0       5       0       5     26     26      0   4685     315       1  26    0e80f a70f     10.380 "
test,1583576474039849984,17," | 17  |   5004       5   4993       7 |   5    0      4940        60 |   1  26    0    0 e80f |    2.044       0       5       0       5     26     26      0   4794     206       1  26    0e80f a70f      8.250 "
test,1583576474034217984,18," | 18  |   5004       5   4999       0 |   5    0      4710       289 |   1  26    0    0 e80f |    2.014       0       5       0       5     26     26      0   4506     493       1  26    0e80f a70f      8.250 "
test,1583576474038541056,19," | 19  |   5004       5   4989      11 |   5    0      4918        82 |   1  26    0    0 e80f |    1.983       0       5       0       5     26     26      0   4775     225       1  26    0e80f a70f      8.940 "
test,1583576474035967232,1," |  1  |   5004       4   5001       0 |   5    0      4874       127 |   2  61    0    0 560f |    3.448       0       5       0       5     61     61      0   4838     163       2  61    0560f a70f      9.690 "
test,1583576474036588032,22," | 22  |   5004       5   4998       0 |   5    0      4955        43 |   1  26    0    0 e80f |    2.044       0       5       0       5     26     26      0   4724     274       1  26    0e80f a70f      9.570 "
test,1583576474035535104,23," | 23  |   5004       5   4942       0 |   5    0      4920        22 |   1  26    0    0 e80f |    2.044       0       5       0       5     26     26      0   4818     124       1  26    0e80f a70f      9.600 "
test,1583576474036801024,24," | 24  |   5004       5   4998       2 |   5    0      4950        50 |   4  26    0    0 e80f |    1.983       0       5       0       5     26     26      0   4818     182       1  26    0e80f a70f      9.540 "
test,1583576474039484928,26," | 26  |   5004       5   4998       2 |   4    0      4980        20 |   4  26    0    1 e80f |    1.739       0       4       0       4     26     26      0   4890     110       2  26    1e80f a70f      7.920 "
test,1583576474040091904,27," | 27  |   5004       4   5002       0 |   5    0      4862       140 |   3  26    0    0 e80f |    2.746       0       5       0       5     26     26      0   4657     345       2  26    0e80f a70f      8.940 "
test,1583576474055228928,28," | 28  |   5004       5   4994       6 |   0    8      4597       403 |   0  28   61    1 2e0f |    0           0       0       0       8      0      0      0   4403     597       0  28    12e0f a70f     30.180 "
test,1583576474057872128,29," | 29  |   5004       4   4995       7 |   5    0      4423       579 |   2  26    0    0 e80f |    2.746       0       4       0       4     26     26      0   4210     792       2  26    0e80f a70f     30.390 "
test,1583576474049280000,30," | 30  |   5004       5   4998       2 |   5    0      4933        67 |   5  61    0    0 560f |   11.566       0       5       0       5     61     61      0   4750     250      14  61    0560f a70f     17.610 "
test,1583576474049504000,35," | 35  |   5004       5   4998       2 |   5    0      4765       235 |   6  61    0    0 560f |   12.268       0       5       0       5     61     61      0   4656     344      15  61    0560f a70f     18.180 "
test,1583576474055675904,40," | 40  |   5004       5   4927      69 |   0    6      4688       308 |   0  40   41    1 450f |    0           0       0       0       8      0      0      0   4572     424       0  40    1450f a70f     30.150 "
test,1583576474055479040,41," | 41  |   5004       5   4931      59 |   0    9      4951        39 |   0  41   26    1 9c0f |    0           0       0       0       8      0      0      0   4829     161       0  41    19c0f a70f     30.210 "
test,1583576474057657856,42," | 42  |   5004       5   4938      62 |   5    0      4895       105 |   2  26    0    0 e80f |    3.448       0       4       0       4     26     26      0   4788     212       3  26    0e80f a70f     30.390 "
test,1583576474060212992,44," | 44  |   5004       5   4943      57 |   5    0      4899       101 |   3  26    0    0 e80f |    2.716       0       4       0       4     26     26      0   4805     195       2  26    0e80f a70f     30.300 "
test,1583576474059616000,45," | 45  |   5004       5   4957      43 |   5    0      4843       157 |   2  26    0    0 e80f |    2.746       0       4       0       4     26     26      0   4752     248       2  26    0e80f a70f     30.360 "
test,1583576474059283968,46," | 46  |   5004       5   4936      57 |   3    5      4775       218 |   6  26   41    0 e80f |    3.479       0       4       0       4     26     26      0   4691     302       3  26    0e80f a70f     30.300 "
test,1583576474037866240,47," | 47  |   5004       5   4943      57 |   5    0      4828       172 |   3  26    0    0 e80f |    2.777       0       5       0       5     26     26      0   4747     253       2  26    0e80f a70f      8.850 "
test,1583576474058296064,48," | 48  |   5004       5   4878      55 |   5    0      4821       112 |   2  26    0    0 e80f |    2.716       0       4       0       4     26     26      0   4735     198       2  26    0e80f a70f     30.330 "
test,1583576474035124992,49," | 49  |   5004       5   4994       0 |   5    0      4897        97 |   2  61    0    0 560f |    2.777       0       5       0       5     61     61      0   4860     134       2  61    0560f a70f      8.880 "
test,1583576474053828096,51," | 51  |   5004       5   4995       0 |   5    0      4948        47 |   2  61    0    0 560f |    4.974       0       4       0       4     61     61      0   4930      65       5  61    0560f a70f     30.390 "
test,1583576474043427072,52," | 52  |   5004       5   4970      26 |   5    0      4762       234 |   1  26    0    0 e80f |    2.014       0       5       0       5     26     26      0   4666     330       1  26    0e80f a70f      8.940 "
test,1583576474036308992,53," | 53  |   5004       5   4978       0 |   5    0      4707       271 |   3  61    0    0 560f |    3.479       0       5       0       5     61     61      0   4655     323       3  61    0560f a70f      9.540 "
test,1583576474033346816,54," | 54  |   5004       5   4996       0 |   5    0      4911        85 |   1  61    0    0 560f |    2.044       0       5       0       5     61     61      0   4829     167       1  61    0560f a70f      8.190 "
test,1583576474037270016,55," | 55  |   5004       5   4983       0 |   5    0      4794       189 |   2  61    0    0 560f |    2.807       0       5       0       5     61     61      0   4754     229       2  61    0560f a70f      9.000 "
test,1583576474034925056,56," | 56  |   5004       5   4986       0 |   5    0      4908        78 |   1  61    0    0 560f |    2.777       0       5       0       5     61     61      0   4848     138       2  61    0560f a70f      8.880 "
test,1583576474056987136,57," | 57  |   5004       5   4941       0 |   5    0      4815       126 |   4  61    0    0 560f |    3.540       0       2       0       2     61     61      0   4522     419       3  61    0560f a70f     30.360 "
test,1583576474033943808,58," | 58  |   5004       5   4995       0 |   5    0      4923        72 |   1  61    0    0 560f |    2.044       0       5       0       5     61     61      0   4711     284       1  61    0560f a70f      8.130 "
test,1583576474038065920,5," |  5  |   5004       5   5002       0 |   5    0      4560       442 |   3  61    0    0 560f |    3.479       0       5       0       5     61     61      0   4474     528       3  61    0560f a70f      9.660 "
test,1583576474056032000,60," | 60  |   5004       5   4995       0 |   0    8      4679       316 |   0  60   61    1 3b0f |    0           0       0       0       8      0      0      0   4584     411       0  60    13b0f a70f     30.180 "
test,1583576474042443008,61," | 61  |   5004       5   4994       0 |   4    0      4767       227 |   4  61    0    1 560f |    1.739       0       4       0       4     61     61      0   4599     395       2  61    1560f a70f      7.200 "
test,1583576474035782144,7," |  7  |   5004       5   5001       0 |   5    0      4925        76 |   2  61    0    0 560f |    2.807       0       5       0       5     61     61      0   4894     107       2  61    0560f a70f      9.030 "
test,1583576474034771968,9," |  9  |   5004       5   5000       0 |   5    0      4827       173 |   2  61    0    0 560f |    2.777       0       5       0       5     61     61      0   4804     196       2  61    0560f a70f      8.850 "
