test,1583576543784279040,10," | 10  |   5283       5   5255       0 |   5    0      5170        85 |   1   1    0    0 1b0f |    1.342       0       5       0       5      1      1      0   5104     151       1   1    01b0f a70f      7.500 "
test,1583576543784472064,12," | 12  |   5283       5   5259      22 |   5    0      5224        57 |   1   1    0    0 1b0f |    1.373       0       5       0       5      1      1      0   5132     149       1   1    01b0f a70f      7.500 "
test,1583576543785347840,13," | 13  |   5283       5   5279       0 |   5    0      5234        45 |   1   1    0    0 1b0f |    1.373       0       5       0       5      1      1      0   5170     109       1   1    01b0f a70f      7.590 "
test,1583576543790756096,15," | 15  |   5283       5   5251      30 |   5    0      5072       209 |   2   1    0    0 1b0f |    2.105       0       5       0       5      1      1      0   4832     449       2   1    01b0f a70f      8.190 "
test,1583576543787087872,16," | 16  |   5283       5   5279       0 |   5    0      5093       186 |   1  52    0    0 b50f |    2.044       0       5       0       5     52     52      0   4949     330       1  52    0b50f a70f      9.000 "
test,1583576543788655104,17," | 17  |   5283       5   5272       7 |   5    0      5215        64 |   2  52    0    0 b50f |    2.777       0       5       0       5     52     52      0   5058     221       2  52    0b50f a70f      8.910 "
test,1583576543788111872,18," | 18  |   5283       5   5278       0 |   5    0      4980       298 |   2  52    0    0 b50f |    2.807       0       5       0       5     52     52      0   4772     506       2  52    0b50f a70f      8.970 "
test,1583576543789110016,19," | 19  |   5283       5   5268      11 |   5    0      5189        90 |   1  52    0    0 b50f |    3.540       0       5       0       5     52     52      0   5042     237       3  52    0b50f a70f      9.540 "
test,1583576543783965184,1," |  1  |   5283       4   5280       0 |   5    0      5147       133 |   4   1    0    1 1b0f |    1.739       0       4       0       4      1      1      0   5109     171       2   1    11b0f a70f      6.510 "
test,1583576543790499840,22," | 22  |   5283       5   5277       0 |   5    0      5231        46 |   3  52    0    0 b50f |    3.540       0       5       0       5     52     52      0   4996     281       3  52    0b50f a70f      9.540 "
test,1583576543785167104,23," | 23  |   5283       5   5221       0 |   5    0      5198        23 |   1  52    0    0 b50f |    2.044       0       5       0       5     52     52      0   5092     129       1  52    0b50f a70f      8.100 "
test,1583576543788770048,24," | 24  |   5283       5   5277       2 |   5    0      5226        53 |   1  52    0    0 b50f |    2.014       0       5       0       5     52     52      0   5088     191       1  52    0b50f a70f      9.000 "
test,1583576543786953984,26," | 26  |   5283       5   5277       2 |   5    0      5258        21 |   1  52    0    0 b50f |    2.044       0       5       0       5     52     52      0   5162     117       1  52    0b50f a70f      9.000 "
test,1583576543807140096,27," | 27  |   5283       5   5281       0 |   5    0      5131       150 |   2  52    0    0 b50f |    3.509       0       4       0       4     52     52      0   4917     364       3  52    0b50f a70f     30.240 "
test,1583576543808662016,28," | 28  |   5283       5   5273       6 |   5    0      4847       432 |   4  52    0    0 b50f |    3.540       0       4       0       4     52     52      0   4647     632       3  52    0b50f a70f     30.360 "
test,1583576543806427904,29," | 29  |   5283       3   5274       7 |   0    8      4660       621 |   0  29   52    1 c00f |    0           0       0       0       8      0      0      0   4437     844       0  29    1c00f a70f     30.180 "
test,1583576543791531008,30," | 30  |   5283       5   5277       2 |   5    0      5208        71 |   4  52    0    0 b50f |    4.272       0       5       0       5     52     52      0   5017     262       4  52    0b50f a70f     11.160 "
test,1583576543788468992,35," | 35  |   5283       5   5277       2 |   5    0      5031       248 |   4  52    0    0 b50f |    4.211       0       5       0       5     52     52      0   4916     363       4  52    0b50f a70f     10.380 "
test,1583576543807815936,40," | 40  |   5283       5   5201      74 |   5    0      4950       325 |   1  45    0    0 510f |    2.044       0       4       0       4     45     45      0   4826     449       1  45    0510f a70f     30.390 "
test,1583576543808196096,41," | 41  |   5283       5   5210      59 |   5    0      5229        40 |   1  45    0    0 510f |    2.044       0       4       0       4     45     45      0   5104     165       1  45    0510f a70f     30.240 "
test,1583576543786017792,42," | 42  |   5283       5   5217      62 |   5    0      5172       107 |   1  45    0    0 510f |    2.044       0       5       0       5     45     45      0   5062     217       1  45    0510f a70f      8.280 "
test,1583576543787510016,44," | 44  |   5283       5   5222      57 |   5    0      5176       103 |   1  45    0    0 510f |    2.014       0       5       0       5     45     45      0   5074     205       1  45    0510f a70f      8.970 "
test,1583576543791766784,45," | 45  |   5283       5   5236      43 |   4    0      5117       162 |   2  45    0    1 510f |    1.739       0       4       0       4     45     45      0   5020     259       2  45    1510f a70f      8.640 "
test,1583576543793543936,46," | 46  |   5283       5   5215      57 |   5    0      5040       232 |   1  45    0    0 510f |    2.075       0       5       0       5     45     45      0   4953     319       1  45    0510f a70f      8.160 "
test,1583576543786429952,47," | 47  |   5283       5   5222      57 |   5    0      5101       178 |   1  45    0    0 510f |    2.014       0       5       0       5     45     45      0   5016     263       1  45    0510f a70f      8.970 "
test,1583576543788232192,48," | 48  |   5283       5   5157      55 |   5    0      5096       116 |   1  45    0    0 510f |    2.044       0       5       0       5     45     45      0   5007     205       1  45    0510f a70f      8.100 "
test,1583576543787947008,49," | 49  |   5283       5   5273       0 |   5    0      5172       101 |   3   1    0    0 1b0f |    2.838       0       5       0       5      1      1      0   5134     139       3   1    01b0f a70f      8.880 "
test,1583576543784646912,51," | 51  |   5283       5   5274       0 |   5    0      5224        50 |   1   1    0    0 1b0f |    1.281       0       5       0       5      1      1      0   5205      69       1   1    01b0f a70f      7.530 "
test,1583576543786309120,52," | 52  |   5283       5   5249      26 |   4    0      5025       250 |   2  52    0    1 b50f |    1.770       0       4       0       4     52     52      0   4922     353       2  52    1b50f a70f      6.510 "
test,1583576543787687168,53," | 53  |   5283       5   5257       0 |   5    0      4971       286 |   4   1    0    0 1b0f |    2.777       0       5       0       5      1      1      0   4915     342       3   1    01b0f a70f      9.600 "
test,1583576543785669120,54," | 54  |   5283       5   5275       0 |   5    0      5184        91 |   1   1    0    0 1b0f |    1.342       0       5       0       5      1      1      0   5101     174       1   1    01b0f a70f      7.440 "
test,1583576543787404032,55," | 55  |   5283       5   5262       0 |   5    0      5063       199 |   3   1    0    0 1b0f |    2.807       0       5       0       5      1      1      0   5020     242       3   1    01b0f a70f      8.910 "
test,1583576543785846016,56," | 56  |   5283       5   5265       0 |   5    0      5185        80 |   2   1    0    0 1b0f |    2.105       0       5       0       5      1      1      0   5120     145       2   1    01b0f a70f      8.280 "
test,1583576543807483904,57," | 57  |   5283       5   5220       0 |   5    0      5086       134 |   2  52    0    0 b50f |    7.171       0       3       0       3     52     52      0   4770     450       8  52    0b50f a70f     30.360 "
test,1583576543786775040,58," | 58  |   5283       4   5274       0 |   5    0      5200        74 |   2   1    0    0 1b0f |    2.075       0       5       0       5      1      1      0   4974     300       2   1    01b0f a70f      9.030 "
test,1583576543802294016,5," |  5  |   5283       5   5281       0 |   0    8      4810       471 |   0   5    1    1 790f |    0           0       0       0       8      0      0      0   4719     562       0   5    1790f a70f     30.180 "
test,1583576543784887040,60," | 60  |   5283       5   5274       0 |   5    0      4937       337 |   2   1    0    0 1b0f |    2.105       0       5       0       5      1      1      0   4834     440       2   1    01b0f a70f      8.220 "
test,1583576543789019136,61," | 61  |   5283       5   5273       0 |   5    0      5029       244 |   3   1    0    0 1b0f |    2.044       0       5       0       5      1      1      0   4851     422       2   1    01b0f a70f      8.280 "
test,1583576543784177152,7," |  7  |   5283       5   5280       0 |   5    0      5199        81 |   1   1    0    0 1b0f |    1.312       0       5       0       5      1      1      0   5165     115       1   1    01b0f a70f      7.560 "
test,1583576543786534912,9," |  9  |   5283       5   5279       0 |   5    0      5098       181 |   1   1    0    0 1b0f |    1.312       0       5       0       5      1      1      0   5075     204       1   1    01b0f a70f      7.590 "
