test,1583576641540111104,10," | 10  |   5674       5   5646       0 |   4    0      5556        90 |   3  10    0    1 130f |    1.739       0       4       0       4     10     10      0   5486     160       2  10    1130f a70f      6.480 "
test,1583576641562042880,12," | 12  |   5674       5   5638      34 |   4    8      5609        63 |   8  12   10    1 a60f |    9.582       0       1       0       1     12     12      0   5511     161      13  12    1a60f a70f     30.270 "
test,1583576641537175040,13," | 13  |   5674       5   5670       0 |   5    0      5623        47 |   1  10    0    0 130f |    2.014       0       5       0       5     10     10      0   5556     114       1  10    0130f a70f      8.250 "
test,1583576641550846976,15," | 15  |   5674       5   5629      43 |   5    0      5449       223 |   4  12    0    0 a60f |    2.075       0       5       0       5     12     12      0   5193     479       1  12    0a60f a70f     10.230 "
test,1583576641539901952,16," | 16  |   5674       5   5670       0 |   5    0      5468       202 |   1  23    0    0 5c0f |    2.105       0       5       0       5     23     23      0   5312     358       1  23    05c0f a70f      8.250 "
test,1583576641536931072,17," | 17  |   5674       5   5663       7 |   5    0      5602        68 |   2  23    0    0 5c0f |    2.075       0       5       0       5     23     23      0   5434     236       1  23    05c0f a70f      8.280 "
test,1583576641541784064,18," | 18  |   5674       5   5669       0 |   5    0      5356       313 |   3  23    0    0 5c0f |    2.807       0       5       0       5     23     23      0   5131     538       2  23    05c0f a70f      9.000 "
test,1583576641539550976,19," | 19  |   5674       5   5659      11 |   5    0      5567       103 |   2  23    0    0 5c0f |    2.044       0       5       0       5     23     23      0   5411     259       1  23    05c0f a70f      8.280 "
test,1583576641537364992,1," |  1  |   5674       4   5671       0 |   5    0      5524       147 |   1  10    0    0 130f |    2.685       0       5       0       5     10     10      0   5486     185       1  10    0130f a70f      8.940 "
test,1583576641541615104,22," | 22  |   5674       5   5668       0 |   5    0      5620        48 |   2  23    0    0 5c0f |    2.075       0       5       0       5     23     23      0   5366     302       1  23    05c0f a70f      8.280 "
test,1583576641538927104,23," | 23  |   5674       5   5612       0 |   4    0      5587        25 |   2  23    0    1 5c0f |    1.739       0       4       0       4     23     23      0   5474     138       2  23    15c0f a70f      7.920 "
test,1583576641546040064,24," | 24  |   5674       5   5668       2 |   5    0      5611        59 |   2  23    0    0 5c0f |    2.075       0       5       0       5     23     23      0   5463     207       1  23    05c0f a70f      8.310 "
test,1583576641545822976,26," | 26  |   5674       5   5668       2 |   5    0      5646        24 |   2  23    0    0 5c0f |    2.075       0       5       0       5     23     23      0   5541     129       1  23    05c0f a70f      8.340 "
test,1583576641537581056,27," | 27  |   5674       5   5672       0 |   5    0      5512       160 |   1  23    0    0 5c0f |    2.075       0       5       0       5     23     23      0   5284     388       1  23    05c0f a70f      8.160 "
test,1583576641542507008,28," | 28  |   5674       5   5663       7 |   4    0      5209       461 |   3  23    0    0 5c0f |    2.838       0       5       0       5     23     23      0   4994     676       2  23    05c0f a70f      9.600 "
test,1583576641560838912,29," | 29  |   5674       1   5665       7 |   5    0      5010       662 |   2  23    0    0 5c0f |    2.777       0       4       0       4     23     23      0   4769     903       2  23    05c0f a70f     30.360 "
test,1583576641541000960,30," | 30  |   5674       5   5667       3 |   5    0      5595        75 |   3  23    0    0 5c0f |    2.838       0       5       0       5     23     23      0   5392     278       2  23    05c0f a70f      9.720 "
test,1583576641540352000,35," | 35  |   5674       5   5667       3 |   5    0      5406       264 |   3  23    0    0 5c0f |    2.777       0       5       0       5     23     23      0   5284     386       2  23    05c0f a70f      8.820 "
test,1583576641541351168,40," | 40  |   5674       5   5592      74 |   5    0      5319       347 |   3  23    0    0 5c0f |    2.807       0       5       0       5     23     23      0   5189     477       2  23    05c0f a70f      9.540 "
test,1583576641544832000,41," | 41  |   5674       5   5601      59 |   5    0      5613        47 |   2  23    0    0 5c0f |    2.777       0       5       0       5     23     23      0   5480     180       2  23    05c0f a70f     10.440 "
test,1583576641554793984,42," | 42  |   5674       5   5608      62 |   5    0      5559       111 |   3  23    0    0 5c0f |    2.807       0       5       0       5     23     23      0   5442     228       2  23    05c0f a70f      9.750 "
test,1583576641546411008,44," | 44  |   5674       5   5613      57 |   5    0      5556       114 |   3  23    0    0 5c0f |    2.807       0       5       0       5     23     23      0   5449     221       2  23    05c0f a70f      9.750 "
test,1583576641545173760,45," | 45  |   5674       5   5627      43 |   5    0      5491       179 |   3  23    0    0 5c0f |    2.746       0       5       0       5     23     23      0   5388     282       2  23    05c0f a70f      9.660 "
test,1583576641545651968,46," | 46  |   5674       5   5606      57 |   5    0      5409       254 |   3  23    0    0 5c0f |    3.509       0       5       0       5     23     23      0   5317     346       3  23    05c0f a70f      9.690 "
test,1583576641541993984,47," | 47  |   5674       5   5613      57 |   5    0      5483       187 |   3  23    0    0 5c0f |    3.509       0       5       0       5     23     23      0   5393     277       3  23    05c0f a70f      9.720 "
test,1583576641548088064,48," | 48  |   5674       5   5548      55 |   5    0      5484       119 |   3  23    0    0 5c0f |    2.777       0       5       0       5     23     23      0   5390     213       2  23    05c0f a70f      9.750 "
test,1583576641542969856,49," | 49  |   5674       5   5664       0 |   5    0      5555       109 |   5  10    0    0 130f |    2.746       0       5       0       5     10     10      0   5517     147       2  10    0130f a70f      8.940 "
test,1583576641537803776,51," | 51  |   5674       5   5665       0 |   5    0      5608        57 |   1  10    0    0 130f |    2.014       0       5       0       5     10     10      0   5590      75       1  10    0130f a70f      8.250 "
test,1583576641540800000,52," | 52  |   5674       5   5639      27 |   5    0      5396       270 |   1  23    0    0 5c0f |    2.044       0       5       0       5     23     23      0   5290     376       1  23    05c0f a70f      8.970 "
test,1583576641546561024,53," | 53  |   5674       5   5648       0 |   5    0      5350       298 |   6  10    0    0 130f |    3.479       0       5       0       5     10     10      0   5292     356       3  10    0130f a70f      9.600 "
test,1583576641545326848,54," | 54  |   5674       5   5666       0 |   5    0      5569        97 |   1  10    0    0 130f |    2.014       0       5       0       5     10     10      0   5478     188       1  10    0130f a70f      8.070 "
test,1583576641540521984,55," | 55  |   5674       5   5653       0 |   5    0      5440       213 |   5  10    0    0 130f |    2.716       0       5       0       5     10     10      0   5396     257       2  10    0130f a70f      8.910 "
test,1583576641538237184,56," | 56  |   5674       5   5656       0 |   5    0      5572        84 |   2  10    0    0 130f |    2.014       0       5       0       5     10     10      0   5505     151       1  10    0130f a70f      8.220 "
test,1583576641557515008,57," | 57  |   5674       5   5611       0 |   3    1      5470       141 |   1  23   10    0 5c0f |    2.075       0       5       0       5     23     23      0   5135     476       1  23    05c0f a70f      9.720 "
test,1583576641543463936,58," | 58  |   5674       5   5665       0 |   3    5      5586        79 |   4  10   12    0 130f |    2.014       0       5       0       5     10     10      0   5352     313       1  10    0130f a70f      8.910 "
test,1583576641560292096,5," |  5  |   5674       5   5672       0 |   5    3      5168       504 |   4  12   10    0 a60f |    2.075       0       4       0       4     12     12      0   5070     602       1  12    0a60f a70f     30.300 "
test,1583576641544521216,60," | 60  |   5674       5   5665       0 |   4    1      5304       361 |   4  10   12    0 130f |    2.746       0       5       0       5     10     10      0   5193     472       2  10    0130f a70f      8.880 "
test,1583576641560555008,61," | 61  |   5674       5   5664       0 |   1    5      5407       257 |   2  23   10    0 5c0f |   10.162       0       1       0       1     23     23      0   5214     450      12  23    05c0f a70f     30.390 "
test,1583576641539352064,7," |  7  |   5674       5   5671       0 |   5    0      5584        87 |   2  10    0    0 130f |    2.746       0       5       0       5     10     10      0   5548     123       2  10    0130f a70f      8.970 "
test,1583576641539729152,9," |  9  |   5674       5   5670       0 |   5    0      5476       194 |   1  10    0    0 130f |    2.014       0       5       0       5     10     10      0   5452     218       1  10    0130f a70f      8.940 "
