test,1583576528310398976,10," | 10  |   5221       5   5193       0 |   1    7      5109        84 |   1  51   22    0 e20f |    8.605       0       1       0       1     51     51      0   5043     150      10  51    0e20f a70f     30.360 "
test,1583576528286510080,12," | 12  |   5221       5   5199      20 |   5    0      5163        56 |   1   1    0    0 3a0f |    1.342       0       5       0       5      1      1      0   5071     148       1   1    03a0f a70f      8.190 "
test,1583576528283730944,13," | 13  |   5221       5   5217       0 |   5    0      5173        44 |   4   1    0    0 3a0f |    1.373       0       5       0       5      1      1      0   5108     109       1   1    03a0f a70f      7.470 "
test,1583576528288763136,15," | 15  |   5221       5   5191      28 |   5    0      5013       206 |   2   1    0    0 3a0f |    2.075       0       5       0       5      1      1      0   4776     443       2   1    03a0f a70f      9.030 "
test,1583576528284599040,16," | 16  |   5221       5   5217       0 |   5    0      5032       185 |   1  41    0    0 ab0f |    2.014       0       5       0       5     41     41      0   4891     326       1  41    0ab0f a70f      8.250 "
test,1583576528289378816,17," | 17  |   5221       5   5210       7 |   5    0      5153        64 |   1  41    0    0 ab0f |    3.479       0       5       0       5     41     41      0   5000     217       3  41    0ab0f a70f      9.690 "
test,1583576528307346944,18," | 18  |   5221       5   5216       0 |   5    0      4920       296 |   5  41    0    0 ab0f |    4.943       0       3       0       3     41     41      0   4715     501       5  41    0ab0f a70f     30.360 "
test,1583576528307681024,19," | 19  |   5221       5   5206      11 |   5    0      5130        87 |   4  41    0    0 ab0f |    5.676       0       4       0       4     41     41      0   4983     234       6  41    0ab0f a70f     30.360 "
test,1583576528284356096,1," |  1  |   5221       4   5218       0 |   4    0      5086       132 |   2   1    0    1 3a0f |    1.739       0       4       0       4      1      1      0   5048     170       2   1    13a0f a70f      6.480 "
test,1583576528308134144,22," | 22  |   5221       5   5215       0 |   3    9      5170        45 |   5  22   41    1 b20f |   10.284       0       3       0       3     22     22      0   4936     279      14  22    1b20f a70f     30.270 "
test,1583576528287073024,23," | 23  |   5221       5   5159       0 |   5    0      5137        22 |   4  41    0    0 ab0f |    2.746       0       5       0       5     41     41      0   5031     128       2  41    0ab0f a70f      8.940 "
test,1583576528286840832,24," | 24  |   5221       5   5215       2 |   5    0      5164        53 |   4  41    0    0 ab0f |    3.479       0       5       0       5     41     41      0   5028     189       3  41    0ab0f a70f      9.630 "
test,1583576528288561152,26," | 26  |   5221       5   5215       2 |   5    0      5196        21 |   3  41    0    0 ab0f |    2.716       0       5       0       5     41     41      0   5103     114       2  41    0ab0f a70f      9.480 "
test,1583576528310204928,27," | 27  |   5221       5   5219       0 |   3    2      5073       146 |  20  27   41    1 460f |    1.739       0       1       0       1     27     27      0   4860     359       2  27    1460f a70f     30.300 "
test,1583576528293646080,28," | 28  |   5221       4   5211       6 |   5    2      4793       424 |   2  22   41    0 b20f |    2.807       0       5       0       5     22     22      0   4593     624       2  22    0b20f a70f     13.680 "
test,1583576528307058176,29," | 29  |   5221       5   5212       7 |   4    1      4608       611 |   1  27   41    0 460f |    2.014       0       1       0       1     27     27      0   4388     831       1  27    0460f a70f     30.360 "
test,1583576528289915136,30," | 30  |   5221       5   5215       2 |   5    0      5147        70 |   1  22    0    0 b20f |    2.075       0       5       0       5     22     22      0   4957     260       1  22    0b20f a70f     12.330 "
test,1583576528292262912,35," | 35  |   5221       5   5215       2 |   5    0      4969       248 |   1  22    0    0 b20f |    2.746       0       5       0       5     22     22      0   4855     362       2  22    0b20f a70f     12.300 "
test,1583576528301690112,40," | 40  |   5221       5   5139      74 |   5    0      4894       319 |   2  42    0    0 310f |    2.746       0       5       0       5     42     42      0   4772     441       2  42    0310f a70f     19.920 "
test,1583576528290187008,41," | 41  |   5221       5   5148      59 |   4    3      5168        39 |  17  41   42    1 ab0f |    3.814       0       4       0       4     41     41      0   5045     162       5  41    1ab0f a70f      8.520 "
test,1583576528309261056,42," | 42  |   5221       5   5155      62 |   4    0      5110       107 |   2  42    0    1 310f |   19.500       0       2       0       2     42     42      0   5001     216       5  42    1310f a70f     30.270 "
test,1583576528301464064,44," | 44  |   5221       5   5160      57 |   5    0      5114       103 |   1  42    0    0 310f |    2.014       0       5       0       5     42     42      0   5016     201       1  42    0310f a70f     21.300 "
test,1583576528287846144,45," | 45  |   5221       5   5174      43 |   5    5      5056       161 |   1  41   42    0 ab0f |    2.014       0       5       0       5     41     41      0   4961     256       1  41    0ab0f a70f      8.730 "
test,1583576528285364992,46," | 46  |   5221       5   5153      57 |   5    2      4980       230 |   1  41   42    0 ab0f |    2.014       0       5       0       5     41     41      0   4894     316       1  41    0ab0f a70f      8.700 "
test,1583576528284794112,47," | 47  |   5221       5   5160      57 |   5    0      5041       176 |   1  42    0    0 310f |    2.044       0       5       0       5     42     42      0   4957     260       1  42    0310f a70f      8.250 "
test,1583576528301254912,48," | 48  |   5221       5   5095      55 |   5    0      5035       115 |   1  42    0    0 310f |    2.075       0       5       0       5     42     42      0   4947     203       1  42    0310f a70f     19.860 "
test,1583576528295378944,49," | 49  |   5221       5   5211       0 |   5    0      5110       101 |   3  22    0    0 b20f |   12.054       0       5       0       5     22     22      0   5073     138      15  22    0b20f a70f     18.000 "
test,1583576528283927808,51," | 51  |   5221       5   5212       0 |   5    0      5163        49 |   2  51    0    1 e20f |    1.770       0       4       0       4     51     51      0   5144      68       2  51    1e20f a70f      6.510 "
test,1583576528308742144,52," | 52  |   5221       5   5187      26 |   5    0      4968       245 |   2  41    0    0 ab0f |    3.448       0       4       0       4     41     41      0   4867     346       3  41    0ab0f a70f     30.390 "
test,1583576528298787072,53," | 53  |   5221       5   5195       0 |   5    0      4911       284 |   4  22    0    0 b20f |   12.756       0       5       0       5     22     22      0   4856     339      16  22    0b20f a70f     18.810 "
test,1583576528284149760,54," | 54  |   5221       5   5213       0 |   5    0      5124        89 |   3   1    0    0 3a0f |    1.281       0       5       0       5      1      1      0   5040     173       1   1    03a0f a70f      7.500 "
test,1583576528295012864,55," | 55  |   5221       5   5200       0 |   5    0      5004       196 |   3  22    0    0 b20f |   12.054       0       5       0       5     22     22      0   4962     238      15  22    0b20f a70f     18.090 "
test,1583576528293891072,56," | 56  |   5221       5   5203       0 |   5    0      5124        79 |   1  51    0    0 e20f |    2.014       0       5       0       5     51     51      0   5060     143       1  51    0e20f a70f      8.070 "
test,1583576528309463040,57," | 57  |   5221       5   5158       0 |   4    3      5024       134 |   1  22   41    0 b20f |   10.620       0       3       0       3     22     22      0   4712     446      13  22    0b20f a70f     30.360 "
test,1583576528308377856,58," | 58  |   5221       5   5212       0 |   4    1      5139        73 |   2  22    1    0 b20f |   11.352       0       3       0       3     22     22      0   4917     295      14  22    0b20f a70f     30.360 "
test,1583576528286291968,5," |  5  |   5221       5   5219       0 |   5    0      4753       466 |   2   1    0    0 3a0f |    2.105       0       5       0       5      1      1      0   4663     556       2   1    03a0f a70f      8.160 "
test,1583576528287411968,60," | 60  |   5221       5   5212       0 |   5    0      4881       331 |   1  51    0    0 e20f |    2.014       0       5       0       5     51     51      0   4780     432       1  51    0e20f a70f      8.100 "
test,1583576528309058816,61," | 61  |   5221       5   5211       0 |   4    4      4973       238 |   2  22    1    0 b20f |   11.352       0       3       0       3     22     22      0   4796     415      14  22    0b20f a70f     30.330 "
test,1583576528283523072,7," |  7  |   5221       5   5218       0 |   5    0      5138        80 |   3   1    0    0 3a0f |    1.312       0       5       0       5      1      1      0   5105     113       1   1    03a0f a70f      7.590 "
test,1583576528285705216,9," |  9  |   5221       5   5217       0 |   5    0      5036       181 |   1   1    0    0 3a0f |    1.373       0       5       0       5      1      1      0   5013     204       1   1    03a0f a70f      7.500 "
