test,1583576632039856896,10," | 10  |   5636       5   5608       0 |   5    0      5518        90 |   1  13    0    0 2d0f |    2.014       0       5       0       5     13     13      0   5448     160       1  13    02d0f a70f      8.100 "
test,1583576632041157888,12," | 12  |   5636       5   5601      33 |   5    0      5572        62 |   2  13    0    0 2d0f |    2.777       0       5       0       5     13     13      0   5473     161       2  13    02d0f a70f      8.910 "
test,1583576632036257024,13," | 13  |   5636       5   5632       0 |   4    0      5585        47 |   4  13    0    1 2d0f |    1.770       0       4       0       4     13     13      0   5518     114       2  13    12d0f a70f      6.510 "
test,1583576632060687104,15," | 15  |   5636       5   5592      42 |   5    6      5413       221 |   1  20   60    0 940f |   12.725       0       3       0       3     20     20      0   5157     477      16  20    0940f a70f     30.300 "
test,1583576632039685120,16," | 16  |   5636       5   5632       0 |   5    0      5431       201 |   1  52    0    0 eb0f |    2.075       0       5       0       5     52     52      0   5277     355       1  52    0eb0f a70f      9.030 "
test,1583576632041896192,17," | 17  |   5636       5   5625       7 |   5    0      5564        68 |   2  52    0    0 eb0f |    3.509       0       5       0       5     52     52      0   5398     234       3  52    0eb0f a70f      9.600 "
test,1583576632043755008,18," | 18  |   5636       5   5631       0 |   5    0      5319       312 |   2  52    0    0 eb0f |    2.777       0       5       0       5     52     52      0   5095     536       2  52    0eb0f a70f      9.600 "
test,1583576632045017856,19," | 19  |   5636       5   5621      11 |   5    0      5530       102 |   1  52    0    0 eb0f |    3.509       0       5       0       5     52     52      0   5375     257       3  52    0eb0f a70f     10.410 "
test,1583576632037733120,1," |  1  |   5636       4   5633       0 |   5    0      5488       145 |   1  13    0    0 2d0f |    2.685       0       5       0       5     13     13      0   5450     183       1  13    02d0f a70f      8.910 "
test,1583576632043389184,22," | 22  |   5636       5   5630       0 |   5    0      5583        47 |   2  52    0    0 eb0f |    2.777       0       5       0       5     52     52      0   5330     300       2  52    0eb0f a70f      9.630 "
test,1583576632040948992,23," | 23  |   5636       5   5574       0 |   5    0      5549        25 |   1  52    0    0 eb0f |    2.075       0       5       0       5     52     52      0   5437     137       1  52    0eb0f a70f      9.720 "
test,1583576632039258112,24," | 24  |   5636       5   5630       2 |   5    0      5573        59 |   2  52    0    0 eb0f |    2.807       0       5       0       5     52     52      0   5427     205       2  52    0eb0f a70f      9.030 "
test,1583576632038497024,26," | 26  |   5636       5   5630       2 |   5    0      5608        24 |   1  52    0    0 eb0f |    2.044       0       5       0       5     52     52      0   5504     128       1  52    0eb0f a70f      8.250 "
test,1583576632039473920,27," | 27  |   5636       5   5634       0 |   5    0      5474       160 |   2  52    0    0 eb0f |    2.838       0       5       0       5     52     52      0   5249     385       2  52    0eb0f a70f      8.880 "
test,1583576632060334080,28," | 28  |   5636       5   5625       7 |   2    7      5173       459 |   5  52   20    0 eb0f |    7.202       0       1       0       1     52     52      0   4959     673       8  52    0eb0f a70f     30.360 "
test,1583576632043201024,29," | 29  |   5636       5   5627       7 |   5    0      4978       656 |   2  52    0    0 eb0f |    3.509       0       5       0       5     52     52      0   4740     894       3  52    0eb0f a70f     11.160 "
test,1583576632047247872,30," | 30  |   5636       5   5629       3 |   5    2      5557        75 |   1  20   52    0 940f |    2.044       0       5       0       5     20     20      0   5354     278       1  20    0940f a70f     14.460 "
test,1583576632046216960,35," | 35  |   5636       5   5629       3 |   5    4      5370       262 |   2  20   52    0 940f |    2.716       0       5       0       5     20     20      0   5248     384       2  20    0940f a70f     15.030 "
test,1583576632042097920,40," | 40  |   5636       5   5554      74 |   5    0      5282       346 |   3  52    0    0 eb0f |    3.540       0       5       0       5     52     52      0   5152     476       3  52    0eb0f a70f     11.880 "
test,1583576632043572992,41," | 41  |   5636       5   5563      59 |   5    0      5576        46 |   2  52    0    0 eb0f |    2.777       0       5       0       5     52     52      0   5443     179       2  52    0eb0f a70f     11.040 "
test,1583576632059501056,42," | 42  |   5636       5   5570      62 |   5    0      5521       111 |   5  52    0    0 eb0f |    3.540       0       4       0       4     52     52      0   5406     226       3  52    0eb0f a70f     30.390 "
test,1583576632040410112,44," | 44  |   5636       5   5575      57 |   5    0      5522       110 |   2  52    0    0 eb0f |    2.746       0       5       0       5     52     52      0   5415     217       2  52    0eb0f a70f      8.970 "
test,1583576632044656128,45," | 45  |   5636       5   5589      43 |   5    0      5455       177 |   2  52    0    0 eb0f |    2.777       0       5       0       5     52     52      0   5353     279       2  52    0eb0f a70f      9.690 "
test,1583576632045701120,46," | 46  |   5636       5   5568      57 |   5    0      5372       253 |   3  52    0    0 eb0f |    3.509       0       5       0       5     52     52      0   5280     345       3  52    0eb0f a70f     11.850 "
test,1583576632058372864,47," | 47  |   5636       5   5575      57 |   0    9      5445       187 |   0  47   52    1 a60f |    0           0       0       0       8      0      0      0   5355     277       0  47    1a60f a70f     30.180 "
test,1583576632042411008,48," | 48  |   5636       5   5510      55 |   5    0      5448       117 |   3  52    0    0 eb0f |    3.540       0       5       0       5     52     52      0   5354     211       3  52    0eb0f a70f     11.910 "
test,1583576632038310912,49," | 49  |   5636       5   5626       0 |   5    0      5519       107 |   1  53    0    0 680f |    2.014       0       5       0       5     53     53      0   5481     145       1  53    0680f a70f      8.070 "
test,1583576632038876160,51," | 51  |   5636       5   5627       0 |   5    0      5571        56 |   2  13    0    0 2d0f |    2.716       0       5       0       5     13     13      0   5553      74       2  13    02d0f a70f      8.970 "
test,1583576632041394944,52," | 52  |   5636       5   5601      27 |   4    0      5358       270 |   2  52    0    1 eb0f |    1.770       0       4       0       4     52     52      0   5254     374       2  52    1eb0f a70f      6.510 "
test,1583576632036925184,53," | 53  |   5636       5   5610       0 |   5    0      5313       297 |   2  53    0    1 680f |    1.739       0       4       0       4     53     53      0   5255     355       2  53    1680f a70f      6.480 "
test,1583576632038155008,54," | 54  |   5636       5   5628       0 |   5    0      5531        97 |   1  13    0    0 2d0f |    2.777       0       5       0       5     13     13      0   5442     186       2  13    02d0f a70f      8.880 "
test,1583576632044259072,55," | 55  |   5636       5   5615       0 |   5    0      5403       212 |   1  53    0    0 680f |    2.014       0       5       0       5     53     53      0   5359     256       1  53    0680f a70f      8.160 "
test,1583576632037966848,56," | 56  |   5636       5   5618       0 |   5    0      5535        83 |   3  13    0    0 2d0f |    2.746       0       5       0       5     13     13      0   5469     149       2  13    02d0f a70f      8.880 "
test,1583576632051151104,57," | 57  |   5636       5   5573       0 |   5    0      5432       141 |   2  52    0    0 eb0f |    2.838       0       5       0       5     52     52      0   5099     474       2  52    0eb0f a70f      8.880 "
test,1583576632041558016,58," | 58  |   5636       5   5627       0 |   3    1      5549        78 |   2  58   13    1 d80f |    3.814       0       4       0       4     58     58      0   5316     311       5  58    1d80f a70f      8.520 "
test,1583576632038652928,5," |  5  |   5636       5   5634       0 |   5    0      5131       503 |   1  13    0    0 2d0f |    1.983       0       5       0       5     13     13      0   5033     601       1  13    02d0f a70f      8.190 "
test,1583576632057058048,60," | 60  |   5636       5   5627       0 |   0    2      5269       358 |   0  60   20    1 3e0f |    0           0       0       0       8      0      0      0   5158     469       0  60    13e0f a70f     30.180 "
test,1583576632040644864,61," | 61  |   5636       5   5626       0 |   3    1      5369       257 |   1  58   13    0 d80f |    2.044       0       5       0       5     58     58      0   5178     448       1  58    0d80f a70f      8.790 "
test,1583576632036602880,7," |  7  |   5636       5   5633       0 |   5    0      5547        86 |   1  13    0    0 2d0f |    2.014       0       5       0       5     13     13      0   5511     122       1  13    02d0f a70f      8.250 "
test,1583576632037338880,9," |  9  |   5636       5   5632       0 |   5    0      5439       193 |   1  13    0    0 2d0f |    2.014       0       5       0       5     13     13      0   5415     217       1  13    02d0f a70f      8.280 "
