test,1583576504040205056,10," | 10  |   5124       5   5096       0 |   5    0      5013        83 |   1   1    0    0 220f |    1.373       0       5       0       5      1      1      0   4950     146       1   1    0220f a70f      7.470 "
test,1583576504033655808,12," | 12  |   5124       5   5104      18 |   5    0      5070        52 |   1   1    0    0 220f |    1.342       0       5       0       5      1      1      0   4980     142       1   1    0220f a70f      7.590 "
test,1583576504033216000,13," | 13  |   5124       5   5120       0 |   5    0      5078        42 |   1   1    0    0 220f |    1.342       0       5       0       5      1      1      0   5014     106       1   1    0220f a70f      7.470 "
test,1583576504039115008,15," | 15  |   5124       4   5096      26 |   5    0      4921       201 |   2   1    0    0 220f |    2.075       0       5       0       5      1      1      0   4690     432       2   1    0220f a70f      8.340 "
test,1583576504056508928,16," | 16  |   5124       5   5120       0 |   1    4      4937       183 |   2  44   18    0 690f |    2.716       0       3       0       3     44     44      0   4799     321       2  44    0690f a70f     30.390 "
test,1583576504054061056,17," | 17  |   5124       5   5113       7 |   1    4      5058        62 |   2  44   18    0 690f |    0           0       0       0       8      0      0      0   4907     213       0  44    0690f a70f     30.390 "
test,1583576504034700032,18," | 18  |   5124       5   5119       0 |   4    0      4825       294 |   3  18    0    1 db0f |    1.770       0       4       0       4     18     18      0   4621     498       2  18    1db0f a70f      6.510 "
test,1583576504054227968,19," | 19  |   5124       5   5109      11 |   1    5      5034        86 |   3  44   18    0 690f |    0           0       0       0       8      0      0      0   4887     233       0  44    0690f a70f     30.360 "
test,1583576504034884096,1," |  1  |   5124       4   5121       0 |   4    0      4990       131 |   2   1    0    1 220f |    1.739       0       4       0       4      1      1      0   4953     168       2   1    1220f a70f      6.480 "
test,1583576504037657856,22," | 22  |   5124       5   5118       0 |   5    0      5073        45 |   1  18    0    0 db0f |    2.014       0       5       0       5     18     18      0   4839     279       1  18    0db0f a70f      8.910 "
test,1583576504036851968,23," | 23  |   5124       5   5062       0 |   4    0      5040        22 |   5  18    0    0 db0f |    2.777       0       5       0       5     18     18      0   4935     127       2  18    0db0f a70f      9.000 "
test,1583576504038706176,24," | 24  |   5124       5   5118       2 |   5    0      5067        53 |   2  18    0    0 db0f |    2.044       0       5       0       5     18     18      0   4931     189       1  18    0db0f a70f      8.280 "
test,1583576504036472064,26," | 26  |   5124       5   5118       2 |   5    0      5100        20 |   3  18    0    0 db0f |    2.746       0       5       0       5     18     18      0   5007     113       2  18    0db0f a70f      8.970 "
test,1583576504054532096,27," | 27  |   5124       5   5122       0 |   1    4      4978       144 |   4  44   18    0 690f |    0           0       0       0       8      0      0      0   4767     355       0  44    0690f a70f     30.360 "
test,1583576504055883776,28," | 28  |   5124       5   5114       6 |   4    0      4705       415 |   1  20    0    0 910f |    4.791       0       4       0       4     20     20      0   4506     614       5  20    0910f a70f     30.300 "
test,1583576504054987008,29," | 29  |   5124       5   5115       7 |   1    0      4527       595 |   4  44    0    0 690f |    0           0       0       0       8      0      0      0   4312     810       0  44    0690f a70f     30.360 "
test,1583576504047537152,30," | 30  |   5124       5   5118       2 |   5    0      5050        70 |   1  20    0    0 910f |    4.089       0       5       0       5     20     20      0   4864     256       4  20    0910f a70f     10.260 "
test,1583576504042184192,35," | 35  |   5124       5   5118       2 |   5    0      4876       244 |   2  20    0    0 910f |    4.791       0       5       0       5     20     20      0   4765     355       5  20    0910f a70f     10.890 "
test,1583576504038095104,40," | 40  |   5124       5   5042      74 |   5    0      4799       317 |   1  44    0    0 690f |    3.448       0       5       0       5     44     44      0   4678     438       3  44    0690f a70f      9.510 "
test,1583576504040782848,41," | 41  |   5124       5   5051      59 |   5    0      5071        39 |   1  44    0    0 690f |    2.746       0       5       0       5     44     44      0   4948     162       2  44    0690f a70f      8.880 "
test,1583576504040540928,42," | 42  |   5124       5   5058      62 |   5    0      5013       107 |   1  44    0    0 690f |    3.448       0       5       0       5     44     44      0   4906     214       3  44    0690f a70f     10.380 "
test,1583576504035831808,44," | 44  |   5124       5   5063      57 |   2    1      5018       102 |   2  44   18    1 690f |    1.739       0       4       0       4     44     44      0   4922     198       2  44    1690f a70f      6.480 "
test,1583576504050534912,45," | 45  |   5124       5   5077      43 |   5    0      4962       158 |   1  44    0    0 690f |    1.983       0       5       0       5     44     44      0   4869     251       1  44    0690f a70f      8.190 "
test,1583576504039686912,46," | 46  |   5124       5   5056      57 |   5    0      4891       222 |   1  44    0    0 690f |    3.479       0       5       0       5     44     44      0   4806     307       3  44    0690f a70f      9.660 "
test,1583576504039320064,47," | 47  |   5124       5   5063      57 |   5    0      4946       174 |   1  44    0    0 690f |    2.746       0       5       0       5     44     44      0   4864     256       2  44    0690f a70f      8.970 "
test,1583576504040998912,48," | 48  |   5124       5   4998      55 |   5    0      4940       113 |   1  44    0    0 690f |    2.746       0       5       0       5     44     44      0   4853     200       2  44    0690f a70f      8.970 "
test,1583576504037873920,49," | 49  |   5124       5   5114       0 |   5    0      5015        99 |   3   1    0    0 220f |    2.746       0       5       0       5      1      1      0   4978     136       3   1    0220f a70f      8.940 "
test,1583576504033932800,51," | 51  |   5124       5   5115       0 |   5    0      5067        48 |   1   1    0    0 220f |    2.075       0       5       0       5      1      1      0   5048      67       2   1    0220f a70f      8.310 "
test,1583576504041464064,52," | 52  |   5124       5   5090      26 |   4    0      4879       237 |   4  18    0    0 db0f |    2.777       0       5       0       5     18     18      0   4780     336       2  18    0db0f a70f      9.720 "
test,1583576504037470976,53," | 53  |   5124       5   5098       0 |   5    0      4821       277 |   4   1    0    0 220f |    3.509       0       5       0       5      1      1      0   4767     331       4   1    0220f a70f      9.720 "
test,1583576504034221056,54," | 54  |   5124       5   5116       0 |   5    0      5027        89 |   1   1    0    0 220f |    1.373       0       5       0       5      1      1      0   4946     170       1   1    0220f a70f      7.470 "
test,1583576504038912000,55," | 55  |   5124       5   5103       0 |   5    0      4911       192 |   3   1    0    0 220f |    2.777       0       5       0       5      1      1      0   4869     234       3   1    0220f a70f      8.970 "
test,1583576504035506944,56," | 56  |   5124       5   5106       0 |   5    0      5028        78 |   2   1    0    0 220f |    2.105       0       5       0       5      1      1      0   4965     141       2   1    0220f a70f      8.310 "
test,1583576504058147840,57," | 57  |   5124       5   5061       0 |   1    1      4929       132 |   2   1   18    0 220f |    5.706       0       3       0       3      1      1      0   4623     438       7   1    0220f a70f     30.360 "
test,1583576504037231872,58," | 58  |   5124       5   5115       0 |   4    0      5042        73 |   2   1    0    0 220f |    2.105       0       5       0       5      1      1      0   4825     290       2   1    0220f a70f      8.910 "
test,1583576504055186944,5," |  5  |   5124       5   5122       0 |   0    7      4664       458 |   0   5    1    1 b40f |    0           0       0       0       8      0      0      0   4577     545       0   5    1b40f a70f     30.120 "
test,1583576504036654080,60," | 60  |   5124       5   5115       0 |   5    0      4793       322 |   2   1    0    0 220f |    2.807       0       5       0       5      1      1      0   4694     421       3   1    0220f a70f      8.940 "
test,1583576504038299136,61," | 61  |   5124       5   5114       0 |   5    0      4880       234 |   2   1    0    0 220f |    2.075       0       5       0       5      1      1      0   4706     408       2   1    0220f a70f      9.030 "
test,1583576504033505024,7," |  7  |   5124       5   5121       0 |   5    0      5045        76 |   1   1    0    0 220f |    1.342       0       5       0       5      1      1      0   5014     107       1   1    0220f a70f      7.440 "
test,1583576504035312896,9," |  9  |   5124       5   5120       0 |   5    0      4943       177 |   1   1    0    0 220f |    1.312       0       5       0       5      1      1      0   4920     200       1   1    0220f a70f      7.590 "
