test,1583576834313797888,10," | 10  |   6445       5   6417       0 |   5    0      6315       102 |   2  60    0    0 770f |    9.277       0       1       0       1     60     60      0   6236     181      11  60    0770f a70f     30.390 "
test,1583576834294222080,12," | 12  |   6445       5   6409      34 |   5    0      6372        71 |   1   7    0    0 600f |    2.014       0       5       0       5      7      7      0   6262     181       1   7    0600f a70f      8.280 "
test,1583576834290173952,13," | 13  |   6445       5   6441       0 |   5    0      6390        51 |   1   7    0    0 600f |    2.044       0       5       0       5      7      7      0   6316     125       1   7    0600f a70f      8.160 "
test,1583576834295890944,15," | 15  |   6445       5   6400      43 |   5    0      6186       257 |   2   7    0    0 600f |    2.777       0       5       0       5      7      7      0   5897     546       2   7    0600f a70f      8.970 "
test,1583576834291399936,16," | 16  |   6445       5   6441       0 |   4    0      6205       236 |   6  16    0    1  50f |    1.739       0       4       0       4     16     16      0   6037     404       2  16    1 50f a70f      6.510 "
test,1583576834292136960,17," | 17  |   6445       5   6433       8 |   5    0      6353        88 |   2  16    0    0  50f |    2.777       0       5       0       5     16     16      0   6162     279       2  16    0 50f a70f      8.970 "
test,1583576834290386944,18," | 18  |   6445       5   6440       0 |   3    0      6101       339 |  14  18    0    1 2d0f |    1.770       0       4       0       4     18     18      0   5843     597       2  18    12d0f a70f      6.510 "
test,1583576834312700160,19," | 19  |   6445       5   6429      12 |   5    0      6318       123 |   3  16    0    0  50f |    3.509       0       4       0       4     16     16      0   6141     300       3  16    0 50f a70f     30.390 "
test,1583576834300923136,1," |  1  |   6445       4   6442       0 |   5    0      6278       164 |   1   7    0    0 600f |    2.716       0       5       0       5      7      7      0   6233     209       1   7    0600f a70f      8.820 "
test,1583576834294760960,22," | 22  |   6445       5   6439       0 |   4    9      6384        55 |   1  18   30    0 2d0f |    2.014       0       5       0       5     18     18      0   6092     347       1  18    02d0f a70f      8.220 "
test,1583576834289737984,23," | 23  |   6445       5   6383       0 |   5    0      6357        26 |   1  16    0    0  50f |    2.075       0       5       0       5     16     16      0   6231     152       1  16    0 50f a70f      8.280 "
test,1583576834293241088,24," | 24  |   6445       5   6439       2 |   5   10      6373        68 |   1  18   16    0 2d0f |    2.014       0       5       0       5     18     18      0   6207     234       1  18    02d0f a70f      8.250 "
test,1583576834292692992,26," | 26  |   6445       5   6439       2 |   5    0      6413        28 |   3  16    0    0  50f |    2.075       0       5       0       5     16     16      0   6294     147       1  16    0 50f a70f      8.310 "
test,1583576834298835968,27," | 27  |   6445       5   6443       0 |   4    5      6259       184 |   3  16   29    0  50f |    2.777       0       5       0       5     16     16      0   6007     436       2  16    0 50f a70f      8.820 "
test,1583576834310833920,28," | 28  |   6445       5   6433       8 |   4   11      5922       519 |   3  16   18    0  50f |    0           0       0       0       8      0      0      0   5677     764       0  16    0 50f a70f     30.360 "
test,1583576834312244992,29," | 29  |   6445       4   6434       9 |   0    0      5696       747 |   0  29    0    1 830f |    0           0       0       0       8      0      0      0   5432    1011       0  29    1830f a70f     30.180 "
test,1583576834289971200,30," | 30  |   6445       5   6438       3 |   4    1      6355        86 |   5  30   16    1 280f |    1.739       0       4       0       4     30     30      0   6122     319       2  30    1280f a70f      6.510 "
test,1583576834291040000,35," | 35  |   6445       5   6438       3 |   5    0      6144       297 |   4  30    0    0 280f |    2.044       0       5       0       5     30     30      0   6004     437       1  30    0280f a70f      8.160 "
test,1583576834309632000,40," | 40  |   6445       5   6363      74 |   5    5      6061       376 |   2  16   18    0  50f |    0           0       0       0       8      0      0      0   5907     530       0  16    0 50f a70f     30.360 "
test,1583576834311219968,41," | 41  |   6445       5   6372      59 |   5    5      6378        53 |   1  16   18    0  50f |    0           0       0       0       8      0      0      0   6218     213       0  16    0 50f a70f     30.390 "
test,1583576834293800960,42," | 42  |   6445       5   6379      62 |   5    8      6320       121 |   3  18   16    0 2d0f |    2.716       0       5       0       5     18     18      0   6180     261       2  18    02d0f a70f      8.910 "
test,1583576834294029824,44," | 44  |   6445       5   6384      57 |   5    9      6321       120 |   3  18   16    0 2d0f |    2.777       0       5       0       5     18     18      0   6196     245       2  18    02d0f a70f      8.850 "
test,1583576834310006016,45," | 45  |   6445       5   6398      43 |   5    6      6247       194 |   1  16   18    0  50f |    0           0       0       0       8      0      0      0   6127     314       0  16    0 50f a70f     30.360 "
test,1583576834297630976,46," | 46  |   6445       5   6377      57 |   5    4      6144       290 |   3  18   16    0 2d0f |    3.509       0       5       0       5     18     18      0   6037     397       3  18    02d0f a70f      9.570 "
test,1583576834297963008,47," | 47  |   6445       5   6384      57 |   5    0      6235       206 |   1  18    0    0 2d0f |    3.448       0       5       0       5     18     18      0   6123     318       3  18    02d0f a70f      9.660 "
test,1583576834295182080,48," | 48  |   6445       5   6319      55 |   5    8      6247       127 |   2  18   16    0 2d0f |    2.716       0       5       0       5     18     18      0   6128     246       2  18    02d0f a70f      9.630 "
test,1583576834293608960,49," | 49  |   6445       5   6435       0 |   5    0      6308       127 |   1  55    0    0 1e0f |    2.014       0       5       0       5     55     55      0   6264     171       1  55    01e0f a70f      8.220 "
test,1583576834290770944,51," | 51  |   6445       5   6436       0 |   5    0      6367        69 |   1  60    0    0 770f |    2.014       0       5       0       5     60     60      0   6344      92       1  60    0770f a70f      8.160 "
test,1583576834294948096,52," | 52  |   6445       5   6409      28 |   5    0      6112       325 |   1  16    0    0  50f |    2.044       0       5       0       5     16     16      0   5999     438       1  16    0 50f a70f      8.100 "
test,1583576834295731968,53," | 53  |   6445       5   6419       0 |   5    0      6080       339 |   1  55    0    0 1e0f |    2.014       0       5       0       5     55     55      0   6014     405       1  55    01e0f a70f      8.160 "
test,1583576834292884224,54," | 54  |   6445       5   6437       0 |   5    0      6330       107 |   1   7    0    0 600f |    2.014       0       5       0       5      7      7      0   6225     212       1   7    0600f a70f      8.250 "
test,1583576834292470016,55," | 55  |   6445       5   6424       0 |   4    0      6181       243 |   4  55    0    1 1e0f |    1.739       0       4       0       4     55     55      0   6129     295       2  55    11e0f a70f      6.510 "
test,1583576834296194048,56," | 56  |   6445       5   6427       0 |   5    0      6329        98 |   1  60    0    0 770f |    2.014       0       5       0       5     60     60      0   6252     175       1  60    0770f a70f      8.970 "
test,1583576834314131968,57," | 57  |   6445       5   6382       0 |   1    4      6216       166 |   1  60   18    0 770f |    1.983       0       4       0       4     60     60      0   5816     566       1  60    0770f a70f     30.360 "
test,1583576834305586176,58," | 58  |   6445       5   6436       0 |   2    2      6349        87 |   1  55   60    0 1e0f |    2.014       0       5       0       5     55     55      0   6086     350       1  55    01e0f a70f      8.250 "
test,1583576834301623040,5," |  5  |   6445       5   6443       0 |   5    0      5872       571 |   2   7    0    0 600f |    2.746       0       5       0       5      7      7      0   5759     684       2   7    0600f a70f      8.940 "
test,1583576834293405952,60," | 60  |   6445       5   6436       0 |   4    0      6038       398 |   4  60    0    1 770f |    1.739       0       4       0       4     60     60      0   5908     528       2  60    1770f a70f      6.480 "
test,1583576834314300160,61," | 61  |   6445       5   6431       4 |   1    2      6138       297 |   2  55   60    0 1e0f |    2.777       0       3       0       3     55     55      0   5923     512       2  55    01e0f a70f     30.390 "
test,1583576834290577920,7," |  7  |   6445       5   6442       0 |   5    0      6351        91 |   2   7    0    1 600f |    1.739       0       4       0       4      7      7      0   6307     135       2   7    1600f a70f      6.480 "
test,1583576834291579136,9," |  9  |   6445       5   6441       0 |   5    0      6225       216 |   1   7    0    0 600f |    2.014       0       5       0       5      7      7      0   6194     247       1   7    0600f a70f      8.250 "
