test,1583576735810717184,10," | 10  |   6051       5   6023       0 |   5    0      5926        97 |   4   9    0    0 820f |    2.075       0       1       0       1      9      9      0   5851     172       1   9    0820f a70f     30.360 "
test,1583576735790501120,12," | 12  |   6051       5   6015      34 |   5    5      5983        66 |   1   1    9    0 1b0f |    1.312       0       5       0       5      1      1      0   5880     169       1   1    01b0f a70f     10.290 "
test,1583576735806832128,13," | 13  |   6051       5   6047       0 |   5    0      5997        50 |   7   9    0    0 820f |    2.014       0       1       0       1      9      9      0   5926     121       1   9    0820f a70f     30.390 "
test,1583576735793373184,15," | 15  |   6051       5   6006      43 |   5    1      5810       239 |   2   1   18    0 1b0f |    2.044       0       5       0       5      1      1      0   5539     510       2   1    01b0f a70f     10.890 "
test,1583576735791868928,16," | 16  |   6051       5   6047       0 |   5    0      5827       220 |   1  41    0    0 6e0f |    2.044       0       5       0       5     41     41      0   5662     385       1  41    06e0f a70f      9.660 "
test,1583576735796406016,17," | 17  |   6051       5   6039       8 |   5    0      5969        78 |   1  41    0    0 6e0f |    3.479       0       5       0       5     41     41      0   5788     259       3  41    06e0f a70f      9.690 "
test,1583576735800344832,18," | 18  |   6051       5   6046       0 |   4    4      5721       325 |   5  18   41    1 740f |    3.814       0       4       0       4     18     18      0   5486     560       5  18    1740f a70f      8.460 "
test,1583576735795898880,19," | 19  |   6051       5   6035      12 |   5    0      5935       112 |   2  41    0    0 6e0f |    4.211       0       5       0       5     41     41      0   5769     278       4  41    06e0f a70f     10.410 "
test,1583576735795640832,1," |  1  |   6051       4   6048       0 |   1   13      5888       160 |  14   1    9    1 1b0f |    5.981       0       4       0       4      1      1      0   5848     200       8   1    11b0f a70f     10.530 "
test,1583576735794405888,22," | 22  |   6051       5   6045       0 |   5    4      5994        51 |   1  18   41    0 740f |    4.089       0       5       0       5     18     18      0   5722     323       4  18    0740f a70f     10.260 "
test,1583576735790966016,23," | 23  |   6051       5   5989       0 |   5    0      5964        25 |   2  41    0    0 6e0f |    2.746       0       5       0       5     41     41      0   5846     143       2  41    06e0f a70f      8.880 "
test,1583576735798141952,24," | 24  |   6051       5   6045       2 |   5    6      5984        63 |   1  18   41    0 740f |    4.058       0       5       0       5     18     18      0   5827     220       4  18    0740f a70f     10.290 "
test,1583576735791349760,26," | 26  |   6051       5   6045       2 |   5    0      6021        26 |   3  41    0    0 6e0f |    2.777       0       5       0       5     41     41      0   5912     135       2  41    06e0f a70f      8.880 "
test,1583576735793755136,27," | 27  |   6051       5   6049       0 |   5    0      5876       173 |   2  41    0    0 6e0f |    3.448       0       5       0       5     41     41      0   5639     410       3  41    06e0f a70f      9.660 "
test,1583576735811009792,28," | 28  |   6051       5   6039       8 |   0    4      5556       491 |   0  28   18    1 e30f |    0           0       0       0       8      0      0      0   5327     720       0  28    1e30f a70f     30.150 "
test,1583576735794884864,29," | 29  |   6051       5   6040       9 |   5    0      5348       701 |   3  41    0    0 6e0f |    4.180       0       5       0       5     41     41      0   5098     951       4  41    06e0f a70f     10.380 "
test,1583576735793168128,30," | 30  |   6051       5   6044       3 |   5    0      5963        84 |   3  18    0    0 740f |    4.791       0       5       0       5     18     18      0   5744     303       5  18    0740f a70f     11.670 "
test,1583576735792473088,35," | 35  |   6051       5   6044       3 |   5    0      5761       286 |   2  18    0    0 740f |    4.791       0       5       0       5     18     18      0   5631     416       5  18    0740f a70f     10.950 "
test,1583576735795089920,40," | 40  |   6051       5   5969      74 |   5    0      5685       358 |   1  41    0    0 6e0f |    2.014       0       5       0       5     41     41      0   5540     503       1  41    06e0f a70f     13.710 "
test,1583576735804536064,41," | 41  |   6051       5   5978      59 |   4    0      5987        50 |   5  41    0    1 6e0f |    8.117       0       4       0       4     41     41      0   5844     193      11  41    16e0f a70f     12.720 "
test,1583576735801786880,42," | 42  |   6051       5   5985      62 |   5    0      5931       116 |   1  41    0    0 6e0f |    1.983       0       5       0       5     41     41      0   5803     244       1  41    06e0f a70f     13.020 "
test,1583576735796157952,44," | 44  |   6051       5   5990      57 |   4    2      5930       117 |   1  41   18    0 6e0f |    2.014       0       5       0       5     41     41      0   5817     230       1  41    06e0f a70f     13.050 "
test,1583576735792794880,45," | 45  |   6051       5   6004      43 |   5    0      5861       186 |   1  41    0    0 6e0f |    2.044       0       5       0       5     41     41      0   5753     294       1  41    06e0f a70f     10.080 "
test,1583576735792100864,46," | 46  |   6051       5   5983      57 |   5    0      5765       275 |   1  41    0    0 6e0f |    1.983       0       5       0       5     41     41      0   5666     374       1  41    06e0f a70f     10.140 "
test,1583576735794251008,47," | 47  |   6051       5   5990      57 |   5    0      5853       194 |   1  41    0    0 6e0f |    2.044       0       5       0       5     41     41      0   5754     293       1  41    06e0f a70f     10.230 "
test,1583576735801605888,48," | 48  |   6051       5   5925      55 |   5    0      5857       123 |   1  41    0    0 6e0f |    1.983       0       5       0       5     41     41      0   5753     227       1  41    06e0f a70f     12.990 "
test,1583576735809561856,49," | 49  |   6051       5   6041       0 |   5    0      5927       114 |   3  51    0    0 b90f |    0           0       0       0       8      0      0      0   5887     154       0  51    0b90f a70f     30.360 "
test,1583576735788155136,51," | 51  |   6051       5   6042       0 |   0   14      5976        66 |   0  51    1    1 b90f |    1.739       0       4       0       4     51     51      0   5957      85       2  51    1b90f a70f      6.510 "
test,1583576735813411840,52," | 52  |   6051       5   6015      28 |   5    0      5746       297 |   3  41    0    0 6e0f |    2.746       0       4       0       4     41     41      0   5637     406       2  41    06e0f a70f     30.360 "
test,1583576735809329152,53," | 53  |   6051       5   6025       0 |   5    0      5702       323 |   4  51    0    0 b90f |    0           0       0       0       8      0      0      0   5641     384       0  51    0b90f a70f     30.390 "
test,1583576735812408832,54," | 54  |   6051       5   6043       0 |   5    0      5940       103 |   5   9    0    0 820f |    2.044       0       1       0       1      9      9      0   5846     197       1   9    0820f a70f     30.360 "
test,1583576735809783040,55," | 55  |   6051       5   6030       0 |   5    0      5800       230 |   3  51    0    0 b90f |    0           0       0       0       8      0      0      0   5753     277       0  51    0b90f a70f     30.360 "
test,1583576735788934912,56," | 56  |   6051       5   6033       0 |   2    6      5942        91 |   1  51    9    0 b90f |    2.075       0       5       0       5     51     51      0   5872     161       1  51    0b90f a70f      8.190 "
test,1583576735793585152,57," | 57  |   6051       5   5988       0 |   4    3      5837       151 |   4  41   18    0 6e0f |    3.479       0       5       0       5     41     41      0   5473     515       3  41    06e0f a70f      9.630 "
test,1583576735808114944,58," | 58  |   6051       5   6042       0 |   1    6      5961        81 |   2  51    1    0 b90f |    0           0       0       0       8      0      0      0   5713     329       0  51    0b90f a70f     30.390 "
test,1583576735791574016,5," |  5  |   6051       5   6049       0 |   3    3      5513       536 |   2   1    9    0 1b0f |    2.075       0       5       0       5      1      1      0   5406     643       2   1    01b0f a70f     10.980 "
test,1583576735789597952,60," | 60  |   6051       5   6042       0 |   1    3      5662       380 |   1  51   41    0 b90f |    2.044       0       5       0       5     51     51      0   5541     501       1  51    0b90f a70f      8.250 "
test,1583576735809145088,61," | 61  |   6051       5   6041       0 |   1    1      5768       273 |   2  51    9    0 b90f |    0           0       0       0       8      0      0      0   5567     474       0  51    0b90f a70f     30.390 "
test,1583576735808756992,7," |  7  |   6051       5   6048       0 |   4    6      5958        90 |  10   9    1    0 820f |    2.807       0       1       0       1      9      9      0   5920     128       2   9    0820f a70f     30.390 "
test,1583576735808294912,9," |  9  |   6051       5   6047       0 |   4    0      5841       206 |   5   9    0    1 820f |    1.739       0       1       0       1      9      9      0   5815     232       2   9    1820f a70f     30.270 "
