test,1583576730792237056,10," | 10  |   6031       5   6003       0 |   5    0      5907        96 |   1  56    0    0 8c0f |    1.953       0       5       0       5     56     56      0   5832     171       1  56    08c0f a70f      8.910 "
test,1583576730793286912,12," | 12  |   6031       5   5995      34 |   5    0      5964        65 |   2  56    0    0 8c0f |    2.716       0       5       0       5     56     56      0   5861     168       2  56    08c0f a70f      8.970 "
test,1583576730791346176,13," | 13  |   6031       5   6027       0 |   5    0      5977        50 |   1  56    0    0 8c0f |    2.777       0       5       0       5     56     56      0   5906     121       2  56    08c0f a70f      9.630 "
test,1583576730794588160,15," | 15  |   6031       5   5986      43 |   5    0      5790       239 |   3  56    0    0 8c0f |    3.479       0       5       0       5     56     56      0   5519     510       3  56    08c0f a70f      9.690 "
test,1583576730795788032,16," | 16  |   6031       5   6027       0 |   5    0      5808       219 |   2  17    0    0 980f |    2.746       0       5       0       5     17     17      0   5642     385       2  17    0980f a70f      9.000 "
test,1583576730789791232,17," | 17  |   6031       5   6019       8 |   4    0      5950        77 |   4  17    0    1 980f |    1.739       0       4       0       4     17     17      0   5771     256       2  17    1980f a70f      6.510 "
test,1583576730797790976,18," | 18  |   6031       5   6026       0 |   5    0      5702       324 |   2  17    0    0 980f |    3.509       0       5       0       5     17     17      0   5467     559       3  17    0980f a70f     10.410 "
test,1583576730793541888,19," | 19  |   6031       5   6015      12 |   5    0      5915       112 |   1  17    0    0 980f |    2.777       0       5       0       5     17     17      0   5750     277       2  17    0980f a70f      9.720 "
test,1583576730791873024,1," |  1  |   6031       4   6028       0 |   5    0      5868       160 |   2  56    0    0 8c0f |    3.387       0       5       0       5     56     56      0   5828     200       2  56    08c0f a70f      9.630 "
test,1583576730794182144,22," | 22  |   6031       5   6025       0 |   5    0      5974        51 |   2  17    0    0 980f |    2.777       0       5       0       5     17     17      0   5702     323       2  17    0980f a70f      9.540 "
test,1583576730792643072,23," | 23  |   6031       5   5969       0 |   5    0      5944        25 |   3  17    0    0 980f |    3.479       0       5       0       5     17     17      0   5826     143       3  17    0980f a70f      9.600 "
test,1583576730793092864,24," | 24  |   6031       5   6025       2 |   5    0      5964        63 |   2  17    0    0 980f |    2.746       0       5       0       5     17     17      0   5807     220       2  17    0980f a70f      8.850 "
test,1583576730790710016,26," | 26  |   6031       5   6025       2 |   5    0      6001        26 |   1  17    0    0 980f |    2.044       0       5       0       5     17     17      0   5892     135       1  17    0980f a70f      8.130 "
test,1583576730792886016,27," | 27  |   6031       4   6029       0 |   5    0      5856       173 |   1  17    0    0 980f |    2.044       0       5       0       5     17     17      0   5619     410       1  17    0980f a70f     10.410 "
test,1583576730812137984,28," | 28  |   6031       5   6019       8 |   4    3      5538       489 |   1  17   35    0 980f |    3.509       0       2       0       2     17     17      0   5310     717       3  17    0980f a70f     30.270 "
test,1583576730791707136,29," | 29  |   6031       4   6021       8 |   4    0      5329       700 |   4  17    0    0 980f |    2.777       0       5       0       5     17     17      0   5079     950       2  17    0980f a70f     10.440 "
test,1583576730810764032,30," | 30  |   6031       5   6024       3 |   1    9      5943        84 |   1  20   35    0 660f |    0           0       0       0       8      0      0      0   5724     303       0  20    0660f a70f     30.360 "
test,1583576730810595072,35," | 35  |   6031       5   6024       3 |   0    4      5742       285 |   0  35   17    1 3b0f |    0           0       0       0       8      0      0      0   5612     415       0  35    13b0f a70f     30.210 "
test,1583576730799384064,40," | 40  |   6031       5   5949      74 |   5    0      5665       358 |   2  17    0    0 980f |    3.448       0       5       0       5     17     17      0   5521     502       3  17    0980f a70f     10.350 "
test,1583576730784288000,41," | 41  |   6031       5   5958      59 |   5    0      5967        50 |   1  17    0    0 980f |    2.014       0       5       0       5     17     17      0   5826     191       1  17    0980f a70f      8.220 "
test,1583576730795974912,42," | 42  |   6031       5   5965      62 |   5    0      5911       116 |   2  17    0    0 980f |    2.746       0       5       0       5     17     17      0   5784     243       2  17    0980f a70f      9.690 "
test,1583576730798145024,44," | 44  |   6031       5   5970      57 |   5    0      5910       117 |   2  17    0    0 980f |    2.746       0       5       0       5     17     17      0   5797     230       2  17    0980f a70f      9.690 "
test,1583576730799091968,45," | 45  |   6031       5   5984      43 |   5    0      5841       186 |   2  17    0    0 980f |    2.777       0       5       0       5     17     17      0   5735     292       2  17    0980f a70f      8.880 "
test,1583576730796497152,46," | 46  |   6031       5   5963      57 |   5    0      5749       271 |   2  17    0    0 980f |    2.777       0       5       0       5     17     17      0   5650     370       2  17    0980f a70f      9.750 "
test,1583576730797527040,47," | 47  |   6031       5   5970      57 |   5    0      5835       192 |   2  17    0    0 980f |    2.777       0       5       0       5     17     17      0   5737     290       2  17    0980f a70f      8.850 "
test,1583576730797046016,48," | 48  |   6031       5   5905      55 |   5    0      5837       123 |   2  17    0    0 980f |    2.746       0       5       0       5     17     17      0   5734     226       2  17    0980f a70f      9.690 "
test,1583576730789479936,49," | 49  |   6031       5   6021       0 |   5    1      5908       113 |   1  53   56    0 410f |    2.044       0       5       0       5     53     53      0   5869     152       1  53    0410f a70f      8.130 "
test,1583576730788749056,51," | 51  |   6031       5   6022       0 |   5    0      5957        65 |   1  56    0    0 8c0f |    2.014       0       5       0       5     56     56      0   5937      85       1  56    08c0f a70f      8.190 "
test,1583576730800002048,52," | 52  |   6031       3   5995      28 |   5    0      5726       297 |   2  17    0    0 980f |    2.777       0       5       0       5     17     17      0   5617     406       2  17    0980f a70f      8.970 "
test,1583576730790268928,53," | 53  |   6031       5   6005       0 |   4    0      5684       321 |   8  53    0    1 410f |    1.770       0       4       0       4     53     53      0   5624     381       2  53    1410f a70f      6.510 "
test,1583576730797955072,54," | 54  |   6031       5   6023       0 |   5    0      5921       102 |   2  56    0    0 8c0f |    2.746       0       5       0       5     56     56      0   5828     195       2  56    08c0f a70f      8.850 "
test,1583576730794387968,55," | 55  |   6031       5   6010       0 |   5    1      5781       229 |   1  53   56    0 410f |    2.044       0       5       0       5     53     53      0   5735     275       1  53    0410f a70f      8.130 "
test,1583576730787794176,56," | 56  |   6031       5   6013       0 |   4    0      5923        90 |   2  56    0    1 8c0f |    1.739       0       4       0       4     56     56      0   5853     160       2  56    18c0f a70f      6.480 "
test,1583576730788219904,57," | 57  |   6031       3   5968       0 |   1    3      5818       150 |   1  56   17    0 8c0f |    2.044       0       5       0       5     56     56      0   5456     512       1  56    08c0f a70f      8.100 "
test,1583576730790050048,58," | 58  |   6031       5   6022       0 |   5    0      5941        81 |   1  56    0    0 8c0f |    2.014       0       5       0       5     56     56      0   5694     328       1  56    08c0f a70f      8.100 "
test,1583576730793827072,5," |  5  |   6031       5   6029       0 |   5    0      5493       536 |   2  56    0    0 8c0f |    3.479       0       5       0       5     56     56      0   5386     643       3  56    08c0f a70f      9.510 "
test,1583576730789107200,60," | 60  |   6031       5   6022       0 |   5    0      5642       380 |   1  56    0    0 8c0f |    2.044       0       5       0       5     56     56      0   5522     500       1  56    08c0f a70f      8.250 "
test,1583576730792411136,61," | 61  |   6031       5   6021       0 |   5    0      5748       273 |   1  56    0    0 8c0f |    2.044       0       5       0       5     56     56      0   5548     473       1  56    08c0f a70f      8.850 "
test,1583576730790909952,7," |  7  |   6031       5   6028       0 |   5    0      5938        90 |   2  56    0    0 8c0f |    2.746       0       5       0       5     56     56      0   5900     128       2  56    08c0f a70f      8.910 "
test,1583576730794778112,9," |  9  |   6031       5   6027       0 |   5    0      5821       206 |   2  56    0    0 8c0f |    2.685       0       5       0       5     56     56      0   5795     232       2  56    08c0f a70f      9.630 "
