test,1583576729795721984,10," | 10  |   6027       5   5999       0 |   5    0      5903        96 |   1   9    0    0 1a0f |    2.014       0       5       0       5      9      9      0   5828     171       1   9    01a0f a70f      8.160 "
test,1583576729792577024,12," | 12  |   6027       5   5991      34 |   5    0      5960        65 |   1   9    0    0 1a0f |    2.014       0       5       0       5      9      9      0   5857     168       1   9    01a0f a70f      8.970 "
test,1583576729791768064,13," | 13  |   6027       5   6023       0 |   5    0      5973        50 |   1   9    0    0 1a0f |    2.044       0       5       0       5      9      9      0   5902     121       1   9    01a0f a70f     10.230 "
test,1583576729792366080,15," | 15  |   6027       5   5982      43 |   5    0      5787       238 |   2   9    0    0 1a0f |    2.777       0       5       0       5      9      9      0   5516     509       2   9    01a0f a70f      9.630 "
test,1583576729798327808,16," | 16  |   6027       5   6023       0 |   5    0      5804       219 |   3  56    0    0 360f |    3.540       0       5       0       5     56     56      0   5639     384       3  56    0360f a70f      9.660 "
test,1583576729794547200,17," | 17  |   6027       5   6015       8 |   5    0      5946        77 |   3  56    0    0 360f |    3.479       0       5       0       5     56     56      0   5768     255       3  56    0360f a70f     10.380 "
test,1583576729809463040,18," | 18  |   6027       5   6022       0 |   0    8      5698       324 |   0  18   42    1 e20f |    0           0       0       0       8      0      0      0   5463     559       0  18    1e20f a70f     30.180 "
test,1583576729796418816,19," | 19  |   6027       5   6011      12 |   4    4      5911       112 |   4  56   29    0 360f |    3.509       0       5       0       5     56     56      0   5747     276       3  56    0360f a70f     11.130 "
test,1583576729788419840,1," |  1  |   6027       4   6024       0 |   5    0      5864       160 |   1   9    0    0 1a0f |    2.685       0       5       0       5      9      9      0   5824     200       1   9    01a0f a70f      8.910 "
test,1583576729795161088,22," | 22  |   6027       5   6021       0 |   5    0      5970        51 |   2  56    0    0 360f |    2.807       0       5       0       5     56     56      0   5698     323       2  56    0360f a70f     11.730 "
test,1583576729790028032,23," | 23  |   6027       5   5965       0 |   5    0      5940        25 |   2  56    0    0 360f |    2.777       0       5       0       5     56     56      0   5823     142       2  56    0360f a70f      9.030 "
test,1583576729791117056,24," | 24  |   6027       5   6021       2 |   5    0      5960        63 |   2  56    0    0 360f |    3.509       0       5       0       5     56     56      0   5803     220       3  56    0360f a70f      9.690 "
test,1583576729789444096,26," | 26  |   6027       5   6021       2 |   5    0      5997        26 |   2  56    0    0 360f |    2.807       0       5       0       5     56     56      0   5888     135       2  56    0360f a70f      9.030 "
test,1583576729811836928,27," | 27  |   6027       5   6025       0 |   5    0      5852       173 |   3  56    0    0 360f |    3.540       0       4       0       4     56     56      0   5616     409       3  56    0360f a70f     30.240 "
test,1583576729794151168,28," | 28  |   6027       4   6015       8 |   4    0      5535       488 |   4  56    0    0 360f |    4.272       0       5       0       5     56     56      0   5307     716       4  56    0360f a70f     11.790 "
test,1583576729810074112,29," | 29  |   6027       4   6017       8 |   0    7      5325       700 |   0  29   56    1 9a0f |    0           0       0       0       8      0      0      0   5076     949       0  29    19a0f a70f     30.180 "
test,1583576729790627072,30," | 30  |   6027       5   6020       3 |   5    0      5940        83 |   3  56    0    0 360f |    3.509       0       5       0       5     56     56      0   5722     301       3  56    0360f a70f      9.540 "
test,1583576729792774912,35," | 35  |   6027       5   6020       3 |   5    0      5739       284 |   3  56    0    0 360f |    3.448       0       5       0       5     56     56      0   5609     414       3  56    0360f a70f     10.350 "
test,1583576729812552960,40," | 40  |   6027       5   5945      74 |   3    5      5661       358 |   9  56   42    0 360f |    6.408       0       4       0       4     56     56      0   5517     502       7  56    0360f a70f     30.360 "
test,1583576729812026880,41," | 41  |   6027       5   5954      59 |   3    7      5963        50 |   8  56   42    0 360f |    5.676       0       3       0       3     56     56      0   5822     191       6  56    0360f a70f     30.390 "
test,1583576729813057024,42," | 42  |   6027       5   5961      62 |   4    7      5907       116 |   5  42   56    1 220f |    1.770       0       1       0       1     42     42      0   5780     243       2  42    1220f a70f     30.300 "
test,1583576729795907072,44," | 44  |   6027       5   5966      57 |   4    9      5906       117 |   7  56   42    0 360f |    4.974       0       5       0       5     56     56      0   5793     230       5  56    0360f a70f     11.160 "
test,1583576729812742912,45," | 45  |   6027       5   5980      43 |   5    8      5837       186 |   1  42   56    0 220f |    2.044       0       2       0       2     42     42      0   5731     292       1  42    0220f a70f     30.300 "
test,1583576729810774016,46," | 46  |   6027       5   5959      57 |   0   14      5745       271 |   0  46   42    1  50f |    0           0       0       0       8      0      0      0   5646     370       0  46    1 50f a70f     30.180 "
test,1583576729814036992,47," | 47  |   6027       5   5966      57 |   5    8      5831       192 |   1  42   56    0 220f |    2.014       0       2       0       2     42     42      0   5733     290       1  42    0220f a70f     30.360 "
test,1583576729794786816,48," | 48  |   6027       5   5901      55 |   4    9      5833       123 |   8  56   42    0 360f |    5.706       0       5       0       5     56     56      0   5730     226       6  56    0360f a70f     11.880 "
test,1583576729793291008,49," | 49  |   6027       5   6017       0 |   5    0      5904       113 |   2  56    0    0 360f |    2.807       0       5       0       5     56     56      0   5865     152       2  56    0360f a70f      8.940 "
test,1583576729791501056,51," | 51  |   6027       5   6018       0 |   5    1      5953        65 |   1  56    9    0 360f |    2.044       0       5       0       5     56     56      0   5933      85       1  56    0360f a70f      8.190 "
test,1583576729811610880,52," | 52  |   6027       5   5991      28 |   3    0      5723       296 |   3  56    0    0 360f |    3.479       0       4       0       4     56     56      0   5615     404       3  56    0360f a70f     30.270 "
test,1583576729793447936,53," | 53  |   6027       5   6001       0 |   5    0      5680       321 |   3  56    0    0 360f |    3.479       0       5       0       5     56     56      0   5620     381       3  56    0360f a70f      9.690 "
test,1583576729784610048,54," | 54  |   6027       5   6019       0 |   5    0      5917       102 |   1   9    0    0 1a0f |    2.044       0       5       0       5      9      9      0   5824     195       1   9    01a0f a70f      8.160 "
test,1583576729796760064,55," | 55  |   6027       5   6006       0 |   5    0      5778       228 |   2  56    0    0 360f |    2.777       0       5       0       5     56     56      0   5732     274       2  56    0360f a70f      8.820 "
test,1583576729789772032,56," | 56  |   6027       5   6009       0 |   4    0      5919        90 |   4  56    0    1 360f |    1.739       0       4       0       4     56     56      0   5849     160       2  56    1360f a70f      6.480 "
test,1583576729811180032,57," | 57  |   6027       5   5964       0 |   5    0      5814       150 |   1  56    0    0 360f |    2.044       0       3       0       3     56     56      0   5452     512       1  56    0360f a70f     30.210 "
test,1583576729794980096,58," | 58  |   6027       5   6018       0 |   5    0      5937        81 |   1  56    0    0 360f |    2.014       0       5       0       5     56     56      0   5691     327       1  56    0360f a70f     10.410 "
test,1583576729792141824,5," |  5  |   6027       5   6025       0 |   4    0      5489       536 |   2   9    0    0 1a0f |    2.777       0       5       0       5      9      9      0   5382     643       2   9    01a0f a70f      9.600 "
test,1583576729790874880,60," | 60  |   6027       5   6018       0 |   5    0      5638       380 |   1  56    0    0 360f |    2.044       0       5       0       5     56     56      0   5518     500       1  56    0360f a70f      8.970 "
test,1583576729793906944,61," | 61  |   6027       5   6017       0 |   3    0      5744       273 |   1  56    0    0 360f |    2.075       0       5       0       5     56     56      0   5544     473       1  56    0360f a70f     10.350 "
test,1583576729787881984,7," |  7  |   6027       5   6024       0 |   5    0      5934        90 |   1   9    0    0 1a0f |    2.014       0       5       0       5      9      9      0   5896     128       1   9    01a0f a70f      8.280 "
test,1583576729787673088,9," |  9  |   6027       5   6023       0 |   4    0      5817       206 |   2   9    0    1 1a0f |    1.739       0       4       0       4      9      9      0   5791     232       2   9    11a0f a70f      6.480 "
