test,1583576916044588032,10," | 10  |   6772       5   6744       0 |   5    0      6634       110 |   2   1    0    0 220f |    1.403       0       5       0       5      1      1      0   6555     189       1   1    0220f a70f      7.500 "
test,1583576916044418048,12," | 12  |   6772       5   6736      34 |   5    0      6697        73 |   1   1    0    0 220f |    1.342       0       5       0       5      1      1      0   6585     185       1   1    0220f a70f      7.590 "
test,1583576916042774016,13," | 13  |   6772       5   6768       0 |   5    0      6713        55 |   2   1    0    0 220f |    1.373       0       5       0       5      1      1      0   6639     129       1   1    0220f a70f      7.530 "
test,1583576916047328000,15," | 15  |   6772       5   6727      43 |   5    0      6499       271 |   2   1    0    0 220f |    2.105       0       5       0       5      1      1      0   6191     579       2   1    0220f a70f      8.340 "
test,1583576916045510912,16," | 16  |   6772       5   6768       0 |   5    0      6515       253 |   1  52    0    0 840f |    2.075       0       5       0       5     52     52      0   6340     428       1  52    0840f a70f      8.850 "
test,1583576916043570944,17," | 17  |   6772       5   6759       9 |   5    0      6676        92 |   2  52    0    0 840f |    2.777       0       5       0       5     52     52      0   6475     293       2  52    0840f a70f      8.820 "
test,1583576916064945920,18," | 18  |   6772       5   6767       0 |   1    9      6412       355 |   1  42   52    0 ca0f |    2.014       0       1       0       1     42     42      0   6146     621       1  42    0ca0f a70f     30.330 "
test,1583576916048836096,19," | 19  |   6772       5   6755      13 |   5    0      6640       128 |   1  52    0    0 840f |    2.044       0       5       0       5     52     52      0   6457     311       1  52    0840f a70f      8.160 "
test,1583576916040893952,1," |  1  |   6772       4   6769       0 |   4    0      6597       172 |   2   1    0    1 220f |    1.739       0       4       0       4      1      1      0   6551     218       2   1    1220f a70f      6.510 "
test,1583576916051193088,22," | 22  |   6772       5   6766       0 |   4    3      6704        62 |   3  52   60    0 840f |    3.509       0       5       0       5     52     52      0   6397     369       3  52    0840f a70f      9.690 "
test,1583576916043906816,23," | 23  |   6772       5   6710       0 |   5    0      6682        28 |   2  52    0    0 840f |    2.014       0       5       0       5     52     52      0   6552     158       1  52    0840f a70f      8.100 "
test,1583576916047720960,24," | 24  |   6772       5   6766       2 |   5    0      6691        77 |   2  52    0    0 840f |    2.746       0       5       0       5     52     52      0   6518     250       2  52    0840f a70f      8.970 "
test,1583576916046093056,26," | 26  |   6772       5   6766       2 |   5    0      6740        28 |   1  52    0    0 840f |    2.014       0       5       0       5     52     52      0   6615     153       1  52    0840f a70f      9.690 "
test,1583576916057657856,27," | 27  |   6772       5   6770       0 |   5    0      6571       199 |   2  52    0    0 840f |    2.807       0       5       0       5     52     52      0   6309     461       2  52    0840f a70f      8.940 "
test,1583576916053601024,28," | 28  |   6772       5   6760       8 |   5    0      6226       542 |   2  20    0    0 320f |    2.807       0       5       0       5     20     20      0   5964     804       2  20    0320f a70f     10.800 "
test,1583576916052477952,29," | 29  |   6772       3   6761       9 |   5    0      5977       793 |   2  52    0    0 840f |    2.807       0       5       0       5     52     52      0   5695    1075       2  52    0840f a70f      8.850 "
test,1583576916047107072,30," | 30  |   6772       5   6765       3 |   5    0      6678        90 |   1  20    0    0 320f |    2.044       0       5       0       5     20     20      0   6431     337       1  20    0320f a70f     10.170 "
test,1583576916051606784,35," | 35  |   6772       5   6765       3 |   5    0      6454       314 |   2  20    0    0 320f |    2.777       0       5       0       5     20     20      0   6302     466       2  20    0320f a70f     10.920 "
test,1583576916050839040,40," | 40  |   6772       5   6690      74 |   5    1      6377       387 |   1  42   52    0 ca0f |    1.983       0       5       0       5     42     42      0   6217     547       1  42    0ca0f a70f     10.350 "
test,1583576916046855936,41," | 41  |   6772       5   6699      59 |   5    1      6699        59 |   1  42   52    0 ca0f |    1.983       0       5       0       5     42     42      0   6538     220       1  42    0ca0f a70f      8.220 "
test,1583576916049430016,42," | 42  |   6772       5   6706      62 |   4    0      6646       122 |  11  42    0    1 ca0f |    1.739       0       4       0       4     42     42      0   6501     267       2  42    1ca0f a70f      7.230 "
test,1583576916056667136,44," | 44  |   6772       5   6711      57 |   5    2      6643       125 |   1  42   52    0 ca0f |    2.014       0       5       0       5     42     42      0   6511     257       1  42    0ca0f a70f      8.220 "
test,1583576916047507968,45," | 45  |   6772       5   6725      43 |   5    1      6566       202 |   1  42   52    0 ca0f |    1.983       0       5       0       5     42     42      0   6446     322       1  42    0ca0f a70f      8.910 "
test,1583576916046473984,46," | 46  |   6772       5   6704      57 |   5    0      6446       315 |   1  42    0    0 ca0f |    2.716       0       5       0       5     42     42      0   6338     423       2  42    0ca0f a70f      8.910 "
test,1583576916044857856,47," | 47  |   6772       5   6711      57 |   5    0      6551       217 |   1  42    0    0 ca0f |    2.014       0       5       0       5     42     42      0   6435     333       1  42    0ca0f a70f      8.190 "
test,1583576916050316032,48," | 48  |   6772       5   6646      55 |   5    1      6566       135 |   1  42   52    0 ca0f |    2.014       0       5       0       5     42     42      0   6441     260       1  42    0ca0f a70f      9.690 "
test,1583576916046266112,49," | 49  |   6772       5   6762       0 |   5    0      6631       131 |   1  55    0    0 c60f |    2.075       0       5       0       5     55     55      0   6584     178       1  55    0c60f a70f      8.280 "
test,1583576916049868032,51," | 51  |   6772       5   6763       0 |   5    5      6686        77 |   1  60    1    0  90f |    4.089       0       5       0       5     60     60      0   6662     101       4  60    0 90f a70f     10.200 "
test,1583576916048478976,52," | 52  |   6772       4   6736      28 |   4    0      6423       341 |   3  52    0    1 840f |    3.204       0       4       0       4     52     52      0   6304     460       4  52    1840f a70f      7.920 "
test,1583576916044172032,53," | 53  |   6772       5   6746       0 |   5    0      6389       357 |   1  55    0    0 c60f |    2.044       0       5       0       5     55     55      0   6321     425       1  55    0c60f a70f      8.160 "
test,1583576916041809152,54," | 54  |   6772       5   6764       0 |   5    0      6650       114 |   1   1    0    0 220f |    1.373       0       5       0       5      1      1      0   6545     219       1   1    0220f a70f      7.650 "
test,1583576916042417920,55," | 55  |   6772       5   6751       0 |   5    0      6497       254 |   2  55    0    1 c60f |    1.739       0       4       0       4     55     55      0   6442     309       2  55    1c60f a70f      6.510 "
test,1583576916053165824,56," | 56  |   6772       5   6754       0 |   5    5      6652       102 |   1  60    1    0  90f |    4.821       0       5       0       5     60     60      0   6570     184       5  60    0 90f a70f     10.980 "
test,1583576916065764864,57," | 57  |   6772       5   6709       0 |   5    5      6535       174 |   1  60   52    0  90f |    9.948       0       2       0       2     60     60      0   6112     597      12  60    0 90f a70f     30.360 "
test,1583576916043227904,58," | 58  |   6772       5   6763       0 |   5    0      6675        88 |   2  55    0    0 c60f |    2.075       0       5       0       5     55     55      0   6400     363       1  55    0c60f a70f      8.220 "
test,1583576916047995136,5," |  5  |   6772       5   6770       0 |   5    0      6166       604 |   2   1    0    0 220f |    2.136       0       5       0       5      1      1      0   6047     723       2   1    0220f a70f      8.340 "
test,1583576916049249792,60," | 60  |   6772       5   6763       0 |   4    2      6338       425 |   5  60    1    1  90f |    3.814       0       4       0       4     60     60      0   6203     560       5  60    1 90f a70f      8.520 "
test,1583576916048315904,61," | 61  |   6772       5   6758       4 |   1    5      6458       304 |   2   1   60    0 220f |    2.136       0       5       0       5      1      1      0   6233     529       2   1    0220f a70f      8.190 "
test,1583576916041094912,7," |  7  |   6772       5   6769       0 |   5    0      6675        94 |   2   1    0    0 220f |    1.342       0       5       0       5      1      1      0   6628     141       1   1    0220f a70f      7.590 "
test,1583576916041608960,9," |  9  |   6772       5   6768       0 |   5    0      6540       228 |   1   1    0    0 220f |    1.342       0       5       0       5      1      1      0   6509     259       1   1    0220f a70f      7.560 "
