test,1583576759289030912,10," | 10  |   6145       5   6117       0 |   5    0      6019        98 |   1   7    0    0  60f |    2.044       0       5       0       5      7      7      0   5942     175       1   7    0 60f a70f      8.280 "
test,1583576759291610880,12," | 12  |   6145       5   6109      34 |   5    0      6076        67 |   1   7    0    0  60f |    2.075       0       5       0       5      7      7      0   5972     171       1   7    0 60f a70f      8.190 "
test,1583576759289889024,13," | 13  |   6145       5   6141       0 |   5    0      6091        50 |   1   7    0    0  60f |    2.044       0       5       0       5      7      7      0   6017     124       1   7    0 60f a70f      8.220 "
test,1583576759296243968,15," | 15  |   6145       5   6100      43 |   5    0      5902       241 |   2   7    0    0  60f |    2.746       0       5       0       5      7      7      0   5629     514       2   7    0 60f a70f      9.000 "
test,1583576759290738944,16," | 16  |   6145       5   6141       0 |   5    0      5921       220 |   1  26    0    0 320f |    2.014       0       5       0       5     26     26      0   5754     387       1  26    0320f a70f      8.070 "
test,1583576759311942144,17," | 17  |   6145       3   6133       8 |   5    0      6060        81 |   1  26    0    0 320f |    2.044       0       4       0       4     26     26      0   5877     264       1  26    0320f a70f     30.360 "
test,1583576759309769984,18," | 18  |   6145       5   6140       0 |   0   13      5810       330 |   0  18   42    1 800f |    0           0       0       0       8      0      0      0   5569     571       0  18    1800f a70f     30.120 "
test,1583576759311002880,19," | 19  |   6145       3   6129      12 |   0   10      6023       118 |   0  19   26    1 150f |    0           0       0       0       8      0      0      0   5855     286       0  19    1150f a70f     30.210 "
test,1583576759294019840,1," |  1  |   6145       4   6142       0 |   5    0      5982       160 |   1   7    0    0  60f |    2.746       0       5       0       5      7      7      0   5940     202       1   7    0 60f a70f      8.940 "
test,1583576759312457984,22," | 22  |   6145       5   6139       0 |   3    7      6088        51 |   2  26   19    0 320f |    3.479       0       3       0       3     26     26      0   5811     328       3  26    0320f a70f     30.270 "
test,1583576759295154944,23," | 23  |   6145       5   6083       0 |   5    0      6058        25 |   1  26    0    0 320f |    2.014       0       5       0       5     26     26      0   5939     144       1  26    0320f a70f      8.220 "
test,1583576759290514944,24," | 24  |   6145       5   6139       2 |   5    0      6076        65 |   3  26    0    0 320f |    2.044       0       5       0       5     26     26      0   5918     223       1  26    0320f a70f      8.280 "
test,1583576759288638208,26," | 26  |   6145       5   6139       2 |   5    0      6115        26 |   2  26    0    1 320f |    1.739       0       4       0       4     26     26      0   6004     137       2  26    1320f a70f      6.510 "
test,1583576759316433920,27," | 27  |   6145       5   6143       0 |   5    0      5966       177 |   2  26    0    0 320f |    2.746       0       3       0       3     26     26      0   5729     414       2  26    0320f a70f     30.360 "
test,1583576759291985152,28," | 28  |   6145       4   6133       8 |   5    0      5640       501 |   1  30    0    0 c30f |    2.044       0       5       0       5     30     30      0   5410     731       1  30    0c30f a70f      8.250 "
test,1583576759312868096,29," | 29  |   6145       5   6134       9 |   5    0      5434       709 |   3  26    0    0 320f |    3.479       0       2       0       2     26     26      0   5181     962       3  26    0320f a70f     30.390 "
test,1583576759289270016,30," | 30  |   6145       5   6138       3 |   5    0      6057        84 |   2  30    0    1 c30f |    1.739       0       4       0       4     30     30      0   5837     304       2  30    1c30f a70f      6.480 "
test,1583576759290344960,35," | 35  |   6145       5   6138       3 |   5    0      5852       289 |   1  30    0    0 c30f |    2.044       0       5       0       5     30     30      0   5721     420       1  30    0c30f a70f      8.130 "
test,1583576759292808960,40," | 40  |   6145       5   6063      74 |   5    4      5774       363 |   1  42   26    0 990f |    1.983       0       5       0       5     42     42      0   5626     511       1  42    0990f a70f      8.190 "
test,1583576759296689152,41," | 41  |   6145       5   6072      59 |   5    1      6079        52 |   1  42   26    0 990f |    2.044       0       5       0       5     42     42      0   5933     198       1  42    0990f a70f      8.130 "
test,1583576759293377024,42," | 42  |   6145       5   6079      62 |   3    6      6023       118 |   8  42   26    1 990f |    1.770       0       4       0       4     42     42      0   5891     250       2  42    1990f a70f      6.510 "
test,1583576759294573056,44," | 44  |   6145       5   6084      57 |   5    8      6024       117 |   1  42   26    0 990f |    1.983       0       5       0       5     42     42      0   5908     233       1  42    0990f a70f      8.100 "
test,1583576759291249920,45," | 45  |   6145       5   6098      43 |   5    3      5952       189 |   1  42   26    0 990f |    2.014       0       5       0       5     42     42      0   5840     301       1  42    0990f a70f      8.250 "
test,1583576759292183040,46," | 46  |   6145       5   6077      57 |   5    0      5854       280 |   1  42    0    0 990f |    2.014       0       5       0       5     42     42      0   5753     381       1  42    0990f a70f      8.160 "
test,1583576759293148928,47," | 47  |   6145       5   6084      57 |   5    0      5946       195 |   1  42    0    0 990f |    2.014       0       5       0       5     42     42      0   5841     300       1  42    0990f a70f      8.280 "
test,1583576759297784064,48," | 48  |   6145       5   6019      55 |   5    3      5950       124 |   1  42   26    0 990f |    2.014       0       5       0       5     42     42      0   5841     233       1  42    0990f a70f      8.130 "
test,1583576759291429888,49," | 49  |   6145       5   6135       0 |   4    0      6014       121 |   2  49    0    1 510f |    1.739       0       4       0       4     49     49      0   5973     162       2  49    1510f a70f      6.480 "
test,1583576759310696960,51," | 51  |   6145       5   6136       0 |   5    0      6069        67 |   1   7    0    0  60f |    2.777       0       3       0       3      7      7      0   6048      88       2   7    0 60f a70f     30.330 "
test,1583576759294174976,52," | 52  |   6145       4   6109      28 |   5    0      5836       301 |   1  26    0    0 320f |    2.014       0       5       0       5     26     26      0   5727     410       1  26    0320f a70f      8.220 "
test,1583576759290136064,53," | 53  |   6145       5   6119       0 |   5    0      5792       327 |   1  49    0    0 510f |    1.983       0       5       0       5     49     49      0   5728     391       1  49    0510f a70f      8.220 "
test,1583576759288834048,54," | 54  |   6145       5   6137       0 |   5    0      6034       103 |   1   7    0    0  60f |    2.075       0       5       0       5      7      7      0   5937     200       1   7    0 60f a70f      8.280 "
test,1583576759292350976,55," | 55  |   6145       5   6124       0 |   5    0      5891       233 |   1  49    0    0 510f |    1.983       0       5       0       5     49     49      0   5842     282       1  49    0510f a70f      8.220 "
test,1583576759304662016,56," | 56  |   6145       5   6127       0 |   1    5      6034        93 |   8  56   26    1 bd0f |   14.617       0       4       0       4     56     56      0   5962     165      20  56    1bd0f a70f     18.990 "
test,1583576759313453824,57," | 57  |   6145       5   6082       0 |   5    0      5927       155 |   3  26    0    0 320f |    2.746       0       4       0       4     26     26      0   5555     527       2  26    0320f a70f     30.360 "
test,1583576759295479040,58," | 58  |   6145       5   6136       0 |   5    0      6054        82 |   2  49    0    0 510f |    2.044       0       5       0       5     49     49      0   5803     333       1  49    0510f a70f      8.130 "
test,1583576759292627968,5," |  5  |   6145       5   6143       0 |   5    0      5598       545 |   2   7    0    0  60f |    2.777       0       5       0       5      7      7      0   5490     653       2   7    0 60f a70f      8.880 "
test,1583576759312273920,60," | 60  |   6145       5   6136       0 |   1    3      5753       383 |   2   7   56    0  60f |    3.509       0       3       0       3      7      7      0   5630     506       3   7    0 60f a70f     30.360 "
test,1583576759300180992,61," | 61  |   6145       5   6135       0 |   2    0      5856       279 |   7  56    0    0 bd0f |    2.014       0       5       0       5     56     56      0   5649     486       1  56    0bd0f a70f     19.320 "
test,1583576759288366080,7," |  7  |   6145       5   6142       0 |   5    0      6052        90 |   2   7    0    1  60f |    1.739       0       4       0       4      7      7      0   6012     130       2   7    1 60f a70f      6.480 "
test,1583576759289704960,9," |  9  |   6145       5   6141       0 |   5    0      5934       207 |   1   7    0    0  60f |    2.044       0       5       0       5      7      7      0   5905     236       1   7    0 60f a70f      8.280 "
