test,1583575382029175040,10," | 10  |    636       5    608       0 |   4    8       599         9 |   4  12   54    0 370f |    2.746       0       3       0       3     12     12      0    591      17       2  12    0370f a70f     30.330 "
test,1583575382010001920,12," | 12  |    636       5    634       0 |   4    0       628         6 |   4  12    0    1 370f |    1.739       0       4       0       4     12     12      0    617      17       2  12    1370f a70f      6.480 "
test,1583575382016918016,13," | 13  |    636       5    632       0 |   5    0       624         8 |   2  12    0    0 370f |    2.746       0       5       0       5     12     12      0    616      16       2  12    0370f a70f      8.940 "
test,1583575382012422144,15," | 15  |    636       5    634       0 |   4    2       611        23 |   1  12   19    0 370f |    1.983       0       5       0       5     12     12      0    586      48       1  12    0370f a70f      8.130 "
test,1583575382017345792,16," | 16  |    636       5    632       0 |   5    0       605        27 |   1  52    0    0 c80f |    2.044       0       5       0       5     52     52      0    591      41       1  52    0c80f a70f     11.790 "
test,1583575382016720128,17," | 17  |    636       5    632       0 |   4   12       625         7 |   4  19   57    0 670f |    2.044       0       5       0       5     19     19      0    607      25       1  19    0670f a70f      9.570 "
test,1583575382020201984,18," | 18  |    636       5    631       0 |   5    0       590        41 |   3  52    0    0 c80f |    2.777       0       5       0       5     52     52      0    564      67       2  52    0c80f a70f     10.350 "
test,1583575382034712064,19," | 19  |    636       5    631       1 |   4    2       626         6 |  11  19   52    1 670f |    3.814       0       3       0       3     19     19      0    605      27       5  19    1670f a70f     30.240 "
test,1583575382012579840,1," |  1  |    636       4    633       0 |   5    0       621        12 |   2  12    0    0 370f |    3.417       0       5       0       5     12     12      0    616      17       2  12    0370f a70f      9.480 "
test,1583575382019781120,22," | 22  |    636       5    630       0 |   5    0       625         5 |   2  52    0    0 c80f |    2.777       0       5       0       5     52     52      0    597      33       2  52    0c80f a70f     11.130 "
test,1583575382010562048,23," | 23  |    636       5    574       0 |   5    9       571         3 |   1  57   52    0 910f |    1.983       0       5       0       5     57     57      0    564      10       1  57    0910f a70f      8.190 "
test,1583575382019606016,24," | 24  |    636       5    632       0 |   5    0       627         5 |   2  52    0    0 c80f |    2.746       0       5       0       5     52     52      0    614      18       2  52    0c80f a70f     11.700 "
test,1583575382018436864,26," | 26  |    636       5    632       0 |   5    0       629         3 |   1  52    0    0 c80f |    2.014       0       5       0       5     52     52      0    618      14       1  52    0c80f a70f     12.600 "
test,1583575382033540864,27," | 27  |    636       4    634       0 |   5    6       618        16 |   4  19   57    0 670f |    2.014       0       4       0       4     19     19      0    591      43       1  19    0670f a70f     30.270 "
test,1583575382033318912,28," | 28  |    636       4    632       0 |   4    2       577        55 |   1  30   19    0 b70f |    2.014       0       4       0       4     30     30      0    564      68       1  30    0b70f a70f     30.240 "
test,1583575382012929792,29," | 29  |    636       5    632       2 |   5    1       562        72 |   1  19   12    0 670f |    2.044       0       5       0       5     19     19      0    528     106       1  19    0670f a70f      8.850 "
test,1583575382011396864,30," | 30  |    636       5    632       0 |   4    3       626         6 |   8  30   52    1 b70f |    1.739       0       4       0       4     30     30      0    613      19       2  30    1b70f a70f      6.480 "
test,1583575382011864064,35," | 35  |    636       5    632       0 |   5    4       605        27 |   1  30   52    0 b70f |    2.014       0       5       0       5     30     30      0    598      34       1  30    0b70f a70f      8.250 "
test,1583575382014435072,40," | 40  |    636       5    616      12 |   5    0       581        47 |   5  52    0    0 c80f |    4.241       0       5       0       5     52     52      0    557      71       4  52    0c80f a70f     10.410 "
test,1583575382015944960,41," | 41  |    636       5    609      13 |   5    0       617         5 |   4  52    0    0 c80f |    3.509       0       5       0       5     52     52      0    603      19       3  52    0c80f a70f      9.600 "
test,1583575382013106944,42," | 42  |    636       5    618      14 |   5    0       609        23 |   3  52    0    0 c80f |    3.479       0       5       0       5     52     52      0    592      40       3  52    0c80f a70f      9.690 "
test,1583575382013264896,44," | 44  |    636       5    620      12 |   5    0       618        14 |   3  52    0    0 c80f |    2.807       0       5       0       5     52     52      0    600      32       2  52    0c80f a70f      9.000 "
test,1583575382013950976,45," | 45  |    636       5    624       8 |   5    0       603        29 |   4  52    0    0 c80f |    2.746       0       5       0       5     52     52      0    588      44       2  52    0c80f a70f      8.970 "
test,1583575382016252928,46," | 46  |    636       5    612      13 |   5    0       603        22 |   4  52    0    0 c80f |    3.509       0       5       0       5     52     52      0    589      36       3  52    0c80f a70f      9.720 "
test,1583575382017661184,47," | 47  |    636       5    619      13 |   5    0       607        25 |   4  52    0    0 c80f |    3.509       0       5       0       5     52     52      0    598      34       3  52    0c80f a70f      9.630 "
test,1583575382018832896,48," | 48  |    636       5    554      11 |   4    0       547        18 |   5  52    0    0 c80f |    3.509       0       5       0       5     52     52      0    530      35       3  52    0c80f a70f      9.690 "
test,1583575382010349056,49," | 49  |    636       5    626       0 |   5    0       614        12 |   1  53    0    0 ca0f |    2.044       0       5       0       5     53     53      0    610      16       1  53    0ca0f a70f      8.250 "
test,1583575382013451008,51," | 51  |    636       5    627       0 |   5    8       623         4 |   1  57   12    0 910f |    2.746       0       5       0       5     57     57      0    622       5       2  57    0910f a70f      8.820 "
test,1583575382015816960,52," | 52  |    636       5    623       5 |   4    0       598        30 |   3  52    0    1 c80f |    1.739       0       4       0       4     52     52      0    583      45       2  52    1c80f a70f     10.080 "
test,1583575382010201856,53," | 53  |    636       5    610       0 |   4    0       579        31 |   2  53    0    1 ca0f |    1.739       0       4       0       4     53     53      0    573      37       2  53    1ca0f a70f      6.480 "
test,1583575382030679040,54," | 54  |    636       5    628       0 |   1    5       622         6 |  17  54   12    1 9b0f |   10.284       0       2       0       2     54     54      0    606      22      14  54    19b0f a70f     30.210 "
test,1583575382011044864,55," | 55  |    636       5    615       0 |   5    0       587        28 |   1  53    0    0 ca0f |    2.044       0       5       0       5     53     53      0    586      29       1  53    0ca0f a70f      8.160 "
test,1583575382011582976,56," | 56  |    636       5    618       0 |   5    4       602        16 |   1  57   12    0 910f |    2.014       0       5       0       5     57     57      0    597      21       1  57    0910f a70f      8.250 "
test,1583575382012811008,57," | 57  |    636       5    573       0 |   4    4       552        21 |   5  57   52    1 910f |    1.770       0       4       0       4     57     57      0    519      54       2  57    1910f a70f      6.510 "
test,1583575382019393024,58," | 58  |    636       5    627       0 |   3    9       618         9 |   5  54   57    0 9b0f |    2.014       0       5       0       5     54     54      0    601      26       1  54    09b0f a70f     12.240 "
test,1583575382014585856,5," |  5  |    636       5    634       0 |   5    0       581        53 |   1  12    0    0 370f |    1.983       0       5       0       5     12     12      0    568      66       1  12    0370f a70f      9.630 "
test,1583575382017165056,60," | 60  |    636       5    627       0 |   5    1       587        40 |   1  57   12    0 910f |    2.014       0       5       0       5     57     57      0    583      44       1  57    0910f a70f      8.250 "
test,1583575382013649920,61," | 61  |    636       5    626       0 |   3    8       601        25 |   4  54   57    0 9b0f |    2.777       0       5       0       5     54     54      0    581      45       2  54    09b0f a70f     10.890 "
test,1583575382011204864,7," |  7  |    636       5    633       0 |   5    0       623        10 |   1  12    0    0 370f |    1.983       0       5       0       5     12     12      0    621      12       1  12    0370f a70f      8.130 "
test,1583575382012229888,9," |  9  |    636       5    632       0 |   5    0       604        28 |   2  12    0    0 370f |    2.777       0       5       0       5     12     12      0    601      31       2  12    0370f a70f      8.880 "
