test,1583576890040961024,10," | 10  |   6668       5   6640       0 |   5    0      6531       109 |   1   1    0    0 220f |    1.312       0       5       0       5      1      1      0   6452     188       1   1    0220f a70f      7.560 "
test,1583576890042887936,12," | 12  |   6668       5   6632      34 |   5    0      6595        71 |   1   1    0    0 220f |    2.044       0       5       0       5      1      1      0   6484     182       2   1    0220f a70f      8.280 "
test,1583576890070311936,13," | 13  |   6668       5   6664       0 |   4   10      6610        54 |   8  13    1    1  b0f |    8.117       0       2       0       2     13     13      0   6536     128      11  13    1 b0f a70f     30.240 "
test,1583576890066286080,15," | 15  |   6668       5   6623      43 |   5    4      6399       267 |   1  13    1    0  b0f |   11.260       0       1       0       1     13     13      0   6099     567      14  13    0 b0f a70f     30.360 "
test,1583576890066535936,16," | 16  |   6668       5   6664       0 |   5    0      6418       246 |   2  24    0    0 230f |    2.746       0       4       0       4     24     24      0   6243     421       2  24    0230f a70f     30.240 "
test,1583576890065090816,17," | 17  |   6668       5   6655       9 |   4    0      6573        91 |   1  24    0    0 230f |    2.044       0       4       0       4     24     24      0   6375     289       1  24    0230f a70f     30.270 "
test,1583576890043296000,18," | 18  |   6668       5   6663       0 |   5    0      6312       351 |   1  24    0    0 230f |    2.044       0       5       0       5     24     24      0   6050     613       1  24    0230f a70f      8.250 "
test,1583576890049067008,19," | 19  |   6668       5   6651      13 |   3    0      6540       124 |   1  24    0    0 230f |    2.044       0       5       0       5     24     24      0   6358     306       1  24    0230f a70f      9.000 "
test,1583576890040160768,1," |  1  |   6668       4   6665       0 |   5    0      6495       170 |   2   1    0    1 220f |    1.739       0       4       0       4      1      1      0   6449     216       2   1    1220f a70f      6.480 "
test,1583576890043571968,22," | 22  |   6668       5   6662       0 |   5    0      6602        60 |   1  24    0    0 230f |    2.014       0       5       0       5     24     24      0   6299     363       1  24    0230f a70f      8.220 "
test,1583576890046900992,23," | 23  |   6668       5   6606       0 |   5    0      6579        27 |   1  24    0    0 230f |    2.044       0       5       0       5     24     24      0   6450     156       1  24    0230f a70f      8.820 "
test,1583576890041929984,24," | 24  |   6668       5   6662       2 |   4    0      6590        74 |   2  24    0    1 230f |    1.739       0       4       0       4     24     24      0   6419     245       2  24    1230f a70f      6.480 "
test,1583576890046614784,26," | 26  |   6668       5   6662       2 |   5    0      6636        28 |   1  24    0    0 230f |    2.044       0       5       0       5     24     24      0   6512     152       1  24    0230f a70f      8.850 "
test,1583576890065393920,27," | 27  |   6668       5   6666       0 |   5    0      6472       194 |   2  24    0    0 230f |    4.913       0       4       0       4     24     24      0   6211     455       5  24    0230f a70f     30.360 "
test,1583576890065637120,28," | 28  |   6668       5   6656       8 |   1    5      6127       537 |  11  24   30    0 230f |    2.777       0       3       0       3     24     24      0   5869     795       2  24    0230f a70f     30.330 "
test,1583576890066065152,29," | 29  |   6668       4   6657       9 |   5    0      5884       782 |   3  24    0    0 230f |    4.974       0       4       0       4     24     24      0   5609    1057       5  24    0230f a70f     30.240 "
test,1583576890061718016,30," | 30  |   6668       5   6661       3 |   0    6      6576        88 |   0  30   24    1  e0f |    0           0       0       0       8      0      0      0   6334     330       0  30    1 e0f a70f     30.150 "
test,1583576890064048128,35," | 35  |   6668       5   6661       3 |   4    5      6357       307 |   2  24   30    0 230f |    2.777       0       3       0       3     24     24      0   6210     454       2  24    0230f a70f     30.270 "
test,1583576890063555840,40," | 40  |   6668       5   6586      74 |   0    2      6275       385 |   0  40   46    1 270f |    0           0       0       0       8      0      0      0   6115     545       0  40    1270f a70f     30.120 "
test,1583576890044455936,41," | 41  |   6668       5   6595      59 |   5    0      6599        55 |   1  46    0    0 d80f |    1.983       0       5       0       5     46     46      0   6438     216       1  46    0d80f a70f      8.220 "
test,1583576890044028160,42," | 42  |   6668       5   6602      62 |   5    0      6542       122 |   2  46    0    0 d80f |    1.983       0       5       0       5     46     46      0   6398     266       1  46    0d80f a70f      8.190 "
test,1583576890049830912,44," | 44  |   6668       5   6607      57 |   5    0      6541       123 |   2  46    0    0 d80f |    2.716       0       5       0       5     46     46      0   6408     256       2  46    0d80f a70f      9.630 "
test,1583576890044244992,45," | 45  |   6668       5   6621      43 |   4    6      6464       200 |   2  46   40    0 d80f |    2.746       0       5       0       5     46     46      0   6343     321       2  46    0d80f a70f      8.940 "
test,1583576890042311936,46," | 46  |   6668       5   6600      57 |   4    0      6353       304 |   2  46    0    1 d80f |    1.739       0       4       0       4     46     46      0   6245     412       2  46    1d80f a70f      6.480 "
test,1583576890047632896,47," | 47  |   6668       5   6607      57 |   5    0      6451       213 |   1  46    0    0 d80f |    2.014       0       5       0       5     46     46      0   6335     329       1  46    0d80f a70f      8.250 "
test,1583576890064768000,48," | 48  |   6668       5   6542      55 |   3    7      6465       132 |   2  46   40    0 d80f |    2.746       0       4       0       4     46     46      0   6341     256       2  46    0d80f a70f     30.300 "
test,1583576890045725952,49," | 49  |   6668       5   6658       0 |   5    4      6528       130 |   1  53    1    0 9a0f |    2.075       0       5       0       5     53     53      0   6481     177       1  53    09a0f a70f      8.220 "
test,1583576890040487168,51," | 51  |   6668       5   6659       0 |   5    0      6584        75 |   1   1    0    0 220f |    1.312       0       5       0       5      1      1      0   6560      99       1   1    0220f a70f      7.410 "
test,1583576890063878912,52," | 52  |   6668       5   6632      28 |   4    0      6323       337 |   1  24    0    0 230f |    2.014       0       4       0       4     24     24      0   6205     455       1  24    0230f a70f     30.360 "
test,1583576890041743104,53," | 53  |   6668       5   6642       0 |   4    1      6290       352 |   5  53    1    1 9a0f |    1.770       0       4       0       4     53     53      0   6222     420       2  53    19a0f a70f      6.510 "
test,1583576890048868864,54," | 54  |   6668       5   6660       0 |   5    0      6548       112 |   1   1    0    0 220f |    1.312       0       5       0       5      1      1      0   6443     217       1   1    0220f a70f      7.560 "
test,1583576890043823872,55," | 55  |   6668       5   6647       0 |   5    4      6394       253 |   1  53    1    0 9a0f |    2.044       0       5       0       5     53     53      0   6339     308       1  53    09a0f a70f      8.100 "
test,1583576890063255040,56," | 56  |   6668       5   6650       0 |   5    9      6550       100 |   1  13    1    0  b0f |   11.291       0       1       0       1     13     13      0   6468     182      14  13    0 b0f a70f     30.360 "
test,1583576890047195904,57," | 57  |   6668       5   6605       0 |   5    0      6432       173 |   2  24    0    0 230f |    2.746       0       5       0       5     24     24      0   6013     592       2  24    0230f a70f      9.660 "
test,1583576890044781824,58," | 58  |   6668       3   6659       0 |   4    2      6572        87 |   4   1   53    0 220f |    2.105       0       5       0       5      1      1      0   6301     358       2   1    0220f a70f      8.190 "
test,1583576890045010944,5," |  5  |   6668       5   6666       0 |   5    4      6072       594 |   1  13    1    0  b0f |    1.983       0       5       0       5     13     13      0   5953     713       1  13    0 b0f a70f     10.110 "
test,1583576890046243072,60," | 60  |   6668       5   6659       0 |   5    0      6242       417 |   2   1    0    0 220f |    2.105       0       5       0       5      1      1      0   6107     552       2   1    0220f a70f      8.310 "
test,1583576890067430912,61," | 61  |   6668       5   6654       4 |   4    3      6357       301 |   5   1   13    0 220f |    2.044       0       4       0       4      1      1      0   6135     523       2   1    0220f a70f     30.360 "
test,1583576890039249920,7," |  7  |   6668       5   6665       0 |   5    0      6571        94 |   1   1    0    0 220f |    1.342       0       5       0       5      1      1      0   6525     140       1   1    0220f a70f      7.440 "
test,1583576890041398016,9," |  9  |   6668       5   6664       0 |   5    0      6438       226 |   1   1    0    0 220f |    1.373       0       5       0       5      1      1      0   6407     257       1   1    0220f a70f      7.560 "
