test,1583576950047749888,10," | 10  |   6908       5   6880       0 |   3    0      6769       111 |   6  12    0    0  50f |    4.974       0       5       0       5     12     12      0   6689     191       5  12    0 50f a70f     12.600 "
test,1583576950042285824,12," | 12  |   6908       5   6872      34 |   4    0      6831        75 |   2  12    0    1  50f |    1.739       0       4       0       4     12     12      0   6716     190       2  12    1 50f a70f      6.480 "
test,1583576950046766080,13," | 13  |   6908       5   6904       0 |   5    0      6846        58 |   1  12    0    0  50f |    2.014       0       5       0       5     12     12      0   6772     132       1  12    0 50f a70f     10.290 "
test,1583576950044326912,15," | 15  |   6908       5   6863      43 |   5    0      6628       278 |   1  12    0    0  50f |    2.044       0       5       0       5     12     12      0   6316     590       1  12    0 50f a70f      8.310 "
test,1583576950049050112,16," | 16  |   6908       5   6904       0 |   5    0      6645       259 |   2  44    0    0 110f |    2.746       0       5       0       5     44     44      0   6464     440       2  44    0110f a70f      8.970 "
test,1583576950047282944,17," | 17  |   6908       5   6895       9 |   5    0      6809        95 |   2  44    0    0 110f |    2.746       0       5       0       5     44     44      0   6608     296       2  44    0110f a70f      8.820 "
test,1583576950048612096,18," | 18  |   6908       5   6903       0 |   5    0      6544       359 |   2  44    0    0 110f |    3.479       0       5       0       5     44     44      0   6272     631       3  44    0110f a70f      9.600 "
test,1583576950048890112,19," | 19  |   6908       5   6891      13 |   5    0      6774       130 |   2  44    0    0 110f |    2.746       0       5       0       5     44     44      0   6587     317       2  44    0110f a70f      9.660 "
test,1583576950044805888,1," |  1  |   6908       4   6905       0 |   5    0      6724       181 |   1  12    0    0  50f |    2.746       0       5       0       5     12     12      0   6675     230       1  12    0 50f a70f      8.970 "
test,1583576950050877184,22," | 22  |   6908       5   6902       0 |   5    0      6840        62 |   2  44    0    0 110f |    2.716       0       5       0       5     44     44      0   6529     373       2  44    0110f a70f      8.910 "
test,1583576950045536000,23," | 23  |   6908       5   6846       0 |   5    0      6817        29 |   3  44    0    0 110f |    3.417       0       5       0       5     44     44      0   6685     161       3  44    0110f a70f      9.630 "
test,1583576950042760960,24," | 24  |   6908       5   6902       2 |   5    0      6827        77 |   1  44    0    0 110f |    2.014       0       5       0       5     44     44      0   6654     250       1  44    0110f a70f      8.220 "
test,1583576950052262912,26," | 26  |   6908       5   6902       2 |   5    0      6876        28 |   1  44    0    0 110f |    1.983       0       5       0       5     44     44      0   6748     156       1  44    0110f a70f      8.220 "
test,1583576950065337856,27," | 27  |   6908       5   6906       0 |   1    5      6702       204 |   2  12   44    0  50f |    0           0       0       0       8      0      0      0   6436     470       0  12    0 50f a70f     30.360 "
test,1583576950050419968,28," | 28  |   6908       5   6896       8 |   5    0      6357       547 |   2  44    0    0 110f |    2.716       0       5       0       5     44     44      0   6088     816       2  44    0110f a70f      8.910 "
test,1583576950064694784,29," | 29  |   6908       5   6897       9 |   1    2      6095       811 |   2  12   44    0  50f |    0           0       0       0       8      0      0      0   5805    1101       0  12    0 50f a70f     30.360 "
test,1583576950066179072,30," | 30  |   6908       5   6901       3 |   5    0      6811        93 |   5  44    0    0 110f |    3.479       0       4       0       4     44     44      0   6557     347       3  44    0110f a70f     30.240 "
test,1583576950065761024,35," | 35  |   6908       5   6901       3 |   5    0      6579       325 |   5  44    0    0 110f |    3.448       0       4       0       4     44     44      0   6422     482       3  44    0110f a70f     30.360 "
test,1583576950048228864,40," | 40  |   6908       5   6826      74 |   5    0      6503       397 |   3  44    0    0 110f |    1.983       0       5       0       5     44     44      0   6341     559       1  44    0110f a70f      9.600 "
test,1583576950046488064,41," | 41  |   6908       5   6835      59 |   5    0      6833        61 |   2  44    0    0 110f |    2.014       0       5       0       5     44     44      0   6672     222       1  44    0110f a70f      8.820 "
test,1583576950047020032,42," | 42  |   6908       5   6842      62 |   5    0      6779       125 |   2  44    0    0 110f |    2.014       0       5       0       5     44     44      0   6632     272       1  44    0110f a70f      9.600 "
test,1583576950053373952,44," | 44  |   6908       5   6847      57 |   4    0      6778       126 |   3  44    0    1 110f |    1.739       0       4       0       4     44     44      0   6641     263       2  44    1110f a70f      6.480 "
test,1583576950047476992,45," | 45  |   6908       5   6861      43 |   5    0      6697       207 |   1  44    0    0 110f |    1.983       0       5       0       5     44     44      0   6576     328       1  44    0110f a70f      8.190 "
test,1583576950051060992,46," | 46  |   6908       5   6840      57 |   5    0      6577       320 |   2  44    0    0 110f |    1.983       0       5       0       5     44     44      0   6468     429       1  44    0110f a70f      9.630 "
test,1583576950052926976,47," | 47  |   6908       5   6847      57 |   5    0      6683       221 |   1  44    0    0 110f |    1.983       0       5       0       5     44     44      0   6565     339       1  44    0110f a70f      9.450 "
test,1583576950053157120,48," | 48  |   6908       5   6782      55 |   5    0      6701       136 |   2  44    0    0 110f |    1.983       0       5       0       5     44     44      0   6574     263       1  44    0110f a70f      8.910 "
test,1583576950044177152,49," | 49  |   6908       5   6898       0 |   5    0      6766       132 |   2  49    0    1 3d0f |    1.739       0       4       0       4     49     49      0   6719     179       2  49    13d0f a70f      6.480 "
test,1583576950043038976,51," | 51  |   6908       5   6899       0 |   2    5      6822        77 |   1  56   12    0 6b0f |    2.014       0       5       0       5     56     56      0   6797     102       1  56    06b0f a70f      8.250 "
test,1583576950050599936,52," | 52  |   6908       5   6871      29 |   5    0      6554       346 |   2  44    0    0 110f |    2.685       0       5       0       5     44     44      0   6431     469       2  44    0110f a70f      8.880 "
test,1583576950050120192,53," | 53  |   6908       5   6882       0 |   5    0      6518       364 |   1  49    0    0 3d0f |    2.014       0       5       0       5     49     49      0   6450     432       1  49    03d0f a70f      8.220 "
test,1583576950043378944,54," | 54  |   6908       5   6900       0 |   5    0      6783       117 |   1  12    0    0  50f |    2.044       0       5       0       5     12     12      0   6673     227       1  12    0 50f a70f      8.310 "
test,1583576950045892096,55," | 55  |   6908       5   6887       0 |   5    0      6630       257 |   2  49    0    0 3d0f |    2.014       0       5       0       5     49     49      0   6575     312       1  49    03d0f a70f      8.130 "
test,1583576950043783936,56," | 56  |   6908       5   6890       0 |   1    3      6786       104 |   3  56   12    1 6b0f |    1.739       0       4       0       4     56     56      0   6702     188       2  56    16b0f a70f      6.510 "
test,1583576950046274048,57," | 57  |   6908       5   6845       0 |   1    5      6668       177 |   1  56   44    0 6b0f |    2.014       0       5       0       5     56     56      0   6241     604       1  56    06b0f a70f      8.220 "
test,1583576950066822912,58," | 58  |   6908       5   6899       0 |   1    1      6808        91 |   4  12   49    0  50f |   10.101       0       4       0       4     12     12      0   6529     370      12  12    0 50f a70f     30.360 "
test,1583576950047895040,5," |  5  |   6908       4   6906       0 |   5    0      6288       618 |   1  12    0    0  50f |    2.075       0       5       0       5     12     12      0   6166     740       1  12    0 50f a70f      8.280 "
test,1583576950046063872,60," | 60  |   6908       5   6899       0 |   2    0      6466       433 |   2  56    0    0 6b0f |    2.044       0       5       0       5     56     56      0   6329     570       1  56    06b0f a70f      8.880 "
test,1583576950051832832,61," | 61  |   6908       5   6894       4 |   2    0      6589       309 |   4  12    0    0  50f |    7.202       0       5       0       5     12     12      0   6359     539       8  12    0 50f a70f     15.360 "
test,1583576950045690112,7," |  7  |   6908       5   6905       0 |   5    0      6807        98 |   1  12    0    0  50f |    2.044       0       5       0       5     12     12      0   6758     147       1  12    0 50f a70f      8.280 "
test,1583576950044579072,9," |  9  |   6908       5   6904       0 |   5    0      6674       230 |   1  12    0    0  50f |    2.044       0       5       0       5     12     12      0   6640     264       1  12    0 50f a70f      8.220 "
