test,1583576737290034176,10," | 10  |   6057       5   6029       0 |   5    0      5932        97 |   2  57    0    0 ce0f |    2.777       0       5       0       5     57     57      0   5857     172       2  57    0ce0f a70f      9.000 "
test,1583576737292322048,12," | 12  |   6057       5   6021      34 |   5    0      5989        66 |   1  15    0    0 820f |    4.058       0       5       0       5     15     15      0   5886     169       4  15    0820f a70f     10.200 "
test,1583576737298661888,13," | 13  |   6057       5   6053       0 |   1    5      6003        50 |   3  15   57    0 820f |    5.554       0       5       0       5     15     15      0   5932     121       6  15    0820f a70f     11.760 "
test,1583576737297224960,15," | 15  |   6057       5   6012      43 |   4    0      5816       239 |   4  15    0    1 820f |    3.814       0       4       0       4     15     15      0   5545     510       5  15    1820f a70f      8.520 "
test,1583576737294850048,16," | 16  |   6057       5   6053       0 |   5    1      5833       220 |   2  57   44    0 ce0f |    2.746       0       5       0       5     57     57      0   5668     385       2  57    0ce0f a70f      8.820 "
test,1583576737289572864,17," | 17  |   6057       5   6045       8 |   5    1      5975        78 |   2  57   44    0 ce0f |    2.746       0       5       0       5     57     57      0   5794     259       2  57    0ce0f a70f      9.000 "
test,1583576737293421056,18," | 18  |   6057       5   6052       0 |   5    1      5726       326 |   2  57   44    0 ce0f |    3.479       0       5       0       5     57     57      0   5491     561       3  57    0ce0f a70f      9.690 "
test,1583576737292668160,19," | 19  |   6057       5   6041      12 |   5    0      5939       114 |   2  57    0    0 ce0f |    2.746       0       5       0       5     57     57      0   5773     280       2  57    0ce0f a70f      8.820 "
test,1583576737294482944,1," |  1  |   6057       4   6054       0 |   5    0      5894       160 |   2  15    0    0 820f |    6.195       0       5       0       5     15     15      0   5853     201       6  15    0820f a70f     12.240 "
test,1583576737291239936,22," | 22  |   6057       5   6051       0 |   5    0      6000        51 |   1  57    0    0 ce0f |    3.509       0       5       0       5     57     57      0   5728     323       3  57    0ce0f a70f      9.690 "
test,1583576737288546048,23," | 23  |   6057       5   5995       0 |   5    0      5970        25 |   1  57    0    0 ce0f |    2.044       0       5       0       5     57     57      0   5852     143       1  57    0ce0f a70f      8.220 "
test,1583576737292485888,24," | 24  |   6057       5   6051       2 |   5    1      5990        63 |   2  57   44    0 ce0f |    3.479       0       5       0       5     57     57      0   5833     220       3  57    0ce0f a70f      9.720 "
test,1583576737294310144,26," | 26  |   6057       5   6051       2 |   5    0      6027        26 |   1  57    0    0 ce0f |    2.746       0       5       0       5     57     57      0   5918     135       2  57    0ce0f a70f      8.790 "
test,1583576737309513984,27," | 27  |   6057       5   6055       0 |   1    8      5882       173 |   1  15   57    0 820f |    0           0       0       0       8      0      0      0   5644     411       0  15    0820f a70f     30.330 "
test,1583576737293869056,28," | 28  |   6057       5   6045       8 |   5    0      5562       491 |   3  57    0    0 ce0f |    3.509       0       5       0       5     57     57      0   5333     720       3  57    0ce0f a70f     10.350 "
test,1583576737309876992,29," | 29  |   6057       3   6046       9 |   1    4      5353       702 |   2  15   57    0 820f |    0           0       0       0       8      0      0      0   5102     953       0  15    0820f a70f     30.390 "
test,1583576737296105984,30," | 30  |   6057       5   6050       3 |   5    0      5969        84 |   2  57    0    0 ce0f |    4.211       0       5       0       5     57     57      0   5750     303       4  57    0ce0f a70f     11.100 "
test,1583576737295262976,35," | 35  |   6057       5   6050       3 |   5    0      5766       287 |   2  57    0    0 ce0f |    4.211       0       5       0       5     57     57      0   5636     417       4  57    0ce0f a70f     10.380 "
test,1583576737307408128,40," | 40  |   6057       5   5975      74 |   5    0      5691       358 |   1  44    0    0 170f |    2.014       0       5       0       5     44     44      0   5546     503       1  44    0170f a70f      8.130 "
test,1583576737292845056,41," | 41  |   6057       5   5984      59 |   5    0      5993        50 |   1  44    0    0 170f |    2.014       0       5       0       5     44     44      0   5850     193       1  44    0170f a70f      8.820 "
test,1583576737292052992,42," | 42  |   6057       5   5991      62 |   5    0      5937       116 |   1  44    0    0 170f |    1.983       0       5       0       5     44     44      0   5809     244       1  44    0170f a70f      8.850 "
test,1583576737294660096,44," | 44  |   6057       5   5996      57 |   5    0      5936       117 |   2  44    0    1 170f |    1.739       0       4       0       4     44     44      0   5823     230       2  44    1170f a70f      7.200 "
test,1583576737289773056,45," | 45  |   6057       5   6010      43 |   5    0      5867       186 |   1  44    0    0 170f |    2.044       0       5       0       5     44     44      0   5759     294       1  44    0170f a70f      8.100 "
test,1583576737289249792,46," | 46  |   6057       5   5989      57 |   5    0      5771       275 |   1  44    0    0 170f |    1.983       0       5       0       5     44     44      0   5672     374       1  44    0170f a70f      8.220 "
test,1583576737291453952,47," | 47  |   6057       5   5996      57 |   5    0      5859       194 |   1  44    0    0 170f |    1.983       0       5       0       5     44     44      0   5760     293       1  44    0170f a70f      8.130 "
test,1583576737290214144,48," | 48  |   6057       5   5931      55 |   4    1      5863       123 |   1  44   57    0 170f |    2.014       0       5       0       5     44     44      0   5759     227       1  44    0170f a70f      8.250 "
test,1583576737303865856,49," | 49  |   6057       5   6047       0 |   5    0      5932       115 |   2  57    0    0 ce0f |    2.746       0       5       0       5     57     57      0   5892     155       2  57    0ce0f a70f      8.910 "
test,1583576737288808960,51," | 51  |   6057       5   6048       0 |   5    0      5982        66 |   1  57    0    0 ce0f |    2.014       0       5       0       5     57     57      0   5963      85       1  57    0ce0f a70f      8.190 "
test,1583576737290683904,52," | 52  |   6057       2   6021      28 |   5    0      5752       297 |   2  57    0    0 ce0f |    2.746       0       5       0       5     57     57      0   5643     406       2  57    0ce0f a70f      8.970 "
test,1583576737299706880,53," | 53  |   6057       5   6031       0 |   5    0      5707       324 |   3  57    0    0 ce0f |    3.479       0       5       0       5     57     57      0   5645     386       3  57    0ce0f a70f      9.660 "
test,1583576737313000960,54," | 54  |   6057       5   6049       0 |   3    1      5946       103 |   2  57   15    0 ce0f |    2.777       0       2       0       2     57     57      0   5852     197       2  57    0ce0f a70f     30.360 "
test,1583576737293240064,55," | 55  |   6057       5   6036       0 |   5    0      5806       230 |   2  57    0    0 ce0f |    2.746       0       5       0       5     57     57      0   5759     277       2  57    0ce0f a70f      8.940 "
test,1583576737292989952,56," | 56  |   6057       5   6039       0 |   5    0      5948        91 |   1  57    0    0 ce0f |    2.044       0       5       0       5     57     57      0   5878     161       1  57    0ce0f a70f      8.970 "
test,1583576737301457920,57," | 57  |   6057       4   5994       0 |   4    0      5843       151 |   7  57    0    1 ce0f |    1.770       0       4       0       4     57     57      0   5479     515       2  57    1ce0f a70f      7.950 "
test,1583576737312563968,58," | 58  |   6057       5   6048       0 |   5    0      5967        81 |   1  57    0    0 ce0f |    2.014       0       4       0       4     57     57      0   5719     329       1  57    0ce0f a70f     30.360 "
test,1583576737294075904,5," |  5  |   6057       5   6055       0 |   5    0      5519       536 |   1  15    0    0 820f |    4.089       0       5       0       5     15     15      0   5412     643       4  15    0820f a70f     10.920 "
test,1583576737295081984,60," | 60  |   6057       5   6048       0 |   5    0      5668       380 |   1  57    0    0 ce0f |    2.014       0       5       0       5     57     57      0   5547     501       1  57    0ce0f a70f      8.880 "
test,1583576737314244096,61," | 61  |   6057       5   6047       0 |   5    0      5774       273 |   1  57    0    0 ce0f |    2.044       0       4       0       4     57     57      0   5573     474       1  57    0ce0f a70f     30.330 "
test,1583576737299479040,7," |  7  |   6057       5   6054       0 |   5    0      5964        90 |   2  15    0    0 820f |    4.791       0       5       0       5     15     15      0   5925     129       5  15    0820f a70f     10.950 "
test,1583576737303625216,9," |  9  |   6057       5   6053       0 |   5    0      5847       206 |   2  15    0    0 820f |    5.554       0       5       0       5     15     15      0   5820     233       6  15    0820f a70f     11.730 "
