test,1583575397013015040,10," | 10  |    696       5    668       0 |   5    0       659         9 |   1  12    0    0 650f |    2.014       0       5       0       5     12     12      0    650      18       1  12    0650f a70f      8.220 "
test,1583575397010256896,12," | 12  |    696       5    694       0 |   5    0       688         6 |   2  12    0    1 650f |    1.739       0       4       0       4     12     12      0    676      18       2  12    1650f a70f      6.510 "
test,1583575397011009024,13," | 13  |    696       5    692       0 |   5    0       684         8 |   1  12    0    0 650f |    2.014       0       5       0       5     12     12      0    675      17       1  12    0650f a70f      8.250 "
test,1583575397012839936,15," | 15  |    696       5    694       0 |   5    0       669        25 |   1  12    0    0 650f |    2.044       0       5       0       5     12     12      0    642      52       1  12    0650f a70f      8.280 "
test,1583575397014245120,16," | 16  |    696       5    692       0 |   4    0       664        28 |   4  17    0    0  40f |    2.746       0       5       0       5     17     17      0    650      42       2  17    0 40f a70f      9.630 "
test,1583575397010016000,17," | 17  |    696       5    692       0 |   4    0       685         7 |   3  17    0    1  40f |    1.739       0       4       0       4     17     17      0    666      26       2  17    1 40f a70f      6.480 "
test,1583575397016267008,18," | 18  |    696       5    691       0 |   5    0       648        43 |   3  17    0    0  40f |    2.777       0       5       0       5     17     17      0    618      73       2  17    0 40f a70f      8.820 "
test,1583575397014054912,19," | 19  |    696       5    691       1 |   5    0       686         6 |   1  17    0    0  40f |    2.014       0       5       0       5     17     17      0    665      27       1  17    0 40f a70f      9.630 "
test,1583575397012228864,1," |  1  |    696       4    693       0 |   5    0       681        12 |   1  12    0    0 650f |    2.685       0       5       0       5     12     12      0    676      17       1  12    0650f a70f      8.820 "
test,1583575397015613952,22," | 22  |    696       5    690       0 |   5    0       684         6 |   2  17    0    0  40f |    2.746       0       5       0       5     17     17      0    651      39       2  17    0 40f a70f      8.940 "
test,1583575397013906944,23," | 23  |    696       5    634       0 |   5    0       630         4 |   1  17    0    0  40f |    2.044       0       5       0       5     17     17      0    623      11       1  17    0 40f a70f      8.970 "
test,1583575397010635008,24," | 24  |    696       5    692       0 |   5    0       687         5 |   2  17    0    0  40f |    2.044       0       5       0       5     17     17      0    673      19       1  17    0 40f a70f      8.130 "
test,1583575397014971904,26," | 26  |    696       5    692       0 |   5    0       689         3 |   1  17    0    0  40f |    1.983       0       5       0       5     17     17      0    678      14       1  17    0 40f a70f      8.910 "
test,1583575397015342080,27," | 27  |    696       5    694       0 |   5    0       678        16 |   1  17    0    0  40f |    2.014       0       5       0       5     17     17      0    651      43       1  17    0 40f a70f      9.690 "
test,1583575397035489024,28," | 28  |    696       5    692       0 |   5    0       634        58 |   1  17    0    0  40f |    2.014       0       4       0       4     17     17      0    619      73       1  17    0 40f a70f     30.390 "
test,1583575397033957888,29," | 29  |    696       5    692       2 |   5    0       614        80 |   2  17    0    0  40f |    2.716       0       2       0       2     17     17      0    580     114       2  17    0 40f a70f     30.360 "
test,1583575397011461888,30," | 30  |    696       5    692       0 |   5    2       685         7 |   1  35   17    0 ca0f |    2.014       0       5       0       5     35     35      0    672      20       1  35    0ca0f a70f      8.130 "
test,1583575397011197952,35," | 35  |    696       5    692       0 |   4    1       662        30 |  17  35   17    1 ca0f |    1.739       0       4       0       4     35     35      0    655      37       2  35    1ca0f a70f      6.480 "
test,1583575397029558016,40," | 40  |    696       4    671      17 |   0    0       632        56 |   0   0    0    0    0 |    0           0       0       0       8      0      0      0    606      82       0   0    0   0 a70f     30.360 "
test,1583575397032360192,41," | 41  |    696       5    664      18 |   5    0       675         7 |   1  42    0    0 430f |    2.044       0       2       0       2     42     42      0    659      23       1  42    0430f a70f     30.360 "
test,1583575397032147968,42," | 42  |    696       5    672      20 |   4    0       666        26 |   5  42    0    1 430f |    1.739       0       1       0       1     42     42      0    647      45       2  42    1430f a70f     30.300 "
test,1583575397032592128,44," | 44  |    696       5    676      16 |   5    0       674        18 |   1  42    0    0 430f |    2.014       0       2       0       2     42     42      0    652      40       1  42    0430f a70f     30.390 "
test,1583575397034159872,45," | 45  |    696       5    680      12 |   5    0       658        34 |   1  42    0    0 430f |    2.014       0       2       0       2     42     42      0    641      51       1  42    0430f a70f     30.390 "
test,1583575397034938112,46," | 46  |    696       5    668      17 |   5    0       658        27 |   1  42    0    0 430f |    2.014       0       2       0       2     42     42      0    644      41       1  42    0430f a70f     30.360 "
test,1583575397033497088,47," | 47  |    696       5    675      17 |   5    0       661        31 |   1  42    0    0 430f |    2.014       0       2       0       2     42     42      0    648      44       1  42    0430f a70f     30.360 "
test,1583575397032998912,48," | 48  |    696       5    610      15 |   5    0       605        20 |   1  42    0    0 430f |    2.044       0       2       0       2     42     42      0    584      41       1  42    0430f a70f     30.360 "
test,1583575397012610048,49," | 49  |    696       5    686       0 |   5    0       674        12 |   2  12    0    0 650f |    2.777       0       5       0       5     12     12      0    670      16       2  12    0650f a70f      8.880 "
test,1583575397011694848,51," | 51  |    696       5    687       0 |   5    0       683         4 |   2  12    0    0 650f |    2.777       0       5       0       5     12     12      0    682       5       2  12    0650f a70f      9.000 "
test,1583575397016035072,52," | 52  |    696       5    682       6 |   5    0       657        31 |   2  17    0    0  40f |    2.716       0       5       0       5     17     17      0    641      47       2  17    0 40f a70f      8.910 "
test,1583575397015182848,53," | 53  |    696       5    670       0 |   5    0       636        34 |   3  12    0    0 650f |    3.509       0       5       0       5     12     12      0    630      40       3  12    0650f a70f      9.600 "
test,1583575397011867904,54," | 54  |    696       5    688       0 |   5    0       680         8 |   1  12    0    0 650f |    2.044       0       5       0       5     12     12      0    663      25       1  12    0650f a70f      8.880 "
test,1583575397016988928,55," | 55  |    696       5    675       0 |   5    0       645        30 |   2  12    0    0 650f |    2.777       0       5       0       5     12     12      0    644      31       2  12    0650f a70f      9.000 "
test,1583575397013697024,56," | 56  |    696       5    678       0 |   5    0       662        16 |   3  12    0    0 650f |    2.777       0       5       0       5     12     12      0    657      21       2  12    0650f a70f      8.910 "
test,1583575397034571008,57," | 57  |    696       5    633       0 |   5    0       610        23 |   2  17    0    0  40f |    2.746       0       1       0       1     17     17      0    574      59       2  17    0 40f a70f     30.360 "
test,1583575397013184000,58," | 58  |    696       4    687       0 |   5    0       678         9 |   1  12    0    0 650f |    2.044       0       5       0       5     12     12      0    660      27       1  12    0650f a70f      8.850 "
test,1583575397016783104,5," |  5  |    696       5    694       0 |   5    0       638        56 |   1  12    0    0 650f |    2.014       0       5       0       5     12     12      0    623      71       1  12    0650f a70f      8.250 "
test,1583575397030010880,60," | 60  |    696       5    687       0 |   0    5       643        44 |   0  60   12    1 bd0f |    0           0       0       0       8      0      0      0    637      50       0  60    1bd0f a70f     30.120 "
test,1583575397017817088,61," | 61  |    696       5    686       0 |   5    0       659        27 |   2  12    0    0 650f |    2.746       0       5       0       5     12     12      0    639      47       2  12    0650f a70f      9.690 "
test,1583575397020514048,7," |  7  |    696       5    693       0 |   5    0       681        12 |   1  12    0    0 650f |    2.044       0       5       0       5     12     12      0    679      14       1  12    0650f a70f      8.280 "
test,1583575397010823936,9," |  9  |    696       5    692       0 |   5    0       664        28 |   1  12    0    0 650f |    2.044       0       5       0       5     12     12      0    660      32       1  12    0650f a70f      8.250 "
