test,1583576902296144896,10," | 10  |   6717       5   6689       0 |   5    0      6580       109 |   2  61    0    0 b90f |    2.807       0       5       0       5     61     61      0   6501     188       2  61    0b90f a70f      9.030 "
test,1583576902296318976,12," | 12  |   6717       5   6681      34 |   5    0      6643        72 |   2  61    0    0 b90f |    3.509       0       5       0       5     61     61      0   6532     183       3  61    0b90f a70f      9.720 "
test,1583576902297963008,13," | 13  |   6717       5   6713       0 |   5    0      6658        55 |   2  61    0    0 b90f |    3.509       0       5       0       5     61     61      0   6585     128       3  61    0b90f a70f      9.720 "
test,1583576902289669120,15," | 15  |   6717       5   6672      43 |   4    0      6446       269 |   3  61    0    0 b90f |    4.211       0       5       0       5     61     61      0   6142     573       4  61    0b90f a70f     10.410 "
test,1583576902295904000,16," | 16  |   6717       5   6713       0 |   5    0      6463       250 |   1  26    0    0 330f |    2.075       0       5       0       5     26     26      0   6288     425       1  26    0330f a70f      8.220 "
test,1583576902295648000,17," | 17  |   6717       5   6704       9 |   4    3      6622        91 |   1  26   22    0 330f |    2.075       0       5       0       5     26     26      0   6424     289       1  26    0330f a70f      8.190 "
test,1583576902314251776,18," | 18  |   6717       5   6712       0 |   5    0      6360       352 |   2  26    0    0 330f |    2.807       0       4       0       4     26     26      0   6096     616       2  26    0330f a70f     30.330 "
test,1583576902299008000,19," | 19  |   6717       5   6700      13 |   4    2      6585       128 |   1  26   22    0 330f |    2.044       0       5       0       5     26     26      0   6403     310       1  26    0330f a70f      8.190 "
test,1583576902287900928,1," |  1  |   6717       4   6714       0 |   5    0      6542       172 |   2  61    0    0 b90f |    3.448       0       5       0       5     61     61      0   6496     218       2  61    0b90f a70f      9.690 "
test,1583576902312937984,22," | 22  |   6717       5   6711       0 |   0    8      6650        61 |   0  22   26    1  50f |    0           0       0       0       8      0      0      0   6346     365       0  22    1 50f a70f     30.120 "
test,1583576902292154112,23," | 23  |   6717       5   6655       0 |   5    0      6628        27 |   1  26    0    0 330f |    2.044       0       5       0       5     26     26      0   6499     156       1  26    0330f a70f      8.160 "
test,1583576902292826880,24," | 24  |   6717       5   6711       2 |   5    0      6639        74 |   1  26    0    0 330f |    2.044       0       5       0       5     26     26      0   6466     247       1  26    0330f a70f      8.280 "
test,1583576902291667968,26," | 26  |   6717       5   6711       2 |   3    4      6685        28 |   5  26   22    1 330f |    1.739       0       4       0       4     26     26      0   6560     153       2  26    1330f a70f      6.510 "
test,1583576902294734080,27," | 27  |   6717       4   6715       0 |   3    0      6520       195 |   2  26    0    0 330f |    2.777       0       5       0       5     26     26      0   6257     458       2  26    0330f a70f      8.970 "
test,1583576902287431936,28," | 28  |   6717       5   6705       8 |   3    2      6175       538 |   4  35   22    0 490f |    2.075       0       5       0       5     35     35      0   5916     797       1  35    0490f a70f      8.130 "
test,1583576902302379008,29," | 29  |   6717       1   6706       9 |   4    0      5928       787 |   2  26    0    0 330f |    2.777       0       5       0       5     26     26      0   5649    1066       2  26    0330f a70f      8.820 "
test,1583576902291915008,30," | 30  |   6717       5   6710       3 |   5    0      6624        89 |   4  35    0    0 490f |    2.044       0       5       0       5     35     35      0   6382     331       1  35    0490f a70f      8.250 "
test,1583576902294159872,35," | 35  |   6717       5   6710       3 |   4    0      6401       312 |   5  35    0    1 490f |    1.739       0       4       0       4     35     35      0   6254     459       2  35    1490f a70f      6.480 "
test,1583576902303206912,40," | 40  |   6717       4   6635      74 |   5    0      6323       386 |   4  26    0    0 330f |    5.706       0       5       0       5     26     26      0   6163     546       6  26    0330f a70f     15.450 "
test,1583576902298820864,41," | 41  |   6717       5   6644      59 |   5    0      6646        57 |   3  26    0    0 330f |    5.676       0       5       0       5     26     26      0   6485     218       6  26    0330f a70f     13.290 "
test,1583576902303670784,42," | 42  |   6717       5   6651      62 |   5    0      6591       122 |   3  26    0    0 330f |    5.706       0       5       0       5     26     26      0   6446     267       6  26    0330f a70f     14.580 "
test,1583576902300020992,44," | 44  |   6717       5   6656      57 |   5    0      6589       124 |   1  26    0    0 330f |    5.706       0       5       0       5     26     26      0   6457     256       6  26    0330f a70f     12.600 "
test,1583576902301688064,45," | 45  |   6717       5   6670      43 |   5    0      6513       200 |   2  26    0    0 330f |    5.676       0       5       0       5     26     26      0   6392     321       6  26    0330f a70f     13.110 "
test,1583576902300627968,46," | 46  |   6717       5   6649      57 |   5    0      6396       310 |   2  26    0    0 330f |    6.439       0       5       0       5     26     26      0   6288     418       7  26    0330f a70f     13.830 "
test,1583576902297689088,47," | 47  |   6717       5   6656      57 |   4    0      6499       214 |   2  26    0    0 330f |    6.439       0       5       0       5     26     26      0   6383     330       7  26    0330f a70f     12.600 "
test,1583576902299879168,48," | 48  |   6717       5   6591      55 |   5    0      6513       133 |   3  26    0    0 330f |    6.439       0       5       0       5     26     26      0   6388     258       7  26    0330f a70f     14.730 "
test,1583576902293355008,49," | 49  |   6717       5   6707       0 |   5    0      6577       130 |   1  55    0    0 680f |    2.044       0       5       0       5     55     55      0   6530     177       1  55    0680f a70f      8.220 "
test,1583576902295399936,51," | 51  |   6717       5   6708       0 |   5    0      6633        75 |  12  61    0    0 b90f |    2.807       0       5       0       5     61     61      0   6609      99       2  61    0b90f a70f      9.000 "
test,1583576902293732864,52," | 52  |   6717       3   6681      28 |   5    0      6370       339 |   1  26    0    0 330f |    2.075       0       5       0       5     26     26      0   6251     458       1  26    0330f a70f      8.850 "
test,1583576902298609920,53," | 53  |   6717       5   6691       0 |   5    0      6336       355 |   1  55    0    0 680f |    2.044       0       5       0       5     55     55      0   6268     423       1  55    0680f a70f      8.190 "
test,1583576902292377856,54," | 54  |   6717       5   6709       0 |   5    0      6596       113 |   1  61    0    0 b90f |    2.044       0       5       0       5     61     61      0   6491     218       1  61    0b90f a70f      8.160 "
test,1583576902291352064,55," | 55  |   6717       5   6696       0 |   4    0      6442       254 |   2  55    0    1 680f |    1.739       0       4       0       4     55     55      0   6387     309       2  55    1680f a70f      6.480 "
test,1583576902293104896,56," | 56  |   6717       5   6699       0 |   5    4      6598       101 |   1  61   26    0 b90f |    2.044       0       5       0       5     61     61      0   6516     183       1  61    0b90f a70f      8.250 "
test,1583576902315282944,57," | 57  |   6717       5   6654       0 |   5    0      6481       173 |   1  26    0    0 330f |    2.044       0       4       0       4     26     26      0   6061     593       1  26    0330f a70f     30.210 "
test,1583576902314573056,58," | 58  |   6717       5   6708       0 |   5    7      6620        88 |   1  61   55    0 b90f |    2.044       0       2       0       2     61     61      0   6348     360       1  61    0b90f a70f     30.330 "
test,1583576902296986112,5," |  5  |   6717       5   6715       0 |   5    0      6113       602 |   3  61    0    0 b90f |    4.241       0       5       0       5     61     61      0   5994     721       4  61    0b90f a70f     10.260 "
test,1583576902313965056,60," | 60  |   6717       5   6708       0 |   5    0      6286       422 |   2  26    0    0 330f |    2.777       0       4       0       4     26     26      0   6150     558       2  26    0330f a70f     30.360 "
test,1583576902315685120,61," | 61  |   6717       5   6703       4 |   4    0      6405       302 |   2  61    0    1 b90f |    1.739       0       3       0       3     61     61      0   6181     526       2  61    1b90f a70f     30.300 "
test,1583576902295197952,7," |  7  |   6717       5   6714       0 |   5    0      6620        94 |   2  61    0    0 b90f |    2.746       0       5       0       5     61     61      0   6574     140       2  61    0b90f a70f      8.850 "
test,1583576902294321920,9," |  9  |   6717       5   6713       0 |   5    0      6486       227 |   2  61    0    0 b90f |    2.746       0       5       0       5     61     61      0   6455     258       2  61    0b90f a70f      8.940 "
