test,1583575391514436096,10," | 10  |    674       5    646       0 |   5    0       637         9 |   2  60    0    0 1c0f |    2.746       0       5       0       5     60     60      0    629      17       2  60    01c0f a70f      9.570 "
test,1583575391520813824,12," | 12  |    674       5    672       0 |   5    0       666         6 |   3  60    0    0 1c0f |    3.448       0       5       0       5     60     60      0    654      18       3  60    01c0f a70f      9.660 "
test,1583575391512022016,13," | 13  |    674       5    670       0 |   5    0       662         8 |   2  60    0    0 1c0f |    2.777       0       5       0       5     60     60      0    654      16       2  60    01c0f a70f      9.690 "
test,1583575391516817152,15," | 15  |    674       5    672       0 |   5    0       647        25 |   4  60    0    0 1c0f |    4.211       0       5       0       5     60     60      0    621      51       4  60    01c0f a70f     10.380 "
test,1583575391511388160,16," | 16  |    674       5    670       0 |   5    0       642        28 |   1  23    0    0 180f |    2.014       0       5       0       5     23     23      0    628      42       1  23    0180f a70f      8.280 "
test,1583575391531390976,17," | 17  |    674       5    670       0 |   5    8       663         7 |   1  19   23    0 280f |    2.014       0       2       0       2     19     19      0    644      26       1  19    0280f a70f     30.390 "
test,1583575391517543168,18," | 18  |    674       5    669       0 |   5    0       626        43 |   5  23    0    0 180f |    2.746       0       5       0       5     23     23      0    597      72       2  23    0180f a70f      9.570 "
test,1583575391531725824,19," | 19  |    674       5    669       1 |   4    8       664         6 |   5  19   23    1 280f |    1.770       0       1       0       1     19     19      0    643      27       2  19    1280f a70f     30.300 "
test,1583575391513569024,1," |  1  |    674       4    671       0 |   5    0       659        12 |   2  60    0    0 1c0f |    3.417       0       5       0       5     60     60      0    654      17       2  60    01c0f a70f      9.630 "
test,1583575391511224064,22," | 22  |    674       5    668       0 |   5    0       662         6 |   4  23    0    0 180f |    2.044       0       5       0       5     23     23      0    630      38       1  23    0180f a70f      8.820 "
test,1583575391513235968,23," | 23  |    674       5    612       0 |   5    0       608         4 |   5  23    0    1 180f |    1.739       0       4       0       4     23     23      0    601      11       2  23    1180f a70f      6.480 "
test,1583575391512871936,24," | 24  |    674       5    670       0 |   5    0       665         5 |   4  23    0    0 180f |    2.746       0       5       0       5     23     23      0    652      18       2  23    0180f a70f      8.880 "
test,1583575391510364928,26," | 26  |    674       5    670       0 |   5    0       667         3 |   4  23    0    0 180f |    2.044       0       5       0       5     23     23      0    656      14       1  23    0180f a70f      8.190 "
test,1583575391533250048,27," | 27  |    674       4    672       0 |   5    0       656        16 |   4  23    0    0 180f |    4.943       0       3       0       3     23     23      0    629      43       5  23    0180f a70f     30.390 "
test,1583575391516988928,28," | 28  |    674       4    670       0 |   5    0       613        57 |   1  19    0    0 280f |    2.777       0       5       0       5     19     19      0    598      72       2  19    0280f a70f     10.410 "
test,1583575391534075136,29," | 29  |    674       4    670       2 |   5    3       596        76 |   1  19   23    0 280f |    2.044       0       2       0       2     19     19      0    562     110       1  19    0280f a70f     30.300 "
test,1583575391519501056,30," | 30  |    674       5    670       0 |   5    0       664         6 |   2  19    0    0 280f |    3.509       0       5       0       5     19     19      0    651      19       3  19    0280f a70f      9.600 "
test,1583575391516526080,35," | 35  |    674       5    670       0 |   5    0       640        30 |   3  19    0    0 280f |    4.180       0       5       0       5     19     19      0    633      37       4  19    0280f a70f     10.230 "
test,1583575391515005952,40," | 40  |    674       5    651      15 |   4    3       615        51 |   1  44   23    0 950f |    2.014       0       5       0       5     44     44      0    589      77       1  44    0950f a70f      8.940 "
test,1583575391510859008,41," | 41  |    674       5    644      16 |   5    5       653         7 |   1  44   23    0 950f |    2.014       0       5       0       5     44     44      0    638      22       1  44    0950f a70f      8.100 "
test,1583575391516318976,42," | 42  |    674       5    652      18 |   5    4       645        25 |   1  44   23    0 950f |    1.983       0       5       0       5     44     44      0    626      44       1  44    0950f a70f      9.570 "
test,1583575391513374208,44," | 44  |    674       5    656      14 |   4    6       652        18 |   5  44   23    1 950f |    1.739       0       4       0       4     44     44      0    632      38       2  44    1950f a70f      7.920 "
test,1583575391512350976,45," | 45  |    674       5    660      10 |   5    2       636        34 |   1  44   23    0 950f |    2.044       0       5       0       5     44     44      0    620      50       1  44    0950f a70f      8.850 "
test,1583575391519869184,46," | 46  |    674       5    648      15 |   5    0       638        25 |   1  44    0    0 950f |    2.746       0       5       0       5     44     44      0    624      39       2  44    0950f a70f      8.850 "
test,1583575391518234112,47," | 47  |    674       5    655      15 |   5    4       641        29 |   1  44   23    0 950f |    1.953       0       5       0       5     44     44      0    630      40       1  44    0950f a70f      8.880 "
test,1583575391515598080,48," | 48  |    674       5    590      13 |   4    4       583        20 |   1  44   23    0 950f |    2.014       0       5       0       5     44     44      0    563      40       1  44    0950f a70f      8.910 "
test,1583575391515415808,49," | 49  |    674       5    664       0 |   5    0       652        12 |   4  60    0    0 1c0f |    3.479       0       5       0       5     60     60      0    648      16       3  60    01c0f a70f      9.690 "
test,1583575391511569920,51," | 51  |    674       5    665       0 |   5    0       661         4 |   1  60    0    0 1c0f |    2.014       0       5       0       5     60     60      0    660       5       1  60    01c0f a70f      8.250 "
test,1583575391515248128,52," | 52  |    674       1    660       6 |   5    0       635        31 |   4  23    0    0 180f |    2.014       0       5       0       5     23     23      0    619      47       1  23    0180f a70f      8.940 "
test,1583575391514790912,53," | 53  |    674       5    648       0 |   5    0       615        33 |   4  60    0    0 1c0f |    4.211       0       5       0       5     60     60      0    609      39       4  60    01c0f a70f     10.260 "
test,1583575391512538880,54," | 54  |    674       5    666       0 |   5    0       659         7 |   3  60    0    0 1c0f |    3.479       0       5       0       5     60     60      0    642      24       3  60    01c0f a70f      9.600 "
test,1583575391514189056,55," | 55  |    674       5    653       0 |   5    0       624        29 |   4  60    0    0 1c0f |    3.479       0       5       0       5     60     60      0    623      30       3  60    01c0f a70f      9.690 "
test,1583575391511742976,56," | 56  |    674       5    656       0 |   5    0       640        16 |   1  60    0    0 1c0f |    2.014       0       5       0       5     60     60      0    635      21       1  60    01c0f a70f      8.250 "
test,1583575391535192064,57," | 57  |    674       5    611       0 |   1   10       589        22 |   1  60   23    0 1c0f |   10.803       0       1       0       1     60     60      0    555      56      13  60    01c0f a70f     30.360 "
test,1583575391533579008,58," | 58  |    674       5    665       0 |   5    0       656         9 |   3  60    0    0 1c0f |    2.777       0       4       0       4     60     60      0    638      27       2  60    01c0f a70f     30.300 "
test,1583575391516099840,5," |  5  |    674       5    672       0 |   5    0       618        54 |   3  60    0    0 1c0f |    3.479       0       5       0       5     60     60      0    604      68       3  60    01c0f a70f     10.290 "
test,1583575391510683136,60," | 60  |    674       5    665       0 |   4    0       624        41 |   2  60    0    1 1c0f |    1.739       0       4       0       4     60     60      0    618      47       2  60    11c0f a70f      6.480 "
test,1583575391520421888,61," | 61  |    674       5    664       0 |   5    0       637        27 |   4  60    0    0 1c0f |    2.777       0       5       0       5     60     60      0    617      47       2  60    01c0f a70f     10.230 "
test,1583575391513047040,7," |  7  |    674       5    671       0 |   5    0       659        12 |   2  60    0    0 1c0f |    2.777       0       5       0       5     60     60      0    657      14       2  60    01c0f a70f      9.000 "
test,1583575391522564864,9," |  9  |    674       5    670       0 |   5    0       642        28 |   3  60    0    0 1c0f |    3.479       0       5       0       5     60     60      0    639      31       3  60    01c0f a70f      9.660 "
