test,1583576896562299904,10," | 10  |   6694       5   6666       0 |   1    5      6557       109 |  13   7    1    0  b0f |    2.075       0       3       0       3      7      7      0   6478     188       1   7    0 b0f a70f     30.300 "
test,1583576896541886208,12," | 12  |   6694       5   6658      34 |   5    0      6621        71 |   1   7    0    0  b0f |    2.014       0       5       0       5      7      7      0   6510     182       1   7    0 b0f a70f      8.250 "
test,1583576896563961856,13," | 13  |   6694       5   6690       0 |   5    0      6635        55 |   4   7    0    0  b0f |    1.983       0       4       0       4      7      7      0   6562     128       1   7    0 b0f a70f     30.360 "
test,1583576896548836864,15," | 15  |   6694       5   6649      43 |   5    0      6423       269 |   2   7    0    0  b0f |    2.807       0       5       0       5      7      7      0   6120     572       2   7    0 b0f a70f      8.910 "
test,1583576896549031936,16," | 16  |   6694       5   6690       0 |   5    0      6441       249 |   1  17    0    0 640f |    2.014       0       5       0       5     17     17      0   6266     424       1  17    0640f a70f      8.190 "
test,1583576896541134080,17," | 17  |   6694       5   6681       9 |   4    0      6599        91 |   2  17    0    1 640f |    1.739       0       4       0       4     17     17      0   6401     289       2  17    1640f a70f      6.510 "
test,1583576896547052032,18," | 18  |   6694       5   6689       0 |   5    0      6338       351 |   2  17    0    0 640f |    2.746       0       5       0       5     17     17      0   6074     615       2  17    0640f a70f      8.880 "
test,1583576896550477056,19," | 19  |   6694       5   6677      13 |   5    0      6563       127 |   1  17    0    0 640f |    1.983       0       5       0       5     17     17      0   6381     309       1  17    0640f a70f      8.070 "
test,1583576896561597184,1," |  1  |   6694       4   6691       0 |   0   11      6520       171 |   0   1    7    1 820f |    0           0       0       0       8      0      0      0   6474     217       0   1    1820f a70f     30.210 "
test,1583576896543072000,22," | 22  |   6694       5   6688       0 |   5    0      6628        60 |   3  17    0    0 640f |    1.983       0       5       0       5     17     17      0   6325     363       1  17    0640f a70f      8.760 "
test,1583576896546208000,23," | 23  |   6694       5   6632       0 |   5    0      6605        27 |   1  17    0    0 640f |    1.983       0       5       0       5     17     17      0   6476     156       1  17    0640f a70f      8.910 "
test,1583576896542915072,24," | 24  |   6694       5   6688       2 |   5    0      6616        74 |   1  17    0    0 640f |    1.953       0       5       0       5     17     17      0   6444     246       1  17    0640f a70f      8.940 "
test,1583576896541528832,26," | 26  |   6694       5   6688       2 |   5    0      6662        28 |   1  17    0    0 640f |    2.014       0       5       0       5     17     17      0   6537     153       1  17    0640f a70f      8.250 "
test,1583576896571352064,27," | 27  |   6694       5   6692       0 |   5    0      6497       195 |   1  17    0    0 640f |    2.716       0       4       0       4     17     17      0   6236     456       2  17    0640f a70f     30.360 "
test,1583576896549796096,28," | 28  |   6694       5   6682       8 |   5    0      6153       537 |   1  17    0    0 640f |    2.014       0       5       0       5     17     17      0   5895     795       1  17    0640f a70f      8.220 "
test,1583576896563287040,29," | 29  |   6694       4   6683       9 |   0    1      5907       785 |   0  29   17    1 260f |    0           0       0       0       8      0      0      0   5630    1062       0  29    1260f a70f     30.180 "
test,1583576896544715776,30," | 30  |   6694       5   6687       3 |   5    0      6601        89 |   7  17    0    0 640f |    2.746       0       5       0       5     17     17      0   6360     330       2  17    0640f a70f      8.940 "
test,1583576896546489856,35," | 35  |   6694       5   6687       3 |   5    0      6379       311 |   4  17    0    0 640f |    2.716       0       5       0       5     17     17      0   6232     458       2  17    0640f a70f      9.540 "
test,1583576896565951232,40," | 40  |   6694       5   6612      74 |   4    0      6300       386 |   3  48    0    0 bc0f |    2.044       0       4       0       4     48     48      0   6140     546       1  48    0bc0f a70f     30.360 "
test,1583576896566747904,41," | 41  |   6694       5   6621      59 |   1    0      6624        56 |   8  48    0    0 bc0f |    2.044       0       4       0       4     48     48      0   6463     217       1  48    0bc0f a70f     30.390 "
test,1583576896565513984,42," | 42  |   6694       5   6628      62 |   5    0      6568       122 |   1  48    0    0 bc0f |    2.044       0       4       0       4     48     48      0   6424     266       1  48    0bc0f a70f     30.360 "
test,1583576896567128064,44," | 44  |   6694       5   6633      57 |   5    0      6567       123 |   1  48    0    0 bc0f |    2.044       0       4       0       4     48     48      0   6434     256       1  48    0bc0f a70f     30.330 "
test,1583576896565321984,45," | 45  |   6694       5   6647      43 |   5    0      6490       200 |   1  48    0    0 bc0f |    2.044       0       4       0       4     48     48      0   6369     321       1  48    0bc0f a70f     30.330 "
test,1583576896565742848,46," | 46  |   6694       5   6626      57 |   4    0      6378       305 |   2  48    0    0 bc0f |    2.044       0       4       0       4     48     48      0   6270     413       1  48    0bc0f a70f     30.240 "
test,1583576896565051136,47," | 47  |   6694       5   6633      57 |   5    0      6477       213 |   1  48    0    0 bc0f |    2.014       0       4       0       4     48     48      0   6361     329       1  48    0bc0f a70f     30.330 "
test,1583576896566941952,48," | 48  |   6694       5   6568      55 |   4    0      6491       132 |   2  48    0    1 bc0f |    1.770       0       3       0       3     48     48      0   6366     257       2  48    1bc0f a70f     30.300 "
test,1583576896543778816,49," | 49  |   6694       5   6684       0 |   5    0      6554       130 |   1  55    0    0 960f |    2.044       0       5       0       5     55     55      0   6507     177       1  55    0960f a70f      9.000 "
test,1583576896547776000,51," | 51  |   6694       5   6685       0 |   5    0      6610        75 |   3  55    0    0 960f |    4.974       0       5       0       5     55     55      0   6586      99       5  55    0960f a70f     11.160 "
test,1583576896544208896,52," | 52  |   6694       5   6658      28 |   5    0      6347       339 |   2  17    0    0 640f |    2.746       0       5       0       5     17     17      0   6228     458       2  17    0640f a70f      8.940 "
test,1583576896545335040,53," | 53  |   6694       5   6668       0 |   5    0      6315       353 |   1  55    0    0 960f |    2.014       0       5       0       5     55     55      0   6247     421       1  55    0960f a70f      8.070 "
test,1583576896563697152,54," | 54  |   6694       5   6686       0 |   5    0      6573       113 |   4   7    0    0  b0f |    2.075       0       2       0       2      7      7      0   6468     218       1   7    0 b0f a70f     30.360 "
test,1583576896541356032,55," | 55  |   6694       5   6673       0 |   4    0      6420       253 |   2  55    0    1 960f |    1.770       0       4       0       4     55     55      0   6365     308       2  55    1960f a70f      6.510 "
test,1583576896545800960,56," | 56  |   6694       5   6676       0 |   5    0      6576       100 |   2  55    0    0 960f |    4.241       0       5       0       5     55     55      0   6494     182       4  55    0960f a70f     10.440 "
test,1583576896544955136,57," | 57  |   6694       5   6631       0 |   5    0      6458       173 |   2  17    0    0 640f |    2.716       0       5       0       5     17     17      0   6039     592       2  17    0640f a70f      8.850 "
test,1583576896544560896,58," | 58  |   6694       5   6685       0 |   5    0      6597        88 |   1  55    0    0 960f |    2.014       0       5       0       5     55     55      0   6326     359       1  55    0960f a70f      8.970 "
test,1583576896542393856,5," |  5  |   6694       5   6692       0 |   5    0      6096       596 |   2   7    0    0  b0f |    2.777       0       5       0       5      7      7      0   5977     715       2   7    0 b0f a70f      8.970 "
test,1583576896567631104,60," | 60  |   6694       5   6685       0 |   3    0      6263       422 |   3  17    0    0 640f |    4.943       0       3       0       3     17     17      0   6127     558       5  17    0640f a70f     30.330 "
test,1583576896551757056,61," | 61  |   6694       5   6680       4 |   3    1      6382       302 |   2  55    7    0 960f |    2.777       0       5       0       5     55     55      0   6159     525       2  55    0960f a70f      9.720 "
test,1583576896542195200,7," |  7  |   6694       5   6691       0 |   4    0      6597        94 |   5   7    0    1  b0f |    1.739       0       4       0       4      7      7      0   6551     140       2   7    1 b0f a70f      7.920 "
test,1583576896562597888,9," |  9  |   6694       5   6690       0 |   5    0      6464       226 |   4   7    0    0  b0f |    2.014       0       4       0       4      7      7      0   6433     257       1   7    0 b0f a70f     30.360 "
