test,1583576828041882880,10," | 10  |   6420       5   6392       0 |   5    0      6290       102 |   1   1    0    0 220f |    1.373       0       5       0       5      1      1      0   6211     181       1   1    0220f a70f      7.620 "
test,1583576828041487872,12," | 12  |   6420       5   6384      34 |   5    0      6348        70 |   1   1    0    0 220f |    1.373       0       5       0       5      1      1      0   6238     180       1   1    0220f a70f      8.340 "
test,1583576828039223040,13," | 13  |   6420       5   6416       0 |   5    0      6365        51 |   1   1    0    0 220f |    1.342       0       5       0       5      1      1      0   6291     125       1   1    0220f a70f      7.560 "
test,1583576828046711808,15," | 15  |   6420       5   6375      43 |   5    0      6163       255 |   2   1    0    0 220f |    2.075       0       5       0       5      1      1      0   5877     541       2   1    0220f a70f      9.030 "
test,1583576828045218048,16," | 16  |   6420       5   6416       0 |   5    0      6180       236 |   1  23    0    0 c60f |    1.983       0       5       0       5     23     23      0   6012     404       1  23    0c60f a70f      9.690 "
test,1583576828063657984,17," | 17  |   6420       5   6408       8 |   1    5      6328        88 |   4  19   23    0 260f |    2.014       0       2       0       2     19     19      0   6138     278       1  19    0260f a70f     30.360 "
test,1583576828043458816,18," | 18  |   6420       5   6415       0 |   4    0      6077       338 |   5  23    0    0 c60f |    2.746       0       5       0       5     23     23      0   5819     596       2  23    0c60f a70f      8.940 "
test,1583576828065032960,19," | 19  |   6420       5   6404      12 |   1    4      6293       123 |   5  19   23    1 260f |    1.739       0       2       0       2     19     19      0   6117     299       2  19    1260f a70f     30.300 "
test,1583576828038800896,1," |  1  |   6420       4   6417       0 |   4    0      6254       163 |   2   1    0    1 220f |    1.770       0       4       0       4      1      1      0   6209     208       2   1    1220f a70f      6.510 "
test,1583576828042496000,22," | 22  |   6420       5   6414       0 |   5    0      6359        55 |   5  23    0    0 c60f |    1.983       0       5       0       5     23     23      0   6068     346       1  23    0c60f a70f      8.910 "
test,1583576828052920064,23," | 23  |   6420       5   6358       0 |   5    0      6332        26 |   2  23    0    1 c60f |    1.770       0       4       0       4     23     23      0   6206     152       2  23    1c60f a70f      6.510 "
test,1583576828044704000,24," | 24  |   6420       5   6414       2 |   5    0      6348        68 |   5  23    0    0 c60f |    2.746       0       5       0       5     23     23      0   6182     234       2  23    0c60f a70f      8.970 "
test,1583576828049624832,26," | 26  |   6420       5   6414       2 |   5    0      6388        28 |   4  23    0    0 c60f |    1.983       0       5       0       5     23     23      0   6269     147       1  23    0c60f a70f      8.220 "
test,1583576828063838976,27," | 27  |   6420       5   6418       0 |   2    3      6236       182 |   1  19   23    0 260f |    2.777       0       1       0       1     19     19      0   5985     433       2  19    0260f a70f     30.360 "
test,1583576828063447040,28," | 28  |   6420       4   6408       8 |   3    1      5898       518 |   3  30   23    0 170f |    2.014       0       4       0       4     30     30      0   5655     761       1  30    0170f a70f     30.300 "
test,1583576828063121152,29," | 29  |   6420       5   6409       9 |   1    0      5675       743 |   1  19    0    0 260f |    2.044       0       3       0       3     19     19      0   5412    1006       1  19    0260f a70f     30.300 "
test,1583576828041063168,30," | 30  |   6420       5   6413       3 |   4    0      6330        86 |   2  30    0    1 170f |    1.739       0       4       0       4     30     30      0   6097     319       2  30    1170f a70f      6.510 "
test,1583576828043036928,35," | 35  |   6420       5   6413       3 |   5    0      6120       296 |   1  30    0    0 170f |    2.014       0       5       0       5     30     30      0   5980     436       1  30    0170f a70f      8.220 "
test,1583576828045003008,40," | 40  |   6420       5   6338      74 |   3    0      6037       375 |   4  48    0    0 e30f |    2.014       0       5       0       5     48     48      0   5885     527       1  48    0e30f a70f      8.940 "
test,1583576828042731008,41," | 41  |   6420       5   6347      59 |   4    1      6353        53 |   1  48   23    0 e30f |    2.716       0       5       0       5     48     48      0   6196     210       2  48    0e30f a70f      9.660 "
test,1583576828050755072,42," | 42  |   6420       5   6354      62 |   4    3      6295       121 |   1  48   23    0 e30f |    2.716       0       5       0       5     48     48      0   6157     259       2  48    0e30f a70f      8.820 "
test,1583576828046978048,44," | 44  |   6420       5   6359      57 |   4    6      6296       120 |   1  48   23    0 e30f |    2.777       0       5       0       5     48     48      0   6172     244       2  48    0e30f a70f      9.630 "
test,1583576828055057152,45," | 45  |   6420       5   6373      43 |   4    1      6222       194 |   1  48   23    0 e30f |    3.509       0       5       0       5     48     48      0   6104     312       3  48    0e30f a70f      9.600 "
test,1583576828054014976,46," | 46  |   6420       5   6352      57 |   4    0      6121       288 |   1  48    0    0 e30f |    1.983       0       5       0       5     48     48      0   6015     394       1  48    0e30f a70f      8.190 "
test,1583576828050564096,47," | 47  |   6420       5   6359      57 |   4    2      6210       206 |   1  48   23    0 e30f |    2.014       0       5       0       5     48     48      0   6099     317       1  48    0e30f a70f      8.250 "
test,1583576828050349056,48," | 48  |   6420       5   6294      55 |   3    3      6222       127 |   5  48   23    1 e30f |    1.770       0       4       0       4     48     48      0   6105     244       2  48    1e30f a70f      7.230 "
test,1583576828041695232,49," | 49  |   6420       5   6410       0 |   5    0      6284       126 |   3   1    0    0 220f |    2.807       0       5       0       5      1      1      0   6240     170       3   1    0220f a70f      9.030 "
test,1583576828039887872,51," | 51  |   6420       5   6411       0 |   5    0      6342        69 |   1   1    0    0 220f |    1.342       0       5       0       5      1      1      0   6319      92       1   1    0220f a70f      7.590 "
test,1583576828044555008,52," | 52  |   6420       5   6384      28 |   5    0      6088       324 |   1  23    0    0 c60f |    2.014       0       5       0       5     23     23      0   5975     437       1  23    0c60f a70f      8.940 "
test,1583576828043943936,53," | 53  |   6420       5   6394       0 |   5    0      6055       339 |   4   1    0    0 220f |    3.509       0       5       0       5      1      1      0   5989     405       4   1    0220f a70f      9.750 "
test,1583576828046502144,54," | 54  |   6420       5   6412       0 |   5    0      6305       107 |   2   1    0    0 220f |    1.342       0       5       0       5      1      1      0   6200     212       1   1    0220f a70f      8.310 "
test,1583576828043720960,55," | 55  |   6420       5   6399       0 |   5    0      6158       241 |   3   1    0    0 220f |    2.807       0       5       0       5      1      1      0   6106     293       3   1    0220f a70f      9.000 "
test,1583576828046307072,56," | 56  |   6420       5   6402       0 |   5    0      6304        98 |   2   1    0    0 220f |    2.105       0       5       0       5      1      1      0   6227     175       2   1    0220f a70f      8.310 "
test,1583576828061234944,57," | 57  |   6420       4   6357       0 |   5    0      6192       165 |   3   1    0    0 220f |    0           0       0       0       8      0      0      0   5795     562       0   1    0220f a70f     30.360 "
test,1583576828045964032,58," | 58  |   6420       5   6411       0 |   5    0      6324        87 |   2   1    0    0 220f |    2.105       0       5       0       5      1      1      0   6063     348       2   1    0220f a70f      8.340 "
test,1583576828040445952,5," |  5  |   6420       5   6418       0 |   5    0      5849       569 |   2   1    0    0 220f |    2.075       0       5       0       5      1      1      0   5736     682       2   1    0220f a70f      8.190 "
test,1583576828045425920,60," | 60  |   6420       5   6411       0 |   5    0      6014       397 |   2   1    0    0 220f |    2.075       0       5       0       5      1      1      0   5885     526       2   1    0220f a70f      8.280 "
test,1583576828044139008,61," | 61  |   6420       5   6406       4 |   5    0      6113       297 |   3   1    0    0 220f |    2.105       0       5       0       5      1      1      0   5900     510       2   1    0220f a70f      8.880 "
test,1583576828039014144,7," |  7  |   6420       5   6417       0 |   5    0      6327        90 |   1   1    0    0 220f |    1.373       0       5       0       5      1      1      0   6283     134       1   1    0220f a70f      7.620 "
test,1583576828040844032,9," |  9  |   6420       5   6416       0 |   5    0      6202       214 |   2   1    0    0 220f |    1.312       0       5       0       5      1      1      0   6171     245       1   1    0220f a70f      7.590 "
