test,1583576792292583936,10," | 10  |   6277       5   6249       0 |   5    0      6150        99 |   1   7    0    0  40f |    2.044       0       5       0       5      7      7      0   6072     177       1   7    0 40f a70f      9.750 "
test,1583576792289378048,12," | 12  |   6277       5   6241      34 |   5    0      6207        68 |   1   7    0    0  40f |    2.075       0       5       0       5      7      7      0   6100     175       1   7    0 40f a70f      8.220 "
test,1583576792290127104,13," | 13  |   6277       5   6273       0 |   5    0      6222        51 |   1   7    0    0  40f |    2.044       0       5       0       5      7      7      0   6149     124       1   7    0 40f a70f      8.250 "
test,1583576792294366976,15," | 15  |   6277       5   6232      43 |   5    0      6029       246 |   2   7    0    0  40f |    2.777       0       5       0       5      7      7      0   5750     525       2   7    0 40f a70f      9.030 "
test,1583576792309807104,16," | 16  |   6277       5   6273       0 |   0    2      6048       225 |   0  16   24    1 2a0f |    0           0       0       0       8      0      0      0   5882     391       0  16    12a0f a70f     30.120 "
test,1583576792290949120,17," | 17  |   6277       5   6265       8 |   4    4      6188        85 |   1  24   16    0 150f |    2.044       0       5       0       5     24     24      0   6004     269       1  24    0150f a70f      8.160 "
test,1583576792298105856,18," | 18  |   6277       5   6272       0 |   4    3      5937       335 |  20  18   24    1 d50f |   10.284       0       4       0       4     18     18      0   5688     584      14  18    1d50f a70f     14.820 "
test,1583576792294693120,19," | 19  |   6277       5   6261      12 |   5    0      6152       121 |   2  24    0    0 150f |    2.777       0       5       0       5     24     24      0   5984     289       2  24    0150f a70f     10.320 "
test,1583576792290396928,1," |  1  |   6277       4   6274       0 |   5    0      6111       163 |   1   7    0    0  40f |    2.746       0       5       0       5      7      7      0   6067     207       1   7    0 40f a70f      8.850 "
test,1583576792315761152,22," | 22  |   6277       5   6271       0 |   4    6      6218        53 |   2  24   18    0 150f |    2.746       0       3       0       3     24     24      0   5936     335       2  24    0150f a70f     30.360 "
test,1583576792312257024,23," | 23  |   6277       5   6215       0 |   3   10      6190        25 |   1  24   16    0 150f |    2.777       0       4       0       4     24     24      0   6068     147       2  24    0150f a70f     30.330 "
test,1583576792289078016,24," | 24  |   6277       5   6271       2 |   4    0      6206        67 |   2  24    0    1 150f |    1.739       0       4       0       4     24     24      0   6046     227       2  24    1150f a70f      6.510 "
test,1583576792291202048,26," | 26  |   6277       5   6271       2 |   5    0      6247        26 |   1  24    0    0 150f |    2.044       0       5       0       5     24     24      0   6132     141       1  24    0150f a70f      8.100 "
test,1583576792296231936,27," | 27  |   6277       5   6275       0 |   2    6      6097       178 |   4  24   29    0 150f |    2.746       0       5       0       5     24     24      0   5855     420       2  24    0150f a70f     11.640 "
test,1583576792294186240,28," | 28  |   6277       4   6265       8 |   5    0      5765       508 |   2  24    0    0 150f |    2.777       0       5       0       5     24     24      0   5530     743       2  24    0150f a70f     10.890 "
test,1583576792311391232,29," | 29  |   6277       5   6266       9 |   0    2      5551       724 |   0  29   24    1  10f |    0           0       0       0       8      0      0      0   5293     982       0  29    1 10f a70f     30.180 "
test,1583576792293602816,30," | 30  |   6277       5   6270       3 |   5    0      6189        84 |   2  24    0    0 150f |    3.509       0       5       0       5     24     24      0   5963     310       3  24    0150f a70f     10.320 "
test,1583576792295706880,35," | 35  |   6277       5   6270       3 |   5    0      5982       291 |   3  24    0    0 150f |    3.448       0       5       0       5     24     24      0   5846     427       3  24    0150f a70f     10.980 "
test,1583576792311609856,40," | 40  |   6277       5   6195      74 |   5    0      5901       368 |   3  24    0    0 150f |    0           0       0       0       8      0      0      0   5750     519       0  24    0150f a70f     30.360 "
test,1583576792292998912,41," | 41  |   6277       5   6204      59 |   1   21      6210        53 |   1  46   16    0 c10f |    2.075       0       5       0       5     46     46      0   6060     203       1  46    0c10f a70f      8.190 "
test,1583576792301889024,42," | 42  |   6277       5   6211      62 |   5    9      6154       119 |   2  18   24    0 d50f |   11.322       0       5       0       5     18     18      0   6019     254      14  18    0d50f a70f     17.310 "
test,1583576792310700800,44," | 44  |   6277       5   6216      57 |   5    0      6153       120 |   1  24    0    0 150f |    0           0       0       0       8      0      0      0   6035     238       0  24    0150f a70f     30.390 "
test,1583576792310872064,45," | 45  |   6277       5   6230      43 |   5    0      6084       189 |   2  24    0    0 150f |    0           0       0       0       8      0      0      0   5969     304       0  24    0150f a70f     30.360 "
test,1583576792298988032,46," | 46  |   6277       5   6209      57 |   0   14      5982       284 |   0  46   18    1 c10f |    1.739       0       4       0       4     46     46      0   5879     387       2  46    1c10f a70f      6.480 "
test,1583576792305104128,47," | 47  |   6277       5   6216      57 |   5    8      6074       199 |   1  18   24    0 d50f |   10.528       0       5       0       5     18     18      0   5965     308      13  18    0d50f a70f     16.650 "
test,1583576792310451968,48," | 48  |   6277       5   6151      55 |   5    0      6081       125 |   2  24    0    0 150f |    0           0       0       0       8      0      0      0   5968     238       0  24    0150f a70f     30.390 "
test,1583576792291588096,49," | 49  |   6277       5   6267       0 |   5    0      6142       125 |   3   7    0    0  40f |    3.509       0       5       0       5      7      7      0   6099     168       3   7    0 40f a70f      9.690 "
test,1583576792291753984,51," | 51  |   6277       5   6268       0 |   5    0      6200        68 |   1   7    0    0  40f |    2.044       0       5       0       5      7      7      0   6178      90       1   7    0 40f a70f      8.160 "
test,1583576792293206016,52," | 52  |   6277       5   6241      28 |   5    0      5957       312 |   2  24    0    0 150f |    2.777       0       5       0       5     24     24      0   5848     421       2  24    0150f a70f      8.910 "
test,1583576792295147776,53," | 53  |   6277       5   6251       0 |   5    0      5918       333 |   3   7    0    0  40f |    4.211       0       5       0       5      7      7      0   5853     398       4   7    0 40f a70f     10.410 "
test,1583576792289707776,54," | 54  |   6277       5   6269       0 |   5    0      6164       105 |   1   7    0    0  40f |    2.014       0       5       0       5      7      7      0   6064     205       1   7    0 40f a70f      8.280 "
test,1583576792293415168,55," | 55  |   6277       5   6256       0 |   5    0      6018       238 |   3   7    0    0  40f |    3.540       0       5       0       5      7      7      0   5967     289       3   7    0 40f a70f      9.630 "
test,1583576792291937024,56," | 56  |   6277       5   6259       0 |   5    0      6165        94 |   2   7    0    0  40f |    2.807       0       5       0       5      7      7      0   6090     169       2   7    0 40f a70f      8.940 "
test,1583576792313111040,57," | 57  |   6277       5   6214       0 |   5    0      6055       159 |   3   7    0    0  40f |    5.004       0       4       0       4      7      7      0   5671     543       5   7    0 40f a70f     30.330 "
test,1583576792314706944,58," | 58  |   6277       4   6268       0 |   3    0      6184        84 |   2   7    0    0  40f |    2.777       0       4       0       4      7      7      0   5925     343       2   7    0 40f a70f     30.390 "
test,1583576792292224000,5," |  5  |   6277       5   6275       0 |   5    0      5721       554 |   2   7    0    0  40f |    2.777       0       5       0       5      7      7      0   5610     665       2   7    0 40f a70f      8.820 "
test,1583576792295898880,60," | 60  |   6277       5   6268       0 |   5    0      5878       390 |   2   7    0    0  40f |    2.746       0       5       0       5      7      7      0   5752     516       2   7    0 40f a70f      8.940 "
test,1583576792288829952,7," |  7  |   6277       5   6274       0 |   4    0      6184        90 |   2   7    0    1  40f |    1.739       0       4       0       4      7      7      0   6142     132       2   7    1 40f a70f      6.480 "
test,1583576792297885952,9," |  9  |   6277       5   6273       0 |   5    0      6064       209 |   1   7    0    0  40f |    2.044       0       5       0       5      7      7      0   6034     239       1   7    0 40f a70f      8.280 "
