test,1583576814290339072,10," | 10  |   6365       5   6337       0 |   5    0      6235       102 |   1  56    0    0 490f |    2.014       0       5       0       5     56     56      0   6157     180       1  56    0490f a70f      8.160 "
test,1583576814295015936,12," | 12  |   6365       5   6329      34 |   5    0      6293        70 |   2  56    0    0 490f |    2.777       0       5       0       5     56     56      0   6184     179       2  56    0490f a70f      9.690 "
test,1583576814290801152,13," | 13  |   6365       5   6361       0 |   5    0      6310        51 |   1  56    0    0 490f |    2.044       0       5       0       5     56     56      0   6237     124       1  56    0490f a70f      8.100 "
test,1583576814296140032,15," | 15  |   6365       5   6320      43 |   5    0      6110       253 |   3  56    0    0 490f |    2.746       0       5       0       5     56     56      0   5827     536       2  56    0490f a70f     10.410 "
test,1583576814311821824,16," | 16  |   6365       5   6361       0 |   1   10      6127       234 |   1  41   26    0 5e0f |    0           0       0       0       8      0      0      0   5960     401       0  41    05e0f a70f     30.390 "
test,1583576814312019968,17," | 17  |   6365       5   6353       8 |   1    8      6274        87 |   1  41   26    0 5e0f |    0           0       0       0       8      0      0      0   6087     274       0  41    05e0f a70f     30.390 "
test,1583576814295744768,18," | 18  |   6365       5   6360       0 |   5    0      6022       338 |   2  26    0    0 d90f |    2.044       0       5       0       5     26     26      0   5768     592       1  26    0d90f a70f      8.820 "
test,1583576814311433984,19," | 19  |   6365       5   6349      12 |   1    8      6240       121 |   2  41   26    0 5e0f |    0           0       0       0       8      0      0      0   6069     292       0  41    05e0f a70f     30.360 "
test,1583576814301934848,1," |  1  |   6365       4   6362       0 |   5    0      6199       163 |   2  56    0    0 490f |    3.448       0       5       0       5     56     56      0   6155     207       2  56    0490f a70f      9.480 "
test,1583576814294075136,22," | 22  |   6365       5   6359       0 |   5    0      6304        55 |   1  26    0    0 d90f |    2.014       0       5       0       5     26     26      0   6018     341       1  26    0d90f a70f      8.160 "
test,1583576814292005888,23," | 23  |   6365       5   6303       0 |   4    0      6277        26 |   5  26    0    0 d90f |    2.014       0       5       0       5     26     26      0   6155     148       1  26    0d90f a70f      8.220 "
test,1583576814291081984,24," | 24  |   6365       5   6359       2 |   5    0      6294        67 |   6  26    0    0 d90f |    2.044       0       5       0       5     26     26      0   6131     230       1  26    0d90f a70f      8.130 "
test,1583576814289421056,26," | 26  |   6365       5   6359       2 |   4    0      6333        28 |   7  26    0    1 d90f |    1.739       0       4       0       4     26     26      0   6218     143       2  26    1d90f a70f      6.510 "
test,1583576814311202048,27," | 27  |   6365       5   6363       0 |   1    4      6183       180 |   2  41   26    0 5e0f |    0           0       0       0       8      0      0      0   5938     425       0  41    05e0f a70f     30.360 "
test,1583576814310672896,28," | 28  |   6365       5   6353       8 |   1    7      5846       515 |   2  41   26    0 5e0f |    0           0       0       0       8      0      0      0   5607     754       0  41    05e0f a70f     30.360 "
test,1583576814309672960,29," | 29  |   6365       5   6354       9 |   0    0      5629       734 |   0   0    0    0    0 |    0           0       0       0       8      0      0      0   5369     994       0   0    0   0 a70f     30.360 "
test,1583576814293406976,30," | 30  |   6365       5   6358       3 |   5    0      6276        85 |   3  26    0    0 d90f |    2.777       0       5       0       5     26     26      0   6045     316       2  26    0d90f a70f      8.820 "
test,1583576814296861952,35," | 35  |   6365       5   6358       3 |   5    0      6066       295 |   2  26    0    0 d90f |    2.716       0       5       0       5     26     26      0   5927     434       2  26    0d90f a70f      8.910 "
test,1583576814298803968,40," | 40  |   6365       5   6283      74 |   2    4      5986       371 |   1  41   26    0 5e0f |    2.014       0       5       0       5     41     41      0   5835     522       1  41    05e0f a70f      8.220 "
test,1583576814298418944,41," | 41  |   6365       5   6292      59 |   1    0      6298        53 |   2  41    0    1 5e0f |    1.739       0       4       0       4     41     41      0   6143     208       2  41    15e0f a70f      6.510 "
test,1583576814292578048,42," | 42  |   6365       5   6299      62 |   2    8      6241       120 |   1  41   26    0 5e0f |    2.044       0       5       0       5     41     41      0   6104     257       1  41    05e0f a70f      8.250 "
test,1583576814297385984,44," | 44  |   6365       5   6304      57 |   2    9      6241       120 |   1  41   26    0 5e0f |    2.044       0       5       0       5     41     41      0   6119     242       1  41    05e0f a70f      8.130 "
test,1583576814297180928,45," | 45  |   6365       5   6318      43 |   2    0      6169       192 |   1  41    0    0 5e0f |    2.075       0       5       0       5     41     41      0   6053     308       1  41    05e0f a70f      8.220 "
test,1583576814296374016,46," | 46  |   6365       5   6297      57 |   2    0      6070       284 |   1  41    0    0 5e0f |    2.014       0       5       0       5     41     41      0   5965     389       1  41    05e0f a70f      8.100 "
test,1583576814293853952,47," | 47  |   6365       5   6304      57 |   2    2      6157       204 |   1  41   26    0 5e0f |    2.044       0       5       0       5     41     41      0   6047     314       1  41    05e0f a70f      8.130 "
test,1583576814295934976,48," | 48  |   6365       5   6239      55 |   2    4      6168       126 |   1  41   26    0 5e0f |    2.044       0       5       0       5     41     41      0   6053     241       1  41    05e0f a70f      8.250 "
test,1583576814303569152,49," | 49  |   6365       5   6355       0 |   5    0      6230       125 |   2  56    0    0 490f |    4.180       0       5       0       5     56     56      0   6187     168       4  56    0490f a70f     10.380 "
test,1583576814290605056,51," | 51  |   6365       5   6356       0 |   5    0      6287        69 |   1  56    0    0 490f |    1.983       0       5       0       5     56     56      0   6265      91       1  56    0490f a70f      8.130 "
test,1583576814292764928,52," | 52  |   6365       5   6329      28 |   5    0      6036       321 |   4  26    0    0 d90f |    2.014       0       5       0       5     26     26      0   5927     430       1  26    0d90f a70f      8.940 "
test,1583576814294595072,53," | 53  |   6365       5   6339       0 |   5    0      6002       337 |   3  56    0    0 490f |    4.913       0       5       0       5     56     56      0   5937     402       5  56    0490f a70f     11.100 "
test,1583576814297786112,54," | 54  |   6365       5   6357       0 |   5    0      6250       107 |   2  56    0    0 490f |    2.746       0       5       0       5     56     56      0   6147     210       2  56    0490f a70f      8.820 "
test,1583576814293601024,55," | 55  |   6365       5   6344       0 |   5    0      6104       240 |   2  56    0    0 490f |    4.241       0       5       0       5     56     56      0   6053     291       4  56    0490f a70f     10.320 "
test,1583576814289891840,56," | 56  |   6365       5   6347       0 |   4    0      6252        95 |   2  56    0    1 490f |    1.739       0       4       0       4     56     56      0   6176     171       2  56    1490f a70f      6.480 "
test,1583576814313140992,57," | 57  |   6365       5   6302       0 |   1    8      6140       162 |   1  56   26    0 490f |    3.509       0       3       0       3     56     56      0   5749     553       3  56    0490f a70f     30.270 "
test,1583576814294835200,58," | 58  |   6365       5   6356       0 |   5    0      6270        86 |   1  56    0    0 490f |    3.479       0       5       0       5     56     56      0   6010     346       3  56    0490f a70f      9.510 "
test,1583576814296614912,5," |  5  |   6365       4   6363       0 |   5    0      5796       567 |   2  56    0    0 490f |    2.777       0       5       0       5     56     56      0   5685     678       2  56    0490f a70f      8.880 "
test,1583576814293200128,60," | 60  |   6365       5   6356       0 |   5    0      5962       394 |   1  56    0    0 490f |    2.777       0       5       0       5     56     56      0   5835     521       2  56    0490f a70f      8.970 "
test,1583576814300457984,61," | 61  |   6365       5   6351       4 |   5    0      6060       295 |   1  56    0    0 490f |    3.479       0       5       0       5     56     56      0   5847     508       3  56    0490f a70f     10.230 "
test,1583576814302167808,7," |  7  |   6365       5   6362       0 |   5    0      6272        90 |   2  56    0    0 490f |    2.746       0       5       0       5     56     56      0   6229     133       2  56    0490f a70f      8.940 "
test,1583576814291606784,9," |  9  |   6365       5   6361       0 |   5    0      6151       210 |   2  56    0    0 490f |    2.746       0       5       0       5     56     56      0   6120     241       2  56    0490f a70f      8.820 "
