test,1583576754540382976,10," | 10  |   6126       5   6098       0 |   5    0      6000        98 |   1   1    0    0 820f |    1.312       0       5       0       5      1      1      0   5924     174       1   1    0820f a70f      7.560 "
test,1583576754542565120,12," | 12  |   6126       5   6090      34 |   5    0      6058        66 |   1   1    0    0 820f |    1.342       0       5       0       5      1      1      0   5954     170       1   1    0820f a70f      7.530 "
test,1583576754538001920,13," | 13  |   6126       5   6122       0 |   5    0      6072        50 |   1   1    0    0 820f |    1.312       0       5       0       5      1      1      0   5998     124       1   1    0820f a70f      7.560 "
test,1583576754540188160,15," | 15  |   6126       5   6081      43 |   5    0      5883       241 |   2   1    0    0 820f |    2.105       0       5       0       5      1      1      0   5610     514       2   1    0820f a70f      8.250 "
test,1583576754546642176,16," | 16  |   6126       5   6122       0 |   5    0      5902       220 |   2  22    0    0 230f |    2.746       0       5       0       5     22     22      0   5735     387       2  22    0230f a70f      8.820 "
test,1583576754540709888,17," | 17  |   6126       5   6114       8 |   5    0      6041        81 |   2  22    0    0 230f |    2.777       0       5       0       5     22     22      0   5858     264       2  22    0230f a70f      9.000 "
test,1583576754542414848,18," | 18  |   6126       5   6121       0 |   5    0      5792       329 |   1  22    0    0 230f |    2.044       0       5       0       5     22     22      0   5551     570       1  22    0230f a70f      8.100 "
test,1583576754545604096,19," | 19  |   6126       5   6110      12 |   5    0      6005       117 |   1  22    0    0 230f |    3.479       0       5       0       5     22     22      0   5837     285       3  22    0230f a70f      9.480 "
test,1583576754538249984,1," |  1  |   6126       4   6123       0 |   3    3      5963       160 |   6   1   54    1 820f |    1.739       0       4       0       4      1      1      0   5921     202       2   1    1820f a70f      6.480 "
test,1583576754549637120,22," | 22  |   6126       5   6120       0 |   3    2      6069        51 |   5  22   54    1 230f |    1.770       0       4       0       4     22     22      0   5793     327       2  22    1230f a70f      6.510 "
test,1583576754541573120,23," | 23  |   6126       5   6064       0 |   5    0      6039        25 |   1  22    0    0 230f |    2.014       0       5       0       5     22     22      0   5920     144       1  22    0230f a70f      8.070 "
test,1583576754539649024,24," | 24  |   6126       5   6120       2 |   5    0      6058        64 |   1  22    0    0 230f |    2.014       0       5       0       5     22     22      0   5900     222       1  22    0230f a70f      8.130 "
test,1583576754547281152,26," | 26  |   6126       5   6120       2 |   5    0      6096        26 |   1  22    0    0 230f |    1.983       0       5       0       5     22     22      0   5985     137       1  22    0230f a70f      8.940 "
test,1583576754561796864,27," | 27  |   6126       5   6124       0 |   4    0      5947       177 |   2  22    0    0 230f |    2.777       0       4       0       4     22     22      0   5710     414       2  22    0230f a70f     30.360 "
test,1583576754556279040,28," | 28  |   6126       5   6114       8 |   5    0      5624       498 |   1  22    0    0 230f |    2.044       0       5       0       5     22     22      0   5394     728       1  22    0230f a70f     10.290 "
test,1583576754562406912,29," | 29  |   6126       5   6115       9 |   4    0      5416       708 |   3  22    0    0 230f |    3.479       0       3       0       3     22     22      0   5163     961       3  22    0230f a70f     30.390 "
test,1583576754550653952,30," | 30  |   6126       5   6119       3 |   5    0      6038        84 |   1  22    0    0 230f |    2.014       0       5       0       5     22     22      0   5819     303       1  22    0230f a70f      8.910 "
test,1583576754539422976,35," | 35  |   6126       5   6119       3 |   5    0      5833       289 |   1  22    0    0 230f |    1.983       0       5       0       5     22     22      0   5703     419       1  22    0230f a70f      8.190 "
test,1583576754544317952,40," | 40  |   6126       4   6044      74 |   5    1      5756       362 |   2  44   22    0 630f |    2.777       0       5       0       5     44     44      0   5608     510       2  44    0630f a70f     10.410 "
test,1583576754562056960,41," | 41  |   6126       5   6053      59 |   5    0      6061        51 |   1  44    0    0 630f |    2.716       0       3       0       3     44     44      0   5915     197       2  44    0630f a70f     30.330 "
test,1583576754545326080,42," | 42  |   6126       5   6060      62 |   5    0      6004       118 |   1  44    0    0 630f |    2.716       0       5       0       5     44     44      0   5872     250       2  44    0630f a70f     10.380 "
test,1583576754542036992,44," | 44  |   6126       5   6065      57 |   5    0      6005       117 |   2  44    0    1 630f |    1.739       0       4       0       4     44     44      0   5889     233       2  44    1630f a70f      6.480 "
test,1583576754540952064,45," | 45  |   6126       5   6079      43 |   5    0      5933       189 |   1  44    0    0 630f |    2.044       0       5       0       5     44     44      0   5821     301       1  44    0630f a70f      8.250 "
test,1583576754543723008,46," | 46  |   6126       5   6058      57 |   5    0      5835       280 |   1  44    0    0 630f |    2.777       0       5       0       5     44     44      0   5734     381       2  44    0630f a70f     10.320 "
test,1583576754543015936,47," | 47  |   6126       5   6065      57 |   5    0      5927       195 |   1  44    0    0 630f |    2.044       0       5       0       5     44     44      0   5822     300       1  44    0630f a70f      8.280 "
test,1583576754546479872,48," | 48  |   6126       2   6000      55 |   5    0      5931       124 |   1  44    0    0 630f |    2.014       0       5       0       5     44     44      0   5822     233       1  44    0630f a70f      8.220 "
test,1583576754544008960,49," | 49  |   6126       5   6116       0 |   5    0      5997       119 |   2  54    0    0 590f |    2.807       0       5       0       5     54     54      0   5956     160       2  54    0590f a70f      9.000 "
test,1583576754541419008,51," | 51  |   6126       5   6117       0 |   5    0      6051        66 |   1   1    0    0 820f |    1.373       0       5       0       5      1      1      0   6030      87       1   1    0820f a70f      7.560 "
test,1583576754543557888,52," | 52  |   6126       5   6090      28 |   5    0      5820       298 |   2  22    0    0 230f |    2.716       0       5       0       5     22     22      0   5711     407       2  22    0230f a70f      8.910 "
test,1583576754557797888,53," | 53  |   6126       5   6100       0 |   5    0      5773       327 |   3  54    0    0 590f |    3.509       0       5       0       5     54     54      0   5709     391       3  54    0590f a70f      9.600 "
test,1583576754560866048,54," | 54  |   6126       5   6118       0 |   2    4      6015       103 |   8  54    1    1 590f |    8.178       0       2       0       2     54     54      0   5918     200      11  54    1590f a70f     30.300 "
test,1583576754546914048,55," | 55  |   6126       5   6105       0 |   5    0      5872       233 |   2  54    0    0 590f |    2.777       0       5       0       5     54     54      0   5823     282       2  54    0590f a70f      8.850 "
test,1583576754538605824,56," | 56  |   6126       5   6108       0 |   5    0      6016        92 |   2   1    0    0 820f |    2.075       0       5       0       5      1      1      0   5944     164       2   1    0820f a70f      8.310 "
test,1583576754563302144,57," | 57  |   6126       5   6063       0 |   1    0      5909       154 |  10  54    0    0 590f |    9.918       0       2       0       2     54     54      0   5538     525      12  54    0590f a70f     30.360 "
test,1583576754547563008,58," | 58  |   6126       5   6117       0 |   5    1      6035        82 |   1  54    1    0 590f |    2.044       0       5       0       5     54     54      0   5785     332       1  54    0590f a70f     10.260 "
test,1583576754539891968,5," |  5  |   6126       5   6124       0 |   5    0      5582       542 |   2   1    0    0 820f |    2.075       0       5       0       5      1      1      0   5474     650       2   1    0820f a70f      8.310 "
test,1583576754542228992,60," | 60  |   6126       5   6117       0 |   5    0      5734       383 |   2   1    0    0 820f |    2.075       0       5       0       5      1      1      0   5611     506       2   1    0820f a70f      8.220 "
test,1583576754547746816,61," | 61  |   6126       5   6116       0 |   5    2      5838       278 |   1  54    1    0 590f |    2.075       0       5       0       5     54     54      0   5632     484       1  54    0590f a70f      9.540 "
test,1583576754538973952,7," |  7  |   6126       5   6123       0 |   4    3      6033        90 |   1   1   54    0 820f |    1.312       0       5       0       5      1      1      0   5993     130       1   1    0820f a70f      7.560 "
test,1583576754541143040,9," |  9  |   6126       5   6122       0 |   4    3      5915       207 |   1   1   54    0 820f |    1.312       0       5       0       5      1      1      0   5886     236       1   1    0820f a70f      7.590 "
