test,1583576826544403968,10," | 10  |   6414       5   6386       0 |   5    0      6284       102 |   2  57    0    0 b40f |    2.746       0       5       0       5     57     57      0   6205     181       2  57    0b40f a70f      8.970 "
test,1583576826544663808,12," | 12  |   6414       5   6378      34 |   5    0      6342        70 |   3  57    0    0 b40f |    3.509       0       5       0       5     57     57      0   6232     180       3  57    0b40f a70f      9.660 "
test,1583576826546539008,13," | 13  |   6414       5   6410       0 |   1    8      6359        51 |   1   5   57    0 110f |    2.044       0       5       0       5      5      5      0   6285     125       1   5    0110f a70f     15.090 "
test,1583576826562802176,15," | 15  |   6414       4   6369      43 |   5    0      6158       254 |   4  57    0    0 b40f |    5.706       0       4       0       4     57     57      0   5872     540       6  57    0b40f a70f     30.330 "
test,1583576826541518080,16," | 16  |   6414       5   6410       0 |   5    0      6174       236 |   2  57    0    0 b40f |    2.716       0       5       0       5     57     57      0   6006     404       2  57    0b40f a70f      8.940 "
test,1583576826550180864,17," | 17  |   6414       5   6402       8 |   4    5      6322        88 |   6  57   27    0 b40f |    2.807       0       5       0       5     57     57      0   6132     278       2  57    0b40f a70f     11.070 "
test,1583576826541245952,18," | 18  |   6414       5   6409       0 |   3    9      6071       338 |   1  24   57    0 3a0f |    2.044       0       5       0       5     24     24      0   5813     596       1  24    03a0f a70f      8.250 "
test,1583576826564250880,19," | 19  |   6414       5   6398      12 |   3    6      6287       123 |   1  24   57    0 3a0f |    6.439       0       1       0       1     24     24      0   6112     298       7  24    03a0f a70f     30.330 "
test,1583576826548093184,1," |  1  |   6414       4   6411       0 |   5    0      6248       163 |   2  57    0    0 b40f |    4.180       0       5       0       5     57     57      0   6203     208       3  57    0b40f a70f     10.350 "
test,1583576826564471040,22," | 22  |   6414       5   6408       0 |   5    0      6353        55 |   6  57    0    0 b40f |    9.368       0       3       0       3     57     57      0   6062     346      11  57    0b40f a70f     30.360 "
test,1583576826542126848,23," | 23  |   6414       5   6352       0 |   5    0      6326        26 |   1  57    0    0 b40f |    2.075       0       5       0       5     57     57      0   6201     151       1  57    0b40f a70f      8.130 "
test,1583576826546149120,24," | 24  |   6414       5   6408       2 |   2   10      6342        68 |   5  24   57    1 3a0f |    1.739       0       4       0       4     24     24      0   6176     234       2  24    13a0f a70f      6.480 "
test,1583576826547343872,26," | 26  |   6414       5   6408       2 |   5    0      6382        28 |   5  57    0    0 b40f |    4.272       0       5       0       5     57     57      0   6263     147       4  57    0b40f a70f     11.760 "
test,1583576826561964032,27," | 27  |   6414       5   6412       0 |   0    7      6230       182 |   0  27   24    1 220f |    0           0       0       0       8      0      0      0   5979     433       0  27    1220f a70f     30.240 "
test,1583576826561716992,28," | 28  |   6414       5   6402       8 |   5    0      5893       517 |   1  35    0    0 a20f |    2.746       0       4       0       4     35     35      0   5650     760       2  35    0a20f a70f     30.360 "
test,1583576826562586112,29," | 29  |   6414       5   6403       9 |   0    3      5670       742 |   0  29   24    1 870f |    0           0       0       0       8      0      0      0   5407    1005       0  29    1870f a70f     30.180 "
test,1583576826540862976,30," | 30  |   6414       5   6407       3 |   5    0      6324        86 |   1  35    0    0 a20f |    2.014       0       5       0       5     35     35      0   6091     319       1  35    0a20f a70f      8.220 "
test,1583576826540093952,35," | 35  |   6414       5   6407       3 |   4    0      6114       296 |   2  35    0    1 a20f |    1.739       0       4       0       4     35     35      0   5974     436       2  35    1a20f a70f      6.480 "
test,1583576826542946048,40," | 40  |   6414       5   6332      74 |   5    0      6031       375 |   1  24    0    0 3a0f |    2.044       0       5       0       5     24     24      0   5879     527       1  24    03a0f a70f      8.220 "
test,1583576826566422016,41," | 41  |   6414       5   6341      59 |   4    2      6347        53 |   3  24   47    0 3a0f |    2.746       0       4       0       4     24     24      0   6190     210       2  24    03a0f a70f     30.390 "
test,1583576826563494912,42," | 42  |   6414       5   6348      62 |   5    3      6289       121 |   1  24   47    0 3a0f |    2.777       0       4       0       4     24     24      0   6151     259       2  24    03a0f a70f     30.360 "
test,1583576826570103808,44," | 44  |   6414       5   6353      57 |   4    3      6290       120 |   1  24   47    0 3a0f |    2.777       0       4       0       4     24     24      0   6166     244       2  24    03a0f a70f     30.300 "
test,1583576826565011968,45," | 45  |   6414       5   6367      43 |   5    1      6216       194 |   2  24   47    0 3a0f |    2.777       0       4       0       4     24     24      0   6098     312       2  24    03a0f a70f     30.300 "
test,1583576826567014912,46," | 46  |   6414       5   6346      57 |   4    1      6115       288 |   3  24   47    0 3a0f |    3.509       0       4       0       4     24     24      0   6009     394       3  24    03a0f a70f     30.330 "
test,1583576826562274816,47," | 47  |   6414       5   6353      57 |   0    7      6204       206 |   0  47   24    1 e70f |    0           0       0       0       8      0      0      0   6093     317       0  47    1e70f a70f     30.240 "
test,1583576826564806912,48," | 48  |   6414       5   6288      55 |   4    4      6216       127 |   2  24   47    0 3a0f |    2.777       0       3       0       3     24     24      0   6099     244       2  24    03a0f a70f     30.270 "
test,1583576826540620032,49," | 49  |   6414       5   6404       0 |   5    0      6278       126 |   1  55    0    0 970f |    2.014       0       5       0       5     55     55      0   6234     170       1  55    0970f a70f      8.220 "
test,1583576826540360960,51," | 51  |   6414       5   6405       0 |   5    0      6336        69 |   1  57    0    0 b40f |    2.014       0       5       0       5     57     57      0   6313      92       1  57    0b40f a70f      8.250 "
test,1583576826563973888,52," | 52  |   6414       4   6378      28 |   4    9      6083       323 |   1  24   57    0 3a0f |    2.044       0       1       0       1     24     24      0   5970     436       1  24    03a0f a70f     30.360 "
test,1583576826541963008,53," | 53  |   6414       5   6388       0 |   5    0      6050       338 |   1  55    0    0 970f |    1.983       0       5       0       5     55     55      0   5984     404       1  55    0970f a70f      8.220 "
test,1583576826560132864,54," | 54  |   6414       5   6406       0 |   1    9      6299       107 |   2  55   57    0 970f |    0           0       0       0       8      0      0      0   6194     212       0  55    0970f a70f     30.390 "
test,1583576826539856896,55," | 55  |   6414       5   6393       0 |   4    0      6152       241 |   2  55    0    1 970f |    1.739       0       4       0       4     55     55      0   6100     293       2  55    1970f a70f      6.480 "
test,1583576826548463104,56," | 56  |   6414       5   6396       0 |   5    0      6298        98 |   1  57    0    0 b40f |    2.044       0       5       0       5     57     57      0   6221     175       1  57    0b40f a70f      8.220 "
test,1583576826543585024,57," | 57  |   6414       5   6351       0 |   4    0      6186       165 |   4  57    0    1 b40f |    1.770       0       4       0       4     57     57      0   5790     561       2  57    1b40f a70f      6.510 "
test,1583576826544858880,58," | 58  |   6414       4   6405       0 |   5    0      6318        87 |   1  55    0    0 970f |    2.014       0       5       0       5     55     55      0   6057     348       1  55    0970f a70f      8.250 "
test,1583576826552019968,5," |  5  |   6414       5   6412       0 |   1    5      5844       568 |   2   5   57    1 110f |   10.253       0       4       0       4      5      5      0   5731     681      14   5    1110f a70f     14.820 "
test,1583576826542323968,60," | 60  |   6414       5   6405       0 |   5    0      6008       397 |   1  57    0    0 b40f |    2.014       0       5       0       5     57     57      0   5880     525       1  57    0b40f a70f      8.220 "
test,1583576826545167872,61," | 61  |   6414       5   6400       4 |   5    2      6107       297 |   1  57   55    0 b40f |    2.044       0       5       0       5     57     57      0   5894     510       1  57    0b40f a70f      8.280 "
test,1583576826541783040,7," |  7  |   6414       5   6411       0 |   5    0      6321        90 |   2  57    0    0 b40f |    3.509       0       5       0       5     57     57      0   6277     134       3  57    0b40f a70f      9.630 "
test,1583576826545346048,9," |  9  |   6414       5   6410       0 |   5    0      6196       214 |   3  57    0    0 b40f |    3.509       0       5       0       5     57     57      0   6165     245       3  57    0b40f a70f      9.720 "
