test,1583576814040865024,10," | 10  |   6364       5   6336       0 |   2    6      6234       102 |   1  51   54    0 ea0f |    2.044       0       5       0       5     51     51      0   6156     180       1  51    0ea0f a70f      8.280 "
test,1583576814042684160,12," | 12  |   6364       5   6328      34 |   5    0      6292        70 |   2  54    0    0 910f |    2.014       0       5       0       5     54     54      0   6183     179       1  54    0910f a70f      8.100 "
test,1583576814060945920,13," | 13  |   6364       5   6360       0 |   5    0      6309        51 |   2  54    0    0 910f |    2.746       0       4       0       4     54     54      0   6236     124       2  54    0910f a70f     30.360 "
test,1583576814045094912,15," | 15  |   6364       5   6319      43 |   5    0      6109       253 |   3  54    0    0 910f |    2.716       0       5       0       5     54     54      0   5826     536       2  54    0910f a70f      8.790 "
test,1583576814043608832,16," | 16  |   6364       5   6360       0 |   4    0      6126       234 |   3  51    0    0 ea0f |    3.479       0       5       0       5     51     51      0   5960     400       3  51    0ea0f a70f      9.720 "
test,1583576814047171072,17," | 17  |   6364       5   6352       8 |   5    0      6273        87 |   3  51    0    0 ea0f |    3.509       0       5       0       5     51     51      0   6087     273       3  51    0ea0f a70f     10.290 "
test,1583576814062419968,18," | 18  |   6364       5   6359       0 |   1    7      6021       338 |   1  47   51    0 e50f |    2.075       0       1       0       1     47     47      0   5767     592       1  47    0e50f a70f     30.360 "
test,1583576814046863104,19," | 19  |   6364       5   6348      12 |   5    0      6239       121 |   3  51    0    0 ea0f |    4.180       0       5       0       5     51     51      0   6069     291       4  51    0ea0f a70f     10.290 "
test,1583576814041518848,1," |  1  |   6364       4   6361       0 |   5    0      6198       163 |   1  54    0    0 910f |    2.685       0       5       0       5     54     54      0   6154     207       1  54    0910f a70f      8.880 "
test,1583576814043272960,22," | 22  |   6364       5   6358       0 |   5    0      6303        55 |   4  51    0    0 ea0f |    3.479       0       5       0       5     51     51      0   6017     341       3  51    0ea0f a70f     10.380 "
test,1583576814045305088,23," | 23  |   6364       5   6302       0 |   5    0      6276        26 |   2  51    0    0 ea0f |    2.777       0       5       0       5     51     51      0   6154     148       2  51    0ea0f a70f     10.440 "
test,1583576814043024128,24," | 24  |   6364       5   6358       2 |   5    0      6293        67 |   4  51    0    0 ea0f |    3.509       0       5       0       5     51     51      0   6130     230       3  51    0ea0f a70f      9.720 "
test,1583576814041736960,26," | 26  |   6364       5   6358       2 |   5    0      6332        28 |   3  51    0    0 ea0f |    2.777       0       5       0       5     51     51      0   6217     143       2  51    0ea0f a70f      8.850 "
test,1583576814046456064,27," | 27  |   6364       5   6362       0 |   5    0      6182       180 |   3  51    0    0 ea0f |    3.509       0       5       0       5     51     51      0   5938     424       3  51    0ea0f a70f     11.100 "
test,1583576814063785984,28," | 28  |   6364       5   6352       8 |   1    5      5845       515 |  15  51   30    0 ea0f |    4.974       0       2       0       2     51     51      0   5607     753       5  51    0ea0f a70f     30.360 "
test,1583576814068686080,29," | 29  |   6364       5   6353       9 |   2    0      5629       733 |   6  51    0    0 ea0f |    4.241       0       2       0       2     51     51      0   5369     993       4  51    0ea0f a70f     30.330 "
test,1583576814060676096,30," | 30  |   6364       5   6357       3 |   0    3      6275        85 |   0  30   54    1 850f |    0           0       0       0       8      0      0      0   6044     316       0  30    1850f a70f     30.150 "
test,1583576814061366016,35," | 35  |   6364       5   6357       3 |   0    5      6065       295 |   0  35   51    1 450f |    0           0       0       0       8      0      0      0   5926     434       0  35    1450f a70f     30.150 "
test,1583576814063229184,40," | 40  |   6364       4   6282      74 |   5    0      5985       371 |   1  47    0    0 e50f |    2.075       0       3       0       3     47     47      0   5834     522       1  47    0e50f a70f     30.360 "
test,1583576814065521920,41," | 41  |   6364       5   6291      59 |   5    0      6297        53 |   1  47    0    0 e50f |    2.044       0       3       0       3     47     47      0   6142     208       1  47    0e50f a70f     30.390 "
test,1583576814061569024,42," | 42  |   6364       5   6298      62 |   5    0      6240       120 |   1  47    0    0 e50f |    2.044       0       3       0       3     47     47      0   6103     257       1  47    0e50f a70f     30.270 "
test,1583576814064007168,44," | 44  |   6364       5   6303      57 |   5    0      6240       120 |   1  47    0    0 e50f |    2.044       0       3       0       3     47     47      0   6118     242       1  47    0e50f a70f     30.390 "
test,1583576814062838016,45," | 45  |   6364       5   6317      43 |   5    0      6168       192 |   1  47    0    0 e50f |    2.075       0       3       0       3     47     47      0   6052     308       1  47    0e50f a70f     30.360 "
test,1583576814065080832,46," | 46  |   6364       5   6296      57 |   5    0      6069       284 |   1  47    0    0 e50f |    2.014       0       3       0       3     47     47      0   5964     389       1  47    0e50f a70f     30.390 "
test,1583576814059433984,47," | 47  |   6364       5   6303      57 |   5    0      6156       204 |   2  47    0    1 e50f |    1.739       0       3       0       3     47     47      0   6046     314       2  47    1e50f a70f     30.270 "
test,1583576814062580992,48," | 48  |   6364       5   6238      55 |   5    0      6167       126 |   1  47    0    0 e50f |    2.044       0       3       0       3     47     47      0   6052     241       1  47    0e50f a70f     30.270 "
test,1583576814039238912,49," | 49  |   6364       5   6354       0 |   4    0      6229       125 |   8  49    0    1 a90f |    1.739       0       4       0       4     49     49      0   6186     168       2  49    1a90f a70f      6.480 "
test,1583576814039473152,51," | 51  |   6364       5   6355       0 |   4    1      6286        69 |   5  51   54    1 ea0f |    1.739       0       4       0       4     51     51      0   6264      91       2  51    1ea0f a70f      6.510 "
test,1583576814043859968,52," | 52  |   6364       5   6328      28 |   5    0      6035       321 |   3  51    0    0 ea0f |    3.540       0       5       0       5     51     51      0   5926     430       3  51    0ea0f a70f     10.350 "
test,1583576814040577024,53," | 53  |   6364       5   6338       0 |   5    0      6001       337 |   1  49    0    0 a90f |    2.044       0       5       0       5     49     49      0   5936     402       1  49    0a90f a70f      8.190 "
test,1583576814065735936,54," | 54  |   6364       5   6356       0 |   4    0      6249       107 |   4  54    0    1 910f |    3.936       0       3       0       3     54     54      0   6146     210       5  54    1910f a70f     30.300 "
test,1583576814041205760,55," | 55  |   6364       5   6343       0 |   5    0      6103       240 |   1  49    0    0 a90f |    2.044       0       5       0       5     49     49      0   6052     291       1  49    0a90f a70f      8.100 "
test,1583576814039932928,56," | 56  |   6364       5   6346       0 |   5    1      6251        95 |   1  51   54    0 ea0f |    2.044       0       5       0       5     51     51      0   6175     171       1  51    0ea0f a70f      8.100 "
test,1583576814044399104,57," | 57  |   6364       5   6301       0 |   5    0      6139       162 |   1  51    0    0 ea0f |    1.983       0       5       0       5     51     51      0   5748     553       1  51    0ea0f a70f      8.190 "
test,1583576814051016960,58," | 58  |   6364       5   6355       0 |   5    0      6269        86 |   1  49    0    0 a90f |    2.014       0       5       0       5     49     49      0   6009     346       1  49    0a90f a70f      8.280 "
test,1583576814061778944,5," |  5  |   6364       5   6362       0 |   0    5      5795       567 |   0   5   54    1 330f |    0           0       0       0       8      0      0      0   5684     678       0   5    1330f a70f     30.180 "
test,1583576814042511104,60," | 60  |   6364       5   6355       0 |   5    0      5961       394 |   1  51    0    0 ea0f |    2.075       0       5       0       5     51     51      0   5834     521       1  51    0ea0f a70f      8.220 "
test,1583576814068495104,61," | 61  |   6364       5   6350       4 |   1    4      6059       295 |   1  54   49    0 910f |    2.014       0       1       0       1     54     54      0   5846     508       1  54    0910f a70f     30.390 "
test,1583576814039716096,7," |  7  |   6364       5   6361       0 |   5    0      6271        90 |   1  54    0    0 910f |    2.014       0       5       0       5     54     54      0   6228     133       1  54    0910f a70f      8.100 "
test,1583576814041934848,9," |  9  |   6364       5   6360       0 |   5    0      6150       210 |   2  54    0    0 910f |    1.983       0       5       0       5     54     54      0   6119     241       1  54    0910f a70f      8.220 "
