test,1583576945544452864,10," | 10  |   6890       5   6862       0 |   4    1      6751       111 |   1   7   57    0 390f |    2.044       0       5       0       5      7      7      0   6671     191       1   7    0390f a70f      8.970 "
test,1583576945543417856,12," | 12  |   6890       5   6854      34 |   5    0      6813        75 |   1   7    0    0 390f |    2.044       0       5       0       5      7      7      0   6699     189       1   7    0390f a70f      8.190 "
test,1583576945542740224,13," | 13  |   6890       5   6886       0 |   5    0      6828        58 |   1   7    0    0 390f |    2.075       0       5       0       5      7      7      0   6754     132       1   7    0390f a70f      8.220 "
test,1583576945548780800,15," | 15  |   6890       5   6845      43 |   4    0      6611       277 |   2   7    0    0 390f |    2.807       0       5       0       5      7      7      0   6300     588       2   7    0390f a70f      9.030 "
test,1583576945564867072,16," | 16  |   6890       5   6886       0 |   0    4      6628       258 |   0  16   19    1 200f |    0           0       0       0       8      0      0      0   6447     439       0  16    1200f a70f     28.050 "
test,1583576945566127104,17," | 17  |   6890       5   6877       9 |   3    8      6791        95 |   1  19   57    0 910f |    1.953       0       4       0       4     19     19      0   6590     296       1  19    0910f a70f     30.360 "
test,1583576945546739200,18," | 18  |   6890       5   6885       0 |   5    0      6528       357 |   3  57    0    0 720f |    2.716       0       5       0       5     57     57      0   6256     629       2  57    0720f a70f      9.450 "
test,1583576945568051200,19," | 19  |   6890       5   6873      13 |   1    3      6756       130 |  17  19   57    1 910f |    1.739       0       3       0       3     19     19      0   6570     316       2  19    1910f a70f     30.300 "
test,1583576945543881984,1," |  1  |   6890       4   6887       0 |   5    0      6706       181 |   1   7    0    0 390f |    2.746       0       5       0       5      7      7      0   6657     230       1   7    0390f a70f      8.880 "
test,1583576945555387904,22," | 22  |   6890       5   6884       0 |   5    0      6822        62 |   2  57    0    0 720f |    1.983       0       5       0       5     57     57      0   6511     373       1  57    0720f a70f     13.200 "
test,1583576945550880000,23," | 23  |   6890       5   6828       0 |   5    0      6799        29 |   1  57    0    0 720f |    3.479       0       5       0       5     57     57      0   6667     161       3  57    0720f a70f     13.980 "
test,1583576945546068992,24," | 24  |   6890       5   6884       2 |   5    0      6809        77 |   2  57    0    0 720f |    2.746       0       5       0       5     57     57      0   6636     250       2  57    0720f a70f      9.540 "
test,1583576945546281984,26," | 26  |   6890       5   6884       2 |   5    0      6858        28 |   5  57    0    0 720f |    1.983       0       5       0       5     57     57      0   6730     156       1  57    0720f a70f      8.220 "
test,1583576945567811072,27," | 27  |   6890       5   6888       0 |   5    0      6685       203 |   2  57    0    0 720f |    5.676       0       4       0       4     57     57      0   6421     467       6  57    0720f a70f     30.360 "
test,1583576945545582080,28," | 28  |   6890       5   6878       8 |   4    3      6340       546 |   4  28   19    1 450f |    1.739       0       4       0       4     28     28      0   6072     814       2  28    1450f a70f      7.200 "
test,1583576945566576128,29," | 29  |   6890       4   6879       9 |   2    0      6077       811 |  16  19    0    0 910f |    2.014       0       3       0       3     19     19      0   5789    1099       1  19    0910f a70f     30.360 "
test,1583576945543155968,30," | 30  |   6890       5   6883       3 |   5    0      6793        93 |   1  28    0    0 450f |    2.044       0       5       0       5     28     28      0   6540     346       1  28    0450f a70f      8.100 "
test,1583576945547247872,35," | 35  |   6890       5   6883       3 |   5    0      6562       324 |   2  28    0    0 450f |    2.716       0       5       0       5     28     28      0   6406     480       2  28    0450f a70f      8.910 "
test,1583576945551191040,40," | 40  |   6890       5   6808      74 |   4    3      6488       394 |   3  57   46    0 720f |    3.448       0       5       0       5     57     57      0   6327     555       3  57    0720f a70f     11.670 "
test,1583576945566950144,41," | 41  |   6890       5   6817      59 |   4    5      6815        61 |   5  57   46    0 720f |    3.417       0       4       0       4     57     57      0   6654     222       3  57    0720f a70f     30.390 "
test,1583576945545377024,42," | 42  |   6890       5   6824      62 |   5    0      6761       125 |   3  57    0    0 720f |    2.716       0       5       0       5     57     57      0   6614     272       2  57    0720f a70f      9.510 "
test,1583576945545818112,44," | 44  |   6890       5   6829      57 |   5    0      6760       126 |   3  57    0    0 720f |    2.746       0       5       0       5     57     57      0   6623     263       2  57    0720f a70f      9.510 "
test,1583576945549114880,45," | 45  |   6890       5   6843      43 |   4    1      6680       206 |   5  57   16    0 720f |    3.448       0       5       0       5     57     57      0   6559     327       3  57    0720f a70f     10.350 "
test,1583576945564260096,46," | 46  |   6890       5   6822      57 |   0    8      6561       318 |   0  46   57    1 be0f |    0           0       0       0       8      0      0      0   6452     427       0  46    1be0f a70f     30.180 "
test,1583576945547386880,47," | 47  |   6890       5   6829      57 |   5    0      6665       221 |   4  57    0    0 720f |    3.417       0       5       0       5     57     57      0   6547     339       3  57    0720f a70f     10.320 "
test,1583576945543662080,48," | 48  |   6890       5   6764      55 |   5    0      6683       136 |   3  57    0    0 720f |    2.716       0       5       0       5     57     57      0   6556     263       2  57    0720f a70f     10.980 "
test,1583576945565036032,49," | 49  |   6890       5   6880       0 |   4    5      6749       131 |   4  57   53    0 720f |    2.746       0       3       0       3     57     57      0   6702     178       2  57    0720f a70f     30.270 "
test,1583576945546493952,51," | 51  |   6890       5   6881       0 |   5    0      6804        77 |   3  57    0    0 720f |    2.716       0       5       0       5     57     57      0   6779     102       2  57    0720f a70f      8.820 "
test,1583576945550170880,52," | 52  |   6890       5   6853      29 |   5    0      6536       346 |   2  57    0    0 720f |    2.716       0       5       0       5     57     57      0   6413     469       2  57    0720f a70f      8.790 "
test,1583576945560736000,53," | 53  |   6890       5   6864       0 |   0    4      6502       362 |   0  53   57    1 870f |    0           0       0       0       8      0      0      0   6434     430       0  53    1870f a70f     30.180 "
test,1583576945542927872,54," | 54  |   6890       5   6882       0 |   2    0      6765       117 |  10   7    0    0 390f |    2.044       0       5       0       5      7      7      0   6655     227       1   7    0390f a70f      8.190 "
test,1583576945564538112,55," | 55  |   6890       5   6869       0 |   4    5      6614       255 |   4  57   53    0 720f |    2.746       0       3       0       3     57     57      0   6559     310       2  57    0720f a70f     30.270 "
test,1583576945544169984,56," | 56  |   6890       5   6872       0 |   5    0      6769       103 |   1  57    0    0 720f |    1.983       0       5       0       5     57     57      0   6685     187       1  57    0720f a70f      8.190 "
test,1583576945549481984,57," | 57  |   6890       5   6827       0 |   4    0      6651       176 |   2  57    0    1 720f |    1.770       0       4       0       4     57     57      0   6225     602       2  57    1720f a70f     11.550 "
test,1583576945554578176,58," | 58  |   6890       5   6881       0 |   5    0      6791        90 |   1  57    0    0 720f |    2.014       0       5       0       5     57     57      0   6512     369       1  57    0720f a70f      8.970 "
test,1583576945548568064,5," |  5  |   6890       5   6888       0 |   5    0      6274       614 |   2   7    0    0 390f |    2.777       0       5       0       5      7      7      0   6152     736       2   7    0390f a70f      8.940 "
test,1583576945549318144,60," | 60  |   6890       5   6881       0 |   5    0      6448       433 |   3  57    0    0 720f |    2.014       0       5       0       5     57     57      0   6311     570       1  57    0720f a70f      8.220 "
test,1583576945540126208,61," | 61  |   6890       5   6876       4 |   5    0      6573       307 |   2  57    0    0 720f |    1.983       0       5       0       5     57     57      0   6343     537       1  57    0720f a70f      8.100 "
test,1583576945541817856,7," |  7  |   6890       5   6887       0 |   4    0      6789        98 |   5   7    0    1 390f |    1.770       0       4       0       4      7      7      0   6740     147       2   7    1390f a70f      6.510 "
test,1583576945544756992,9," |  9  |   6890       5   6886       0 |   5    0      6657       229 |   1   7    0    0 390f |    2.044       0       5       0       5      7      7      0   6623     263       1   7    0390f a70f      9.000 "
