test,1583576910542000896,10," | 10  |   6750       5   6722       0 |   5    0      6613       109 |   1   7    0    0 d10f |    2.044       0       5       0       5      7      7      0   6533     189       1   7    0d10f a70f      8.160 "
test,1583576910541594880,12," | 12  |   6750       5   6714      34 |   5    0      6675        73 |   1   7    0    0 d10f |    2.014       0       5       0       5      7      7      0   6563     185       1   7    0d10f a70f      8.250 "
test,1583576910541357056,13," | 13  |   6750       5   6746       0 |   5    0      6691        55 |   1   7    0    0 d10f |    2.044       0       5       0       5      7      7      0   6618     128       1   7    0d10f a70f      8.190 "
test,1583576910548564992,15," | 15  |   6750       4   6705      43 |   5    0      6477       271 |   2   7    0    0 d10f |    2.807       0       5       0       5      7      7      0   6171     577       2   7    0d10f a70f      9.030 "
test,1583576910563467008,16," | 16  |   6750       5   6746       0 |   5    0      6493       253 |   3  48    0    0 3b0f |    0           0       0       0       8      0      0      0   6318     428       0  48    03b0f a70f     30.390 "
test,1583576910543868160,17," | 17  |   6750       5   6737       9 |   5    0      6655        91 |   2  42    0    0 330f |    2.777       0       5       0       5     42     42      0   6455     291       2  42    0330f a70f      9.000 "
test,1583576910563128064,18," | 18  |   6750       5   6745       0 |   5    7      6391       354 |   2  48   42    0 3b0f |    0           0       0       0       8      0      0      0   6125     620       0  48    03b0f a70f     30.360 "
test,1583576910547791104,19," | 19  |   6750       5   6733      13 |   5    0      6618       128 |   2  42    0    0 330f |    2.746       0       5       0       5     42     42      0   6435     311       2  42    0330f a70f      9.600 "
test,1583576910543052032,1," |  1  |   6750       4   6747       0 |   5    0      6575       172 |   1   7    0    0 d10f |    2.716       0       5       0       5      7      7      0   6529     218       1   7    0d10f a70f      8.940 "
test,1583576910561826048,22," | 22  |   6750       5   6744       0 |   5    7      6682        62 |   1  48   42    0 3b0f |    0           0       0       0       8      0      0      0   6375     369       0  48    03b0f a70f     30.360 "
test,1583576910561278976,23," | 23  |   6750       5   6688       0 |   5    0      6660        28 |   2  48    0    0 3b0f |    0           0       0       0       8      0      0      0   6530     158       0  48    03b0f a70f     30.360 "
test,1583576910542489088,24," | 24  |   6750       5   6744       2 |   5    0      6669        77 |   1  42    0    0 330f |    2.044       0       5       0       5     42     42      0   6496     250       1  42    0330f a70f      8.220 "
test,1583576910545284096,26," | 26  |   6750       5   6744       2 |   5    0      6718        28 |   2  42    0    0 330f |    2.777       0       5       0       5     42     42      0   6593     153       2  42    0330f a70f      9.000 "
test,1583576910551641856,27," | 27  |   6750       5   6748       0 |   4    1      6551       197 |   6  42   48    0 330f |    4.974       0       5       0       5     42     42      0   6289     459       5  42    0330f a70f     11.850 "
test,1583576910562747904,28," | 28  |   6750       5   6738       8 |   0   11      6204       542 |   0  28   48    1 d70f |    0           0       0       0       8      0      0      0   5943     803       0  28    1d70f a70f     30.180 "
test,1583576910549843968,29," | 29  |   6750       1   6739       9 |   5    0      5956       792 |   5  42    0    0 330f |    3.509       0       5       0       5     42     42      0   5675    1073       3  42    0330f a70f     12.570 "
test,1583576910562952960,30," | 30  |   6750       5   6743       3 |   5    3      6657        89 |   2  48   42    0 3b0f |    0           0       0       0       8      0      0      0   6412     334       0  48    03b0f a70f     30.360 "
test,1583576910561510912,35," | 35  |   6750       5   6743       3 |   5    0      6433       313 |   2  48    0    0 3b0f |    0           0       0       0       8      0      0      0   6283     463       0  48    03b0f a70f     30.360 "
test,1583576910567302912,40," | 40  |   6750       5   6668      74 |   5    1      6355       387 |   1  48   42    0 3b0f |    2.014       0       4       0       4     48     48      0   6195     547       1  48    03b0f a70f     30.330 "
test,1583576910567090944,41," | 41  |   6750       5   6677      59 |   3   10      6678        58 |   1  42   46    0 330f |    3.509       0       1       0       1     42     42      0   6517     219       3  42    0330f a70f     30.390 "
test,1583576910563896832,42," | 42  |   6750       5   6684      62 |   4    0      6624       122 |   2  42    0    1 330f |    1.739       0       1       0       1     42     42      0   6479     267       2  42    1330f a70f     30.300 "
test,1583576910565754880,44," | 44  |   6750       5   6689      57 |   5    2      6621       125 |   1  48   42    0 3b0f |    2.044       0       3       0       3     48     48      0   6489     257       1  48    03b0f a70f     30.360 "
test,1583576910565435904,45," | 45  |   6750       5   6703      43 |   5    3      6545       201 |   1  48   42    0 3b0f |    2.044       0       4       0       4     48     48      0   6425     321       1  48    03b0f a70f     30.330 "
test,1583576910564192000,46," | 46  |   6750       5   6682      57 |   0    8      6427       312 |   0  46   48    1 9d0f |    0           0       0       0       8      0      0      0   6319     420       0  46    19d0f a70f     30.210 "
test,1583576910565007872,47," | 47  |   6750       5   6689      57 |   4   10      6531       215 |   1  42   46    0 330f |    1.983       0       2       0       2     42     42      0   6415     331       1  42    0330f a70f     30.360 "
test,1583576910567537920,48," | 48  |   6750       5   6624      55 |   4    2      6545       134 |  14  48   42    1 3b0f |    3.814       0       2       0       2     48     48      0   6420     259       5  48    13b0f a70f     30.300 "
test,1583576910546906880,49," | 49  |   6750       5   6740       0 |   5    0      6609       131 |   1  58    0    0 260f |    2.044       0       5       0       5     58     58      0   6562     178       1  58    0260f a70f      8.250 "
test,1583576910549516032,51," | 51  |   6750       5   6741       0 |   5    0      6664        77 |   1   7    0    0 d10f |    2.075       0       5       0       5      7      7      0   6640     101       1   7    0d10f a70f      8.250 "
test,1583576910545515008,52," | 52  |   6750       3   6714      28 |   3    2      6401       341 |   2  42   48    0 330f |    2.777       0       5       0       5     42     42      0   6282     460       2  42    0330f a70f      9.540 "
test,1583576910545021952,53," | 53  |   6750       5   6724       0 |   5    0      6368       356 |   2  58    0    0 260f |    2.746       0       5       0       5     58     58      0   6300     424       2  58    0260f a70f      8.820 "
test,1583576910543424000,54," | 54  |   6750       5   6742       0 |   5    0      6629       113 |   1   7    0    0 d10f |    2.075       0       5       0       5      7      7      0   6523     219       1   7    0d10f a70f      8.220 "
test,1583576910547385088,55," | 55  |   6750       5   6729       0 |   5    0      6475       254 |   1  58    0    0 260f |    2.014       0       5       0       5     58     58      0   6420     309       1  58    0260f a70f      8.100 "
test,1583576910546077952,56," | 56  |   6750       5   6732       0 |   5    0      6631       101 |   2   7    0    0 d10f |    2.777       0       5       0       5      7      7      0   6549     183       2   7    0d10f a70f      8.910 "
test,1583576910565604096,57," | 57  |   6750       2   6687       0 |   1    7      6513       174 |   4   7   58    0 d10f |    5.706       0       1       0       1      7      7      0   6091     596       6   7    0d10f a70f     30.390 "
test,1583576910566825984,58," | 58  |   6750       5   6741       0 |   1    1      6653        88 |  11  58    7    1 260f |    1.739       0       1       0       1     58     58      0   6379     362       2  58    1260f a70f     30.300 "
test,1583576910544409088,5," |  5  |   6750       5   6748       0 |   5    0      6144       604 |   2   7    0    0 d10f |    2.777       0       5       0       5      7      7      0   6025     723       2   7    0d10f a70f      8.880 "
test,1583576910548751104,60," | 60  |   6750       5   6741       0 |   5    0      6317       424 |   2   7    0    0 d10f |    2.807       0       5       0       5      7      7      0   6182     559       2   7    0d10f a70f      8.910 "
test,1583576910566107904,61," | 61  |   6750       5   6736       4 |   3    4      6436       304 |   1  58    7    0 260f |    2.044       0       2       0       2     58     58      0   6212     528       1  58    0260f a70f     30.360 "
test,1583576910541112832,7," |  7  |   6750       5   6747       0 |   4    0      6653        94 |   2   7    0    1 d10f |    1.770       0       4       0       4      7      7      0   6607     140       2   7    1d10f a70f      6.510 "
test,1583576910543209984,9," |  9  |   6750       5   6746       0 |   5    0      6518       228 |   1   7    0    0 d10f |    2.014       0       5       0       5      7      7      0   6487     259       1   7    0d10f a70f      8.280 "
