test,1583576845565251072,10," | 10  |   6490       5   6462       0 |   2    7      6358       104 |  13   1    9    0 c00f |    1.342       0       4       0       4      1      1      0   6280     182       1   1    0c00f a70f     30.330 "
test,1583576845546255104,12," | 12  |   6490       5   6454      34 |   5    0      6417        71 |   4   1    0    0 c00f |    1.373       0       5       0       5      1      1      0   6306     182       1   1    0c00f a70f      7.470 "
test,1583576845540091136,13," | 13  |   6490       5   6486       0 |   5    0      6435        51 |   6   1    0    0 c00f |    1.342       0       5       0       5      1      1      0   6361     125       1   1    0c00f a70f      8.100 "
test,1583576845548358912,15," | 15  |   6490       5   6445      43 |   5    0      6230       258 |   5   1    0    0 c00f |    2.105       0       4       1       5      1      1      0   5940     548       2   1    0c00f a70f     10.380 "
test,1583576845560446976,16," | 16  |   6490       5   6486       0 |   0    8      6247       239 |   0  16   18    1 b20f |    0           0       0       0       8      0      0      0   6079     407       0  16    1b20f a70f     30.150 "
test,1583576845543653888,17," | 17  |   6490       5   6478       8 |   5    0      6398        88 |   3  18    0    0 c00f |    3.448       0       5       0       5     18     18      0   6205     281       3  18    0c00f a70f      9.630 "
test,1583576845542618880,18," | 18  |   6490       5   6485       0 |   4    0      6144       341 |   4  18    0    1 c00f |    1.739       0       4       0       4     18     18      0   5886     599       2  18    1c00f a70f      6.480 "
test,1583576845563283968,19," | 19  |   6490       4   6474      12 |   5    0      6363       123 |   2  18    0    0 c00f |    4.211       0       4       0       4     18     18      0   6185     301       4  18    0c00f a70f     30.240 "
test,1583576845563944192,1," |  1  |   6490       4   6487       0 |   5    0      6322       165 |   5   1    0    1 c00f |    5.279       0       2       0       2      1      1      0   6277     210       7   1    1c00f a70f     30.300 "
test,1583576845544198912,22," | 22  |   6490       5   6484       0 |   5    0      6428        56 |   1  18    0    0 c00f |    1.983       0       5       0       5     18     18      0   6134     350       1  18    0c00f a70f      8.040 "
test,1583576845562789888,23," | 23  |   6490       5   6428       0 |   5    0      6401        27 |   3  18    0    0 c00f |    2.746       0       4       0       4     18     18      0   6276     152       2  18    0c00f a70f     30.360 "
test,1583576845542818048,24," | 24  |   6490       5   6484       2 |   5    0      6418        68 |   1  18    0    0 c00f |    1.983       0       5       0       5     18     18      0   6251     235       1  18    0c00f a70f      8.220 "
test,1583576845543013120,26," | 26  |   6490       5   6484       2 |   5    0      6458        28 |   2  18    0    0 c00f |    2.716       0       5       0       5     18     18      0   6338     148       2  18    0c00f a70f      8.940 "
test,1583576845565742080,27," | 27  |   6490       5   6488       0 |   3    9      6304       184 |   4  18   29    0 c00f |    4.913       0       3       1       4     18      1      0   6051     437       3  18    0c00f a70f     30.270 "
test,1583576845561922048,28," | 28  |   6490       5   6478       8 |   1    5      5963       523 |   2  28   35    1 920f |    0           0       0       0       8      0      0      0   5716     770       0  28    1920f a70f     30.180 "
test,1583576845562541056,29," | 29  |   6490       3   6479       9 |   0    0      5732       756 |   0  29    0    1 600f |    0           0       0       0       8      0      0      0   5466    1022       0  29    1600f a70f     30.150 "
test,1583576845561195008,30," | 30  |   6490       5   6483       3 |   1   10      6400        86 |   1  28   35    0 920f |    0           0       0       0       8      0      0      0   6166     320       0  28    0920f a70f     30.360 "
test,1583576845561754112,35," | 35  |   6490       5   6483       3 |   0    1      6187       299 |   0  35   18    1 b30f |    0           0       0       0       8      0      0      0   6047     439       0  35    1b30f a70f     30.210 "
test,1583576845546068992,40," | 40  |   6490       5   6408      74 |   5    0      6104       378 |   3  18    0    0 c00f |    3.448       0       5       0       5     18     18      0   5947     535       3  18    0c00f a70f     10.980 "
test,1583576845545862912,41," | 41  |   6490       5   6417      59 |   4    4      6422        54 |   2  18   16    0 c00f |    3.479       0       5       0       5     18     18      0   6262     214       3  18    0c00f a70f     10.380 "
test,1583576845550765056,42," | 42  |   6490       5   6424      62 |   5    0      6365       121 |   2  18    0    0 c00f |    2.746       0       5       0       5     18     18      0   6223     263       2  18    0c00f a70f     10.380 "
test,1583576845544009984,44," | 44  |   6490       5   6429      57 |   5    0      6366       120 |   2  18    0    0 c00f |    3.479       0       5       0       5     18     18      0   6239     247       3  18    0c00f a70f      9.690 "
test,1583576845548161024,45," | 45  |   6490       5   6443      43 |   5    0      6291       195 |   2  18    0    0 c00f |    3.448       0       5       0       5     18     18      0   6171     315       3  18    0c00f a70f     10.200 "
test,1583576845549191936,46," | 46  |   6490       5   6422      57 |   5    0      6185       294 |   2  18    0    0 c00f |    3.448       0       5       0       5     18     18      0   6078     401       3  18    0c00f a70f     10.350 "
test,1583576845541513984,47," | 47  |   6490       5   6429      57 |   5    0      6279       207 |   1  18    0    0 c00f |    2.014       0       5       0       5     18     18      0   6166     320       1  18    0c00f a70f      8.160 "
test,1583576845544726016,48," | 48  |   6490       5   6364      55 |   5    0      6290       129 |   2  18    0    0 c00f |    3.448       0       5       0       5     18     18      0   6167     252       3  18    0c00f a70f     10.350 "
test,1583576845545134080,49," | 49  |   6490       5   6480       0 |   5    0      6352       128 |   2  54    0    0 d70f |    2.777       0       5       0       5     54     54      0   6307     173       2  54    0d70f a70f      9.000 "
test,1583576845539693056,51," | 51  |   6490       5   6481       0 |   5    0      6410        71 |   1   1    0    0 c00f |    1.342       0       5       0       5      1      1      0   6387      94       1   1    0c00f a70f      7.590 "
test,1583576845547414016,52," | 52  |   6490       5   6454      28 |   4    4      6157       325 |   3  18   16    0 c00f |    2.777       0       5       0       5     18     18      0   6043     439       2  18    0c00f a70f     10.260 "
test,1583576845543454976,53," | 53  |   6490       5   6464       0 |   5    0      6121       343 |   3  54    0    0 d70f |    3.448       0       5       0       5     54     54      0   6055     409       3  54    0d70f a70f      9.630 "
test,1583576845566323968,54," | 54  |   6490       5   6482       0 |   2    9      6374       108 |  17  54    9    1 d70f |    1.739       0       3       0       3     54     54      0   6269     213       2  54    1d70f a70f     30.300 "
test,1583576845548500992,55," | 55  |   6490       5   6469       0 |   5    0      6222       247 |   2  54    0    0 d70f |    2.746       0       5       0       5     54     54      0   6169     300       2  54    0d70f a70f      8.850 "
test,1583576845540834048,56," | 56  |   6490       5   6472       0 |   5    0      6374        98 |   4   1    0    0 c00f |    2.075       0       5       0       5      1      1      0   6296     176       2   1    0c00f a70f      8.130 "
test,1583576845560973056,57," | 57  |   6490       5   6427       0 |   3    5      6259       168 |   2  54    1    0 d70f |    0           0       0       0       8      0      0      0   5855     572       0  54    0d70f a70f     30.360 "
test,1583576845541786880,58," | 58  |   6490       5   6481       0 |   5    1      6394        87 |   1  54    1    0 d70f |    2.044       0       5       0       5     54     54      0   6129     352       1  54    0d70f a70f      9.000 "
test,1583576845545691136,5," |  5  |   6490       4   6488       0 |   5    0      5912       576 |   5   1    0    0 c00f |    3.540       0       4       1       5      1      1      0   5798     690       4   1    0c00f a70f     11.040 "
test,1583576845540489984,60," | 60  |   6490       5   6481       0 |   5    0      6079       402 |   2   1    0    0 c00f |    2.105       0       5       0       5      1      1      0   5948     533       2   1    0c00f a70f      8.220 "
test,1583576845548815104,61," | 61  |   6490       5   6476       4 |   5    1      6182       298 |   1  54    1    0 d70f |    2.075       0       5       0       5     54     54      0   5965     515       1  54    0d70f a70f      8.160 "
test,1583576845541071872,7," |  7  |   6490       5   6487       0 |   5    0      6396        91 |   5   1    0    0 c00f |    1.342       0       5       0       5      1      1      0   6352     135       1   1    0c00f a70f      8.160 "
test,1583576845559976192,9," |  9  |   6490       5   6486       0 |   0   12      6268       218 |   0   9   54    1  60f |    0           0       0       0       8      0      0      0   6237     249       0   9    1 60f a70f     30.180 "
