test,1583576794295005184,10," | 10  |   6285       5   6257       0 |   5    0      6158        99 |   1   9    0    0 bd0f |    1.983       0       5       0       5      9      9      0   6080     177       1   9    0bd0f a70f      8.220 "
test,1583576794294500096,12," | 12  |   6285       5   6249      34 |   5    0      6215        68 |   1   9    0    0 bd0f |    2.746       0       5       0       5      9      9      0   6108     175       2   9    0bd0f a70f      8.850 "
test,1583576794293689088,13," | 13  |   6285       5   6281       0 |   5    0      6230        51 |   1   9    0    0 bd0f |    2.777       0       5       0       5      9      9      0   6157     124       2   9    0bd0f a70f      9.660 "
test,1583576794296677120,15," | 15  |   6285       5   6240      43 |   5    0      6035       248 |   2   9    0    0 bd0f |    3.479       0       5       0       5      9      9      0   5756     527       3   9    0bd0f a70f      9.690 "
test,1583576794293356032,16," | 16  |   6285       5   6281       0 |   5    0      6056       225 |   1  41    0    0 d80f |    2.014       0       5       0       5     41     41      0   5890     391       1  41    0d80f a70f      9.450 "
test,1583576794291547904,17," | 17  |   6285       5   6273       8 |   5    0      6196        85 |   1  41    0    0 d80f |    2.014       0       5       0       5     41     41      0   6012     269       1  41    0d80f a70f      8.250 "
test,1583576794292797184,18," | 18  |   6285       5   6280       0 |   5    0      5945       335 |   3  41    0    0 d80f |    2.746       0       5       0       5     41     41      0   5696     584       2  41    0d80f a70f      8.850 "
test,1583576794315973888,19," | 19  |   6285       5   6269      12 |   5    0      6160       121 |   2  41    0    0 d80f |    2.746       0       4       0       4     41     41      0   5992     289       2  41    0d80f a70f     30.240 "
test,1583576794289625856,1," |  1  |   6285       4   6282       0 |   5    0      6119       163 |   1   9    0    0 bd0f |    2.685       0       5       0       5      9      9      0   6075     207       1   9    0bd0f a70f      8.910 "
test,1583576794295486976,22," | 22  |   6285       5   6279       0 |   5    0      6226        53 |   2  41    0    0 d80f |    1.983       0       5       0       5     41     41      0   5944     335       1  41    0d80f a70f      9.630 "
test,1583576794293864960,23," | 23  |   6285       5   6223       0 |   5    0      6198        25 |   2  41    0    0 d80f |    2.746       0       5       0       5     41     41      0   6076     147       2  41    0d80f a70f      8.970 "
test,1583576794293144064,24," | 24  |   6285       5   6279       2 |   5    0      6214        67 |   3  41    0    0 d80f |    2.716       0       5       0       5     41     41      0   6054     227       2  41    0d80f a70f      8.820 "
test,1583576794290412800,26," | 26  |   6285       5   6279       2 |   5    0      6255        26 |   2  41    0    0 d80f |    2.746       0       5       0       5     41     41      0   6139     142       2  41    0d80f a70f      8.970 "
test,1583576794307276032,27," | 27  |   6285       5   6283       0 |   5    0      6105       178 |   2  41    0    0 d80f |    2.746       0       5       0       5     41     41      0   5863     420       2  41    0d80f a70f      9.510 "
test,1583576794301947136,28," | 28  |   6285       5   6273       8 |   5    0      5772       509 |   2  41    0    0 d80f |    3.479       0       5       0       5     41     41      0   5537     744       3  41    0d80f a70f      9.510 "
test,1583576794311943168,29," | 29  |   6285       3   6274       9 |   0    3      5558       725 |   0  29   41    1 aa0f |    0           0       0       0       8      0      0      0   5299     984       0  29    1aa0f a70f     30.180 "
test,1583576794297787904,30," | 30  |   6285       5   6278       3 |   5    0      6197        84 |   3  41    0    0 d80f |    2.777       0       5       0       5     41     41      0   5971     310       2  41    0d80f a70f      8.880 "
test,1583576794295324160,35," | 35  |   6285       5   6278       3 |   5    0      5989       292 |   3  41    0    0 d80f |    2.716       0       5       0       5     41     41      0   5853     428       2  41    0d80f a70f      9.630 "
test,1583576794313317888,40," | 40  |   6285       5   6203      74 |   5    0      5909       368 |   1  41    0    0 d80f |    1.983       0       4       0       4     41     41      0   5758     519       1  41    0d80f a70f     30.360 "
test,1583576794294781952,41," | 41  |   6285       5   6212      59 |   4    0      6218        53 |   5  41    0    1 d80f |    1.739       0       4       0       4     41     41      0   6068     203       2  41    1d80f a70f      6.480 "
test,1583576794296320000,42," | 42  |   6285       5   6219      62 |   5    0      6162       119 |   1  41    0    0 d80f |    1.983       0       5       0       5     41     41      0   6027     254       1  41    0d80f a70f      8.910 "
test,1583576794291137024,44," | 44  |   6285       5   6224      57 |   5    0      6161       120 |   1  41    0    0 d80f |    1.983       0       5       0       5     41     41      0   6043     238       1  41    0d80f a70f      8.940 "
test,1583576794313689088,45," | 45  |   6285       5   6238      43 |   5    0      6092       189 |   1  41    0    0 d80f |    2.044       0       4       0       4     41     41      0   5976     305       1  41    0d80f a70f     30.270 "
test,1583576794294092800,46," | 46  |   6285       5   6217      57 |   5    0      5990       284 |   1  41    0    0 d80f |    2.014       0       5       0       5     41     41      0   5887     387       1  41    0d80f a70f      9.720 "
test,1583576794295990016,47," | 47  |   6285       5   6224      57 |   5    0      6081       200 |   1  41    0    0 d80f |    2.014       0       5       0       5     41     41      0   5972     309       1  41    0d80f a70f      8.130 "
test,1583576794292578048,48," | 48  |   6285       5   6159      55 |   5    0      6089       125 |   1  41    0    0 d80f |    1.953       0       5       0       5     41     41      0   5976     238       1  41    0d80f a70f      8.910 "
test,1583576794290780928,49," | 49  |   6285       5   6275       0 |   5    5      6150       125 |   1  53    9    0 b40f |    2.044       0       5       0       5     53     53      0   6107     168       1  53    0b40f a70f      8.100 "
test,1583576794289954816,51," | 51  |   6285       5   6276       0 |   5    0      6208        68 |   2   9    0    0 bd0f |    2.716       0       5       0       5      9      9      0   6186      90       2   9    0bd0f a70f      8.940 "
test,1583576794292987136,52," | 52  |   6285       5   6249      28 |   3    0      5963       314 |   2  41    0    0 d80f |    2.746       0       5       0       5     41     41      0   5854     423       2  41    0d80f a70f      9.660 "
test,1583576794290585088,53," | 53  |   6285       5   6259       0 |   4    0      5926       333 |   5  53    0    1 b40f |    1.739       0       4       0       4     53     53      0   5861     398       2  53    1b40f a70f      6.480 "
test,1583576794295788032,54," | 54  |   6285       4   6277       0 |   5    0      6172       105 |   1   9    0    0 bd0f |    2.014       0       5       0       5      9      9      0   6072     205       1   9    0bd0f a70f      8.850 "
test,1583576794290169088,55," | 55  |   6285       5   6264       0 |   5    5      6026       238 |   1  53    9    0 b40f |    2.044       0       5       0       5     53     53      0   5975     289       1  53    0b40f a70f      8.250 "
test,1583576794291766784,56," | 56  |   6285       5   6267       0 |   5    0      6173        94 |   2   9    0    0 bd0f |    2.685       0       5       0       5      9      9      0   6098     169       2   9    0bd0f a70f      8.880 "
test,1583576794309277184,57," | 57  |   6285       5   6222       0 |   0    0      6062       160 |   0   0    0    0    0 |    0           0       0       0       8      0      0      0   5677     545       0   0    0   0 a70f     30.360 "
test,1583576794291347968,58," | 58  |   6285       4   6276       0 |   5    0      6191        85 |   3   9    0    0 bd0f |    3.509       0       5       0       5      9      9      0   5932     344       3   9    0bd0f a70f      9.630 "
test,1583576794310668032,5," |  5  |   6285       5   6283       0 |   0    9      5726       557 |   0   5    9    1 b50f |    0           0       0       0       8      0      0      0   5615     668       0   5    1b50f a70f     30.180 "
test,1583576794292361984,60," | 60  |   6285       5   6276       0 |   5    0      5886       390 |   3   9    0    0 bd0f |    3.479       0       5       0       5      9      9      0   5760     516       3   9    0bd0f a70f      9.510 "
test,1583576794312602880,61," | 61  |   6285       4   6271       4 |   5    0      5984       291 |   2   9    0    0 bd0f |    2.777       0       4       0       4      9      9      0   5772     503       2   9    0bd0f a70f     30.270 "
test,1583576794289166080,7," |  7  |   6285       5   6282       0 |   5    0      6192        90 |   1   9    0    0 bd0f |    2.044       0       5       0       5      9      9      0   6150     132       1   9    0bd0f a70f      8.160 "
test,1583576794289402112,9," |  9  |   6285       5   6281       0 |   5    0      6072       209 |   4   9    0    1 bd0f |    1.739       0       4       0       4      9      9      0   6042     239       2   9    1bd0f a70f      6.480 "
