test,1583576958563886848,10," | 10  |   6942       5   6914       0 |   1    5      6802       112 |  10   7    1    0 b50f |    2.014       0       2       0       2      7      7      0   6722     192       1   7    0b50f a70f     30.360 "
test,1583576958564305152,12," | 12  |   6942       5   6906      34 |   5    0      6864        76 |   1   7    0    0 b50f |    2.014       0       3       0       3      7      7      0   6749     191       1   7    0b50f a70f     30.330 "
test,1583576958561971968,13," | 13  |   6942       5   6938       0 |   5    0      6880        58 |   2   7    0    0 b50f |    2.014       0       2       0       2      7      7      0   6806     132       1   7    0b50f a70f     30.390 "
test,1583576958566892032,15," | 15  |   6942       5   6897      43 |   4    2      6660       280 |   2   7    5    0 b50f |    2.777       0       3       0       3      7      7      0   6348     592       2   7    0b50f a70f     30.390 "
test,1583576958548126976,16," | 16  |   6942       5   6938       0 |   5    0      6678       260 |   1  26    0    0 ca0f |    2.014       0       5       0       5     26     26      0   6496     442       1  26    0ca0f a70f      8.220 "
test,1583576958544840960,17," | 17  |   6942       5   6929       9 |   5    0      6842        96 |   1  26    0    0 ca0f |    2.044       0       5       0       5     26     26      0   6639     299       1  26    0ca0f a70f      9.720 "
test,1583576958545833216,18," | 18  |   6942       5   6937       0 |   5    0      6577       360 |   1  26    0    0 ca0f |    2.777       0       5       0       5     26     26      0   6304     633       2  26    0ca0f a70f      8.820 "
test,1583576958550580992,19," | 19  |   6942       5   6925      13 |   5    0      6808       130 |   1  26    0    0 ca0f |    2.014       0       5       0       5     26     26      0   6619     319       1  26    0ca0f a70f     10.410 "
test,1583576958562750976,1," |  1  |   6942       4   6939       0 |   0    9      6757       182 |   0   1    7    1 820f |    0           0       0       0       8      0      0      0   6708     231       0   1    1820f a70f     30.180 "
test,1583576958544502016,22," | 22  |   6942       5   6936       0 |   5    0      6874        62 |   1  26    0    0 ca0f |    2.014       0       5       0       5     26     26      0   6561     375       1  26    0ca0f a70f      8.940 "
test,1583576958543883008,23," | 23  |   6942       5   6880       0 |   5    0      6851        29 |   1  26    0    0 ca0f |    2.044       0       5       0       5     26     26      0   6717     163       1  26    0ca0f a70f      8.100 "
test,1583576958543350016,24," | 24  |   6942       5   6936       2 |   5    0      6861        77 |   1  26    0    0 ca0f |    2.014       0       5       0       5     26     26      0   6688     250       1  26    0ca0f a70f      8.220 "
test,1583576958543085056,26," | 26  |   6942       5   6936       2 |   4    0      6910        28 |   2  26    0    1 ca0f |    1.739       0       4       0       4     26     26      0   6782     156       2  26    1ca0f a70f      6.510 "
test,1583576958547549952,27," | 27  |   6942       5   6940       0 |   1    1      6736       204 |   2  26    7    0 ca0f |    2.777       0       5       0       5     26     26      0   6469     471       2  26    0ca0f a70f     11.850 "
test,1583576958566326016,28," | 28  |   6942       4   6930       8 |   5    0      6389       549 |   2  26    0    0 ca0f |    3.509       0       4       0       4     26     26      0   6120     818       3  26    0ca0f a70f     30.300 "
test,1583576958550287872,29," | 29  |   6942       5   6931       9 |   2    0      6125       815 |   3  26    0    0 ca0f |    2.777       0       5       0       5     26     26      0   5834    1106       2  26    0ca0f a70f     12.570 "
test,1583576958549412864,30," | 30  |   6942       5   6935       3 |   5    0      6843        95 |   3  26    0    0 ca0f |    3.509       0       5       0       5     26     26      0   6588     350       3  26    0ca0f a70f      9.570 "
test,1583576958545562112,35," | 35  |   6942       5   6935       3 |   5    0      6611       327 |   2  26    0    0 ca0f |    2.777       0       5       0       5     26     26      0   6454     484       2  26    0ca0f a70f      8.880 "
test,1583576958569111040,40," | 40  |   6942       5   6860      74 |   5    0      6537       397 |   2  47    0    0 9c0f |    2.777       0       2       0       2     47     47      0   6372     562       2  47    09c0f a70f     30.330 "
test,1583576958565753856,41," | 41  |   6942       5   6869      59 |   5    0      6867        61 |   2  47    0    0 9c0f |    2.014       0       2       0       2     47     47      0   6705     223       1  47    09c0f a70f     30.390 "
test,1583576958564945920,42," | 42  |   6942       5   6876      62 |   5    0      6813       125 |   1  47    0    0 9c0f |    1.983       0       2       0       2     47     47      0   6665     273       1  47    09c0f a70f     30.390 "
test,1583576958568875008,44," | 44  |   6942       5   6881      57 |   5    0      6810       128 |   2  47    0    0 9c0f |    1.983       0       2       0       2     47     47      0   6673     265       1  47    09c0f a70f     30.390 "
test,1583576958567964160,45," | 45  |   6942       5   6895      43 |   5    0      6729       209 |   3  47    0    0 9c0f |    2.014       0       2       0       2     47     47      0   6607     331       1  47    09c0f a70f     30.360 "
test,1583576958569972992,46," | 46  |   6942       5   6874      57 |   5    0      6610       321 |   2  47    0    0 9c0f |    1.983       0       2       0       2     47     47      0   6500     431       1  47    09c0f a70f     30.360 "
test,1583576958566667008,47," | 47  |   6942       5   6881      57 |   4    0      6717       221 |   3  47    0    1 9c0f |    1.739       0       2       0       2     47     47      0   6598     340       2  47    19c0f a70f     30.300 "
test,1583576958567473920,48," | 48  |   6942       5   6816      55 |   5    0      6735       136 |   1  47    0    0 9c0f |    1.983       0       2       0       2     47     47      0   6607     264       1  47    09c0f a70f     30.360 "
test,1583576958544045056,49," | 49  |   6942       5   6932       0 |   5    0      6799       133 |   1  53    0    0 470f |    2.075       0       5       0       5     53     53      0   6752     180       1  53    0470f a70f      8.160 "
test,1583576958546160896,51," | 51  |   6942       5   6933       0 |   5    0      6856        77 |   3  26    0    0 ca0f |    3.509       0       5       0       5     26     26      0   6831     102       3  26    0ca0f a70f      9.540 "
test,1583576958546552832,52," | 52  |   6942       5   6905      29 |   5    0      6587       347 |   1  26    0    0 ca0f |    2.075       0       5       0       5     26     26      0   6464     470       1  26    0ca0f a70f      8.280 "
test,1583576958542518016,53," | 53  |   6942       5   6916       0 |   4    0      6549       367 |   2  53    0    1 470f |    1.739       0       4       0       4     53     53      0   6481     435       2  53    1470f a70f      6.480 "
test,1583576958565342976,54," | 54  |   6942       5   6934       0 |   4    5      6817       117 |   4   7    1    0 b50f |    2.044       0       2       0       2      7      7      0   6707     227       1   7    0b50f a70f     30.390 "
test,1583576958544322048,55," | 55  |   6942       5   6921       0 |   5    0      6664       257 |   1  53    0    0 470f |    2.044       0       5       0       5     53     53      0   6609     312       1  53    0470f a70f      8.250 "
test,1583576958546365952,56," | 56  |   6942       5   6924       0 |   5    0      6819       105 |   2  26    0    0 ca0f |    2.777       0       5       0       5     26     26      0   6735     189       2  26    0ca0f a70f      8.850 "
test,1583576958549199104,57," | 57  |   6942       5   6879       0 |   4    0      6698       181 |   1  26    0    0 ca0f |    2.044       0       5       0       5     26     26      0   6267     612       1  26    0ca0f a70f      9.000 "
test,1583576958567822080,58," | 58  |   6942       4   6933       0 |   1    0      6841        92 |   8  53    0    0 470f |    7.202       0       2       0       2     53     53      0   6559     374       8  53    0470f a70f     30.390 "
test,1583576958562177024,5," |  5  |   6942       5   6940       0 |   0    6      6319       621 |   0   5    7    1 d40f |    0           0       0       0       8      0      0      0   6197     743       0   5    1d40f a70f     30.210 "
test,1583576958547779072,60," | 60  |   6942       5   6933       0 |   5    0      6494       439 |   4  26    0    0 ca0f |    2.746       0       5       0       5     26     26      0   6356     577       2  26    0ca0f a70f      8.940 "
test,1583576958567287808,61," | 61  |   6942       5   6928       4 |   1    1      6620       312 |   2  26   53    0 ca0f |    3.509       0       2       0       2     26     26      0   6389     543       3  26    0ca0f a70f     30.330 "
test,1583576958562405120,7," |  7  |   6942       5   6939       0 |   4    0      6840        99 |   3   7    0    1 b50f |    1.739       0       2       0       2      7      7      0   6792     147       2   7    1b50f a70f     30.300 "
test,1583576958564769024,9," |  9  |   6942       5   6938       0 |   4    5      6707       231 |   3   7    1    0 b50f |    2.044       0       2       0       2      7      7      0   6672     266       1   7    0b50f a70f     30.390 "
