test,1583575240008923136,10," | 10  |     68       5     40       0 |   2    0        40         0 |   1  12    0    0 860f |    2.075       0       5       0       5     12     12      0     38       2       1  12    0860f a70f      9.720 "
test,1583575240007070976,12," | 12  |     68       5     66       0 |   4    0        66         0 |   7  12    0    1 860f |    1.739       0       4       0       4     12     12      0     66       0       2  12    1860f a70f      6.510 "
test,1583575240007767040,13," | 13  |     68       5     64       0 |   5    0        64         0 |   2  12    0    0 860f |    2.044       0       5       0       5     12     12      0     63       1       1  12    0860f a70f      8.970 "
test,1583575240006594816,15," | 15  |     68       5     66       0 |   5    0        62         4 |   4  12    0    0 860f |    2.075       0       5       0       5     12     12      0     62       4       1  12    0860f a70f      8.280 "
test,1583575240010046976,16," | 16  |     68       5     64       0 |   5    0        60         4 |   1  26    0    0 180f |    2.044       0       5       0       5     26     26      0     58       6       1  26    0180f a70f      9.600 "
test,1583575240028701184,17," | 17  |     68       2     64       0 |   4    4        64         0 |   3  19   26    0 ca0f |    4.089       0       4       0       4     19     19      0     59       5       4  19    0ca0f a70f     30.270 "
test,1583575240030364928,18," | 18  |     68       5     63       0 |   2    4        59         4 |  11  18   26    1 3a0f |    0           0       0       0       8      0      0      0     54       9       0  18    13a0f a70f     30.180 "
test,1583575240011663872,19," | 19  |     68       3     64       0 |   4    0        64         0 |   2  19    0    1 ca0f |    3.814       0       4       0       4     19     19      0     60       4       5  19    1ca0f a70f      9.120 "
test,1583575240009310976,1," |  1  |     68       4     65       0 |   5    0        64         1 |   1  12    0    0 860f |    2.716       0       5       0       5     12     12      0     64       1       1  12    0860f a70f      8.940 "
test,1583575240026714112,20," | 20  |     68       3     60       0 |   1    0        53         7 |  17  35    0    0 3a0f |    0           0       0       0       8      0      0      0     39      21       0  35    03a0f a70f     30.360 "
test,1583575240010871040,22," | 22  |     68       5     62       0 |   5    2        62         0 |   2  26   35    0 180f |    2.777       0       5       0       5     26     26      0     59       3       2  26    0180f a70f     11.850 "
test,1583575240019772928,23," | 23  |     68       5      6       0 |   4    0         6         0 |  11  26    0    0 180f |    2.044       0       5       0       5     26     26      0      6       0       1  26    0180f a70f     10.230 "
test,1583575240010406912,24," | 24  |     68       5     64       0 |   5    0        64         0 |   1  26    0    0 180f |    2.044       0       5       0       5     26     26      0     63       1       1  26    0180f a70f      9.720 "
test,1583575240013134848,26," | 26  |     68       5     64       0 |   4    0        64         0 |   3  26    0    1 180f |    1.739       0       4       0       4     26     26      0     61       3       2  26    1180f a70f      9.360 "
test,1583575240012870144,27," | 27  |     68       5     66       0 |   5    0        63         3 |   1  19    0    0 ca0f |    2.014       0       5       0       5     19     19      0     60       6       1  19    0ca0f a70f      9.510 "
test,1583575240028947200,28," | 28  |     68       5     64       0 |   1    3        62         2 |   5  19   35    0 ca0f |    4.791       0       3       0       3     19     19      0     58       6       5  19    0ca0f a70f     30.300 "
test,1583575240029150976,29," | 29  |     68       3     66       0 |   4    0        58         8 |   1  19    0    0 ca0f |    2.044       0       3       0       3     19     19      0     55      11       1  19    0ca0f a70f     30.390 "
test,1583575240010670848,30," | 30  |     68       5     64       0 |   5    0        64         0 |   1  35    0    0 3a0f |    2.044       0       5       0       5     35     35      0     61       3       1  35    03a0f a70f      8.190 "
test,1583575240005524992,35," | 35  |     68       5     64       0 |   4    0        61         3 |  11  35    0    1 3a0f |    1.739       0       4       0       4     35     35      0     60       4       2  35    13a0f a70f      6.480 "
test,1583575240026382080,40," | 40  |     68       5     59       1 |   0    2        51         9 |   0  40   26    1 370f |    0           0       0       0       8      0      0      0     48      12       0  40    1370f a70f     30.180 "
test,1583575240009136896,41," | 41  |     68       5     53       1 |   5    0        54         0 |   4  26    0    0 180f |    2.746       0       5       0       5     26     26      0     52       2       2  26    0180f a70f      9.660 "
test,1583575240014098944,42," | 42  |     68       5     63       1 |   5    0        63         1 |   4  26    0    0 180f |    2.807       0       5       0       5     26     26      0     61       3       2  26    0180f a70f      9.630 "
test,1583575240009649920,44," | 44  |     68       5     63       1 |   5    0        64         0 |   1  26    0    0 180f |    2.044       0       5       0       5     26     26      0     62       2       1  26    0180f a70f      8.280 "
test,1583575240007955968,45," | 45  |     68       5     63       1 |   5    0        56         8 |   2  26    0    0 180f |    2.807       0       5       0       5     26     26      0     55       9       2  26    0180f a70f      8.910 "
test,1583575240029444864,46," | 46  |     68       5     56       1 |   5    0        57         0 |   4  26    0    0 180f |    2.807       0       4       0       4     26     26      0     54       3       2  26    0180f a70f     30.240 "
test,1583575240024153856,47," | 47  |     68       5     63       1 |   3   11        63         1 |   1  18   40    0 3a0f |    0           0       0       0       8      0      0      0     60       4       0  18    03a0f a70f     30.390 "
test,1583575240005722880,49," | 49  |     68       5     58       0 |   5    0        55         3 |   1  55    0    0 d70f |    2.044       0       5       0       5     55     55      0     55       3       1  55    0d70f a70f      8.250 "
test,1583575240012284160,51," | 51  |     68       5     59       0 |   5    0        59         0 |   3  26    0    0 180f |    3.509       0       5       0       5     26     26      0     59       0       3  26    0180f a70f      9.630 "
test,1583575240006928896,52," | 52  |     68       2     60       0 |   5    0        59         1 |   2  26    0    0 180f |    2.075       0       5       0       5     26     26      0     57       3       1  26    0180f a70f      8.880 "
test,1583575240003213056,53," | 53  |     68       5     42       0 |   5    0        39         3 |   1  55    0    0 d70f |    2.014       0       5       0       5     55     55      0     39       3       1  55    0d70f a70f      8.220 "
test,1583575240010217984,54," | 54  |     68       5     60       0 |   5    0        60         0 |   2  12    0    0 860f |    2.746       0       5       0       5     12     12      0     58       2       2  12    0860f a70f      8.970 "
test,1583575240006028800,55," | 55  |     68       5     47       0 |   4    0        45         2 |   8  55    0    1 d70f |    1.739       0       4       0       4     55     55      0     45       2       2  55    1d70f a70f      6.480 "
test,1583575240011822080,56," | 56  |     68       5     50       0 |   5    0        48         2 |   2  26    0    0 180f |    2.807       0       5       0       5     26     26      0     48       2       2  26    0180f a70f      9.000 "
test,1583575240014704896,57," | 57  |     68       2      5       0 |   5    0         5         0 |   1  26    0    0 180f |    2.075       0       5       0       5     26     26      0      5       0       1  26    0180f a70f     11.160 "
test,1583575240025579008,58," | 58  |     68       5     59       0 |   5    0        58         1 |   7  55    0    0 d70f |    2.777       0       3       0       3     55     55      0     56       3       2  55    0d70f a70f     30.300 "
test,1583575240006295808,5," |  5  |     68       5     66       0 |   5    0        62         4 |   1  12    0    0 860f |    2.075       0       5       0       5     12     12      0     61       5       1  12    0860f a70f      8.250 "
test,1583575240008410880,60," | 60  |     68       5     59       0 |   5    0        56         3 |   2  26    0    0 180f |    2.807       0       5       0       5     26     26      0     56       3       2  26    0180f a70f      9.000 "
test,1583575240030949120,61," | 61  |     68       5     58       0 |   0    4        57         1 |   0  61   55    1 470f |    0           0       0       0       8      0      0      0     55       3       0  61    1470f a70f     30.210 "
test,1583575240013318144,7," |  7  |     68       5     65       0 |   5    0        65         0 |   1  12    0    0 860f |    2.044       0       5       0       5     12     12      0     65       0       1  12    0860f a70f      9.030 "
test,1583575240007533056,9," |  9  |     68       5     64       0 |   5    0        63         1 |   1  12    0    0 860f |    2.044       0       5       0       5     12     12      0     63       1       1  12    0860f a70f      8.970 "
