test,1583576961813656064,10," | 10  |   6955       5   6927       0 |   0   10      6814       113 |   0  10   13    1  e0f |    0           0       0       0       8      0      0      0   6734     193       0  10    1 e0f a70f     30.180 "
test,1583576961797373952,12," | 12  |   6955       5   6919      34 |   5    0      6877        76 |   2  13    0    0 ab0f |    2.777       0       5       0       5     13     13      0   6762     191       2  13    0ab0f a70f      9.000 "
test,1583576961793129984,13," | 13  |   6955       5   6951       0 |   5    0      6893        58 |   4  13    0    1 ab0f |    1.739       0       4       0       4     13     13      0   6819     132       2  13    1ab0f a70f      6.510 "
test,1583576961804006144,15," | 15  |   6955       5   6910      43 |   5    0      6673       280 |   3  13    0    0 ab0f |    3.509       0       5       0       5     13     13      0   6360     593       3  13    0ab0f a70f      9.750 "
test,1583576961800578048,16," | 16  |   6955       5   6951       0 |   5    0      6691       260 |   4  40    0    0 760f |    2.807       0       5       0       5     40     40      0   6509     442       2  40    0760f a70f      9.030 "
test,1583576961795492864,17," | 17  |   6955       5   6942       9 |   4    3      6855        96 |   3  40   29    0 760f |    2.777       0       5       0       5     40     40      0   6652     299       2  40    0760f a70f      9.690 "
test,1583576961798129152,18," | 18  |   6955       5   6950       0 |   5    0      6589       361 |   2  40    0    0 760f |    3.540       0       5       0       5     40     40      0   6316     634       3  40    0760f a70f      9.720 "
test,1583576961795863040,19," | 19  |   6955       5   6938      13 |   4    8      6821       130 |   3  40   29    0 760f |    2.807       0       5       0       5     40     40      0   6632     319       2  40    0760f a70f     10.380 "
test,1583576961793943808,1," |  1  |   6955       4   6952       0 |   5    0      6769       183 |   1  13    0    0 ab0f |    2.746       0       5       0       5     13     13      0   6720     232       1  13    0ab0f a70f      8.910 "
test,1583576961799403008,22," | 22  |   6955       5   6949       0 |   5    0      6887        62 |   2  40    0    0 760f |    2.777       0       5       0       5     40     40      0   6574     375       2  40    0760f a70f      8.820 "
test,1583576961797179904,23," | 23  |   6955       5   6893       0 |   5    0      6864        29 |   3  40    0    0 760f |    3.479       0       5       0       5     40     40      0   6730     163       3  40    0760f a70f      9.660 "
test,1583576961792680960,24," | 24  |   6955       5   6949       2 |   5    0      6874        77 |   2  40    0    0 760f |    2.044       0       5       0       5     40     40      0   6701     250       1  40    0760f a70f      8.160 "
test,1583576961796506880,26," | 26  |   6955       5   6949       2 |   5    0      6923        28 |   3  40    0    0 760f |    2.777       0       5       0       5     40     40      0   6795     156       2  40    0760f a70f      8.880 "
test,1583576961815781120,27," | 27  |   6955       3   6953       0 |   4    5      6748       205 |   1  29   40    0 100f |    2.014       0       1       0       1     29     29      0   6481     472       1  29    0100f a70f     30.360 "
test,1583576961798867968,28," | 28  |   6955       4   6943       8 |   5    0      6402       549 |   4  40    0    0 760f |    2.807       0       5       0       5     40     40      0   6132     819       2  40    0760f a70f      9.660 "
test,1583576961817626112,29," | 29  |   6955       3   6943      10 |   1    3      6137       816 |  17  29   40    1 100f |    1.770       0       1       0       1     29     29      0   5846    1107       2  29    1100f a70f     30.300 "
test,1583576961799591936,30," | 30  |   6955       5   6948       3 |   5    0      6856        95 |   3  40    0    0 760f |    3.540       0       5       0       5     40     40      0   6601     350       3  40    0760f a70f     10.440 "
test,1583576961797868032,35," | 35  |   6955       5   6948       3 |   5    0      6623       328 |   3  40    0    0 760f |    3.479       0       5       0       5     40     40      0   6466     485       3  40    0760f a70f      9.690 "
test,1583576961816723968,40," | 40  |   6955       5   6873      74 |   4    0      6550       397 |   2  40    0    1 760f |    5.401       0       2       0       2     40     40      0   6385     562       7  40    1760f a70f     30.300 "
test,1583576961795672064,41," | 41  |   6955       5   6882      59 |   5    0      6880        61 |   1  40    0    0 760f |    2.014       0       5       0       5     40     40      0   6718     223       1  40    0760f a70f      8.970 "
test,1583576961794609920,42," | 42  |   6955       5   6889      62 |   5    0      6826       125 |   1  40    0    0 760f |    2.014       0       5       0       5     40     40      0   6678     273       1  40    0760f a70f      8.970 "
test,1583576961804205824,44," | 44  |   6955       5   6894      57 |   5    0      6823       128 |   1  40    0    0 760f |    2.044       0       5       0       5     40     40      0   6686     265       1  40    0760f a70f      8.910 "
test,1583576961800303872,45," | 45  |   6955       5   6908      43 |   5    0      6741       210 |   1  40    0    0 760f |    2.044       0       5       0       5     40     40      0   6619     332       1  40    0760f a70f      8.850 "
test,1583576961798310144,46," | 46  |   6955       5   6887      57 |   5    0      6623       321 |   1  40    0    0 760f |    2.014       0       5       0       5     40     40      0   6513     431       1  40    0760f a70f      8.850 "
test,1583576961802886912,47," | 47  |   6955       5   6894      57 |   5    0      6730       221 |   1  40    0    0 760f |    2.044       0       5       0       5     40     40      0   6611     340       1  40    0760f a70f      8.880 "
test,1583576961796879104,48," | 48  |   6955       5   6829      55 |   5    0      6748       136 |   1  40    0    0 760f |    2.044       0       5       0       5     40     40      0   6620     264       1  40    0760f a70f      8.250 "
test,1583576961794787840,49," | 49  |   6955       5   6945       0 |   5    0      6812       133 |   1  55    0    0  70f |    2.075       0       5       0       5     55     55      0   6765     180       1  55    0 70f a70f      8.280 "
test,1583576961814619136,51," | 51  |   6955       5   6946       0 |   5    0      6868        78 |   2  13    0    0 ab0f |    2.807       0       3       0       3     13     13      0   6843     103       2  13    0ab0f a70f     30.240 "
test,1583576961804464128,52," | 52  |   6955       5   6918      29 |   5    0      6600       347 |   3  40    0    0 760f |    2.807       0       5       0       5     40     40      0   6477     470       2  40    0760f a70f      9.720 "
test,1583576961797635072,53," | 53  |   6955       5   6929       0 |   5    0      6561       368 |   1  55    0    0  70f |    1.983       0       5       0       5     55     55      0   6493     436       1  55    0 70f a70f      8.190 "
test,1583576961815057152,54," | 54  |   6955       5   6947       0 |   5    0      6830       117 |   2  13    0    0 ab0f |    2.777       0       4       0       4     13     13      0   6720     227       2  13    0ab0f a70f     30.390 "
test,1583576961794985984,55," | 55  |   6955       5   6934       0 |   4    0      6677       257 |   4  55    0    1  70f |    1.770       0       4       0       4     55     55      0   6622     312       2  55    1 70f a70f      6.510 "
test,1583576961815248896,56," | 56  |   6955       5   6937       0 |   2   10      6832       105 |   2  55   10    0  70f |    2.807       0       2       0       2     55     55      0   6748     189       2  55    0 70f a70f     30.330 "
test,1583576961799112960,57," | 57  |   6955       5   6892       0 |   3    0      6711       181 |   8  40    0    0 760f |    4.272       0       5       0       5     40     40      0   6280     612       4  40    0760f a70f     10.470 "
test,1583576961794141952,58," | 58  |   6955       5   6946       0 |   2    8      6854        92 |   1  55   10    0  70f |    2.075       0       5       0       5     55     55      0   6572     374       1  55    0 70f a70f      8.940 "
test,1583576961812859904,5," |  5  |   6955       5   6953       0 |   0    2      6330       623 |   0   5   13    1 360f |    0           0       0       0       8      0      0      0   6208     745       0   5    1360f a70f     30.210 "
test,1583576961816370944,60," | 60  |   6955       5   6946       0 |   5    0      6507       439 |   3  13    0    0 ab0f |    3.479       0       3       0       3     13     13      0   6369     577       3  13    0ab0f a70f     30.360 "
test,1583576961796236032,61," | 61  |   6955       5   6941       4 |   2    4      6633       312 |   2  55   40    0  70f |    2.807       0       5       0       5     55     55      0   6402     543       2  55    0 70f a70f      9.750 "
test,1583576961792925952,7," |  7  |   6955       5   6952       0 |   5    0      6853        99 |   1  13    0    0 ab0f |    2.014       0       5       0       5     13     13      0   6805     147       1  13    0ab0f a70f      8.250 "
test,1583576961798510080,9," |  9  |   6955       5   6951       0 |   5    0      6720       231 |   2  13    0    0 ab0f |    2.777       0       5       0       5     13     13      0   6685     266       2  13    0ab0f a70f      8.940 "
