test,1583576817797175808,10," | 10  |   6379       5   6351       0 |   5    0      6249       102 |   1  51    0    0 980f |    2.044       0       5       0       5     51     51      0   6170     181       1  51    0980f a70f      8.280 "
test,1583576817794720000,12," | 12  |   6379       5   6343      34 |   5    0      6307        70 |   2  51    0    0 980f |    2.807       0       5       0       5     51     51      0   6198     179       2  51    0980f a70f      9.000 "
test,1583576817790225152,13," | 13  |   6379       5   6375       0 |   5    0      6324        51 |   1  51    0    0 980f |    2.075       0       5       0       5     51     51      0   6251     124       1  51    0980f a70f      8.190 "
test,1583576817795268096,15," | 15  |   6379       5   6334      43 |   5    0      6124       253 |   3  51    0    0 980f |    2.777       0       5       0       5     51     51      0   5841     536       2  51    0980f a70f      9.720 "
test,1583576817793356032,16," | 16  |   6379       5   6375       0 |   5    0      6141       234 |   1  26    0    0 a40f |    2.746       0       5       0       5     26     26      0   5974     401       2  26    0a40f a70f      9.000 "
test,1583576817814501120,17," | 17  |   6379       5   6367       8 |   3    4      6288        87 |   1  26   19    0 a40f |    2.777       0       3       0       3     26     26      0   6101     274       2  26    0a40f a70f     30.360 "
test,1583576817794387200,18," | 18  |   6379       5   6374       0 |   5    0      6036       338 |   1  26    0    0 a40f |    2.044       0       5       0       5     26     26      0   5782     592       1  26    0a40f a70f      8.220 "
test,1583576817811269888,19," | 19  |   6379       5   6363      12 |   0    3      6253       122 |   0  19   26    1 860f |    0           0       0       0       8      0      0      0   6082     293       0  19    1860f a70f     30.150 "
test,1583576817790512128,1," |  1  |   6379       4   6376       0 |   5    0      6213       163 |   1  51    0    0 980f |    2.716       0       5       0       5     51     51      0   6169     207       1  51    0980f a70f      8.910 "
test,1583576817790961920,22," | 22  |   6379       5   6373       0 |   5    0      6318        55 |   1  26    0    0 a40f |    2.014       0       5       0       5     26     26      0   6032     341       1  26    0a40f a70f      8.220 "
test,1583576817792929792,23," | 23  |   6379       5   6317       0 |   5    0      6291        26 |   1  26    0    0 a40f |    2.044       0       5       0       5     26     26      0   6169     148       1  26    0a40f a70f      8.250 "
test,1583576817799886848,24," | 24  |   6379       5   6373       2 |   5    0      6308        67 |   1  26    0    0 a40f |    2.014       0       5       0       5     26     26      0   6145     230       1  26    0a40f a70f      8.970 "
test,1583576817793586944,26," | 26  |   6379       5   6373       2 |   4    0      6347        28 |   3  26    0    1 a40f |    1.739       0       4       0       4     26     26      0   6232     143       2  26    1a40f a70f      7.230 "
test,1583576817814938112,27," | 27  |   6379       5   6377       0 |   5    0      6197       180 |   2  26    0    0 a40f |    2.777       0       4       0       4     26     26      0   5951     426       2  26    0a40f a70f     30.360 "
test,1583576817794118912,28," | 28  |   6379       5   6367       8 |   5    0      5860       515 |   4  26    0    0 a40f |    3.479       0       5       0       5     26     26      0   5621     754       3  26    0a40f a70f     10.380 "
test,1583576817811837952,29," | 29  |   6379       5   6368       9 |   0    2      5642       735 |   0  29   26    1 c90f |    0           0       0       0       8      0      0      0   5381     996       0  29    1c90f a70f     30.210 "
test,1583576817792566016,30," | 30  |   6379       5   6372       3 |   5    0      6290        85 |   3  26    0    0 a40f |    2.746       0       5       0       5     26     26      0   6059     316       2  26    0a40f a70f      9.690 "
test,1583576817792280064,35," | 35  |   6379       5   6372       3 |   5    0      6080       295 |   2  26    0    0 a40f |    2.746       0       5       0       5     26     26      0   5941     434       2  26    0a40f a70f      8.880 "
test,1583576817792006912,40," | 40  |   6379       5   6297      74 |   5    0      5998       373 |   2  26    0    0 a40f |    3.509       0       5       0       5     26     26      0   5846     525       3  26    0a40f a70f      9.690 "
test,1583576817793174016,41," | 41  |   6379       5   6306      59 |   5    0      6312        53 |   2  26    0    0 a40f |    2.746       0       5       0       5     26     26      0   6156     209       2  26    0a40f a70f      9.600 "
test,1583576817813675008,42," | 42  |   6379       5   6313      62 |   5    0      6254       121 |   2  26    0    0 a40f |    2.746       0       4       0       4     26     26      0   6116     259       2  26    0a40f a70f     30.360 "
test,1583576817795110912,44," | 44  |   6379       5   6318      57 |   5    0      6255       120 |   1  26    0    0 a40f |    1.983       0       5       0       5     26     26      0   6132     243       1  26    0a40f a70f      8.220 "
test,1583576817795707904,45," | 45  |   6379       5   6332      43 |   5    0      6183       192 |   2  26    0    0 a40f |    2.777       0       5       0       5     26     26      0   6066     309       2  26    0a40f a70f     10.380 "
test,1583576817792727040,46," | 46  |   6379       5   6311      57 |   5    0      6082       286 |   3  26    0    0 a40f |    2.716       0       5       0       5     26     26      0   5976     392       2  26    0a40f a70f      8.790 "
test,1583576817794575872,47," | 47  |   6379       5   6318      57 |   5    0      6170       205 |   2  26    0    0 a40f |    2.746       0       5       0       5     26     26      0   6059     316       2  26    0a40f a70f      8.970 "
test,1583576817803270144,48," | 48  |   6379       5   6253      55 |   5    0      6181       127 |   2  26    0    0 a40f |    2.746       0       5       0       5     26     26      0   6065     243       2  26    0a40f a70f      8.940 "
test,1583576817804378112,49," | 49  |   6379       5   6369       0 |   5    0      6244       125 |   1  53    0    0 550f |    2.014       0       5       0       5     53     53      0   6201     168       1  53    0550f a70f      8.250 "
test,1583576817789458944,51," | 51  |   6379       5   6370       0 |   4    0      6301        69 |   2  51    0    1 980f |    1.739       0       4       0       4     51     51      0   6279      91       2  51    1980f a70f      6.480 "
test,1583576817787389952,52," | 52  |   6379       5   6343      28 |   5    0      6050       321 |   1  26    0    0 a40f |    2.014       0       5       0       5     26     26      0   5941     430       1  26    0a40f a70f      9.690 "
test,1583576817796798976,53," | 53  |   6379       5   6353       0 |   4    0      6016       337 |   5  53    0    1 550f |    1.739       0       4       0       4     53     53      0   5951     402       2  53    1550f a70f      6.510 "
test,1583576817791791872,54," | 54  |   6379       5   6371       0 |   5    0      6264       107 |   2  51    0    0 980f |    2.777       0       5       0       5     51     51      0   6161     210       2  51    0980f a70f      9.720 "
test,1583576817796453120,55," | 55  |   6379       5   6358       0 |   5    0      6118       240 |   1  53    0    0 550f |    2.075       0       5       0       5     53     53      0   6067     291       1  53    0550f a70f      8.250 "
test,1583576817790692096,56," | 56  |   6379       5   6361       0 |   5    0      6265        96 |   1  51    0    0 980f |    2.044       0       5       0       5     51     51      0   6189     172       1  51    0980f a70f      8.130 "
test,1583576817812571904,57," | 57  |   6379       5   6316       0 |   1    3      6154       162 |   2  26   58    0 a40f |    2.014       0       2       0       2     26     26      0   5763     553       1  26    0a40f a70f     30.330 "
test,1583576817811481088,58," | 58  |   6379       5   6370       0 |   0    8      6283        87 |   0  58   53    1 8a0f |    0           0       0       0       8      0      0      0   6023     347       0  58    18a0f a70f     30.210 "
test,1583576817791204096,5," |  5  |   6379       5   6377       0 |   5    0      5810       567 |   2  51    0    0 980f |    2.777       0       5       0       5     51     51      0   5699     678       2  51    0980f a70f      8.970 "
test,1583576817803031808,60," | 60  |   6379       5   6370       0 |   5    0      5976       394 |   1  51    0    0 980f |    2.075       0       5       0       5     51     51      0   5849     521       1  51    0980f a70f      8.160 "
test,1583576817814007040,61," | 61  |   6379       5   6365       4 |   5    0      6073       296 |   2  51    0    0 980f |    4.974       0       2       0       2     51     51      0   5860     509       5  51    0980f a70f     30.360 "
test,1583576817789872896,7," |  7  |   6379       5   6376       0 |   5    0      6286        90 |   1  51    0    0 980f |    2.075       0       5       0       5     51     51      0   6243     133       1  51    0980f a70f      8.250 "
test,1583576817793771008,9," |  9  |   6379       5   6375       0 |   5    0      6165       210 |   2  51    0    0 980f |    2.807       0       5       0       5     51     51      0   6134     241       2  51    0980f a70f      9.030 "
