test,1583576769045831936,10," | 10  |   6184       5   6156       0 |   5    0      6058        98 |   1  56    0    0 c60f |    2.014       0       5       0       5     56     56      0   5981     175       1  56    0c60f a70f      8.220 "
test,1583576769042910208,12," | 12  |   6184       5   6148      34 |   5    0      6115        67 |   2  56    0    0 c60f |    2.746       0       5       0       5     56     56      0   6010     172       2  56    0c60f a70f      9.690 "
test,1583576769040473856,13," | 13  |   6184       5   6180       0 |   5    0      6130        50 |   1  56    0    0 c60f |    1.983       0       5       0       5     56     56      0   6056     124       1  56    0c60f a70f      8.790 "
test,1583576769063245056,15," | 15  |   6184       5   6139      43 |   5    0      5939       243 |   2  56    0    0 c60f |    4.943       0       4       0       4     56     56      0   5665     517       5  56    0c60f a70f     30.360 "
test,1583576769046785024,16," | 16  |   6184       5   6180       0 |   4    0      5956       224 |   5  56    0    0 c60f |    3.479       0       5       0       5     56     56      0   5790     390       3  56    0c60f a70f     12.540 "
test,1583576769061232128,17," | 17  |   6184       5   6172       8 |   5    0      6099        81 |   3  44    0    0 210f |    2.777       0       4       0       4     44     44      0   5916     264       2  44    0210f a70f     30.390 "
test,1583576769042467072,18," | 18  |   6184       5   6179       0 |   5    0      5849       330 |   2  44    0    0 210f |    2.746       0       5       0       5     44     44      0   5605     574       2  44    0210f a70f      8.820 "
test,1583576769059608832,19," | 19  |   6184       5   6168      12 |   0    0      6061       119 |   0   0    0    0    0 |    0           0       0       0       8      0      0      0   5893     287       0   0    0   0 a70f     30.390 "
test,1583576769042012928,1," |  1  |   6184       4   6181       0 |   5    0      6021       160 |   2  56    0    0 c60f |    3.417       0       5       0       5     56     56      0   5979     202       2  56    0c60f a70f      9.630 "
test,1583576769045659904,22," | 22  |   6184       5   6178       0 |   5    0      6127        51 |   4  44    0    0 210f |    3.479       0       5       0       5     44     44      0   5849     329       3  44    0210f a70f      9.660 "
test,1583576769046288128,23," | 23  |   6184       5   6122       0 |   5    0      6097        25 |   2  56    0    0 c60f |    2.746       0       5       0       5     56     56      0   5977     145       2  56    0c60f a70f     11.790 "
test,1583576769039693056,24," | 24  |   6184       5   6178       2 |   5    0      6114        66 |   1  44    0    0 210f |    2.014       0       5       0       5     44     44      0   5956     224       1  44    0210f a70f      8.970 "
test,1583576769039321856,26," | 26  |   6184       5   6178       2 |   5    0      6154        26 |   2  44    0    0 210f |    2.044       0       5       0       5     44     44      0   6042     138       1  44    0210f a70f      8.310 "
test,1583576769046642944,27," | 27  |   6184       5   6182       0 |   5    0      6005       177 |   3  56    0    0 c60f |    3.479       0       5       0       5     56     56      0   5767     415       3  56    0c60f a70f     12.390 "
test,1583576769050776064,28," | 28  |   6184       5   6172       8 |   5    0      5677       503 |   4  44    0    0 210f |    4.974       0       5       0       5     44     44      0   5445     735       5  44    0210f a70f     11.790 "
test,1583576769062670848,29," | 29  |   6184       5   6173       9 |   4    0      5468       714 |   4  56    0    0 c60f |    4.180       0       4       0       4     56     56      0   5215     967       4  56    0c60f a70f     30.390 "
test,1583576769046966016,30," | 30  |   6184       5   6177       3 |   5    0      6096        84 |   6  44    0    0 210f |    4.272       0       5       0       5     44     44      0   5874     306       4  44    0210f a70f     11.070 "
test,1583576769043494912,35," | 35  |   6184       5   6177       3 |   5    0      5890       290 |   5  44    0    0 210f |    4.241       0       5       0       5     44     44      0   5757     423       4  44    0210f a70f     10.410 "
test,1583576769042212096,40," | 40  |   6184       5   6102      74 |   5    0      5810       366 |   1  44    0    0 210f |    2.044       0       5       0       5     44     44      0   5662     514       1  44    0210f a70f      8.970 "
test,1583576769044311040,41," | 41  |   6184       5   6111      59 |   5    0      6118        52 |   1  44    0    0 210f |    2.044       0       5       0       5     44     44      0   5971     199       1  44    0210f a70f      8.310 "
test,1583576769045164032,42," | 42  |   6184       5   6118      62 |   5    0      6062       118 |   1  44    0    0 210f |    2.014       0       5       0       5     44     44      0   5929     251       1  44    0210f a70f      8.970 "
test,1583576769046116096,44," | 44  |   6184       5   6123      57 |   4    0      6063       117 |   4  44    0    1 210f |    1.739       0       4       0       4     44     44      0   5947     233       2  44    1210f a70f      6.480 "
test,1583576769047175936,45," | 45  |   6184       5   6137      43 |   5    0      5991       189 |   1  44    0    0 210f |    2.014       0       5       0       5     44     44      0   5879     301       1  44    0210f a70f      8.220 "
test,1583576769043302912,46," | 46  |   6184       5   6116      57 |   5    0      5892       281 |   1  44    0    0 210f |    2.044       0       5       0       5     44     44      0   5790     383       1  44    0210f a70f      9.000 "
test,1583576769041280000,47," | 47  |   6184       5   6123      57 |   5    0      5985       195 |   1  44    0    0 210f |    2.044       0       5       0       5     44     44      0   5879     301       1  44    0210f a70f      8.130 "
test,1583576769050368000,48," | 48  |   6184       4   6058      55 |   5    0      5989       124 |   1  44    0    0 210f |    2.044       0       5       0       5     44     44      0   5879     234       1  44    0210f a70f      8.160 "
test,1583576769044507136,49," | 49  |   6184       5   6174       0 |   5    0      6050       124 |   2  56    0    0 c60f |    2.746       0       5       0       5     56     56      0   6009     165       2  56    0c60f a70f      8.940 "
test,1583576769039097088,51," | 51  |   6184       5   6175       0 |   5    0      6108        67 |   1  56    0    0 c60f |    1.983       0       5       0       5     56     56      0   6087      88       1  56    0c60f a70f      8.220 "
test,1583576769062428928,52," | 52  |   6184       4   6148      28 |   1    2      5870       306 |   5  44   56    0 210f |    2.777       0       4       0       4     44     44      0   5761     415       2  44    0210f a70f     30.270 "
test,1583576769058742016,53," | 53  |   6184       5   6158       0 |   5    0      5830       328 |   3  56    0    0 c60f |    3.448       0       5       0       5     56     56      0   5766     392       3  56    0c60f a70f      9.660 "
test,1583576769048680192,54," | 54  |   6184       5   6176       0 |   5    0      6073       103 |   2  56    0    0 c60f |    2.716       0       5       0       5     56     56      0   5975     201       2  56    0c60f a70f      8.880 "
test,1583576769041073152,55," | 55  |   6184       5   6163       0 |   5    0      5929       234 |   2  56    0    0 c60f |    2.746       0       5       0       5     56     56      0   5880     283       2  56    0c60f a70f      8.940 "
test,1583576769039993088,56," | 56  |   6184       5   6166       0 |   4    0      6073        93 |   4  56    0    1 c60f |    1.739       0       4       0       4     56     56      0   6000     166       2  56    1c60f a70f      6.480 "
test,1583576769042696960,57," | 57  |   6184       5   6121       0 |   2    1      5965       156 |   1  56   44    0 c60f |    1.983       0       5       0       5     56     56      0   5591     530       1  56    0c60f a70f      8.190 "
test,1583576769043735040,58," | 58  |   6184       5   6175       0 |   5    0      6092        83 |   1  56    0    0 c60f |    1.983       0       5       0       5     56     56      0   5837     338       1  56    0c60f a70f      8.250 "
test,1583576769046458112,5," |  5  |   6184       5   6182       0 |   5    0      5635       547 |   2  56    0    0 c60f |    2.716       0       5       0       5     56     56      0   5526     656       2  56    0c60f a70f      9.480 "
test,1583576769043901952,60," | 60  |   6184       5   6175       0 |   5    0      5789       386 |   1  56    0    0 c60f |    1.953       0       5       0       5     56     56      0   5664     511       1  56    0c60f a70f      8.880 "
test,1583576769062903808,61," | 61  |   6184       5   6174       0 |   5    0      5892       282 |   1  56    0    0 c60f |    2.014       0       4       0       4     56     56      0   5682     492       1  56    0c60f a70f     30.390 "
test,1583576769041785856,7," |  7  |   6184       5   6181       0 |   5    0      6091        90 |   2  56    0    0 c60f |    2.746       0       5       0       5     56     56      0   6050     131       2  56    0c60f a70f      8.970 "
test,1583576769040669952,9," |  9  |   6184       5   6180       0 |   5    0      5972       208 |   2  56    0    0 c60f |    2.746       0       5       0       5     56     56      0   5943     237       2  56    0c60f a70f      8.970 "
