test,1583576847790603008,10," | 10  |   6499       5   6471       0 |   2    5      6367       104 |   1   7   56    0 170f |    2.014       0       5       0       5      7      7      0   6289     182       1   7    0170f a70f      8.280 "
test,1583576847790829824,12," | 12  |   6499       5   6463      34 |   5    0      6426        71 |   1   7    0    0 170f |    2.044       0       5       0       5      7      7      0   6315     182       1   7    0170f a70f      8.190 "
test,1583576847790334976,13," | 13  |   6499       5   6495       0 |   5    0      6444        51 |   1   7    0    0 170f |    2.044       0       5       0       5      7      7      0   6370     125       1   7    0170f a70f      8.280 "
test,1583576847793243904,15," | 15  |   6499       5   6454      43 |   5    0      6239       258 |   2   7    0    0 170f |    2.746       0       5       0       5      7      7      0   5949     548       2   7    0170f a70f      8.940 "
test,1583576847809767936,16," | 16  |   6499       5   6495       0 |   4    8      6256       239 |   3  56   26    0 790f |    0           0       0       0       8      0      0      0   6087     408       0  56    0790f a70f     30.390 "
test,1583576847809286144,17," | 17  |   6499       5   6487       8 |   5    2      6407        88 |   3  56   29    0 790f |    0           0       0       0       8      0      0      0   6213     282       0  56    0790f a70f     30.360 "
test,1583576847812625920,18," | 18  |   6499       5   6494       0 |   5    1      6153       341 |   4  56   46    0 790f |    0           0       0       0       8      0      0      0   5894     600       0  56    0790f a70f     30.360 "
test,1583576847813355008,19," | 19  |   6499       5   6483      12 |   3   16      6372       123 |   4  29   26    0 7b0f |    4.241       0       1       0       1     29     29      0   6194     301       4  29    07b0f a70f     30.360 "
test,1583576847791214848,1," |  1  |   6499       4   6496       0 |   5    0      6331       165 |   1   7    0    0 170f |    2.716       0       5       0       5      7      7      0   6286     210       1   7    0170f a70f      8.790 "
test,1583576847813619968,22," | 22  |   6499       5   6493       0 |   5    0      6437        56 |   3  56    0    0 790f |    0           0       0       0       8      0      0      0   6141     352       0  56    0790f a70f     30.360 "
test,1583576847810023168,23," | 23  |   6499       5   6437       0 |   5    0      6410        27 |   2  56    0    0 790f |    0           0       0       0       8      0      0      0   6284     153       0  56    0790f a70f     30.360 "
test,1583576847811973120,24," | 24  |   6499       5   6493       2 |   5    1      6427        68 |   4  56   46    0 790f |    0           0       0       0       8      0      0      0   6259     236       0  56    0790f a70f     30.390 "
test,1583576847789015040,26," | 26  |   6499       5   6493       2 |   4   11      6467        28 |   5  26   56    1 a80f |    1.739       0       4       0       4     26     26      0   6347     148       2  26    1a80f a70f      6.510 "
test,1583576847817157120,27," | 27  |   6499       5   6497       0 |   4    5      6312       185 |   4  29   56    0 7b0f |    2.075       0       2       0       2     29     29      0   6060     437       1  29    07b0f a70f     30.360 "
test,1583576847811469056,28," | 28  |   6499       5   6487       8 |   1    8      5971       524 |   5  29   56    0 7b0f |    0           0       0       0       8      0      0      0   5723     772       0  29    07b0f a70f     30.360 "
test,1583576847815300096,29," | 29  |   6499       5   6488       9 |   1    0      5741       756 |  20  29    0    1 7b0f |    1.739       0       2       0       2     29     29      0   5475    1022       2  29    17b0f a70f     30.300 "
test,1583576847814423040,30," | 30  |   6499       5   6492       3 |   1    8      6409        86 |   4   7   56    0 170f |    4.241       0       2       0       2      7      7      0   6175     320       4   7    0170f a70f     30.330 "
test,1583576847810832896,35," | 35  |   6499       5   6492       3 |   4    0      6194       301 |   6  56    0    0 790f |    0           0       0       0       8      0      0      0   6053     442       0  56    0790f a70f     30.360 "
test,1583576847794384128,40," | 40  |   6499       5   6417      74 |   5    0      6113       378 |   2  46    0    0 1b0f |    2.838       0       5       0       5     46     46      0   5956     535       2  46    01b0f a70f      8.880 "
test,1583576847792440832,41," | 41  |   6499       5   6426      59 |   5    0      6431        54 |   1  46    0    0 1b0f |    2.044       0       5       0       5     46     46      0   6271     214       1  46    01b0f a70f      8.970 "
test,1583576847794547200,42," | 42  |   6499       5   6433      62 |   5    0      6374       121 |   1  46    0    0 1b0f |    2.105       0       5       0       5     46     46      0   6232     263       1  46    01b0f a70f      8.940 "
test,1583576847795069952,44," | 44  |   6499       5   6438      57 |   5    0      6375       120 |   1  46    0    0 1b0f |    2.075       0       5       0       5     46     46      0   6248     247       1  46    01b0f a70f      9.000 "
test,1583576847792710144,45," | 45  |   6499       5   6452      43 |   5    0      6300       195 |   1  46    0    0 1b0f |    2.044       0       5       0       5     46     46      0   6180     315       1  46    01b0f a70f      8.910 "
test,1583576847795782144,46," | 46  |   6499       5   6431      57 |   5    0      6194       294 |   2  46    0    1 1b0f |    1.739       0       4       0       4     46     46      0   6087     401       2  46    11b0f a70f      6.510 "
test,1583576847793432832,47," | 47  |   6499       5   6438      57 |   5    0      6288       207 |   1  46    0    0 1b0f |    2.044       0       5       0       5     46     46      0   6175     320       1  46    01b0f a70f      9.000 "
test,1583576847794130944,48," | 48  |   6499       5   6373      55 |   5    0      6299       129 |   1  46    0    0 1b0f |    2.075       0       5       0       5     46     46      0   6176     252       1  46    01b0f a70f      8.280 "
test,1583576847792987136,49," | 49  |   6499       5   6489       0 |   5    0      6361       128 |   1  53    0    0 ae0f |    2.044       0       5       0       5     53     53      0   6316     173       1  53    0ae0f a70f      8.250 "
test,1583576847791939072,51," | 51  |   6499       5   6490       0 |   5    0      6419        71 |   3  56    0    0 790f |    1.983       0       5       0       5     56     56      0   6396      94       1  56    0790f a70f      8.220 "
test,1583576847813842176,52," | 52  |   6499       5   6463      28 |   5    6      6166       325 |   1  26   56    0 a80f |    2.014       0       4       0       4     26     26      0   6052     439       1  26    0a80f a70f     30.360 "
test,1583576847791773184,53," | 53  |   6499       5   6473       0 |   4    0      6130       343 |   2  53    0    1 ae0f |    1.739       0       4       0       4     53     53      0   6064     409       2  53    1ae0f a70f      6.480 "
test,1583576847796310784,54," | 54  |   6499       5   6491       0 |   5    0      6382       109 |   1   7    0    0 170f |    2.014       0       5       0       5      7      7      0   6277     214       1   7    0170f a70f      8.250 "
test,1583576847792221184,55," | 55  |   6499       5   6478       0 |   5    0      6231       247 |   1  53    0    0 ae0f |    2.044       0       5       0       5     53     53      0   6178     300       1  53    0ae0f a70f      8.250 "
test,1583576847793633024,56," | 56  |   6499       5   6481       0 |   5    0      6383        98 |   2  56    0    1 790f |    1.739       0       4       0       4     56     56      0   6305     176       2  56    1790f a70f      6.480 "
test,1583576847811800064,57," | 57  |   6499       5   6436       0 |   5    0      6268       168 |   1  56    0    0 790f |    0           0       0       0       8      0      0      0   5863     573       0  56    0790f a70f     30.360 "
test,1583576847794702080,58," | 58  |   6499       5   6490       0 |   5    0      6403        87 |   3  56    0    0 790f |    1.983       0       5       0       5     56     56      0   6138     352       1  56    0790f a70f      8.220 "
test,1583576847794871040,5," |  5  |   6499       5   6497       0 |   5    0      5920       577 |   2   7    0    0 170f |    2.777       0       5       0       5      7      7      0   5806     691       2   7    0170f a70f      8.820 "
test,1583576847795398912,60," | 60  |   6499       5   6490       0 |   5    0      6088       402 |   2  56    0    0 790f |    2.777       0       5       0       5     56     56      0   5957     533       2  56    0790f a70f      8.850 "
test,1583576847797262848,61," | 61  |   6499       5   6485       4 |   5    0      6191       298 |   2  56    0    0 790f |    1.953       0       5       0       5     56     56      0   5974     515       1  56    0790f a70f      8.910 "
test,1583576847789485056,7," |  7  |   6499       5   6496       0 |   5    0      6405        91 |   2   7    0    1 170f |    1.739       0       4       0       4      7      7      0   6361     135       2   7    1170f a70f      6.480 "
test,1583576847791480064,9," |  9  |   6499       5   6495       0 |   5    0      6277       218 |   1   7    0    0 170f |    2.044       0       5       0       5      7      7      0   6246     249       1   7    0170f a70f      8.280 "
