test,1583576781294766848,10," | 10  |   6233       5   6205       0 |   5    0      6106        99 |   1   7    0    0 e70f |    2.044       0       5       0       5      7      7      0   6028     177       1   7    0e70f a70f      8.280 "
test,1583576781289155840,12," | 12  |   6233       5   6197      34 |   5    0      6163        68 |   1   7    0    0 e70f |    2.014       0       5       0       5      7      7      0   6057     174       1   7    0e70f a70f      8.220 "
test,1583576781292443136,13," | 13  |   6233       5   6229       0 |   5    0      6179        50 |   1   7    0    0 e70f |    2.014       0       5       0       5      7      7      0   6105     124       1   7    0e70f a70f      8.190 "
test,1583576781295447040,15," | 15  |   6233       5   6188      43 |   5    0      5985       246 |   2   7    0    0 e70f |    2.716       0       5       0       5      7      7      0   5707     524       2   7    0e70f a70f      8.970 "
test,1583576781297489920,16," | 16  |   6233       5   6229       0 |   5    0      6005       224 |   3  17    0    0 5a0f |    2.685       0       5       0       5     17     17      0   5839     390       2  17    05a0f a70f      8.880 "
test,1583576781290057984,17," | 17  |   6233       5   6221       8 |   4    0      6145        84 |   3  17    0    1 5a0f |    1.739       0       4       0       4     17     17      0   5961     268       2  17    15a0f a70f      6.480 "
test,1583576781298365184,18," | 18  |   6233       5   6228       0 |   5    0      5895       333 |   3  17    0    0 5a0f |    2.014       0       5       0       5     17     17      0   5646     582       1  17    05a0f a70f      8.070 "
test,1583576781286022912,19," | 19  |   6233       5   6217      12 |   5    0      6109       120 |   2  17    0    0 5a0f |    1.983       0       5       0       5     17     17      0   5940     289       1  17    05a0f a70f      8.190 "
test,1583576781289586944,1," |  1  |   6233       4   6230       0 |   5    0      6067       163 |   1   7    0    0 e70f |    2.716       0       5       0       5      7      7      0   6024     206       1   7    0e70f a70f      8.880 "
test,1583576781293307904,22," | 22  |   6233       5   6227       0 |   5    0      6175        52 |   2  17    0    0 5a0f |    2.777       0       5       0       5     17     17      0   5893     334       2  17    05a0f a70f      8.910 "
test,1583576781293880832,23," | 23  |   6233       5   6171       0 |   5    0      6146        25 |   2  17    0    0 5a0f |    2.014       0       5       0       5     17     17      0   6025     146       1  17    05a0f a70f      8.970 "
test,1583576781289410048,24," | 24  |   6233       5   6227       2 |   5    0      6162        67 |   2  17    0    0 5a0f |    2.014       0       5       0       5     17     17      0   6003     226       1  17    05a0f a70f      8.250 "
test,1583576781292210944,26," | 26  |   6233       5   6227       2 |   5    0      6203        26 |   1  17    0    0 5a0f |    1.983       0       5       0       5     17     17      0   6089     140       1  17    05a0f a70f      8.250 "
test,1583576781296108032,27," | 27  |   6233       5   6231       0 |   5    0      6053       178 |   3  17    0    0 5a0f |    2.014       0       5       0       5     17     17      0   5812     419       1  17    05a0f a70f      8.850 "
test,1583576781295579904,28," | 28  |   6233       4   6221       8 |   4    0      5724       505 |   2  35    0    0 1b0f |    2.746       0       5       0       5     35     35      0   5490     739       2  35    01b0f a70f      8.970 "
test,1583576781298752000,29," | 29  |   6233       5   6222       9 |   4    0      5510       721 |   3  17    0    0 5a0f |    2.746       0       5       0       5     17     17      0   5252     979       2  17    05a0f a70f      8.970 "
test,1583576781291661056,30," | 30  |   6233       4   6226       3 |   5    0      6145        84 |   1  35    0    0 1b0f |    2.044       0       5       0       5     35     35      0   5921     308       1  35    01b0f a70f      8.100 "
test,1583576781290599168,35," | 35  |   6233       4   6226       3 |   5    0      5939       290 |   2  35    0    1 1b0f |    1.739       0       4       0       4     35     35      0   5804     425       2  35    11b0f a70f      6.480 "
test,1583576781293534976,40," | 40  |   6233       5   6151      74 |   5    0      5857       368 |   2  45    0    0 e40f |    1.983       0       5       0       5     45     45      0   5707     518       1  45    0e40f a70f      8.850 "
test,1583576781295212032,41," | 41  |   6233       5   6160      59 |   5    0      6166        53 |   1  45    0    0 e40f |    1.953       0       5       0       5     45     45      0   6017     202       1  45    0e40f a70f      8.220 "
test,1583576781295779072,42," | 42  |   6233       5   6167      62 |   5    0      6110       119 |   1  45    0    0 e40f |    1.983       0       5       0       5     45     45      0   5976     253       1  45    0e40f a70f      8.190 "
test,1583576781300477952,44," | 44  |   6233       5   6172      57 |   5    0      6110       119 |   1  45    0    0 e40f |    1.953       0       5       0       5     45     45      0   5994     235       1  45    0e40f a70f      8.160 "
test,1583576781301006080,45," | 45  |   6233       5   6186      43 |   4    0      6040       189 |   4  45    0    1 e40f |    1.739       0       4       0       4     45     45      0   5927     302       2  45    1e40f a70f      6.510 "
test,1583576781296442880,46," | 46  |   6233       5   6165      57 |   5    0      5941       281 |   2  45    0    0 e40f |    2.746       0       5       0       5     45     45      0   5838     384       2  45    0e40f a70f      8.970 "
test,1583576781302878976,47," | 47  |   6233       5   6172      57 |   5    0      6032       197 |   1  45    0    0 e40f |    1.983       0       5       0       5     45     45      0   5924     305       1  45    0e40f a70f      8.220 "
test,1583576781297287936,48," | 48  |   6233       5   6107      55 |   4    0      6037       125 |   1  45    0    0 e40f |    1.983       0       5       0       5     45     45      0   5925     237       1  45    0e40f a70f      8.220 "
test,1583576781291460864,49," | 49  |   6233       5   6223       0 |   5    0      6098       125 |   1  55    0    0 130f |    2.105       0       5       0       5     55     55      0   6055     168       1  55    0130f a70f      8.160 "
test,1583576781291937024,51," | 51  |   6233       5   6224       0 |   5    0      6156        68 |   1   7    0    0 e70f |    2.014       0       5       0       5      7      7      0   6134      90       1   7    0e70f a70f      8.250 "
test,1583576781292787968,52," | 52  |   6233       5   6197      28 |   5    0      5917       308 |   2  17    0    0 5a0f |    2.777       0       5       0       5     17     17      0   5808     417       2  17    05a0f a70f      8.880 "
test,1583576781294038016,53," | 53  |   6233       5   6207       0 |   5    0      5875       332 |   1  55    0    0 130f |    2.075       0       5       0       5     55     55      0   5810     397       1  55    0130f a70f      8.250 "
test,1583576781294615040,54," | 54  |   6233       5   6225       0 |   5    0      6120       105 |   1   7    0    0 e70f |    2.044       0       5       0       5      7      7      0   6022     203       1   7    0e70f a70f      8.160 "
test,1583576781289860096,55," | 55  |   6233       5   6212       0 |   4    0      5976       236 |   5  55    0    1 130f |    1.739       0       4       0       4     55     55      0   5925     287       2  55    1130f a70f      6.510 "
test,1583576781294404864,56," | 56  |   6233       5   6215       0 |   5    0      6122        93 |   2   7    0    0 e70f |    2.777       0       5       0       5      7      7      0   6048     167       2   7    0e70f a70f      8.880 "
test,1583576781296936960,57," | 57  |   6233       5   6170       0 |   3    4      6014       156 |   3  17   55    0 5a0f |    2.716       0       5       0       5     17     17      0   5635     535       2  17    05a0f a70f      8.910 "
test,1583576781299472128,58," | 58  |   6233       5   6224       0 |   5    9      6141        83 |   1  55    7    0 130f |    2.105       0       5       0       5     55     55      0   5883     341       1  55    0130f a70f      8.190 "
test,1583576781294946816,5," |  5  |   6233       5   6231       0 |   5    0      5679       552 |   2   7    0    0 e70f |    2.777       0       5       0       5      7      7      0   5570     661       2   7    0e70f a70f      8.970 "
test,1583576781293693184,60," | 60  |   6233       5   6224       0 |   5    0      5837       387 |   2   7    0    0 e70f |    2.777       0       5       0       5      7      7      0   5711     513       2   7    0e70f a70f      8.880 "
test,1583576781313651200,61," | 61  |   6233       5   6221       2 |   3    4      5939       284 |   3   7   55    0 e70f |    0           0       0       0       8      0      0      0   5727     496       0   7    0e70f a70f     30.390 "
test,1583576781291037952,7," |  7  |   6233       5   6230       0 |   4    0      6140        90 |   2   7    0    1 e70f |    1.739       0       4       0       4      7      7      0   6098     132       2   7    1e70f a70f      6.480 "
test,1583576781290358016,9," |  9  |   6233       5   6229       0 |   5    0      6021       208 |   1   7    0    0 e70f |    2.014       0       5       0       5      7      7      0   5992     237       1   7    0e70f a70f      8.160 "
