test,1583576762039752960,10," | 10  |   6156       5   6128       0 |   5    0      6030        98 |   1   1    0    0 220f |    1.312       0       5       0       5      1      1      0   5953     175       1   1    0220f a70f      7.590 "
test,1583576762039998976,12," | 12  |   6156       5   6120      34 |   5    0      6087        67 |   1   1    0    0 220f |    1.373       0       5       0       5      1      1      0   5983     171       1   1    0220f a70f      8.340 "
test,1583576762051314176,13," | 13  |   6156       5   6152       0 |   5    0      6102        50 |   1   1    0    0 220f |    1.342       0       5       0       5      1      1      0   6028     124       1   1    0220f a70f      7.440 "
test,1583576762049635840,15," | 15  |   6156       5   6111      43 |   5    0      5913       241 |   2   1    0    0 220f |    2.105       0       5       0       5      1      1      0   5640     514       2   1    0220f a70f      9.000 "
test,1583576762042813184,16," | 16  |   6156       5   6152       0 |   5    0      5932       220 |   5   1    0    0 220f |    4.241       0       5       0       5      1      1      0   5765     387       5   1    0220f a70f     10.410 "
test,1583576762045156864,17," | 17  |   6156       5   6144       8 |   5    0      6071        81 |   4   1    0    0 220f |    3.570       0       5       0       5      1      1      0   5888     264       4   1    0220f a70f     11.130 "
test,1583576762053863168,18," | 18  |   6156       5   6151       0 |   5    0      5821       330 |   5   1    0    0 220f |    4.272       0       5       0       5      1      1      0   5580     571       5   1    0220f a70f     10.440 "
test,1583576762062212864,19," | 19  |   6156       4   6140      12 |   5    0      6034       118 |   5   1    0    0 220f |    3.570       0       4       0       4      1      1      0   5866     286       4   1    0220f a70f     30.360 "
test,1583576762037997056,1," |  1  |   6156       4   6153       0 |   4    0      5993       160 |   4   1    0    1 220f |    1.739       0       4       0       4      1      1      0   5951     202       2   1    1220f a70f      6.480 "
test,1583576762042252032,22," | 22  |   6156       4   6150       0 |   5    0      6099        51 |   4   1    0    0 220f |    3.540       0       5       0       5      1      1      0   5822     328       4   1    0220f a70f      9.720 "
test,1583576762040641024,23," | 23  |   6156       5   6094       0 |   5    0      6069        25 |   4   1    0    0 220f |    3.540       0       5       0       5      1      1      0   5950     144       4   1    0220f a70f      9.720 "
test,1583576762043332096,24," | 24  |   6156       5   6150       2 |   5    0      6086        66 |   5   1    0    0 220f |    4.241       0       5       0       5      1      1      0   5928     224       5   1    0220f a70f     10.290 "
test,1583576762041783040,26," | 26  |   6156       5   6150       2 |   5    0      6126        26 |   4   1    0    0 220f |    3.509       0       5       0       5      1      1      0   6014     138       4   1    0220f a70f      9.570 "
test,1583576762056439040,27," | 27  |   6156       5   6154       0 |   5    0      5977       177 |   3   1    0    0 220f |    2.838       0       5       0       5      1      1      0   5740     414       3   1    0220f a70f      8.910 "
test,1583576762048935936,28," | 28  |   6156       5   6144       8 |   5    0      5649       503 |   5   1    0    0 220f |    4.241       0       5       0       5      1      1      0   5419     733       5   1    0220f a70f     11.850 "
test,1583576762059643136,29," | 29  |   6156       4   6145       9 |   0    3      5442       712 |   0  29    1    1 160f |    0           0       0       0       8      0      0      0   5189     965       0  29    1160f a70f     30.150 "
test,1583576762041094144,30," | 30  |   6156       5   6149       3 |   5    0      6068        84 |   4   1    0    0 220f |    3.570       0       5       0       5      1      1      0   5848     304       4   1    0220f a70f      9.720 "
test,1583576762046027776,35," | 35  |   6156       5   6149       3 |   5    0      5863       289 |   5   1    0    0 220f |    4.241       0       5       0       5      1      1      0   5732     420       5   1    0220f a70f     10.320 "
test,1583576762060862976,40," | 40  |   6156       5   6074      74 |   0    8      5783       365 |   0  40    1    1 2a0f |    0           0       0       0       8      0      0      0   5635     513       0  40    12a0f a70f     30.150 "
test,1583576762051515136,41," | 41  |   6156       5   6083      59 |   5    0      6090        52 |   6   1    0    0 220f |    5.004       0       5       0       5      1      1      0   5944     198       6   1    0220f a70f     13.290 "
test,1583576762057893120,42," | 42  |   6156       5   6090      62 |   5    0      6034       118 |   5   1    0    0 220f |    5.035       0       5       0       5      1      1      0   5902     250       6   1    0220f a70f     11.070 "
test,1583576762044269056,44," | 44  |   6156       5   6095      57 |   5    0      6035       117 |   6   1    0    0 220f |    5.004       0       5       0       5      1      1      0   5919     233       6   1    0220f a70f     11.190 "
test,1583576762044698112,45," | 45  |   6156       5   6109      43 |   5    0      5963       189 |   6   1    0    0 220f |    5.004       0       5       0       5      1      1      0   5851     301       6   1    0220f a70f     11.160 "
test,1583576762047280128,46," | 46  |   6156       5   6088      57 |   5    0      5864       281 |   6   1    0    0 220f |    5.706       0       5       0       5      1      1      0   5763     382       7   1    0220f a70f     12.600 "
test,1583576762049291008,47," | 47  |   6156       5   6095      57 |   5    0      5957       195 |   6   1    0    0 220f |    5.737       0       5       0       5      1      1      0   5852     300       7   1    0220f a70f     12.480 "
test,1583576762044926976,48," | 48  |   6156       5   6030      55 |   5    0      5961       124 |   6   1    0    0 220f |    5.706       0       5       0       5      1      1      0   5852     233       7   1    0220f a70f     11.790 "
test,1583576762043155968,49," | 49  |   6156       5   6146       0 |   5    0      6025       121 |   3   1    0    0 220f |    2.807       0       5       0       5      1      1      0   5984     162       3   1    0220f a70f      9.000 "
test,1583576762039230976,51," | 51  |   6156       5   6147       0 |   5    0      6080        67 |   1   1    0    0 220f |    1.312       0       5       0       5      1      1      0   6059      88       1   1    0220f a70f      7.590 "
test,1583576762046868992,52," | 52  |   6156       5   6120      28 |   5    0      5845       303 |   5   1    0    0 220f |    4.241       0       5       0       5      1      1      0   5736     412       5   1    0220f a70f     12.540 "
test,1583576762052361984,53," | 53  |   6156       5   6130       0 |   5    0      5803       327 |   4   1    0    0 220f |    3.540       0       5       0       5      1      1      0   5739     391       4   1    0220f a70f      9.750 "
test,1583576762038795008,54," | 54  |   6156       5   6148       0 |   5    0      6045       103 |   1   1    0    0 220f |    1.342       0       5       0       5      1      1      0   5948     200       1   1    0220f a70f      7.500 "
test,1583576762043553024,55," | 55  |   6156       5   6135       0 |   5    0      5901       234 |   3   1    0    0 220f |    2.777       0       5       0       5      1      1      0   5852     283       3   1    0220f a70f      8.850 "
test,1583576762040397824,56," | 56  |   6156       5   6138       0 |   5    0      6045        93 |   2   1    0    0 220f |    2.105       0       5       0       5      1      1      0   5973     165       2   1    0220f a70f      8.160 "
test,1583576762046546944,57," | 57  |   6156       5   6093       0 |   5    0      5938       155 |   3   1    0    0 220f |    2.807       0       5       0       5      1      1      0   5565     528       3   1    0220f a70f     11.070 "
test,1583576762043996928,58," | 58  |   6156       5   6147       0 |   5    0      6065        82 |   2   1    0    0 220f |    2.044       0       5       0       5      1      1      0   5813     334       2   1    0220f a70f     10.470 "
test,1583576762042036992,5," |  5  |   6156       5   6154       0 |   5    0      5608       546 |   2   1    0    0 220f |    2.044       0       5       0       5      1      1      0   5500     654       2   1    0220f a70f      8.100 "
test,1583576762042509056,60," | 60  |   6156       5   6147       0 |   5    0      5763       384 |   2   1    0    0 220f |    2.075       0       5       0       5      1      1      0   5640     507       2   1    0220f a70f      8.280 "
test,1583576762044529920,61," | 61  |   6156       5   6146       0 |   5    0      5866       280 |   3   1    0    0 220f |    2.075       0       5       0       5      1      1      0   5658     488       2   1    0220f a70f     10.470 "
test,1583576762037803008,7," |  7  |   6156       5   6153       0 |   5    0      6063        90 |   1   1    0    0 220f |    1.373       0       5       0       5      1      1      0   6022     131       1   1    0220f a70f      7.620 "
test,1583576762039052032,9," |  9  |   6156       5   6152       0 |   5    0      5945       207 |   1   1    0    0 220f |    1.373       0       5       0       5      1      1      0   5916     236       1   1    0220f a70f      7.530 "
