test,1583576770542263040,10," | 10  |   6190       5   6162       0 |   5    0      6064        98 |   1  51    0    0 cd0f |    2.044       0       5       0       5     51     51      0   5987     175       1  51    0cd0f a70f      8.970 "
test,1583576770547096064,12," | 12  |   6190       5   6154      34 |   5    0      6120        68 |   2  51    0    0 cd0f |    4.241       0       5       0       5     51     51      0   6015     173       4  51    0cd0f a70f     10.350 "
test,1583576770544503808,13," | 13  |   6190       5   6186       0 |   5    0      6136        50 |   1  51    0    0 cd0f |    2.044       0       5       0       5     51     51      0   6062     124       1  51    0cd0f a70f      9.000 "
test,1583576770548096768,15," | 15  |   6190       5   6145      43 |   5    0      5945       243 |   3  51    0    0 cd0f |    4.943       0       5       0       5     51     51      0   5670     518       5  51    0cd0f a70f     11.160 "
test,1583576770543868160,16," | 16  |   6190       5   6186       0 |   5    0      5962       224 |   1  41    0    0  d0f |    2.014       0       5       0       5     41     41      0   5796     390       1  41    0 d0f a70f      8.220 "
test,1583576770548791040,17," | 17  |   6190       5   6178       8 |   5    0      6105        81 |   1  41    0    0  d0f |    3.448       0       5       0       5     41     41      0   5922     264       3  41    0 d0f a70f     10.380 "
test,1583576770560001024,18," | 18  |   6190       5   6185       0 |   2   11      5854       331 |   1  47   24    0 5d0f |    0           0       0       0       8      0      0      0   5608     577       0  47    05d0f a70f     30.360 "
test,1583576770552933888,19," | 19  |   6190       5   6174      12 |   4    4      6067       119 |   2  41   24    0  d0f |    3.509       0       5       0       5     41     41      0   5899     287       3  41    0 d0f a70f     12.450 "
test,1583576770539668992,1," |  1  |   6190       4   6187       0 |   5    0      6027       160 |   1  51    0    0 cd0f |    2.746       0       5       0       5     51     51      0   5985     202       1  51    0cd0f a70f      8.880 "
test,1583576770562295808,22," | 22  |   6190       5   6184       0 |   4    5      6133        51 |   7  41   24    0  d0f |    3.509       0       4       0       4     41     41      0   5853     331       3  41    0 d0f a70f     30.360 "
test,1583576770540323072,23," | 23  |   6190       5   6128       0 |   5    0      6103        25 |   2  41    0    0  d0f |    2.716       0       5       0       5     41     41      0   5983     145       2  41    0 d0f a70f      8.910 "
test,1583576770560688896,24," | 24  |   6190       5   6184       2 |   0    9      6119        67 |   0  24   47    1 db0f |   18.890       0       1       0       1     24     24      0   5961     225      26  24    1db0f a70f     30.240 "
test,1583576770559650816,26," | 26  |   6190       5   6184       2 |   5    0      6160        26 |   4  41    0    0  d0f |    3.479       0       4       0       4     41     41      0   6047     139       3  41    0 d0f a70f     30.390 "
test,1583576770544851968,27," | 27  |   6190       5   6188       0 |   4    1      6011       177 |   2  41   51    0  d0f |    3.509       0       5       0       5     41     41      0   5773     415       3  41    0 d0f a70f      9.630 "
test,1583576770563522048,28," | 28  |   6190       5   6178       8 |   4    0      5683       503 |   3  30    0    0 690f |    2.716       0       4       0       4     30     30      0   5451     735       2  30    0690f a70f     30.330 "
test,1583576770547821056,29," | 29  |   6190       5   6179       9 |   3    0      5473       715 |   5  41    0    0  d0f |    4.211       0       5       0       5     41     41      0   5220     968       4  41    0 d0f a70f     13.200 "
test,1583576770541662976,30," | 30  |   6190       5   6183       3 |   4    0      6102        84 |   2  30    0    1 690f |    1.739       0       4       0       4     30     30      0   5880     306       2  30    1690f a70f      6.510 "
test,1583576770539985920,35," | 35  |   6190       5   6183       3 |   5    0      5896       290 |   1  30    0    0 690f |    1.922       0       5       0       5     30     30      0   5763     423       1  30    0690f a70f      8.160 "
test,1583576770545070848,40," | 40  |   6190       5   6108      74 |   5    0      5815       367 |   1  41    0    0  d0f |    2.014       0       5       0       5     41     41      0   5667     515       1  41    0 d0f a70f      8.130 "
test,1583576770541459968,41," | 41  |   6190       5   6117      59 |   4    0      6124        52 |   2  41    0    1  d0f |    1.739       0       4       0       4     41     41      0   5976     200       2  41    1 d0f a70f      6.480 "
test,1583576770541208064,42," | 42  |   6190       5   6124      62 |   5    0      6068       118 |   1  41    0    0  d0f |    2.014       0       5       0       5     41     41      0   5934     252       1  41    0 d0f a70f      8.220 "
test,1583576770562952960,44," | 44  |   6190       5   6129      57 |   3   11      6068       118 |   1  47   24    0 5d0f |    2.044       0       3       0       3     47     47      0   5952     234       1  47    05d0f a70f     30.360 "
test,1583576770547375872,45," | 45  |   6190       5   6143      43 |   5    0      5997       189 |   1  41    0    0  d0f |    2.014       0       5       0       5     41     41      0   5884     302       1  41    0 d0f a70f      8.220 "
test,1583576770543031808,46," | 46  |   6190       5   6122      57 |   5    0      5898       281 |   1  41    0    0  d0f |    2.014       0       5       0       5     41     41      0   5795     384       1  41    0 d0f a70f      8.250 "
test,1583576770564766976,47," | 47  |   6190       5   6129      57 |   1    3      5991       195 |  14  47   41    1 5d0f |   10.284       0       1       0       1     47     47      0   5884     302      14  47    15d0f a70f     30.210 "
test,1583576770563149056,48," | 48  |   6190       5   6064      55 |   2    2      5995       124 |   1  47   41    0 5d0f |    2.014       0       3       0       3     47     47      0   5884     235       1  47    05d0f a70f     30.330 "
test,1583576770544658944,49," | 49  |   6190       5   6180       0 |   5    0      6056       124 |   2  61    0    0 870f |    2.716       0       5       0       5     61     61      0   6013     167       2  61    0870f a70f      8.910 "
test,1583576770538668032,51," | 51  |   6190       5   6181       0 |   4    0      6114        67 |   4  51    0    1 cd0f |    1.739       0       4       0       4     51     51      0   6092      89       2  51    1cd0f a70f      6.510 "
test,1583576770542599936,52," | 52  |   6190       5   6154      28 |   5    0      5876       306 |   4  41    0    0  d0f |    2.746       0       5       0       5     41     41      0   5767     415       2  41    0 d0f a70f      9.630 "
test,1583576770544081920,53," | 53  |   6190       5   6164       0 |   5    0      5834       330 |   3  61    0    0 870f |    3.448       0       5       0       5     61     61      0   5770     394       3  61    0870f a70f      9.660 "
test,1583576770542424832,54," | 54  |   6190       5   6182       0 |   4    3      6079       103 |   2  51   61    0 cd0f |    2.777       0       5       0       5     51     51      0   5981     201       2  51    0cd0f a70f      8.880 "
test,1583576770540756992,55," | 55  |   6190       5   6169       0 |   5    0      5935       234 |   2  61    0    0 870f |    2.716       0       5       0       5     61     61      0   5884     285       2  61    0870f a70f      8.910 "
test,1583576770539194112,56," | 56  |   6190       5   6172       0 |   5    0      6079        93 |   1  51    0    0 cd0f |    2.014       0       5       0       5     51     51      0   6005     167       1  51    0cd0f a70f      8.250 "
test,1583576770546505984,57," | 57  |   6190       5   6127       0 |   1    0      5971       156 |  13  41    0    0  d0f |    3.509       0       5       0       5     41     41      0   5596     531       3  41    0 d0f a70f      9.540 "
test,1583576770562542080,58," | 58  |   6190       5   6181       0 |   3    3      6098        83 |   1  61   51    0 870f |    1.983       0       2       0       2     61     61      0   5842     339       1  61    0870f a70f     30.300 "
test,1583576770543277056,5," |  5  |   6190       5   6188       0 |   5    0      5641       547 |   2  51    0    0 cd0f |    2.777       0       5       0       5     51     51      0   5532     656       2  51    0cd0f a70f      9.690 "
test,1583576770539435008,60," | 60  |   6190       5   6181       0 |   5    0      5795       386 |   1  51    0    0 cd0f |    2.044       0       5       0       5     51     51      0   5669     512       1  51    0cd0f a70f      8.220 "
test,1583576770560316928,61," | 61  |   6190       5   6180       0 |   2    4      5897       283 |  12  61   51    1 870f |    1.739       0       1       0       1     61     61      0   5687     493       2  61    1870f a70f     30.300 "
test,1583576770538870016,7," |  7  |   6190       5   6187       0 |   5    0      6097        90 |   1  51    0    0 cd0f |    2.044       0       5       0       5     51     51      0   6056     131       1  51    0cd0f a70f      8.280 "
test,1583576770541021952,9," |  9  |   6190       5   6186       0 |   5    0      5978       208 |   2  51    0    0 cd0f |    2.807       0       5       0       5     51     51      0   5949     237       2  51    0cd0f a70f      9.030 "
