test,1583576819790030080,10," | 10  |   6387       5   6359       0 |   5    0      6257       102 |   1   7    0    0  d0f |    2.044       0       5       0       5      7      7      0   6178     181       1   7    0 d0f a70f      8.130 "
test,1583576819792624896,12," | 12  |   6387       5   6351      34 |   5    0      6315        70 |   1   7    0    0  d0f |    2.014       0       5       0       5      7      7      0   6206     179       1   7    0 d0f a70f      8.220 "
test,1583576819790642944,13," | 13  |   6387       5   6383       0 |   5    0      6332        51 |   1   7    0    0  d0f |    2.044       0       5       0       5      7      7      0   6259     124       1   7    0 d0f a70f      8.250 "
test,1583576819794464000,15," | 15  |   6387       5   6342      43 |   4    0      6132       253 |   4   7    0    0  d0f |    2.746       0       5       0       5      7      7      0   5848     537       2   7    0 d0f a70f      8.850 "
test,1583576819794092800,16," | 16  |   6387       5   6383       0 |   4    0      6148       235 |   2  16    0    1 570f |    1.739       0       4       0       4     16     16      0   5982     401       2  16    1570f a70f      6.510 "
test,1583576819813123840,17," | 17  |   6387       5   6375       8 |   2    4      6296        87 |   1  41   16    0 b10f |    2.075       0       1       0       1     41     41      0   6108     275       1  41    0b10f a70f     30.390 "
test,1583576819796497152,18," | 18  |   6387       5   6382       0 |   5    0      6044       338 |   2  16    0    0 570f |    3.479       0       5       0       5     16     16      0   5789     593       3  16    0570f a70f      9.660 "
test,1583576819813451008,19," | 19  |   6387       5   6371      12 |   1    3      6261       122 |   2  41   16    0 b10f |    2.777       0       1       0       1     41     41      0   6089     294       2  41    0b10f a70f     30.330 "
test,1583576819791994112,1," |  1  |   6387       4   6384       0 |   5    0      6221       163 |   1   7    0    0  d0f |    2.716       0       5       0       5      7      7      0   6177     207       1   7    0 d0f a70f      8.790 "
test,1583576819804577024,22," | 22  |   6387       5   6381       0 |   5    0      6326        55 |   2  16    0    0 570f |    2.746       0       5       0       5     16     16      0   6039     342       2  16    0570f a70f      8.940 "
test,1583576819793946880,23," | 23  |   6387       5   6325       0 |   5    0      6299        26 |   1  16    0    0 570f |    2.044       0       5       0       5     16     16      0   6177     148       1  16    0570f a70f      8.190 "
test,1583576819799822080,24," | 24  |   6387       5   6381       2 |   5    0      6316        67 |   2  16    0    0 570f |    2.746       0       5       0       5     16     16      0   6152     231       2  16    0570f a70f      8.970 "
test,1583576819793740032,26," | 26  |   6387       5   6381       2 |   5    0      6355        28 |   1  16    0    0 570f |    2.014       0       5       0       5     16     16      0   6239     144       1  16    0570f a70f      8.250 "
test,1583576819795675136,27," | 27  |   6387       5   6385       0 |   4    1      6205       180 |   2  16    7    0 570f |    2.807       0       5       0       5     16     16      0   5957     428       2  16    0570f a70f      8.910 "
test,1583576819792953856,28," | 28  |   6387       5   6375       8 |   5    0      5866       517 |   3  30    0    0 810f |    2.014       0       5       0       5     30     30      0   5627     756       1  30    0810f a70f      8.940 "
test,1583576819814934016,29," | 29  |   6387       3   6376       9 |   2    0      5647       738 |   5  16    0    0 570f |    4.974       0       4       0       4     16     16      0   5386     999       5  16    0570f a70f     30.360 "
test,1583576819789393920,30," | 30  |   6387       5   6380       3 |   5    0      6297        86 |   2  30    0    1 810f |    1.739       0       4       0       4     30     30      0   6066     317       2  30    1810f a70f      6.510 "
test,1583576819793515008,35," | 35  |   6387       5   6380       3 |   5    0      6088       295 |   1  30    0    0 810f |    1.983       0       5       0       5     30     30      0   5949     434       1  30    0810f a70f      8.190 "
test,1583576819796967936,40," | 40  |   6387       5   6305      74 |   5    0      6006       373 |   1  41    0    0 b10f |    2.014       0       5       0       5     41     41      0   5854     525       1  41    0b10f a70f      9.660 "
test,1583576819792258048,41," | 41  |   6387       5   6314      59 |   4    0      6320        53 |   2  41    0    1 b10f |    1.739       0       4       0       4     41     41      0   6164     209       2  41    1b10f a70f      6.510 "
test,1583576819791759872,42," | 42  |   6387       5   6321      62 |   5    0      6262       121 |   1  41    0    0 b10f |    2.044       0       5       0       5     41     41      0   6124     259       1  41    0b10f a70f      8.970 "
test,1583576819804815104,44," | 44  |   6387       5   6326      57 |   5    0      6263       120 |   1  41    0    0 b10f |    2.044       0       5       0       5     41     41      0   6140     243       1  41    0b10f a70f      9.000 "
test,1583576819795090944,45," | 45  |   6387       5   6340      43 |   5    0      6189       194 |   1  41    0    0 b10f |    2.014       0       5       0       5     41     41      0   6072     311       1  41    0b10f a70f      8.970 "
test,1583576819793206016,46," | 46  |   6387       5   6319      57 |   5    0      6090       286 |   1  41    0    0 b10f |    2.014       0       5       0       5     41     41      0   5984     392       1  41    0b10f a70f      8.910 "
test,1583576819796318976,47," | 47  |   6387       5   6326      57 |   5    0      6178       205 |   1  41    0    0 b10f |    2.014       0       5       0       5     41     41      0   6067     316       1  41    0b10f a70f      8.250 "
test,1583576819792445952,48," | 48  |   6387       5   6261      55 |   5    0      6189       127 |   1  41    0    0 b10f |    2.044       0       5       0       5     41     41      0   6073     243       1  41    0b10f a70f      8.970 "
test,1583576819789577984,49," | 49  |   6387       5   6377       0 |   5    0      6252       125 |   2  49    0    1 9b0f |    1.739       0       4       0       4     49     49      0   6209     168       2  49    19b0f a70f      6.480 "
test,1583576819811820032,51," | 51  |   6387       5   6378       0 |   3    0      6309        69 |   5   7    0    0  d0f |    2.014       0       3       0       3      7      7      0   6287      91       1   7    0 d0f a70f     30.330 "
test,1583576819801181952,52," | 52  |   6387       5   6351      28 |   4    0      6057       322 |   1  16    0    0 570f |    2.014       0       5       0       5     16     16      0   5948     431       1  16    0570f a70f      8.940 "
test,1583576819803311104,53," | 53  |   6387       5   6361       0 |   5    0      6024       337 |   1  49    0    0 9b0f |    2.014       0       5       0       5     49     49      0   5959     402       1  49    09b0f a70f      8.250 "
test,1583576819794270976,54," | 54  |   6387       5   6379       0 |   5    0      6272       107 |   1   7    0    0  d0f |    2.014       0       5       0       5      7      7      0   6169     210       1   7    0 d0f a70f      8.160 "
test,1583576819797348864,55," | 55  |   6387       5   6366       0 |   5    0      6126       240 |   1  49    0    0 9b0f |    2.014       0       5       0       5     49     49      0   6075     291       1  49    09b0f a70f      8.220 "
test,1583576819799456000,56," | 56  |   6387       5   6369       0 |   2    5      6273        96 |   3  16    7    0 570f |    3.540       0       5       0       5     16     16      0   6197     172       3  16    0570f a70f     12.480 "
test,1583576819797147136,57," | 57  |   6387       5   6324       0 |   4    0      6160       164 |   2  16    0    0 570f |    2.746       0       5       0       5     16     16      0   5769     555       2  16    0570f a70f     11.820 "
test,1583576819790280960,58," | 58  |   6387       5   6378       0 |   5    0      6291        87 |   1  49    0    0 9b0f |    2.044       0       5       0       5     49     49      0   6031     347       1  49    09b0f a70f      8.130 "
test,1583576819794675968,5," |  5  |   6387       5   6385       0 |   5    0      5818       567 |   2   7    0    0  d0f |    2.746       0       5       0       5      7      7      0   5707     678       2   7    0 d0f a70f      8.880 "
test,1583576819803705088,60," | 60  |   6387       5   6378       0 |   3    2      5983       395 |   3  16    7    0 570f |    3.540       0       5       0       5     16     16      0   5856     522       3  16    0570f a70f     12.600 "
test,1583576819796789760,61," | 61  |   6387       5   6373       4 |   3    0      6080       297 |   6  49    0    0 9b0f |    2.777       0       5       0       5     49     49      0   5868     509       2  49    09b0f a70f      8.880 "
test,1583576819789184000,7," |  7  |   6387       5   6384       0 |   5    0      6294        90 |   2   7    0    1  d0f |    1.739       0       4       0       4      7      7      0   6251     133       2   7    1 d0f a70f      6.480 "
test,1583576819790952960,9," |  9  |   6387       5   6383       0 |   5    0      6173       210 |   1   7    0    0  d0f |    2.044       0       5       0       5      7      7      0   6142     241       1   7    0 d0f a70f      8.280 "
