test,1583576845048312064,10," | 10  |   6488       5   6460       0 |   5    0      6356       104 |   4  27    0    0 ed0f |    5.706       0       5       0       5     27     27      0   6278     182       6  27    0ed0f a70f     11.880 "
test,1583576845062098944,12," | 12  |   6488       5   6452      34 |   5    0      6415        71 |   4  49    0    0 da0f |    3.509       0       3       0       3     49     49      0   6304     182       3  49    0da0f a70f     30.390 "
test,1583576845047687168,13," | 13  |   6488       5   6484       0 |   5    0      6433        51 |   5  27    0    0 ed0f |    6.408       0       5       0       5     27     27      0   6359     125       7  27    0ed0f a70f     12.540 "
test,1583576845064621824,15," | 15  |   6488       5   6443      43 |   5    5      6228       258 |   1  20   49    0 e50f |    2.014       0       2       0       2     20     20      0   5938     548       1  20    0e50f a70f     30.360 "
test,1583576845043796992,16," | 16  |   6488       5   6484       0 |   5    0      6246       238 |   2  27    0    0 ed0f |    3.479       0       5       0       5     27     27      0   6078     406       3  27    0ed0f a70f      9.690 "
test,1583576845040359936,17," | 17  |   6488       5   6476       8 |   5    0      6396        88 |   1  27    0    0 ed0f |    2.044       0       5       0       5     27     27      0   6203     281       1  27    0ed0f a70f      8.250 "
test,1583576845063421952,18," | 18  |   6488       5   6483       0 |   5    0      6142       341 |   4  22    0    0 4e0f |    2.075       0       2       0       2     22     22      0   5884     599       1  22    04e0f a70f     30.300 "
test,1583576845042493184,19," | 19  |   6488       5   6472      12 |   5    0      6361       123 |   1  27    0    0 ed0f |    2.014       0       5       0       5     27     27      0   6183     301       1  27    0ed0f a70f      8.100 "
test,1583576845048477952,1," |  1  |   6488       4   6485       0 |   5    0      6320       165 |   5  27    0    0 ed0f |    7.110       0       5       0       5     27     27      0   6275     210       7  27    0ed0f a70f     13.200 "
test,1583576845063239936,22," | 22  |   6488       5   6482       0 |   4    0      6426        56 |   5  22    0    1 4e0f |    1.739       0       1       0       1     22     22      0   6132     350       2  22    14e0f a70f     30.300 "
test,1583576845045275904,23," | 23  |   6488       5   6426       0 |   5    0      6399        27 |   1  27    0    0 ed0f |    2.777       0       5       0       5     27     27      0   6274     152       2  27    0ed0f a70f      9.690 "
test,1583576845043550976,24," | 24  |   6488       5   6482       2 |   1    7      6416        68 |   3  27   20    0 ed0f |    3.479       0       5       0       5     27     27      0   6249     235       3  27    0ed0f a70f      9.690 "
test,1583576845044909056,26," | 26  |   6488       5   6482       2 |   5    0      6456        28 |   2  27    0    0 ed0f |    2.777       0       5       0       5     27     27      0   6336     148       2  27    0ed0f a70f      9.000 "
test,1583576845049496832,27," | 27  |   6488       5   6486       0 |   4    0      6302       184 |   2  27    0    1 ed0f |    1.770       0       4       0       4     27     27      0   6049     437       2  27    1ed0f a70f      8.670 "
test,1583576845064933888,28," | 28  |   6488       5   6476       8 |   5    0      5961       523 |   3  22    0    0 4e0f |    4.974       0       3       0       3     22     22      0   5715     769       5  22    04e0f a70f     30.360 "
test,1583576845065469952,29," | 29  |   6488       4   6477       9 |   4    0      5731       755 |   3  27    0    0 ed0f |    2.777       0       4       0       4     27     27      0   5466    1020       2  27    0ed0f a70f     30.360 "
test,1583576845044712192,30," | 30  |   6488       5   6481       3 |   5    0      6398        86 |   2  22    0    0 4e0f |    2.807       0       5       0       5     22     22      0   6165     319       2  22    04e0f a70f      8.970 "
test,1583576845040785920,35," | 35  |   6488       5   6481       3 |   5    0      6186       298 |   1  22    0    0 4e0f |    2.014       0       5       0       5     22     22      0   6046     438       1  22    04e0f a70f      8.220 "
test,1583576845064317952,40," | 40  |   6488       5   6406      74 |   5    0      6102       378 |   2  46    0    0 460f |    2.746       0       4       0       4     46     46      0   5945     535       2  46    0460f a70f     30.180 "
test,1583576845040559104,41," | 41  |   6488       5   6415      59 |   5    0      6420        54 |   1  46    0    0 460f |    2.044       0       5       0       5     46     46      0   6260     214       1  46    0460f a70f      8.160 "
test,1583576845041564928,42," | 42  |   6488       5   6422      62 |   5    0      6363       121 |   1  46    0    0 460f |    2.044       0       5       0       5     46     46      0   6221     263       1  46    0460f a70f      8.250 "
test,1583576845041118976,44," | 44  |   6488       5   6427      57 |   5    0      6364       120 |   1  46    0    0 460f |    2.044       0       5       0       5     46     46      0   6237     247       1  46    0460f a70f      8.250 "
test,1583576845062406912,45," | 45  |   6488       5   6441      43 |   5    0      6289       195 |   2  46    0    0 460f |    2.014       0       4       0       4     46     46      0   6169     315       1  46    0460f a70f     30.330 "
test,1583576845041872128,46," | 46  |   6488       5   6420      57 |   4    0      6183       294 |   4  46    0    1 460f |    1.739       0       4       0       4     46     46      0   6076     401       2  46    1460f a70f      6.480 "
test,1583576845042679040,47," | 47  |   6488       5   6427      57 |   5    0      6277       207 |   1  46    0    0 460f |    2.044       0       5       0       5     46     46      0   6164     320       1  46    0460f a70f      8.130 "
test,1583576845043170048,48," | 48  |   6488       5   6362      55 |   5    0      6288       129 |   1  46    0    0 460f |    1.983       0       5       0       5     46     46      0   6165     252       1  46    0460f a70f      8.910 "
test,1583576845041384960,49," | 49  |   6488       5   6478       0 |   5    0      6350       128 |   2  49    0    1 da0f |    1.739       0       4       0       4     49     49      0   6305     173       2  49    1da0f a70f      6.480 "
test,1583576845047013120,51," | 51  |   6488       5   6479       0 |   5    0      6408        71 |   4  27    0    0 ed0f |    4.974       0       5       0       5     27     27      0   6385      94       5  27    0ed0f a70f     11.160 "
test,1583576845043340800,52," | 52  |   6488       4   6452      28 |   5    0      6155       325 |   2  27    0    0 ed0f |    3.540       0       5       0       5     27     27      0   6041     439       3  27    0ed0f a70f      9.570 "
test,1583576845042931200,53," | 53  |   6488       5   6462       0 |   5    0      6120       342 |   1  49    0    0 da0f |    2.014       0       5       0       5     49     49      0   6054     408       1  49    0da0f a70f      8.250 "
test,1583576845062800896,54," | 54  |   6488       5   6480       0 |   2    4      6372       108 |   2  49   27    0 da0f |    2.777       0       3       0       3     49     49      0   6267     213       2  49    0da0f a70f     30.390 "
test,1583576845045103104,55," | 55  |   6488       5   6467       0 |   5    0      6220       247 |   1  49    0    0 da0f |    2.014       0       5       0       5     49     49      0   6167     300       1  49    0da0f a70f      8.070 "
test,1583576845046865920,56," | 56  |   6488       5   6470       0 |   5    0      6372        98 |   3  27    0    0 ed0f |    4.180       0       5       0       5     27     27      0   6294     176       4  27    0ed0f a70f     10.350 "
test,1583576845048132864,57," | 57  |   6488       5   6425       0 |   5    0      6257       168 |   2  27    0    0 ed0f |    3.479       0       5       0       5     27     27      0   5854     571       3  27    0ed0f a70f     10.380 "
test,1583576845042316800,58," | 58  |   6488       5   6479       0 |   5    0      6392        87 |   1  49    0    0 da0f |    2.044       0       5       0       5     49     49      0   6127     352       1  49    0da0f a70f      8.190 "
test,1583576845052911872,5," |  5  |   6488       5   6486       0 |   5    0      5910       576 |   6  27    0    0 ed0f |    7.141       0       5       0       5     27     27      0   5796     690       8  27    0ed0f a70f     13.110 "
test,1583576845046672128,60," | 60  |   6488       5   6479       0 |   5    0      6077       402 |   5  27    0    0 ed0f |    4.241       0       5       0       5     27     27      0   5946     533       4  27    0ed0f a70f     10.410 "
test,1583576845064794112,61," | 61  |   6488       5   6474       4 |   4    1      6180       298 |   3  27   49    0 ed0f |    7.904       0       1       0       1     27     27      0   5963     515       9  27    0ed0f a70f     30.360 "
test,1583576845061865984,7," |  7  |   6488       5   6485       0 |   5    0      6394        91 |   3  49    0    0 da0f |    3.479       0       3       0       3     49     49      0   6350     135       3  49    0da0f a70f     30.390 "
test,1583576845046027776,9," |  9  |   6488       5   6484       0 |   5    0      6267       217 |   5  27    0    0 ed0f |    6.408       0       5       0       5     27     27      0   6236     248       7  27    0ed0f a70f     12.510 "
