test,1583576914550828032,10," | 10  |   6766       5   6738       0 |   4   10      6628       110 |   1  58    1    0 6a0f |    8.605       0       5       0       5     58     58      0   6549     189      10  58    06a0f a70f     14.730 "
test,1583576914556346880,12," | 12  |   6766       5   6730      34 |   3   10      6691        73 |   1  58    1    0 6a0f |   10.070       0       5       0       5     58     58      0   6579     185      12  58    06a0f a70f     16.200 "
test,1583576914550482944,13," | 13  |   6766       5   6762       0 |   2   10      6707        55 |   7  58    1    0 6a0f |    8.636       0       5       0       5     58     58      0   6633     129      10  58    06a0f a70f     14.760 "
test,1583576914557080064,15," | 15  |   6766       5   6721      43 |   3    0      6493       271 |   2  58    0    0 6a0f |   10.803       0       5       0       5     58     58      0   6185     579      13  58    06a0f a70f     16.740 "
test,1583576914545449984,16," | 16  |   6766       5   6762       0 |   5    0      6509       253 |   3  26    0    0 680f |    2.075       0       5       0       5     26     26      0   6334     428       1  26    0680f a70f      8.850 "
test,1583576914565635072,17," | 17  |   6766       5   6753       9 |   1    5      6670        92 |   5  17   26    1 340f |    1.739       0       2       0       2     17     17      0   6469     293       2  17    1340f a70f     30.300 "
test,1583576914548940800,18," | 18  |   6766       5   6761       0 |   5    0      6407       354 |   4  26    0    0 680f |    2.044       0       5       0       5     26     26      0   6141     620       1  26    0680f a70f      8.970 "
test,1583576914567357952,19," | 19  |   6766       5   6749      13 |   3    1      6634       128 |   1  17   26    0 340f |    2.014       0       3       0       3     17     17      0   6451     311       1  17    0340f a70f     30.390 "
test,1583576914540811008,1," |  1  |   6766       4   6763       0 |   4    1      6591       172 |  17   1   58    1 820f |    1.770       0       4       0       4      1      1      0   6545     218       2   1    1820f a70f      6.510 "
test,1583576914544531968,22," | 22  |   6766       5   6760       0 |   5    0      6698        62 |   4  26    0    0 680f |    2.014       0       5       0       5     26     26      0   6391     369       1  26    0680f a70f      8.220 "
test,1583576914542525952,23," | 23  |   6766       5   6704       0 |   5    0      6676        28 |   2  26    0    0 680f |    2.044       0       5       0       5     26     26      0   6546     158       1  26    0680f a70f      8.220 "
test,1583576914543384064,24," | 24  |   6766       5   6760       2 |   5    0      6685        77 |   4  26    0    0 680f |    2.044       0       5       0       5     26     26      0   6512     250       1  26    0680f a70f      8.280 "
test,1583576914542745088,26," | 26  |   6766       5   6760       2 |   5    0      6734        28 |   5  26    0    1 680f |    1.739       0       4       0       4     26     26      0   6609     153       2  26    1680f a70f      6.510 "
test,1583576914545691136,27," | 27  |   6766       5   6764       0 |   1    1      6566       198 |   1  17   26    0 340f |    2.044       0       5       0       5     17     17      0   6304     460       1  17    0340f a70f      9.510 "
test,1583576914566232064,28," | 28  |   6766       5   6754       8 |   5    0      6220       542 |   1  17    0    0 340f |    2.014       0       2       0       2     17     17      0   5958     804       1  17    0340f a70f     30.360 "
test,1583576914547064064,29," | 29  |   6766       5   6755       9 |   2    0      5972       792 |   5  17    0    0 340f |    2.746       0       5       0       5     17     17      0   5690    1074       2  17    0340f a70f      8.790 "
test,1583576914561933056,30," | 30  |   6766       5   6759       3 |   5    0      6672        90 |   2  17    0    0 340f |    0           0       0       0       8      0      0      0   6426     336       0  17    0340f a70f     30.360 "
test,1583576914562639872,35," | 35  |   6766       5   6759       3 |   5    0      6449       313 |   3  17    0    0 340f |    0           0       0       0       8      0      0      0   6298     464       0  17    0340f a70f     30.360 "
test,1583576914566819072,40," | 40  |   6766       5   6684      74 |   5    0      6371       387 |   2  45    0    0 2b0f |    2.746       0       4       0       4     45     45      0   6211     547       2  45    02b0f a70f     30.270 "
test,1583576914563739904,41," | 41  |   6766       5   6693      59 |   5    0      6693        59 |   1  45    0    0 2b0f |    2.044       0       4       0       4     45     45      0   6532     220       1  45    02b0f a70f     30.330 "
test,1583576914563991040,42," | 42  |   6766       5   6700      62 |   5    0      6640       122 |   1  45    0    0 2b0f |    2.075       0       4       0       4     45     45      0   6495     267       1  45    02b0f a70f     30.240 "
test,1583576914564945920,44," | 44  |   6766       5   6705      57 |   5    0      6637       125 |   1  45    0    0 2b0f |    2.044       0       4       0       4     45     45      0   6505     257       1  45    02b0f a70f     30.270 "
test,1583576914543204096,45," | 45  |   6766       5   6719      43 |   4    0      6561       201 |   2  45    0    1 2b0f |    1.739       0       4       0       4     45     45      0   6441     321       2  45    12b0f a70f      6.480 "
test,1583576914565125888,46," | 46  |   6766       5   6698      57 |   5    0      6441       314 |   2  45    0    0 2b0f |    2.807       0       4       0       4     45     45      0   6333     422       2  45    02b0f a70f     30.360 "
test,1583576914565979904,47," | 47  |   6766       5   6705      57 |   5    0      6546       216 |   1  45    0    0 2b0f |    2.075       0       4       0       4     45     45      0   6430     332       1  45    02b0f a70f     30.240 "
test,1583576914566456064,48," | 48  |   6766       5   6640      55 |   5    0      6560       135 |   1  45    0    0 2b0f |    2.044       0       4       0       4     45     45      0   6435     260       1  45    02b0f a70f     30.360 "
test,1583576914544308992,49," | 49  |   6766       5   6756       0 |   5    0      6625       131 |   1  58    0    0 6a0f |    2.044       0       5       0       5     58     58      0   6578     178       1  58    06a0f a70f      8.280 "
test,1583576914543538176,51," | 51  |   6766       5   6757       0 |   5    0      6680        77 |   2  58    0    0 6a0f |    2.746       0       5       0       5     58     58      0   6656     101       2  58    06a0f a70f      8.970 "
test,1583576914544708096,52," | 52  |   6766       5   6730      28 |   2    0      6417       341 |   1  26    0    0 680f |    2.044       0       5       0       5     26     26      0   6298     460       1  26    0680f a70f      8.280 "
test,1583576914546497024,53," | 53  |   6766       5   6740       0 |   5    0      6383       357 |   2  58    0    0 6a0f |    2.716       0       5       0       5     58     58      0   6315     425       2  58    06a0f a70f      8.940 "
test,1583576914554529792,54," | 54  |   6766       5   6758       0 |   3    9      6644       114 |   1  58    1    0 6a0f |    9.338       0       5       0       5     58     58      0   6539     219      11  58    06a0f a70f     15.390 "
test,1583576914545881088,55," | 55  |   6766       5   6745       0 |   5    0      6491       254 |   1  58    0    0 6a0f |    2.014       0       5       0       5     58     58      0   6436     309       1  58    06a0f a70f      8.070 "
test,1583576914542957056,56," | 56  |   6766       5   6748       0 |   5    0      6646       102 |   1  58    0    0 6a0f |    2.044       0       5       0       5     58     58      0   6564     184       1  58    06a0f a70f      8.100 "
test,1583576914566648064,57," | 57  |   6766       5   6703       0 |   1    2      6529       174 |   1  58   26    0 6a0f |   15.960       0       1       0       1     58     58      0   6106     597      20  58    06a0f a70f     30.390 "
test,1583576914548589824,58," | 58  |   6766       5   6757       0 |   3    0      6669        88 |   2  58    0    1 6a0f |    1.739       0       4       0       4     58     58      0   6395     362       2  58    16a0f a70f      7.920 "
test,1583576914551229952,5," |  5  |   6766       5   6764       0 |   3    0      6160       604 |   2  58    0    0 6a0f |    9.368       0       5       0       5     58     58      0   6041     723      11  58    06a0f a70f     15.480 "
test,1583576914547371008,60," | 60  |   6766       5   6757       0 |   5    0      6332       425 |   2  58    0    0 6a0f |    2.777       0       5       0       5     58     58      0   6197     560       2  58    06a0f a70f      9.690 "
test,1583576914546093056,61," | 61  |   6766       5   6752       4 |   4    0      6452       304 |   1  58    0    0 6a0f |    2.044       0       5       0       5     58     58      0   6227     529       1  58    06a0f a70f      9.600 "
test,1583576914546883072,7," |  7  |   6766       5   6763       0 |   1   11      6669        94 |   7  58    1    0 6a0f |    9.338       0       5       0       5     58     58      0   6622     141      11  58    06a0f a70f     15.390 "
test,1583576914541434880,9," |  9  |   6766       5   6762       0 |   5    0      6534       228 |  16   1    0    0 820f |    1.342       0       5       0       5      1      1      0   6503     259       1   1    0820f a70f      7.590 "
