test,1583576758311719936,10," | 10  |   6141       5   6113       0 |   1    3      6015        98 |   4  18   12    0 4c0f |    6.469       0       4       0       4     18     18      0   5938     175       7  18    04c0f a70f     30.300 "
test,1583576758290138880,12," | 12  |   6141       5   6105      34 |   5    0      6072        67 |   2  12    0    1 e20f |    1.739       0       4       0       4     12     12      0   5968     171       2  12    1e20f a70f      6.480 "
test,1583576758288935936,13," | 13  |   6141       5   6137       0 |   5    0      6087        50 |   3  12    0    0 e20f |    2.044       0       5       0       5     12     12      0   6013     124       1  12    0e20f a70f      8.280 "
test,1583576758294932992,15," | 15  |   6141       5   6096      43 |   5    0      5898       241 |   1  12    0    0 e20f |    2.044       0       5       0       5     12     12      0   5625     514       1  12    0e20f a70f      8.280 "
test,1583576758301543936,16," | 16  |   6141       5   6137       0 |   4    0      5917       220 |   5  18    0    0 4c0f |    3.570       0       5       0       5     18     18      0   5750     387       3  18    04c0f a70f     10.440 "
test,1583576758296606976,17," | 17  |   6141       5   6129       8 |   5    0      6056        81 |   2  18    0    0 4c0f |    2.838       0       5       0       5     18     18      0   5873     264       2  18    04c0f a70f      9.030 "
test,1583576758289449984,18," | 18  |   6141       5   6136       0 |   4    0      5807       329 |   7  18    0    1 4c0f |    1.770       0       4       0       4     18     18      0   5566     570       2  18    14c0f a70f      6.510 "
test,1583576758296367872,19," | 19  |   6141       5   6125      12 |   5    0      6020       117 |   3  18    0    0 4c0f |    3.570       0       5       0       5     18     18      0   5852     285       3  18    04c0f a70f     10.320 "
test,1583576758290369024,1," |  1  |   6141       4   6138       0 |   5    0      5978       160 |   2  12    0    0 e20f |    2.716       0       5       0       5     12     12      0   5936     202       1  12    0e20f a70f      8.940 "
test,1583576758290596864,22," | 22  |   6141       5   6135       0 |   5    0      6084        51 |   1  18    0    0 4c0f |    2.044       0       5       0       5     18     18      0   5807     328       1  18    04c0f a70f      8.880 "
test,1583576758293360896,23," | 23  |   6141       5   6079       0 |   5    0      6054        25 |   2  18    0    0 4c0f |    2.777       0       5       0       5     18     18      0   5935     144       2  18    04c0f a70f      9.570 "
test,1583576758291172096,24," | 24  |   6141       5   6135       2 |   5    0      6072        65 |   1  18    0    0 4c0f |    2.075       0       5       0       5     18     18      0   5914     223       1  18    04c0f a70f      8.970 "
test,1583576758295533824,26," | 26  |   6141       5   6135       2 |   5    0      6111        26 |   1  18    0    0 4c0f |    2.044       0       5       0       5     18     18      0   6000     137       1  18    04c0f a70f      8.280 "
test,1583576758312084992,27," | 27  |   6141       5   6139       0 |   3    8      5962       177 |   1  29   18    0 720f |    2.014       0       1       0       1     29     29      0   5725     414       1  29    0720f a70f     30.360 "
test,1583576758291610112,28," | 28  |   6141       5   6129       8 |   5    0      5636       501 |   1  30    0    0 2a0f |    2.044       0       5       0       5     30     30      0   5406     731       1  30    02a0f a70f      8.250 "
test,1583576758312912896,29," | 29  |   6141       5   6130       9 |   1    5      5430       709 |   5  29   18    1 720f |    1.770       0       1       0       1     29     29      0   5177     962       2  29    1720f a70f     30.300 "
test,1583576758289271040,30," | 30  |   6141       5   6134       3 |   5    0      6053        84 |   2  30    0    1 2a0f |    1.739       0       4       0       4     30     30      0   5833     304       2  30    12a0f a70f      6.510 "
test,1583576758289772032,35," | 35  |   6141       5   6134       3 |   5    0      5848       289 |   1  30    0    0 2a0f |    2.075       0       5       0       5     30     30      0   5717     420       1  30    02a0f a70f      8.250 "
test,1583576758310447104,40," | 40  |   6141       5   6059      74 |   5    0      5770       363 |   2  45    0    0 b60f |    4.241       0       2       0       2     45     45      0   5622     511       4  45    0b60f a70f     30.240 "
test,1583576758310821888,41," | 41  |   6141       5   6068      59 |   5    0      6075        52 |   1  45    0    0 b60f |    2.014       0       3       0       3     45     45      0   5929     198       1  45    0b60f a70f     30.300 "
test,1583576758313665024,42," | 42  |   6141       5   6075      62 |   5    0      6019       118 |   1  45    0    0 b60f |    2.044       0       3       0       3     45     45      0   5887     250       1  45    0b60f a70f     30.300 "
test,1583576758312328192,44," | 44  |   6141       5   6080      57 |   5    0      6020       117 |   1  45    0    0 b60f |    2.044       0       3       0       3     45     45      0   5904     233       1  45    0b60f a70f     30.360 "
test,1583576758315520000,45," | 45  |   6141       5   6094      43 |   4    0      5948       189 |   4  45    0    1 b60f |    1.770       0       3       0       3     45     45      0   5836     301       2  45    1b60f a70f     30.300 "
test,1583576758316571904,46," | 46  |   6141       5   6073      57 |   5    0      5850       280 |   3  45    0    0 b60f |    2.746       0       3       0       3     45     45      0   5749     381       2  45    0b60f a70f     30.330 "
test,1583576758313308928,47," | 47  |   6141       5   6080      57 |   5    0      5942       195 |   2  45    0    0 b60f |    2.014       0       3       0       3     45     45      0   5837     300       1  45    0b60f a70f     30.360 "
test,1583576758313097984,48," | 48  |   6141       5   6015      55 |   5    0      5946       124 |   1  45    0    0 b60f |    1.983       0       3       0       3     45     45      0   5837     233       1  45    0b60f a70f     30.360 "
test,1583576758293585152,49," | 49  |   6141       5   6131       0 |   5    0      6011       120 |   4  18    0    0 4c0f |    4.241       0       5       0       5     18     18      0   5970     161       4  18    04c0f a70f     10.410 "
test,1583576758294640128,51," | 51  |   6141       5   6132       0 |   5    0      6065        67 |   4  18    0    0 4c0f |    3.540       0       5       0       5     18     18      0   6044      88       3  18    04c0f a70f     10.380 "
test,1583576758297238016,52," | 52  |   6141       5   6105      28 |   5    0      5832       301 |   2  18    0    0 4c0f |    2.777       0       5       0       5     18     18      0   5723     410       2  18    04c0f a70f     10.410 "
test,1583576758294424064,53," | 53  |   6141       5   6115       0 |   5    0      5788       327 |   5  18    0    0 4c0f |    4.974       0       5       0       5     18     18      0   5724     391       5  18    04c0f a70f     11.070 "
test,1583576758312547072,54," | 54  |   6141       5   6133       0 |   1    8      6030       103 |   4  18   12    0 4c0f |    6.500       0       4       0       4     18     18      0   5933     200       7  18    04c0f a70f     30.390 "
test,1583576758292900096,55," | 55  |   6141       5   6120       0 |   5    0      5887       233 |   4  18    0    0 4c0f |    4.272       0       5       0       5     18     18      0   5838     282       4  18    04c0f a70f     10.440 "
test,1583576758291849984,56," | 56  |   6141       5   6123       0 |   5    0      6030        93 |   3  18    0    0 4c0f |    3.540       0       5       0       5     18     18      0   5958     165       3  18    04c0f a70f      9.720 "
test,1583576758302368000,57," | 57  |   6141       5   6078       0 |   5    0      5923       155 |   2  18    0    0 4c0f |    2.807       0       5       0       5     18     18      0   5552     526       2  18    04c0f a70f     10.410 "
test,1583576758297672960,58," | 58  |   6141       5   6132       0 |   5    0      6050        82 |   3  18    0    0 4c0f |    3.540       0       5       0       5     18     18      0   5799     333       3  18    04c0f a70f     10.470 "
test,1583576758300605184,5," |  5  |   6141       5   6139       0 |   5    0      5595       544 |   1  12    0    0 e20f |    2.746       0       5       0       5     12     12      0   5487     652       2  12    0e20f a70f      8.940 "
test,1583576758290817024,60," | 60  |   6141       5   6132       0 |   5    0      5749       383 |   4  18    0    0 4c0f |    3.570       0       5       0       5     18     18      0   5626     506       3  18    04c0f a70f      9.750 "
test,1583576758295365120,61," | 61  |   6141       5   6131       0 |   5    0      5852       279 |   3  18    0    0 4c0f |    3.570       0       5       0       5     18     18      0   5645     486       3  18    04c0f a70f     11.100 "
test,1583576758288687104,7," |  7  |   6141       5   6138       0 |   5    0      6048        90 |   1  12    0    0 e20f |    2.075       0       5       0       5     12     12      0   6008     130       1  12    0e20f a70f      8.310 "
test,1583576758293184000,9," |  9  |   6141       5   6137       0 |   5    0      5930       207 |   3  12    0    0 e20f |    2.014       0       5       0       5     12     12      0   5901     236       1  12    0e20f a70f      8.250 "
