test,1583576966304211968,10," | 10  |   6973       5   6945       0 |   5    0      6832       113 |   3  27    0    0 800f |    3.479       0       5       0       5     27     27      0   6752     193       3  27    0800f a70f     10.980 "
test,1583576966294059008,12," | 12  |   6973       5   6937      34 |   5    0      6895        76 |   2  27    0    0 800f |    2.777       0       5       0       5     27     27      0   6779     192       2  27    0800f a70f      8.910 "
test,1583576966294403072,13," | 13  |   6973       5   6969       0 |   5    0      6910        59 |   3  27    0    0 800f |    2.746       0       5       0       5     27     27      0   6836     133       2  27    0800f a70f      8.820 "
test,1583576966294673920,15," | 15  |   6973       2   6928      43 |   5    0      6691       280 |   1  27    0    0 800f |    2.014       0       5       0       5     27     27      0   6376     595       1  27    0800f a70f      8.100 "
test,1583576966297084160,16," | 16  |   6973       5   6969       0 |   5    0      6707       262 |   2  27    0    0 800f |    2.746       0       5       0       5     27     27      0   6525     444       2  27    0800f a70f      8.940 "
test,1583576966296269056,17," | 17  |   6973       5   6960       9 |   5    0      6873        96 |   1  27    0    0 800f |    2.014       0       5       0       5     27     27      0   6670     299       1  27    0800f a70f      9.690 "
test,1583576966296000000,18," | 18  |   6973       5   6968       0 |   5    0      6605       363 |   3  27    0    0 800f |    4.211       0       5       0       5     27     27      0   6332     636       4  27    0800f a70f     10.230 "
test,1583576966300535808,19," | 19  |   6973       5   6956      13 |   5    0      6839       130 |   1  27    0    0 800f |    2.014       0       5       0       5     27     27      0   6650     319       1  27    0800f a70f      9.570 "
test,1583576966296428800,1," |  1  |   6973       4   6970       0 |   5    0      6787       183 |   3  27    0    0 800f |    4.180       0       5       0       5     27     27      0   6738     232       3  27    0800f a70f     10.170 "
test,1583576966297300992,22," | 22  |   6973       5   6967       0 |   4    5      6905        62 |   3  27   30    0 800f |    3.479       0       5       0       5     27     27      0   6592     375       3  27    0800f a70f      9.660 "
test,1583576966295770880,23," | 23  |   6973       5   6911       0 |   5    0      6882        29 |   1  27    0    0 800f |    2.014       0       5       0       5     27     27      0   6748     163       1  27    0800f a70f      8.220 "
test,1583576966295496960,24," | 24  |   6973       5   6967       2 |   5    0      6892        77 |   2  27    0    0 800f |    2.777       0       5       0       5     27     27      0   6719     250       2  27    0800f a70f      8.850 "
test,1583576966296667136,26," | 26  |   6973       5   6967       2 |   5    0      6941        28 |   2  27    0    0 800f |    2.716       0       5       0       5     27     27      0   6813     156       2  27    0800f a70f      8.970 "
test,1583576966288249856,27," | 27  |   6973       5   6971       0 |   4    0      6766       205 |   4  27    0    1 800f |    1.739       0       4       0       4     27     27      0   6499     472       2  27    1800f a70f      6.480 "
test,1583576966315995904,28," | 28  |   6973       3   6961       8 |   5    5      6418       551 |   1  30   27    0 950f |    2.014       0       2       0       2     30     30      0   6148     821       1  30    0950f a70f     30.330 "
test,1583576966301712896,29," | 29  |   6973       4   6961      10 |   4    0      6153       818 |   1  27    0    0 800f |    2.014       0       5       0       5     27     27      0   5862    1109       1  27    0800f a70f     10.380 "
test,1583576966315236096,30," | 30  |   6973       5   6966       3 |   2    4      6874        95 |  14  30   27    1 950f |    8.148       0       1       0       1     30     30      0   6619     350      11  30    1950f a70f     30.270 "
test,1583576966312055040,35," | 35  |   6973       5   6966       3 |   0    4      6640       329 |   0  35   30    1 ac0f |    0           0       0       0       8      0      0      0   6483     486       0  35    1ac0f a70f     30.210 "
test,1583576966316900864,40," | 40  |   6973       5   6891      74 |   5    0      6567       398 |   3  27    0    0 800f |    4.943       0       4       0       4     27     27      0   6401     564       5  27    0800f a70f     30.390 "
test,1583576966303555072,41," | 41  |   6973       5   6900      59 |   5    0      6898        61 |   2  27    0    0 800f |    4.211       0       5       0       5     27     27      0   6736     223       4  27    0800f a70f     10.980 "
test,1583576966302298112,42," | 42  |   6973       5   6907      62 |   5    0      6844       125 |   3  27    0    0 800f |    4.913       0       5       0       5     27     27      0   6696     273       5  27    0800f a70f     11.790 "
test,1583576966305038848,44," | 44  |   6973       5   6912      57 |   5    0      6841       128 |   5  27    0    0 800f |    4.943       0       5       0       5     27     27      0   6703     266       5  27    0800f a70f     12.420 "
test,1583576966301528064,45," | 45  |   6973       5   6926      43 |   5    0      6758       211 |   3  27    0    0 800f |    3.479       0       5       0       5     27     27      0   6635     334       3  27    0800f a70f      9.660 "
test,1583576966318622208,46," | 46  |   6973       5   6905      57 |   1   11      6641       321 |   5  46   27    1 350f |    1.739       0       2       0       2     46     46      0   6530     432       2  46    1350f a70f     30.300 "
test,1583576966304872960,47," | 47  |   6973       5   6912      57 |   5    0      6748       221 |   3  27    0    0 800f |    4.943       0       5       0       5     27     27      0   6628     341       5  27    0800f a70f     11.070 "
test,1583576966317206016,48," | 48  |   6973       5   6847      55 |   2    8      6766       136 |   1  46   27    0 350f |    2.014       0       3       0       3     46     46      0   6637     265       1  46    0350f a70f     30.360 "
test,1583576966302726144,49," | 49  |   6973       5   6963       0 |   5    0      6830       133 |   4  27    0    0 800f |    4.211       0       5       0       5     27     27      0   6783     180       4  27    0800f a70f     10.260 "
test,1583576966297595904,51," | 51  |   6973       5   6964       0 |   5    0      6886        78 |   3  27    0    0 800f |    3.479       0       5       0       5     27     27      0   6861     103       3  27    0800f a70f      9.630 "
test,1583576966299133184,52," | 52  |   6973       5   6936      29 |   5    0      6618       347 |   2  27    0    0 800f |    2.777       0       5       0       5     27     27      0   6495     470       2  27    0800f a70f      9.690 "
test,1583576966298885120,53," | 53  |   6973       5   6947       0 |   5    0      6579       368 |   5  27    0    0 800f |    4.882       0       5       0       5     27     27      0   6511     436       5  27    0800f a70f     11.070 "
test,1583576966298612992,54," | 54  |   6973       5   6965       0 |   5    0      6848       117 |   4  27    0    0 800f |    3.479       0       5       0       5     27     27      0   6738     227       3  27    0800f a70f     10.410 "
test,1583576966299480832,55," | 55  |   6973       5   6952       0 |   5    0      6693       259 |   4  27    0    0 800f |    4.241       0       5       0       5     27     27      0   6638     314       4  27    0800f a70f     10.290 "
test,1583576966298391040,56," | 56  |   6973       5   6955       0 |   5    0      6850       105 |   3  27    0    0 800f |    3.479       0       5       0       5     27     27      0   6766     189       3  27    0800f a70f     10.380 "
test,1583576966302042880,57," | 57  |   6973       5   6910       0 |   5    0      6729       181 |   2  27    0    0 800f |    2.746       0       5       0       5     27     27      0   6297     613       2  27    0800f a70f      9.600 "
test,1583576966301189888,58," | 58  |   6973       5   6964       0 |   5    0      6872        92 |   3  27    0    0 800f |    3.448       0       5       0       5     27     27      0   6590     374       3  27    0800f a70f     10.410 "
test,1583576966301367040,5," |  5  |   6973       5   6971       0 |   5    0      6347       624 |   2  27    0    0 800f |    2.777       0       5       0       5     27     27      0   6223     748       2  27    0800f a70f      9.600 "
test,1583576966299913984,60," | 60  |   6973       5   6964       0 |   5    0      6525       439 |   3  27    0    0 800f |    3.479       0       5       0       5     27     27      0   6387     577       3  27    0800f a70f     10.380 "
test,1583576966300151040,61," | 61  |   6973       5   6959       4 |   5    0      6651       312 |   3  27    0    0 800f |    3.509       0       5       0       5     27     27      0   6419     544       3  27    0800f a70f      9.660 "
test,1583576966299694080,7," |  7  |   6973       5   6970       0 |   5    0      6871        99 |   3  27    0    0 800f |    3.479       0       5       0       5     27     27      0   6823     147       3  27    0800f a70f     10.410 "
test,1583576966296852224,9," |  9  |   6973       5   6969       0 |   5    0      6736       233 |   4  27    0    0 800f |    3.509       0       5       0       5     27     27      0   6701     268       3  27    0800f a70f      9.630 "
