test,1583576795860444928,52," | 52  |   6291       5   6255      28 |   0    2      5967       316 |   0  52   35    1 340f |    1.739       0       1       0       1     52     52      0   5859     424       2  52    1340f a70f     30.300 "
test,1583576795861819904,56," | 56  |   6291       5   6273       0 |   4    0      6179        94 |   2  56    0    1 510f |    1.739       0       4       0       4     56     56      0   6104     169       2  56    1510f a70f      6.480 "
test,1583576795865908992,61," | 61  |   6291       5   6277       4 |   2    4      5990       291 |   1  56    7    0 510f |    2.014       0       5       0       5     56     56      0   5778     503       1  56    0510f a70f     10.380 "
test,1583576795859141120,9," |  9  |   6291       5   6287       0 |   5    0      6078       209 |   2   7    0    0 9b0f |    2.044       0       5       0       5      7      7      0   6048     239       1   7    09b0f a70f      8.130 "
