test,1583576842044500224,10," | 10  |   6476       5   6448       0 |   5    0      6345       103 |   2  15    0    0 4a0f |    2.044       0       5       0       5     15     15      0   6267     181       1  15    04a0f a70f      8.130 "
test,1583576842041843968,12," | 12  |   6476       5   6440      34 |   5    0      6403        71 |   1  15    0    0 4a0f |    2.014       0       5       0       5     15     15      0   6292     182       1  15    04a0f a70f      8.250 "
test,1583576842042416128,13," | 13  |   6476       5   6472       0 |   5    0      6421        51 |   1  15    0    0 4a0f |    1.983       0       5       0       5     15     15      0   6347     125       1  15    04a0f a70f      8.220 "
test,1583576842040601088,15," | 15  |   6476       5   6431      43 |   4    0      6217       257 |   4  15    0    1 4a0f |    1.770       0       4       0       4     15     15      0   5927     547       2  15    14a0f a70f      6.510 "
test,1583576842063764992,16," | 16  |   6476       5   6472       0 |   2    6      6235       237 |   1  45   19    0 790f |    1.983       0       1       0       1     45     45      0   6067     405       1  45    0790f a70f     30.330 "
test,1583576842041428992,17," | 17  |   6476       5   6464       8 |   5    0      6384        88 |   1  19    0    0 6a0f |    2.044       0       5       0       5     19     19      0   6193     279       1  19    06a0f a70f      8.130 "
test,1583576842045667840,18," | 18  |   6476       5   6471       0 |   5    0      6132       339 |   2  19    0    0 6a0f |    2.807       0       5       0       5     19     19      0   5874     597       2  19    06a0f a70f      8.910 "
test,1583576842047461888,19," | 19  |   6476       5   6460      12 |   4    0      6349       123 |   2  19    0    1 6a0f |    1.739       0       4       0       4     19     19      0   6172     300       2  19    16a0f a70f      6.480 "
test,1583576842040836096,1," |  1  |   6476       4   6473       0 |   5    0      6309       164 |   2  15    0    0 4a0f |    2.685       0       5       0       5     15     15      0   6264     209       1  15    04a0f a70f      8.910 "
test,1583576842046461952,22," | 22  |   6476       5   6470       0 |   5    0      6414        56 |   1  19    0    0 6a0f |    2.044       0       5       0       5     19     19      0   6121     349       1  19    06a0f a70f      8.100 "
test,1583576842040307968,23," | 23  |   6476       5   6414       0 |   5    0      6387        27 |   1  19    0    0 6a0f |    2.044       0       5       0       5     19     19      0   6262     152       1  19    06a0f a70f      8.250 "
test,1583576842042778112,24," | 24  |   6476       5   6470       2 |   5    0      6404        68 |   1  19    0    0 6a0f |    2.044       0       5       0       5     19     19      0   6238     234       1  19    06a0f a70f      8.220 "
test,1583576842042059008,26," | 26  |   6476       5   6470       2 |   5    0      6444        28 |   1  19    0    0 6a0f |    2.075       0       5       0       5     19     19      0   6325     147       1  19    06a0f a70f      8.220 "
test,1583576842063987968,27," | 27  |   6476       5   6474       0 |   5    0      6290       184 |   1  19    0    0 6a0f |    2.044       0       4       0       4     19     19      0   6037     437       1  19    06a0f a70f     30.330 "
test,1583576842044967936,28," | 28  |   6476       4   6464       8 |   5    0      5951       521 |   3  19    0    0 6a0f |    2.075       0       5       0       5     19     19      0   5705     767       1  19    06a0f a70f      9.000 "
test,1583576842047863040,29," | 29  |   6476       5   6465       9 |   5    0      5722       752 |   1  19    0    0 6a0f |    2.014       0       5       0       5     19     19      0   5457    1017       1  19    06a0f a70f      9.690 "
test,1583576842045191936,30," | 30  |   6476       5   6469       3 |   5    0      6386        86 |   2  19    0    0 6a0f |    2.777       0       5       0       5     19     19      0   6153     319       2  19    06a0f a70f      9.720 "
test,1583576842048445952,35," | 35  |   6476       5   6469       3 |   5    0      6174       298 |   2  19    0    0 6a0f |    2.746       0       5       0       5     19     19      0   6034     438       2  19    06a0f a70f      8.940 "
test,1583576842048136960,40," | 40  |   6476       5   6394      74 |   1    3      6091       377 |   3  45   19    0 790f |    2.044       0       5       0       5     45     45      0   5935     533       1  45    0790f a70f      8.850 "
test,1583576842044686080,41," | 41  |   6476       5   6403      59 |   2    1      6408        54 |   1  45   19    0 790f |    1.983       0       5       0       5     45     45      0   6248     214       1  45    0790f a70f      8.220 "
test,1583576842041219072,42," | 42  |   6476       5   6410      62 |   2    1      6351       121 |   1  45   19    0 790f |    2.014       0       5       0       5     45     45      0   6209     263       1  45    0790f a70f      8.100 "
test,1583576842041014784,44," | 44  |   6476       5   6415      57 |   2    2      6352       120 |   1  45   19    0 790f |    2.044       0       5       0       5     45     45      0   6226     246       1  45    0790f a70f      8.190 "
test,1583576842043163136,45," | 45  |   6476       5   6429      43 |   2    0      6278       194 |   2  45    0    1 790f |    1.739       0       4       0       4     45     45      0   6158     314       2  45    1790f a70f      7.920 "
test,1583576842043590912,46," | 46  |   6476       5   6408      57 |   2    0      6171       294 |   2  45    0    0 790f |    2.746       0       5       0       5     45     45      0   6064     401       2  45    0790f a70f      8.970 "
test,1583576842062633984,47," | 47  |   6476       5   6415      57 |   2    3      6265       207 |   2  45   19    0 790f |    2.014       0       4       0       4     45     45      0   6152     320       1  45    0790f a70f     30.270 "
test,1583576842064743936,48," | 48  |   6476       5   6350      55 |   1    3      6276       129 |   2  45   19    0 790f |    1.983       0       4       0       4     45     45      0   6155     250       1  45    0790f a70f     30.270 "
test,1583576842043347968,49," | 49  |   6476       5   6466       0 |   5    5      6339       127 |   1  53   15    0 6a0f |    2.075       0       5       0       5     53     53      0   6295     171       1  53    06a0f a70f      8.280 "
test,1583576842042248960,51," | 51  |   6476       5   6467       0 |   5    0      6397        70 |   2  15    0    0 4a0f |    2.746       0       5       0       5     15     15      0   6374      93       2  15    04a0f a70f      8.910 "
test,1583576842045881088,52," | 52  |   6476       3   6440      28 |   5    0      6143       325 |   1  19    0    0 6a0f |    2.075       0       5       0       5     19     19      0   6030     438       1  19    06a0f a70f      9.000 "
test,1583576842042946048,53," | 53  |   6476       5   6450       0 |   4    0      6110       340 |   5  53    0    1 6a0f |    1.770       0       4       0       4     53     53      0   6044     406       2  53    16a0f a70f      6.510 "
test,1583576842051162112,54," | 54  |   6476       5   6468       0 |   5    0      6360       108 |   2  15    0    0 4a0f |    2.777       0       5       0       5     15     15      0   6255     213       2  15    04a0f a70f      8.970 "
test,1583576842043826944,55," | 55  |   6476       5   6455       0 |   5    5      6208       247 |   1  53   15    0 6a0f |    2.044       0       5       0       5     53     53      0   6156     299       1  53    06a0f a70f      8.160 "
test,1583576842050075136,56," | 56  |   6476       5   6458       0 |   5    0      6360        98 |   3  15    0    0 4a0f |    2.777       0       5       0       5     15     15      0   6283     175       2  15    04a0f a70f      8.910 "
test,1583576842050594048,57," | 57  |   6476       5   6413       0 |   2    0      6245       168 |   2  19    0    0 6a0f |    2.807       0       5       0       5     19     19      0   5843     570       2  19    06a0f a70f      8.910 "
test,1583576842046281984,58," | 58  |   6476       4   6467       0 |   5    0      6380        87 |   3  15    0    0 4a0f |    3.509       0       5       0       5     15     15      0   6116     351       3  15    04a0f a70f      9.570 "
test,1583576842046878976,5," |  5  |   6476       5   6474       0 |   5    0      5899       575 |   1  15    0    0 4a0f |    2.044       0       5       0       5     15     15      0   5785     689       1  15    04a0f a70f      8.970 "
test,1583576842041587968,60," | 60  |   6476       5   6467       0 |   5    0      6067       400 |   1  15    0    0 4a0f |    2.014       0       5       0       5     15     15      0   5937     530       1  15    04a0f a70f      8.070 "
test,1583576842066253056,61," | 61  |   6476       5   6462       4 |   3    0      6168       298 |   4  15    0    0 4a0f |    4.211       0       4       0       4     15     15      0   5951     515       4  15    04a0f a70f     30.390 "
test,1583576842046050048,7," |  7  |   6476       5   6473       0 |   5    0      6382        91 |   2  15    0    0 4a0f |    2.777       0       5       0       5     15     15      0   6338     135       2  15    04a0f a70f      8.940 "
test,1583576842044280064,9," |  9  |   6476       5   6472       0 |   5    0      6255       217 |   2  15    0    0 4a0f |    2.716       0       5       0       5     15     15      0   6224     248       2  15    04a0f a70f      8.970 "
