test,1583576733291014912,10," | 10  |   6041       5   6013       0 |   5    0      5917        96 |   1   9    0    0 290f |    2.014       0       5       0       5      9      9      0   5842     171       1   9    0290f a70f     10.410 "
test,1583576733300301056,12," | 12  |   6041       5   6005      34 |   5    0      5974        65 |   1   9    0    0 290f |    2.746       0       5       0       5      9      9      0   5871     168       2   9    0290f a70f      9.690 "
test,1583576733294447872,13," | 13  |   6041       5   6037       0 |   5    0      5987        50 |   1   9    0    0 290f |    2.746       0       5       0       5      9      9      0   5916     121       2   9    0290f a70f      8.970 "
test,1583576733293412096,15," | 15  |   6041       5   5996      43 |   5    0      5800       239 |   2   9    0    0 290f |    3.479       0       5       0       5      9      9      0   5529     510       3   9    0290f a70f      9.600 "
test,1583576733295470080,16," | 16  |   6041       5   6037       0 |   4    0      5817       220 |   2  16    0    1 940f |    1.739       0       4       0       4     16     16      0   5652     385       2  16    1940f a70f      6.480 "
test,1583576733287013888,17," | 17  |   6041       5   6029       8 |   4    1      5960        77 |  11  17   16    1 1b0f |    1.739       0       4       0       4     17     17      0   5781     256       2  17    11b0f a70f      6.480 "
test,1583576733305049856,18," | 18  |   6041       5   6036       0 |   5    1      5711       325 |   2  17   44    0 1b0f |    2.746       0       5       0       5     17     17      0   5476     560       2  17    01b0f a70f      8.970 "
test,1583576733296632064,19," | 19  |   6041       5   6025      12 |   5    1      5925       112 |   1  17   16    0 1b0f |    2.044       0       5       0       5     17     17      0   5760     277       1  17    01b0f a70f      8.280 "
test,1583576733289285888,1," |  1  |   6041       4   6038       0 |   5    0      5878       160 |   1   9    0    0 290f |    2.685       0       5       0       5      9      9      0   5838     200       1   9    0290f a70f      8.820 "
test,1583576733291497984,22," | 22  |   6041       5   6035       0 |   5    4      5984        51 |   2  17   16    0 1b0f |    2.014       0       5       0       5     17     17      0   5712     323       1  17    01b0f a70f      8.220 "
test,1583576733288399872,23," | 23  |   6041       5   5979       0 |   5    0      5954        25 |   1  16    0    0 940f |    2.014       0       5       0       5     16     16      0   5836     143       1  16    0940f a70f      8.100 "
test,1583576733290802944,24," | 24  |   6041       5   6035       2 |   5    2      5974        63 |   2  17   16    0 1b0f |    2.777       0       5       0       5     17     17      0   5817     220       2  17    01b0f a70f      9.000 "
test,1583576733289001984,26," | 26  |   6041       5   6035       2 |   5    2      6011        26 |   1  17   16    0 1b0f |    2.075       0       5       0       5     17     17      0   5902     135       1  17    01b0f a70f      8.190 "
test,1583576733313061888,27," | 27  |   6041       5   6039       0 |   4    3      5866       173 |   1  17   16    0 1b0f |    2.044       0       3       0       3     17     17      0   5629     410       1  17    01b0f a70f     30.360 "
test,1583576733294688000,28," | 28  |   6041       4   6029       8 |   5    0      5548       489 |   6  17    0    0 1b0f |    2.044       0       5       0       5     17     17      0   5319     718       1  17    01b0f a70f     10.410 "
test,1583576733311593984,29," | 29  |   6041       5   6030       9 |   5    0      5339       700 |  11  17    0    0 1b0f |    4.241       0       4       0       4     17     17      0   5089     950       4  17    01b0f a70f     30.240 "
test,1583576733297121024,30," | 30  |   6041       5   6034       3 |   5    0      5953        84 |   3  17    0    0 1b0f |    2.777       0       5       0       5     17     17      0   5734     303       2  17    01b0f a70f      9.690 "
test,1583576733294273024,35," | 35  |   6041       5   6034       3 |   5    0      5751       286 |   3  17    0    0 1b0f |    2.777       0       5       0       5     17     17      0   5621     416       2  17    01b0f a70f      8.910 "
test,1583576733292318976,40," | 40  |   6041       5   5959      74 |   5    2      5675       358 |   1  44   16    0 2e0f |    2.746       0       5       0       5     44     44      0   5530     503       2  44    02e0f a70f      8.760 "
test,1583576733309393920,41," | 41  |   6041       5   5968      59 |   3    8      5977        50 |   2  16   17    0 940f |    0           0       0       0       8      0      0      0   5834     193       0  16    0940f a70f     30.390 "
test,1583576733294843904,42," | 42  |   6041       5   5975      62 |   5    2      5921       116 |   1  44   16    0 2e0f |    2.746       0       5       0       5     44     44      0   5793     244       2  44    02e0f a70f      8.970 "
test,1583576733291255040,44," | 44  |   6041       5   5980      57 |   4    1      5920       117 |  11  44   16    1 2e0f |    1.739       0       4       0       4     44     44      0   5807     230       2  44    12e0f a70f      6.510 "
test,1583576733310679808,45," | 45  |   6041       5   5994      43 |   3    7      5851       186 |   1  16   44    0 940f |    0           0       0       0       8      0      0      0   5743     294       0  16    0940f a70f     30.360 "
test,1583576733292540928,46," | 46  |   6041       5   5973      57 |   5    2      5757       273 |   1  44   16    0 2e0f |    2.777       0       5       0       5     44     44      0   5658     372       2  44    02e0f a70f      8.790 "
test,1583576733290100224,47," | 47  |   6041       5   5980      57 |   5    2      5845       192 |   1  44   16    0 2e0f |    2.777       0       5       0       5     44     44      0   5746     291       2  44    02e0f a70f      8.880 "
test,1583576733289868032,48," | 48  |   6041       5   5915      55 |   5    0      5847       123 |   1  44    0    0 2e0f |    2.044       0       5       0       5     44     44      0   5743     227       1  44    02e0f a70f      8.250 "
test,1583576733291737088,49," | 49  |   6041       5   6031       0 |   5    0      5917       114 |   3   9    0    0 290f |    3.417       0       5       0       5      9      9      0   5878     153       3   9    0290f a70f      9.600 "
test,1583576733288125952,51," | 51  |   6041       5   6032       0 |   4    8      5967        65 |   5  51    9    1 e80f |    1.739       0       4       0       4     51     51      0   5947      85       2  51    1e80f a70f      6.510 "
test,1583576733312264960,52," | 52  |   6041       4   6005      28 |   5    0      5736       297 |   1  16    0    0 940f |    2.014       0       1       0       1     16     16      0   5627     406       1  16    0940f a70f     30.360 "
test,1583576733293092096,53," | 53  |   6041       5   6015       0 |   5    0      5692       323 |   4   9    0    0 290f |    4.150       0       5       0       5      9      9      0   5632     383       4   9    0290f a70f     10.320 "
test,1583576733289560064,54," | 54  |   6041       5   6033       0 |   5    0      5930       103 |   1   9    0    0 290f |    1.983       0       5       0       5      9      9      0   5837     196       1   9    0290f a70f      8.190 "
test,1583576733301177088,55," | 55  |   6041       5   6020       0 |   5    0      5790       230 |   3   9    0    0 290f |    3.448       0       5       0       5      9      9      0   5744     276       3   9    0290f a70f      9.570 "
test,1583576733290554880,56," | 56  |   6041       5   6023       0 |   5    5      5933        90 |   1  51   16    0 e80f |    2.014       0       5       0       5     51     51      0   5863     160       1  51    0e80f a70f      8.100 "
test,1583576733311172864,57," | 57  |   6041       3   5978       0 |   4   16      5828       150 |   4  16   51    0 940f |    0           0       0       0       8      0      0      0   5465     513       0  16    0940f a70f     30.360 "
test,1583576733292736000,58," | 58  |   6041       5   6032       0 |   4    4      5951        81 |   2   9   51    0 290f |    2.716       0       5       0       5      9      9      0   5704     328       2   9    0290f a70f      8.940 "
test,1583576733299261952,5," |  5  |   6041       5   6039       0 |   5    0      5503       536 |   2   9    0    0 290f |    3.479       0       5       0       5      9      9      0   5396     643       3   9    0290f a70f      9.660 "
test,1583576733290344960,60," | 60  |   6041       5   6032       0 |   5    4      5652       380 |   1  51   16    0 e80f |    2.014       0       5       0       5     51     51      0   5532     500       1  51    0e80f a70f      8.160 "
test,1583576733291936000,61," | 61  |   6041       5   6031       0 |   5    0      5758       273 |   2   9    0    0 290f |    3.448       0       5       0       5      9      9      0   5558     473       3   9    0290f a70f      9.630 "
test,1583576733288804096,7," |  7  |   6041       5   6038       0 |   5    0      5948        90 |   1   9    0    0 290f |    2.014       0       5       0       5      9      9      0   5910     128       1   9    0290f a70f      8.820 "
test,1583576733287748096,9," |  9  |   6041       5   6037       0 |   4    0      5831       206 |   2   9    0    1 290f |    1.770       0       4       0       4      9      9      0   5805     232       2   9    1290f a70f      6.510 "
