test,1583576896291582208,10," | 10  |   6693       5   6665       0 |   5    0      6556       109 |   1  58    0    0 900f |    2.044       0       5       0       5     58     58      0   6477     188       1  58    0900f a70f      8.160 "
test,1583576896295917056,12," | 12  |   6693       5   6657      34 |   5    0      6620        71 |   2  58    0    0 900f |    2.716       0       5       0       5     58     58      0   6509     182       2  58    0900f a70f      9.660 "
test,1583576896293026816,13," | 13  |   6693       5   6689       0 |   5    0      6634        55 |   2  58    0    0 900f |    2.746       0       5       0       5     58     58      0   6561     128       2  58    0900f a70f      8.970 "
test,1583576896312300800,15," | 15  |   6693       5   6648      43 |   0    6      6422       269 |   0  15   58    1 c20f |    0           0       0       0       8      0      0      0   6119     572       0  15    1c20f a70f     30.120 "
test,1583576896313478912,16," | 16  |   6693       5   6689       0 |   0    5      6440       249 |   0  16   58    1 210f |    0           0       0       0       8      0      0      0   6265     424       0  16    1210f a70f     30.180 "
test,1583576896295116032,17," | 17  |   6693       5   6680       9 |   5    0      6598        91 |   3  58    0    0 900f |    3.448       0       5       0       5     58     58      0   6400     289       3  58    0900f a70f      9.630 "
test,1583576896298780928,18," | 18  |   6693       5   6688       0 |   5    0      6337       351 |   3  58    0    0 900f |    3.448       0       5       0       5     58     58      0   6073     615       3  58    0900f a70f      9.660 "
test,1583576896312100864,19," | 19  |   6693       5   6676      13 |   0    8      6562       127 |   0  19   58    1 cd0f |    0           0       0       0       8      0      0      0   6380     309       0  19    1cd0f a70f     30.240 "
test,1583576896296410112,1," |  1  |   6693       4   6690       0 |   5    0      6520       170 |   2  58    0    0 900f |    3.448       0       5       0       5     58     58      0   6474     216       2  58    0900f a70f      9.660 "
test,1583576896295473152,22," | 22  |   6693       5   6687       0 |   5    0      6627        60 |   2  58    0    0 900f |    3.448       0       5       0       5     58     58      0   6324     363       3  58    0900f a70f      9.630 "
test,1583576896313101056,23," | 23  |   6693       5   6631       0 |   5    0      6604        27 |   2  58    0    0 900f |    2.746       0       3       0       3     58     58      0   6475     156       2  58    0900f a70f     30.210 "
test,1583576896293547008,24," | 24  |   6693       5   6687       2 |   4    5      6615        74 |   3  58   19    0 900f |    3.448       0       5       0       5     58     58      0   6443     246       3  58    0900f a70f      9.660 "
test,1583576896294408960,26," | 26  |   6693       5   6687       2 |   5    0      6661        28 |   2  58    0    0 900f |    2.777       0       5       0       5     58     58      0   6536     153       2  58    0900f a70f      8.850 "
test,1583576896316154880,27," | 27  |   6693       4   6691       0 |   5    0      6496       195 |   3  58    0    0 900f |    3.509       0       2       0       2     58     58      0   6235     456       3  58    0900f a70f     30.300 "
test,1583576896298261760,28," | 28  |   6693       4   6681       8 |   5    0      6152       537 |   7  58    0    0 900f |    4.974       0       5       0       5     58     58      0   5894     795       5  58    0900f a70f     12.420 "
test,1583576896312808960,29," | 29  |   6693       3   6682       9 |   5    0      5907       784 |   4  58    0    0 900f |    0           0       0       0       8      0      0      0   5630    1061       0  58    0900f a70f     30.360 "
test,1583576896298141952,30," | 30  |   6693       5   6686       3 |   5    0      6600        89 |   3  58    0    0 900f |    4.241       0       5       0       5     58     58      0   6359     330       4  58    0900f a70f     11.670 "
test,1583576896297840128,35," | 35  |   6693       5   6686       3 |   5    0      6378       311 |   3  58    0    0 900f |    4.241       0       5       0       5     58     58      0   6231     458       4  58    0900f a70f     12.570 "
test,1583576896314753024,40," | 40  |   6693       5   6611      74 |   5    0      6299       386 |   2  46    0    0 1a0f |    2.044       0       2       0       2     46     46      0   6139     546       1  46    01a0f a70f     30.300 "
test,1583576896312486912,41," | 41  |   6693       5   6620      59 |   5    0      6623        56 |   1  46    0    0 1a0f |    2.044       0       2       0       2     46     46      0   6462     217       1  46    01a0f a70f     30.390 "
test,1583576896313743104,42," | 42  |   6693       5   6627      62 |   5    0      6567       122 |   1  46    0    0 1a0f |    2.075       0       2       0       2     46     46      0   6423     266       1  46    01a0f a70f     30.360 "
test,1583576896314400000,44," | 44  |   6693       5   6632      57 |   5    0      6566       123 |   1  46    0    0 1a0f |    2.044       0       2       0       2     46     46      0   6433     256       1  46    01a0f a70f     30.330 "
test,1583576896315272960,45," | 45  |   6693       5   6646      43 |   3    3      6489       200 |   4  46   16    0 1a0f |    2.746       0       2       0       2     46     46      0   6368     321       2  46    01a0f a70f     30.360 "
test,1583576896315442944,46," | 46  |   6693       5   6625      57 |   4    0      6377       305 |   2  46    0    1 1a0f |    1.739       0       2       0       2     46     46      0   6269     413       2  46    11a0f a70f     30.300 "
test,1583576896313926912,47," | 47  |   6693       5   6632      57 |   5    0      6476       213 |   1  46    0    0 1a0f |    2.014       0       2       0       2     46     46      0   6360     329       1  46    01a0f a70f     30.360 "
test,1583576896314126848,48," | 48  |   6693       5   6567      55 |   5    0      6490       132 |   1  46    0    0 1a0f |    2.044       0       2       0       2     46     46      0   6365     257       1  46    01a0f a70f     30.360 "
test,1583576896292754944,49," | 49  |   6693       5   6683       0 |   5    0      6553       130 |   1  58    0    0 900f |    2.014       0       5       0       5     58     58      0   6506     177       1  58    0900f a70f      8.100 "
test,1583576896294604032,51," | 51  |   6693       5   6684       0 |   5    0      6609        75 |   2  58    0    0 900f |    2.716       0       5       0       5     58     58      0   6585      99       2  58    0900f a70f      8.970 "
test,1583576896297438976,52," | 52  |   6693       5   6657      28 |   5    0      6346       339 |   3  58    0    0 900f |    3.509       0       5       0       5     58     58      0   6227     458       3  58    0900f a70f      9.630 "
test,1583576896293760000,53," | 53  |   6693       5   6667       0 |   5    0      6314       353 |   2  58    0    0 900f |    2.716       0       5       0       5     58     58      0   6246     421       2  58    0900f a70f      8.820 "
test,1583576896293945088,54," | 54  |   6693       5   6685       0 |   5    0      6572       113 |   1  58    0    0 900f |    2.044       0       5       0       5     58     58      0   6467     218       1  58    0900f a70f      9.000 "
test,1583576896292332800,55," | 55  |   6693       5   6672       0 |   5    0      6419       253 |   1  58    0    0 900f |    2.014       0       5       0       5     58     58      0   6364     308       1  58    0900f a70f      8.160 "
test,1583576896295716096,56," | 56  |   6693       5   6675       0 |   5    0      6575       100 |   1  58    0    0 900f |    1.983       0       5       0       5     58     58      0   6493     182       1  58    0900f a70f      8.040 "
test,1583576896295291904,57," | 57  |   6693       5   6630       0 |   5    0      6457       173 |   1  58    0    0 900f |    1.983       0       5       0       5     58     58      0   6038     592       1  58    0900f a70f      8.940 "
test,1583576896292468992,58," | 58  |   6693       5   6684       0 |   3    0      6596        88 |  13  58    0    1 900f |    1.739       0       4       0       4     58     58      0   6325     359       2  58    1900f a70f      6.510 "
test,1583576896296904192,5," |  5  |   6693       4   6691       0 |   5    0      6095       596 |   3  58    0    0 900f |    3.509       0       5       0       5     58     58      0   5976     715       3  58    0900f a70f      9.570 "
test,1583576896300189952,60," | 60  |   6693       5   6684       0 |   5    0      6262       422 |   2  58    0    0 900f |    2.746       0       5       0       5     58     58      0   6126     558       2  58    0900f a70f      9.660 "
test,1583576896297640960,61," | 61  |   6693       5   6679       4 |   5    0      6381       302 |   1  58    0    0 900f |    2.014       0       5       0       5     58     58      0   6158     525       1  58    0900f a70f      8.250 "
test,1583576896294764032,7," |  7  |   6693       5   6690       0 |   5    0      6596        94 |   2  58    0    0 900f |    2.777       0       5       0       5     58     58      0   6550     140       2  58    0900f a70f      8.910 "
test,1583576896293307136,9," |  9  |   6693       5   6689       0 |   5    0      6463       226 |   2  58    0    0 900f |    2.777       0       5       0       5     58     58      0   6432     257       2  58    0900f a70f      8.820 "
