test,1583576802790815232,10," | 10  |   6319       5   6291       0 |   5    0      6191       100 |   1  13    0    0 900f |    2.014       0       5       0       5     13     13      0   6113     178       1  13    0900f a70f      8.250 "
test,1583576802796637952,12," | 12  |   6319       5   6283      34 |   5    0      6248        69 |   1  13    0    0 900f |    2.746       0       5       0       5     13     13      0   6139     178       2  13    0900f a70f      8.880 "
test,1583576802789030912,13," | 13  |   6319       5   6315       0 |   4    0      6264        51 |   2  13    0    1 900f |    1.739       0       4       0       4     13     13      0   6191     124       2  13    1900f a70f      6.480 "
test,1583576802792910080,15," | 15  |   6319       5   6274      43 |   5    0      6066       251 |   1  13    0    0 900f |    3.448       0       5       0       5     13     13      0   5784     533       3  13    0900f a70f      9.630 "
test,1583576802810046976,16," | 16  |   6319       5   6315       0 |   0   10      6088       227 |   0  16   23    1 7d0f |    0           0       0       0       8      0      0      0   5922     393       0  16    17d0f a70f     30.150 "
test,1583576802812943872,17," | 17  |   6319       4   6307       8 |   5    0      6228        87 |   1  23    0    0  50f |    2.014       0       1       0       1     23     23      0   6042     273       1  23    0 50f a70f     30.390 "
test,1583576802791623168,18," | 18  |   6319       5   6314       0 |   5    0      5978       336 |   2  48    0    0 d40f |    2.777       0       5       0       5     48     48      0   5726     588       2  48    0d40f a70f      8.910 "
test,1583576802812642048,19," | 19  |   6319       4   6303      12 |   5    0      6194       121 |   2  23    0    0  50f |    2.014       0       1       0       1     23     23      0   6024     291       1  23    0 50f a70f     30.360 "
test,1583576802792040960,1," |  1  |   6319       4   6316       0 |   5    0      6153       163 |   1  13    0    0 900f |    2.685       0       5       0       5     13     13      0   6109     207       1  13    0900f a70f      8.820 "
test,1583576802794235904,22," | 22  |   6319       5   6313       0 |   5    0      6260        53 |   1  48    0    0 d40f |    3.479       0       5       0       5     48     48      0   5975     338       3  48    0d40f a70f      9.510 "
test,1583576802808523008,23," | 23  |   6319       5   6257       0 |   3    7      6232        25 |   8  23   48    1  50f |    1.739       0       1       0       1     23     23      0   6110     147       2  23    1 50f a70f     30.300 "
test,1583576802793313024,24," | 24  |   6319       5   6313       2 |   5    0      6248        67 |  14  48    0    0 d40f |    4.241       0       5       0       5     48     48      0   6088     227       4  48    0d40f a70f     10.290 "
test,1583576802795421952,26," | 26  |   6319       5   6313       2 |   5    4      6288        27 |   2  48   13    0 d40f |    4.211       0       5       0       5     48     48      0   6173     142       4  48    0d40f a70f     10.410 "
test,1583576802813613824,27," | 27  |   6319       5   6317       0 |   5    0      6138       179 |   6  23    0    0  50f |    2.014       0       2       0       2     23     23      0   5895     422       1  23    0 50f a70f     30.360 "
test,1583576802799128064,28," | 28  |   6319       4   6307       8 |   3    0      5803       512 |   2  48    0    0 d40f |    4.943       0       5       0       5     48     48      0   5566     749       5  48    0d40f a70f     11.130 "
test,1583576802811572992,29," | 29  |   6319       5   6308       9 |   0    3      5589       728 |   0  29   23    1 5a0f |    0           0       0       0       8      0      0      0   5330     987       0  29    15a0f a70f     30.150 "
test,1583576802794959104,30," | 30  |   6319       5   6312       3 |   5    1      6231        84 |   2  48   13    0 d40f |    4.241       0       5       0       5     48     48      0   6003     312       4  48    0d40f a70f     11.010 "
test,1583576802802160896,35," | 35  |   6319       5   6312       3 |   5    0      6023       292 |   2  48    0    0 d40f |    4.211       0       5       0       5     48     48      0   5885     430       4  48    0d40f a70f     10.320 "
test,1583576802800528128,40," | 40  |   6319       5   6237      74 |   5    0      5940       371 |   1  48    0    0 d40f |    2.014       0       5       0       5     48     48      0   5789     522       1  48    0d40f a70f     10.320 "
test,1583576802794491904,41," | 41  |   6319       5   6246      59 |   5    0      6252        53 |   1  48    0    0 d40f |    2.044       0       5       0       5     48     48      0   6099     206       1  48    0d40f a70f      9.690 "
test,1583576802793760000,42," | 42  |   6319       5   6253      62 |   5    0      6196       119 |   1  48    0    0 d40f |    2.014       0       5       0       5     48     48      0   6059     256       1  48    0d40f a70f      9.660 "
test,1583576802796348928,44," | 44  |   6319       5   6258      57 |   5    0      6195       120 |   1  48    0    0 d40f |    2.014       0       5       0       5     48     48      0   6075     240       1  48    0d40f a70f      8.730 "
test,1583576802799313920,45," | 45  |   6319       5   6272      43 |   5    1      6125       190 |   1  48   16    0 d40f |    2.014       0       5       0       5     48     48      0   6009     306       1  48    0d40f a70f      9.540 "
test,1583576802793968896,46," | 46  |   6319       5   6251      57 |   5    0      6024       284 |   1  48    0    0 d40f |    2.014       0       5       0       5     48     48      0   5919     389       1  48    0d40f a70f      8.940 "
test,1583576802794689024,47," | 47  |   6319       5   6258      57 |   5    0      6114       201 |   1  48    0    0 d40f |    2.014       0       5       0       5     48     48      0   6004     311       1  48    0d40f a70f     11.070 "
test,1583576802801007872,48," | 48  |   6319       5   6193      55 |   4    0      6123       125 |   4  48    0    1 d40f |    3.814       0       4       0       4     48     48      0   6008     240       5  48    1d40f a70f      9.990 "
test,1583576802791060992,49," | 49  |   6319       5   6309       0 |   4    5      6184       125 |   5  49   55    1 9b0f |    1.739       0       4       0       4     49     49      0   6141     168       2  49    19b0f a70f      6.480 "
test,1583576802789689088,51," | 51  |   6319       5   6310       0 |   5    0      6241        69 |   1  13    0    0 900f |    1.983       0       5       0       5     13     13      0   6219      91       1  13    0900f a70f      8.220 "
test,1583576802813112064,52," | 52  |   6319       5   6283      28 |   5    5      5994       317 |   7  23   48    0  50f |    1.983       0       1       0       1     23     23      0   5885     426       1  23    0 50f a70f     30.360 "
test,1583576802798203904,53," | 53  |   6319       5   6293       0 |   5    5      5957       336 |   1  49   55    0 9b0f |    2.044       0       5       0       5     49     49      0   5892     401       1  49    09b0f a70f      8.220 "
test,1583576802790457088,54," | 54  |   6319       5   6311       0 |   5    0      6206       105 |   1  13    0    0 900f |    1.983       0       5       0       5     13     13      0   6104     207       1  13    0900f a70f      8.220 "
test,1583576802810367232,55," | 55  |   6319       5   6298       0 |   0    9      6058       240 |   0  55   49    1 630f |    0           0       0       0       8      0      0      0   6007     291       0  55    1630f a70f     30.210 "
test,1583576802789401088,56," | 56  |   6319       5   6301       0 |   5    0      6207        94 |   1  13    0    0 900f |    2.014       0       5       0       5     13     13      0   6132     169       1  13    0900f a70f      8.220 "
test,1583576802800281088,57," | 57  |   6319       5   6256       0 |   5    0      6096       160 |   6  13    0    0 900f |    2.685       0       5       0       5     13     13      0   5708     548       2  13    0900f a70f     10.320 "
test,1583576802813303040,58," | 58  |   6319       5   6310       0 |   4    8      6225        85 |   3  13   49    0 900f |    2.716       0       4       0       4     13     13      0   5965     345       2  13    0900f a70f     30.360 "
test,1583576802790244096,5," |  5  |   6319       5   6317       0 |   5    0      5758       559 |   1  13    0    0 900f |    1.953       0       5       0       5     13     13      0   5646     671       1  13    0900f a70f      8.160 "
test,1583576802792701952,60," | 60  |   6319       5   6310       0 |   5    0      5919       391 |   2  13    0    0 900f |    2.716       0       5       0       5     13     13      0   5792     518       2  13    0900f a70f      8.760 "
test,1583576802799827200,61," | 61  |   6319       5   6305       4 |   5    0      6016       293 |   2  13    0    0 900f |    3.448       0       5       0       5     13     13      0   5804     505       3  13    0900f a70f      9.660 "
test,1583576802791419904,7," |  7  |   6319       5   6316       0 |   5    0      6226        90 |   1  13    0    0 900f |    2.014       0       5       0       5     13     13      0   6183     133       1  13    0900f a70f      8.970 "
test,1583576802792299008,9," |  9  |   6319       5   6315       0 |   5    0      6106       209 |   1  13    0    0 900f |    2.685       0       5       0       5     13     13      0   6075     240       2  13    0900f a70f      8.910 "
