test,1583576751799063808,10," | 10  |   6115       5   6087       0 |   4    2      5990        97 |   5  10   56    1 290f |    3.936       0       4       0       4     10     10      0   5914     173       5  10    1290f a70f      8.640 "
test,1583576751790883072,12," | 12  |   6115       5   6079      34 |   5    0      6047        66 |   1  10    0    0 290f |    2.716       0       5       0       5     10     10      0   5943     170       2  10    0290f a70f      8.940 "
test,1583576751791155200,13," | 13  |   6115       5   6111       0 |   5    0      6061        50 |   1  10    0    0 290f |    2.014       0       5       0       5     10     10      0   5987     124       1  10    0290f a70f      8.790 "
test,1583576751791838976,15," | 15  |   6115       5   6070      43 |   5    0      5872       241 |   2  10    0    0 290f |    3.448       0       5       0       5     10     10      0   5599     514       3  10    0290f a70f      9.660 "
test,1583576751793123072,16," | 16  |   6115       5   6111       0 |   1    4      5891       220 |   3  40   35    0 ec0f |    2.777       0       5       0       5     40     40      0   5726     385       2  40    0ec0f a70f      8.850 "
test,1583576751793338112,17," | 17  |   6115       5   6103       8 |   1    6      6030        81 |   3  40   27    0 ec0f |    4.241       0       5       0       5     40     40      0   5847     264       4  40    0ec0f a70f     10.440 "
test,1583576751812732928,18," | 18  |   6115       5   6110       0 |   5    2      5781       329 |   2  35   40    0 900f |    2.777       0       1       0       1     35     35      0   5541     569       2  35    0900f a70f     30.330 "
test,1583576751794349824,19," | 19  |   6115       5   6099      12 |   1   10      5995       116 |   3  40   27    0 ec0f |    4.943       0       5       0       5     40     40      0   5826     285       5  40    0ec0f a70f     11.010 "
test,1583576751792016128,1," |  1  |   6115       4   6112       0 |   5    0      5952       160 |   1  10    0    0 290f |    2.685       0       5       0       5     10     10      0   5910     202       1  10    0290f a70f      8.790 "
test,1583576751811499008,22," | 22  |   6115       5   6109       0 |   5    1      6058        51 |   1  35   40    0 900f |    2.014       0       1       0       1     35     35      0   5783     326       1  35    0900f a70f     30.360 "
test,1583576751811172096,23," | 23  |   6115       5   6053       0 |   5    0      6028        25 |   3  35    0    0 900f |    2.746       0       1       0       1     35     35      0   5910     143       2  35    0900f a70f     30.360 "
test,1583576751797370880,24," | 24  |   6115       5   6109       2 |   2    7      6047        64 |   1  40   35    0 ec0f |    2.044       0       5       0       5     40     40      0   5889     222       1  40    0ec0f a70f      8.190 "
test,1583576751794130944,26," | 26  |   6115       5   6109       2 |   1    9      6085        26 |   2  40   35    0 ec0f |    2.746       0       5       0       5     40     40      0   5974     137       2  40    0ec0f a70f      9.000 "
test,1583576751812035072,27," | 27  |   6115       5   6113       0 |   2    4      5937       176 |   5  27   35    1 500f |    1.739       0       2       0       2     27     27      0   5700     413       2  27    1500f a70f     30.300 "
test,1583576751812294912,28," | 28  |   6115       5   6103       8 |   5    0      5613       498 |   1  35    0    0 900f |    2.075       0       4       0       4     35     35      0   5383     728       1  35    0900f a70f     30.270 "
test,1583576751813227776,29," | 29  |   6115       4   6104       9 |   2    0      5406       707 |   4  27    0    0 500f |    2.014       0       3       0       3     27     27      0   5153     960       1  27    0500f a70f     30.390 "
test,1583576751793714944,30," | 30  |   6115       5   6108       3 |   5    0      6027        84 |   1  35    0    0 900f |    2.075       0       5       0       5     35     35      0   5808     303       1  35    0900f a70f      8.130 "
test,1583576751789055232,35," | 35  |   6115       5   6108       3 |   4    0      5822       289 |   2  35    0    1 900f |    1.739       0       4       0       4     35     35      0   5692     419       2  35    1900f a70f      6.480 "
test,1583576751789513984,40," | 40  |   6115       4   6033      74 |   4    0      5746       361 |   2  40    0    1 ec0f |    1.739       0       4       0       4     40     40      0   5599     508       2  40    1ec0f a70f      6.480 "
test,1583576751791617024,41," | 41  |   6115       5   6042      59 |   5    0      6050        51 |   1  40    0    0 ec0f |    1.983       0       5       0       5     40     40      0   5905     196       1  40    0ec0f a70f      8.220 "
test,1583576751790437888,42," | 42  |   6115       5   6049      62 |   5    0      5993       118 |   1  40    0    0 ec0f |    1.983       0       5       0       5     40     40      0   5861     250       1  40    0ec0f a70f      8.220 "
test,1583576751799777024,44," | 44  |   6115       5   6054      57 |   5    0      5994       117 |   1  40    0    0 ec0f |    2.044       0       5       0       5     40     40      0   5880     231       1  40    0ec0f a70f      8.880 "
test,1583576751810785024,45," | 45  |   6115       5   6068      43 |   5    0      5922       189 |   1  40    0    0 ec0f |    2.044       0       4       0       4     40     40      0   5812     299       1  40    0ec0f a70f     30.300 "
test,1583576751795347968,46," | 46  |   6115       5   6047      57 |   5    0      5824       280 |   2  40    0    0 ec0f |    2.777       0       5       0       5     40     40      0   5724     380       2  40    0ec0f a70f      9.000 "
test,1583576751792877056,47," | 47  |   6115       5   6054      57 |   5    0      5916       195 |   1  40    0    0 ec0f |    2.044       0       5       0       5     40     40      0   5812     299       1  40    0ec0f a70f      8.160 "
test,1583576751792519936,48," | 48  |   6115       5   5989      55 |   5    0      5920       124 |   1  40    0    0 ec0f |    1.983       0       5       0       5     40     40      0   5814     230       1  40    0ec0f a70f      9.630 "
test,1583576751789987072,49," | 49  |   6115       5   6105       0 |   5    0      5987       118 |   1  53    0    0 9d0f |    2.044       0       5       0       5     53     53      0   5946     159       1  53    09d0f a70f      8.250 "
test,1583576751788787968,51," | 51  |   6115       5   6106       0 |   5    0      6040        66 |   1  56    0    0  70f |    2.075       0       5       0       5     56     56      0   6020      86       1  56    0 70f a70f      8.220 "
test,1583576751803977984,52," | 52  |   6115       5   6079      28 |   1    4      5810       297 |   3  40   35    0 ec0f |    2.746       0       5       0       5     40     40      0   5701     406       2  40    0ec0f a70f     11.820 "
test,1583576751790679808,53," | 53  |   6115       5   6089       0 |   4    0      5763       326 |   2  53    0    1 9d0f |    1.739       0       4       0       4     53     53      0   5699     390       2  53    19d0f a70f      6.480 "
test,1583576751794867968,54," | 54  |   6115       5   6107       0 |   5    0      6004       103 |   1  10    0    0 290f |    1.983       0       5       0       5     10     10      0   5907     200       1  10    0290f a70f      8.850 "
test,1583576751791394048,55," | 55  |   6115       5   6094       0 |   5    0      5861       233 |   1  53    0    0 9d0f |    2.075       0       5       0       5     53     53      0   5812     282       1  53    09d0f a70f      8.280 "
test,1583576751788544000,56," | 56  |   6115       5   6097       0 |   5    0      6005        92 |   2  56    0    1  70f |    1.739       0       4       0       4     56     56      0   5933     164       2  56    1 70f a70f      6.480 "
test,1583576751809277952,57," | 57  |   6115       5   6052       0 |   5    1      5900       152 |   2  35   56    0 900f |    0           0       0       0       8      0      0      0   5530     522       0  35    0900f a70f     30.360 "
test,1583576751802763008,58," | 58  |   6115       5   6106       0 |   2    0      6024        82 |   2  10    0    0 290f |    3.448       0       5       0       5     10     10      0   5775     331       3  10    0290f a70f      9.600 "
test,1583576751809613824,5," |  5  |   6115       5   6113       0 |   0    4      5572       541 |   0   5   10    1 bc0f |    0           0       0       0       8      0      0      0   5464     649       0   5    1bc0f a70f     30.150 "
test,1583576751808964096,60," | 60  |   6115       5   6106       0 |   5    1      5724       382 |   3  35   56    0 900f |    0           0       0       0       8      0      0      0   5601     505       0  35    0900f a70f     30.360 "
test,1583576751796523008,61," | 61  |   6115       5   6105       0 |   4    0      5827       278 |   3  10    0    0 290f |    2.746       0       5       0       5     10     10      0   5623     482       2  10    0290f a70f      8.970 "
test,1583576751789680896,7," |  7  |   6115       5   6112       0 |   5    0      6022        90 |   1  10    0    0 290f |    2.014       0       5       0       5     10     10      0   5982     130       1  10    0290f a70f      8.130 "
test,1583576751795563008,9," |  9  |   6115       5   6111       0 |   5    0      5904       207 |   1  10    0    0 290f |    1.983       0       5       0       5     10     10      0   5875     236       1  10    0290f a70f      8.220 "
