test,1583576731290134016,10," | 10  |   6033       5   6005       0 |   5    0      5909        96 |   1  13    0    0 b70f |    1.983       0       5       0       5     13     13      0   5834     171       1  13    0b70f a70f      8.220 "
test,1583576731289577984,12," | 12  |   6033       5   5997      34 |   5    0      5966        65 |   1  13    0    0 b70f |    2.014       0       5       0       5     13     13      0   5863     168       1  13    0b70f a70f      8.250 "
test,1583576731288644096,13," | 13  |   6033       5   6029       0 |   4    0      5979        50 |   4  13    0    1 b70f |    1.739       0       4       0       4     13     13      0   5908     121       2  13    1b70f a70f      6.510 "
test,1583576731293850880,15," | 15  |   6033       5   5988      43 |   5    0      5792       239 |   1  13    0    0 b70f |    2.746       0       5       0       5     13     13      0   5521     510       2  13    0b70f a70f      8.850 "
test,1583576731296153088,16," | 16  |   6033       5   6029       0 |   5    0      5810       219 |   2  24    0    0 440f |    2.807       0       5       0       5     24     24      0   5644     385       2  24    0440f a70f      8.880 "
test,1583576731291086848,17," | 17  |   6033       5   6021       8 |   5    0      5952        77 |   2  24    0    0 440f |    2.777       0       5       0       5     24     24      0   5773     256       2  24    0440f a70f      8.820 "
test,1583576731292624896,18," | 18  |   6033       5   6028       0 |   5    6      5704       324 |   4  22   24    0 800f |    2.075       0       5       0       5     22     22      0   5469     559       1  22    0800f a70f     10.170 "
test,1583576731295666944,19," | 19  |   6033       5   6017      12 |   5    0      5917       112 |   1  24    0    0 440f |    2.075       0       5       0       5     24     24      0   5752     277       1  24    0440f a70f      8.310 "
test,1583576731293443072,1," |  1  |   6033       4   6030       0 |   5    0      5870       160 |   1  13    0    0 b70f |    2.685       0       5       0       5     13     13      0   5830     200       1  13    0b70f a70f      8.910 "
test,1583576731309651968,22," | 22  |   6033       5   6027       0 |   4    6      5976        51 |  11  22   24    1 800f |    8.117       0       1       0       1     22     22      0   5704     323      11  22    1800f a70f     28.170 "
test,1583576731291486976,23," | 23  |   6033       5   5971       0 |   5    0      5946        25 |   2  24    0    0 440f |    2.807       0       5       0       5     24     24      0   5828     143       2  24    0440f a70f      9.750 "
test,1583576731288816896,24," | 24  |   6033       5   6027       2 |   4    1      5966        63 |   4  24   22    1 440f |    1.739       0       4       0       4     24     24      0   5809     220       2  24    1440f a70f      6.510 "
test,1583576731290482944,26," | 26  |   6033       5   6027       2 |   5    0      6003        26 |   1  24    0    0 440f |    2.075       0       5       0       5     24     24      0   5894     135       1  24    0440f a70f      8.310 "
test,1583576731302023936,27," | 27  |   6033       5   6031       0 |   5    0      5858       173 |   2  24    0    0 440f |    2.777       0       5       0       5     24     24      0   5621     410       2  24    0440f a70f      8.820 "
test,1583576731312544000,28," | 28  |   6033       5   6021       8 |   5    0      5540       489 |   2  22    0    0 800f |    2.075       0       4       0       4     22     22      0   5312     717       1  22    0800f a70f     30.360 "
test,1583576731294630912,29," | 29  |   6033       5   6022       9 |   5    0      5331       700 |   2  24    0    0 440f |    2.777       0       5       0       5     24     24      0   5081     950       2  24    0440f a70f      9.000 "
test,1583576731300896768,30," | 30  |   6033       5   6026       3 |   5    0      5945        84 |   1  22    0    0 800f |    2.075       0       5       0       5     22     22      0   5726     303       1  22    0800f a70f     10.950 "
test,1583576731295188992,35," | 35  |   6033       5   6026       3 |   5    0      5744       285 |   1  22    0    0 800f |    2.044       0       5       0       5     22     22      0   5614     415       1  22    0800f a70f     10.110 "
test,1583576731297262848,40," | 40  |   6033       4   5951      74 |   5    0      5667       358 |   1  24    0    0 440f |    3.540       0       5       0       5     24     24      0   5523     502       3  24    0440f a70f     11.730 "
test,1583576731311728896,41," | 41  |   6033       5   5960      59 |   5    0      5969        50 |   3  24    0    0 440f |    3.509       0       4       0       4     24     24      0   5828     191       3  24    0440f a70f     30.240 "
test,1583576731298000128,42," | 42  |   6033       5   5967      62 |   5    1      5913       116 |   3  24   22    0 440f |    3.509       0       5       0       5     24     24      0   5786     243       3  24    0440f a70f     11.790 "
test,1583576731294040832,44," | 44  |   6033       5   5972      57 |   5    0      5912       117 |   1  24    0    0 440f |    2.807       0       5       0       5     24     24      0   5799     230       2  24    0440f a70f      8.940 "
test,1583576731292870144,45," | 45  |   6033       5   5986      43 |   5    0      5843       186 |   2  24    0    0 440f |    3.540       0       5       0       5     24     24      0   5737     292       3  24    0440f a70f      9.720 "
test,1583576731311229952,46," | 46  |   6033       5   5965      57 |   0    7      5750       272 |   0  46   24    1 6e0f |    0           0       0       0       8      0      0      0   5651     371       0  46    16e0f a70f     30.240 "
test,1583576731294249984,47," | 47  |   6033       5   5972      57 |   5    0      5837       192 |   2  24    0    0 440f |    3.540       0       5       0       5     24     24      0   5739     290       3  24    0440f a70f     11.910 "
test,1583576731295356928,48," | 48  |   6033       5   5907      55 |   5    1      5839       123 |   3  24   22    0 440f |    3.540       0       5       0       5     24     24      0   5736     226       3  24    0440f a70f     11.070 "
test,1583576731300049152,49," | 49  |   6033       5   6023       0 |   5    0      5910       113 |   5  24    0    0 440f |   11.566       0       5       0       5     24     24      0   5871     152      14  24    0440f a70f     17.610 "
test,1583576731288402176,51," | 51  |   6033       5   6024       0 |   5    0      5959        65 |   1  13    0    0 b70f |    2.014       0       5       0       5     13     13      0   5939      85       1  13    0b70f a70f      8.250 "
test,1583576731295838976,52," | 52  |   6033       5   5997      28 |   5    0      5728       297 |   1  24    0    0 440f |    2.777       0       5       0       5     24     24      0   5619     406       2  24    0440f a70f      9.690 "
test,1583576731297753088,53," | 53  |   6033       5   6007       0 |   5    0      5686       321 |   6  24    0    0 440f |   12.298       0       5       0       5     24     24      0   5626     381      15  24    0440f a70f     18.210 "
test,1583576731293284864,54," | 54  |   6033       5   6025       0 |   5    0      5922       103 |   1  13    0    0 b70f |    2.014       0       5       0       5     13     13      0   5829     196       1  13    0b70f a70f      8.190 "
test,1583576731298865152,55," | 55  |   6033       5   6012       0 |   5    0      5783       229 |   5  24    0    0 440f |   11.596       0       5       0       5     24     24      0   5737     275      14  24    0440f a70f     17.610 "
test,1583576731289964800,56," | 56  |   6033       5   6015       0 |   4    1      5925        90 |   1  13   24    0 b70f |    2.014       0       5       0       5     13     13      0   5855     160       1  13    0b70f a70f      8.850 "
test,1583576731306590976,57," | 57  |   6033       4   5970       0 |   5    2      5820       150 |   3  24   13    0 440f |    3.540       0       5       0       5     24     24      0   5458     512       3  24    0440f a70f     13.320 "
test,1583576731307581952,58," | 58  |   6033       5   6024       0 |   1    3      5943        81 |   4  24   13    0 440f |   10.864       0       5       0       5     24     24      0   5696     328      13  24    0440f a70f     16.950 "
test,1583576731292432128,5," |  5  |   6033       5   6031       0 |   5    0      5495       536 |   1  13    0    0 b70f |    2.044       0       5       0       5     13     13      0   5388     643       1  13    0b70f a70f      8.970 "
test,1583576731291311104,60," | 60  |   6033       5   6024       0 |   5    0      5644       380 |   2  13    0    0 b70f |    2.746       0       5       0       5     13     13      0   5524     500       2  13    0b70f a70f      8.850 "
test,1583576731301513984,61," | 61  |   6033       5   6023       0 |   1    1      5750       273 |   4  24   13    0 440f |   10.864       0       5       0       5     24     24      0   5550     473      13  24    0440f a70f     17.490 "
test,1583576731288135936,7," |  7  |   6033       5   6030       0 |   5    0      5940        90 |   1  13    0    0 b70f |    2.014       0       5       0       5     13     13      0   5902     128       1  13    0b70f a70f      8.250 "
test,1583576731289150976,9," |  9  |   6033       5   6029       0 |   5    0      5823       206 |   1  13    0    0 b70f |    2.014       0       5       0       5     13     13      0   5797     232       1  13    0b70f a70f      8.100 "
