test,1583576900548197888,10," | 10  |   6710       5   6682       0 |   5    0      6573       109 |   1  12    0    0 d90f |    2.014       0       5       0       5     12     12      0   6494     188       1  12    0d90f a70f      8.070 "
test,1583576900541277952,12," | 12  |   6710       5   6674      34 |   4    0      6636        72 |   2  12    0    1 d90f |    1.739       0       4       0       4     12     12      0   6525     183       2  12    1d90f a70f      6.480 "
test,1583576900542000128,13," | 13  |   6710       5   6706       0 |   5    0      6651        55 |   1  12    0    0 d90f |    1.983       0       5       0       5     12     12      0   6578     128       1  12    0d90f a70f      8.100 "
test,1583576900551196928,15," | 15  |   6710       5   6665      43 |   1    2      6439       269 |  14  15   12    1 340f |    8.117       0       4       0       4     15     15      0   6135     573      11  15    1340f a70f     14.160 "
test,1583576900553731072,16," | 16  |   6710       5   6706       0 |   5    2      6456       250 |   5  12   17    0 d90f |    4.913       0       5       0       5     12     12      0   6281     425       5  12    0d90f a70f     12.420 "
test,1583576900542215168,17," | 17  |   6710       5   6697       9 |   5    0      6615        91 |   5  17    0    1 880f |    1.739       0       4       0       4     17     17      0   6417     289       2  17    1880f a70f      6.510 "
test,1583576900547883008,18," | 18  |   6710       5   6705       0 |   5    0      6353       352 |   1  17    0    0 880f |    2.044       0       5       0       5     17     17      0   6089     616       1  17    0880f a70f      9.480 "
test,1583576900552716032,19," | 19  |   6710       5   6693      13 |   5    0      6579       127 |   4  17    0    0 880f |    2.044       0       5       0       5     17     17      0   6397     309       1  17    0880f a70f      8.880 "
test,1583576900542391040,1," |  1  |   6710       4   6707       0 |   5    0      6535       172 |   1  12    0    0 d90f |    2.685       0       5       0       5     12     12      0   6489     218       1  12    0d90f a70f      8.790 "
test,1583576900543334912,22," | 22  |   6710       5   6704       0 |   5    0      6644        60 |   3  17    0    0 880f |    1.983       0       5       0       5     17     17      0   6340     364       1  17    0880f a70f      8.820 "
test,1583576900562868224,23," | 23  |   6710       5   6648       0 |   5    1      6621        27 |   4  12   17    0 d90f |    4.150       0       5       0       5     12     12      0   6492     156       4  12    0d90f a70f     11.760 "
test,1583576900545968128,24," | 24  |   6710       5   6704       2 |   5    0      6632        74 |   2  17    0    0 880f |    2.014       0       5       0       5     17     17      0   6459     247       1  17    0880f a70f      8.910 "
test,1583576900541522944,26," | 26  |   6710       5   6704       2 |   5    0      6678        28 |   1  17    0    0 880f |    2.044       0       5       0       5     17     17      0   6553     153       1  17    0880f a70f      8.280 "
test,1583576900555479040,27," | 27  |   6710       5   6708       0 |   1    5      6513       195 |   1  15   12    0 340f |    9.857       0       5       0       5     15     15      0   6250     458      12  15    0340f a70f     18.810 "
test,1583576900564393984,28," | 28  |   6710       3   6698       8 |   2    2      6168       538 |   7  15   17    0 340f |    9.887       0       4       0       4     15     15      0   5909     797      12  15    0340f a70f     30.240 "
test,1583576900565324032,29," | 29  |   6710       3   6699       9 |   1    5      5921       787 |   2  15   17    0 340f |   16.448       0       3       0       3     15     15      0   5642    1066      21  15    0340f a70f     30.360 "
test,1583576900551968000,30," | 30  |   6710       5   6703       3 |   5    0      6617        89 |   2  15    0    0 340f |    9.155       0       5       0       5     15     15      0   6375     331      11  15    0340f a70f     15.090 "
test,1583576900551058944,35," | 35  |   6710       5   6703       3 |   5    0      6394       312 |   3  15    0    0 340f |    9.826       0       5       0       5     15     15      0   6247     459      12  15    0340f a70f     15.810 "
test,1583576900565690880,40," | 40  |   6710       5   6628      74 |   5    0      6316       386 |   3  17    0    0 880f |    2.746       0       4       0       4     17     17      0   6156     546       2  17    0880f a70f     30.360 "
test,1583576900547045888,41," | 41  |   6710       5   6637      59 |   5    0      6639        57 |   1  17    0    0 880f |    2.014       0       5       0       5     17     17      0   6478     218       1  17    0880f a70f      9.690 "
test,1583576900544753920,42," | 42  |   6710       5   6644      62 |   5    0      6584       122 |   2  17    0    0 880f |    2.777       0       5       0       5     17     17      0   6440     266       2  17    0880f a70f      9.690 "
test,1583576900544910080,44," | 44  |   6710       5   6649      57 |   5    0      6583       123 |   2  17    0    0 880f |    2.777       0       5       0       5     17     17      0   6450     256       2  17    0880f a70f      8.970 "
test,1583576900548976896,45," | 45  |   6710       5   6663      43 |   5    0      6506       200 |   2  17    0    0 880f |    2.746       0       5       0       5     17     17      0   6385     321       2  17    0880f a70f      9.660 "
test,1583576900550839808,46," | 46  |   6710       5   6642      57 |   5    0      6390       309 |   2  17    0    0 880f |    2.746       0       5       0       5     17     17      0   6282     417       2  17    0880f a70f      9.660 "
test,1583576900545344000,47," | 47  |   6710       5   6649      57 |   5    0      6492       214 |   2  17    0    0 880f |    2.746       0       5       0       5     17     17      0   6376     330       2  17    0880f a70f      9.510 "
test,1583576900556339968,48," | 48  |   6710       5   6584      55 |   5    0      6506       133 |   2  17    0    0 880f |    2.746       0       5       0       5     17     17      0   6381     258       2  17    0880f a70f      9.570 "
test,1583576900547290112,49," | 49  |   6710       5   6700       0 |   5    0      6570       130 |   2  12    0    0 d90f |    3.448       0       5       0       5     12     12      0   6523     177       3  12    0d90f a70f      9.630 "
test,1583576900544168960,51," | 51  |   6710       5   6701       0 |   5    0      6626        75 |   2  12    0    0 d90f |    2.716       0       5       0       5     12     12      0   6602      99       2  12    0d90f a70f      8.790 "
test,1583576900543972096,52," | 52  |   6710       4   6674      28 |   5    0      6363       339 |   2  17    0    0 880f |    2.777       0       5       0       5     17     17      0   6244     458       2  17    0880f a70f      8.970 "
test,1583576900546763776,53," | 53  |   6710       5   6684       0 |   5    0      6329       355 |   3  12    0    0 d90f |    3.448       0       5       0       5     12     12      0   6261     423       3  12    0d90f a70f     10.200 "
test,1583576900546173184,54," | 54  |   6710       5   6702       0 |   5    0      6589       113 |   1  12    0    0 d90f |    2.014       0       5       0       5     12     12      0   6484     218       1  12    0d90f a70f      8.250 "
test,1583576900546525952,55," | 55  |   6710       5   6689       0 |   5    0      6436       253 |   2  12    0    0 d90f |    3.479       0       5       0       5     12     12      0   6381     308       3  12    0d90f a70f      9.510 "
test,1583576900549222912,56," | 56  |   6710       5   6692       0 |   5    0      6591       101 |   2  12    0    0 d90f |    2.746       0       5       0       5     12     12      0   6509     183       2  12    0d90f a70f      8.790 "
test,1583576900554924032,57," | 57  |   6710       5   6647       0 |   5    1      6474       173 |   3  12   17    0 d90f |    3.448       0       5       0       5     12     12      0   6055     592       3  12    0d90f a70f      9.660 "
test,1583576900548805120,58," | 58  |   6710       5   6701       0 |   5    0      6613        88 |   1  12    0    0 d90f |    2.746       0       5       0       5     12     12      0   6342     359       2  12    0d90f a70f      8.970 "
test,1583576900555876864,5," |  5  |   6710       5   6708       0 |   5    0      6107       601 |   1  12    0    0 d90f |    1.983       0       5       0       5     12     12      0   5988     720       1  12    0d90f a70f      8.190 "
test,1583576900548561152,60," | 60  |   6710       5   6701       0 |   5    0      6279       422 |   3  12    0    0 d90f |    3.448       0       5       0       5     12     12      0   6143     558       3  12    0d90f a70f      9.510 "
test,1583576900565851904,61," | 61  |   6710       5   6696       4 |   5    0      6398       302 |   2  12    0    0 d90f |    2.716       0       4       0       4     12     12      0   6174     526       2  12    0d90f a70f     30.360 "
test,1583576900542844160,7," |  7  |   6710       5   6707       0 |   5    0      6613        94 |   1  12    0    0 d90f |    1.983       0       5       0       5     12     12      0   6567     140       1  12    0d90f a70f      8.220 "
test,1583576900545106944,9," |  9  |   6710       5   6706       0 |   5    0      6479       227 |   1  12    0    0 d90f |    1.983       0       5       0       5     12     12      0   6448     258       1  12    0d90f a70f      8.100 "
