test,1583576745560307968,10," | 10  |   6090       5   6062       0 |   5    0      5965        97 |   8   9    0    0 340f |    2.716       0       4       0       4      9      9      0   5890     172       2   9    0340f a70f     30.360 "
test,1583576745547395072,12," | 12  |   6090       5   6054      34 |   4    7      6022        66 |   1  54    9    0 b40f |    2.044       0       5       0       5     54     54      0   5919     169       1  54    0b40f a70f     13.650 "
test,1583576745538192896,13," | 13  |   6090       5   6086       0 |   5    0      6036        50 |   8   9    0    0 340f |    2.044       0       5       0       5      9      9      0   5964     122       1   9    0340f a70f      8.310 "
test,1583576745559742976,15," | 15  |   6090       5   6045      43 |   1    9      5847       241 |   5  19   54    0 cc0f |    0           0       0       0       8      0      0      0   5575     513       0  19    0cc0f a70f     30.390 "
test,1583576745545687040,16," | 16  |   6090       5   6086       0 |   5    0      5866       220 |   3  19    0    0 cc0f |    3.448       0       5       0       5     19     19      0   5701     385       3  19    0cc0f a70f      9.510 "
test,1583576745538707968,17," | 17  |   6090       5   6078       8 |   5    0      6005        81 |   1  19    0    0 cc0f |    2.044       0       5       0       5     19     19      0   5823     263       1  19    0cc0f a70f      8.190 "
test,1583576745541735936,18," | 18  |   6090       5   6085       0 |   5    0      5757       328 |   2  19    0    0 cc0f |    4.211       0       5       0       5     19     19      0   5519     566       4  19    0cc0f a70f     10.410 "
test,1583576745540286976,19," | 19  |   6090       5   6074      12 |   4    0      5971       115 |   2  19    0    1 cc0f |    1.739       0       4       0       4     19     19      0   5804     282       2  19    1cc0f a70f      7.920 "
test,1583576745538584064,1," |  1  |   6090       4   6087       0 |   5    0      5927       160 |   7   9    0    0 340f |    2.716       0       5       0       5      9      9      0   5886     201       1   9    0340f a70f      8.850 "
test,1583576745540761088,22," | 22  |   6090       5   6084       0 |   5    0      6033        51 |   2  19    0    0 cc0f |    3.448       0       5       0       5     19     19      0   5759     325       3  19    0cc0f a70f      9.480 "
test,1583576745542077184,23," | 23  |   6090       5   6028       0 |   4    1      6003        25 |   3  19   57    0 cc0f |    2.716       0       5       0       5     19     19      0   5885     143       2  19    0cc0f a70f      8.910 "
test,1583576745541516032,24," | 24  |   6090       5   6084       2 |   5    0      6022        64 |   1  19    0    0 cc0f |    3.448       0       5       0       5     19     19      0   5865     221       3  19    0cc0f a70f      9.690 "
test,1583576745543201024,26," | 26  |   6090       5   6084       2 |   5    0      6060        26 |   2  19    0    0 cc0f |    2.716       0       5       0       5     19     19      0   5951     135       2  19    0cc0f a70f     10.230 "
test,1583576745541166080,27," | 27  |   6090       3   6088       0 |   5    0      5913       175 |   1  19    0    0 cc0f |    2.014       0       5       0       5     19     19      0   5675     413       1  19    0cc0f a70f      9.570 "
test,1583576745544452864,28," | 28  |   6090       5   6078       8 |   5    0      5591       495 |   4  19    0    0 cc0f |    4.913       0       5       0       5     19     19      0   5362     724       5  19    0cc0f a70f     11.670 "
test,1583576745543821056,29," | 29  |   6090       4   6079       9 |   2    0      5384       704 |   1  19    0    0 cc0f |    2.014       0       5       0       5     19     19      0   5133     955       1  19    0cc0f a70f      8.970 "
test,1583576745542821888,30," | 30  |   6090       5   6083       3 |   5    0      6002        84 |   7  19    0    0 cc0f |    4.913       0       5       0       5     19     19      0   5783     303       5  19    0cc0f a70f     11.100 "
test,1583576745541318912,35," | 35  |   6090       5   6083       3 |   5    0      5798       288 |   6  19    0    0 cc0f |    4.119       0       5       0       5     19     19      0   5668     418       4  19    0cc0f a70f     10.320 "
test,1583576745544713984,40," | 40  |   6090       5   6008      74 |   5    0      5722       360 |   2  19    0    0 cc0f |    4.150       0       5       0       5     19     19      0   5575     507       4  19    0cc0f a70f     10.920 "
test,1583576745546220032,41," | 41  |   6090       5   6017      59 |   5    0      6025        51 |   2  19    0    0 cc0f |    4.913       0       5       0       5     19     19      0   5881     195       5  19    0cc0f a70f     10.950 "
test,1583576745545229056,42," | 42  |   6090       5   6024      62 |   5    0      5968       118 |   2  19    0    0 cc0f |    4.882       0       5       0       5     19     19      0   5838     248       5  19    0cc0f a70f     11.100 "
test,1583576745544290048,44," | 44  |   6090       5   6029      57 |   5    0      5969       117 |   2  19    0    0 cc0f |    4.913       0       5       0       5     19     19      0   5855     231       5  19    0cc0f a70f     11.040 "
test,1583576745544609024,45," | 45  |   6090       5   6043      43 |   5    0      5898       188 |   3  19    0    0 cc0f |    4.913       0       5       0       5     19     19      0   5789     297       5  19    0cc0f a70f     10.980 "
test,1583576745545468160,46," | 46  |   6090       5   6022      57 |   5    0      5800       279 |   3  19    0    0 cc0f |    4.943       0       5       0       5     19     19      0   5701     378       5  19    0cc0f a70f     11.130 "
test,1583576745543712000,47," | 47  |   6090       5   6029      57 |   5    0      5891       195 |   3  19    0    0 cc0f |    4.882       0       5       0       5     19     19      0   5789     297       5  19    0cc0f a70f     11.040 "
test,1583576745545010944,48," | 48  |   6090       5   5964      55 |   5    0      5895       124 |   3  19    0    0 cc0f |    4.211       0       5       0       5     19     19      0   5790     229       4  19    0cc0f a70f     10.380 "
test,1583576745561042176,49," | 49  |   6090       5   6080       0 |   0    9      5963       117 |   0  49   53    1 3b0f |    0           0       0       0       8      0      0      0   5922     158       0  49    13b0f a70f     30.240 "
test,1583576745561835008,51," | 51  |   6090       5   6081       0 |   4   11      6015        66 |   5  51    9    1 6b0f |    3.814       0       1       0       1     51     51      0   5996      85       5  51    16b0f a70f     30.300 "
test,1583576745562948096,52," | 52  |   6090       5   6054      28 |   5    0      5785       297 |   2  19    0    0 cc0f |    4.913       0       4       0       4     19     19      0   5676     406       5  19    0cc0f a70f     30.360 "
test,1583576745563555072,53," | 53  |   6090       5   6064       0 |   4    0      5738       326 |   2  53    0    1 c00f |    1.770       0       1       0       1     53     53      0   5675     389       2  53    1c00f a70f     30.300 "
test,1583576745561184000,54," | 54  |   6090       5   6082       0 |   3    6      5979       103 |  14  54   53    1 b40f |   10.253       0       3       0       3     54     54      0   5883     199      14  54    1b40f a70f     30.300 "
test,1583576745563421952,55," | 55  |   6090       5   6069       0 |   5    0      5837       232 |   1  53    0    0 c00f |    2.044       0       2       0       2     53     53      0   5789     280       1  53    0c00f a70f     30.360 "
test,1583576745558940928,56," | 56  |   6090       5   6072       0 |   0   11      5980        92 |   0  56   51    1 4c0f |    0           0       0       0       8      0      0      0   5909     163       0  56    14c0f a70f     30.150 "
test,1583576745557844992,57," | 57  |   6090       5   6027       0 |   0   10      5875       152 |   0  57   51    1 ce0f |    0           0       0       0       8      0      0      0   5509     518       0  57    1ce0f a70f     30.240 "
test,1583576745562264832,58," | 58  |   6090       5   6081       0 |   5    0      6000        81 |   2  53    0    0 c00f |    2.777       0       1       0       1     53     53      0   5751     330       2  53    0c00f a70f     30.360 "
test,1583576745557478912,5," |  5  |   6090       5   6088       0 |   4    4      5550       538 |   2  54    9    0 b40f |   12.756       0       2       0       2     54     54      0   5443     645      16  54    0b40f a70f     30.360 "
test,1583576745561316096,60," | 60  |   6090       5   6081       0 |   5    3      5700       381 |   1  51   57    0 6b0f |    2.044       0       3       0       3     51     51      0   5578     503       1  51    06b0f a70f     30.270 "
test,1583576745562125824,61," | 61  |   6090       5   6080       0 |   4    4      5805       275 |   3  53   54    0 c00f |    3.540       0       1       0       1     53     53      0   5602     478       3  53    0c00f a70f     30.390 "
test,1583576745539283968,7," |  7  |   6090       5   6087       0 |   5    0      5997        90 |   7   9    0    0 340f |    2.014       0       5       0       5      9      9      0   5958     129       1   9    0340f a70f      8.100 "
test,1583576745538425088,9," |  9  |   6090       5   6086       0 |   4    0      5880       206 |   8   9    0    1 340f |    1.770       0       4       0       4      9      9      0   5852     234       2   9    1340f a70f      6.510 "
