test,1583576913546302208,10," | 10  |   6762       5   6734       0 |   5    0      6625       109 |   1   9    0    0 830f |    2.777       0       5       0       5      9      9      0   6545     189       2   9    0830f a70f      9.030 "
test,1583576913545092096,12," | 12  |   6762       5   6726      34 |   5    0      6687        73 |   1   9    0    0 830f |    2.777       0       5       0       5      9      9      0   6575     185       2   9    0830f a70f      8.970 "
test,1583576913543471104,13," | 13  |   6762       5   6758       0 |   5    0      6703        55 |   1   9    0    0 830f |    2.746       0       5       0       5      9      9      0   6630     128       2   9    0830f a70f      8.850 "
test,1583576913565993984,15," | 15  |   6762       5   6717      43 |   1    1      6489       271 |  13  24   51    0 660f |   10.833       0       1       0       1     24     24      0   6181     579      13  24    0660f a70f     30.330 "
test,1583576913538806016,16," | 16  |   6762       5   6758       0 |   5    0      6505       253 |   2  24    0    0 660f |    2.716       0       5       0       5     24     24      0   6330     428       2  24    0660f a70f      8.940 "
test,1583576913560594176,17," | 17  |   6762       5   6749       9 |   5    0      6666        92 |   1  24    0    0 660f |    2.044       0       5       0       5     24     24      0   6465     293       1  24    0660f a70f      8.970 "
test,1583576913545458176,18," | 18  |   6762       5   6757       0 |   5    0      6403       354 |   1  24    0    0 660f |    2.044       0       5       0       5     24     24      0   6137     620       1  24    0660f a70f      8.160 "
test,1583576913552829952,19," | 19  |   6762       5   6745      13 |   5    0      6630       128 |   1  24    0    0 660f |    1.953       0       5       0       5     24     24      0   6447     311       1  24    0660f a70f      9.660 "
test,1583576913543011840,1," |  1  |   6762       4   6759       0 |   5    0      6587       172 |   1   9    0    0 830f |    2.746       0       5       0       5      9      9      0   6541     218       1   9    0830f a70f      8.940 "
test,1583576913546635008,22," | 22  |   6762       5   6756       0 |   4    0      6694        62 |   1  24    0    0 660f |    2.014       0       5       0       5     24     24      0   6387     369       1  24    0660f a70f      8.070 "
test,1583576913547705856,23," | 23  |   6762       5   6700       0 |   5    0      6672        28 |   1  24    0    0 660f |    2.014       0       5       0       5     24     24      0   6542     158       1  24    0660f a70f      8.220 "
test,1583576913554454016,24," | 24  |   6762       5   6756       2 |   4    0      6681        77 |   2  24    0    1 660f |    1.739       0       4       0       4     24     24      0   6508     250       2  24    1660f a70f      6.510 "
test,1583576913551858944,26," | 26  |   6762       5   6756       2 |   5    0      6730        28 |   1  24    0    0 660f |    2.014       0       5       0       5     24     24      0   6605     153       1  24    0660f a70f      8.100 "
test,1583576913553904896,27," | 27  |   6762       5   6760       0 |   5    0      6562       198 |   2  24    0    0 660f |    2.777       0       5       0       5     24     24      0   6300     460       2  24    0660f a70f      8.970 "
test,1583576913545810944,28," | 28  |   6762       4   6750       8 |   5    0      6216       542 |   1  24    0    0 660f |    2.044       0       5       0       5     24     24      0   5954     804       1  24    0660f a70f      8.970 "
test,1583576913565644032,29," | 29  |   6762       5   6751       9 |   4    0      5968       792 |   2  24    0    0 660f |    2.746       0       4       0       4     24     24      0   5686    1074       2  24    0660f a70f     30.360 "
test,1583576913547025920,30," | 30  |   6762       5   6755       3 |   5    0      6669        89 |   3  24    0    0 660f |    2.777       0       5       0       5     24     24      0   6424     334       2  24    0660f a70f      9.630 "
test,1583576913549793024,35," | 35  |   6762       5   6755       3 |   5    0      6445       313 |   2  24    0    0 660f |    2.777       0       5       0       5     24     24      0   6295     463       2  24    0660f a70f      8.940 "
test,1583576913544934912,40," | 40  |   6762       5   6680      74 |   5    0      6367       387 |   1  24    0    0 660f |    1.983       0       5       0       5     24     24      0   6207     547       1  24    0660f a70f      8.190 "
test,1583576913548218880,41," | 41  |   6762       5   6689      59 |   5    0      6689        59 |   2  24    0    0 660f |    2.746       0       5       0       5     24     24      0   6528     220       2  24    0660f a70f      8.820 "
test,1583576913544487936,42," | 42  |   6762       5   6696      62 |   5    0      6636       122 |   1  24    0    0 660f |    2.777       0       5       0       5     24     24      0   6491     267       2  24    0660f a70f      8.910 "
test,1583576913544128768,44," | 44  |   6762       5   6701      57 |   5    0      6633       125 |   1  24    0    0 660f |    2.746       0       5       0       5     24     24      0   6501     257       2  24    0660f a70f      9.480 "
test,1583576913549424896,45," | 45  |   6762       5   6715      43 |   5    0      6557       201 |   2  24    0    0 660f |    2.746       0       5       0       5     24     24      0   6437     321       2  24    0660f a70f      9.660 "
test,1583576913549256960,46," | 46  |   6762       5   6694      57 |   5    0      6438       313 |   2  24    0    0 660f |    3.479       0       5       0       5     24     24      0   6330     421       3  24    0660f a70f      9.660 "
test,1583576913547169024,47," | 47  |   6762       5   6701      57 |   5    0      6542       216 |   2  24    0    0 660f |    3.509       0       5       0       5     24     24      0   6426     332       3  24    0660f a70f     10.320 "
test,1583576913548973056,48," | 48  |   6762       5   6636      55 |   4    0      6556       135 |   3  24    0    0 660f |    2.716       0       5       0       5     24     24      0   6431     260       2  24    0660f a70f     10.350 "
test,1583576913546868992,49," | 49  |   6762       5   6752       0 |   5    0      6621       131 |   3   9    0    0 830f |    5.706       0       5       0       5      9      9      0   6574     178       6   9    0830f a70f     11.760 "
test,1583576913542011136,51," | 51  |   6762       5   6753       0 |   3    1      6676        77 |  14  51    9    1 600f |    1.739       0       4       0       4     51     51      0   6652     101       2  51    1600f a70f      6.510 "
test,1583576913558888960,52," | 52  |   6762       5   6726      28 |   5    0      6413       341 |   1  24    0    0 660f |    2.044       0       5       0       5     24     24      0   6294     460       1  24    0660f a70f      8.820 "
test,1583576913549579008,53," | 53  |   6762       5   6736       0 |   5    0      6379       357 |   4   9    0    0 830f |    6.408       0       5       0       5      9      9      0   6311     425       7   9    0830f a70f     12.390 "
test,1583576913543749120,54," | 54  |   6762       5   6754       0 |   5    0      6640       114 |   1   9    0    0 830f |    2.044       0       5       0       5      9      9      0   6535     219       1   9    0830f a70f      8.820 "
test,1583576913547977984,55," | 55  |   6762       5   6741       0 |   5    0      6487       254 |   3   9    0    0 830f |    5.676       0       5       0       5      9      9      0   6432     309       6   9    0830f a70f     11.820 "
test,1583576913542540032,56," | 56  |   6762       5   6744       0 |   5    2      6642       102 |   1  51    9    0 600f |    2.044       0       5       0       5     51     51      0   6560     184       1  51    0600f a70f      8.250 "
test,1583576913563833088,57," | 57  |   6762       5   6699       0 |   3    4      6525       174 |   2  24   51    0 660f |    0           0       0       0       8      0      0      0   6102     597       0  24    0660f a70f     30.360 "
test,1583576913551696128,58," | 58  |   6762       5   6753       0 |   5    0      6665        88 |   2   9    0    0 830f |    4.943       0       5       0       5      9      9      0   6391     362       5   9    0830f a70f     13.320 "
test,1583576913544727040,5," |  5  |   6762       5   6760       0 |   5    0      6156       604 |   2   9    0    0 830f |    3.509       0       5       0       5      9      9      0   6037     723       3   9    0830f a70f      9.690 "
test,1583576913542798080,60," | 60  |   6762       5   6753       0 |   5    1      6328       425 |   1  51   24    0 600f |    2.014       0       5       0       5     51     51      0   6193     560       1  51    0600f a70f      8.250 "
test,1583576913556647936,61," | 61  |   6762       5   6748       4 |   5    0      6448       304 |   2   9    0    0 830f |    7.171       0       5       0       5      9      9      0   6223     529       8   9    0830f a70f     13.950 "
test,1583576913542331904,7," |  7  |   6762       5   6759       0 |   5    0      6665        94 |   1   9    0    0 830f |    2.044       0       5       0       5      9      9      0   6619     140       1   9    0830f a70f      8.160 "
test,1583576913541260032,9," |  9  |   6762       5   6758       0 |   4    0      6530       228 |   2   9    0    1 830f |    1.770       0       4       0       4      9      9      0   6499     259       2   9    1830f a70f      6.510 "
