test,1583577206304868864,10," | 10  |   7933       5   7905       0 |   5    0      7782       123 |   3  13    0    0 880f |    3.509       0       5       0       5     13     13      0   7696     209       3  13    0880f a70f      9.720 "
test,1583577206307832832,12," | 12  |   7933       5   7897      34 |   5    0      7850        81 |   2  13    0    0 880f |    2.777       0       5       0       5     13     13      0   7714     217       2  13    0880f a70f      9.630 "
test,1583577206301587200,13," | 13  |   7933       5   7929       0 |   4    0      7867        62 |   2  13    0    1 880f |    1.739       0       4       0       4     13     13      0   7788     141       2  13    1880f a70f      6.510 "
test,1583577206302813952,15," | 15  |   7933       5   7888      43 |   5    0      7607       324 |   1  13    0    0 880f |    2.044       0       5       0       5     13     13      0   7243     688       1  13    0880f a70f      9.000 "
test,1583577206298028032,16," | 16  |   7933       5   7929       0 |   5    0      7632       297 |   2  26    0    0 b30f |    2.044       0       5       0       5     26     26      0   7431     498       1  26    0b30f a70f      8.220 "
test,1583577206308353024,17," | 17  |   7933       5   7918      11 |   5    0      7823       106 |   1  26    0    0 b30f |    2.044       0       5       0       5     26     26      0   7587     342       1  26    0b30f a70f      8.130 "
test,1583577206310630144,18," | 18  |   7933       5   7928       0 |   3    2      7505       423 |   2  42   26    0 980f |    9.307       0       5       0       5     42     42      0   7200     728      11  42    0980f a70f     15.330 "
test,1583577206304534016,19," | 19  |   7933       5   7914      15 |   5    0      7774       155 |   2  26    0    0 b30f |    2.044       0       5       0       5     26     26      0   7558     371       1  26    0b30f a70f      8.970 "
test,1583577206297758208,1," |  1  |   7933       4   7930       0 |   5    0      7721       209 |   1  13    0    0 880f |    2.716       0       5       0       5     13     13      0   7670     260       1  13    0880f a70f      8.940 "
test,1583577206309607936,22," | 22  |   7933       5   7927       0 |   2    3      7860        67 |   1  42   26    0 980f |   10.040       0       5       0       5     42     42      0   7513     414      12  42    0980f a70f     16.140 "
test,1583577206298795008,23," | 23  |   7933       5   7871       0 |   5    0      7835        36 |   1  26    0    0 b30f |    2.044       0       5       0       5     26     26      0   7684     187       1  26    0b30f a70f      8.100 "
test,1583577206309192960,24," | 24  |   7933       5   7927       2 |   1    5      7839        90 |   1  42   26    0 980f |   10.040       0       5       0       5     42     42      0   7642     287      12  42    0980f a70f     15.990 "
test,1583577206298626816,26," | 26  |   7933       5   7927       2 |   4    0      7897        32 |   4  26    0    1 b30f |    1.739       0       4       0       4     26     26      0   7754     175       2  26    1b30f a70f      6.480 "
test,1583577206321425920,27," | 27  |   7933       5   7931       0 |   5    0      7696       235 |   2  26    0    0 b30f |    3.479       0       4       0       4     26     26      0   7387     544       3  26    0b30f a70f     30.270 "
test,1583577206321049856,28," | 28  |   7933       4   7921       8 |   4    3      7301       628 |   3  42   26    0 980f |   11.535       0       4       0       4     42     42      0   6985     944      14  42    0980f a70f     30.330 "
test,1583577206322359040,29," | 29  |   7933       4   7919      12 |   2    0      7026       905 |   7  26    0    0 b30f |    2.746       0       2       0       2     26     26      0   6681    1250       2  26    0b30f a70f     30.390 "
test,1583577206306014976,30," | 30  |   7933       5   7926       3 |   5    0      7818       111 |   2  42    0    0 980f |   11.505       0       5       0       5     42     42      0   7523     406      14  42    0980f a70f     17.580 "
test,1583577206307420928,35," | 35  |   7933       5   7926       3 |   5    0      7547       382 |   2  42    0    0 980f |   10.772       0       5       0       5     42     42      0   7367     562      13  42    0980f a70f     16.860 "
test,1583577206303828992,40," | 40  |   7933       5   7851      74 |   5    0      7480       445 |   1  42    0    0 980f |    2.014       0       5       0       5     42     42      0   7288     637       1  42    0980f a70f      8.970 "
test,1583577206300129792,41," | 41  |   7933       5   7860      59 |   5    0      7849        70 |   1  42    0    0 980f |    1.983       0       5       0       5     42     42      0   7668     251       1  42    0980f a70f      8.100 "
test,1583577206321883904,42," | 42  |   7933       5   7867      62 |   4    0      7786       143 |   4  42    0    1 980f |    3.204       0       3       0       3     42     42      0   7624     305       4  42    1980f a70f     30.300 "
test,1583577206311094016,44," | 44  |   7933       5   7872      57 |   5    0      7785       144 |   1  42    0    0 980f |    1.983       0       5       0       5     42     42      0   7632     297       1  42    0980f a70f      8.220 "
test,1583577206300559872,45," | 45  |   7933       5   7886      43 |   5    0      7689       240 |   1  42    0    0 980f |    2.044       0       5       0       5     42     42      0   7553     376       1  42    0980f a70f      8.850 "
test,1583577206306531072,46," | 46  |   7933       5   7865      57 |   2    0      7541       381 |   2  42    0    0 980f |    2.716       0       5       0       5     42     42      0   7420     502       2  42    0980f a70f      8.940 "
test,1583577206301139200,47," | 47  |   7933       5   7872      57 |   5    0      7683       246 |   1  42    0    0 980f |    1.983       0       5       0       5     42     42      0   7550     379       1  42    0980f a70f      8.940 "
test,1583577206303121920,48," | 48  |   7933       5   7807      55 |   5    0      7700       162 |   1  42    0    0 980f |    1.922       0       5       0       5     42     42      0   7553     309       1  42    0980f a70f      8.880 "
test,1583577206301788928,49," | 49  |   7933       5   7923       0 |   5    0      7770       153 |   2  54    0    0 570f |    2.777       0       5       0       5     54     54      0   7712     211       2  54    0570f a70f      8.880 "
test,1583577206298199808,51," | 51  |   7933       5   7924       0 |   5    0      7834        90 |   1  13    0    0 880f |    2.044       0       5       0       5     13     13      0   7807     117       1  13    0880f a70f      8.250 "
test,1583577206300324864,52," | 52  |   7933       5   7894      31 |   5    0      7528       397 |   1  26    0    0 b30f |    2.014       0       5       0       5     26     26      0   7390     535       1  26    0b30f a70f      8.070 "
test,1583577206300875776,53," | 53  |   7933       5   7907       0 |   5    0      7505       402 |   3  54    0    0 570f |    3.448       0       5       0       5     54     54      0   7423     484       3  54    0570f a70f      9.660 "
test,1583577206321252096,54," | 54  |   7933       5   7925       0 |   3    3      7792       133 |  14  54   13    1 570f |   10.253       0       3       0       3     54     54      0   7661     264      14  54    1570f a70f     30.210 "
test,1583577206299539968,55," | 55  |   7933       5   7912       0 |   5    0      7612       300 |   2  54    0    0 570f |    2.746       0       5       0       5     54     54      0   7542     370       2  54    0570f a70f      8.940 "
test,1583577206304003072,56," | 56  |   7933       5   7915       0 |   5    0      7797       118 |   1  13    0    0 880f |    2.044       0       5       0       5     13     13      0   7700     215       1  13    0880f a70f      8.970 "
test,1583577206308515072,57," | 57  |   7933       5   7870       0 |   3    3      7660       210 |   2  26   54    0 b30f |    1.983       0       5       0       5     26     26      0   7182     688       1  26    0b30f a70f      8.940 "
test,1583577206305815040,58," | 58  |   7933       5   7924       0 |   5    0      7816       108 |   1  54    0    0 570f |    2.014       0       5       0       5     54     54      0   7492     432       1  54    0570f a70f     13.590 "
test,1583577206298382080,5," |  5  |   7933       5   7931       0 |   5    0      7203       728 |   1  13    0    0 880f |    2.014       0       5       0       5     13     13      0   7071     860       1  13    0880f a70f      8.220 "
test,1583577206301992960,60," | 60  |   7933       5   7924       0 |   5    0      7405       519 |   2  13    0    0 880f |    2.746       0       5       0       5     13     13      0   7246     678       2  13    0880f a70f      8.820 "
test,1583577206316091136,61," | 61  |   7933       4   7916       7 |   5    2      7566       357 |   1  54   13    0 570f |    2.044       0       5       0       5     54     54      0   7299     624       1  54    0570f a70f     13.710 "
test,1583577206302182912,7," |  7  |   7933       5   7930       0 |   5    0      7809       121 |   1  13    0    0 880f |    2.075       0       5       0       5     13     13      0   7755     175       1  13    0880f a70f      8.880 "
test,1583577206299764992,9," |  9  |   7933       5   7929       0 |   5    0      7671       258 |   2  13    0    0 880f |    2.716       0       5       0       5     13     13      0   7633     296       2  13    0880f a70f      8.910 "
