test,1583577161050767872,10," | 10  |   7752       5   7724       0 |   5    0      7603       121 |   1   1    0    0 a10f |    1.312       0       5       0       5      1      1      0   7520     204       1   1    0a10f a70f      7.590 "
test,1583577161047482112,12," | 12  |   7752       5   7716      34 |   5    0      7672        78 |   1   1    0    0 a10f |    1.312       0       5       0       5      1      1      0   7538     212       1   1    0a10f a70f      8.280 "
test,1583577161046087936,13," | 13  |   7752       5   7748       0 |   5    0      7687        61 |   1   1    0    0 a10f |    1.342       0       5       0       5      1      1      0   7608     140       1   1    0a10f a70f      7.590 "
test,1583577161050373120,15," | 15  |   7752       3   7707      43 |   5    0      7433       317 |   2   1    0    0 a10f |    2.075       0       5       0       5      1      1      0   7082     668       2   1    0a10f a70f      8.880 "
test,1583577161054336000,16," | 16  |   7752       5   7748       0 |   5    0      7459       289 |   2  52    0    0 160f |    2.044       0       5       0       5     52     52      0   7260     488       1  52    0160f a70f     14.430 "
test,1583577161046818048,17," | 17  |   7752       5   7738      10 |   4    0      7644       104 |   4  17    0    1 dd0f |    1.739       0       4       0       4     17     17      0   7413     335       2  17    1dd0f a70f      6.510 "
test,1583577161049550080,18," | 18  |   7752       5   7747       0 |   5    0      7338       409 |   2  17    0    0 dd0f |    2.838       0       5       0       5     17     17      0   7040     707       2  17    0dd0f a70f      9.600 "
test,1583577161053744128,19," | 19  |   7752       5   7734      14 |   3    2      7597       151 |   7  17   52    0 dd0f |    2.105       0       5       0       5     17     17      0   7389     359       1  17    0dd0f a70f      9.600 "
test,1583577161047881984,1," |  1  |   7752       4   7749       0 |   4    0      7546       203 |   5   1    0    1 a10f |    1.739       0       4       0       4      1      1      0   7495     254       2   1    1a10f a70f      6.480 "
test,1583577161050542080,22," | 22  |   7752       5   7746       0 |   5    0      7679        67 |   1  17    0    0 dd0f |    2.807       0       5       0       5     17     17      0   7339     407       2  17    0dd0f a70f      9.750 "
test,1583577161053307904,23," | 23  |   7752       5   7690       0 |   5    0      7655        35 |   1  52    0    0 160f |    2.044       0       5       0       5     52     52      0   7506     184       1  52    0160f a70f     13.710 "
test,1583577161048104960,24," | 24  |   7752       5   7746       2 |   5    0      7661        87 |   2  17    0    0 dd0f |    2.807       0       5       0       5     17     17      0   7467     281       2  17    0dd0f a70f      9.000 "
test,1583577161050955008,26," | 26  |   7752       5   7746       2 |   5    0      7717        31 |   1  17    0    0 dd0f |    2.044       0       5       0       5     17     17      0   7576     172       1  17    0dd0f a70f      8.280 "
test,1583577161069497088,27," | 27  |   7752       5   7750       0 |   1    2      7520       230 |   4  29   52    0  20f |    8.422       0       1       0       1     29     29      0   7223     527      10  29    0 20f a70f     30.390 "
test,1583577161050174976,28," | 28  |   7752       5   7740       8 |   5    0      7135       613 |   1  17    0    0 dd0f |    2.044       0       5       0       5     17     17      0   6825     923       1  17    0dd0f a70f      9.690 "
test,1583577161071707904,29," | 29  |   7752       5   7739      11 |   1    2      6866       884 |   5  29   17    1  20f |    8.148       0       1       0       1     29     29      0   6532    1218      11  29    1 20f a70f     30.270 "
test,1583577161052144128,30," | 30  |   7752       5   7745       3 |   5    0      7640       108 |   2  17    0    0 dd0f |    4.302       0       5       0       5     17     17      0   7352     396       4  17    0dd0f a70f     10.350 "
test,1583577161051130112,35," | 35  |   7752       5   7745       3 |   5    0      7373       375 |   2  17    0    0 dd0f |    3.540       0       5       0       5     17     17      0   7196     552       3  17    0dd0f a70f      9.630 "
test,1583577161070179840,40," | 40  |   7752       5   7670      74 |   5    0      7310       434 |   5  17    0    0 dd0f |    3.570       0       1       0       1     17     17      0   7128     616       3  17    0dd0f a70f     30.360 "
test,1583577161066774016,41," | 41  |   7752       5   7679      59 |   5    0      7669        69 |   6  17    0    0 dd0f |    0           0       0       0       8      0      0      0   7493     245       0  17    0dd0f a70f     30.360 "
test,1583577161054606080,42," | 42  |   7752       5   7686      62 |   1   12      7608       140 |   5  42   46    1 2b0f |    3.814       0       4       0       4     42     42      0   7450     298       5  42    12b0f a70f      8.520 "
test,1583577161054152960,44," | 44  |   7752       5   7691      57 |   5    0      7608       140 |   5  17    0    0 dd0f |    3.540       0       5       0       5     17     17      0   7456     292       3  17    0dd0f a70f      9.750 "
test,1583577161053949952,45," | 45  |   7752       5   7705      43 |   5    0      7512       236 |   6  17    0    0 dd0f |    4.241       0       5       0       5     17     17      0   7378     370       4  17    0dd0f a70f     10.410 "
test,1583577161068248064,46," | 46  |   7752       5   7684      57 |   0   12      7370       371 |   0  46   42    1 190f |    0           0       0       0       8      0      0      0   7253     488       0  46    1190f a70f     30.210 "
test,1583577161049371904,47," | 47  |   7752       5   7691      57 |   3   12      7504       244 |   1  42   46    0 2b0f |    2.014       0       5       0       5     42     42      0   7374     374       1  42    02b0f a70f      8.850 "
test,1583577161053109760,48," | 48  |   7752       5   7626      55 |   3   13      7521       160 |   1  42   46    0 2b0f |    1.983       0       5       0       5     42     42      0   7382     299       1  42    02b0f a70f      9.450 "
test,1583577161048711168,49," | 49  |   7752       5   7742       0 |   5    0      7593       149 |   1  55    0    0 360f |    2.014       0       5       0       5     55     55      0   7538     204       1  55    0360f a70f      8.220 "
test,1583577161046412032,51," | 51  |   7752       5   7743       0 |   5    0      7655        88 |   1   1    0    0 a10f |    1.342       0       5       0       5      1      1      0   7628     115       1   1    0a10f a70f      7.470 "
test,1583577161069696000,52," | 52  |   7752       5   7713      31 |   0    3      7354       390 |   0  52   17    1 160f |   10.253       0       3       0       3     52     52      0   7218     526      14  52    1160f a70f     30.300 "
test,1583577161048302848,53," | 53  |   7752       5   7726       0 |   5    0      7328       398 |   1  55    0    0 360f |    1.983       0       5       0       5     55     55      0   7249     477       1  55    0360f a70f      8.220 "
test,1583577161046637056,54," | 54  |   7752       5   7744       0 |   5    0      7618       126 |   1   1    0    0 a10f |    1.373       0       5       0       5      1      1      0   7493     251       1   1    0a10f a70f      7.530 "
test,1583577161047105024,55," | 55  |   7752       5   7731       0 |   5    0      7439       292 |   2  55    0    1 360f |    1.739       0       4       0       4     55     55      0   7372     359       2  55    1360f a70f      6.480 "
test,1583577161049943040,56," | 56  |   7752       5   7734       0 |   5    0      7619       115 |   2   1    0    0 a10f |    2.105       0       5       0       5      1      1      0   7525     209       2   1    0a10f a70f      8.310 "
test,1583577161067025920,57," | 57  |   7752       5   7689       0 |   1    0      7489       200 |  12  55    0    0 360f |    0           0       0       0       8      0      0      0   7025     664       0  55    0360f a70f     30.390 "
test,1583577161069110016,58," | 58  |   7752       5   7743       0 |   5    0      7640       103 |   3  55    0    0 360f |    3.448       0       2       0       2     55     55      0   7323     420       3  55    0360f a70f     30.360 "
test,1583577161048547072,5," |  5  |   7752       5   7750       0 |   5    0      7039       711 |   2   1    0    0 a10f |    2.044       0       5       0       5      1      1      0   6909     841       2   1    0a10f a70f      8.250 "
test,1583577161049135872,60," | 60  |   7752       5   7743       0 |   5    0      7235       508 |   2   1    0    0 a10f |    2.075       0       5       0       5      1      1      0   7082     661       2   1    0a10f a70f      8.130 "
test,1583577161054946048,61," | 61  |   7752       5   7736       6 |   1    2      7392       350 |   2   1   55    0 a10f |    2.044       0       5       0       5      1      1      0   7132     610       2   1    0a10f a70f      8.280 "
test,1583577161049721088,7," |  7  |   7752       5   7749       0 |   5    0      7631       118 |   1   1    0    0 a10f |    1.373       0       5       0       5      1      1      0   7580     169       1   1    0a10f a70f      7.590 "
test,1583577161048896000,9," |  9  |   7752       5   7748       0 |   5    0      7493       255 |   1   1    0    0 a10f |    1.373       0       5       0       5      1      1      0   7457     291       1   1    0a10f a70f      7.560 "
