test,1583577017799388928,10," | 10  |   7179       5   7151       0 |   5    0      7037       114 |   1  13    0    0 ed0f |    2.014       0       5       0       5     13     13      0   6957     194       1  13    0ed0f a70f      8.220 "
test,1583577017814849024,12," | 12  |   7179       5   7143      34 |   5    0      7100        77 |   1  13    0    0 ed0f |    2.014       0       5       0       5     13     13      0   6982     195       1  13    0ed0f a70f      8.910 "
test,1583577017795667968,13," | 13  |   7179       5   7175       0 |   4    0      7115        60 |   4  13    0    1 ed0f |    1.739       0       4       0       4     13     13      0   7041     134       2  13    1ed0f a70f      6.510 "
test,1583577017807250944,15," | 15  |   7179       5   7134      43 |   5    0      6880       297 |   2  13    0    0 ed0f |    2.044       0       5       0       5     13     13      0   6563     614       1  13    0ed0f a70f      9.720 "
test,1583577017802619904,16," | 16  |   7179       5   7175       0 |   5    0      6910       265 |   2  46    0    0 4e0f |    2.746       0       5       0       5     46     46      0   6724     451       2  46    04e0f a70f      8.970 "
test,1583577017800018944,17," | 17  |   7179       5   7165      10 |   5    0      7078        97 |   2  46    0    0 4e0f |    2.777       0       5       0       5     46     46      0   6866     309       2  46    04e0f a70f      9.000 "
test,1583577017819118080,18," | 18  |   7179       5   7174       0 |   1    7      6802       372 |   5  18   46    1 b70f |    3.814       0       1       0       1     18     18      0   6522     652       5  18    1b70f a70f     30.300 "
test,1583577017799717888,19," | 19  |   7179       5   7161      14 |   5    0      7040       135 |   3  46    0    0 4e0f |    3.540       0       5       0       5     46     46      0   6847     328       3  46    04e0f a70f      9.690 "
test,1583577017802236928,1," |  1  |   7179       4   7176       0 |   5    0      6986       190 |   1  13    0    0 ed0f |    2.716       0       5       0       5     13     13      0   6937     239       1  13    0ed0f a70f      8.790 "
test,1583577017818569984,22," | 22  |   7179       5   7173       0 |   1   10      7109        64 |   4  18   13    0 b70f |    4.028       0       1       0       1     18     18      0   6788     385       4  18    0b70f a70f     30.360 "
test,1583577017809822208,23," | 23  |   7179       5   7117       0 |   5    0      7088        29 |   3  46    0    0 4e0f |    3.509       0       5       0       5     46     46      0   6952     165       3  46    04e0f a70f      9.540 "
test,1583577017796452096,24," | 24  |   7179       5   7173       2 |   5    0      7095        80 |   4  46    0    0 4e0f |    2.807       0       5       0       5     46     46      0   6915     260       2  46    04e0f a70f      9.690 "
test,1583577017814359040,26," | 26  |   7179       5   7173       2 |   5    0      7147        28 |   3  46    0    0 4e0f |    2.746       0       5       0       5     46     46      0   7018     157       2  46    04e0f a70f      8.970 "
test,1583577017819987968,27," | 27  |   7179       5   7177       0 |   3    0      6964       213 |   3  46    0    0 4e0f |    4.272       0       3       0       3     46     46      0   6693     484       4  46    04e0f a70f     30.360 "
test,1583577017805756160,28," | 28  |   7179       4   7167       8 |   3    1      6608       567 |   2  35   46    0 470f |    2.807       0       5       0       5     35     35      0   6331     844       2  35    0470f a70f      8.850 "
test,1583577017823601920,29," | 29  |   7179       5   7167      10 |   4    0      6341       836 |   4  46    0    0 4e0f |    4.241       0       3       0       3     46     46      0   6041    1136       4  46    04e0f a70f     30.360 "
test,1583577017795025152,30," | 30  |   7179       5   7172       3 |   5    0      7076        99 |   1  35    0    0 470f |    2.075       0       5       0       5     35     35      0   6813     362       1  35    0470f a70f      8.130 "
test,1583577017794166016,35," | 35  |   7179       5   7172       3 |   4    0      6836       339 |   4  35    0    1 470f |    1.739       0       4       0       4     35     35      0   6675     500       2  35    1470f a70f      6.480 "
test,1583577017818948096,40," | 40  |   7179       5   7097      74 |   5    0      6763       408 |   1  46    0    0 4e0f |    2.746       0       4       0       4     46     46      0   6597     574       2  46    04e0f a70f     30.360 "
test,1583577017800542976,41," | 41  |   7179       5   7106      59 |   5    0      7103        62 |   1  46    0    0 4e0f |    2.075       0       5       0       5     46     46      0   6940     225       1  46    04e0f a70f      8.310 "
test,1583577017799057920,42," | 42  |   7179       5   7113      62 |   5    0      7048       127 |   1  46    0    0 4e0f |    2.075       0       5       0       5     46     46      0   6899     276       1  46    04e0f a70f      8.280 "
test,1583577017798563072,44," | 44  |   7179       5   7118      57 |   5    0      7043       132 |   1  46    0    0 4e0f |    2.014       0       5       0       5     46     46      0   6904     271       1  46    04e0f a70f      8.220 "
test,1583577017811932160,45," | 45  |   7179       5   7132      43 |   5    0      6959       216 |   2  46    0    0 4e0f |    2.746       0       5       0       5     46     46      0   6835     340       2  46    04e0f a70f      8.940 "
test,1583577017801412096,46," | 46  |   7179       5   7111      57 |   4    0      6836       332 |   2  46    0    1 4e0f |    1.739       0       4       0       4     46     46      0   6727     441       2  46    14e0f a70f      6.510 "
test,1583577017798201088,47," | 47  |   7179       5   7118      57 |   5    0      6949       226 |   1  46    0    0 4e0f |    2.075       0       5       0       5     46     46      0   6827     348       1  46    04e0f a70f      9.030 "
test,1583577017803351040,48," | 48  |   7179       5   7053      55 |   5    0      6962       146 |   1  46    0    0 4e0f |    2.014       0       5       0       5     46     46      0   6833     275       1  46    04e0f a70f      8.940 "
test,1583577017809073920,49," | 49  |   7179       5   7169       0 |   5    0      7034       135 |   1  55    0    0 540f |    2.014       0       5       0       5     55     55      0   6985     184       1  55    0540f a70f      8.130 "
test,1583577017796104960,51," | 51  |   7179       5   7170       0 |   5    0      7088        82 |   1  13    0    0 ed0f |    2.044       0       5       0       5     13     13      0   7063     107       1  13    0ed0f a70f      8.850 "
test,1583577017811405824,52," | 52  |   7179       4   7142      29 |   5    0      6816       355 |   3  46    0    0 4e0f |    3.540       0       5       0       5     46     46      0   6691     480       3  46    04e0f a70f      9.600 "
test,1583577017805320960,53," | 53  |   7179       5   7153       0 |   5    0      6777       376 |   1  55    0    0 540f |    2.014       0       5       0       5     55     55      0   6706     447       1  55    0540f a70f      8.070 "
test,1583577017801067008,54," | 54  |   7179       5   7171       0 |   5    0      7052       119 |   1  13    0    0 ed0f |    2.014       0       5       0       5     13     13      0   6939     232       1  13    0ed0f a70f      8.160 "
test,1583577017804125952,55," | 55  |   7179       5   7158       0 |   4    0      6890       268 |   8  55    0    1 540f |    1.770       0       4       0       4     55     55      0   6832     326       2  55    1540f a70f      6.510 "
test,1583577017807046912,56," | 56  |   7179       5   7161       0 |   5    0      7053       108 |   1  13    0    0 ed0f |    2.044       0       5       0       5     13     13      0   6965     196       1  13    0ed0f a70f      8.820 "
test,1583577017819467008,57," | 57  |   7179       5   7116       0 |   2    0      6931       185 |   2  13    0    0 ed0f |    2.746       0       1       0       1     13     13      0   6495     621       2  13    0ed0f a70f     30.330 "
test,1583577017796875008,58," | 58  |   7179       5   7170       0 |   4    4      7075        95 |   1  55   13    0 540f |    2.014       0       5       0       5     55     55      0   6784     386       1  55    0540f a70f      8.190 "
test,1583577017805937920,5," |  5  |   7179       4   7177       0 |   5    0      6531       646 |   1  13    0    0 ed0f |    2.746       0       5       0       5     13     13      0   6405     772       2  13    0ed0f a70f      9.660 "
test,1583577017804451840,60," | 60  |   7179       5   7170       0 |   5    0      6714       456 |   2  13    0    0 ed0f |    2.746       0       5       0       5     13     13      0   6571     599       2  13    0ed0f a70f      9.660 "
test,1583577017820801024,61," | 61  |   7179       5   7165       4 |   5    0      6850       319 |   4  13    0    0 ed0f |    4.943       0       4       0       4     13     13      0   6612     557       5  13    0ed0f a70f     30.330 "
test,1583577017801826048,7," |  7  |   7179       5   7176       0 |   5    0      7072       104 |   1  13    0    0 ed0f |    2.014       0       5       0       5     13     13      0   7024     152       1  13    0ed0f a70f      8.220 "
test,1583577017797963008,9," |  9  |   7179       5   7175       0 |   5    0      6934       241 |   1  13    0    0 ed0f |    2.014       0       5       0       5     13     13      0   6899     276       1  13    0ed0f a70f      8.250 "
