test,1583577109298541056,10," | 10  |   7545       5   7517       0 |   5    0      7399       118 |   1   7    0    0 bc0f |    2.014       0       5       0       5      7      7      0   7317     200       1   7    0bc0f a70f      8.280 "
test,1583577109295538944,12," | 12  |   7545       5   7509      34 |   5    0      7465        78 |   1   7    0    0 bc0f |    2.014       0       5       0       5      7      7      0   7338     205       1   7    0bc0f a70f      8.250 "
test,1583577109295813120,13," | 13  |   7545       5   7541       0 |   5    0      7480        61 |   1   7    0    0 bc0f |    1.983       0       5       0       5      7      7      0   7403     138       1   7    0bc0f a70f      8.220 "
test,1583577109320083968,15," | 15  |   7545       5   7500      43 |   2    1      7231       312 |  17  15    7    1 3d0f |   21.057       0       2       0       2     15     15      0   6893     650      29  15    13d0f a70f     30.210 "
test,1583577109298979072,16," | 16  |   7545       5   7541       0 |   5    0      7260       281 |   3  24    0    0 c70f |    2.716       0       5       0       5     24     24      0   7065     476       2  24    0c70f a70f      8.940 "
test,1583577109298027008,17," | 17  |   7545       5   7531      10 |   5    0      7442        99 |   3  24    0    0 c70f |    2.044       0       5       0       5     24     24      0   7214     327       1  24    0c70f a70f      8.160 "
test,1583577109300599040,18," | 18  |   7545       5   7540       0 |   5    0      7146       394 |   1  24    0    0 c70f |    1.953       0       5       0       5     24     24      0   6851     689       1  24    0c70f a70f      8.190 "
test,1583577109301417984,19," | 19  |   7545       5   7527      14 |   5    0      7397       144 |   3  24    0    0 c70f |    2.716       0       5       0       5     24     24      0   7191     350       2  24    0c70f a70f      8.940 "
test,1583577109299599872,1," |  1  |   7545       4   7542       0 |   5    0      7343       199 |   1   7    0    0 bc0f |    2.685       0       5       0       5      7      7      0   7292     250       1   7    0bc0f a70f      8.790 "
test,1583577109300038144,22," | 22  |   7545       5   7539       0 |   5    0      7473        66 |   1  24    0    0 c70f |    2.014       0       5       0       5     24     24      0   7140     399       1  24    0c70f a70f     10.410 "
test,1583577109304168960,23," | 23  |   7545       5   7483       0 |   5    0      7451        32 |   2  24    0    0 c70f |    2.746       0       5       0       5     24     24      0   7308     175       2  24    0c70f a70f      9.660 "
test,1583577109294825984,24," | 24  |   7545       5   7539       2 |   4    0      7458        83 |   2  24    0    1 c70f |    1.739       0       4       0       4     24     24      0   7268     273       2  24    1c70f a70f      6.480 "
test,1583577109296449024,26," | 26  |   7545       5   7539       2 |   5    0      7512        29 |   1  24    0    0 c70f |    1.983       0       5       0       5     24     24      0   7373     168       1  24    0c70f a70f      8.130 "
test,1583577109319538944,27," | 27  |   7545       5   7543       0 |   3   10      7320       223 |   1  15   24    0 3d0f |   10.620       0       4       0       4     15     15      0   7035     508      13  15    03d0f a70f     30.240 "
test,1583577109303644928,28," | 28  |   7545       4   7533       8 |   5    0      6943       598 |   1  24    0    0 c70f |    2.746       0       5       0       5     24     24      0   6648     893       2  24    0c70f a70f     10.230 "
test,1583577109320569088,29," | 29  |   7545       5   7533      10 |   3    4      6679       864 |   2  15   24    0 3d0f |   11.322       0       3       0       3     15     15      0   6359    1184      14  15    03d0f a70f     30.270 "
test,1583577109300992000,30," | 30  |   7545       5   7538       3 |   5    0      7435       106 |   3  24    0    0 c70f |    2.746       0       5       0       5     24     24      0   7158     383       2  24    0c70f a70f      9.600 "
test,1583577109305007872,35," | 35  |   7545       5   7538       3 |   5    0      7175       366 |   2  24    0    0 c70f |    2.685       0       5       0       5     24     24      0   7007     534       2  24    0c70f a70f     10.350 "
test,1583577109318977024,40," | 40  |   7545       5   7463      74 |   1    4      7119       418 |   2  40   45    1 1e0f |    1.739       0       1       0       1     40     40      0   6945     592       2  40    11e0f a70f     30.300 "
test,1583577109302063872,41," | 41  |   7545       5   7472      59 |   5    0      7462        69 |   1  45    0    0 910f |    2.014       0       5       0       5     45     45      0   7292     239       1  45    0910f a70f      8.820 "
test,1583577109318063104,42," | 42  |   7545       5   7479      62 |   5    0      7406       135 |   3  45    0    0 910f |    3.479       0       4       0       4     45     45      0   7253     288       3  45    0910f a70f     30.300 "
test,1583577109297393920,44," | 44  |   7545       5   7484      57 |   5    0      7405       136 |   1  45    0    0 910f |    2.014       0       5       0       5     45     45      0   7259     282       1  45    0910f a70f      8.250 "
test,1583577109296633856,45," | 45  |   7545       5   7498      43 |   4    0      7311       230 |   2  45    0    1 910f |    1.739       0       4       0       4     45     45      0   7182     359       2  45    1910f a70f      6.480 "
test,1583577109308739072,46," | 46  |   7545       5   7477      57 |   5    0      7176       358 |   2  45    0    0 910f |    2.716       0       5       0       5     45     45      0   7062     472       2  45    0910f a70f      8.940 "
test,1583577109298355200,47," | 47  |   7545       5   7484      57 |   5    0      7305       236 |   1  45    0    0 910f |    2.044       0       5       0       5     45     45      0   7176     365       1  45    0910f a70f      8.970 "
test,1583577109317787904,48," | 48  |   7545       5   7419      55 |   1    8      7323       151 |   1  40   45    0 1e0f |    2.014       0       1       0       1     40     40      0   7187     287       1  40    01e0f a70f     30.360 "
test,1583577109298775808,49," | 49  |   7545       5   7535       0 |   5    0      7391       144 |   3   7    0    0 bc0f |    3.448       0       5       0       5      7      7      0   7339     196       3   7    0bc0f a70f      9.630 "
test,1583577109300268032,51," | 51  |   7545       5   7536       0 |   5    0      7449        87 |   2   7    0    0 bc0f |    1.983       0       5       0       5      7      7      0   7422     114       1   7    0bc0f a70f      8.220 "
test,1583577109299213056,52," | 52  |   7545       5   7507      30 |   5    0      7161       376 |   2  24    0    0 c70f |    2.716       0       5       0       5     24     24      0   7029     508       2  24    0c70f a70f      8.910 "
test,1583577109299803136,53," | 53  |   7545       5   7519       0 |   5    0      7128       391 |   3   7    0    0 bc0f |    4.180       0       5       0       5      7      7      0   7052     467       4   7    0bc0f a70f     10.290 "
test,1583577109302252032,54," | 54  |   7545       5   7537       0 |   5    0      7412       125 |   1   7    0    0 bc0f |    1.983       0       5       0       5      7      7      0   7292     245       1   7    0bc0f a70f      8.130 "
test,1583577109299424000,55," | 55  |   7545       5   7524       0 |   5    0      7238       286 |   3   7    0    0 bc0f |    3.479       0       5       0       5      7      7      0   7177     347       3   7    0bc0f a70f      9.570 "
test,1583577109302408960,56," | 56  |   7545       5   7527       0 |   5    0      7414       113 |   2   7    0    0 bc0f |    2.777       0       5       0       5      7      7      0   7320     207       2   7    0bc0f a70f      8.970 "
test,1583577109297085952,57," | 57  |   7545       5   7482       0 |   5    0      7288       194 |   2  24    0    0 c70f |    2.716       0       5       0       5     24     24      0   6832     650       2  24    0c70f a70f      8.760 "
test,1583577109304809984,58," | 58  |   7545       5   7536       0 |   5    0      7435       101 |   2   7    0    0 bc0f |    2.716       0       5       0       5      7      7      0   7132     404       2   7    0bc0f a70f     10.200 "
test,1583577109297810944,5," |  5  |   7545       5   7543       0 |   3    2      6855       688 |   6   7   15    0 bc0f |    2.685       0       5       0       5      7      7      0   6727     816       2   7    0bc0f a70f      8.910 "
test,1583577109305690112,60," | 60  |   7545       5   7536       0 |   5    0      7048       488 |   3   7    0    0 bc0f |    2.716       0       5       0       5      7      7      0   6897     639       2   7    0bc0f a70f      8.850 "
test,1583577109302681088,61," | 61  |   7545       5   7531       4 |   5    0      7202       333 |   3   7    0    0 bc0f |    2.685       0       5       0       5      7      7      0   6951     584       2   7    0bc0f a70f     10.950 "
test,1583577109295078912,7," |  7  |   7545       5   7542       0 |   4    0      7429       113 |   2   7    0    1 bc0f |    1.739       0       4       0       4      7      7      0   7379     163       2   7    1bc0f a70f      6.480 "
test,1583577109298187008,9," |  9  |   7545       5   7541       0 |   5    0      7291       250 |   1   7    0    0 bc0f |    1.983       0       5       0       5      7      7      0   7255     286       1   7    0bc0f a70f      8.220 "
