test,1583577031566808064,10," | 10  |   7234       5   7206       0 |   5    0      7091       115 |   1  51    0    0 5a0f |    2.075       0       4       0       4     51     51      0   7011     195       1  51    05a0f a70f     30.300 "
test,1583577031546978048,12," | 12  |   7234       5   7198      34 |   5    0      7154        78 |   2  51    0    0 5a0f |    2.807       0       5       0       5     51     51      0   7035     197       2  51    05a0f a70f      8.850 "
test,1583577031545980928,13," | 13  |   7234       5   7230       0 |   5    0      7170        60 |   1  51    0    0 5a0f |    2.075       0       5       0       5     51     51      0   7096     134       1  51    05a0f a70f      8.850 "
test,1583577031570675968,15," | 15  |   7234       5   7189      43 |   4    4      6932       300 |   5  15   51    1 670f |    0           0       0       0       8      0      0      0   6610     622       0  15    1670f a70f     30.210 "
test,1583577031568585984,16," | 16  |   7234       5   7230       0 |   3    3      6963       267 |   2  46   51    0 920f |    2.716       0       2       0       2     46     46      0   6776     454       2  46    0920f a70f     30.390 "
test,1583577031565725184,17," | 17  |   7234       5   7220      10 |   1   12      7133        97 |   2  46   15    0 920f |    0           0       0       0       8      0      0      0   6917     313       0  46    0920f a70f     30.390 "
test,1583577031549839872,18," | 18  |   7234       5   7229       0 |   5    0      6848       381 |   3  51    0    0 5a0f |    3.540       0       5       0       5     51     51      0   6564     665       3  51    05a0f a70f      9.720 "
test,1583577031565278976,19," | 19  |   7234       5   7216      14 |   1   14      7093       137 |   3  46   15    0 920f |    0           0       0       0       8      0      0      0   6896     334       0  46    0920f a70f     30.390 "
test,1583577031545197056,1," |  1  |   7234       4   7231       0 |   5    0      7038       193 |   1  51    0    0 5a0f |    2.746       0       5       0       5     51     51      0   6989     242       1  51    05a0f a70f      8.850 "
test,1583577031546437120,22," | 22  |   7234       5   7228       0 |   5    0      7162        66 |   3  51    0    0 5a0f |    3.509       0       5       0       5     51     51      0   6837     391       3  51    05a0f a70f      9.690 "
test,1583577031550332928,23," | 23  |   7234       5   7172       0 |   5    0      7142        30 |   2  51    0    0 5a0f |    2.746       0       5       0       5     51     51      0   7005     167       2  51    05a0f a70f      9.660 "
test,1583577031548124160,24," | 24  |   7234       5   7228       2 |   5    0      7150        80 |   3  51    0    0 5a0f |    3.540       0       5       0       5     51     51      0   6967     263       3  51    05a0f a70f      9.720 "
test,1583577031549061888,26," | 26  |   7234       5   7228       2 |   5    0      7201        29 |   2  51    0    0 5a0f |    2.777       0       5       0       5     51     51      0   7069     161       2  51    05a0f a70f      9.030 "
test,1583577031548839936,27," | 27  |   7234       5   7232       0 |   5    4      7017       215 |   1  15   51    0 670f |    2.014       0       5       0       5     15     15      0   6743     489       1  15    0670f a70f      9.480 "
test,1583577031557769984,28," | 28  |   7234       5   7222       8 |   4    0      6658       572 |   2  28    0    1 290f |    5.950       0       4       0       4     28     28      0   6378     852       8  28    1290f a70f     10.650 "
test,1583577031542747136,29," | 29  |   7234       4   7222      10 |   5    0      6391       841 |   2  15    0    0 670f |    2.746       0       5       0       5     15     15      0   6085    1147       2  15    0670f a70f     10.230 "
test,1583577031554588928,30," | 30  |   7234       5   7227       3 |   5    0      7131        99 |   1  28    0    0 290f |    6.286       0       5       0       5     28     28      0   6864     366       7  28    0290f a70f     12.270 "
test,1583577031551559936,35," | 35  |   7234       5   7227       3 |   5    0      6889       341 |   2  28    0    0 290f |    6.958       0       5       0       5     28     28      0   6725     505       8  28    0290f a70f     12.930 "
test,1583577031555748096,40," | 40  |   7234       5   7152      74 |   5    0      6817       409 |   1  46    0    0 920f |    2.746       0       5       0       5     46     46      0   6649     577       2  46    0920f a70f     10.410 "
test,1583577031547777792,41," | 41  |   7234       5   7161      59 |   5    0      7157        63 |   1  46    0    0 920f |    2.044       0       5       0       5     46     46      0   6993     227       1  46    0920f a70f      8.130 "
test,1583577031546631936,42," | 42  |   7234       5   7168      62 |   5    0      7103       127 |   1  46    0    0 920f |    2.044       0       5       0       5     46     46      0   6953     277       1  46    0920f a70f      8.130 "
test,1583577031549426176,44," | 44  |   7234       5   7173      57 |   5    0      7098       132 |   1  46    0    0 920f |    2.014       0       5       0       5     46     46      0   6957     273       1  46    0920f a70f     10.290 "
test,1583577031551708928,45," | 45  |   7234       5   7187      43 |   5    0      7011       219 |   2  46    0    0 920f |    2.685       0       5       0       5     46     46      0   6886     344       2  46    0920f a70f     11.040 "
test,1583577031547190784,46," | 46  |   7234       5   7166      57 |   4    0      6886       337 |   4  46    0    1 920f |    1.739       0       4       0       4     46     46      0   6776     447       2  46    1920f a70f      6.510 "
test,1583577031545726976,47," | 47  |   7234       5   7173      57 |   5    0      7002       228 |   1  46    0    0 920f |    2.014       0       5       0       5     46     46      0   6879     351       1  46    0920f a70f      8.160 "
test,1583577031553533952,48," | 48  |   7234       5   7108      55 |   5    0      7017       146 |   1  46    0    0 920f |    1.953       0       5       0       5     46     46      0   6885     278       1  46    0920f a70f      9.630 "
test,1583577031552011008,49," | 49  |   7234       5   7224       0 |   5    0      7089       135 |   3  51    0    0 5a0f |    4.241       0       5       0       5     51     51      0   7038     186       4  51    05a0f a70f     10.410 "
test,1583577031544241920,51," | 51  |   7234       5   7225       0 |   5    0      7143        82 |   4  51    0    1 5a0f |    1.739       0       4       0       4     51     51      0   7118     107       2  51    15a0f a70f      6.480 "
test,1583577031558253056,52," | 52  |   7234       4   7197      29 |   5    0      6869       357 |   3  51    0    0 5a0f |    3.540       0       5       0       5     51     51      0   6744     482       3  51    05a0f a70f     10.410 "
test,1583577031552915968,53," | 53  |   7234       5   7208       0 |   5    0      6831       377 |   4  51    0    0 5a0f |    4.974       0       5       0       5     51     51      0   6758     450       5  51    05a0f a70f     11.100 "
test,1583577031548291072,54," | 54  |   7234       5   7226       0 |   5    0      7106       120 |   2  51    0    0 5a0f |    3.509       0       5       0       5     51     51      0   6993     233       3  51    05a0f a70f      9.720 "
test,1583577031552244992,55," | 55  |   7234       5   7213       0 |   5    0      6944       269 |   3  51    0    0 5a0f |    4.211       0       5       0       5     51     51      0   6885     328       4  51    05a0f a70f     10.410 "
test,1583577031548439040,56," | 56  |   7234       5   7216       0 |   5    0      7108       108 |   1  51    0    0 5a0f |    2.044       0       5       0       5     51     51      0   7019     197       1  51    05a0f a70f      8.130 "
test,1583577031543962112,57," | 57  |   7234       5   7171       0 |   5    0      6984       187 |   1  51    0    0 5a0f |    2.044       0       5       0       5     51     51      0   6545     626       1  51    05a0f a70f      8.100 "
test,1583577031551179776,58," | 58  |   7234       5   7225       0 |   5    0      7130        95 |   2  51    0    0 5a0f |    3.509       0       5       0       5     51     51      0   6835     390       3  51    05a0f a70f     10.290 "
test,1583577031566128128,5," |  5  |   7234       5   7232       0 |   5    0      6582       650 |   2  51    0    0 5a0f |    2.807       0       4       0       4     51     51      0   6456     776       2  51    05a0f a70f     30.330 "
test,1583577031548652032,60," | 60  |   7234       5   7225       0 |   5    0      6761       464 |   1  51    0    0 5a0f |    2.044       0       5       0       5     51     51      0   6617     608       1  51    05a0f a70f      8.100 "
test,1583577031550029056,61," | 61  |   7234       5   7220       4 |   5    0      6903       321 |   2  51    0    0 5a0f |    4.241       0       5       0       5     51     51      0   6663     561       4  51    05a0f a70f     11.160 "
test,1583577031545475840,7," |  7  |   7234       5   7231       0 |   5    0      7125       106 |   1  51    0    0 5a0f |    2.044       0       5       0       5     51     51      0   7078     153       1  51    05a0f a70f      8.250 "
test,1583577031546276096,9," |  9  |   7234       5   7230       0 |   5    0      6987       243 |   2  51    0    0 5a0f |    2.807       0       5       0       5     51     51      0   6952     278       2  51    05a0f a70f      9.030 "
