test,1583576975794758144,10," | 10  |   7011       5   6983       0 |   5    0      6870       113 |   1   9    0    0 2d0f |    2.014       0       5       0       5      9      9      0   6790     193       1   9    02d0f a70f      8.940 "
test,1583576975815960832,12," | 12  |   7011       5   6975      34 |   4    8      6933        76 |   5  12    9    1 940f |   10.284       0       2       0       2     12     12      0   6817     192      14  12    1940f a70f     30.270 "
test,1583576975799303936,13," | 13  |   7011       5   7007       0 |   5    0      6948        59 |   1   9    0    0 2d0f |    2.746       0       5       0       5      9      9      0   6874     133       2   9    02d0f a70f      8.970 "
test,1583576975799731968,15," | 15  |   7011       5   6966      43 |   5    2      6728       281 |   1  12    9    0 940f |    4.058       0       5       0       5     12     12      0   6411     598       4  12    0940f a70f     12.180 "
test,1583576975804713984,16," | 16  |   7011       5   7007       0 |   5    0      6743       264 |   1  52    0    0 390f |    2.014       0       5       0       5     52     52      0   6559     448       1  52    0390f a70f      8.820 "
test,1583576975817212160,17," | 17  |   7011       4   6998       9 |   5    0      6910        97 |   2  52    0    0 390f |    2.746       0       4       0       4     52     52      0   6705     302       2  52    0390f a70f     30.240 "
test,1583576975802509056,18," | 18  |   7011       5   7006       0 |   5    0      6642       364 |   2  52    0    0 390f |    2.777       0       5       0       5     52     52      0   6366     640       2  52    0390f a70f      8.850 "
test,1583576975818969856,19," | 19  |   7011       5   6994      13 |   5    0      6877       130 |   1  52    0    0 390f |    1.983       0       4       0       4     52     52      0   6687     320       1  52    0390f a70f     30.390 "
test,1583576975794198016,1," |  1  |   7011       4   7008       0 |   5    0      6823       185 |   1   9    0    0 2d0f |    2.716       0       5       0       5      9      9      0   6774     234       1   9    02d0f a70f      8.940 "
test,1583576975802298112,22," | 22  |   7011       5   7005       0 |   4    0      6942        63 |   3  52    0    0 390f |    2.746       0       5       0       5     52     52      0   6627     378       2  52    0390f a70f      9.660 "
test,1583576975793315840,23," | 23  |   7011       5   6949       0 |   5    0      6920        29 |   1  52    0    0 390f |    1.983       0       5       0       5     52     52      0   6785     164       1  52    0390f a70f      8.040 "
test,1583576975796295936,24," | 24  |   7011       5   7005       2 |   5    0      6930        77 |   1  52    0    0 390f |    1.983       0       5       0       5     52     52      0   6757     250       1  52    0390f a70f      8.190 "
test,1583576975794404096,26," | 26  |   7011       5   7005       2 |   5    0      6979        28 |   1  52    0    0 390f |    1.983       0       5       0       5     52     52      0   6850     157       1  52    0390f a70f      8.940 "
test,1583576975798629888,27," | 27  |   7011       4   7009       0 |   5    0      6801       208 |   2  52    0    0 390f |    2.746       0       5       0       5     52     52      0   6532     477       2  52    0390f a70f      9.660 "
test,1583576975815119104,28," | 28  |   7011       4   6999       8 |   1    5      6453       554 |   3  52   35    0 390f |    0           0       0       0       8      0      0      0   6179     828       0  52    0390f a70f     30.360 "
test,1583576975818017024,29," | 29  |   7011       5   6999      10 |   4    0      6190       819 |   2  52    0    0 390f |    2.746       0       4       0       4     52     52      0   5897    1112       2  52    0390f a70f     30.360 "
test,1583576975793734144,30," | 30  |   7011       5   7004       3 |   5    0      6912        95 |   1  35    0    0 ec0f |    2.044       0       5       0       5     35     35      0   6655     352       1  35    0ec0f a70f      8.100 "
test,1583576975795085824,35," | 35  |   7011       5   7004       3 |   4    0      6677       330 |   2  35    0    1 ec0f |    1.739       0       4       0       4     35     35      0   6519     488       2  35    1ec0f a70f      6.480 "
test,1583576975798841856,40," | 40  |   7011       4   6929      74 |   5    0      6602       401 |   2  52    0    0 390f |    2.746       0       5       0       5     52     52      0   6436     567       2  52    0390f a70f      8.970 "
test,1583576975799974912,41," | 41  |   7011       5   6938      59 |   3    0      6935        62 |   3  52    0    0 390f |    2.746       0       5       0       5     52     52      0   6773     224       2  52    0390f a70f      9.540 "
test,1583576975795661056,42," | 42  |   7011       5   6945      62 |   5    0      6882       125 |   3  52    0    0 390f |    3.509       0       5       0       5     52     52      0   6733     274       3  52    0390f a70f      9.660 "
test,1583576975795883776,44," | 44  |   7011       5   6950      57 |   5    0      6878       129 |   2  52    0    0 390f |    2.746       0       5       0       5     52     52      0   6739     268       2  52    0390f a70f      9.000 "
test,1583576975805569024,45," | 45  |   7011       5   6964      43 |   5    0      6793       214 |   3  52    0    0 390f |    2.777       0       5       0       5     52     52      0   6670     337       2  52    0390f a70f      8.880 "
test,1583576975797879040,46," | 46  |   7011       5   6943      57 |   5    0      6675       325 |   4  52    0    0 390f |    3.509       0       5       0       5     52     52      0   6564     436       3  52    0390f a70f      9.600 "
test,1583576975798297856,47," | 47  |   7011       5   6950      57 |   5    0      6785       222 |   3  52    0    0 390f |    3.509       0       5       0       5     52     52      0   6664     343       3  52    0390f a70f      9.720 "
test,1583576975798070784,48," | 48  |   7011       5   6885      55 |   4    0      6801       139 |   3  52    0    0 390f |    3.448       0       5       0       5     52     52      0   6673     267       3  52    0390f a70f      9.570 "
test,1583576975813547008,49," | 49  |   7011       5   7001       0 |   0    0      6867       134 |   0   0    0    0    0 |    0           0       0       0       8      0      0      0   6820     181       0   0    0   0 a70f     30.360 "
test,1583576975807683840,51," | 51  |   7011       5   7002       0 |   5    0      6923        79 |   3  52    0    0 390f |    5.676       0       5       0       5     52     52      0   6898     104       6  52    0390f a70f     11.850 "
test,1583576975797053184,52," | 52  |   7011       5   6974      29 |   3    0      6655       348 |   8  52    0    1 390f |    1.739       0       4       0       4     52     52      0   6532     471       2  52    1390f a70f      7.920 "
test,1583576975811705088,53," | 53  |   7011       5   6985       0 |   0    0      6614       371 |   0  53    0    1 4a0f |    0           0       0       0       8      0      0      0   6546     439       0  53    14a0f a70f     30.210 "
test,1583576975795437056,54," | 54  |   7011       5   7003       0 |   5    0      6886       117 |   1   9    0    0 2d0f |    2.044       0       5       0       5      9      9      0   6776     227       1   9    02d0f a70f      9.000 "
test,1583576975814899968,55," | 55  |   7011       5   6990       0 |   0    0      6728       262 |   0  55    0    1 c40f |    0           0       0       0       8      0      0      0   6673     317       0  55    1c40f a70f     30.180 "
test,1583576975800229120,56," | 56  |   7011       5   6993       0 |   5    0      6887       106 |   3  52    0    0 390f |    4.974       0       5       0       5     52     52      0   6803     190       5  52    0390f a70f     10.980 "
test,1583576975803837952,57," | 57  |   7011       5   6948       0 |   5    0      6766       182 |   2  52    0    0 390f |    2.777       0       5       0       5     52     52      0   6332     616       2  52    0390f a70f      9.720 "
test,1583576975818556928,58," | 58  |   7011       5   7002       0 |   0   10      6909        93 |   0  58   55    1 8c0f |    0           0       0       0       8      0      0      0   6625     377       0  58    18c0f a70f     30.210 "
test,1583576975803448064,5," |  5  |   7011       5   7009       0 |   4    8      6382       627 |   4   9   12    0 2d0f |    3.509       0       5       0       5      9      9      0   6258     751       3   9    02d0f a70f      9.690 "
test,1583576975797660160,60," | 60  |   7011       5   7002       0 |   5    0      6559       443 |   3  52    0    0 390f |    4.974       0       5       0       5     52     52      0   6419     583       5  52    0390f a70f     10.950 "
test,1583576975816999936,61," | 61  |   7011       5   6997       4 |   5    0      6688       313 |   3  52    0    0 390f |   11.505       0       1       0       1     52     52      0   6454     547      14  52    0390f a70f     30.390 "
test,1583576975801168896,7," |  7  |   7011       5   7008       0 |   5    0      6907       101 |   1   9    0    0 2d0f |    2.777       0       5       0       5      9      9      0   6859     149       2   9    02d0f a70f      8.850 "
test,1583576975792728832,9," |  9  |   7011       5   7007       0 |   5    0      6773       234 |   2   9    0    1 2d0f |    1.739       0       4       0       4      9      9      0   6738     269       2   9    12d0f a70f      6.480 "
