test,1583575416761899008,10," | 10  |    775       5    747       0 |   5    0       737        10 |   2   9    0    0 b00f |    1.983       0       5       0       5      9      9      0    725      22       1   9    0b00f a70f      8.220 "
test,1583575416762294016,12," | 12  |    775       5    773       0 |   5    0       767         6 |   1   9    0    0 b00f |    2.777       0       5       0       5      9      9      0    754      19       2   9    0b00f a70f      8.970 "
test,1583575416762989056,13," | 13  |    775       5    771       0 |   5    0       763         8 |   1   9    0    0 b00f |    2.777       0       5       0       5      9      9      0    752      19       2   9    0b00f a70f      8.880 "
test,1583575416763844096,15," | 15  |    775       5    773       0 |   5    0       744        29 |   2   9    0    0 b00f |    3.417       0       5       0       5      9      9      0    717      56       3   9    0b00f a70f      9.630 "
test,1583575416761419008,16," | 16  |    775       5    771       0 |   5    0       742        29 |   1  23    0    0  90f |    2.014       0       5       0       5     23     23      0    725      46       1  23    0 90f a70f      8.100 "
test,1583575416767841024,17," | 17  |    775       5    771       0 |   5    0       761        10 |   5  23    0    0  90f |    1.983       0       5       0       5     23     23      0    741      30       1  23    0 90f a70f      8.910 "
test,1583575416766232064,18," | 18  |    775       5    770       0 |   5    0       720        50 |   2  23    0    0  90f |    2.716       0       5       0       5     23     23      0    688      82       2  23    0 90f a70f     10.260 "
test,1583575416763426048,19," | 19  |    775       5    770       1 |   5    0       765         6 |   5  23    0    0  90f |    1.983       0       5       0       5     23     23      0    743      28       1  23    0 90f a70f     10.350 "
test,1583575416762049792,1," |  1  |    775       4    772       0 |   5    0       758        14 |   1   9    0    0 b00f |    2.685       0       5       0       5      9      9      0    751      21       1   9    0b00f a70f      8.910 "
test,1583575416765176064,22," | 22  |    775       5    769       0 |   5    0       762         7 |   2  23    0    0  90f |    2.746       0       5       0       5     23     23      0    725      44       2  23    0 90f a70f      9.660 "
test,1583575416760371968,23," | 23  |    775       5    713       0 |   5    0       709         4 |   4  23    0    1  90f |    1.739       0       4       0       4     23     23      0    698      15       2  23    1 90f a70f      6.480 "
test,1583575416762466048,24," | 24  |    775       5    771       0 |   5    0       766         5 |   2  23    0    0  90f |    2.685       0       5       0       5     23     23      0    749      22       2  23    0 90f a70f      8.880 "
test,1583575416764456960,26," | 26  |    775       5    771       0 |   5    0       768         3 |   1  23    0    0  90f |    1.983       0       5       0       5     23     23      0    755      16       1  23    0 90f a70f      8.190 "
test,1583575416765649920,27," | 27  |    775       4    773       0 |   5    0       755        18 |   1  23    0    0  90f |    2.014       0       5       0       5     23     23      0    723      50       1  23    0 90f a70f      9.630 "
test,1583575416783795968,28," | 28  |    775       5    771       0 |   5    5       704        67 |   1  30   23    0 7b0f |    2.014       0       4       0       4     30     30      0    683      88       1  30    07b0f a70f     30.360 "
test,1583575416784653056,29," | 29  |    775       4    771       2 |   5    0       681        92 |   2  23    0    0  90f |    4.211       0       4       0       4     23     23      0    642     131       4  23    0 90f a70f     30.360 "
test,1583575416760711936,30," | 30  |    775       5    771       0 |   4    4       762         9 |   5  30   23    1 7b0f |    1.739       0       4       0       4     30     30      0    744      27       2  30    17b0f a70f      6.480 "
test,1583575416760972032,35," | 35  |    775       5    771       0 |   5    4       736        35 |   1  30   23    0 7b0f |    2.044       0       5       0       5     30     30      0    725      46       1  30    07b0f a70f      8.160 "
test,1583575416764275968,49," | 49  |    775       5    765       0 |   5    0       753        12 |   3  23    0    0  90f |    4.150       0       5       0       5     23     23      0    748      17       4  23    0 90f a70f     10.350 "
test,1583575416764024064,51," | 51  |    775       5    766       0 |   5    7       762         4 |   2  23    9    0  90f |    3.448       0       5       0       5     23     23      0    760       6       3  23    0 90f a70f      9.660 "
test,1583575416764883968,52," | 52  |    775       3    761       6 |   5    0       730        37 |   1  23    0    0  90f |    2.014       0       5       0       5     23     23      0    714      53       1  23    0 90f a70f      8.220 "
test,1583575416766497024,53," | 53  |    775       5    749       0 |   5    0       710        39 |   4  23    0    0  90f |    4.882       0       5       0       5     23     23      0    704      45       5  23    0 90f a70f     10.980 "
test,1583575416767640064,54," | 54  |    775       5    767       0 |   5    0       757        10 |   1   9    0    0 b00f |    2.044       0       5       0       5      9      9      0    739      28       1   9    0b00f a70f      8.160 "
test,1583575416768527104,55," | 55  |    775       5    754       0 |   5    0       720        34 |   3  23    0    0  90f |    4.180       0       5       0       5     23     23      0    718      36       4  23    0 90f a70f     10.380 "
test,1583575416763654912,56," | 56  |    775       5    757       0 |   5    2       740        17 |   2  23    9    0  90f |    2.716       0       5       0       5     23     23      0    735      22       2  23    0 90f a70f      8.940 "
test,1583575416766740992,57," | 57  |    775       5    712       0 |   5    0       685        27 |   1  23    0    0  90f |    2.014       0       5       0       5     23     23      0    643      69       1  23    0 90f a70f      8.850 "
test,1583575416781673984,58," | 58  |    775       5    766       0 |   5    0       756        10 |   2  23    0    0  90f |    3.479       0       3       0       3     23     23      0    735      31       3  23    0 90f a70f     30.180 "
test,1583575416765810944,5," |  5  |    775       5    773       0 |   5    0       714        59 |   2   9    0    0 b00f |    3.448       0       5       0       5      9      9      0    697      76       3   9    0b00f a70f      9.690 "
test,1583575416766025984,60," | 60  |    775       5    766       0 |   5    1       719        47 |   2  23    9    0  90f |    2.716       0       5       0       5     23     23      0    712      54       2  23    0 90f a70f     10.380 "
test,1583575416783246080,61," | 61  |    775       5    765       0 |   5    0       735        30 |   2  23    0    0  90f |    3.479       0       4       0       4     23     23      0    715      50       3  23    0 90f a70f     30.240 "
test,1583575416765470976,7," |  7  |    775       5    772       0 |   5    0       759        13 |   1   9    0    0 b00f |    2.014       0       5       0       5      9      9      0    755      17       1   9    0b00f a70f      8.820 "
test,1583575416760157184,9," |  9  |    775       5    771       0 |   4    0       739        32 |   2   9    0    1 b00f |    1.770       0       4       0       4      9      9      0    734      37       2   9    1b00f a70f      6.510 "
