test,1583577208552717824,10," | 10  |   7942       5   7914       0 |   5    0      7791       123 |   1   1    0    0 820f |    1.373       0       5       0       5      1      1      0   7705     209       1   1    0820f a70f      7.500 "
test,1583577208548101888,12," | 12  |   7942       5   7906      34 |   5    0      7859        81 |   1   1    0    0 820f |    1.342       0       5       0       5      1      1      0   7723     217       1   1    0820f a70f      7.590 "
test,1583577208546937088,13," | 13  |   7942       5   7938       0 |   5    0      7876        62 |   1   1    0    0 820f |    1.342       0       5       0       5      1      1      0   7797     141       1   1    0820f a70f      7.500 "
test,1583577208551537920,15," | 15  |   7942       5   7897      43 |   5    0      7616       324 |   2   1    0    0 820f |    2.075       0       5       0       5      1      1      0   7252     688       2   1    0820f a70f      8.280 "
test,1583577208549902080,16," | 16  |   7942       5   7938       0 |   5    0      7641       297 |   2  24    0    0 e00f |    2.777       0       5       0       5     24     24      0   7440     498       2  24    0e00f a70f      8.910 "
test,1583577208560723968,17," | 17  |   7942       5   7927      11 |   5    0      7832       106 |   1  24    0    0 e00f |    2.044       0       5       0       5     24     24      0   7596     342       1  24    0e00f a70f      8.940 "
test,1583577208554790144,18," | 18  |   7942       5   7937       0 |   5    0      7513       424 |   1  24    0    0 e00f |    2.014       0       5       0       5     24     24      0   7208     729       1  24    0e00f a70f      8.250 "
test,1583577208552133120,19," | 19  |   7942       4   7923      15 |   5    0      7783       155 |   1  24    0    0 e00f |    2.044       0       5       0       5     24     24      0   7567     371       1  24    0e00f a70f      9.570 "
test,1583577208548273152,1," |  1  |   7942       4   7939       0 |   5    0      7730       209 |   2   1    0    1 820f |    1.739       0       4       0       4      1      1      0   7679     260       2   1    1820f a70f      6.480 "
test,1583577208543262976,22," | 22  |   7942       5   7936       0 |   5    0      7869        67 |   1  24    0    0 e00f |    2.014       0       5       0       5     24     24      0   7522     414       1  24    0e00f a70f      8.220 "
test,1583577208549245184,23," | 23  |   7942       5   7880       0 |   5    0      7844        36 |   1  24    0    0 e00f |    2.014       0       5       0       5     24     24      0   7693     187       1  24    0e00f a70f      8.100 "
test,1583577208547791104,24," | 24  |   7942       5   7936       2 |   4    0      7848        90 |   2  24    0    1 e00f |    1.739       0       4       0       4     24     24      0   7651     287       2  24    1e00f a70f      6.480 "
test,1583577208549659136,26," | 26  |   7942       5   7936       2 |   5    0      7906        32 |   1  24    0    0 e00f |    1.983       0       5       0       5     24     24      0   7763     175       1  24    0e00f a70f      8.220 "
test,1583577208568007936,27," | 27  |   7942       5   7940       0 |   1    8      7705       235 |   3   1   29    0 820f |    0           0       0       0       8      0      0      0   7395     545       0   1    0820f a70f     30.390 "
test,1583577208561547008,28," | 28  |   7942       5   7930       8 |   5    0      7310       628 |   1  24    0    0 e00f |    2.044       0       5       0       5     24     24      0   6994     944       1  24    0e00f a70f      8.850 "
test,1583577208569660928,29," | 29  |   7942       3   7928      12 |   0    3      7033       907 |   0  29   24    1 e10f |    0           0       0       0       8      0      0      0   6688    1252       0  29    1e10f a70f     30.210 "
test,1583577208550779136,30," | 30  |   7942       5   7935       3 |   5    0      7827       111 |   3  24    0    0 e00f |    2.716       0       5       0       5     24     24      0   7532     406       2  24    0e00f a70f      9.660 "
test,1583577208550606848,35," | 35  |   7942       5   7935       3 |   5    0      7556       382 |   2  24    0    0 e00f |    2.746       0       5       0       5     24     24      0   7376     562       2  24    0e00f a70f      8.940 "
test,1583577208568791040,40," | 40  |   7942       5   7860      74 |   1    4      7487       447 |   1  24   44    0 e00f |    0           0       0       0       8      0      0      0   7294     640       0  24    0e00f a70f     30.360 "
test,1583577208554116864,41," | 41  |   7942       5   7869      59 |   5    0      7858        70 |   1  44    0    0 d80f |    2.716       0       5       0       5     44     44      0   7677     251       2  44    0d80f a70f      8.940 "
test,1583577208551203840,42," | 42  |   7942       5   7876      62 |   5    0      7795       143 |   1  44    0    0 d80f |    2.044       0       5       0       5     44     44      0   7633     305       1  44    0d80f a70f      8.130 "
test,1583577208553287936,44," | 44  |   7942       5   7881      57 |   4    0      7794       144 |   2  44    0    1 d80f |    1.739       0       4       0       4     44     44      0   7641     297       2  44    1d80f a70f      6.510 "
test,1583577208557462016,45," | 45  |   7942       5   7895      43 |   5    0      7697       241 |   1  44    0    0 d80f |    1.983       0       5       0       5     44     44      0   7561     377       1  44    0d80f a70f      8.910 "
test,1583577208551901184,46," | 46  |   7942       5   7874      57 |   5    0      7550       381 |   1  44    0    0 d80f |    2.777       0       5       0       5     44     44      0   7429     502       2  44    0d80f a70f      8.820 "
test,1583577208553952000,47," | 47  |   7942       5   7881      57 |   5    0      7692       246 |   1  44    0    0 d80f |    2.014       0       5       0       5     44     44      0   7559     379       1  44    0d80f a70f      8.280 "
test,1583577208553779968,48," | 48  |   7942       5   7816      55 |   5    0      7709       162 |   1  44    0    0 d80f |    2.014       0       5       0       5     44     44      0   7562     309       1  44    0d80f a70f      8.250 "
test,1583577208551073024,49," | 49  |   7942       5   7932       0 |   5    0      7778       154 |   2  55    0    0 8e0f |    2.014       0       5       0       5     55     55      0   7720     212       1  55    08e0f a70f      8.940 "
test,1583577208547180032,51," | 51  |   7942       5   7933       0 |   5    0      7843        90 |   1   1    0    0 820f |    1.342       0       5       0       5      1      1      0   7816     117       1   1    0820f a70f      7.440 "
test,1583577208550447872,52," | 52  |   7942       5   7903      31 |   5    0      7537       397 |   2  24    0    0 e00f |    2.044       0       5       0       5     24     24      0   7399     535       1  24    0e00f a70f      9.570 "
test,1583577208560941056,53," | 53  |   7942       5   7916       0 |   5    0      7514       402 |   1  55    0    0 8e0f |    2.014       0       5       0       5     55     55      0   7432     484       1  55    08e0f a70f      8.250 "
test,1583577208547369984,54," | 54  |   7942       5   7934       0 |   5    0      7801       133 |   1   1    0    0 820f |    1.342       0       5       0       5      1      1      0   7670     264       1   1    0820f a70f      7.590 "
test,1583577208553097984,55," | 55  |   7942       5   7921       0 |   4    0      7621       300 |   2  55    0    1 8e0f |    1.770       0       4       0       4     55     55      0   7551     370       2  55    18e0f a70f      6.510 "
test,1583577208570307072,56," | 56  |   7942       5   7924       0 |   1    7      7806       118 |   2  61    1    0 450f |    4.058       0       2       0       2     61     61      0   7709     215       4  61    0450f a70f     30.360 "
test,1583577208567078144,57," | 57  |   7942       5   7879       0 |   1    6      7669       210 |   5   1   24    0 820f |    0           0       0       0       8      0      0      0   7190     689       0   1    0820f a70f     30.360 "
test,1583577208571044864,58," | 58  |   7942       5   7933       0 |   1    4      7825       108 |   1  61   55    0 450f |    4.089       0       2       0       2     61     61      0   7501     432       4  61    0450f a70f     30.300 "
test,1583577208551351040,5," |  5  |   7942       5   7940       0 |   5    0      7211       729 |   2   1    0    0 820f |    2.075       0       5       0       5      1      1      0   7079     861       2   1    0820f a70f      8.190 "
test,1583577208553463040,60," | 60  |   7942       5   7933       0 |   5    0      7413       520 |   2   1    0    0 820f |    2.075       0       5       0       5      1      1      0   7254     679       2   1    0820f a70f      8.280 "
test,1583577208571484160,61," | 61  |   7942       5   7925       7 |   1    2      7575       357 |   2  61    1    1 450f |    3.814       0       1       0       1     61     61      0   7308     624       5  61    1450f a70f     30.300 "
test,1583577208552254976,7," |  7  |   7942       5   7939       0 |   5    0      7818       121 |   1   1    0    0 820f |    1.342       0       5       0       5      1      1      0   7764     175       1   1    0820f a70f      7.590 "
test,1583577208550259968,9," |  9  |   7942       5   7938       0 |   5    0      7680       258 |   1   1    0    0 820f |    1.342       0       5       0       5      1      1      0   7642     296       1   1    0820f a70f      7.620 "
