test,1583577154300285184,10," | 10  |   7725       5   7697       0 |   5    0      7576       121 |   2   7    0    0 aa0f |    2.777       0       5       0       5      7      7      0   7493     204       2   7    0aa0f a70f      8.880 "
test,1583577154298809088,12," | 12  |   7725       5   7689      34 |   5    0      7645        78 |   1   7    0    0 aa0f |    2.044       0       5       0       5      7      7      0   7511     212       1   7    0aa0f a70f      8.280 "
test,1583577154320785152,13," | 13  |   7725       5   7721       0 |   4    8      7660        61 |   5  13    7    1 940f |   10.253       0       1       0       1     13     13      0   7581     140      14  13    1940f a70f     30.240 "
test,1583577154307799040,15," | 15  |   7725       5   7680      43 |   5    0      7407       316 |   2   7    0    0 aa0f |    2.746       0       5       0       5      7      7      0   7057     666       2   7    0aa0f a70f      8.790 "
test,1583577154319505920,16," | 16  |   7725       5   7721       0 |   4    1      7432       289 |   9  48   52    0 a30f |    2.777       0       3       0       3     48     48      0   7233     488       2  48    0a30f a70f     30.390 "
test,1583577154307208960,17," | 17  |   7725       5   7711      10 |   5    0      7618       103 |   6  48    0    0 a30f |    2.777       0       5       0       5     48     48      0   7387     334       2  48    0a30f a70f     11.160 "
test,1583577154318008832,18," | 18  |   7725       5   7720       0 |   0   11      7312       408 |   0  18   48    1 a60f |    0           0       0       0       8      0      0      0   7014     706       0  18    1a60f a70f     30.150 "
test,1583577154318938880,19," | 19  |   7725       5   7707      14 |   2    7      7571       150 |   1  27   48    0 310f |    2.716       0       1       0       1     27     27      0   7362     359       2  27    0310f a70f     30.360 "
test,1583577154297507072,1," |  1  |   7725       4   7722       0 |   5    0      7520       202 |   1   7    0    0 aa0f |    2.716       0       5       0       5      7      7      0   7469     253       1   7    0aa0f a70f      8.910 "
test,1583577154320571904,22," | 22  |   7725       5   7719       0 |   4    2      7652        67 |   7  48   27    0 a30f |    5.737       0       4       0       4     48     48      0   7312     407       6  48    0a30f a70f     30.360 "
test,1583577154315820032,23," | 23  |   7725       5   7663       0 |   1   10      7628        35 |   1  27   52    0 310f |    0           0       0       0       8      0      0      0   7479     184       0  27    0310f a70f     30.360 "
test,1583577154300689920,24," | 24  |   7725       5   7719       2 |   5    0      7634        87 |   6  48    0    0 a30f |    2.807       0       5       0       5     48     48      0   7440     281       2  48    0a30f a70f      9.600 "
test,1583577154302264064,26," | 26  |   7725       5   7719       2 |   5    0      7690        31 |   2  48    0    0 a30f |    2.746       0       5       0       5     48     48      0   7549     172       2  48    0a30f a70f     10.410 "
test,1583577154319334144,27," | 27  |   7725       5   7723       0 |   1    4      7495       228 |   5  27   48    1 310f |    1.739       0       1       0       1     27     27      0   7199     524       2  27    1310f a70f     30.300 "
test,1583577154321050880,28," | 28  |   7725       5   7713       8 |   4    3      7110       611 |   4  35   27    0 940f |    2.014       0       4       0       4     35     35      0   6800     921       1  35    0940f a70f     30.300 "
test,1583577154320396800,29," | 29  |   7725       5   7712      11 |   2    0      6844       879 |   1  27    0    0 310f |    2.014       0       1       0       1     27     27      0   6512    1211       1  27    0310f a70f     30.360 "
test,1583577154298616832,30," | 30  |   7725       5   7718       3 |   5    0      7613       108 |   1  35    0    0 940f |    1.953       0       5       0       5     35     35      0   7325     396       1  35    0940f a70f      8.190 "
test,1583577154298174976,35," | 35  |   7725       5   7718       3 |   4    0      7347       374 |   2  35    0    1 940f |    1.770       0       4       0       4     35     35      0   7170     551       2  35    1940f a70f      6.510 "
test,1583577154302004992,40," | 40  |   7725       5   7643      74 |   5    0      7283       434 |   1  48    0    0 a30f |    2.777       0       5       0       5     48     48      0   7103     614       2  48    0a30f a70f      9.000 "
test,1583577154299497984,41," | 41  |   7725       5   7652      59 |   5    0      7642        69 |   2  48    0    0 a30f |    2.014       0       5       0       5     48     48      0   7468     243       1  48    0a30f a70f      8.250 "
test,1583577154311346176,42," | 42  |   7725       5   7659      62 |   5    0      7581       140 |   2  48    0    0 a30f |    2.075       0       5       0       5     48     48      0   7424     297       1  48    0a30f a70f      8.280 "
test,1583577154303184896,44," | 44  |   7725       5   7664      57 |   5    0      7581       140 |   1  48    0    0 a30f |    2.044       0       5       0       5     48     48      0   7430     291       1  48    0a30f a70f      8.220 "
test,1583577154303802880,45," | 45  |   7725       5   7678      43 |   5    0      7485       236 |   2  48    0    0 a30f |    2.075       0       5       0       5     48     48      0   7352     369       1  48    0a30f a70f      8.250 "
test,1583577154300525056,46," | 46  |   7725       5   7657      57 |   5    0      7345       369 |   2  48    0    0 a30f |    2.014       0       5       0       5     48     48      0   7228     486       1  48    0a30f a70f      8.100 "
test,1583577154298350080,47," | 47  |   7725       5   7664      57 |   5    0      7479       242 |   1  48    0    0 a30f |    2.014       0       5       0       5     48     48      0   7350     371       1  48    0a30f a70f      8.250 "
test,1583577154297262848,48," | 48  |   7725       5   7599      55 |   4    0      7497       157 |   2  48    0    1 a30f |    1.770       0       4       0       4     48     48      0   7357     297       2  48    1a30f a70f      6.510 "
test,1583577154301829120,49," | 49  |   7725       5   7715       0 |   5    0      7566       149 |   1  53    0    0 bd0f |    2.105       0       5       0       5     53     53      0   7513     202       1  53    0bd0f a70f      8.310 "
test,1583577154301314048,51," | 51  |   7725       5   7716       0 |   5    0      7628        88 |   3   7    0    0 aa0f |    3.509       0       5       0       5      7      7      0   7601     115       3   7    0aa0f a70f      9.570 "
test,1583577154316560128,52," | 52  |   7725       5   7686      31 |   0    8      7329       388 |   0  52   48    1 d30f |    0           0       0       0       8      0      0      0   7192     525       0  52    1d30f a70f     30.210 "
test,1583577154296056064,53," | 53  |   7725       5   7699       0 |   4    0      7302       397 |   2  53    0    1 bd0f |    1.770       0       4       0       4     53     53      0   7225     474       2  53    1bd0f a70f      6.510 "
test,1583577154299011072,54," | 54  |   7725       5   7717       0 |   5    0      7592       125 |   1   7    0    0 aa0f |    2.807       0       5       0       5      7      7      0   7467     250       2   7    0aa0f a70f      9.660 "
test,1583577154299945984,55," | 55  |   7725       5   7704       0 |   5    0      7413       291 |   1  53    0    0 bd0f |    2.075       0       5       0       5     53     53      0   7348     356       1  53    0bd0f a70f      8.220 "
test,1583577154319686912,56," | 56  |   7725       5   7707       0 |   5    7      7593       114 |   1  13    7    0 940f |    2.014       0       1       0       1     13     13      0   7499     208       1  13    0940f a70f     30.330 "
test,1583577154319129856,57," | 57  |   7725       5   7662       0 |   2    8      7463       199 |   5   7   13    0 aa0f |    4.241       0       4       0       4      7      7      0   7000     662       4   7    0aa0f a70f     30.390 "
test,1583577154302644992,58," | 58  |   7725       5   7716       0 |   5    0      7613       103 |   2   7    0    0 aa0f |    3.509       0       5       0       5      7      7      0   7298     418       3   7    0aa0f a70f     11.790 "
test,1583577154305286912,5," |  5  |   7725       5   7723       0 |   5    5      7014       709 |   1  13    7    0 940f |    2.014       0       5       0       5     13     13      0   6884     839       1  13    0940f a70f     10.710 "
test,1583577154301545984,60," | 60  |   7725       5   7716       0 |   5    0      7210       506 |   4   7    0    0 aa0f |    4.241       0       5       0       5      7      7      0   7057     659       4   7    0aa0f a70f     10.410 "
test,1583577154301076992,61," | 61  |   7725       5   7709       6 |   5    0      7368       347 |   2   7    0    0 aa0f |    3.479       0       5       0       5      7      7      0   7109     606       3   7    0aa0f a70f     11.130 "
test,1583577154296300800,7," |  7  |   7725       5   7722       0 |   4    0      7605       117 |   4   7    0    1 aa0f |    1.739       0       4       0       4      7      7      0   7554     168       2   7    1aa0f a70f      6.480 "
test,1583577154296747008,9," |  9  |   7725       5   7721       0 |   5    0      7466       255 |   1   7    0    0 aa0f |    2.014       0       5       0       5      7      7      0   7430     291       1   7    0aa0f a70f      8.250 "
