test,1583577222549278976,10," | 10  |   7998       5   7970       0 |   5    0      7846       124 |   1  12    0    0 c30f |    2.014       0       5       0       5     12     12      0   7759     211       1  12    0c30f a70f      8.250 "
test,1583577222554930944,12," | 12  |   7998       5   7962      34 |   5    0      7915        81 |   4  12    0    1 c30f |    1.739       0       4       0       4     12     12      0   7777     219       2  12    1c30f a70f      6.480 "
test,1583577222548624128,13," | 13  |   7998       5   7994       0 |   5    0      7932        62 |   1  12    0    0 c30f |    2.075       0       5       0       5     12     12      0   7852     142       1  12    0c30f a70f      8.310 "
test,1583577222550054144,15," | 15  |   7998       5   7953      43 |   5    0      7670       326 |   1  12    0    0 c30f |    2.044       0       5       0       5     12     12      0   7305     691       1  12    0c30f a70f      8.130 "
test,1583577222550774016,16," | 16  |   7998       5   7994       0 |   5    0      7694       300 |   2  22    0    0 e20f |    2.777       0       5       0       5     22     22      0   7493     501       2  22    0e20f a70f      8.820 "
test,1583577222557218048,17," | 17  |   7998       5   7983      11 |   5    0      7887       107 |   3  22    0    0 e20f |    2.075       0       5       0       5     22     22      0   7650     344       1  22    0e20f a70f      8.160 "
test,1583577222565833984,18," | 18  |   7998       5   7993       0 |   5    0      7561       432 |   1  22    0    0 e20f |    2.014       0       5       0       5     22     22      0   7257     736       1  22    0e20f a70f      8.970 "
test,1583577222558149120,19," | 19  |   7998       5   7979      15 |   5    0      7839       155 |   2  22    0    0 e20f |    2.075       0       5       0       5     22     22      0   7623     371       1  22    0e20f a70f      8.970 "
test,1583577222551547136,1," |  1  |   7998       4   7995       0 |   5    0      7785       210 |   1  12    0    0 c30f |    2.716       0       5       0       5     12     12      0   7733     262       1  12    0c30f a70f      8.940 "
test,1583577222553158912,22," | 22  |   7998       5   7992       0 |   5    0      7925        67 |   2  22    0    1 e20f |    1.739       0       4       0       4     22     22      0   7577     415       2  22    1e20f a70f      7.920 "
test,1583577222548026112,23," | 23  |   7998       5   7936       0 |   5    0      7900        36 |   1  22    0    0 e20f |    2.075       0       5       0       5     22     22      0   7749     187       1  22    0e20f a70f      8.190 "
test,1583577222548827904,24," | 24  |   7998       5   7992       2 |   5    0      7903        91 |   1  22    0    0 e20f |    2.044       0       5       0       5     22     22      0   7704     290       1  22    0e20f a70f      8.970 "
test,1583577222547794944,26," | 26  |   7998       5   7992       2 |   5    0      7962        32 |   2  22    0    0 e20f |    2.044       0       5       0       5     22     22      0   7818     176       1  22    0e20f a70f      8.280 "
test,1583577222570460160,27," | 27  |   7998       5   7996       0 |   5    0      7760       236 |   2  22    0    0 e20f |    2.777       0       4       0       4     22     22      0   7449     547       2  22    0e20f a70f     30.330 "
test,1583577222553925888,28," | 28  |   7998       5   7986       8 |   5    0      7364       630 |   2  22    0    0 e20f |    2.746       0       5       0       5     22     22      0   7044     950       2  22    0e20f a70f      9.720 "
test,1583577222571602944,29," | 29  |   7998       5   7983      13 |   5    0      7081       915 |   3  22    0    0 e20f |    3.479       0       2       0       2     22     22      0   6735    1261       3  22    0e20f a70f     30.390 "
test,1583577222549884928,30," | 30  |   7998       5   7991       3 |   5    0      7883       111 |   1  22    0    0 e20f |    2.044       0       5       0       5     22     22      0   7588     406       1  22    0e20f a70f      8.850 "
test,1583577222548457984,35," | 35  |   7998       5   7991       3 |   5    0      7611       383 |   1  22    0    0 e20f |    2.044       0       5       0       5     22     22      0   7431     563       1  22    0e20f a70f      8.160 "
test,1583577222551284992,40," | 40  |   7998       4   7916      74 |   5    0      7537       453 |   1  48    0    0 bc0f |    2.014       0       5       0       5     48     48      0   7343     647       1  48    0bc0f a70f      8.970 "
test,1583577222560352000,41," | 41  |   7998       5   7925      59 |   4    1      7912        72 |   1  48   22    0 bc0f |    2.014       0       5       0       5     48     48      0   7730     254       1  48    0bc0f a70f      8.940 "
test,1583577222552958976,42," | 42  |   7998       5   7932      62 |   5    0      7849       145 |   1  48    0    0 bc0f |    2.044       0       5       0       5     48     48      0   7686     308       1  48    0bc0f a70f      8.850 "
test,1583577222551879936,44," | 44  |   7998       5   7937      57 |   5    0      7849       145 |   1  48    0    0 bc0f |    2.014       0       5       0       5     48     48      0   7694     300       1  48    0bc0f a70f      8.100 "
test,1583577222552599808,45," | 45  |   7998       5   7951      43 |   5    0      7750       244 |   1  48    0    0 bc0f |    2.044       0       5       0       5     48     48      0   7614     380       1  48    0bc0f a70f      9.000 "
test,1583577222553603840,46," | 46  |   7998       4   7930      57 |   5    0      7603       384 |   1  48    0    0 bc0f |    2.014       0       5       0       5     48     48      0   7481     506       1  48    0bc0f a70f      9.000 "
test,1583577222550251008,47," | 47  |   7998       5   7937      57 |   5    0      7746       248 |   1  48    0    0 bc0f |    2.044       0       5       0       5     48     48      0   7611     383       1  48    0bc0f a70f      9.030 "
test,1583577222548280064,48," | 48  |   7998       5   7872      55 |   4    1      7765       162 |   2  48   22    1 bc0f |    1.739       0       4       0       4     48     48      0   7617     310       2  48    1bc0f a70f      6.480 "
test,1583577222555814144,49," | 49  |   7998       5   7988       0 |   5    0      7834       154 |   2  12    0    0 c30f |    4.241       0       5       0       5     12     12      0   7776     212       4  12    0c30f a70f     10.260 "
test,1583577222550550016,51," | 51  |   7998       5   7989       0 |   5    0      7899        90 |   2  12    0    0 c30f |    2.777       0       5       0       5     12     12      0   7872     117       2  12    0c30f a70f      9.000 "
test,1583577222554160128,52," | 52  |   7998       5   7959      31 |   5    0      7591       399 |   3  22    0    0 e20f |    3.479       0       5       0       5     22     22      0   7453     537       3  22    0e20f a70f      9.690 "
test,1583577222554373120,53," | 53  |   7998       5   7972       0 |   5    0      7570       402 |   2  12    0    0 c30f |    4.943       0       5       0       5     12     12      0   7488     484       5  12    0c30f a70f     10.980 "
test,1583577222572315904,54," | 54  |   7998       5   7990       0 |   5    0      7856       134 |   1  12    0    0 c30f |    2.746       0       4       0       4     12     12      0   7723     267       2  12    0c30f a70f     30.390 "
test,1583577222557848832,55," | 55  |   7998       5   7977       0 |   5    0      7676       301 |   2  12    0    0 c30f |    4.211       0       5       0       5     12     12      0   7606     371       4  12    0c30f a70f     10.380 "
test,1583577222556967936,56," | 56  |   7998       5   7980       0 |   5    0      7860       120 |   2  12    0    0 c30f |    2.777       0       5       0       5     12     12      0   7763     217       2  12    0c30f a70f      9.690 "
test,1583577222570671104,57," | 57  |   7998       5   7935       0 |   1    8      7724       211 |   2  22   61    0 e20f |    2.777       0       2       0       2     22     22      0   7242     693       2  22    0e20f a70f     30.390 "
test,1583577222571209984,58," | 58  |   7998       5   7989       0 |   5    0      7880       109 |   1  12    0    0 c30f |    3.540       0       4       0       4     12     12      0   7554     435       3  12    0c30f a70f     30.270 "
test,1583577222549534976,5," |  5  |   7998       5   7996       0 |   5    0      7262       734 |   1  12    0    0 c30f |    2.075       0       5       0       5     12     12      0   7129     867       1  12    0c30f a70f      8.160 "
test,1583577222550953984,60," | 60  |   7998       5   7989       0 |   5    0      7464       525 |   3  12    0    0 c30f |    3.540       0       5       0       5     12     12      0   7305     684       3  12    0c30f a70f      9.690 "
test,1583577222569478912,61," | 61  |   7998       5   7981       7 |   0    3      7624       364 |   0  61   12    1 c70f |    0           0       0       0       8      0      0      0   7355     633       0  61    1c70f a70f     30.180 "
test,1583577222552201984,7," |  7  |   7998       5   7995       0 |   5    0      7874       121 |   1  12    0    0 c30f |    2.075       0       5       0       5     12     12      0   7819     176       1  12    0c30f a70f      8.220 "
test,1583577222556036096,9," |  9  |   7998       5   7994       0 |   5    0      7733       261 |   1  12    0    0 c30f |    2.014       0       5       0       5     12     12      0   7695     299       1  12    0c30f a70f      8.250 "
