test,1583577040798331904,10," | 10  |   7271       5   7243       0 |   5    0      7128       115 |   1  58    0    0 a40f |    2.014       0       5       0       5     58     58      0   7048     195       1  58    0a40f a70f      8.820 "
test,1583577040803065088,12," | 12  |   7271       5   7235      34 |   5    0      7191        78 |   3  58    0    0 a40f |    3.509       0       5       0       5     58     58      0   7072     197       3  58    0a40f a70f      9.720 "
test,1583577040797723904,13," | 13  |   7271       5   7267       0 |   5    0      7207        60 |   2  58    0    0 a40f |    2.777       0       5       0       5     58     58      0   7133     134       2  58    0a40f a70f      9.720 "
test,1583577040820000000,15," | 15  |   7271       5   7226      43 |   2    5      6968       301 |  11  15   58    1 ac0f |   12.420       0       1       0       1     15     15      0   6645     624      17  15    1ac0f a70f     30.270 "
test,1583577040818257920,16," | 16  |   7271       5   7267       0 |   1    9      6998       269 |   1  41   26    0 a30f |    7.202       0       1       0       1     41     41      0   6810     457       8  41    0a30f a70f     30.390 "
test,1583577040815841792,17," | 17  |   7271       5   7257      10 |   1    8      7169        98 |   1  41   26    0 a30f |    0           0       0       0       8      0      0      0   6951     316       0  41    0a30f a70f     30.390 "
test,1583577040803478016,18," | 18  |   7271       5   7266       0 |   5    0      6881       385 |   4  26    0    0 110f |    1.953       0       5       0       5     26     26      0   6596     670       1  26    0110f a70f      8.040 "
test,1583577040801806848,19," | 19  |   7271       5   7253      14 |   4    0      7128       139 |   4  26    0    0 110f |    1.983       0       5       0       5     26     26      0   6928     339       1  26    0110f a70f      8.940 "
test,1583577040796384000,1," |  1  |   7271       4   7268       0 |   5    0      7074       194 |   2  58    0    0 a40f |    3.417       0       5       0       5     58     58      0   7025     243       2  58    0a40f a70f      9.480 "
test,1583577040794650112,22," | 22  |   7271       5   7265       0 |   5    0      7199        66 |   4  26    0    0 110f |    2.044       0       5       0       5     26     26      0   6872     393       1  26    0110f a70f      8.250 "
test,1583577040809720064,23," | 23  |   7271       5   7209       0 |   5    0      7179        30 |   4  26    0    0 110f |    1.953       0       5       0       5     26     26      0   7041     168       1  26    0110f a70f      8.910 "
test,1583577040796632064,24," | 24  |   7271       5   7265       2 |   5    0      7187        80 |   4  26    0    0 110f |    1.983       0       5       0       5     26     26      0   7003     264       1  26    0110f a70f      8.190 "
test,1583577040794838784,26," | 26  |   7271       5   7265       2 |   4    0      7238        29 |   5  26    0    1 110f |    1.739       0       4       0       4     26     26      0   7105     162       2  26    1110f a70f      6.510 "
test,1583577040816338944,27," | 27  |   7271       5   7269       0 |   1    7      7054       215 |   2  41   15    0 a30f |    0           0       0       0       8      0      0      0   6777     492       0  41    0a30f a70f     30.390 "
test,1583577040815347968,28," | 28  |   7271       4   7259       8 |   1    4      6692       575 |   2  41   15    0 a30f |    0           0       0       0       8      0      0      0   6412     855       0  41    0a30f a70f     30.390 "
test,1583577040816620032,29," | 29  |   7271       5   7259      10 |   1    4      6427       842 |   3  41   26    0 a30f |    0           0       0       0       8      0      0      0   6116    1153       0  41    0a30f a70f     30.360 "
test,1583577040802469888,30," | 30  |   7271       5   7264       3 |   5    0      7168        99 |   2  15    0    0 ac0f |    6.927       0       5       0       5     15     15      0   6900     367       8  15    0ac0f a70f     12.900 "
test,1583577040801179904,35," | 35  |   7271       5   7264       3 |   5    0      6921       346 |   3  15    0    0 ac0f |    7.659       0       5       0       5     15     15      0   6757     510       9  15    0ac0f a70f     13.620 "
test,1583577040800167168,40," | 40  |   7271       5   7189      74 |   5    0      6854       409 |   1  41    0    0 a30f |    2.044       0       5       0       5     41     41      0   6686     577       1  41    0a30f a70f     10.410 "
test,1583577040795819008,41," | 41  |   7271       5   7198      59 |   4    0      7194        63 |   2  41    0    1 a30f |    1.739       0       4       0       4     41     41      0   7030     227       2  41    1a30f a70f      7.230 "
test,1583577040799165952,42," | 42  |   7271       5   7205      62 |   5    0      7140       127 |   1  41    0    0 a30f |    2.044       0       5       0       5     41     41      0   6989     278       1  41    0a30f a70f      8.970 "
test,1583577040799379200,44," | 44  |   7271       5   7210      57 |   5    1      7135       132 |   1  41   26    0 a30f |    2.044       0       5       0       5     41     41      0   6994     273       1  41    0a30f a70f      9.000 "
test,1583577040795136000,45," | 45  |   7271       5   7224      43 |   5    0      7047       220 |   1  41    0    0 a30f |    2.044       0       5       0       5     41     41      0   6922     345       1  41    0a30f a70f      8.130 "
test,1583577040795618048,46," | 46  |   7271       5   7203      57 |   5    0      6921       339 |   1  41    0    0 a30f |    2.044       0       5       0       5     41     41      0   6811     449       1  41    0a30f a70f      8.220 "
test,1583577040796817920,47," | 47  |   7271       5   7210      57 |   5    0      7038       229 |   1  41    0    0 a30f |    2.044       0       5       0       5     41     41      0   6915     352       1  41    0a30f a70f      8.280 "
test,1583577040798676992,48," | 48  |   7271       5   7145      55 |   5    0      7054       146 |   1  41    0    0 a30f |    2.075       0       5       0       5     41     41      0   6921     279       1  41    0a30f a70f      9.720 "
test,1583577040797357056,49," | 49  |   7271       5   7261       0 |   5    0      7125       136 |   4  53    0    0 4b0f |    2.044       0       5       0       5     53     53      0   7073     188       1  53    04b0f a70f      8.250 "
test,1583577040798518016,51," | 51  |   7271       5   7262       0 |   5    0      7178        84 |   2  58    0    0 a40f |    2.746       0       5       0       5     58     58      0   7152     110       2  58    0a40f a70f      8.880 "
test,1583577040799612928,52," | 52  |   7271       4   7234      29 |   5    0      6904       359 |   4  26    0    0 110f |    2.716       0       5       0       5     26     26      0   6778     485       2  26    0110f a70f      8.910 "
test,1583577040794439936,53," | 53  |   7271       5   7245       0 |   4    0      6865       380 |   5  53    0    1 4b0f |    1.739       0       4       0       4     53     53      0   6791     454       2  53    14b0f a70f      6.480 "
test,1583577040800934912,54," | 54  |   7271       5   7263       0 |   5    0      7143       120 |   1  58    0    0 a40f |    2.044       0       5       0       5     58     58      0   7029     234       1  58    0a40f a70f      8.940 "
test,1583577040797187072,55," | 55  |   7271       5   7250       0 |   5    0      6980       270 |   4  53    0    0 4b0f |    2.014       0       5       0       5     53     53      0   6920     330       1  53    04b0f a70f      8.220 "
test,1583577040797869056,56," | 56  |   7271       5   7253       0 |   5    0      7144       109 |   1  58    0    0 a40f |    2.014       0       5       0       5     58     58      0   7054     199       1  58    0a40f a70f      9.540 "
test,1583577040807552000,57," | 57  |   7271       5   7208       0 |   1    2      7021       187 |   1  58   26    0 a40f |    5.676       0       5       0       5     58     58      0   6580     628       6  58    0a40f a70f     14.730 "
test,1583577040810697984,58," | 58  |   7271       5   7262       0 |   1    0      7166        96 |   9  58    0    1 a40f |    8.331       0       4       0       4     58     58      0   6870     392      11  58    1a40f a70f     12.960 "
test,1583577040817935872,5," |  5  |   7271       5   7269       0 |   4    8      6615       654 |   1  15   58    0 ac0f |    2.014       0       3       0       3     15     15      0   6488     781       1  15    0ac0f a70f     30.330 "
test,1583577040802278144,60," | 60  |   7271       5   7262       0 |   5    0      6795       467 |   3  58    0    0 a40f |    2.777       0       5       0       5     58     58      0   6651     611       2  58    0a40f a70f      9.570 "
test,1583577040803769088,61," | 61  |   7271       5   7257       4 |   4    0      6939       322 |   1  58    0    0 a40f |    2.044       0       5       0       5     58     58      0   6698     563       1  58    0a40f a70f     11.880 "
test,1583577040796133888,7," |  7  |   7271       5   7268       0 |   5    0      7162       106 |   2  58    0    0 a40f |    2.716       0       5       0       5     58     58      0   7115     153       2  58    0a40f a70f      8.880 "
test,1583577040795429888,9," |  9  |   7271       5   7267       0 |   5    0      7023       244 |   2  58    0    0 a40f |    2.746       0       5       0       5     58     58      0   6988     279       2  58    0a40f a70f      8.970 "
