test,1583575409265476864,10," | 10  |    745       5    717       0 |   5    0       707        10 |   1  51    0    0 7b0f |    2.075       0       5       0       5     51     51      0    697      20       1  51    07b0f a70f      8.880 "
test,1583575409270512128,12," | 12  |    745       5    743       0 |   5    0       737         6 |   2  51    0    0 7b0f |    2.777       0       5       0       5     51     51      0    725      18       2  51    07b0f a70f      9.720 "
test,1583575409265042176,13," | 13  |    745       5    741       0 |   5    0       733         8 |   1  51    0    0 7b0f |    2.075       0       5       0       5     51     51      0    723      18       1  51    07b0f a70f      8.160 "
test,1583575409267512064,15," | 15  |    745       5    743       0 |   5    0       717        26 |   3  51    0    0 7b0f |    3.540       0       5       0       5     51     51      0    688      55       3  51    07b0f a70f     10.290 "
test,1583575409262845952,16," | 16  |    745       5    741       0 |   4    0       713        28 |   2  16    0    1 440f |    1.739       0       4       0       4     16     16      0    696      45       2  16    1440f a70f      6.480 "
test,1583575409265295104,17," | 17  |    745       5    741       0 |   5    0       734         7 |   1  16    0    0 440f |    2.746       0       5       0       5     16     16      0    714      27       2  16    0440f a70f      8.850 "
test,1583575409266969856,18," | 18  |    745       5    740       0 |   5    0       693        47 |   5  16    0    0 440f |    3.509       0       5       0       5     16     16      0    661      79       3  16    0440f a70f      9.690 "
test,1583575409278435072,19," | 19  |    745       5    740       1 |   5    0       735         6 |   2  16    0    0 440f |    2.746       0       5       0       5     16     16      0    713      28       2  16    0440f a70f      8.820 "
test,1583575409266407936,1," |  1  |    745       4    742       0 |   5    0       730        12 |   1  51    0    0 7b0f |    2.746       0       5       0       5     51     51      0    724      18       1  51    07b0f a70f      8.880 "
test,1583575409268161024,22," | 22  |    745       5    739       0 |   5    0       732         7 |   4  16    0    0 440f |    2.807       0       5       0       5     16     16      0    696      43       2  16    0440f a70f      9.000 "
test,1583575409261537024,23," | 23  |    745       5    683       0 |   5    0       679         4 |   1  16    0    0 440f |    2.014       0       5       0       5     16     16      0    668      15       1  16    0440f a70f      8.100 "
test,1583575409264908032,24," | 24  |    745       5    741       0 |   5    0       736         5 |   5  16    0    0 440f |    2.777       0       5       0       5     16     16      0    720      21       2  16    0440f a70f      9.000 "
test,1583575409260993024,26," | 26  |    745       5    741       0 |   5    0       738         3 |   1  16    0    0 440f |    2.044       0       5       0       5     16     16      0    726      15       1  16    0440f a70f      8.100 "
test,1583575409266767104,27," | 27  |    745       5    743       0 |   5    0       726        17 |   2  16    0    0 440f |    2.777       0       5       0       5     16     16      0    696      47       2  16    0440f a70f      9.000 "
test,1583575409266292992,28," | 28  |    745       5    741       0 |   5    5       679        62 |   1  30   16    0 590f |    1.983       0       5       0       5     30     30      0    661      80       1  30    0590f a70f      8.910 "
test,1583575409282298112,29," | 29  |    745       4    741       2 |   3    0       654        89 |   5  16    0    0 440f |    0           0       0       0       8      0      0      0    617     126       0  16    0440f a70f     30.360 "
test,1583575409261236992,30," | 30  |    745       5    741       0 |   4    5       733         8 |   5  30   16    1 590f |    1.739       0       4       0       4     30     30      0    718      23       2  30    1590f a70f      6.480 "
test,1583575409273664000,35," | 35  |    745       5    741       0 |   5    5       707        34 |   1  30   16    0 590f |    2.044       0       5       0       5     30     30      0    698      43       1  30    0590f a70f      8.190 "
test,1583575409264372224,40," | 40  |    745       5    717      20 |   5    0       678        59 |   1  44    0    0 260f |    2.777       0       5       0       5     44     44      0    650      87       2  44    0260f a70f      8.970 "
test,1583575409262031104,41," | 41  |    745       5    710      21 |   4    0       723         8 |   4  44    0    0 260f |    2.014       0       5       0       5     44     44      0    706      25       1  44    0260f a70f      8.940 "
test,1583575409264185856,42," | 42  |    745       5    717      24 |   4    1       711        30 |   1  44   16    0 260f |    2.044       0       5       0       5     44     44      0    692      49       1  44    0260f a70f      8.280 "
test,1583575409267283968,44," | 44  |    745       5    722      19 |   4    0       718        23 |   2  44    0    1 260f |    1.739       0       4       0       4     44     44      0    696      45       2  44    1260f a70f      6.480 "
test,1583575409264747008,45," | 45  |    745       5    726      15 |   5    0       705        36 |   2  44    0    0 260f |    2.075       0       5       0       5     44     44      0    686      55       1  44    0260f a70f      8.280 "
test,1583575409261796096,46," | 46  |    745       5    714      20 |   5    0       702        32 |   1  44    0    0 260f |    2.014       0       5       0       5     44     44      0    687      47       1  44    0260f a70f      8.250 "
test,1583575409266107136,47," | 47  |    745       5    721      20 |   5    0       707        34 |   1  44    0    0 260f |    2.075       0       5       0       5     44     44      0    692      49       1  44    0260f a70f      8.190 "
test,1583575409263288064,48," | 48  |    745       5    656      18 |   5    0       650        24 |   1  44    0    0 260f |    2.014       0       5       0       5     44     44      0    628      46       1  44    0260f a70f      8.130 "
test,1583575409269144064,49," | 49  |    745       5    735       0 |   5    0       723        12 |   3  51    0    0 7b0f |    3.540       0       5       0       5     51     51      0    719      16       3  51    07b0f a70f      9.660 "
test,1583575409260782848,51," | 51  |    745       5    736       0 |   4    0       732         4 |   2  51    0    1 7b0f |    1.739       0       4       0       4     51     51      0    730       6       2  51    17b0f a70f      6.480 "
test,1583575409283735040,52," | 52  |    745       5    731       6 |   5    0       701        36 |   1  16    0    0 440f |    2.014       0       4       0       4     16     16      0    685      52       1  16    0440f a70f     30.360 "
test,1583575409266580224,53," | 53  |    745       5    719       0 |   5    0       683        36 |   4  51    0    0 7b0f |    4.211       0       5       0       5     51     51      0    677      42       4  51    07b0f a70f     10.260 "
test,1583575409263663104,54," | 54  |    745       5    737       0 |   5    0       728         9 |   2  51    0    0 7b0f |    2.746       0       5       0       5     51     51      0    711      26       2  51    07b0f a70f      8.970 "
test,1583575409267828992,55," | 55  |    745       5    724       0 |   5    0       692        32 |   3  51    0    0 7b0f |    3.509       0       5       0       5     51     51      0    690      34       3  51    07b0f a70f      9.600 "
test,1583575409262213888,56," | 56  |    745       5    727       0 |   5    0       710        17 |   1  51    0    0 7b0f |    2.075       0       5       0       5     51     51      0    705      22       1  51    07b0f a70f      8.190 "
test,1583575409284271104,57," | 57  |    745       5    682       0 |   2    2       657        25 |   1  51   16    0 7b0f |    2.044       0       2       0       2     51     51      0    614      68       1  51    07b0f a70f     30.360 "
test,1583575409263868928,58," | 58  |    745       5    736       0 |   5    0       726        10 |   2  51    0    0 7b0f |    2.777       0       5       0       5     51     51      0    705      31       2  51    07b0f a70f      9.000 "
test,1583575409263108096,5," |  5  |    745       5    743       0 |   5    0       684        59 |   2  51    0    0 7b0f |    2.746       0       5       0       5     51     51      0    668      75       2  51    07b0f a70f      9.000 "
test,1583575409262424064,60," | 60  |    745       5    736       0 |   5    0       692        44 |   1  51    0    0 7b0f |    2.075       0       5       0       5     51     51      0    685      51       1  51    07b0f a70f      8.280 "
test,1583575409269467136,61," | 61  |    745       5    735       0 |   5    0       706        29 |   3  51    0    0 7b0f |    3.540       0       5       0       5     51     51      0    686      49       3  51    07b0f a70f      9.660 "
test,1583575409265656832,7," |  7  |    745       5    742       0 |   5    0       730        12 |   1  51    0    0 7b0f |    2.075       0       5       0       5     51     51      0    727      15       1  51    07b0f a70f      9.000 "
test,1583575409264561920,9," |  9  |    745       5    741       0 |   5    0       710        31 |   2  51    0    0 7b0f |    2.807       0       5       0       5     51     51      0    706      35       2  51    07b0f a70f      9.000 "
