test,1583577170303348992,10," | 10  |   7789       5   7761       0 |   5    0      7640       121 |   2  49    0    0  10f |    3.540       0       5       0       5     49     49      0   7557     204       3  49    0 10f a70f      9.720 "
test,1583577170303155968,12," | 12  |   7789       5   7753      34 |   5    0      7709        78 |   5  49    0    0  10f |    3.509       0       5       0       5     49     49      0   7574     213       3  49    0 10f a70f     11.160 "
test,1583577170317261824,13," | 13  |   7789       5   7785       0 |   5    9      7724        61 |   1   5   49    0 c90f |    2.014       0       2       0       2      5      5      0   7645     140       1   5    0c90f a70f     30.390 "
test,1583577170320815104,15," | 15  |   7789       5   7744      43 |   5    0      7467       320 |   5  49    0    0  10f |    4.241       0       4       0       4     49     49      0   7112     675       4  49    0 10f a70f     30.240 "
test,1583577170304291072,16," | 16  |   7789       5   7785       0 |   5    0      7494       291 |   3  22    0    0 2a0f |    2.746       0       5       0       5     22     22      0   7295     490       2  22    02a0f a70f      8.910 "
test,1583577170318000128,17," | 17  |   7789       5   7774      11 |   5    0      7681       104 |   2  29    0    0 440f |    0           0       0       0       8      0      0      0   7447     338       0  29    0440f a70f     30.390 "
test,1583577170303533056,18," | 18  |   7789       5   7784       0 |   5    0      7371       413 |   1  22    0    0 2a0f |    2.014       0       5       0       5     22     22      0   7070     714       1  22    02a0f a70f      8.250 "
test,1583577170317605120,19," | 19  |   7789       5   7770      15 |   5    0      7634       151 |   1  29    0    0 440f |    0           0       0       0       8      0      0      0   7423     362       0  29    0440f a70f     30.390 "
test,1583577170302350080,1," |  1  |   7789       4   7786       0 |   5    0      7582       204 |   4  49    0    0  10f |    4.211       0       5       0       5     49     49      0   7531     255       3  49    0 10f a70f     11.670 "
test,1583577170296899072,22," | 22  |   7789       5   7783       0 |   4    0      7716        67 |   4  22    0    1 2a0f |    1.770       0       4       0       4     22     22      0   7372     411       2  22    12a0f a70f      6.510 "
test,1583577170297095168,23," | 23  |   7789       5   7727       0 |   5    0      7692        35 |   4  22    0    0 2a0f |    2.044       0       5       0       5     22     22      0   7543     184       1  22    02a0f a70f      8.160 "
test,1583577170297307136,24," | 24  |   7789       5   7783       2 |   5    0      7697        88 |   1  22    0    0 2a0f |    2.014       0       5       0       5     22     22      0   7502     283       1  22    02a0f a70f      8.220 "
test,1583577170298818048,26," | 26  |   7789       5   7783       2 |   5    0      7754        31 |   1  22    0    0 2a0f |    1.983       0       5       0       5     22     22      0   7612     173       1  22    02a0f a70f      8.220 "
test,1583577170320104960,27," | 27  |   7789       5   7787       0 |   3    2      7557       230 |   1  29   22    0 440f |    1.983       0       4       0       4     29     29      0   7257     530       1  29    0440f a70f     30.390 "
test,1583577170319894016,28," | 28  |   7789       4   7777       8 |   0    7      7169       616 |   0  28   35    1  70f |    0           0       0       0       8      0      0      0   6859     926       0  28    1 70f a70f     30.180 "
test,1583577170322330880,29," | 29  |   7789       4   7776      11 |   2    0      6901       886 |   8  29    0    1 440f |    1.739       0       3       0       3     29     29      0   6566    1221       2  29    1440f a70f     30.300 "
test,1583577170300205824,30," | 30  |   7789       5   7782       3 |   5    1      7677       108 |   1  35   22    0 900f |    1.983       0       5       0       5     35     35      0   7388     397       1  35    0900f a70f      8.190 "
test,1583577170301302016,35," | 35  |   7789       5   7782       3 |   4    1      7408       377 |  11  35   22    1 900f |    1.739       0       4       0       4     35     35      0   7230     555       2  35    1900f a70f      6.510 "
test,1583577170301660928,40," | 40  |   7789       5   7707      74 |   2    3      7341       440 |   2  46   22    0 400f |    2.716       0       5       0       5     46     46      0   7157     624       2  46    0400f a70f      9.570 "
test,1583577170299858176,41," | 41  |   7789       5   7716      59 |   2    3      7705        70 |   1  46   22    0 400f |    1.983       0       5       0       5     46     46      0   7528     247       1  46    0400f a70f      8.790 "
test,1583577170298088960,42," | 42  |   7789       5   7723      62 |   2    2      7645       140 |   1  46   22    0 400f |    2.014       0       5       0       5     46     46      0   7486     299       1  46    0400f a70f      8.250 "
test,1583577170304104960,44," | 44  |   7789       5   7728      57 |   2    5      7645       140 |   1  46   22    0 400f |    2.777       0       5       0       5     46     46      0   7493     292       2  46    0400f a70f     10.230 "
test,1583577170306711808,45," | 45  |   7789       5   7742      43 |   2    4      7549       236 |   2  46   22    0 400f |    2.746       0       5       0       5     46     46      0   7414     371       2  46    0400f a70f      9.690 "
test,1583577170297664000,46," | 46  |   7789       5   7721      57 |   1    0      7402       376 |   4  46    0    1 400f |    1.739       0       4       0       4     46     46      0   7284     494       2  46    1400f a70f      6.480 "
test,1583577170300791040,47," | 47  |   7789       5   7728      57 |   2    0      7540       245 |   2  46    0    0 400f |    1.983       0       5       0       5     46     46      0   7408     377       1  46    0400f a70f      8.130 "
test,1583577170300015872,48," | 48  |   7789       5   7663      55 |   2    2      7557       161 |   1  46   22    0 400f |    1.983       0       5       0       5     46     46      0   7415     303       1  46    0400f a70f      8.880 "
test,1583577170297878016,49," | 49  |   7789       5   7779       0 |   4    0      7630       149 |   2  49    0    1  10f |    1.739       0       4       0       4     49     49      0   7574     205       2  49    1 10f a70f      6.510 "
test,1583577170299657984,51," | 51  |   7789       5   7780       0 |   5    0      7692        88 |   3  49    0    0  10f |    3.540       0       5       0       5     49     49      0   7665     115       3  49    0 10f a70f      9.660 "
test,1583577170300993792,52," | 52  |   7789       5   7750      31 |   5    0      7391       390 |   2  22    0    0 2a0f |    2.777       0       5       0       5     22     22      0   7254     527       2  22    02a0f a70f      9.600 "
test,1583577170305149184,53," | 53  |   7789       5   7763       0 |   5    0      7364       399 |   1  49    0    0  10f |    1.983       0       5       0       5     49     49      0   7284     479       1  49    0 10f a70f      8.220 "
test,1583577170300385024,54," | 54  |   7789       5   7781       0 |   5    0      7654       127 |   2  49    0    0  10f |    2.807       0       5       0       5     49     49      0   7528     253       2  49    0 10f a70f      9.690 "
test,1583577170298397184,55," | 55  |   7789       5   7768       0 |   5    0      7474       294 |   1  49    0    0  10f |    2.044       0       5       0       5     49     49      0   7406     362       1  49    0 10f a70f      8.250 "
test,1583577170299217920,56," | 56  |   7789       5   7771       0 |   5    0      7656       115 |   2  49    0    0  10f |    2.746       0       5       0       5     49     49      0   7561     210       2  49    0 10f a70f      8.850 "
test,1583577170303684096,57," | 57  |   7789       5   7726       0 |   2    2      7525       201 |   3  49   22    0  10f |    3.540       0       5       0       5     49     49      0   7058     668       3  49    0 10f a70f      9.600 "
test,1583577170298580992,58," | 58  |   7789       5   7780       0 |   5    0      7675       105 |   1  49    0    0  10f |    2.044       0       5       0       5     49     49      0   7357     423       1  49    0 10f a70f      8.190 "
test,1583577170318900224,5," |  5  |   7789       5   7787       0 |   4    2      7073       714 |  20   5   49    1 c90f |    1.739       0       2       0       2      5      5      0   6943     844       2   5    1c90f a70f     30.300 "
test,1583577170301500928,60," | 60  |   7789       5   7780       0 |   5    0      7268       512 |   4  49    0    0  10f |    3.540       0       5       0       5     49     49      0   7113     667       3  49    0 10f a70f     10.320 "
test,1583577170299451136,61," | 61  |   7789       5   7772       7 |   5    0      7426       353 |   2  49    0    0  10f |    2.807       0       5       0       5     49     49      0   7164     615       2  49    0 10f a70f      8.880 "
test,1583577170302722816,7," |  7  |   7789       5   7786       0 |   5    0      7668       118 |   4  49    0    0  10f |    3.479       0       5       0       5     49     49      0   7617     169       3  49    0 10f a70f     10.290 "
test,1583577170301908992,9," |  9  |   7789       5   7785       0 |   5    0      7528       257 |   3  49    0    0  10f |    3.509       0       5       0       5     49     49      0   7492     293       3  49    0 10f a70f     10.380 "
