test,1583577112548811008,10," | 10  |   7558       5   7530       0 |   5    0      7412       118 |   1  13    0    0 be0f |    2.044       0       5       0       5     13     13      0   7330     200       1  13    0be0f a70f      8.280 "
test,1583577112549475840,12," | 12  |   7558       5   7522      34 |   5    0      7478        78 |   1  13    0    0 be0f |    2.777       0       5       0       5     13     13      0   7351     205       2  13    0be0f a70f      8.880 "
test,1583577112545612032,13," | 13  |   7558       5   7554       0 |   4    0      7493        61 |   2  13    0    1 be0f |    1.739       0       4       0       4     13     13      0   7416     138       2  13    1be0f a70f      6.480 "
test,1583577112554052096,15," | 15  |   7558       5   7513      43 |   5    0      7244       312 |   2  13    0    0 be0f |    3.479       0       5       0       5     13     13      0   6906     650       3  13    0be0f a70f      9.660 "
test,1583577112551371008,16," | 16  |   7558       5   7554       0 |   5    0      7273       281 |   1  17    0    0  40f |    1.983       0       5       0       5     17     17      0   7078     476       1  17    0 40f a70f      8.940 "
test,1583577112550468864,17," | 17  |   7558       5   7544      10 |   4    0      7455        99 |   2  17    0    1  40f |    1.739       0       4       0       4     17     17      0   7227     327       2  17    1 40f a70f      6.510 "
test,1583577112551558144,18," | 18  |   7558       5   7553       0 |   5    0      7159       394 |   2  17    0    0  40f |    2.685       0       5       0       5     17     17      0   6864     689       2  17    0 40f a70f      8.910 "
test,1583577112554447872,19," | 19  |   7558       5   7540      14 |   5    0      7410       144 |   1  17    0    0  40f |    2.014       0       5       0       5     17     17      0   7204     350       1  17    0 40f a70f      8.880 "
test,1583577112547013120,1," |  1  |   7558       4   7555       0 |   5    0      7356       199 |   1  13    0    0 be0f |    2.716       0       5       0       5     13     13      0   7305     250       1  13    0be0f a70f      8.850 "
test,1583577112550960128,22," | 22  |   7558       5   7552       0 |   5    0      7486        66 |   1  17    0    0  40f |    2.746       0       5       0       5     17     17      0   7153     399       2  17    0 40f a70f      9.690 "
test,1583577112546792960,23," | 23  |   7558       5   7496       0 |   5    1      7464        32 |   1  17   13    0  40f |    1.983       0       5       0       5     17     17      0   7321     175       1  17    0 40f a70f      8.190 "
test,1583577112549259008,24," | 24  |   7558       5   7552       2 |   5    0      7471        83 |   1  17    0    0  40f |    1.953       0       5       0       5     17     17      0   7281     273       1  17    0 40f a70f      8.190 "
test,1583577112548404992,26," | 26  |   7558       5   7552       2 |   5    0      7525        29 |   1  17    0    0  40f |    2.014       0       5       0       5     17     17      0   7386     168       1  17    0 40f a70f      8.100 "
test,1583577112557212160,27," | 27  |   7558       5   7556       0 |   5    0      7333       223 |   1  17    0    0  40f |    2.014       0       5       0       5     17     17      0   7048     508       1  17    0 40f a70f      8.790 "
test,1583577112567524864,28," | 28  |   7558       4   7546       8 |   5    0      6955       599 |   2  35    0    0 6c0f |    2.807       0       4       0       4     35     35      0   6659     895       2  35    06c0f a70f     30.270 "
test,1583577112570156032,29," | 29  |   7558       4   7546      10 |   5    0      6692       864 |   2  17    0    0  40f |    7.141       0       1       0       1     17     17      0   6372    1184       8  17    0 40f a70f     30.360 "
test,1583577112547303936,30," | 30  |   7558       5   7551       3 |   5    0      7448       106 |   1  35    0    0 6c0f |    2.075       0       5       0       5     35     35      0   7171     383       1  35    06c0f a70f      8.310 "
test,1583577112546607872,35," | 35  |   7558       5   7551       3 |   4    0      7187       367 |   2  35    0    1 6c0f |    1.770       0       4       0       4     35     35      0   7019     535       2  35    16c0f a70f      6.510 "
test,1583577112570386944,40," | 40  |   7558       5   7476      74 |   5    3      7131       419 |   2  17   42    0  40f |   10.772       0       3       0       3     17     17      0   6957     593      13  17    0 40f a70f     30.390 "
test,1583577112550290176,41," | 41  |   7558       5   7485      59 |   3    7      7475        69 |   1  42   17    0 c40f |    2.014       0       5       0       5     42     42      0   7305     239       1  42    0c40f a70f      8.280 "
test,1583577112548219904,42," | 42  |   7558       5   7492      62 |   3    7      7419       135 |   2  42   17    1 c40f |    1.739       0       4       0       4     42     42      0   7266     288       2  42    1c40f a70f      6.510 "
test,1583577112568422144,44," | 44  |   7558       5   7497      57 |   5    0      7418       136 |   2  17    0    0  40f |   10.772       0       3       0       3     17     17      0   7271     283      13  17    0 40f a70f     30.390 "
test,1583577112568700160,45," | 45  |   7558       5   7511      43 |   5    0      7323       231 |   3  17    0    0  40f |   10.772       0       3       0       3     17     17      0   7194     360      13  17    0 40f a70f     30.270 "
test,1583577112553337088,46," | 46  |   7558       5   7490      57 |   3    5      7188       359 |   2  42   17    0 c40f |    1.983       0       5       0       5     42     42      0   7074     473       1  42    0c40f a70f      8.940 "
test,1583577112547732992,47," | 47  |   7558       5   7497      57 |   4    7      7318       236 |   1  42   17    0 c40f |    2.014       0       5       0       5     42     42      0   7189     365       1  42    0c40f a70f      8.100 "
test,1583577112570777856,48," | 48  |   7558       5   7432      55 |   5    2      7334       153 |   2  17   42    0  40f |   10.070       0       3       0       3     17     17      0   7199     288      12  17    0 40f a70f     30.300 "
test,1583577112551870976,49," | 49  |   7558       5   7548       0 |   5    0      7404       144 |   1  55    0    0 290f |    2.044       0       5       0       5     55     55      0   7352     196       1  55    0290f a70f      8.280 "
test,1583577112547521024,51," | 51  |   7558       5   7549       0 |   5    0      7462        87 |   1  13    0    0 be0f |    2.777       0       5       0       5     13     13      0   7435     114       2  13    0be0f a70f      9.000 "
test,1583577112550632960,52," | 52  |   7558       5   7520      30 |   5    0      7172       378 |   2  17    0    0  40f |    2.716       0       5       0       5     17     17      0   7040     510       2  17    0 40f a70f      9.570 "
test,1583577112550014976,53," | 53  |   7558       5   7532       0 |   5    0      7140       392 |   1  55    0    0 290f |    2.014       0       5       0       5     55     55      0   7064     468       1  55    0290f a70f      8.220 "
test,1583577112550776064,54," | 54  |   7558       5   7550       0 |   5    0      7425       125 |   1  13    0    0 be0f |    2.044       0       5       0       5     13     13      0   7305     245       1  13    0be0f a70f      8.940 "
test,1583577112552226048,55," | 55  |   7558       5   7537       0 |   4    0      7251       286 |   2  55    0    1 290f |    1.770       0       4       0       4     55     55      0   7190     347       2  55    1290f a70f      6.510 "
test,1583577112546208000,56," | 56  |   7558       5   7540       0 |   5    0      7427       113 |   1  13    0    0 be0f |    2.014       0       5       0       5     13     13      0   7333     207       1  13    0be0f a70f      8.250 "
test,1583577112569092864,57," | 57  |   7558       5   7495       0 |   4    1      7301       194 |   3  13   17    0 be0f |    6.408       0       1       0       1     13     13      0   6844     651       7  13    0be0f a70f     30.360 "
test,1583577112555330048,58," | 58  |   7558       5   7549       0 |   5    0      7448       101 |   1  55    0    0 290f |    2.044       0       5       0       5     55     55      0   7145     404       1  55    0290f a70f     10.440 "
test,1583577112545836800,5," |  5  |   7558       5   7556       0 |   5    0      6868       688 |   1  13    0    0 be0f |    2.014       0       5       0       5     13     13      0   6740     816       1  13    0be0f a70f      8.070 "
test,1583577112548989184,60," | 60  |   7558       5   7549       0 |   5    0      7060       489 |   2  13    0    0 be0f |    3.479       0       5       0       5     13     13      0   6909     640       3  13    0be0f a70f      9.660 "
test,1583577112553818112,61," | 61  |   7558       5   7544       4 |   3    1      7214       334 |   4  55   13    0 290f |    2.777       0       5       0       5     55     55      0   6963     585       2  55    0290f a70f     11.010 "
test,1583577112547990016,7," |  7  |   7558       5   7555       0 |   5    0      7442       113 |   1  13    0    0 be0f |    2.044       0       5       0       5     13     13      0   7392     163       1  13    0be0f a70f      8.280 "
test,1583577112549634816,9," |  9  |   7558       5   7554       0 |   5    0      7304       250 |   1  13    0    0 be0f |    2.044       0       5       0       5     13     13      0   7268     286       1  13    0be0f a70f      8.280 "
