test,1583576983045170176,10," | 10  |   7040       5   7012       0 |   5    0      6898       114 |   1  58    0    0 760f |    2.014       0       5       0       5     58     58      0   6818     194       1  58    0760f a70f      8.100 "
test,1583576983044774144,12," | 12  |   7040       5   7004      34 |   5    0      6962        76 |   1  58    0    0 760f |    2.044       0       5       0       5     58     58      0   6846     192       1  58    0760f a70f      8.310 "
test,1583576983046899200,13," | 13  |   7040       5   7036       0 |   5    0      6977        59 |   2  58    0    0 760f |    2.777       0       5       0       5     58     58      0   6903     133       2  58    0760f a70f      9.000 "
test,1583576983046539008,15," | 15  |   7040       5   6995      43 |   5    0      6751       287 |   2  58    0    0 760f |    2.777       0       5       0       5     58     58      0   6436     602       2  58    0760f a70f      9.000 "
test,1583576983068094976,16," | 16  |   7040       5   7036       0 |   5    0      6772       264 |   2  17    0    0 780f |    2.716       0       4       0       4     17     17      0   6588     448       2  17    0780f a70f     30.390 "
test,1583576983045819904,17," | 17  |   7040       4   7027       9 |   4    0      6939        97 |   2  17    0    1 780f |    1.739       0       4       0       4     17     17      0   6732     304       2  17    1780f a70f      6.510 "
test,1583576983050036992,18," | 18  |   7040       5   7035       0 |   5    0      6671       364 |   2  17    0    0 780f |    2.746       0       5       0       5     17     17      0   6394     641       2  17    0780f a70f      8.940 "
test,1583576983066603776,19," | 19  |   7040       4   7023      13 |   5    0      6904       132 |   1  17    0    0 780f |    2.014       0       4       0       4     17     17      0   6716     320       1  17    0780f a70f     30.390 "
test,1583576983047729920,1," |  1  |   7040       4   7037       0 |   5    0      6851       186 |   2  58    0    0 760f |    4.180       0       5       0       5     58     58      0   6802     235       3  58    0760f a70f     10.200 "
test,1583576983051803136,22," | 22  |   7040       5   7034       0 |   4    1      6971        63 |   2  17   40    0 780f |    2.716       0       5       0       5     17     17      0   6655     379       2  17    0780f a70f      8.850 "
test,1583576983043486208,23," | 23  |   7040       5   6978       0 |   5    0      6949        29 |   1  17    0    0 780f |    1.953       0       5       0       5     17     17      0   6814     164       1  17    0780f a70f      8.190 "
test,1583576983047540992,24," | 24  |   7040       5   7034       2 |   5    0      6958        78 |   1  17    0    0 780f |    2.746       0       5       0       5     17     17      0   6785     251       2  17    0780f a70f      8.940 "
test,1583576983044517888,26," | 26  |   7040       5   7034       2 |   5    0      7008        28 |   1  17    0    0 780f |    2.014       0       5       0       5     17     17      0   6879     157       1  17    0780f a70f      8.160 "
test,1583576983046349056,27," | 27  |   7040       4   7038       0 |   4    1      6830       208 |   1  17   58    0 780f |    2.044       0       5       0       5     17     17      0   6561     477       1  17    0780f a70f      8.820 "
test,1583576983057246976,28," | 28  |   7040       4   7028       8 |   5    0      6480       556 |   1  17    0    0 780f |    2.746       0       5       0       5     17     17      0   6205     831       2  17    0780f a70f     10.410 "
test,1583576983067863040,29," | 29  |   7040       3   7028      10 |   4    0      6214       824 |   2  17    0    0 780f |    4.943       0       3       0       3     17     17      0   5919    1119       5  17    0780f a70f     30.240 "
test,1583576983051065856,30," | 30  |   7040       5   7033       3 |   5    0      6941        95 |   2  17    0    0 780f |    4.974       0       5       0       5     17     17      0   6683     353       5  17    0780f a70f     11.040 "
test,1583576983051461888,35," | 35  |   7040       5   7033       3 |   5    0      6704       332 |   3  17    0    0 780f |    4.943       0       5       0       5     17     17      0   6546     490       5  17    0780f a70f     11.820 "
test,1583576983048978944,40," | 40  |   7040       5   6958      74 |   3    0      6630       402 |  11  40    0    1 7e0f |    1.739       0       4       0       4     40     40      0   6464     568       2  40    17e0f a70f      6.480 "
test,1583576983064975872,41," | 41  |   7040       5   6967      59 |   2    4      6964        62 |   1  17   40    0 780f |    0           0       0       0       8      0      0      0   6801     225       0  17    0780f a70f     30.390 "
test,1583576983043725056,42," | 42  |   7040       5   6974      62 |   5    1      6911       125 |   2  40   17    0 7e0f |    2.014       0       5       0       5     40     40      0   6762     274       1  40    07e0f a70f      8.220 "
test,1583576983047920896,44," | 44  |   7040       5   6979      57 |   5    0      6907       129 |   2  40    0    0 7e0f |    2.044       0       5       0       5     40     40      0   6768     268       1  40    07e0f a70f     10.350 "
test,1583576983050468864,45," | 45  |   7040       5   6993      43 |   5    2      6822       214 |   2  40   17    0 7e0f |    1.983       0       5       0       5     40     40      0   6699     337       1  40    07e0f a70f      9.630 "
test,1583576983046732032,46," | 46  |   7040       5   6972      57 |   4    1      6702       327 |   2  40   17    0 7e0f |    2.746       0       5       0       5     40     40      0   6592     437       2  40    07e0f a70f      8.880 "
test,1583576983045368064,47," | 47  |   7040       5   6979      57 |   5    2      6814       222 |   2  40   17    0 7e0f |    2.716       0       5       0       5     40     40      0   6693     343       2  40    07e0f a70f      8.940 "
test,1583576983052175104,48," | 48  |   7040       5   6914      55 |   4    0      6830       139 |   1  40    0    0 7e0f |    2.014       0       5       0       5     40     40      0   6702     267       1  40    07e0f a70f      8.220 "
test,1583576983048221184,49," | 49  |   7040       5   7030       0 |   5    0      6896       134 |   1  58    0    0 760f |    2.044       0       5       0       5     58     58      0   6849     181       1  58    0760f a70f      8.250 "
test,1583576983056638976,51," | 51  |   7040       5   7031       0 |   5    0      6952        79 |   2  58    0    0 760f |    2.746       0       5       0       5     58     58      0   6927     104       2  58    0760f a70f      8.940 "
test,1583576983068305920,52," | 52  |   7040       2   7003      29 |   3    0      6684       348 |   1  17    0    0 780f |    2.014       0       3       0       3     17     17      0   6560     472       1  17    0780f a70f     30.360 "
test,1583576983047308032,53," | 53  |   7040       5   7014       0 |   5    0      6641       373 |   2  58    0    0 760f |    2.716       0       5       0       5     58     58      0   6573     441       2  58    0760f a70f      8.970 "
test,1583576983049135872,54," | 54  |   7040       5   7032       0 |   5    0      6914       118 |   1  58    0    0 760f |    2.044       0       5       0       5     58     58      0   6803     229       1  58    0760f a70f      8.820 "
test,1583576983044337152,55," | 55  |   7040       5   7019       0 |   5    0      6757       262 |   1  58    0    0 760f |    1.983       0       5       0       5     58     58      0   6702     317       1  58    0760f a70f      8.190 "
test,1583576983044156928,56," | 56  |   7040       5   7022       0 |   5    0      6916       106 |   1  58    0    0 760f |    2.014       0       5       0       5     58     58      0   6832     190       1  58    0760f a70f      8.220 "
test,1583576983066010880,57," | 57  |   7040       3   6977       0 |   4    0      6795       182 |   1  58    0    0 760f |    2.044       0       2       0       2     58     58      0   6359     618       1  58    0760f a70f     30.330 "
test,1583576983049818880,58," | 58  |   7040       4   7031       0 |   4    0      6938        93 |   2  58    0    1 760f |    1.739       0       4       0       4     58     58      0   6653     378       2  58    1760f a70f      7.230 "
test,1583576983048798208,5," |  5  |   7040       5   7038       0 |   4    0      6410       628 |   2  58    0    0 760f |    2.777       0       5       0       5     58     58      0   6286     752       2  58    0760f a70f      8.970 "
test,1583576983049328128,60," | 60  |   7040       5   7031       0 |   5    0      6587       444 |   3  58    0    0 760f |    2.777       0       5       0       5     58     58      0   6447     584       2  58    0760f a70f      9.690 "
test,1583576983049635840,61," | 61  |   7040       5   7026       4 |   5    0      6715       315 |   1  58    0    0 760f |    2.044       0       5       0       5     58     58      0   6481     549       1  58    0760f a70f      8.280 "
test,1583576983054003968,7," |  7  |   7040       5   7037       0 |   5    0      6936       101 |   2  58    0    0 760f |    2.777       0       5       0       5     58     58      0   6888     149       2  58    0760f a70f      9.000 "
test,1583576983045646848,9," |  9  |   7040       5   7036       0 |   5    0      6802       234 |   2  58    0    0 760f |    2.746       0       5       0       5     58     58      0   6767     269       2  58    0760f a70f      8.970 "
