test,1583577133798312960,10," | 10  |   7643       5   7615       0 |   5    0      7497       118 |   1  13    0    0 d30f |    2.044       0       5       0       5     13     13      0   7413     202       1  13    0d30f a70f      8.310 "
test,1583577133800375040,12," | 12  |   7643       5   7607      34 |   5    0      7563        78 |   1  13    0    0 d30f |    2.075       0       5       0       5     13     13      0   7431     210       1  13    0d30f a70f      9.030 "
test,1583577133799973120,13," | 13  |   7643       5   7639       0 |   4    0      7578        61 |   5  13    0    1 d30f |    1.739       0       4       0       4     13     13      0   7500     139       2  13    1d30f a70f      6.510 "
test,1583577133801958144,15," | 15  |   7643       5   7598      43 |   5    0      7327       314 |   2  13    0    0 d30f |    2.777       0       5       0       5     13     13      0   6981     660       2  13    0d30f a70f      9.690 "
test,1583577133796411904,16," | 16  |   7643       5   7639       0 |   4    0      7354       285 |   2  16    0    1 8e0f |    1.739       0       4       0       4     16     16      0   7157     482       2  16    18e0f a70f      6.480 "
test,1583577133804929024,17," | 17  |   7643       5   7629      10 |   5    0      7538       101 |   1  16    0    0 8e0f |    2.105       0       5       0       5     16     16      0   7308     331       1  16    08e0f a70f      8.280 "
test,1583577133798903040,18," | 18  |   7643       5   7638       0 |   5    0      7238       400 |   2  16    0    0 8e0f |    2.838       0       5       0       5     16     16      0   6940     698       2  16    08e0f a70f      9.630 "
test,1583577133800158976,19," | 19  |   7643       5   7625      14 |   5    0      7494       145 |   2  16    0    0 8e0f |    2.838       0       5       0       5     16     16      0   7286     353       2  16    08e0f a70f      8.910 "
test,1583577133800625152,1," |  1  |   7643       4   7640       0 |   5    0      7439       201 |   1  13    0    0 d30f |    2.746       0       5       0       5     13     13      0   7388     252       1  13    0d30f a70f      8.940 "
test,1583577133799144960,22," | 22  |   7643       5   7637       0 |   5    0      7570        67 |   2  16    0    0 8e0f |    2.807       0       5       0       5     16     16      0   7234     403       2  16    08e0f a70f      9.690 "
test,1583577133796948992,23," | 23  |   7643       5   7581       0 |   5    0      7547        34 |   1  16    0    0 8e0f |    2.075       0       5       0       5     16     16      0   7401     180       1  16    08e0f a70f      8.280 "
test,1583577133800955904,24," | 24  |   7643       5   7637       2 |   5    0      7555        84 |   3  16    0    0 8e0f |    2.807       0       5       0       5     16     16      0   7362     277       2  16    08e0f a70f      8.850 "
test,1583577133796236032,26," | 26  |   7643       5   7637       2 |   5    0      7608        31 |   1  16    0    0 8e0f |    2.105       0       5       0       5     16     16      0   7468     171       1  16    08e0f a70f      8.340 "
test,1583577133820410112,27," | 27  |   7643       5   7641       0 |   5    0      7416       225 |   2  16    0    0 8e0f |    4.974       0       3       0       3     16     16      0   7128     513       5  16    08e0f a70f     30.390 "
test,1583577133815067136,28," | 28  |   7643       4   7631       8 |   0    6      7035       604 |   0  28   16    1 940f |    0           0       0       0       8      0      0      0   6731     908       0  28    1940f a70f     30.270 "
test,1583577133818310144,29," | 29  |   7643       5   7630      11 |   0    5      6765       876 |   0  29   16    1 b40f |    0           0       0       0       8      0      0      0   6437    1204       0  29    1b40f a70f     30.240 "
test,1583577133808912128,30," | 30  |   7643       5   7636       3 |   5    0      7531       108 |   4  16    0    0 8e0f |    3.509       0       5       0       5     16     16      0   7248     391       3  16    08e0f a70f     12.600 "
test,1583577133803576832,35," | 35  |   7643       5   7636       3 |   5    0      7269       370 |   3  16    0    0 8e0f |    3.509       0       5       0       5     16     16      0   7097     542       3  16    08e0f a70f     11.760 "
test,1583577133818851840,40," | 40  |   7643       4   7561      74 |   5    0      7206       429 |   4  16    0    0 8e0f |    5.035       0       2       0       2     16     16      0   7027     608       5  16    08e0f a70f     30.300 "
test,1583577133819152128,41," | 41  |   7643       5   7570      59 |   5    0      7560        69 |   1  16    0    0 8e0f |    2.777       0       3       0       3     16     16      0   7389     240       2  16    08e0f a70f     30.360 "
test,1583577133817485056,42," | 42  |   7643       4   7577      62 |   0    6      7501       138 |   0  42   16    1 e30f |    0           0       0       0       8      0      0      0   7345     294       0  42    1e30f a70f     30.210 "
test,1583577133817046016,44," | 44  |   7643       5   7582      57 |   0    9      7500       139 |   0  44   16    1 ad0f |    0           0       0       0       8      0      0      0   7352     287       0  44    1ad0f a70f     30.210 "
test,1583577133819521792,45," | 45  |   7643       5   7596      43 |   5    0      7406       233 |   1  16    0    0 8e0f |    5.004       0       1       0       1     16     16      0   7276     363       5  16    08e0f a70f     30.360 "
test,1583577133820144896,46," | 46  |   7643       5   7575      57 |   5    0      7266       366 |   2  16    0    0 8e0f |    3.570       0       3       0       3     16     16      0   7151     481       3  16    08e0f a70f     30.360 "
test,1583577133822003968,47," | 47  |   7643       5   7582      57 |   5    0      7399       240 |   5  16    0    0 8e0f |    3.570       0       2       0       2     16     16      0   7270     369       3  16    08e0f a70f     30.300 "
test,1583577133819837184,48," | 48  |   7643       5   7517      55 |   5    0      7417       155 |   5  16    0    0 8e0f |    4.974       0       2       0       2     16     16      0   7280     292       5  16    08e0f a70f     30.360 "
test,1583577133797241856,49," | 49  |   7643       5   7633       0 |   5    0      7485       148 |   1  55    0    0 480f |    2.014       0       5       0       5     55     55      0   7432     201       1  55    0480f a70f      8.070 "
test,1583577133795993088,51," | 51  |   7643       5   7634       0 |   5    0      7547        87 |   1  13    0    0 d30f |    2.075       0       5       0       5     13     13      0   7520     114       1  13    0d30f a70f      8.160 "
test,1583577133799810048,52," | 52  |   7643       5   7604      31 |   5    0      7253       382 |   1  16    0    0 8e0f |    2.044       0       5       0       5     16     16      0   7117     518       1  16    08e0f a70f      9.000 "
test,1583577133797411072,53," | 53  |   7643       5   7617       0 |   5    0      7220       397 |   1  55    0    0 480f |    2.014       0       5       0       5     55     55      0   7144     473       1  55    0480f a70f      8.070 "
test,1583577133802210048,54," | 54  |   7643       5   7635       0 |   3    1      7510       125 |   1  13   55    0 d30f |    2.075       0       5       0       5     13     13      0   7386     249       1  13    0d30f a70f      9.060 "
test,1583577133797779200,55," | 55  |   7643       5   7622       0 |   5    0      7333       289 |   2  55    0    1 480f |    1.739       0       4       0       4     55     55      0   7269     353       2  55    1480f a70f      6.480 "
test,1583577133798502912,56," | 56  |   7643       5   7625       0 |   5    0      7511       114 |   1  13    0    0 d30f |    2.075       0       5       0       5     13     13      0   7417     208       1  13    0d30f a70f      9.000 "
test,1583577133818572032,57," | 57  |   7643       5   7580       0 |   5    0      7384       196 |   2  13    0    0 d30f |    5.004       0       4       0       4     13     13      0   6927     653       5  13    0d30f a70f     30.270 "
test,1583577133797956096,58," | 58  |   7643       4   7634       0 |   5    0      7532       102 |   1  55    0    0 480f |    2.044       0       5       0       5     55     55      0   7222     412       1  55    0480f a70f      8.820 "
test,1583577133801214976,5," |  5  |   7643       5   7641       0 |   5    0      6939       702 |   1  13    0    0 d30f |    2.075       0       5       0       5     13     13      0   6810     831       1  13    0d30f a70f      8.190 "
test,1583577133805414912,60," | 60  |   7643       5   7634       0 |   5    0      7135       499 |   2  13    0    0 d30f |    2.807       0       5       0       5     13     13      0   6982     652       2  13    0d30f a70f      9.000 "
test,1583577133801389056,61," | 61  |   7643       5   7627       6 |   5    0      7292       341 |   2  55    0    0 480f |    2.746       0       5       0       5     55     55      0   7036     597       2  55    0480f a70f      9.720 "
test,1583577133796723968,7," |  7  |   7643       5   7640       0 |   5    0      7527       113 |   1  13    0    0 d30f |    2.075       0       5       0       5     13     13      0   7476     164       1  13    0d30f a70f      8.190 "
test,1583577133797580032,9," |  9  |   7643       5   7639       0 |   5    0      7387       252 |   1  13    0    0 d30f |    2.105       0       5       0       5     13     13      0   7350     289       1  13    0d30f a70f      8.940 "
