test,1583577015551311872,10," | 10  |   7170       5   7142       0 |   4    0      7028       114 |   2  10    0    1 730f |    1.739       0       4       0       4     10     10      0   6948     194       2  10    1730f a70f      6.510 "
test,1583577015545867008,12," | 12  |   7170       5   7134      34 |   5    0      7091        77 |   1  10    0    0 730f |    2.044       0       5       0       5     10     10      0   6973     195       1  10    0730f a70f      8.160 "
test,1583577015544455168,13," | 13  |   7170       5   7166       0 |   5    0      7106        60 |   1  10    0    0 730f |    2.044       0       5       0       5     10     10      0   7032     134       1  10    0730f a70f      8.160 "
test,1583577015552165120,15," | 15  |   7170       5   7125      43 |   5    0      6871       297 |   2  10    0    0 730f |    2.014       0       5       0       5     10     10      0   6555     613       1  10    0730f a70f      8.850 "
test,1583577015560820992,16," | 16  |   7170       5   7166       0 |   4    2      6901       265 |   8  16   22    1 180f |    1.739       0       4       0       4     16     16      0   6715     451       2  16    1180f a70f      6.510 "
test,1583577015549884160,17," | 17  |   7170       5   7156      10 |   5    0      7069        97 |   1  22    0    0 500f |    2.746       0       5       0       5     22     22      0   6858     308       2  22    0500f a70f      8.970 "
test,1583577015549263872,18," | 18  |   7170       5   7165       0 |   5    0      6795       370 |   1  22    0    0 500f |    2.014       0       5       0       5     22     22      0   6515     650       1  22    0500f a70f      8.970 "
test,1583577015568922112,19," | 19  |   7170       5   7152      14 |   5    0      7032       134 |   1  22    0    0 500f |    4.974       0       4       0       4     22     22      0   6839     327       5  22    0500f a70f     30.390 "
test,1583577015550076928,1," |  1  |   7170       4   7167       0 |   5    0      6977       190 |   1  10    0    0 730f |    2.716       0       5       0       5     10     10      0   6928     239       1  10    0730f a70f      8.910 "
test,1583577015548502016,22," | 22  |   7170       5   7164       0 |   4    0      7100        64 |   2  22    0    1 500f |    1.770       0       4       0       4     22     22      0   6779     385       2  22    1500f a70f      7.230 "
test,1583577015547651072,23," | 23  |   7170       5   7108       0 |   5    5      7079        29 |   1  16   22    0 180f |    2.044       0       5       0       5     16     16      0   6943     165       1  16    0180f a70f      8.250 "
test,1583577015547086848,24," | 24  |   7170       5   7164       2 |   5    0      7086        80 |   1  22    0    0 500f |    2.075       0       5       0       5     22     22      0   6906     260       1  22    0500f a70f      8.160 "
test,1583577015544705024,26," | 26  |   7170       5   7164       2 |   5    0      7138        28 |   1  22    0    0 500f |    2.044       0       5       0       5     22     22      0   7009     157       1  22    0500f a70f      8.280 "
test,1583577015568107008,27," | 27  |   7170       5   7168       0 |   4    3      6955       213 |   3  22   16    0 500f |    3.509       0       2       0       2     22     22      0   6684     484       3  22    0500f a70f     30.360 "
test,1583577015547328000,28," | 28  |   7170       5   7158       8 |   5    0      6600       566 |   1  22    0    0 500f |    2.044       0       5       0       5     22     22      0   6323     843       1  22    0500f a70f      8.970 "
test,1583577015568738048,29," | 29  |   7170       5   7158      10 |   2    0      6333       835 |   2  22    0    0 500f |    5.737       0       4       0       4     22     22      0   6034    1134       6  22    0500f a70f     30.240 "
test,1583577015545488128,30," | 30  |   7170       5   7163       3 |   5    0      7067        99 |   1  22    0    0 500f |    2.014       0       5       0       5     22     22      0   6804     362       1  22    0500f a70f      8.220 "
test,1583577015546710016,35," | 35  |   7170       5   7163       3 |   5    0      6827       339 |   1  22    0    0 500f |    2.044       0       5       0       5     22     22      0   6666     500       1  22    0500f a70f      8.970 "
test,1583577015566284032,40," | 40  |   7170       5   7088      74 |   5    0      6755       407 |   4  41    0    0 360f |    3.479       0       1       0       1     41     41      0   6589     573       3  41    0360f a70f     30.390 "
test,1583577015565876992,41," | 41  |   7170       5   7097      59 |   4    0      7094        62 |   5  41    0    1 360f |    1.739       0       1       0       1     41     41      0   6931     225       2  41    1360f a70f     30.300 "
test,1583577015564704768,42," | 42  |   7170       5   7104      62 |   1    9      7039       127 |  12  41   47    0 360f |    1.983       0       2       0       2     41     41      0   6890     276       1  41    0360f a70f     30.360 "
test,1583577015566593792,44," | 44  |   7170       5   7109      57 |   5    0      7034       132 |   1  45    0    0 440f |    1.983       0       4       0       4     45     45      0   6895     271       1  45    0440f a70f     30.300 "
test,1583577015550860032,45," | 45  |   7170       5   7123      43 |   4    0      6951       215 |   5  45    0    1 440f |    1.770       0       4       0       4     45     45      0   6827     339       2  45    1440f a70f      6.510 "
test,1583577015566945024,46," | 46  |   7170       5   7102      57 |   5    0      6827       332 |   4  41    0    0 360f |    1.983       0       2       0       2     41     41      0   6718     441       1  41    0360f a70f     30.360 "
test,1583577015565403904,47," | 47  |   7170       5   7109      57 |   4    6      6940       226 |   8  47   41    1 660f |    5.981       0       1       0       1     47     47      0   6818     348       8  47    1660f a70f     30.240 "
test,1583577015567168000,48," | 48  |   7170       5   7044      55 |   5    2      6954       145 |   1  47   41    0 660f |    2.044       0       2       0       2     47     47      0   6825     274       1  47    0660f a70f     30.330 "
test,1583577015544908032,49," | 49  |   7170       5   7160       0 |   5    0      7025       135 |   1  55    0    0 870f |    2.014       0       5       0       5     55     55      0   6976     184       1  55    0870f a70f      8.160 "
test,1583577015546014976,51," | 51  |   7170       5   7161       0 |   5    0      7079        82 |   1  10    0    0 730f |    2.014       0       5       0       5     10     10      0   7054     107       1  10    0730f a70f      8.280 "
test,1583577015568593152,52," | 52  |   7170       5   7133      29 |   5    3      6808       354 |   1  16   22    0 180f |    2.014       0       4       0       4     16     16      0   6683     479       1  16    0180f a70f     30.270 "
test,1583577015554255872,53," | 53  |   7170       5   7144       0 |   5    0      6770       374 |   1  55    0    0 870f |    2.014       0       5       0       5     55     55      0   6699     445       1  55    0870f a70f      8.250 "
test,1583577015548852992,54," | 54  |   7170       5   7162       0 |   5    0      7043       119 |   1  10    0    0 730f |    2.014       0       5       0       5     10     10      0   6930     232       1  10    0730f a70f      8.970 "
test,1583577015544115968,55," | 55  |   7170       5   7149       0 |   4    0      6882       267 |   2  55    0    1 870f |    1.770       0       4       0       4     55     55      0   6824     325       2  55    1870f a70f      6.510 "
test,1583577015546531072,56," | 56  |   7170       5   7152       0 |   5    0      7044       108 |   1  10    0    0 730f |    2.044       0       5       0       5     10     10      0   6957     195       1  10    0730f a70f      8.250 "
test,1583577015567681024,57," | 57  |   7170       5   7107       0 |   1    4      6922       185 |   1  22   16    0 500f |    2.044       0       1       0       1     22     22      0   6486     621       1  22    0500f a70f     30.390 "
test,1583577015557063168,58," | 58  |   7170       5   7161       0 |   5    0      7066        95 |   1  55    0    0 870f |    2.014       0       5       0       5     55     55      0   6776     385       1  55    0870f a70f      8.790 "
test,1583577015549398016,5," |  5  |   7170       5   7168       0 |   5    0      6523       645 |   2  10    0    0 730f |    2.807       0       5       0       5     10     10      0   6398     770       2  10    0730f a70f      8.970 "
test,1583577015549742080,60," | 60  |   7170       5   7161       0 |   5    0      6706       455 |   2  10    0    0 730f |    2.777       0       5       0       5     10     10      0   6563     598       2  10    0730f a70f      8.820 "
test,1583577015545144064,61," | 61  |   7170       5   7156       4 |   5    0      6841       319 |   2  55    0    0 870f |    2.746       0       5       0       5     55     55      0   6603     557       2  55    0870f a70f      9.660 "
test,1583577015546173184,7," |  7  |   7170       5   7167       0 |   5    0      7063       104 |   1  10    0    0 730f |    2.075       0       5       0       5     10     10      0   7015     152       1  10    0730f a70f      8.850 "
test,1583577015546358016,9," |  9  |   7170       5   7166       0 |   5    0      6925       241 |   1  10    0    0 730f |    2.044       0       5       0       5     10     10      0   6890     276       1  10    0730f a70f      8.190 "
