test,1583577132301028096,10," | 10  |   7637       5   7609       0 |   5    0      7491       118 |   1  12    0    0  40f |    2.044       0       5       0       5     12     12      0   7407     202       1  12    0 40f a70f      8.250 "
test,1583577132295665920,12," | 12  |   7637       5   7601      34 |   4    0      7557        78 |   2  12    0    1  40f |    1.739       0       4       0       4     12     12      0   7425     210       2  12    1 40f a70f      6.510 "
test,1583577132296843008,13," | 13  |   7637       5   7633       0 |   5    0      7572        61 |   1  12    0    0  40f |    2.044       0       5       0       5     12     12      0   7494     139       1  12    0 40f a70f      8.160 "
test,1583577132304697088,15," | 15  |   7637       5   7592      43 |   5    0      7321       314 |   1  12    0    0  40f |    2.044       0       5       0       5     12     12      0   6975     660       1  12    0 40f a70f      8.220 "
test,1583577132299584000,16," | 16  |   7637       5   7633       0 |   5    0      7348       285 |   1  26    0    0 7d0f |    2.014       0       5       0       5     26     26      0   7151     482       1  26    07d0f a70f      9.690 "
test,1583577132301207040,17," | 17  |   7637       5   7623      10 |   5    0      7532       101 |   1  26    0    0 7d0f |    2.014       0       5       0       5     26     26      0   7302     331       1  26    07d0f a70f      9.690 "
test,1583577132302109952,18," | 18  |   7637       5   7632       0 |   5    0      7232       400 |   1  26    0    0 7d0f |    1.983       0       5       0       5     26     26      0   6934     698       1  26    07d0f a70f     10.200 "
test,1583577132299031040,19," | 19  |   7637       5   7619      14 |   5    0      7488       145 |   1  26    0    0 7d0f |    2.014       0       5       0       5     26     26      0   7280     353       1  26    07d0f a70f      8.130 "
test,1583577132297010944,1," |  1  |   7637       4   7634       0 |   5    0      7433       201 |   1  12    0    0  40f |    2.685       0       5       0       5     12     12      0   7382     252       1  12    0 40f a70f      8.760 "
test,1583577132304332032,22," | 22  |   7637       5   7631       0 |   5    0      7564        67 |   1  26    0    0 7d0f |    1.983       0       5       0       5     26     26      0   7228     403       1  26    07d0f a70f     11.100 "
test,1583577132298171136,23," | 23  |   7637       5   7575       0 |   5    0      7541        34 |   1  26    0    0 7d0f |    2.014       0       5       0       5     26     26      0   7395     180       1  26    07d0f a70f      8.220 "
test,1583577132302920960,24," | 24  |   7637       5   7631       2 |   5    0      7549        84 |   1  26    0    0 7d0f |    1.983       0       5       0       5     26     26      0   7356     277       1  26    07d0f a70f     10.980 "
test,1583577132305021952,26," | 26  |   7637       5   7631       2 |   4    0      7602        31 |   2  26    0    1 7d0f |    5.401       0       4       0       4     26     26      0   7462     171       7  26    17d0f a70f     12.240 "
test,1583577132298641920,27," | 27  |   7637       5   7635       0 |   4    0      7410       225 |   4  26    0    0 7d0f |    2.716       0       5       0       5     26     26      0   7122     513       2  26    07d0f a70f      8.940 "
test,1583577132318972160,28," | 28  |   7637       5   7625       8 |   5    0      7030       603 |   6  26    0    0 7d0f |    3.448       0       4       0       4     26     26      0   6726     907       3  26    07d0f a70f     30.300 "
test,1583577132319885056,29," | 29  |   7637       4   7624      11 |   1    0      6761       874 |   2  26    0    0 7d0f |    3.479       0       4       0       4     26     26      0   6434    1201       3  26    07d0f a70f     30.270 "
test,1583577132311940864,30," | 30  |   7637       5   7630       3 |   5    0      7525       108 |   2  26    0    0 7d0f |    3.448       0       5       0       5     26     26      0   7242     391       3  26    07d0f a70f      9.510 "
test,1583577132300632064,35," | 35  |   7637       5   7630       3 |   5    0      7263       370 |   2  26    0    0 7d0f |    2.716       0       5       0       5     26     26      0   7091     542       2  26    07d0f a70f      8.820 "
test,1583577132300813056,40," | 40  |   7637       5   7555      74 |   5    0      7200       429 |   3  26    0    0 7d0f |    2.716       0       5       0       5     26     26      0   7021     608       2  26    07d0f a70f      9.630 "
test,1583577132320121088,41," | 41  |   7637       4   7564      59 |   5    0      7554        69 |   3  26    0    0 7d0f |    2.746       0       4       0       4     26     26      0   7383     240       2  26    07d0f a70f     30.270 "
test,1583577132303596032,42," | 42  |   7637       5   7571      62 |   5    0      7496       137 |   3  26    0    0 7d0f |    2.746       0       5       0       5     26     26      0   7340     293       2  26    07d0f a70f      9.570 "
test,1583577132306081024,44," | 44  |   7637       5   7576      57 |   5    0      7495       138 |   1  26    0    0 7d0f |    2.014       0       5       0       5     26     26      0   7347     286       1  26    07d0f a70f      9.690 "
test,1583577132302584832,45," | 45  |   7637       5   7590      43 |   5    0      7400       233 |   2  26    0    0 7d0f |    2.746       0       5       0       5     26     26      0   7270     363       2  26    07d0f a70f      9.540 "
test,1583577132301424896,46," | 46  |   7637       5   7569      57 |   5    0      7260       366 |   3  26    0    0 7d0f |    2.746       0       5       0       5     26     26      0   7145     481       2  26    07d0f a70f     10.380 "
test,1583577132299348224,47," | 47  |   7637       5   7576      57 |   5    0      7394       239 |   3  26    0    0 7d0f |    2.716       0       5       0       5     26     26      0   7265     368       2  26    07d0f a70f      9.660 "
test,1583577132299751168,48," | 48  |   7637       5   7511      55 |   5    0      7411       155 |   2  26    0    0 7d0f |    2.716       0       5       0       5     26     26      0   7274     292       2  26    07d0f a70f      8.760 "
test,1583577132297359104,49," | 49  |   7637       5   7627       0 |   5    0      7479       148 |   1  53    0    0 470f |    2.044       0       5       0       5     53     53      0   7426     201       1  53    0470f a70f      8.190 "
test,1583577132302414848,51," | 51  |   7637       5   7628       0 |   5    0      7541        87 |   2  12    0    0  40f |    2.746       0       5       0       5     12     12      0   7514     114       2  12    0 40f a70f      8.970 "
test,1583577132313947904,52," | 52  |   7637       3   7598      31 |   5    0      7247       382 |   1  26    0    0 7d0f |    2.014       0       5       0       5     26     26      0   7111     518       1  26    07d0f a70f     12.450 "
test,1583577132295896064,53," | 53  |   7637       5   7611       0 |   5    0      7214       397 |   2  53    0    1 470f |    1.739       0       4       0       4     53     53      0   7138     473       2  53    1470f a70f      6.480 "
test,1583577132296331008,54," | 54  |   7637       5   7629       0 |   3    2      7504       125 |   2  12   26    0  40f |    2.014       0       5       0       5     12     12      0   7380     249       1  12    0 40f a70f      8.190 "
test,1583577132297202944,55," | 55  |   7637       5   7616       0 |   5    0      7327       289 |   1  53    0    0 470f |    2.044       0       5       0       5     53     53      0   7263     353       1  53    0470f a70f      8.280 "
test,1583577132298433024,56," | 56  |   7637       5   7619       0 |   5    0      7505       114 |   2  26    0    0 7d0f |    2.685       0       5       0       5     26     26      0   7411     208       2  26    07d0f a70f      8.730 "
test,1583577132302753024,57," | 57  |   7637       5   7574       0 |   5    0      7378       196 |   1  26    0    0 7d0f |    2.014       0       5       0       5     26     26      0   6921     653       1  26    07d0f a70f      8.280 "
test,1583577132298834944,58," | 58  |   7637       5   7628       0 |   5    0      7526       102 |   3  26    0    0 7d0f |    3.448       0       5       0       5     26     26      0   7216     412       3  26    07d0f a70f      9.660 "
test,1583577132297852928,5," |  5  |   7637       5   7635       0 |   5    0      6934       701 |   1  12    0    0  40f |    2.014       0       5       0       5     12     12      0   6805     830       1  12    0 40f a70f      8.100 "
test,1583577132317966848,60," | 60  |   7637       5   7628       0 |   0    3      7131       497 |   0  60   12    1 e10f |    0           0       0       0       8      0      0      0   6978     650       0  60    1e10f a70f     30.180 "
test,1583577132306281216,61," | 61  |   7637       5   7621       6 |   5    0      7286       341 |   2  26    0    0 7d0f |    3.448       0       5       0       5     26     26      0   7030     597       3  26    07d0f a70f     10.380 "
test,1583577132296636160,7," |  7  |   7637       5   7634       0 |   5    0      7521       113 |   1  12    0    0  40f |    2.044       0       5       0       5     12     12      0   7470     164       1  12    0 40f a70f      8.280 "
test,1583577132301615872,9," |  9  |   7637       5   7633       0 |   5    0      7381       252 |   1  12    0    0  40f |    1.983       0       5       0       5     12     12      0   7344     289       1  12    0 40f a70f      8.220 "
