test,1583577040067392000,10," | 10  |   7268       5   7240       0 |   5    4      7125       115 |   1   9    1    0 a80f |    1.983       0       1       0       1      9      9      0   7045     195       1   9    0a80f a70f     30.360 "
test,1583577040044604928,12," | 12  |   7268       5   7232      34 |   5    0      7188        78 |   1   1    0    0 220f |    1.403       0       5       0       5      1      1      0   7069     197       1   1    0220f a70f      8.220 "
test,1583577040045250816,13," | 13  |   7268       5   7264       0 |   5    0      7204        60 |   1   1    0    0 220f |    1.373       0       5       0       5      1      1      0   7130     134       1   1    0220f a70f      8.190 "
test,1583577040069376000,15," | 15  |   7268       5   7223      43 |   5    4      6965       301 |   1  20    1    0 3c0f |   12.695       0       4       0       4     20     20      0   6642     624      16  20    03c0f a70f     30.270 "
test,1583577040062731008,16," | 16  |   7268       5   7264       0 |   5    0      6995       269 |   4  20    0    0 3c0f |   14.862       0       5       0       5     20     20      0   6807     457      19  20    03c0f a70f     20.820 "
test,1583577040065073920,17," | 17  |   7268       5   7254      10 |   5    0      7166        98 |   2  20    0    0 3c0f |   14.160       0       5       0       5     20     20      0   6949     315      18  20    03c0f a70f     22.320 "
test,1583577040063527168,18," | 18  |   7268       5   7263       0 |   5    0      6878       385 |   2  20    0    0 3c0f |   14.862       0       5       0       5     20     20      0   6593     670      19  20    03c0f a70f     21.600 "
test,1583577040068749824,19," | 19  |   7268       5   7250      14 |   5    0      7125       139 |   2  20    0    0 3c0f |   16.326       0       4       0       4     20     20      0   6925     339      21  20    03c0f a70f     30.390 "
test,1583577040047008000,1," |  1  |   7268       4   7265       0 |   4    0      7071       194 |   2   1    0    1 220f |    3.814       0       4       0       4      1      1      0   7022     243       5   1    1220f a70f      8.520 "
test,1583577040062320896,22," | 22  |   7268       5   7262       0 |   5    0      7196        66 |   1  20    0    0 3c0f |   14.862       0       5       0       5     20     20      0   6869     393      19  20    03c0f a70f     20.880 "
test,1583577040059032064,23," | 23  |   7268       5   7206       0 |   5    0      7176        30 |   3  20    0    0 3c0f |   14.099       0       5       0       5     20     20      0   7038     168      18  20    03c0f a70f     19.980 "
test,1583577040062528000,24," | 24  |   7268       5   7262       2 |   5    0      7184        80 |   1  20    0    0 3c0f |   14.862       0       5       0       5     20     20      0   7000     264      19  20    03c0f a70f     20.850 "
test,1583577040060463872,26," | 26  |   7268       5   7262       2 |   5    0      7235        29 |   2  20    0    0 3c0f |   14.862       0       5       0       5     20     20      0   7102     162      19  20    03c0f a70f     21.510 "
test,1583577040053093888,27," | 27  |   7268       5   7266       0 |   5    0      7051       215 |   3  20    0    0 3c0f |   13.366       0       5       0       5     20     20      0   6775     491      17  20    03c0f a70f     19.410 "
test,1583577040064732928,28," | 28  |   7268       5   7256       8 |   4    4      6690       574 |   2  20   35    0 3c0f |   14.831       0       5       0       5     20     20      0   6411     853      19  20    03c0f a70f     22.980 "
test,1583577040058685952,29," | 29  |   7268       5   7256      10 |   5    0      6424       842 |   3  20    0    0 3c0f |   14.129       0       5       0       5     20     20      0   6114    1152      18  20    03c0f a70f     22.350 "
test,1583577040068196096,30," | 30  |   7268       5   7261       3 |   5    0      7165        99 |   1  20    0    0 3c0f |   14.099       0       3       0       3     20     20      0   6897     367      18  20    03c0f a70f     30.270 "
test,1583577040065797120,35," | 35  |   7268       5   7261       3 |   0    8      6918       346 |   0  35   20    1 eb0f |    0           0       0       0       8      0      0      0   6754     510       0  35    1eb0f a70f     30.180 "
test,1583577040049363968,40," | 40  |   7268       4   7186      74 |   5    0      6851       409 |   2  45    0    0 5a0f |    2.746       0       5       0       5     45     45      0   6683     577       2  45    05a0f a70f      9.510 "
test,1583577040048417024,41," | 41  |   7268       5   7195      59 |   5    0      7191        63 |   1  45    0    0 5a0f |    2.746       0       5       0       5     45     45      0   7027     227       2  45    05a0f a70f      9.660 "
test,1583577040049912064,42," | 42  |   7268       5   7202      62 |   5    0      7137       127 |   2  45    0    0 5a0f |    2.777       0       5       0       5     45     45      0   6986     278       2  45    05a0f a70f      9.690 "
test,1583577040048235008,44," | 44  |   7268       5   7207      57 |   5    0      7132       132 |   1  45    0    0 5a0f |    2.014       0       5       0       5     45     45      0   6991     273       1  45    05a0f a70f      8.100 "
test,1583577040039917056,45," | 45  |   7268       5   7221      43 |   4    0      7044       220 |   2  45    0    1 5a0f |    1.739       0       4       0       4     45     45      0   6919     345       2  45    15a0f a70f      6.480 "
test,1583577040051867904,46," | 46  |   7268       5   7200      57 |   5    0      6918       339 |   1  45    0    0 5a0f |    2.746       0       5       0       5     45     45      0   6808     449       2  45    05a0f a70f      9.690 "
test,1583577040052179968,47," | 47  |   7268       5   7207      57 |   5    0      7035       229 |   1  45    0    0 5a0f |    2.014       0       5       0       5     45     45      0   6912     352       1  45    05a0f a70f      8.130 "
test,1583577040054408960,48," | 48  |   7268       5   7142      55 |   5    0      7051       146 |   1  45    0    0 5a0f |    1.983       0       5       0       5     45     45      0   6918     279       1  45    05a0f a70f      8.820 "
test,1583577040050169088,49," | 49  |   7268       5   7258       0 |   5    0      7122       136 |   2  56    0    0 630f |    4.272       0       5       0       5     56     56      0   7070     188       4  56    0630f a70f     10.380 "
test,1583577040045991936,51," | 51  |   7268       5   7259       0 |   5    0      7175        84 |   1  56    0    0 630f |    2.044       0       5       0       5     56     56      0   7149     110       1  56    0630f a70f      8.310 "
test,1583577040056824832,52," | 52  |   7268       3   7231      29 |   5    0      6901       359 |   2  20    0    0 3c0f |   14.862       0       5       0       5     20     20      0   6775     485      19  20    03c0f a70f     22.290 "
test,1583577040049633024,53," | 53  |   7268       5   7242       0 |   5    0      6862       380 |   3  56    0    0 630f |    4.943       0       5       0       5     56     56      0   6788     454       5  56    0630f a70f     11.010 "
test,1583577040047890944,54," | 54  |   7268       5   7260       0 |   4    8      7140       120 |   3   1    9    0 220f |    1.373       0       5       0       5      1      1      0   7026     234       1   1    0220f a70f      8.880 "
test,1583577040049196032,55," | 55  |   7268       5   7247       0 |   5    0      6977       270 |   2  56    0    0 630f |    4.211       0       5       0       5     56     56      0   6917     330       4  56    0630f a70f     10.380 "
test,1583577040046160896,56," | 56  |   7268       5   7250       0 |   4    0      7141       109 |   2  56    0    1 630f |    1.770       0       4       0       4     56     56      0   7051     199       2  56    1630f a70f      6.510 "
test,1583577040053850880,57," | 57  |   7268       3   7205       0 |   1    5      7018       187 |   1  56   20    0 630f |    2.075       0       5       0       5     56     56      0   6577     628       1  56    0630f a70f      8.190 "
test,1583577040067922176,58," | 58  |   7268       5   7259       0 |   5    0      7163        96 |   1  56    0    0 630f |    3.509       0       4       0       4     56     56      0   6867     392       3  56    0630f a70f     30.300 "
test,1583577040044780032,5," |  5  |   7268       5   7266       0 |   4    3      6612       654 |   4   1   20    0 220f |    2.075       0       5       0       5      1      1      0   6485     781       2   1    0220f a70f      8.880 "
test,1583577040047418112,60," | 60  |   7268       5   7259       0 |   5    0      6792       467 |   1  56    0    0 630f |    2.044       0       5       0       5     56     56      0   6648     611       1  56    0630f a70f      8.970 "
test,1583577040055005952,61," | 61  |   7268       5   7254       4 |   5    0      6936       322 |   1  56    0    0 630f |    2.777       0       5       0       5     56     56      0   6695     563       2  56    0630f a70f     13.200 "
test,1583577040048700160,7," |  7  |   7268       5   7265       0 |   5    0      7159       106 |   1   1    0    0 220f |    1.403       0       5       0       5      1      1      0   7112     153       1   1    0220f a70f      8.220 "
test,1583577040067688960,9," |  9  |   7268       5   7264       0 |   4    8      7020       244 |   5   9    1    1 a80f |    1.739       0       1       0       1      9      9      0   6985     279       2   9    1a80f a70f     30.300 "
