test,1583577088548976896,10," | 10  |   7462       5   7434       0 |   5    0      7318       116 |   2  60    0    0 930f |    2.777       0       5       0       5     60     60      0   7234     200       2  60    0930f a70f      9.690 "
test,1583577088566428928,12," | 12  |   7462       5   7426      34 |   4    9      7382        78 |   2  20   60    0 510f |    2.746       0       3       0       3     20     20      0   7256     204       2  20    0510f a70f     30.390 "
test,1583577088547977984,13," | 13  |   7462       5   7458       0 |   5    0      7397        61 |   2  60    0    0 930f |    2.777       0       5       0       5     60     60      0   7321     137       2  60    0930f a70f      9.570 "
test,1583577088561184000,15," | 15  |   7462       5   7417      43 |   5    1      7150       310 |   1  20   60    0 510f |    2.014       0       5       0       5     20     20      0   6818     642       1  20    0510f a70f     12.570 "
test,1583577088568854016,16," | 16  |   7462       5   7458       0 |   4    0      7181       277 |   3  19    0    0 960f |    4.211       0       2       0       2     19     19      0   6990     468       4  19    0960f a70f     30.390 "
test,1583577088552915968,17," | 17  |   7462       5   7448      10 |   5    0      7360        98 |   1  19    0    0 960f |    2.014       0       5       0       5     19     19      0   7136     322       1  19    0960f a70f      8.970 "
test,1583577088550852096,18," | 18  |   7462       5   7457       0 |   5    0      7068       389 |   3  19    0    0 960f |    2.014       0       5       0       5     19     19      0   6776     681       1  19    0960f a70f      8.100 "
test,1583577088553147904,19," | 19  |   7462       5   7444      14 |   5    0      7314       144 |   2  19    0    1 960f |    1.739       0       4       0       4     19     19      0   7109     349       2  19    1960f a70f      7.950 "
test,1583577088553828864,1," |  1  |   7462       4   7459       0 |   5    0      7261       198 |   6  60    0    0 930f |    3.448       0       5       0       5     60     60      0   7210     249       2  60    0930f a70f      9.570 "
test,1583577088558482944,22," | 22  |   7462       5   7456       0 |   5    0      7390        66 |   3  19    0    0 960f |    2.746       0       5       0       5     19     19      0   7060     396       2  19    0960f a70f      9.690 "
test,1583577088570621952,23," | 23  |   7462       5   7400       0 |   3    6      7370        30 |   2  60   19    0 930f |    6.408       0       2       0       2     60     60      0   7228     172       7  60    0930f a70f     30.360 "
test,1583577088554446080,24," | 24  |   7462       5   7456       2 |   5    0      7376        82 |   3  19    0    0 960f |    2.746       0       5       0       5     19     19      0   7187     271       2  19    0960f a70f      8.970 "
test,1583577088547293952,26," | 26  |   7462       5   7456       2 |   5    0      7429        29 |   2  19    0    0 960f |    2.044       0       5       0       5     19     19      0   7291     167       1  19    0960f a70f      8.220 "
test,1583577088569734144,27," | 27  |   7462       5   7460       0 |   3    9      7238       222 |   3  60   29    0 930f |    0           0       0       0       8      0      0      0   6956     504       0  60    0930f a70f     30.360 "
test,1583577088571314176,28," | 28  |   7462       5   7450       8 |   5    0      6865       593 |   2  20    0    0 510f |    2.716       0       4       0       4     20     20      0   6578     880       2  20    0510f a70f     30.390 "
test,1583577088569245184,29," | 29  |   7462       5   7450      10 |   0    2      6601       859 |   0  29   19    1 580f |    0           0       0       0       8      0      0      0   6285    1175       0  29    1580f a70f     30.210 "
test,1583577088545916160,30," | 30  |   7462       5   7455       3 |   5    0      7353       105 |   1  20    0    0 510f |    2.014       0       5       0       5     20     20      0   7082     376       1  20    0510f a70f      8.190 "
test,1583577088551094016,35," | 35  |   7462       5   7455       3 |   5    0      7100       358 |   2  20    0    0 510f |    2.716       0       5       0       5     20     20      0   6933     525       2  20    0510f a70f      8.940 "
test,1583577088553466112,40," | 40  |   7462       5   7380      74 |   5    0      7038       416 |   2  45    0    0 b50f |    2.014       0       5       0       5     45     45      0   6867     587       1  45    0b50f a70f      8.970 "
test,1583577088557463808,41," | 41  |   7462       5   7389      59 |   5    0      7380        68 |   2  45    0    0 b50f |    1.983       0       5       0       5     45     45      0   7213     235       1  45    0b50f a70f      8.040 "
test,1583577088548240896,42," | 42  |   7462       5   7396      62 |   5    0      7328       130 |   2  45    0    0 b50f |    2.044       0       5       0       5     45     45      0   7176     282       1  45    0b50f a70f      9.630 "
test,1583577088549645056,44," | 44  |   7462       5   7401      57 |   5    0      7324       134 |   1  45    0    0 b50f |    2.044       0       5       0       5     45     45      0   7179     279       1  45    0b50f a70f      8.250 "
test,1583577088546256896,45," | 45  |   7462       5   7415      43 |   4    0      7231       227 |   2  45    0    1 b50f |    1.739       0       4       0       4     45     45      0   7104     354       2  45    1b50f a70f      6.480 "
test,1583577088550333952,46," | 46  |   7462       5   7394      57 |   5    0      7099       352 |   2  45    0    0 b50f |    2.014       0       5       0       5     45     45      0   6988     463       1  45    0b50f a70f      9.000 "
test,1583577088550072832,47," | 47  |   7462       5   7401      57 |   5    0      7223       235 |   2  45    0    0 b50f |    2.014       0       5       0       5     45     45      0   7096     362       1  45    0b50f a70f      8.130 "
test,1583577088554672128,48," | 48  |   7462       5   7336      55 |   5    0      7240       151 |   2  45    0    0 b50f |    1.983       0       5       0       5     45     45      0   7107     284       1  45    0b50f a70f      8.820 "
test,1583577088555734016,49," | 49  |   7462       5   7452       0 |   5    0      7312       140 |   4  60    0    0 930f |    3.509       0       5       0       5     60     60      0   7259     193       3  60    0930f a70f      9.690 "
test,1583577088546526976,51," | 51  |   7462       5   7453       0 |   5    0      7367        86 |   1  60    0    0 930f |    2.014       0       5       0       5     60     60      0   7341     112       1  60    0930f a70f      8.250 "
test,1583577088547063040,52," | 52  |   7462       5   7425      29 |   5    0      7084       370 |   1  19    0    0 960f |    2.014       0       5       0       5     19     19      0   6954     500       1  19    0960f a70f      8.790 "
test,1583577088559827968,53," | 53  |   7462       5   7436       0 |   5    0      7050       386 |   5  60    0    0 930f |    4.180       0       5       0       5     60     60      0   6975     461       4  60    0930f a70f     10.410 "
test,1583577088562351104,54," | 54  |   7462       5   7454       0 |   5    0      7330       124 |   4  60    0    0 930f |    3.509       0       5       0       5     60     60      0   7213     241       3  60    0930f a70f     10.410 "
test,1583577088554956800,55," | 55  |   7462       5   7441       0 |   5    0      7159       282 |   4  60    0    0 930f |    3.479       0       5       0       5     60     60      0   7099     342       3  60    0930f a70f      9.600 "
test,1583577088545435904,56," | 56  |   7462       5   7444       0 |   5    0      7332       112 |   1  60    0    0 930f |    2.044       0       5       0       5     60     60      0   7242     202       1  60    0930f a70f      8.250 "
test,1583577088549384960,57," | 57  |   7462       5   7399       0 |   5    0      7208       191 |   1  60    0    0 930f |    2.014       0       5       0       5     60     60      0   6760     639       1  60    0930f a70f     11.850 "
test,1583577088548700928,58," | 58  |   7462       5   7453       0 |   5    0      7353       100 |   3  60    0    0 930f |    2.746       0       5       0       5     60     60      0   7051     402       2  60    0930f a70f     11.130 "
test,1583577088569502208,5," |  5  |   7462       5   7460       0 |   4    2      6784       676 |   7  60   20    0 930f |    3.509       0       4       0       4     60     60      0   6657     803       3  60    0930f a70f     30.360 "
test,1583577088545084928,60," | 60  |   7462       5   7453       0 |   3    3      6970       483 |   6  60   20    1 930f |    1.739       0       4       0       4     60     60      0   6822     631       2  60    1930f a70f      6.480 "
test,1583577088551752960,61," | 61  |   7462       5   7448       4 |   5    0      7121       331 |   3  60    0    0 930f |    3.509       0       5       0       5     60     60      0   6873     579       3  60    0930f a70f     12.480 "
test,1583577088556123136,7," |  7  |   7462       5   7459       0 |   5    0      7346       113 |   6  60    0    0 930f |    2.746       0       5       0       5     60     60      0   7296     163       2  60    0930f a70f      9.570 "
test,1583577088560768000,9," |  9  |   7462       5   7458       0 |   5    0      7209       249 |   7  60    0    0 930f |    3.509       0       5       0       5     60     60      0   7173     285       3  60    0930f a70f      9.660 "
