test,1583577187047468800,10," | 10  |   7856       5   7828       0 |   5    0      7706       122 |   1   7    0    0 d60f |    2.044       0       5       0       5      7      7      0   7620     208       1   7    0d60f a70f      8.130 "
test,1583577187048154112,12," | 12  |   7856       5   7820      34 |   5    1      7775        79 |   1   7   49    0 d60f |    2.014       0       5       0       5      7      7      0   7639     215       1   7    0d60f a70f      8.220 "
test,1583577187046798848,13," | 13  |   7856       5   7852       0 |   5    0      7791        61 |   1   7    0    0 d60f |    2.075       0       5       0       5      7      7      0   7712     140       1   7    0d60f a70f      8.310 "
test,1583577187053411072,15," | 15  |   7856       5   7811      43 |   5    0      7533       321 |   2   7    0    0 d60f |    2.777       0       5       0       5      7      7      0   7174     680       2   7    0d60f a70f      8.820 "
test,1583577187056224000,16," | 16  |   7856       5   7852       0 |   5    0      7561       291 |   3  42    0    0 db0f |    2.777       0       5       0       5     42     42      0   7360     492       2  42    0db0f a70f      9.720 "
test,1583577187055521024,17," | 17  |   7856       5   7841      11 |   5    0      7747       105 |   3  42    0    0 db0f |    4.211       0       5       0       5     42     42      0   7511     341       4  42    0db0f a70f     10.440 "
test,1583577187052433920,18," | 18  |   7856       5   7851       0 |   5    0      7434       417 |   2  42    0    0 db0f |    3.509       0       5       0       5     42     42      0   7131     720       3  42    0db0f a70f      9.570 "
test,1583577187061088000,19," | 19  |   7856       5   7837      15 |   5    0      7698       154 |   4  42    0    0 db0f |    4.241       0       5       0       5     42     42      0   7484     368       4  42    0db0f a70f     10.320 "
test,1583577187047954176,1," |  1  |   7856       4   7853       0 |   5    0      7649       204 |   1   7    0    0 d60f |    2.716       0       5       0       5      7      7      0   7597     256       1   7    0d60f a70f      8.940 "
test,1583577187049780992,22," | 22  |   7856       5   7850       0 |   5    0      7783        67 |   1  42    0    0 db0f |    2.746       0       5       0       5     42     42      0   7437     413       2  42    0db0f a70f      9.510 "
test,1583577187071474944,23," | 23  |   7856       5   7794       0 |   3    6      7759        35 |   8  23   42    1 660f |    1.770       0       1       0       1     23     23      0   7608     186       2  23    1660f a70f     30.300 "
test,1583577187053169920,24," | 24  |   7856       5   7850       2 |   5    0      7764        88 |   2  42    0    0 db0f |    2.716       0       5       0       5     42     42      0   7568     284       2  42    0db0f a70f      8.910 "
test,1583577187050967808,26," | 26  |   7856       5   7850       2 |   5    0      7821        31 |   2  42    0    0 db0f |    3.479       0       5       0       5     42     42      0   7679     173       3  42    0db0f a70f      9.690 "
test,1583577187070190848,27," | 27  |   7856       5   7854       0 |   5    8      7621       233 |   1  23   42    0 660f |    1.953       0       2       0       2     23     23      0   7317     537       1  23    0660f a70f     30.390 "
test,1583577187058775040,28," | 28  |   7856       5   7844       8 |   5    0      7230       622 |   2  42    0    0 db0f |    4.241       0       5       0       5     42     42      0   6916     936       4  42    0db0f a70f     10.440 "
test,1583577187071222016,29," | 29  |   7856       5   7843      11 |   4    5      6960       894 |   2  23   42    0 660f |    2.716       0       2       0       2     23     23      0   6622    1232       2  23    0660f a70f     30.360 "
test,1583577187056621056,30," | 30  |   7856       5   7849       3 |   5    0      7741       111 |   2  42    0    0 db0f |    3.479       0       5       0       5     42     42      0   7449     403       3  42    0db0f a70f      9.510 "
test,1583577187053570048,35," | 35  |   7856       5   7849       3 |   5    0      7474       378 |   2  42    0    0 db0f |    3.479       0       5       0       5     42     42      0   7294     558       3  42    0db0f a70f     10.320 "
test,1583577187054924032,40," | 40  |   7856       5   7774      74 |   5    0      7405       443 |   1  42    0    0 db0f |    2.044       0       5       0       5     42     42      0   7217     631       1  42    0db0f a70f     10.320 "
test,1583577187055913984,41," | 41  |   7856       5   7783      59 |   5    0      7772        70 |   1  42    0    0 db0f |    2.014       0       5       0       5     42     42      0   7593     249       1  42    0db0f a70f      9.690 "
test,1583577187051474944,42," | 42  |   7856       5   7790      62 |   4    0      7711       141 |   2  42    0    1 db0f |    1.739       0       4       0       4     42     42      0   7551     301       2  42    1db0f a70f      7.920 "
test,1583577187054127104,44," | 44  |   7856       5   7795      57 |   5    0      7710       142 |   1  42    0    0 db0f |    2.014       0       5       0       5     42     42      0   7557     295       1  42    0db0f a70f      8.220 "
test,1583577187054342912,45," | 45  |   7856       5   7809      43 |   5    0      7613       239 |   1  42    0    0 db0f |    2.044       0       5       0       5     42     42      0   7477     375       1  42    0db0f a70f      8.220 "
test,1583577187051795968,46," | 46  |   7856       5   7788      57 |   5    0      7466       379 |   2  42    0    0 db0f |    2.014       0       5       0       5     42     42      0   7347     498       1  42    0db0f a70f      8.790 "
test,1583577187052011008,47," | 47  |   7856       5   7795      57 |   5    0      7606       246 |   1  42    0    0 db0f |    2.044       0       5       0       5     42     42      0   7474     378       1  42    0db0f a70f      8.250 "
test,1583577187056402944,48," | 48  |   7856       5   7730      55 |   5    0      7624       161 |   1  42    0    0 db0f |    1.983       0       5       0       5     42     42      0   7479     306       1  42    0db0f a70f      8.910 "
test,1583577187048837888,49," | 49  |   7856       5   7846       0 |   5    0      7694       152 |   4  49    0    1 d40f |    1.739       0       4       0       4     49     49      0   7636     210       2  49    1d40f a70f      6.480 "
test,1583577187047236864,51," | 51  |   7856       5   7847       0 |   5    0      7758        89 |   1   7    0    0 d60f |    2.044       0       5       0       5      7      7      0   7731     116       1   7    0d60f a70f      8.130 "
test,1583577187052793856,52," | 52  |   7856       5   7817      31 |   4    4      7455       393 |   4  42   23    0 db0f |    4.211       0       5       0       5     42     42      0   7318     530       4  42    0db0f a70f     10.380 "
test,1583577187050056960,53," | 53  |   7856       5   7830       0 |   5    0      7428       402 |   1  49    0    0 d40f |    2.014       0       5       0       5     49     49      0   7346     484       1  49    0d40f a70f      8.190 "
test,1583577187047628032,54," | 54  |   7856       5   7848       0 |   4    1      7718       130 |   1   7   49    0 d60f |    2.044       0       5       0       5      7      7      0   7586     262       1   7    0d60f a70f      8.160 "
test,1583577187052211968,55," | 55  |   7856       5   7835       0 |   5    0      7536       299 |   1  49    0    0 d40f |    2.014       0       5       0       5     49     49      0   7466     369       1  49    0d40f a70f      8.070 "
test,1583577187053807872,56," | 56  |   7856       5   7838       0 |   5    0      7723       115 |   4  42    0    0 db0f |    4.943       0       5       0       5     42     42      0   7626     212       5  42    0db0f a70f     11.130 "
test,1583577187061268992,57," | 57  |   7856       5   7793       0 |   5    0      7586       207 |   3  42    0    0 db0f |    4.241       0       5       0       5     42     42      0   7115     678       4  42    0db0f a70f     10.380 "
test,1583577187052951040,58," | 58  |   7856       5   7847       0 |   3    4      7740       107 |   1  49    7    0 d40f |    2.014       0       5       0       5     49     49      0   7417     430       1  49    0d40f a70f      8.160 "
test,1583577187050533888,5," |  5  |   7856       5   7854       0 |   5    0      7132       722 |   2   7    0    0 d60f |    2.777       0       5       0       5      7      7      0   7000     854       2   7    0d60f a70f      8.970 "
test,1583577187051151872,60," | 60  |   7856       5   7847       0 |   5    0      7330       517 |   2   7    0    0 d60f |    2.807       0       5       0       5      7      7      0   7172     675       2   7    0d60f a70f      8.850 "
test,1583577187070637824,61," | 61  |   7856       5   7839       7 |   3    3      7491       355 |   2  49    7    0 d40f |    2.746       0       4       0       4     49     49      0   7225     621       2  49    0d40f a70f     30.270 "
test,1583577187049263872,7," |  7  |   7856       5   7853       0 |   5    0      7734       119 |   4   7    0    1 d60f |    1.739       0       4       0       4      7      7      0   7681     172       2   7    1d60f a70f      6.480 "
test,1583577187049063936,9," |  9  |   7856       5   7852       0 |   5    0      7595       257 |   1   7    0    0 d60f |    2.075       0       5       0       5      7      7      0   7558     294       1   7    0d60f a70f      8.310 "
