test,1583577214798521088,10," | 10  |   7967       5   7939       0 |   5    0      7816       123 |   4   7    0    0 690f |    2.044       0       5       0       5      7      7      0   7729     210       1   7    0690f a70f      8.280 "
test,1583577214797373184,12," | 12  |   7967       5   7931      34 |   5    0      7884        81 |   1   7    0    0 690f |    2.014       0       5       0       5      7      7      0   7746     219       1   7    0690f a70f      8.100 "
test,1583577214799078912,13," | 13  |   7967       5   7963       0 |   5    0      7901        62 |   3   7    0    0 690f |    2.044       0       5       0       5      7      7      0   7821     142       1   7    0690f a70f      8.280 "
test,1583577214820135168,15," | 15  |   7967       5   7922      43 |   5    0      7640       325 |   2   7    0    0 690f |    2.746       0       4       0       4      7      7      0   7275     690       2   7    0690f a70f     30.390 "
test,1583577214806492928,16," | 16  |   7967       5   7963       0 |   5    0      7664       299 |   1  26    0    0 b50f |    2.014       0       5       0       5     26     26      0   7463     500       1  26    0b50f a70f      8.940 "
test,1583577214802710016,17," | 17  |   7967       5   7952      11 |   5    0      7857       106 |   1  26    0    0 b50f |    2.044       0       5       0       5     26     26      0   7621     342       1  26    0b50f a70f      8.190 "
test,1583577214797792000,18," | 18  |   7967       5   7962       0 |   5    0      7535       427 |   2  26    0    0 b50f |    2.044       0       5       0       5     26     26      0   7230     732       1  26    0b50f a70f      8.130 "
test,1583577214801713920,19," | 19  |   7967       5   7948      15 |   5    0      7808       155 |   1  26    0    0 b50f |    2.014       0       5       0       5     26     26      0   7592     371       1  26    0b50f a70f      8.790 "
test,1583577214800008960,1," |  1  |   7967       4   7964       0 |   5    0      7754       210 |   1   7    0    0 690f |    2.716       0       5       0       5      7      7      0   7702     262       1   7    0690f a70f      8.850 "
test,1583577214798281984,22," | 22  |   7967       5   7961       0 |   5    0      7894        67 |   2  26    0    0 b50f |    2.014       0       5       0       5     26     26      0   7546     415       1  26    0b50f a70f      8.220 "
test,1583577214801906176,23," | 23  |   7967       5   7905       0 |   5    0      7869        36 |   1  26    0    0 b50f |    2.014       0       5       0       5     26     26      0   7718     187       1  26    0b50f a70f      8.970 "
test,1583577214805772032,24," | 24  |   7967       5   7961       2 |   5    0      7873        90 |   1  26    0    0 b50f |    2.044       0       5       0       5     26     26      0   7675     288       1  26    0b50f a70f      8.250 "
test,1583577214798917120,26," | 26  |   7967       5   7961       2 |   4    0      7931        32 |   2  26    0    1 b50f |    1.739       0       4       0       4     26     26      0   7787     176       2  26    1b50f a70f      6.480 "
test,1583577214821042944,27," | 27  |   7967       5   7965       0 |   5    0      7730       235 |   2  26    0    0 b50f |    2.746       0       4       0       4     26     26      0   7419     546       2  26    0b50f a70f     30.210 "
test,1583577214803187968,28," | 28  |   7967       5   7955       8 |   3    0      7334       629 |   4  28    0    1 5e0f |    1.739       0       4       0       4     28     28      0   7017     946       2  28    15e0f a70f      6.480 "
test,1583577214822068992,29," | 29  |   7967       4   7952      13 |   5    0      7055       910 |   2  26    0    0 b50f |    2.777       0       2       0       2     26     26      0   6709    1256       2  26    0b50f a70f     30.330 "
test,1583577214805913088,30," | 30  |   7967       5   7960       3 |   5    0      7852       111 |   1  28    0    0 5e0f |    1.983       0       5       0       5     28     28      0   7557     406       1  28    05e0f a70f      8.190 "
test,1583577214800328960,35," | 35  |   7967       5   7960       3 |   5    0      7580       383 |   2  28    0    0 5e0f |    2.716       0       5       0       5     28     28      0   7400     563       2  28    05e0f a70f      8.940 "
test,1583577214802993152,40," | 40  |   7967       5   7885      74 |   4    0      7510       449 |   2  46    0    0 d70f |    2.777       0       5       0       5     46     46      0   7316     643       2  46    0d70f a70f      9.000 "
test,1583577214819884032,41," | 41  |   7967       5   7894      59 |   5    0      7881        72 |   1  46    0    0 d70f |    2.044       0       4       0       4     46     46      0   7700     253       1  46    0d70f a70f     30.240 "
test,1583577214821708032,42," | 42  |   7967       5   7901      62 |   5    0      7818       145 |   1  46    0    0 d70f |    2.746       0       4       0       4     46     46      0   7656     307       2  46    0d70f a70f     30.390 "
test,1583577214801251840,44," | 44  |   7967       5   7906      57 |   5    0      7818       145 |   2  46    0    0 d70f |    2.777       0       5       0       5     46     46      0   7664     299       2  46    0d70f a70f      8.970 "
test,1583577214801032192,45," | 45  |   7967       5   7920      43 |   5    0      7722       241 |   2  46    0    0 d70f |    2.044       0       5       0       5     46     46      0   7586     377       1  46    0d70f a70f      8.250 "
test,1583577214805373952,46," | 46  |   7967       5   7899      57 |   4    0      7573       383 |   4  46    0    1 d70f |    1.739       0       4       0       4     46     46      0   7452     504       2  46    1d70f a70f      6.480 "
test,1583577214803496960,47," | 47  |   7967       5   7906      57 |   5    0      7715       248 |   1  46    0    0 d70f |    2.014       0       5       0       5     46     46      0   7582     381       1  46    0d70f a70f      8.250 "
test,1583577214806951168,48," | 48  |   7967       5   7841      55 |   5    0      7734       162 |   1  46    0    0 d70f |    2.044       0       5       0       5     46     46      0   7587     309       1  46    0d70f a70f      8.280 "
test,1583577214802257152,49," | 49  |   7967       5   7957       0 |   5    0      7803       154 |   1  55    0    0 8c0f |    2.075       0       5       0       5     55     55      0   7745     212       1  55    08c0f a70f      8.250 "
test,1583577214799804928,51," | 51  |   7967       5   7958       0 |   5   10      7868        90 |   1  56    7    0 d40f |    1.983       0       5       0       5     56     56      0   7841     117       1  56    0d40f a70f      8.160 "
test,1583577214793596928,52," | 52  |   7967       5   7928      31 |   5    0      7561       398 |   1  26    0    0 b50f |    2.014       0       5       0       5     26     26      0   7424     535       1  26    0b50f a70f      8.220 "
test,1583577214801424896,53," | 53  |   7967       5   7941       0 |   5    0      7539       402 |   1  55    0    0 8c0f |    2.075       0       5       0       5     55     55      0   7457     484       1  55    08c0f a70f      8.340 "
test,1583577214799556096,54," | 54  |   7967       5   7959       0 |   5    0      7825       134 |   1   7    0    0 690f |    2.014       0       5       0       5      7      7      0   7692     267       1   7    0690f a70f      8.250 "
test,1583577214798726144,55," | 55  |   7967       5   7946       0 |   4    0      7645       301 |   5  55    0    1 8c0f |    1.739       0       4       0       4     55     55      0   7575     371       2  55    18c0f a70f      6.510 "
test,1583577214800748032,56," | 56  |   7967       5   7949       0 |   4    7      7830       119 |   5  56    7    1 d40f |    1.739       0       4       0       4     56     56      0   7733     216       2  56    1d40f a70f      6.480 "
test,1583577214803757056,57," | 57  |   7967       5   7904       0 |   4    5      7693       211 |   3  26   56    0 b50f |    2.746       0       5       0       5     26     26      0   7212     692       2  26    0b50f a70f      9.570 "
test,1583577214802401024,58," | 58  |   7967       5   7958       0 |   5    7      7850       108 |   1  55    7    0 8c0f |    2.105       0       5       0       5     55     55      0   7526     432       1  55    08c0f a70f      8.340 "
test,1583577214800577024,5," |  5  |   7967       5   7965       0 |   5    0      7233       732 |   2   7    0    0 690f |    2.746       0       5       0       5      7      7      0   7100     865       2   7    0690f a70f      8.940 "
test,1583577214807873024,60," | 60  |   7967       5   7958       0 |   5    2      7437       521 |   1  56   26    0 d40f |    2.014       0       5       0       5     56     56      0   7278     680       1  56    0d40f a70f      8.850 "
test,1583577214821413120,61," | 61  |   7967       5   7950       7 |   1    9      7597       360 |   1  56   55    0 d40f |    1.983       0       1       0       1     56     56      0   7329     628       1  56    0d40f a70f     30.360 "
test,1583577214797075968,7," |  7  |   7967       5   7964       0 |   4    0      7843       121 |   4   7    0    1 690f |    1.739       0       4       0       4      7      7      0   7788     176       2   7    1690f a70f      6.480 "
test,1583577214797569024,9," |  9  |   7967       5   7963       0 |   5    0      7704       259 |   1   7    0    0 690f |    2.014       0       5       0       5      7      7      0   7666     297       1   7    0690f a70f      8.250 "
