test,1583577104298956032,10," | 10  |   7525       5   7497       0 |   4    0      7379       118 |   2  10    0    1 2c0f |    1.739       0       4       0       4     10     10      0   7297     200       2  10    12c0f a70f      8.640 "
test,1583577104317446912,12," | 12  |   7525       5   7489      34 |   3    4      7445        78 |   1  15   10    0 210f |    2.075       0       3       0       3     15     15      0   7318     205       1  15    0210f a70f     30.360 "
test,1583577104301038080,13," | 13  |   7525       5   7521       0 |   3    0      7460        61 |   7  10    0    0 2c0f |    2.014       0       5       0       5     10     10      0   7383     138       1  10    02c0f a70f      9.540 "
test,1583577104319820032,15," | 15  |   7525       5   7480      43 |   3    1      7211       312 |   2  15   10    1 210f |    1.770       0       3       0       3     15     15      0   6874     649       2  15    1210f a70f     30.300 "
test,1583577104309171968,16," | 16  |   7525       5   7521       0 |   5    0      7241       280 |   3  44    0    0 ab0f |    2.746       0       5       0       5     44     44      0   7048     473       2  44    0ab0f a70f      9.690 "
test,1583577104300156160,17," | 17  |   7525       5   7511      10 |   5    0      7423        98 |   2  44    0    0 ab0f |    2.716       0       5       0       5     44     44      0   7196     325       2  44    0ab0f a70f     10.260 "
test,1583577104297329920,18," | 18  |   7525       5   7520       0 |   5    0      7126       394 |   2  44    0    0 ab0f |    2.716       0       5       0       5     44     44      0   6832     688       2  44    0ab0f a70f      8.790 "
test,1583577104299748864,19," | 19  |   7525       5   7507      14 |   5    0      7377       144 |   3  44    0    0 ab0f |    2.716       0       5       0       5     44     44      0   7171     350       2  44    0ab0f a70f      9.540 "
test,1583577104296922880,1," |  1  |   7525       4   7522       0 |   5    0      7323       199 |   1  10    0    0 2c0f |    2.685       0       5       0       5     10     10      0   7272     250       1  10    02c0f a70f      9.630 "
test,1583577104297835008,22," | 22  |   7525       5   7519       0 |   5    0      7453        66 |   2  44    0    0 ab0f |    2.746       0       5       0       5     44     44      0   7121     398       2  44    0ab0f a70f      8.970 "
test,1583577104302535168,23," | 23  |   7525       5   7463       0 |   5    0      7432        31 |   3  44    0    0 ab0f |    2.777       0       5       0       5     44     44      0   7290     173       2  44    0ab0f a70f      8.880 "
test,1583577104296439040,24," | 24  |   7525       5   7519       2 |   5    0      7438        83 |   3  44    0    0 ab0f |    1.983       0       5       0       5     44     44      0   7249     272       1  44    0ab0f a70f      8.190 "
test,1583577104301372928,26," | 26  |   7525       5   7519       2 |   5    0      7492        29 |   3  44    0    0 ab0f |    2.014       0       5       0       5     44     44      0   7354     167       1  44    0ab0f a70f      8.250 "
test,1583577104303805952,27," | 27  |   7525       5   7523       0 |   5    0      7301       222 |   3  44    0    0 ab0f |    3.479       0       5       0       5     44     44      0   7018     505       3  44    0ab0f a70f      9.540 "
test,1583577104317661952,28," | 28  |   7525       4   7513       8 |   0    7      6923       598 |   0  28   44    1 570f |    0           0       0       0       8      0      0      0   6631     890       0  28    1570f a70f     30.150 "
test,1583577104320023040,29," | 29  |   7525       5   7513      10 |   5    0      6662       861 |   4  44    0    0 ab0f |    3.479       0       2       0       2     44     44      0   6342    1181       3  44    0ab0f a70f     30.360 "
test,1583577104305367040,30," | 30  |   7525       5   7518       3 |   5    0      7415       106 |   4  44    0    0 ab0f |    3.509       0       5       0       5     44     44      0   7141     380       3  44    0ab0f a70f     10.290 "
test,1583577104302716928,35," | 35  |   7525       5   7518       3 |   5    0      7158       363 |   3  44    0    0 ab0f |    3.448       0       5       0       5     44     44      0   6990     531       3  44    0ab0f a70f      9.660 "
test,1583577104319376896,40," | 40  |   7525       5   7443      74 |   5    0      7100       417 |   2  44    0    0 ab0f |    1.983       0       4       0       4     44     44      0   6927     590       1  44    0ab0f a70f     30.270 "
test,1583577104296726016,41," | 41  |   7525       5   7452      59 |   5    0      7442        69 |   1  44    0    0 ab0f |    1.983       0       5       0       5     44     44      0   7273     238       1  44    0ab0f a70f      8.250 "
test,1583577104297622016,42," | 42  |   7525       5   7459      62 |   5    0      7388       133 |   1  44    0    0 ab0f |    1.983       0       5       0       5     44     44      0   7235     286       1  44    0ab0f a70f      8.190 "
test,1583577104298772224,44," | 44  |   7525       5   7464      57 |   4    0      7385       136 |   3  44    0    1 ab0f |    1.739       0       4       0       4     44     44      0   7240     281       2  44    1ab0f a70f      7.920 "
test,1583577104300327936,45," | 45  |   7525       5   7478      43 |   5    0      7291       230 |   1  44    0    0 ab0f |    1.983       0       5       0       5     44     44      0   7163     358       1  44    0ab0f a70f      8.880 "
test,1583577104302129920,46," | 46  |   7525       5   7457      57 |   5    0      7157       357 |   1  44    0    0 ab0f |    1.983       0       5       0       5     44     44      0   7044     470       1  44    0ab0f a70f      8.760 "
test,1583577104297985024,47," | 47  |   7525       5   7464      57 |   5    0      7285       236 |   1  44    0    0 ab0f |    2.014       0       5       0       5     44     44      0   7157     364       1  44    0ab0f a70f      8.970 "
test,1583577104300524032,48," | 48  |   7525       5   7399      55 |   5    0      7303       151 |   1  44    0    0 ab0f |    2.014       0       5       0       5     44     44      0   7168     286       1  44    0ab0f a70f      8.220 "
test,1583577104296108032,49," | 49  |   7525       5   7515       0 |   5    1      7372       143 |   1  53   10    0 320f |    2.014       0       5       0       5     53     53      0   7319     196       1  53    0320f a70f      8.250 "
test,1583577104297101056,51," | 51  |   7525       5   7516       0 |   5    0      7430        86 |   1  10    0    0 2c0f |    2.044       0       5       0       5     10     10      0   7403     113       1  10    02c0f a70f      8.220 "
test,1583577104305785856,52," | 52  |   7525       5   7488      29 |   5    0      7141       376 |   4  44    0    0 ab0f |    2.716       0       5       0       5     44     44      0   7010     507       2  44    0ab0f a70f      8.910 "
test,1583577104302365952,53," | 53  |   7525       5   7499       0 |   4    0      7111       388 |  11  53    0    1 320f |    1.739       0       4       0       4     53     53      0   7035     464       2  53    1320f a70f      6.480 "
test,1583577104295835136,54," | 54  |   7525       5   7517       0 |   5    0      7393       124 |   1  10    0    0 2c0f |    2.044       0       5       0       5     10     10      0   7274     243       1  10    02c0f a70f      8.280 "
test,1583577104298331904,55," | 55  |   7525       5   7504       0 |   5    1      7219       285 |   1  53   10    0 320f |    2.014       0       5       0       5     53     53      0   7158     346       1  53    0320f a70f      8.220 "
test,1583577104299254016,56," | 56  |   7525       5   7507       0 |   5    0      7394       113 |   2  10    0    0 2c0f |    2.014       0       5       0       5     10     10      0   7302     205       1  10    02c0f a70f      8.910 "
test,1583577104318521088,57," | 57  |   7525       5   7462       0 |   1    1      7270       192 |   3  44   10    0 ab0f |    3.448       0       4       0       4     44     44      0   6815     647       3  44    0ab0f a70f     30.360 "
test,1583577104303030016,58," | 58  |   7525       5   7516       0 |   5    0      7415       101 |   2  10    0    0 2c0f |    1.983       0       5       0       5     10     10      0   7112     404       1  10    02c0f a70f      8.220 "
test,1583577104318018048,5," |  5  |   7525       4   7523       0 |   3    3      6836       687 |   2  15   10    0 210f |    4.974       0       1       0       1     15     15      0   6708     815       5  15    0210f a70f     30.360 "
test,1583577104301611008,60," | 60  |   7525       5   7516       0 |   5    0      7029       487 |   2  10    0    0 2c0f |    2.746       0       5       0       5     10     10      0   6879     637       2  10    02c0f a70f      8.940 "
test,1583577104292120064,61," | 61  |   7525       4   7511       4 |   5    0      7183       332 |   2  10    0    0 2c0f |    2.044       0       5       0       5     10     10      0   6933     582       1  10    02c0f a70f      8.850 "
test,1583577104299515904,7," |  7  |   7525       5   7522       0 |   5    0      7409       113 |   1  10    0    0 2c0f |    2.044       0       5       0       5     10     10      0   7359     163       1  10    02c0f a70f      9.720 "
test,1583577104298136832,9," |  9  |   7525       5   7521       0 |   5    0      7271       250 |   1  10    0    0 2c0f |    1.983       0       5       0       5     10     10      0   7235     286       1  10    02c0f a70f      8.940 "
