test,1583576979045032960,10," | 10  |   7024       5   6996       0 |   5    0      6882       114 |   1  56    0    0 a60f |    1.983       0       5       0       5     56     56      0   6802     194       1  56    0a60f a70f      8.220 "
test,1583576979046670080,12," | 12  |   7024       5   6988      34 |   5    0      6946        76 |   2  56    0    0 a60f |    3.509       0       5       0       5     56     56      0   6830     192       3  56    0a60f a70f     10.320 "
test,1583576979043283968,13," | 13  |   7024       5   7020       0 |   5    0      6961        59 |   2  56    0    0 a60f |    2.014       0       5       0       5     56     56      0   6887     133       1  56    0a60f a70f      8.100 "
test,1583576979051033856,15," | 15  |   7024       5   6979      43 |   5    0      6739       283 |   3  56    0    0 a60f |    4.241       0       5       0       5     56     56      0   6423     599       4  56    0a60f a70f     11.100 "
test,1583576979046857984,16," | 16  |   7024       4   7020       0 |   5    0      6756       264 |   2  42    0    0 6b0f |    2.746       0       5       0       5     42     42      0   6572     448       2  42    06b0f a70f      8.970 "
test,1583576979050683136,17," | 17  |   7024       5   7011       9 |   5    0      6923        97 |   2  42    0    0 6b0f |    2.746       0       5       0       5     42     42      0   6717     303       2  42    06b0f a70f      8.820 "
test,1583576979052210176,18," | 18  |   7024       5   7019       0 |   5    0      6655       364 |   1  42    0    0 6b0f |    2.746       0       5       0       5     42     42      0   6379     640       2  42    06b0f a70f      8.790 "
test,1583576979053637120,19," | 19  |   7024       5   7007      13 |   5    0      6890       130 |   2  42    0    0 6b0f |    3.479       0       5       0       5     42     42      0   6700     320       3  42    06b0f a70f      9.690 "
test,1583576979047763968,1," |  1  |   7024       4   7021       0 |   5    0      6835       186 |   2  56    0    0 a60f |    3.417       0       5       0       5     56     56      0   6786     235       2  56    0a60f a70f     10.350 "
test,1583576979049712896,22," | 22  |   7024       5   7018       0 |   5    0      6955        63 |   1  42    0    0 6b0f |    3.448       0       5       0       5     42     42      0   6640     378       3  42    06b0f a70f      9.630 "
test,1583576979046333184,23," | 23  |   7024       5   6962       0 |   5    0      6933        29 |   4  42    0    0 6b0f |    3.479       0       5       0       5     42     42      0   6798     164       3  42    06b0f a70f      9.510 "
test,1583576979049187072,24," | 24  |   7024       5   7018       2 |   5    0      6943        77 |   1  42    0    0 6b0f |    2.746       0       5       0       5     42     42      0   6770     250       2  42    06b0f a70f      8.940 "
test,1583576979050136064,26," | 26  |   7024       5   7018       2 |   5    0      6992        28 |   2  42    0    0 6b0f |    3.448       0       5       0       5     42     42      0   6863     157       3  42    06b0f a70f      9.510 "
test,1583576979067874816,27," | 27  |   7024       4   7022       0 |   4    0      6814       208 |   6  42    0    0 6b0f |    3.479       0       4       0       4     42     42      0   6545     477       3  42    06b0f a70f     30.360 "
test,1583576979049921024,28," | 28  |   7024       5   7012       8 |   5    0      6466       554 |   5  42    0    0 6b0f |    3.479       0       5       0       5     42     42      0   6191     829       3  42    06b0f a70f      9.660 "
test,1583576979067205888,29," | 29  |   7024       3   7012      10 |   4    0      6200       822 |   9  42    0    0 6b0f |    5.676       0       4       0       4     42     42      0   5907    1115       6  42    06b0f a70f     30.240 "
test,1583576979065819136,30," | 30  |   7024       5   7017       3 |   5    0      6925        95 |   4  42    0    0 6b0f |    4.180       0       4       0       4     42     42      0   6667     353       4  42    06b0f a70f     30.360 "
test,1583576979065609984,35," | 35  |   7024       5   7017       3 |   5    0      6689       331 |   4  42    0    0 6b0f |    4.211       0       4       0       4     42     42      0   6531     489       4  42    06b0f a70f     30.360 "
test,1583576979060040960,40," | 40  |   7024       5   6942      74 |   5    0      6615       401 |   1  42    0    0 6b0f |    1.983       0       5       0       5     42     42      0   6449     567       1  42    06b0f a70f      8.940 "
test,1583576979046505984,41," | 41  |   7024       5   6951      59 |   5    0      6948        62 |   1  42    0    0 6b0f |    1.983       0       5       0       5     42     42      0   6786     224       1  42    06b0f a70f      8.220 "
test,1583576979047379968,42," | 42  |   7024       5   6958      62 |   4    0      6895       125 |   2  42    0    1 6b0f |    1.770       0       4       0       4     42     42      0   6746     274       2  42    16b0f a70f      6.510 "
test,1583576979047126016,44," | 44  |   7024       5   6963      57 |   5    0      6891       129 |   1  42    0    0 6b0f |    1.983       0       5       0       5     42     42      0   6752     268       1  42    06b0f a70f      8.220 "
test,1583576979048571136,45," | 45  |   7024       5   6977      43 |   5    0      6806       214 |   1  42    0    0 6b0f |    1.983       0       5       0       5     42     42      0   6683     337       1  42    06b0f a70f      8.190 "
test,1583576979051486976,46," | 46  |   7024       5   6956      57 |   5    0      6686       327 |   1  42    0    0 6b0f |    1.983       0       5       0       5     42     42      0   6576     437       1  42    06b0f a70f      8.190 "
test,1583576979049371904,47," | 47  |   7024       5   6963      57 |   5    0      6798       222 |   1  42    0    0 6b0f |    1.983       0       5       0       5     42     42      0   6677     343       1  42    06b0f a70f      8.070 "
test,1583576979048261888,48," | 48  |   7024       5   6898      55 |   5    0      6814       139 |   1  42    0    0 6b0f |    1.983       0       5       0       5     42     42      0   6686     267       1  42    06b0f a70f      8.910 "
test,1583576979044118784,49," | 49  |   7024       5   7014       0 |   5    0      6880       134 |   1  55    0    0 b80f |    2.014       0       5       0       5     55     55      0   6833     181       1  55    0b80f a70f      8.070 "
test,1583576979044332032,51," | 51  |   7024       5   7015       0 |   5    0      6936        79 |   1  56    0    0 a60f |    2.044       0       5       0       5     56     56      0   6911     104       1  56    0a60f a70f      8.280 "
test,1583576979050852096,52," | 52  |   7024       5   6987      29 |   5    0      6668       348 |   2  42    0    0 6b0f |    3.448       0       5       0       5     42     42      0   6544     472       3  42    06b0f a70f     10.350 "
test,1583576979044800000,53," | 53  |   7024       5   6998       0 |   5    0      6627       371 |   1  55    0    0 b80f |    1.983       0       5       0       5     55     55      0   6559     439       1  55    0b80f a70f      8.040 "
test,1583576979045368832,54," | 54  |   7024       5   7016       0 |   5    0      6899       117 |   2  56    0    0 a60f |    2.777       0       5       0       5     56     56      0   6789     227       2  56    0a60f a70f      8.940 "
test,1583576979043709952,55," | 55  |   7024       5   7003       0 |   4    0      6741       262 |   8  55    0    1 b80f |    1.770       0       4       0       4     55     55      0   6686     317       2  55    1b80f a70f      6.510 "
test,1583576979047934976,56," | 56  |   7024       5   7006       0 |   4    0      6900       106 |   3  56    0    1 a60f |    1.739       0       4       0       4     56     56      0   6816     190       2  56    1a60f a70f      6.480 "
test,1583576979048733952,57," | 57  |   7024       4   6961       0 |   1    2      6779       182 |   1  56   42    0 a60f |    2.044       0       5       0       5     56     56      0   6343     618       1  56    0a60f a70f      8.160 "
test,1583576979067008000,58," | 58  |   7024       5   7015       0 |   1    7      6922        93 |   5  56   55    0 a60f |    9.338       0       1       0       1     56     56      0   6638     377      11  56    0a60f a70f     30.390 "
test,1583576979045586176,5," |  5  |   7024       5   7022       0 |   5    0      6395       627 |   3  56    0    0 a60f |    2.777       0       5       0       5     56     56      0   6271     751       2  56    0a60f a70f      8.880 "
test,1583576979050534912,60," | 60  |   7024       5   7015       0 |   5    0      6572       443 |   1  56    0    0 a60f |    2.044       0       5       0       5     56     56      0   6432     583       1  56    0a60f a70f      8.910 "
test,1583576979046013184,61," | 61  |   7024       5   7010       4 |   4    0      6700       314 |   1  56    0    0 a60f |    2.014       0       5       0       5     56     56      0   6467     547       1  56    0a60f a70f      8.970 "
test,1583576979045821952,7," |  7  |   7024       5   7021       0 |   5    0      6920       101 |   2  56    0    0 a60f |    2.777       0       5       0       5     56     56      0   6872     149       2  56    0a60f a70f      9.720 "
test,1583576979044552192,9," |  9  |   7024       5   7020       0 |   5    0      6786       234 |   2  56    0    0 a60f |    2.777       0       5       0       5     56     56      0   6751     269       2  56    0a60f a70f      8.880 "
