test,1583577043058545152,10," | 10  |   7280       5   7252       0 |   5    0      7137       115 |   2  57    0    0 260f |    2.746       0       5       0       5     57     57      0   7057     195       2  57    0260f a70f     13.680 "
test,1583577043048192000,12," | 12  |   7280       5   7244      34 |   5    0      7200        78 |   3  57    0    0 260f |    3.479       0       5       0       5     57     57      0   7081     197       3  57    0260f a70f      9.540 "
test,1583577043059612160,13," | 13  |   7280       5   7276       0 |   5    0      7216        60 |   3  57    0    0 260f |    3.509       0       5       0       5     57     57      0   7142     134       3  57    0260f a70f     14.370 "
test,1583577043067977984,15," | 15  |   7280       5   7235      43 |   5    0      6977       301 |   4  57    0    0 260f |    4.241       0       4       0       4     57     57      0   6654     624       4  57    0260f a70f     30.330 "
test,1583577043046718976,16," | 16  |   7280       5   7276       0 |   4    0      7007       269 |   4  16    0    1 790f |    1.770       0       4       0       4     16     16      0   6819     457       2  16    1790f a70f      6.510 "
test,1583577043047496960,17," | 17  |   7280       5   7266      10 |   5    0      7178        98 |   1  16    0    0 790f |    4.241       0       5       0       5     16     16      0   6960     316       4  16    0790f a70f     10.410 "
test,1583577043064601856,18," | 18  |   7280       5   7275       0 |   5    6      6889       386 |   2  30   16    0 1e0f |    0           0       0       0       8      0      0      0   6603     672       0  30    01e0f a70f     30.360 "
test,1583577043052136960,19," | 19  |   7280       5   7262      14 |   5    0      7137       139 |   2  16    0    0 790f |    4.211       0       5       0       5     16     16      0   6937     339       4  16    0790f a70f     11.130 "
test,1583577043048417024,1," |  1  |   7280       4   7277       0 |   5    0      7083       194 |   2  57    0    0 260f |    3.417       0       5       0       5     57     57      0   7034     243       2  57    0260f a70f      9.600 "
test,1583577043064801024,22," | 22  |   7280       5   7274       0 |   5    7      7208        66 |   1  30   16    0 1e0f |    0           0       0       0       8      0      0      0   6880     394       0  30    01e0f a70f     30.360 "
test,1583577043044601856,23," | 23  |   7280       5   7218       0 |   5    0      7188        30 |   1  16    0    0 790f |    2.044       0       5       0       5     16     16      0   7050     168       1  16    0790f a70f      8.160 "
test,1583577043066704128,24," | 24  |   7280       5   7274       2 |   2   15      7196        80 |   1  44   30    0 470f |    2.014       0       1       0       1     44     44      0   7012     264       1  44    0470f a70f     30.360 "
test,1583577043049259776,26," | 26  |   7280       5   7274       2 |   5    0      7247        29 |   1  16    0    0 790f |    4.974       0       5       0       5     16     16      0   7114     162       5  16    0790f a70f     11.010 "
test,1583577043049869056,27," | 27  |   7280       5   7278       0 |   5    0      7062       216 |   3  16    0    0 790f |    2.746       0       5       0       5     16     16      0   6785     493       2  16    0790f a70f      9.000 "
test,1583577043046920960,28," | 28  |   7280       5   7268       8 |   5    5      6700       576 |   1  30   16    0 1e0f |    2.014       0       5       0       5     30     30      0   6420     856       1  30    01e0f a70f      8.940 "
test,1583577043054547968,29," | 29  |   7280       5   7268      10 |   5    0      6436       842 |   3  16    0    0 790f |    3.509       0       5       0       5     16     16      0   6125    1153       3  16    0790f a70f      9.720 "
test,1583577043050027008,30," | 30  |   7280       5   7273       3 |   4    0      7176       100 |   5  30    0    1 1e0f |    1.739       0       4       0       4     30     30      0   6908     368       2  30    11e0f a70f      6.480 "
test,1583577043046534912,35," | 35  |   7280       5   7273       3 |   5    0      6929       347 |   1  30    0    0 1e0f |    2.014       0       5       0       5     30     30      0   6765     511       1  30    01e0f a70f      8.250 "
test,1583577043053272064,40," | 40  |   7280       5   7198      74 |   5    0      6863       409 |   1  44    0    0 470f |    3.479       0       5       0       5     44     44      0   6695     577       3  44    0470f a70f      9.660 "
test,1583577043050640128,41," | 41  |   7280       5   7207      59 |   5    3      7202        64 |   1  44   16    0 470f |    2.777       0       5       0       5     44     44      0   7038     228       2  44    0470f a70f      9.000 "
test,1583577043047117056,42," | 42  |   7280       5   7214      62 |   5    0      7148       128 |   1  44    0    0 470f |    2.746       0       5       0       5     44     44      0   6997     279       2  44    0470f a70f      8.940 "
test,1583577043040694016,44," | 44  |   7280       5   7219      57 |   4    1      7144       132 |   5  44   16    1 470f |    1.739       0       4       0       4     44     44      0   7003     273       2  44    1470f a70f      6.510 "
test,1583577043047696128,45," | 45  |   7280       5   7233      43 |   5    3      7054       222 |   1  44   16    0 470f |    2.014       0       5       0       5     44     44      0   6929     347       1  44    0470f a70f      8.220 "
test,1583577043053750016,46," | 46  |   7280       5   7212      57 |   5    0      6930       339 |   1  44    0    0 470f |    2.746       0       5       0       5     44     44      0   6820     449       2  44    0470f a70f      9.690 "
test,1583577043051078912,47," | 47  |   7280       5   7219      57 |   5    0      7047       229 |   1  44    0    0 470f |    2.746       0       5       0       5     44     44      0   6924     352       2  44    0470f a70f      9.690 "
test,1583577043068214784,48," | 48  |   7280       5   7154      55 |   5    0      7063       146 |   1  44    0    0 470f |    2.746       0       3       0       3     44     44      0   6930     279       2  44    0470f a70f     30.270 "
test,1583577043044253952,49," | 49  |   7280       5   7270       0 |   5    0      7134       136 |   2  49    0    1 a10f |    1.739       0       4       0       4     49     49      0   7082     188       2  49    1a10f a70f      6.480 "
test,1583577043045059840,51," | 51  |   7280       5   7271       0 |   5    0      7187        84 |   1  57    0    0 260f |    2.014       0       5       0       5     57     57      0   7161     110       1  57    0260f a70f      8.790 "
test,1583577043049475072,52," | 52  |   7280       5   7243      29 |   5    0      6912       360 |   1  16    0    0 790f |    2.014       0       5       0       5     16     16      0   6786     486       1  16    0790f a70f     10.410 "
test,1583577043045847040,53," | 53  |   7280       5   7254       0 |   5    0      6874       380 |   1  49    0    0 a10f |    2.044       0       5       0       5     49     49      0   6800     454       1  49    0a10f a70f      8.130 "
test,1583577043047874816,54," | 54  |   7280       5   7272       0 |   5    0      7152       120 |   2  57    0    0 260f |    2.746       0       5       0       5     57     57      0   7038     234       2  57    0260f a70f      8.970 "
test,1583577043051484160,55," | 55  |   7280       5   7259       0 |   5    0      6988       271 |   1  49    0    0 a10f |    2.014       0       5       0       5     49     49      0   6928     331       1  49    0a10f a70f      8.220 "
test,1583577043046184960,56," | 56  |   7280       5   7262       0 |   5    0      7153       109 |   1  57    0    0 260f |    1.983       0       5       0       5     57     57      0   7063     199       1  57    0260f a70f      8.010 "
test,1583577043069430016,57," | 57  |   7280       5   7217       0 |   1    8      7030       187 |   2  57   30    1 260f |   12.390       0       1       0       1     57     57      0   6589     628      17  57    1260f a70f     30.270 "
test,1583577043068774912,58," | 58  |   7280       5   7271       0 |   4    0      7175        96 |   2  57    0    0 260f |    9.338       0       2       0       2     57     57      0   6878     393      11  57    0260f a70f     30.330 "
test,1583577043062542848,5," |  5  |   7280       5   7278       0 |   0    6      6623       655 |   0   5   57    1 6d0f |    0           0       0       0       8      0      0      0   6496     782       0   5    16d0f a70f     30.180 "
test,1583577043048679168,60," | 60  |   7280       5   7271       0 |   5    0      6803       468 |   1  57    0    0 260f |    2.014       0       5       0       5     57     57      0   6659     612       1  57    0260f a70f      9.480 "
test,1583577043052377856,61," | 61  |   7280       5   7266       4 |   5    0      6948       322 |   1  57    0    0 260f |    1.983       0       5       0       5     57     57      0   6706     564       1  57    0260f a70f      9.570 "
test,1583577043053107968,7," |  7  |   7280       5   7277       0 |   5    0      7171       106 |   3  57    0    0 260f |    3.448       0       5       0       5     57     57      0   7124     153       3  57    0260f a70f     14.370 "
test,1583577043050430976,9," |  9  |   7280       5   7276       0 |   5    0      7031       245 |   3  57    0    0 260f |    3.509       0       5       0       5     57     57      0   6996     280       3  57    0260f a70f      9.570 "
