test,1583577038548100864,10," | 10  |   7262       5   7234       0 |   5    0      7119       115 |   3  20    0    0 e30f |    3.509       0       5       0       5     20     20      0   7039     195       3  20    0e30f a70f      9.690 "
test,1583577038545731072,12," | 12  |   7262       5   7226      34 |   5    0      7182        78 |   2  20    0    0 e30f |    2.746       0       5       0       5     20     20      0   7063     197       2  20    0e30f a70f      8.970 "
test,1583577038550523904,13," | 13  |   7262       5   7258       0 |   5    0      7198        60 |   2  20    0    0 e30f |    2.777       0       5       0       5     20     20      0   7124     134       2  20    0e30f a70f     10.410 "
test,1583577038545272064,15," | 15  |   7262       5   7217      43 |   5    0      6959       301 |   1  20    0    0 e30f |    2.014       0       5       0       5     20     20      0   6636     624       1  20    0e30f a70f      8.280 "
test,1583577038550884096,16," | 16  |   7262       5   7258       0 |   1    7      6989       269 |   3  23   52    0 e90f |    2.044       0       5       0       5     23     23      0   6801     457       1  23    0e90f a70f      8.280 "
test,1583577038568818176,17," | 17  |   7262       5   7248      10 |   1    6      7160        98 |   2  18   20    0 d70f |    4.974       0       4       0       4     18     18      0   6943     315       5  18    0d70f a70f     30.390 "
test,1583577038549673984,18," | 18  |   7262       5   7257       0 |   5    0      6873       384 |   2  18    0    1 d70f |    1.739       0       4       0       4     18     18      0   6588     669       2  18    1d70f a70f      6.480 "
test,1583577038565553920,19," | 19  |   7262       5   7244      14 |   5    0      7120       138 |   5  20    0    0 e30f |    0           0       0       0       8      0      0      0   6920     338       0  20    0e30f a70f     30.390 "
test,1583577038546799872,1," |  1  |   7262       4   7259       0 |   5    0      7066       193 |   3  20    0    0 e30f |    4.150       0       5       0       5     20     20      0   7017     242       3  20    0e30f a70f     10.320 "
test,1583577038549884928,22," | 22  |   7262       5   7256       0 |   5    0      7190        66 |   2  18    0    0 d70f |    2.044       0       5       0       5     18     18      0   6863     393       1  18    0d70f a70f      8.850 "
test,1583577038548445952,23," | 23  |   7262       5   7200       0 |   1    9      7170        30 |   2  23   52    1 e90f |    1.770       0       4       0       4     23     23      0   7032     168       2  23    1e90f a70f      6.510 "
test,1583577038545072128,24," | 24  |   7262       5   7256       2 |   5    0      7178        80 |   1  18    0    0 d70f |    2.014       0       5       0       5     18     18      0   6994     264       1  18    0d70f a70f      8.160 "
test,1583577038547101952,26," | 26  |   7262       5   7256       2 |   4    7      7229        29 |   4  18   52    0 d70f |    2.746       0       5       0       5     18     18      0   7096     162       2  18    0d70f a70f      8.970 "
test,1583577038564824064,27," | 27  |   7262       5   7260       0 |   4    0      7045       215 |   2  20    0    0 e30f |    0           0       0       0       8      0      0      0   6770     490       0  20    0e30f a70f     30.390 "
test,1583577038556636928,28," | 28  |   7262       5   7250       8 |   5    4      6685       573 |   1  35   20    0 6b0f |   10.589       0       5       0       5     35     35      0   6406     852      13  35    06b0f a70f     19.320 "
test,1583577038565020928,29," | 29  |   7262       5   7250      10 |   5    0      6418       842 |   3  20    0    0 e30f |    0           0       0       0       8      0      0      0   6109    1151       0  20    0e30f a70f     30.390 "
test,1583577038563654912,30," | 30  |   7262       5   7255       3 |   4   11      7159        99 |   3  20   35    0 e30f |    0           0       0       0       8      0      0      0   6891     367       0  20    0e30f a70f     30.360 "
test,1583577038564187136,35," | 35  |   7262       5   7255       3 |   0    7      6913       345 |   0  35   20    1 6b0f |    0           0       0       0       8      0      0      0   6749     509       0  35    16b0f a70f     30.180 "
test,1583577038540990976,40," | 40  |   7262       5   7180      74 |   5    0      6845       409 |   1  42    0    0 ac0f |    1.953       0       5       0       5     42     42      0   6677     577       1  42    0ac0f a70f      8.220 "
test,1583577038550214912,41," | 41  |   7262       5   7189      59 |   5    0      7185        63 |   1  42    0    0 ac0f |    1.953       0       5       0       5     42     42      0   7021     227       1  42    0ac0f a70f      8.190 "
test,1583577038552547840,42," | 42  |   7262       5   7196      62 |   5    0      7131       127 |   2  42    0    1 ac0f |    1.739       0       4       0       4     42     42      0   6980     278       2  42    1ac0f a70f      6.480 "
test,1583577038541484032,44," | 44  |   7262       5   7201      57 |   5    0      7126       132 |   1  42    0    0 ac0f |    1.983       0       5       0       5     42     42      0   6985     273       1  42    0ac0f a70f      8.190 "
test,1583577038542162944,45," | 45  |   7262       5   7215      43 |   5    0      7038       220 |   1  42    0    0 ac0f |    1.953       0       5       0       5     42     42      0   6913     345       1  42    0ac0f a70f      8.190 "
test,1583577038551245056,46," | 46  |   7262       5   7194      57 |   5    0      6912       339 |   1  42    0    0 ac0f |    2.014       0       5       0       5     42     42      0   6802     449       1  42    0ac0f a70f      8.220 "
test,1583577038546183936,47," | 47  |   7262       5   7201      57 |   5    0      7029       229 |   1  42    0    0 ac0f |    1.983       0       5       0       5     42     42      0   6906     352       1  42    0ac0f a70f      8.070 "
test,1583577038540630016,48," | 48  |   7262       5   7136      55 |   5    0      7045       146 |   1  42    0    0 ac0f |    1.953       0       5       0       5     42     42      0   6912     279       1  42    0ac0f a70f      8.160 "
test,1583577038544417024,49," | 49  |   7262       5   7252       0 |   5    0      7116       136 |   1  53    0    0 950f |    2.075       0       5       0       5     53     53      0   7064     188       1  53    0950f a70f      8.280 "
test,1583577038549362944,51," | 51  |   7262       5   7253       0 |   5    0      7169        84 |   3  20    0    0 e30f |    3.509       0       5       0       5     20     20      0   7143     110       3  20    0e30f a70f      9.660 "
test,1583577038566356992,52," | 52  |   7262       5   7225      29 |   0    7      6895       359 |   0  52   20    1 ae0f |    0           0       0       0       8      0      0      0   6769     485       0  52    1ae0f a70f     30.120 "
test,1583577038544748032,53," | 53  |   7262       5   7236       0 |   4    0      6857       379 |   2  53    0    1 950f |    1.739       0       4       0       4     53     53      0   6783     453       2  53    1950f a70f      6.480 "
test,1583577038565921024,54," | 54  |   7262       5   7254       0 |   4    0      7134       120 |   3  20    0    0 e30f |    4.211       0       4       0       4     20     20      0   7020     234       4  20    0e30f a70f     30.360 "
test,1583577038544621824,55," | 55  |   7262       5   7241       0 |   5    0      6971       270 |   1  53    0    0 950f |    2.044       0       5       0       5     53     53      0   6911     330       1  53    0950f a70f      8.100 "
test,1583577038549105920,56," | 56  |   7262       5   7244       0 |   4    0      7135       109 |   3  20    0    0 e30f |    4.241       0       5       0       5     20     20      0   7045     199       4  20    0e30f a70f     10.350 "
test,1583577038567759104,57," | 57  |   7262       4   7199       0 |   2    1      7012       187 |   1  23   20    0 e90f |    3.570       0       1       0       1     23     23      0   6571     628       3  23    0e90f a70f     30.360 "
test,1583577038567529984,58," | 58  |   7262       5   7253       0 |   2    4      7157        96 |   4  53   20    0 950f |    2.807       0       3       0       3     53     53      0   6861     392       2  53    0950f a70f     30.360 "
test,1583577038547891968,5," |  5  |   7262       5   7260       0 |   5    0      6607       653 |   2  20    0    0 e30f |    2.716       0       5       0       5     20     20      0   6480     780       2  20    0e30f a70f      9.630 "
test,1583577038552925184,60," | 60  |   7262       5   7253       0 |   5    0      6786       467 |   4  20    0    0 e30f |    2.716       0       5       0       5     20     20      0   6642     611       2  20    0e30f a70f      8.910 "
test,1583577038567117824,61," | 61  |   7262       5   7248       4 |   2    4      6930       322 |   5  53   20    0 950f |    3.509       0       2       0       2     53     53      0   6689     563       3  53    0950f a70f     30.390 "
test,1583577038546610176,7," |  7  |   7262       5   7259       0 |   5    0      7153       106 |   3  20    0    0 e30f |    3.448       0       5       0       5     20     20      0   7106     153       3  20    0e30f a70f      9.690 "
test,1583577038548728832,9," |  9  |   7262       5   7258       0 |   5    0      7014       244 |   3  20    0    0 e30f |    3.509       0       5       0       5     20     20      0   6979     279       3  20    0e30f a70f      9.720 "
