test,1583577105295744768,10," | 10  |   7529       5   7501       0 |   5    0      7383       118 |   1  54    0    0 c90f |    2.075       0       5       0       5     54     54      0   7301     200       1  54    0c90f a70f      8.160 "
test,1583577105297858048,12," | 12  |   7529       5   7493      34 |   5    0      7449        78 |   1  54    0    0 c90f |    2.044       0       5       0       5     54     54      0   7322     205       1  54    0c90f a70f      9.000 "
test,1583577105300205824,13," | 13  |   7529       5   7525       0 |   5    0      7464        61 |   2  54    0    0 c90f |    2.807       0       5       0       5     54     54      0   7387     138       2  54    0c90f a70f      8.970 "
test,1583577105298068992,15," | 15  |   7529       5   7484      43 |   4    4      7215       312 |   5  54    5    0 c90f |    2.777       0       5       0       5     54     54      0   6878     649       2  54    0c90f a70f      9.720 "
test,1583577105291416832,16," | 16  |   7529       5   7525       0 |   5    0      7245       280 |   3  41    0    0 580f |    2.044       0       5       0       5     41     41      0   7052     473       1  41    0580f a70f      8.280 "
test,1583577105302661888,17," | 17  |   7529       5   7515      10 |   5    0      7427        98 |   1  41    0    0 580f |    2.044       0       5       0       5     41     41      0   7199     326       1  41    0580f a70f      9.540 "
test,1583577105305364992,18," | 18  |   7529       5   7524       0 |   5    0      7130       394 |   3  41    0    0 580f |    2.807       0       5       0       5     41     41      0   6836     688       2  41    0580f a70f     10.320 "
test,1583577105303483904,19," | 19  |   7529       5   7511      14 |   5    0      7381       144 |   2  41    0    0 580f |    2.716       0       5       0       5     41     41      0   7175     350       2  41    0580f a70f     10.380 "
test,1583577105299663104,1," |  1  |   7529       4   7526       0 |   5    0      7327       199 |   1  54    0    0 c90f |    2.746       0       5       0       5     54     54      0   7276     250       1  54    0c90f a70f      8.940 "
test,1583577105299990016,22," | 22  |   7529       5   7523       0 |   5    0      7457        66 |   2  41    0    0 580f |    2.777       0       5       0       5     41     41      0   7125     398       2  41    0580f a70f     10.410 "
test,1583577105297654016,23," | 23  |   7529       5   7467       0 |   5    0      7435        32 |   4  41    0    0 580f |    2.807       0       5       0       5     41     41      0   7293     174       2  41    0580f a70f      8.880 "
test,1583577105300457984,24," | 24  |   7529       5   7523       2 |   5    0      7442        83 |   2  41    0    0 580f |    2.746       0       5       0       5     41     41      0   7253     272       2  41    0580f a70f     10.380 "
test,1583577105306044928,26," | 26  |   7529       5   7523       2 |   5    0      7496        29 |   2  41    0    0 580f |    2.746       0       5       0       5     41     41      0   7358     167       2  41    0580f a70f      9.690 "
test,1583577105298813184,27," | 27  |   7529       5   7527       0 |   5    0      7305       222 |   2  41    0    0 580f |    2.746       0       5       0       5     41     41      0   7022     505       2  41    0580f a70f      9.660 "
test,1583577105301193984,28," | 28  |   7529       5   7517       8 |   5    0      6927       598 |   2  41    0    0 580f |    2.777       0       5       0       5     41     41      0   6635     890       2  41    0580f a70f     10.350 "
test,1583577105303702016,29," | 29  |   7529       5   7517      10 |   3    0      6666       861 |   5  41    0    0 580f |    3.479       0       5       0       5     41     41      0   6346    1181       3  41    0580f a70f     10.410 "
test,1583577105309731072,30," | 30  |   7529       5   7522       3 |   5    0      7419       106 |   4  41    0    0 580f |    5.676       0       5       0       5     41     41      0   7145     380       6  41    0580f a70f     13.320 "
test,1583577105305808896,35," | 35  |   7529       5   7522       3 |   5    0      7162       363 |   3  41    0    0 580f |    5.676       0       5       0       5     41     41      0   6994     531       6  41    0580f a70f     12.540 "
test,1583577105304150016,40," | 40  |   7529       4   7447      74 |   5    0      7104       417 |   1  41    0    0 580f |    3.509       0       5       0       5     41     41      0   6931     590       3  41    0580f a70f     10.470 "
test,1583577105295299072,41," | 41  |   7529       5   7456      59 |   4    0      7446        69 |   2  41    0    1 580f |    1.739       0       4       0       4     41     41      0   7277     238       2  41    1580f a70f      6.510 "
test,1583577105300605184,42," | 42  |   7529       5   7463      62 |   5    0      7392       133 |   1  41    0    0 580f |    2.746       0       5       0       5     41     41      0   7239     286       2  41    0580f a70f      8.940 "
test,1583577105302952960,44," | 44  |   7529       5   7468      57 |   5    0      7389       136 |   1  41    0    0 580f |    2.716       0       5       0       5     41     41      0   7244     281       2  41    0580f a70f      8.970 "
test,1583577105299300864,45," | 45  |   7529       5   7482      43 |   5    0      7295       230 |   1  41    0    0 580f |    2.044       0       5       0       5     41     41      0   7167     358       1  41    0580f a70f      8.250 "
test,1583577105297390080,46," | 46  |   7529       5   7461      57 |   5    0      7161       357 |   1  41    0    0 580f |    2.014       0       5       0       5     41     41      0   7048     470       1  41    0580f a70f      8.250 "
test,1583577105296723968,47," | 47  |   7529       5   7468      57 |   5    0      7289       236 |   1  41    0    0 580f |    2.014       0       5       0       5     41     41      0   7161     364       1  41    0580f a70f      8.970 "
test,1583577105303134976,48," | 48  |   7529       5   7403      55 |   5    0      7307       151 |   1  41    0    0 580f |    2.746       0       5       0       5     41     41      0   7172     286       2  41    0580f a70f      9.480 "
test,1583577105304653056,49," | 49  |   7529       5   7519       0 |   5    0      7376       143 |   2  54    0    0 c90f |    2.838       0       5       0       5     54     54      0   7323     196       2  54    0c90f a70f      8.910 "
test,1583577105299092992,51," | 51  |   7529       5   7520       0 |   5    0      7434        86 |   2  54    0    0 c90f |    2.807       0       5       0       5     54     54      0   7407     113       2  54    0c90f a70f      8.910 "
test,1583577105318970880,52," | 52  |   7529       5   7491      30 |   5    0      7145       376 |   3  41    0    0 580f |    3.509       0       3       0       3     41     41      0   7014     507       3  41    0580f a70f     30.390 "
test,1583577105302452992,53," | 53  |   7529       5   7503       0 |   5    0      7115       388 |   3  54    0    0 c90f |    3.509       0       5       0       5     54     54      0   7039     464       3  54    0c90f a70f      9.630 "
test,1583577105296314112,54," | 54  |   7529       5   7521       0 |   4    0      7397       124 |   2  54    0    1 c90f |    1.739       0       4       0       4     54     54      0   7278     243       2  54    1c90f a70f      6.480 "
test,1583577105299489024,55," | 55  |   7529       5   7508       0 |   5    0      7223       285 |   2  54    0    0 c90f |    2.807       0       5       0       5     54     54      0   7162     346       2  54    0c90f a70f      9.030 "
test,1583577105301379072,56," | 56  |   7529       5   7511       0 |   5    0      7398       113 |   3  54    0    0 c90f |    2.807       0       5       0       5     54     54      0   7306     205       2  54    0c90f a70f      9.720 "
test,1583577105318320896,57," | 57  |   7529       5   7466       0 |   0    5      7273       193 |   0  57   41    1 140f |    0           0       0       0       8      0      0      0   6818     648       0  57    1140f a70f     30.030 "
test,1583577105313443072,58," | 58  |   7529       5   7520       0 |   5    0      7419       101 |   1  54    0    0 c90f |    2.105       0       5       0       5     54     54      0   7116     404       1  54    0c90f a70f     11.160 "
test,1583577105315700992,5," |  5  |   7529       5   7527       0 |   0    3      6839       688 |   0   5   54    1 c70f |    0           0       0       0       8      0      0      0   6711     816       0   5    1c70f a70f     30.180 "
test,1583577105298272000,60," | 60  |   7529       5   7520       0 |   5    0      7032       488 |   3  54    0    0 c90f |    3.479       0       5       0       5     54     54      0   6882     638       3  54    0c90f a70f      9.660 "
test,1583577105300957952,61," | 61  |   7529       5   7515       4 |   5    0      7186       333 |   1  54    0    0 c90f |    2.777       0       5       0       5     54     54      0   6936     583       2  54    0c90f a70f     10.470 "
test,1583577105298473984,7," |  7  |   7529       5   7526       0 |   5    0      7413       113 |   1  54    0    0 c90f |    2.105       0       5       0       5     54     54      0   7363     163       1  54    0c90f a70f      8.280 "
test,1583577105297046016,9," |  9  |   7529       5   7525       0 |   5    0      7275       250 |   1  54    0    0 c90f |    2.075       0       5       0       5     54     54      0   7239     286       1  54    0c90f a70f      8.310 "
