test,1583577000296730880,10," | 10  |   7109       5   7081       0 |   4    5      6967       114 |   2   1   51    0 3a0f |    1.373       0       5       0       5      1      1      0   6887     194       1   1    03a0f a70f      7.590 "
test,1583577000293821184,12," | 12  |   7109       5   7073      34 |   5    0      7031        76 |   1   1    0    0 3a0f |    1.342       0       5       0       5      1      1      0   6914     193       1   1    03a0f a70f      7.500 "
test,1583577000292913920,13," | 13  |   7109       5   7105       0 |   5    0      7046        59 |   1   1    0    0 3a0f |    1.342       0       5       0       5      1      1      0   6972     133       1   1    03a0f a70f      7.620 "
test,1583577000300359936,15," | 15  |   7109       5   7064      43 |   4    3      6815       292 |   4   1   51    0 3a0f |    2.075       0       5       0       5      1      1      0   6500     607       2   1    03a0f a70f      8.340 "
test,1583577000308666112,16," | 16  |   7109       5   7105       0 |   5    0      6840       265 |   2  48    0    0 770f |    2.777       0       5       0       5     48     48      0   6656     449       2  48    0770f a70f     10.320 "
test,1583577000298261760,17," | 17  |   7109       5   7096       9 |   5    0      7008        97 |   2  48    0    0 770f |    2.777       0       5       0       5     48     48      0   6799     306       2  48    0770f a70f      8.940 "
test,1583577000296133120,18," | 18  |   7109       5   7104       0 |   5    0      6737       367 |   2  48    0    0 770f |    2.807       0       5       0       5     48     48      0   6458     646       2  48    0770f a70f      9.000 "
test,1583577000306052096,19," | 19  |   7109       5   7092      13 |   5    0      6972       133 |   3  48    0    0 770f |    3.540       0       5       0       5     48     48      0   6781     324       3  48    0770f a70f      9.630 "
test,1583577000292465920,1," |  1  |   7109       4   7106       0 |   4    0      6920       186 |   2   1    0    1 3a0f |    1.739       0       4       0       4      1      1      0   6871     235       2   1    13a0f a70f      6.510 "
test,1583577000297132032,22," | 22  |   7109       5   7103       0 |   5    0      7040        63 |   1  48    0    0 770f |    3.509       0       5       0       5     48     48      0   6720     383       3  48    0770f a70f      9.540 "
test,1583577000317202944,23," | 23  |   7109       5   7047       0 |   1    8      7018        29 |   2  56   48    0 c10f |    2.685       0       4       0       4     56     56      0   6883     164       2  56    0c10f a70f     30.360 "
test,1583577000301199872,24," | 24  |   7109       5   7103       2 |   5    0      7025        80 |   2  48    0    0 770f |    2.807       0       5       0       5     48     48      0   6848     257       2  48    0770f a70f      8.970 "
test,1583577000302241024,26," | 26  |   7109       5   7103       2 |   5    0      7077        28 |   2  48    0    0 770f |    3.540       0       5       0       5     48     48      0   6948     157       3  48    0770f a70f      9.660 "
test,1583577000317611008,27," | 27  |   7109       5   7107       0 |   1   11      6897       210 |   3  56   29    0 c10f |    3.509       0       4       0       4     56     56      0   6626     481       3  56    0c10f a70f     30.240 "
test,1583577000295089920,28," | 28  |   7109       5   7097       8 |   5    1      6543       562 |   1  30   48    0 d70f |    2.014       0       5       0       5     30     30      0   6269     836       1  30    0d70f a70f      8.250 "
test,1583577000315531008,29," | 29  |   7109       5   7097      10 |   0    3      6275       832 |   0  29   48    1 3c0f |    0           0       0       0       8      0      0      0   5978    1129       0  29    13c0f a70f     30.210 "
test,1583577000299195136,30," | 30  |   7109       5   7102       3 |   4    0      7008        97 |   8  30    0    1 d70f |    1.770       0       4       0       4     30     30      0   6749     356       2  30    1d70f a70f      6.510 "
test,1583577000300515840,35," | 35  |   7109       5   7102       3 |   5    0      6768       337 |   1  30    0    0 d70f |    1.983       0       5       0       5     30     30      0   6610     495       1  30    0d70f a70f      8.190 "
test,1583577000315710976,40," | 40  |   7109       5   7027      74 |   5    0      6696       405 |   1  48    0    0 770f |    2.044       0       4       0       4     48     48      0   6530     571       1  48    0770f a70f     30.390 "
test,1583577000297357056,41," | 41  |   7109       5   7036      59 |   5    0      7033        62 |   1  48    0    0 770f |    2.014       0       5       0       5     48     48      0   6870     225       1  48    0770f a70f      9.000 "
test,1583577000301793024,42," | 42  |   7109       5   7043      62 |   5    0      6979       126 |   1  48    0    0 770f |    2.044       0       5       0       5     48     48      0   6830     275       1  48    0770f a70f      8.880 "
test,1583577000297577984,44," | 44  |   7109       5   7048      57 |   5    0      6973       132 |   1  48    0    0 770f |    2.044       0       5       0       5     48     48      0   6834     271       1  48    0770f a70f      8.280 "
test,1583577000295449088,45," | 45  |   7109       5   7062      43 |   5    0      6891       214 |   1  48    0    0 770f |    2.014       0       5       0       5     48     48      0   6767     338       1  48    0770f a70f      8.220 "
test,1583577000297743104,46," | 46  |   7109       5   7041      57 |   5    0      6769       329 |   1  48    0    0 770f |    2.075       0       5       0       5     48     48      0   6660     438       1  48    0770f a70f      8.910 "
test,1583577000294855168,47," | 47  |   7109       5   7048      57 |   5    0      6881       224 |   1  48    0    0 770f |    2.014       0       5       0       5     48     48      0   6760     345       1  48    0770f a70f      8.220 "
test,1583577000295842048,48," | 48  |   7109       5   6983      55 |   4    0      6897       141 |   2  48    0    1 770f |    1.739       0       4       0       4     48     48      0   6768     270       2  48    1770f a70f      6.480 "
test,1583577000300160768,49," | 49  |   7109       5   7099       0 |   5    0      6964       135 |   1  55    0    0 310f |    2.044       0       5       0       5     55     55      0   6916     183       1  55    0310f a70f      8.880 "
test,1583577000298080000,51," | 51  |   7109       5   7100       0 |   4    4      7020        80 |   8  51    1    1 a60f |    1.739       0       4       0       4     51     51      0   6995     105       2  51    1a60f a70f      6.510 "
test,1583577000299452160,52," | 52  |   7109       5   7072      29 |   4    0      6750       351 |   5  48    0    0 770f |    4.241       0       5       0       5     48     48      0   6626     475       4  48    0770f a70f     10.410 "
test,1583577000296340992,53," | 53  |   7109       5   7083       0 |   5    0      6710       373 |   1  55    0    0 310f |    2.014       0       5       0       5     55     55      0   6640     443       1  55    0310f a70f      8.250 "
test,1583577000300903936,54," | 54  |   7109       5   7101       0 |   5    0      6982       119 |   1   1    0    0 3a0f |    1.342       0       5       0       5      1      1      0   6871     230       1   1    03a0f a70f      7.440 "
test,1583577000293448960,55," | 55  |   7109       5   7088       0 |   4    0      6823       265 |   2  55    0    1 310f |    1.739       0       4       0       4     55     55      0   6766     322       2  55    1310f a70f      6.480 "
test,1583577000304899840,56," | 56  |   7109       5   7091       0 |   1    9      6985       106 |   2  56   51    1 c10f |    1.739       0       4       0       4     56     56      0   6899     192       2  56    1c10f a70f      6.480 "
test,1583577000308912128,57," | 57  |   7109       5   7046       0 |   1   14      6863       183 |   1  56   51    0 c10f |    1.983       0       5       0       5     56     56      0   6426     620       1  56    0c10f a70f      8.220 "
test,1583577000302021888,58," | 58  |   7109       5   7100       0 |   4    0      7006        94 |   1  55    0    0 310f |    2.014       0       5       0       5     55     55      0   6720     380       1  55    0310f a70f      8.940 "
test,1583577000294673920,5," |  5  |   7109       5   7107       0 |   5    0      6467       640 |   2   1    0    0 3a0f |    2.075       0       5       0       5      1      1      0   6343     764       2   1    03a0f a70f      8.280 "
test,1583577000294460928,60," | 60  |   7109       5   7100       0 |   5    1      6649       451 |   1  51    1    0 a60f |    2.044       0       5       0       5     51     51      0   6509     591       1  51    0a60f a70f      8.280 "
test,1583577000297938944,61," | 61  |   7109       5   7095       4 |   3    0      6781       318 |   2  55    0    0 310f |    2.746       0       5       0       5     55     55      0   6547     552       2  55    0310f a70f      9.570 "
test,1583577000294029056,7," |  7  |   7109       5   7106       0 |   5    0      7005       101 |   1   1    0    0 3a0f |    1.373       0       5       0       5      1      1      0   6956     150       1   1    03a0f a70f      7.470 "
test,1583577000294224896,9," |  9  |   7109       5   7105       0 |   5    0      6869       236 |   1   1    0    0 3a0f |    1.373       0       5       0       5      1      1      0   6834     271       1   1    03a0f a70f      7.620 "
