test,1583577165050023168,10," | 10  |   7768       5   7740       0 |   5    0      7619       121 |   2  49    0    0 cd0f |    2.807       0       5       0       5     49     49      0   7536     204       2  49    0cd0f a70f      9.030 "
test,1583577165049040128,12," | 12  |   7768       5   7732      34 |   5    0      7688        78 |   3  49    0    0 cd0f |    2.838       0       5       0       5     49     49      0   7553     213       2  49    0cd0f a70f      8.940 "
test,1583577165051011072,13," | 13  |   7768       5   7764       0 |   5    0      7703        61 |   3  49    0    0 cd0f |    3.509       0       5       0       5     49     49      0   7624     140       3  49    0cd0f a70f      9.630 "
test,1583577165054580992,15," | 15  |   7768       5   7723      43 |   5    0      7448       318 |   4  49    0    0 cd0f |    3.540       0       5       0       5     49     49      0   7095     671       3  49    0cd0f a70f      9.690 "
test,1583577165058599936,16," | 16  |   7768       5   7764       0 |   5    0      7474       290 |   2  27    0    0 4a0f |    2.746       0       5       0       5     27     27      0   7275     489       2  27    04a0f a70f     10.410 "
test,1583577165048623104,17," | 17  |   7768       5   7753      11 |   5    0      7660       104 |   1  27    0    0 4a0f |    1.953       0       5       0       5     27     27      0   7428     336       1  27    04a0f a70f      8.220 "
test,1583577165056688128,18," | 18  |   7768       5   7763       0 |   2    8      7352       411 |   1  47   27    0 5b0f |    2.014       0       5       0       5     47     47      0   7052     711       1  47    05b0f a70f     14.700 "
test,1583577165052130048,19," | 19  |   7768       5   7749      15 |   5    0      7613       151 |   1  27    0    0 4a0f |    2.014       0       5       0       5     27     27      0   7404     360       1  27    04a0f a70f      8.790 "
test,1583577165050454016,1," |  1  |   7768       4   7765       0 |   5    0      7562       203 |   3  49    0    0 cd0f |    4.211       0       5       0       5     49     49      0   7511     254       3  49    0cd0f a70f     10.980 "
test,1583577165057604096,22," | 22  |   7768       5   7762       0 |   1    8      7695        67 |   2  47   27    0 5b0f |    2.777       0       5       0       5     47     47      0   7352     410       2  47    05b0f a70f     15.450 "
test,1583577165050240000,23," | 23  |   7768       5   7706       0 |   5    0      7671        35 |   1  27    0    0 4a0f |    2.044       0       5       0       5     27     27      0   7522     184       1  27    04a0f a70f      9.540 "
test,1583577165062300928,24," | 24  |   7768       5   7762       2 |   5    0      7676        88 |   3  27    0    0 4a0f |    3.479       0       5       0       5     27     27      0   7481     283       3  27    04a0f a70f      9.630 "
test,1583577165055843072,26," | 26  |   7768       5   7762       2 |   5    0      7733        31 |   2  27    0    0 4a0f |    2.716       0       5       0       5     27     27      0   7591     173       2  27    04a0f a70f      9.660 "
test,1583577165052839168,27," | 27  |   7768       5   7766       0 |   4    0      7536       230 |   4  27    0    1 4a0f |    1.739       0       4       0       4     27     27      0   7237     529       2  27    14a0f a70f      7.920 "
test,1583577165071145984,28," | 28  |   7768       5   7756       8 |   4    0      7150       614 |   2  27    0    0 4a0f |    2.746       0       1       0       1     27     27      0   6840     924       2  27    04a0f a70f     30.360 "
test,1583577165069765120,29," | 29  |   7768       5   7755      11 |   4    0      6880       886 |   1  27    0    0 4a0f |    2.014       0       4       0       4     27     27      0   6546    1220       1  27    04a0f a70f     30.270 "
test,1583577165053112064,30," | 30  |   7768       5   7761       3 |   5    0      7656       108 |   4  47    0    0 5b0f |    4.211       0       5       0       5     47     47      0   7367     397       4  47    05b0f a70f     10.350 "
test,1583577165056482048,35," | 35  |   7768       5   7761       3 |   5    0      7389       375 |   3  47    0    0 5b0f |    3.509       0       5       0       5     47     47      0   7211     553       3  47    05b0f a70f      9.570 "
test,1583577165070921984,40," | 40  |   7768       5   7686      74 |   4    2      7322       438 |   1  47   27    0 5b0f |    2.716       0       4       0       4     47     47      0   7140     620       2  47    05b0f a70f     30.240 "
test,1583577165069559040,41," | 41  |   7768       5   7695      59 |   4    2      7685        69 |   1  47   27    0 5b0f |    2.044       0       4       0       4     47     47      0   7509     245       1  47    05b0f a70f     30.240 "
test,1583577165053495808,42," | 42  |   7768       5   7702      62 |   4    1      7624       140 |   1  47   27    0 5b0f |    2.044       0       5       0       5     47     47      0   7466     298       1  47    05b0f a70f      8.280 "
test,1583577165050740992,44," | 44  |   7768       5   7707      57 |   4    3      7624       140 |   1  47   27    0 5b0f |    2.044       0       5       0       5     47     47      0   7472     292       1  47    05b0f a70f      8.280 "
test,1583577165070070016,45," | 45  |   7768       5   7721      43 |   4    1      7528       236 |   1  47   27    0 5b0f |    2.746       0       4       0       4     47     47      0   7394     370       2  47    05b0f a70f     30.390 "
test,1583577165051245824,46," | 46  |   7768       5   7700      57 |   4    0      7383       374 |   1  47    0    0 5b0f |    2.014       0       5       0       5     47     47      0   7266     491       1  47    05b0f a70f      8.220 "
test,1583577165047792896,47," | 47  |   7768       5   7707      57 |   4    0      7519       245 |   2  47    0    1 5b0f |    1.739       0       4       0       4     47     47      0   7389     375       2  47    15b0f a70f      6.510 "
test,1583577165049627136,48," | 48  |   7768       5   7642      55 |   4    0      7536       161 |   1  47    0    0 5b0f |    2.014       0       5       0       5     47     47      0   7397     300       1  47    05b0f a70f      8.220 "
test,1583577165047004928,49," | 49  |   7768       5   7758       0 |   4    0      7609       149 |   2  49    0    1 cd0f |    1.739       0       4       0       4     49     49      0   7553     205       2  49    1cd0f a70f      6.480 "
test,1583577165049264896,51," | 51  |   7768       5   7759       0 |   5    0      7671        88 |   3  49    0    0 cd0f |    2.777       0       5       0       5     49     49      0   7644     115       2  49    0cd0f a70f      9.720 "
test,1583577165057403136,52," | 52  |   7768       4   7729      31 |   5    0      7370       390 |   2  27    0    0 4a0f |    2.746       0       5       0       5     27     27      0   7234     526       2  27    04a0f a70f      9.690 "
test,1583577165047213056,53," | 53  |   7768       5   7742       0 |   5    0      7343       399 |   1  49    0    0 cd0f |    2.075       0       5       0       5     49     49      0   7263     479       1  49    0cd0f a70f      8.160 "
test,1583577165055473152,54," | 54  |   7768       5   7760       0 |   5    0      7634       126 |   2  49    0    0 cd0f |    2.807       0       5       0       5     49     49      0   7508     252       2  49    0cd0f a70f      9.030 "
test,1583577165047582976,55," | 55  |   7768       5   7747       0 |   5    0      7454       293 |   1  49    0    0 cd0f |    2.044       0       5       0       5     49     49      0   7386     361       1  49    0cd0f a70f      8.130 "
test,1583577165049463040,56," | 56  |   7768       5   7750       0 |   5    0      7635       115 |   2  49    0    0 cd0f |    2.777       0       5       0       5     49     49      0   7541     209       2  49    0cd0f a70f      9.690 "
test,1583577165070482944,57," | 57  |   7768       5   7705       0 |   2    2      7505       200 |   8  27   60    0 4a0f |    2.777       0       4       0       4     27     27      0   7038     667       2  27    04a0f a70f     30.270 "
test,1583577165049818112,58," | 58  |   7768       5   7759       0 |   5    0      7655       104 |   1  49    0    0 cd0f |    2.075       0       5       0       5     49     49      0   7337     422       1  49    0cd0f a70f      8.880 "
test,1583577165052333056,5," |  5  |   7768       5   7766       0 |   5    0      7053       713 |   4  49    0    0 cd0f |    3.540       0       5       0       5     49     49      0   6923     843       3  49    0cd0f a70f      9.720 "
test,1583577165066821120,60," | 60  |   7768       5   7759       0 |   0    6      7248       511 |   0  60   49    1 ad0f |    0           0       0       0       8      0      0      0   7094     665       0  60    1ad0f a70f     30.210 "
test,1583577165053312000,61," | 61  |   7768       5   7752       6 |   4    0      7406       352 |   3  49    0    0 cd0f |    2.777       0       5       0       5     49     49      0   7145     613       2  49    0cd0f a70f      9.750 "
test,1583577165054761984,7," |  7  |   7768       5   7765       0 |   5    0      7647       118 |   3  49    0    0 cd0f |    3.540       0       5       0       5     49     49      0   7596     169       3  49    0cd0f a70f      9.750 "
test,1583577165051764992,9," |  9  |   7768       5   7764       0 |   5    0      7507       257 |   3  49    0    0 cd0f |    3.509       0       5       0       5     49     49      0   7471     293       3  49    0cd0f a70f      9.690 "
