test,1583575418761679872,10," | 10  |    783       5    755       0 |   5    0       745        10 |   1   9    0    0 b00f |    2.044       0       5       0       5      9      9      0    733      22       1   9    0b00f a70f      8.190 "
test,1583575418761032192,12," | 12  |    783       5    781       0 |   5    0       775         6 |   1   9    0    0 b00f |    2.014       0       5       0       5      9      9      0    762      19       1   9    0b00f a70f      8.280 "
test,1583575418760741120,13," | 13  |    783       5    779       0 |   5    0       771         8 |   1   9    0    0 b00f |    2.044       0       5       0       5      9      9      0    760      19       1   9    0b00f a70f      8.160 "
test,1583575418764040960,15," | 15  |    783       5    781       0 |   5    0       752        29 |   2   9    0    0 b00f |    2.777       0       5       0       5      9      9      0    725      56       2   9    0b00f a70f      8.820 "
test,1583575418763105024,16," | 16  |    783       5    779       0 |   5    0       750        29 |   4  47    0    0 e40f |    2.777       0       5       0       5     47     47      0    732      47       2  47    0e40f a70f      8.910 "
test,1583575418767944192,17," | 17  |    783       5    779       0 |   5    0       769        10 |   4  47    0    0 e40f |    4.241       0       5       0       5     47     47      0    748      31       4  47    0e40f a70f     10.290 "
test,1583575418761929984,18," | 18  |    783       5    778       0 |   5    0       727        51 |   3  47    0    0 e40f |    2.044       0       5       0       5     47     47      0    695      83       1  47    0e40f a70f      8.130 "
test,1583575418784568064,19," | 19  |    783       5    778       1 |   5    7       772         7 |   1  27   47    0 300f |    2.014       0       2       0       2     27     27      0    750      29       1  27    0300f a70f     30.300 "
test,1583575418762270976,1," |  1  |    783       4    780       0 |   5    0       766        14 |   1   9    0    0 b00f |    2.716       0       5       0       5      9      9      0    759      21       1   9    0b00f a70f      8.910 "
test,1583575418764859904,22," | 22  |    783       5    777       0 |   5    0       770         7 |   2  47    0    0 e40f |    2.777       0       5       0       5     47     47      0    733      44       2  47    0e40f a70f      9.720 "
test,1583575418765698048,23," | 23  |    783       5    721       0 |   5    0       717         4 |   4  47    0    0 e40f |    3.540       0       5       0       5     47     47      0    705      16       3  47    0e40f a70f      9.720 "
test,1583575418764256000,24," | 24  |    783       5    779       0 |   5    0       774         5 |   2  47    0    0 e40f |    2.777       0       5       0       5     47     47      0    757      22       2  47    0e40f a70f      8.970 "
test,1583575418766316800,26," | 26  |    783       5    779       0 |   5    0       776         3 |   3  47    0    0 e40f |    3.540       0       5       0       5     47     47      0    763      16       3  47    0e40f a70f      9.570 "
test,1583575418785910016,27," | 27  |    783       5    781       0 |   4    5       763        18 |   5  27   47    1 300f |    1.739       0       1       0       1     27     27      0    730      51       2  27    1300f a70f     30.300 "
test,1583575418768199936,28," | 28  |    783       4    779       0 |   5    0       712        67 |   5  47    0    0 e40f |    4.974       0       5       0       5     47     47      0    691      88       5  47    0e40f a70f     11.910 "
test,1583575418784740096,29," | 29  |    783       2    779       2 |   5    0       689        92 |   1  27    0    0 300f |    2.075       0       2       0       2     27     27      0    649     132       1  27    0300f a70f     30.300 "
test,1583575418767739904,30," | 30  |    783       5    779       0 |   5    0       770         9 |   6  47    0    0 e40f |    4.974       0       5       0       5     47     47      0    752      27       5  47    0e40f a70f     12.450 "
test,1583575418765526016,35," | 35  |    783       5    779       0 |   5    0       744        35 |   5  47    0    0 e40f |    5.004       0       5       0       5     47     47      0    733      46       5  47    0e40f a70f     11.730 "
test,1583575418768986112,40," | 40  |    783       5    751      24 |   5    0       710        65 |   2  47    0    0 e40f |    2.014       0       5       0       5     47     47      0    680      95       1  47    0e40f a70f     11.610 "
test,1583575418764656896,41," | 41  |    783       5    745      24 |   5    0       760         9 |   1  47    0    0 e40f |    2.014       0       5       0       5     47     47      0    740      29       1  47    0e40f a70f     11.100 "
test,1583575418772738816,42," | 42  |    783       5    752      27 |   5    0       747        32 |   1  47    0    0 e40f |    2.075       0       5       0       5     47     47      0    726      53       1  47    0e40f a70f      9.720 "
test,1583575418765188096,44," | 44  |    783       5    757      22 |   5    0       754        25 |   1  47    0    0 e40f |    2.044       0       5       0       5     47     47      0    730      49       1  47    0e40f a70f      9.720 "
test,1583575418767373056,45," | 45  |    783       5    761      18 |   5    0       741        38 |   1  47    0    0 e40f |    2.746       0       5       0       5     47     47      0    721      58       2  47    0e40f a70f     10.290 "
test,1583575418770347008,46," | 46  |    783       5    749      23 |   5    0       738        34 |   2  47    0    0 e40f |    2.746       0       5       0       5     47     47      0    720      52       2  47    0e40f a70f     11.850 "
test,1583575418764451072,47," | 47  |    783       5    755      24 |   3    0       743        36 |   7  47    0    1 e40f |    1.739       0       4       0       4     47     47      0    727      52       2  47    1e40f a70f      7.920 "
test,1583575418763855104,48," | 48  |    783       5    691      21 |   5    0       686        26 |   1  47    0    0 e40f |    2.014       0       5       0       5     47     47      0    663      49       1  47    0e40f a70f      9.660 "
test,1583575418771506176,49," | 49  |    783       5    773       0 |   5    0       761        12 |   3   9    0    0 b00f |    3.509       0       5       0       5      9      9      0    756      17       3   9    0b00f a70f      9.570 "
test,1583575418765881088,51," | 51  |    783       5    774       0 |   5    0       770         4 |   2   9    0    0 b00f |    2.716       0       5       0       5      9      9      0    768       6       2   9    0b00f a70f      8.790 "
test,1583575418763365888,52," | 52  |    783       5    769       6 |   5    0       737        38 |   3  47    0    0 e40f |    3.509       0       5       0       5     47     47      0    721      54       3  47    0e40f a70f      9.540 "
test,1583575418767023104,53," | 53  |    783       5    757       0 |   5    0       718        39 |   4   9    0    0 b00f |    4.241       0       5       0       5      9      9      0    712      45       4   9    0b00f a70f     10.410 "
test,1583575418762440960,54," | 54  |    783       5    775       0 |   5    0       765        10 |   1   9    0    0 b00f |    2.014       0       5       0       5      9      9      0    746      29       1   9    0b00f a70f      8.250 "
test,1583575418773085952,55," | 55  |    783       5    762       0 |   5    0       728        34 |   3   9    0    0 b00f |    3.479       0       5       0       5      9      9      0    726      36       3   9    0b00f a70f      9.630 "
test,1583575418763639808,56," | 56  |    783       5    765       0 |   5    0       748        17 |   2   9    0    0 b00f |    2.777       0       5       0       5      9      9      0    743      22       2   9    0b00f a70f      9.570 "
test,1583575418768641024,57," | 57  |    783       5    720       0 |   3    5       693        27 |   3   9   47    0 b00f |    3.479       0       5       0       5      9      9      0    651      69       3   9    0b00f a70f      9.570 "
test,1583575418766114048,58," | 58  |    783       5    774       0 |   5    0       764        10 |   2   9    0    0 b00f |    2.716       0       5       0       5      9      9      0    743      31       2   9    0b00f a70f     11.070 "
test,1583575418762110976,5," |  5  |    783       5    781       0 |   5    0       722        59 |   2   9    0    0 b00f |    2.777       0       5       0       5      9      9      0    705      76       2   9    0b00f a70f      8.880 "
test,1583575418767564032,60," | 60  |    783       5    774       0 |   5    0       727        47 |   3   9    0    0 b00f |    3.479       0       5       0       5      9      9      0    720      54       3   9    0b00f a70f      9.690 "
test,1583575418770096128,61," | 61  |    783       5    773       0 |   5    0       743        30 |   2   9    0    0 b00f |    2.777       0       5       0       5      9      9      0    723      50       2   9    0b00f a70f     10.350 "
test,1583575418766619904,7," |  7  |    783       5    780       0 |   5    0       766        14 |   1   9    0    0 b00f |    2.014       0       5       0       5      9      9      0    762      18       1   9    0b00f a70f      8.130 "
test,1583575418761267968,9," |  9  |    783       5    779       0 |   4    0       747        32 |   4   9    0    1 b00f |    1.770       0       4       0       4      9      9      0    742      37       2   9    1b00f a70f      6.510 "
