test,1583577129321028096,10," | 10  |   7625       5   7597       0 |   5    0      7479       118 |   2   1    0    0 e90f |    1.342       0       3       0       3      1      1      0   7395     202       1   1    0e90f a70f     30.390 "
test,1583577129296526080,12," | 12  |   7625       5   7589      34 |   5    0      7545        78 |   2   1    0    0 e90f |    2.105       0       5       0       5      1      1      0   7413     210       2   1    0e90f a70f      8.250 "
test,1583577129295954944,13," | 13  |   7625       5   7621       0 |   5    0      7560        61 |   2   1    0    0 e90f |    1.312       0       5       0       5      1      1      0   7482     139       1   1    0e90f a70f      7.560 "
test,1583577129297904128,15," | 15  |   7625       5   7580      43 |   5    0      7310       313 |   3   1    0    0 e90f |    2.838       0       5       0       5      1      1      0   6966     657       3   1    0e90f a70f      9.030 "
test,1583577129318419968,16," | 16  |   7625       5   7621       0 |   5    0      7337       284 |   2  52    0    0 c00f |    2.014       0       4       0       4     52     52      0   7140     481       1  52    0c00f a70f     30.390 "
test,1583577129320754176,17," | 17  |   7625       5   7611      10 |   1    6      7520       101 |   1  41   52    0 350f |    2.044       0       1       0       1     41     41      0   7290     331       1  41    0350f a70f     30.390 "
test,1583577129299726080,18," | 18  |   7625       5   7620       0 |   5    0      7220       400 |   4  52    0    0 c00f |    2.716       0       5       0       5     52     52      0   6922     698       2  52    0c00f a70f      8.940 "
test,1583577129299491840,19," | 19  |   7625       5   7607      14 |   5    0      7476       145 |   3  52    0    0 c00f |    2.044       0       5       0       5     52     52      0   7268     353       1  52    0c00f a70f     11.040 "
test,1583577129319938816,1," |  1  |   7625       4   7622       0 |   5    0      7421       201 |   2   1    0    1 e90f |    3.204       0       3       0       3      1      1      0   7370     252       4   1    1e90f a70f     30.300 "
test,1583577129298221056,22," | 22  |   7625       5   7619       0 |   5    0      7552        67 |   4  52    0    0 c00f |    2.777       0       5       0       5     52     52      0   7216     403       2  52    0c00f a70f      8.850 "
test,1583577129303056128,23," | 23  |   7625       5   7563       0 |   5    0      7529        34 |   1  52    0    0 c00f |    2.014       0       5       0       5     52     52      0   7383     180       1  52    0c00f a70f      8.220 "
test,1583577129297452032,24," | 24  |   7625       5   7619       2 |   5    0      7537        84 |   4  52    0    0 c00f |    2.014       0       5       0       5     52     52      0   7344     277       1  52    0c00f a70f      8.250 "
test,1583577129296283904,26," | 26  |   7625       5   7619       2 |   5    0      7590        31 |   3  52    0    0 c00f |    2.044       0       5       0       5     52     52      0   7450     171       1  52    0c00f a70f      8.280 "
test,1583577129300941056,27," | 27  |   7625       5   7623       0 |   3    0      7398       225 |   8  52    0    0 c00f |    2.777       0       5       0       5     52     52      0   7110     513       2  52    0c00f a70f     10.410 "
test,1583577129317989120,28," | 28  |   7625       5   7613       8 |   5    0      7019       602 |   2  41    0    0 350f |    0           0       0       0       8      0      0      0   6715     906       0  41    0350f a70f     30.360 "
test,1583577129302179072,29," | 29  |   7625       5   7612      11 |   3    0      6750       873 |   8  52    0    0 c00f |    2.746       0       5       0       5     52     52      0   6426    1197       2  52    0c00f a70f     10.980 "
test,1583577129316461056,30," | 30  |   7625       5   7618       3 |   5    0      7513       108 |   3  41    0    0 350f |    0           0       0       0       8      0      0      0   7231     390       0  41    0350f a70f     30.390 "
test,1583577129315452160,35," | 35  |   7625       5   7618       3 |   5    0      7252       369 |   4  41    0    0 350f |    0           0       0       0       8      0      0      0   7080     541       0  41    0350f a70f     30.390 "
test,1583577129318968064,40," | 40  |   7625       5   7543      74 |   5    0      7190       427 |   1  41    0    0 350f |    2.075       0       2       0       2     41     41      0   7012     605       1  41    0350f a70f     30.390 "
test,1583577129321270016,41," | 41  |   7625       5   7552      59 |   4    0      7542        69 |   2  41    0    1 350f |    1.739       0       1       0       1     41     41      0   7371     240       2  41    1350f a70f     30.300 "
test,1583577129319709184,42," | 42  |   7625       5   7559      62 |   5    0      7484       137 |   1  41    0    0 350f |    2.044       0       2       0       2     41     41      0   7328     293       1  41    0350f a70f     30.390 "
test,1583577129321611008,44," | 44  |   7625       5   7564      57 |   5    0      7483       138 |   1  41    0    0 350f |    2.075       0       2       0       2     41     41      0   7335     286       1  41    0350f a70f     30.330 "
test,1583577129319240960,45," | 45  |   7625       5   7578      43 |   5    0      7389       232 |   1  41    0    0 350f |    2.044       0       2       0       2     41     41      0   7259     362       1  41    0350f a70f     30.330 "
test,1583577129319500032,46," | 46  |   7625       5   7557      57 |   5    0      7248       366 |   1  41    0    0 350f |    2.014       0       2       0       2     41     41      0   7133     481       1  41    0350f a70f     30.360 "
test,1583577129323715840,47," | 47  |   7625       5   7564      57 |   5    0      7382       239 |   1  41    0    0 350f |    2.075       0       2       0       2     41     41      0   7253     368       1  41    0350f a70f     30.330 "
test,1583577129325480960,48," | 48  |   7625       5   7499      55 |   5    0      7399       155 |   1  41    0    0 350f |    2.044       0       2       0       2     41     41      0   7262     292       1  41    0350f a70f     30.330 "
test,1583577129317518848,49," | 49  |   7625       5   7615       0 |   5    0      7467       148 |   3  60    0    0  e0f |    0           0       0       0       8      0      0      0   7414     201       0  60    0 e0f a70f     30.360 "
test,1583577129299143936,51," | 51  |   7625       5   7616       0 |   5    5      7529        87 |   1  60    1    0  e0f |    4.089       0       5       0       5     60     60      0   7502     114       4  60    0 e0f a70f     10.290 "
test,1583577129301344000,52," | 52  |   7625       4   7586      31 |   3    0      7237       380 |   2  52    0    1 c00f |    1.739       0       4       0       4     52     52      0   7103     514       2  52    1c00f a70f      7.950 "
test,1583577129316928000,53," | 53  |   7625       5   7599       0 |   5    0      7202       397 |   4  60    0    0  e0f |    0           0       0       0       8      0      0      0   7126     473       0  60    0 e0f a70f     30.360 "
test,1583577129297619968,54," | 54  |   7625       5   7617       0 |   5    0      7492       125 |   1   1    0    0 e90f |    1.342       0       5       0       5      1      1      0   7368     249       1   1    0e90f a70f      7.410 "
test,1583577129317097984,55," | 55  |   7625       5   7604       0 |   5    0      7316       288 |   3  60    0    0  e0f |    0           0       0       0       8      0      0      0   7252     352       0  60    0 e0f a70f     30.360 "
test,1583577129299303936,56," | 56  |   7625       5   7607       0 |   5    0      7493       114 |   1  60    0    0  e0f |    4.089       0       5       0       5     60     60      0   7399     208       4  60    0 e0f a70f     10.110 "
test,1583577129306087936,57," | 57  |   7625       5   7562       0 |   5    0      7366       196 |   4  52    0    0 c00f |    2.716       0       5       0       5     52     52      0   6909     653       2  52    0c00f a70f      8.940 "
test,1583577129317336064,58," | 58  |   7625       5   7616       0 |   5    3      7514       102 |   2  60    1    0  e0f |    0           0       0       0       8      0      0      0   7205     411       0  60    0 e0f a70f     30.390 "
test,1583577129296827136,5," |  5  |   7625       5   7623       0 |   5    0      6923       700 |   3   1    0    0 e90f |    2.105       0       5       0       5      1      1      0   6794     829       2   1    0e90f a70f      8.280 "
test,1583577129298852864,60," | 60  |   7625       5   7616       0 |   4    4      7120       496 |   8  60   52    1  e0f |    3.814       0       4       0       4     60     60      0   6967     649       5  60    1 e0f a70f      8.520 "
test,1583577129316726016,61," | 61  |   7625       5   7610       5 |   4    0      7275       340 |   2  60    0    0  e0f |    0           0       0       0       8      0      0      0   7019     596       0  60    0 e0f a70f     30.390 "
test,1583577129297022976,7," |  7  |   7625       5   7622       0 |   5    0      7509       113 |   2   1    0    0 e90f |    1.373       0       5       0       5      1      1      0   7458     164       1   1    0e90f a70f      7.530 "
test,1583577129312950016,9," |  9  |   7625       5   7621       0 |   0   10      7369       252 |   0   9    1    1  c0f |    0           0       0       0       8      0      0      0   7332     289       0   9    1 c0f a70f     30.180 "
