test,1583577054567689984,10," | 10  |   7326       5   7298       0 |   5    0      7182       116 |   1  54    0    0 570f |    1.983       0       4       0       4     54     54      0   7103     195       1  54    0570f a70f     30.360 "
test,1583577054547898112,12," | 12  |   7326       5   7290      34 |   5    0      7246        78 |   1  54    0    0 570f |    1.983       0       5       0       5     54     54      0   7125     199       1  54    0570f a70f      9.660 "
test,1583577054545340928,13," | 13  |   7326       5   7322       0 |   5    0      7262        60 |   1  54    0    0 570f |    1.983       0       5       0       5     54     54      0   7188     134       1  54    0570f a70f      8.220 "
test,1583577054551657984,15," | 15  |   7326       5   7281      43 |   5    0      7020       304 |   2  54    0    0 570f |    2.746       0       5       0       5     54     54      0   6695     629       2  54    0570f a70f     10.410 "
test,1583577054566763008,16," | 16  |   7326       4   7322       0 |   0    7      7050       272 |   0  16   44    1 980f |    0           0       0       0       8      0      0      0   6861     461       0  16    1980f a70f     30.180 "
test,1583577054555900160,17," | 17  |   7326       5   7312      10 |   5    0      7224        98 |   1  57    0    0 de0f |    2.746       0       5       0       5     57     57      0   7005     317       2  57    0de0f a70f     11.130 "
test,1583577054549131008,18," | 18  |   7326       5   7321       0 |   5    0      6935       386 |   2  57    0    0 de0f |    2.746       0       5       0       5     57     57      0   6645     676       2  57    0de0f a70f      8.850 "
test,1583577054552835072,19," | 19  |   7326       5   7308      14 |   5    0      7180       142 |   2  57    0    0 de0f |    2.746       0       5       0       5     57     57      0   6980     342       2  57    0de0f a70f     11.070 "
test,1583577054550332160,1," |  1  |   7326       4   7323       0 |   5    0      7128       195 |   1  54    0    0 570f |    2.685       0       5       0       5     54     54      0   7079     244       1  54    0570f a70f      9.480 "
test,1583577054549376000,22," | 22  |   7326       5   7320       0 |   5    0      7254        66 |   2  57    0    0 de0f |    2.685       0       5       0       5     57     57      0   6925     395       2  57    0de0f a70f      8.910 "
test,1583577054567109120,23," | 23  |   7326       5   7264       0 |   5    0      7234        30 |   1  57    0    0 de0f |    2.746       0       2       0       2     57     57      0   7095     169       2  57    0de0f a70f     30.360 "
test,1583577054545875200,24," | 24  |   7326       5   7320       2 |   5    0      7242        80 |   2  57    0    0 de0f |    2.746       0       5       0       5     57     57      0   7055     267       2  57    0de0f a70f      8.790 "
test,1583577054544503808,26," | 26  |   7326       5   7320       2 |   5    0      7293        29 |   1  57    0    0 de0f |    2.014       0       5       0       5     57     57      0   7158     164       1  57    0de0f a70f      8.250 "
test,1583577054551245824,27," | 27  |   7326       5   7324       0 |   5    1      7105       219 |   2  57   54    0 de0f |    3.448       0       5       0       5     57     57      0   6828     496       3  57    0de0f a70f     10.290 "
test,1583577054566085120,28," | 28  |   7326       5   7314       8 |   0    2      6739       583 |   0  28   57    1 9b0f |    0           0       0       0       8      0      0      0   6459     863       0  28    19b0f a70f     30.270 "
test,1583577054554790912,29," | 29  |   7326       4   7314      10 |   3    0      6475       849 |   7  57    0    0 de0f |    3.479       0       5       0       5     57     57      0   6164    1160       3  57    0de0f a70f      9.540 "
test,1583577054546443008,30," | 30  |   7326       5   7319       3 |   5    0      7221       101 |   1  35    0    0 d60f |    2.014       0       5       0       5     35     35      0   6951     371       1  35    0d60f a70f      8.130 "
test,1583577054544302848,35," | 35  |   7326       5   7319       3 |   5    0      6970       352 |   2  35    0    1 d60f |    1.739       0       4       0       4     35     35      0   6805     517       2  35    1d60f a70f      6.480 "
test,1583577054547340032,40," | 40  |   7326       5   7244      74 |   5    0      6906       412 |   2  44    0    0 2c0f |    2.014       0       5       0       5     44     44      0   6737     581       1  44    02c0f a70f      9.690 "
test,1583577054546870016,41," | 41  |   7326       5   7253      59 |   5    0      7246        66 |   1  44    0    0 2c0f |    2.044       0       5       0       5     44     44      0   7082     230       1  44    02c0f a70f      9.000 "
test,1583577054570327040,42," | 42  |   7326       5   7260      62 |   5    0      7193       129 |   1  44    0    0 2c0f |    2.044       0       3       0       3     44     44      0   7041     281       1  44    02c0f a70f     30.360 "
test,1583577054547032064,44," | 44  |   7326       5   7265      57 |   4    0      7189       133 |   8  44    0    1 2c0f |    1.739       0       4       0       4     44     44      0   7046     276       2  44    12c0f a70f      6.480 "
test,1583577054548676864,45," | 45  |   7326       5   7279      43 |   5    0      7099       223 |   7  44    0    0 2c0f |    2.075       0       5       0       5     44     44      0   6973     349       1  44    02c0f a70f      8.280 "
test,1583577054556881920,46," | 46  |   7326       5   7258      57 |   5    0      6972       343 |   2  44    0    0 2c0f |    1.983       0       5       0       5     44     44      0   6861     454       1  44    02c0f a70f      8.910 "
test,1583577054548294912,47," | 47  |   7326       5   7265      57 |   5    0      7092       230 |   1  44    0    0 2c0f |    2.044       0       5       0       5     44     44      0   6968     354       1  44    02c0f a70f      8.910 "
test,1583577054548110848,48," | 48  |   7326       5   7200      55 |   5    0      7107       148 |   1  44    0    0 2c0f |    2.014       0       5       0       5     44     44      0   6973     282       1  44    02c0f a70f      8.790 "
test,1583577054545063936,49," | 49  |   7326       5   7316       0 |   5    0      7180       136 |   1  53    0    0 5b0f |    2.014       0       5       0       5     53     53      0   7128     188       1  53    05b0f a70f      8.070 "
test,1583577054550656000,51," | 51  |   7326       5   7317       0 |   5    1      7232        85 |   1  57   54    0 de0f |    2.014       0       5       0       5     57     57      0   7206     111       1  57    0de0f a70f     10.380 "
test,1583577054569221120,52," | 52  |   7326       3   7289      29 |   5    0      6955       363 |   4  57    0    0 de0f |    2.716       0       4       0       4     57     57      0   6828     490       2  57    0de0f a70f     30.360 "
test,1583577054544872960,53," | 53  |   7326       5   7300       0 |   4    0      6919       381 |   2  53    0    1 5b0f |    1.739       0       4       0       4     53     53      0   6845     455       2  53    15b0f a70f      6.480 "
test,1583577054547686144,54," | 54  |   7326       5   7318       0 |   4    0      7198       120 |   2  54    0    1 570f |    1.739       0       4       0       4     54     54      0   7084     234       2  54    1570f a70f      9.360 "
test,1583577054553071872,55," | 55  |   7326       5   7305       0 |   5    0      7031       274 |   1  53    0    0 5b0f |    2.044       0       5       0       5     53     53      0   6972     333       1  53    05b0f a70f      8.220 "
test,1583577054548932096,56," | 56  |   7326       5   7308       0 |   5    0      7199       109 |   1  57    0    0 de0f |    2.014       0       5       0       5     57     57      0   7109     199       1  57    0de0f a70f      9.660 "
test,1583577054552644096,57," | 57  |   7326       5   7263       0 |   4    0      7074       189 |   2  57    0    1 de0f |    1.770       0       4       0       4     57     57      0   6632     631       2  57    1de0f a70f      7.950 "
test,1583577054558381056,58," | 58  |   7326       5   7317       0 |   5    0      7221        96 |   1  54    0    0 570f |    1.983       0       5       0       5     54     54      0   6924     393       1  54    0570f a70f      8.190 "
test,1583577054550874112,5," |  5  |   7326       5   7324       0 |   5    0      6665       659 |   2  54    0    0 570f |    2.746       0       5       0       5     54     54      0   6539     785       2  54    0570f a70f     10.230 "
test,1583577054549907968,60," | 60  |   7326       5   7317       0 |   5    0      6842       475 |   1  57    0    0 de0f |    2.014       0       5       0       5     57     57      0   6696     621       1  57    0de0f a70f      9.660 "
test,1583577054549548032,61," | 61  |   7326       5   7312       4 |   5    0      6994       322 |   1  54    0    0 570f |    2.716       0       5       0       5     54     54      0   6750     566       2  54    0570f a70f      8.910 "
test,1583577054548484096,7," |  7  |   7326       5   7323       0 |   5    0      7215       108 |   1  54    0    0 570f |    2.014       0       5       0       5     54     54      0   7168     155       1  54    0570f a70f      8.910 "
test,1583577054546088960,9," |  9  |   7326       5   7322       0 |   5    0      7076       246 |   1  54    0    0 570f |    2.014       0       5       0       5     54     54      0   7041     281       1  54    0570f a70f      8.970 "
