test,1583577159296207872,10," | 10  |   7745       5   7717       0 |   5    0      7596       121 |   1   1    0    0 e90f |    1.342       0       5       0       5      1      1      0   7513     204       1   1    0e90f a70f      7.560 "
test,1583577159297627904,12," | 12  |   7745       5   7709      34 |   5    0      7665        78 |   2   1    0    0 e90f |    2.105       0       5       0       5      1      1      0   7531     212       2   1    0e90f a70f      8.340 "
test,1583577159296019968,13," | 13  |   7745       5   7741       0 |   5    0      7680        61 |   1   1    0    0 e90f |    1.373       0       5       0       5      1      1      0   7601     140       1   1    0e90f a70f      7.620 "
test,1583577159318002944,15," | 15  |   7745       5   7700      43 |   0    5      7426       317 |   0  15   26    1 820f |    0           0       0       0       8      0      0      0   7075     668       0  15    1820f a70f     30.180 "
test,1583577159298991872,16," | 16  |   7745       5   7741       0 |   5    0      7452       289 |   1  26    0    0 8e0f |    2.014       0       5       0       5     26     26      0   7253     488       1  26    08e0f a70f      9.600 "
test,1583577159319852032,17," | 17  |   7745       5   7731      10 |   3    9      7637       104 |   5  17   26    1 860f |   12.420       0       1       0       1     17     17      0   7406     335      17  17    1860f a70f     30.210 "
test,1583577159302253056,18," | 18  |   7745       5   7740       0 |   5    0      7331       409 |   2  26    0    0 8e0f |    2.014       0       5       0       5     26     26      0   7033     707       1  26    08e0f a70f      8.970 "
test,1583577159319271936,19," | 19  |   7745       5   7727      14 |   5    0      7590       151 |   3  26    0    0 8e0f |    3.448       0       2       0       2     26     26      0   7382     359       3  26    08e0f a70f     30.390 "
test,1583577159297060864,1," |  1  |   7745       4   7742       0 |   4    0      7539       203 |   4   1    0    1 e90f |    1.739       0       4       0       4      1      1      0   7488     254       2   1    1e90f a70f      6.480 "
test,1583577159302383872,22," | 22  |   7745       5   7739       0 |   5    0      7672        67 |   2  26    0    0 8e0f |    1.983       0       5       0       5     26     26      0   7332     407       1  26    08e0f a70f      8.220 "
test,1583577159301019904,23," | 23  |   7745       5   7683       0 |   5    0      7648        35 |   1  26    0    0 8e0f |    2.014       0       5       0       5     26     26      0   7499     184       1  26    08e0f a70f      8.850 "
test,1583577159300358144,24," | 24  |   7745       5   7739       2 |   5    0      7654        87 |   1  26    0    0 8e0f |    1.983       0       5       0       5     26     26      0   7460     281       1  26    08e0f a70f      8.190 "
test,1583577159298429952,26," | 26  |   7745       5   7739       2 |   5    0      7710        31 |   2  26    0    1 8e0f |    1.739       0       4       0       4     26     26      0   7569     172       2  26    18e0f a70f      7.920 "
test,1583577159306418944,27," | 27  |   7745       5   7743       0 |   5    3      7513       230 |   1  17   26    0 860f |    2.014       0       5       0       5     17     17      0   7217     526       1  17    0860f a70f     12.990 "
test,1583577159318151936,28," | 28  |   7745       3   7733       8 |   0    7      7129       612 |   0  28   17    1 b30f |    0           0       0       0       8      0      0      0   6819     922       0  28    1b30f a70f     30.180 "
test,1583577159320548096,29," | 29  |   7745       3   7732      11 |   3    2      6859       884 |   2  17   26    0 860f |    2.746       0       3       0       3     17     17      0   6526    1217       2  17    0860f a70f     30.360 "
test,1583577159303542016,30," | 30  |   7745       4   7738       3 |   5    0      7633       108 |   4  26    0    0 8e0f |    2.746       0       5       0       5     26     26      0   7345     396       2  26    08e0f a70f      9.660 "
test,1583577159304339968,35," | 35  |   7745       4   7738       3 |   5    0      7366       375 |   3  26    0    0 8e0f |    2.777       0       5       0       5     26     26      0   7189     552       2  26    08e0f a70f      9.000 "
test,1583577159302763008,40," | 40  |   7745       5   7663      74 |   5    0      7303       434 |   2  47    0    0 760f |    2.014       0       5       0       5     47     47      0   7121     616       1  47    0760f a70f      8.940 "
test,1583577159304555008,41," | 41  |   7745       5   7672      59 |   5    0      7662        69 |   2  47    0    0 760f |    2.044       0       5       0       5     47     47      0   7487     244       1  47    0760f a70f      8.970 "
test,1583577159298582016,42," | 42  |   7745       5   7679      62 |   5    0      7601       140 |   1  47    0    0 760f |    2.014       0       5       0       5     47     47      0   7443     298       1  47    0760f a70f      8.280 "
test,1583577159299524096,44," | 44  |   7745       5   7684      57 |   5    0      7601       140 |   2  47    0    0 760f |    2.044       0       5       0       5     47     47      0   7449     292       1  47    0760f a70f      9.000 "
test,1583577159301139200,45," | 45  |   7745       5   7698      43 |   5    0      7505       236 |   1  47    0    0 760f |    2.075       0       5       0       5     47     47      0   7371     370       1  47    0760f a70f      8.820 "
test,1583577159301883904,46," | 46  |   7745       5   7677      57 |   5    0      7364       370 |   1  47    0    0 760f |    2.044       0       5       0       5     47     47      0   7247     487       1  47    0760f a70f      8.850 "
test,1583577159298156032,47," | 47  |   7745       5   7684      57 |   4    0      7498       243 |   2  47    0    1 760f |    1.739       0       4       0       4     47     47      0   7368     373       2  47    1760f a70f      6.510 "
test,1583577159299143936,48," | 48  |   7745       5   7619      55 |   5    0      7515       159 |   1  47    0    0 760f |    2.014       0       5       0       5     47     47      0   7376     298       1  47    0760f a70f      8.790 "
test,1583577159300823040,49," | 49  |   7745       5   7735       0 |   5    0      7586       149 |   3   1    0    0 e90f |    2.807       0       5       0       5      1      1      0   7532     203       3   1    0e90f a70f      8.880 "
test,1583577159297883136,51," | 51  |   7745       5   7736       0 |   5    0      7648        88 |   1   1    0    0 e90f |    1.342       0       5       0       5      1      1      0   7621     115       1   1    0e90f a70f      7.440 "
test,1583577159302953984,52," | 52  |   7745       5   7706      31 |   5    0      7348       389 |   1  26    0    0 8e0f |    1.953       0       5       0       5     26     26      0   7211     526       1  26    08e0f a70f     10.350 "
test,1583577159301632768,53," | 53  |   7745       5   7719       0 |   5    0      7321       398 |   3   1    0    0 e90f |    2.777       0       5       0       5      1      1      0   7243     476       3   1    0e90f a70f      8.970 "
test,1583577159296535040,54," | 54  |   7745       5   7737       0 |   5    0      7612       125 |   1   1    0    0 e90f |    1.312       0       5       0       5      1      1      0   7486     251       1   1    0e90f a70f      7.410 "
test,1583577159300542208,55," | 55  |   7745       5   7724       0 |   5    0      7433       291 |   3   1    0    0 e90f |    2.807       0       5       0       5      1      1      0   7367     357       3   1    0e90f a70f      8.850 "
test,1583577159297373184,56," | 56  |   7745       5   7727       0 |   5    0      7612       115 |   2   1    0    0 e90f |    2.075       0       5       0       5      1      1      0   7518     209       2   1    0e90f a70f      8.280 "
test,1583577159301459968,57," | 57  |   7745       5   7682       0 |   2    0      7482       200 |   2  26    0    0 8e0f |    2.014       0       5       0       5     26     26      0   7019     663       1  26    08e0f a70f      9.690 "
test,1583577159299292928,58," | 58  |   7745       5   7736       0 |   5    0      7633       103 |   2   1    0    0 e90f |    2.075       0       5       0       5      1      1      0   7317     419       2   1    0e90f a70f      8.160 "
test,1583577159300685056,5," |  5  |   7745       4   7743       0 |   5    0      7032       711 |   2   1    0    0 e90f |    2.075       0       5       0       5      1      1      0   6902     841       2   1    0e90f a70f      9.000 "
test,1583577159299923968,60," | 60  |   7745       5   7736       0 |   5    0      7229       507 |   2   1    0    0 e90f |    2.075       0       5       0       5      1      1      0   7076     660       2   1    0e90f a70f      8.190 "
test,1583577159318967040,61," | 61  |   7745       5   7729       6 |   5    0      7386       349 |   3   1    0    0 e90f |    2.075       0       4       0       4      1      1      0   7127     608       2   1    0e90f a70f     30.360 "
test,1583577159297184000,7," |  7  |   7745       5   7742       0 |   5    0      7625       117 |   1   1    0    0 e90f |    1.373       0       5       0       5      1      1      0   7574     168       1   1    0e90f a70f      7.590 "
test,1583577159295842816,9," |  9  |   7745       5   7741       0 |   5    0      7486       255 |   1   1    0    0 e90f |    1.342       0       5       0       5      1      1      0   7450     291       1   1    0e90f a70f      7.560 "
