test,1583577114815965952,10," | 10  |   7567       5   7539       0 |   5    9      7421       118 |   1  58   57    0 540f |    0           0       0       0       8      0      0      0   7338     201       0  58    0540f a70f     30.390 "
test,1583577114813558016,12," | 12  |   7567       5   7531      34 |   5    8      7487        78 |   1  58    7    0 540f |    0           0       0       0       8      0      0      0   7359     206       0  58    0540f a70f     30.390 "
test,1583577114796662016,13," | 13  |   7567       5   7563       0 |   5    0      7502        61 |   1   7    0    0 730f |    2.014       0       5       0       5      7      7      0   7425     138       1   7    0730f a70f      8.250 "
test,1583577114815501824,15," | 15  |   7567       5   7522      43 |   3    0      7253       312 |   7  58    0    0 540f |    0           0       0       0       8      0      0      0   6913     652       0  58    0540f a70f     30.360 "
test,1583577114818085888,16," | 16  |   7567       5   7563       0 |   0    5      7281       282 |   0  16   46    1 ae0f |    0           0       0       0       8      0      0      0   7085     478       0  16    1ae0f a70f     30.150 "
test,1583577114820806912,17," | 17  |   7567       5   7553      10 |   5    9      7463       100 |   1  27   57    0 5c0f |    2.014       0       1       0       1     27     27      0   7235     328       1  27    05c0f a70f     30.390 "
test,1583577114817320960,18," | 18  |   7567       5   7562       0 |   0   10      7166       396 |   0  18   27    1 eb0f |    0           0       0       0       8      0      0      0   6870     692       0  18    1eb0f a70f     30.210 "
test,1583577114820251904,19," | 19  |   7567       5   7549      14 |   5    7      7419       144 |   1  27   57    0 5c0f |    2.014       0       1       0       1     27     27      0   7213     350       1  27    05c0f a70f     30.390 "
test,1583577114795846912,1," |  1  |   7567       4   7564       0 |   5    0      7365       199 |   1   7    0    0 730f |    2.685       0       5       0       5      7      7      0   7314     250       1   7    0730f a70f      8.730 "
test,1583577114802208000,22," | 22  |   7567       5   7561       0 |   5    0      7494        67 |   1  57    0    0 8b0f |    2.746       0       5       0       5     57     57      0   7161     400       2  57    08b0f a70f      8.820 "
test,1583577114818814976,23," | 23  |   7567       5   7505       0 |   5    0      7473        32 |   1  57    0    0 8b0f |    2.777       0       4       0       4     57     57      0   7329     176       2  57    08b0f a70f     30.360 "
test,1583577114798598144,24," | 24  |   7567       5   7561       2 |   5    0      7480        83 |   2  57    0    0 8b0f |    2.746       0       5       0       5     57     57      0   7289     274       2  57    08b0f a70f      8.880 "
test,1583577114799060992,26," | 26  |   7567       5   7561       2 |   5    0      7533        30 |   1  57    0    0 8b0f |    2.044       0       5       0       5     57     57      0   7394     169       1  57    08b0f a70f      8.130 "
test,1583577114821432064,27," | 27  |   7567       5   7565       0 |   4    4      7342       223 |   5  27   57    1 5c0f |    1.739       0       1       0       1     27     27      0   7056     509       2  27    15c0f a70f     30.300 "
test,1583577114816395008,28," | 28  |   7567       5   7555       8 |   3    5      6964       599 |   3  57   30    0 8b0f |    0           0       0       0       8      0      0      0   6666     897       0  57    08b0f a70f     30.300 "
test,1583577114821224960,29," | 29  |   7567       3   7555      10 |   5    0      6700       865 |   1  27    0    0 5c0f |    2.746       0       1       0       1     27     27      0   6378    1187       2  27    05c0f a70f     30.390 "
test,1583577114815206144,30," | 30  |   7567       5   7560       3 |   0    5      7455       108 |   0  30   57    1 840f |    0           0       0       0       8      0      0      0   7178     385       0  30    1840f a70f     30.240 "
test,1583577114819331840,35," | 35  |   7567       5   7560       3 |   4    5      7196       367 |   4  57   30    0 8b0f |    3.479       0       4       0       4     57     57      0   7028     535       3  57    08b0f a70f     30.270 "
test,1583577114800658944,40," | 40  |   7567       5   7485      74 |   3    0      7139       420 |   1  46    0    0 160f |    2.746       0       5       0       5     46     46      0   6965     594       2  46    0160f a70f      9.690 "
test,1583577114799266048,41," | 41  |   7567       5   7494      59 |   4    1      7484        69 |   1  46   16    0 160f |    2.014       0       5       0       5     46     46      0   7313     240       1  46    0160f a70f      8.970 "
test,1583577114800014080,42," | 42  |   7567       5   7501      62 |   4    7      7428       135 |   1  46   57    0 160f |    2.014       0       5       0       5     46     46      0   7273     290       1  46    0160f a70f      9.660 "
test,1583577114801832960,44," | 44  |   7567       5   7506      57 |   4    8      7427       136 |   1  46   57    0 160f |    2.014       0       5       0       5     46     46      0   7279     284       1  46    0160f a70f      8.850 "
test,1583577114799417856,45," | 45  |   7567       5   7520      43 |   4    2      7332       231 |   1  46   16    0 160f |    2.746       0       5       0       5     46     46      0   7202     361       2  46    0160f a70f      8.790 "
test,1583577114800497152,46," | 46  |   7567       5   7499      57 |   3    0      7197       359 |   5  46    0    1 160f |    1.739       0       4       0       4     46     46      0   7082     474       2  46    1160f a70f      6.510 "
test,1583577114798897920,47," | 47  |   7567       5   7506      57 |   4    0      7326       237 |   1  46    0    0 160f |    2.044       0       5       0       5     46     46      0   7197     366       1  46    0160f a70f      8.850 "
test,1583577114804701952,48," | 48  |   7567       5   7441      55 |   2    4      7343       153 |   1  46   57    0 160f |    2.044       0       5       0       5     46     46      0   7207     289       1  46    0160f a70f     10.260 "
test,1583577114797528064,49," | 49  |   7567       5   7557       0 |   5    0      7413       144 |   2  55    0    0 950f |    2.807       0       5       0       5     55     55      0   7361     196       2  55    0950f a70f      8.940 "
test,1583577114799770112,51," | 51  |   7567       5   7558       0 |   5    2      7471        87 |   1  57    7    0 8b0f |    2.746       0       5       0       5     57     57      0   7444     114       2  57    08b0f a70f      8.910 "
test,1583577114803108864,52," | 52  |   7567       5   7529      30 |   3    4      7181       378 |   2  57   16    0 8b0f |    3.479       0       5       0       5     57     57      0   7048     511       3  57    08b0f a70f     10.380 "
test,1583577114798188800,53," | 53  |   7567       5   7541       0 |   5    0      7149       392 |   1  55    0    0 950f |    2.014       0       5       0       5     55     55      0   7073     468       1  55    0950f a70f      8.160 "
test,1583577114815686912,54," | 54  |   7567       5   7559       0 |   5    9      7434       125 |   1  58    7    0 540f |    0           0       0       0       8      0      0      0   7312     247       0  58    0540f a70f     30.390 "
test,1583577114796976128,55," | 55  |   7567       5   7546       0 |   4    0      7259       287 |   2  55    0    1 950f |    1.770       0       4       0       4     55     55      0   7198     348       2  55    1950f a70f      6.510 "
test,1583577114796183040,56," | 56  |   7567       5   7549       0 |   4    9      7436       113 |   1  57   58    0 8b0f |    2.044       0       5       0       5     57     57      0   7342     207       1  57    08b0f a70f      8.250 "
test,1583577114808626944,57," | 57  |   7567       5   7504       0 |   4    0      7310       194 |   4  57    0    1 8b0f |    1.770       0       4       0       4     57     57      0   6852     652       2  57    18b0f a70f      7.950 "
test,1583577114797324032,58," | 58  |   7567       5   7558       0 |   4    3      7457       101 |   5  58   57    1 540f |    1.739       0       4       0       4     58     58      0   7152     406       2  58    1540f a70f      6.510 "
test,1583577114814429952,5," |  5  |   7567       5   7565       0 |   5    4      6877       688 |   2  58    7    0 540f |    0           0       0       0       8      0      0      0   6748     817       0  58    0540f a70f     30.360 "
test,1583577114796422912,60," | 60  |   7567       5   7558       0 |   5    0      7069       489 |   1  57    0    0 8b0f |    2.044       0       5       0       5     57     57      0   6918     640       1  57    08b0f a70f      8.250 "
test,1583577114805624064,61," | 61  |   7567       5   7553       4 |   5    7      7222       335 |   1  58   57    0 540f |    1.983       0       5       0       5     58     58      0   6970     587       1  58    0540f a70f      8.220 "
test,1583577114795195136,7," |  7  |   7567       5   7564       0 |   4    0      7451       113 |   4   7    0    1 730f |    1.739       0       4       0       4      7      7      0   7401     163       2   7    1730f a70f      6.480 "
test,1583577114797713920,9," |  9  |   7567       5   7563       0 |   5    0      7313       250 |   2   7    0    0 730f |    1.983       0       5       0       5      7      7      0   7277     286       1   7    0730f a70f      8.130 "
