test,1583577072546538240,10," | 10  |   7398       5   7370       0 |   5    0      7254       116 |   1  54    0    0 270f |    2.014       0       5       0       5     54     54      0   7173     197       1  54    0270f a70f      8.160 "
test,1583577072551835136,12," | 12  |   7398       5   7362      34 |   5    0      7318        78 |   1  54    0    0 270f |    2.014       0       5       0       5     54     54      0   7195     201       1  54    0270f a70f      8.970 "
test,1583577072547662848,13," | 13  |   7398       5   7394       0 |   5    0      7333        61 |   1  54    0    0 270f |    2.044       0       5       0       5     54     54      0   7258     136       1  54    0270f a70f      8.970 "
test,1583577072548082944,15," | 15  |   7398       4   7353      43 |   5    0      7090       306 |   2  54    0    0 270f |    2.746       0       5       0       5     54     54      0   6763     633       2  54    0270f a70f      9.690 "
test,1583577072565944064,16," | 16  |   7398       5   7394       0 |   1    9      7120       274 |   2  46   18    0 210f |    0           0       0       0       8      0      0      0   6929     465       0  46    0210f a70f     30.390 "
test,1583577072547832064,17," | 17  |   7398       5   7384      10 |   5    0      7296        98 |   2  18    0    0 330f |    4.211       0       5       0       5     18     18      0   7075     319       4  18    0330f a70f     10.350 "
test,1583577072544687872,18," | 18  |   7398       5   7393       0 |   4    0      7007       386 |   4  18    0    1 330f |    1.739       0       4       0       4     18     18      0   6716     677       2  18    1330f a70f      6.480 "
test,1583577072557430016,19," | 19  |   7398       5   7380      14 |   5    0      7251       143 |   2  18    0    0 330f |    4.241       0       5       0       5     18     18      0   7048     346       4  18    0330f a70f     11.010 "
test,1583577072550180864,1," |  1  |   7398       4   7395       0 |   5    0      7197       198 |   1  54    0    0 270f |    2.685       0       5       0       5     54     54      0   7146     249       1  54    0270f a70f      8.880 "
test,1583577072546024192,22," | 22  |   7398       5   7392       0 |   5    0      7326        66 |   3  18    0    0 330f |    2.044       0       5       0       5     18     18      0   6997     395       1  18    0330f a70f      8.190 "
test,1583577072551116032,23," | 23  |   7398       5   7336       0 |   5    0      7306        30 |   3  18    0    0 330f |    3.479       0       5       0       5     18     18      0   7166     170       3  18    0330f a70f     10.260 "
test,1583577072546746880,24," | 24  |   7398       5   7392       2 |   5    0      7313        81 |   1  18    0    0 330f |    2.014       0       5       0       5     18     18      0   7125     269       1  18    0330f a70f      8.760 "
test,1583577072549122048,26," | 26  |   7398       5   7392       2 |   5    0      7365        29 |   2  18    0    0 330f |    1.983       0       5       0       5     18     18      0   7228     166       1  18    0330f a70f      8.940 "
test,1583577072550918144,27," | 27  |   7398       4   7396       0 |   5    0      7176       220 |   3  18    0    0 330f |    4.241       0       5       0       5     18     18      0   6898     498       4  18    0330f a70f     11.070 "
test,1583577072551629056,28," | 28  |   7398       4   7386       8 |   5    0      6806       588 |   1  30    0    0 270f |    2.044       0       5       0       5     30     30      0   6525     869       1  30    0270f a70f      8.280 "
test,1583577072569303040,29," | 29  |   7398       4   7386      10 |   4    0      6543       853 |   4  18    0    0 330f |    6.408       0       2       0       2     18     18      0   6229    1167       7  18    0330f a70f     30.360 "
test,1583577072548247040,30," | 30  |   7398       5   7391       3 |   4    0      7290       104 |   2  30    0    1 270f |    1.739       0       4       0       4     30     30      0   7020     374       2  30    1270f a70f      6.480 "
test,1583577072549818880,35," | 35  |   7398       5   7391       3 |   5    0      7040       354 |   1  30    0    0 270f |    2.014       0       5       0       5     30     30      0   6875     519       1  30    0270f a70f      8.250 "
test,1583577072568854016,40," | 40  |   7398       5   7316      74 |   2    2      6975       415 |   2  46   18    0 210f |    2.777       0       2       0       2     46     46      0   6805     585       2  46    0210f a70f     30.390 "
test,1583577072568229888,41," | 41  |   7398       5   7325      59 |   3    4      7316        68 |   1  46   18    0 210f |    2.044       0       2       0       2     46     46      0   7150     234       1  46    0210f a70f     30.300 "
test,1583577072567706112,42," | 42  |   7398       5   7332      62 |   2    2      7265       129 |   1  46   18    0 210f |    2.044       0       2       0       2     46     46      0   7113     281       1  46    0210f a70f     30.360 "
test,1583577072567079936,44," | 44  |   7398       5   7337      57 |   1    2      7260       134 |   1  46   18    0 210f |    2.075       0       2       0       2     46     46      0   7115     279       1  46    0210f a70f     30.390 "
test,1583577072567557120,45," | 45  |   7398       5   7351      43 |   3    0      7168       226 |   1  46    0    0 210f |    2.044       0       2       0       2     46     46      0   7041     353       1  46    0210f a70f     30.360 "
test,1583577072568630016,46," | 46  |   7398       5   7330      57 |   2    0      7040       347 |   4  46    0    1 210f |    1.739       0       2       0       2     46     46      0   6929     458       2  46    1210f a70f     30.300 "
test,1583577072567294976,47," | 47  |   7398       5   7337      57 |   3    1      7161       233 |   1  46   18    0 210f |    2.044       0       2       0       2     46     46      0   7036     358       1  46    0210f a70f     30.330 "
test,1583577072566852096,48," | 48  |   7398       5   7272      55 |   2    3      7176       151 |   1  46   18    0 210f |    2.044       0       1       0       1     46     46      0   7043     284       1  46    0210f a70f     30.360 "
test,1583577072545153024,49," | 49  |   7398       5   7388       0 |   5    0      7249       139 |   1  53    0    0 a00f |    2.075       0       5       0       5     53     53      0   7197     191       1  53    0a00f a70f      8.220 "
test,1583577072547447040,51," | 51  |   7398       5   7389       0 |   5    0      7304        85 |   2  54    0    0 270f |    2.716       0       5       0       5     54     54      0   7278     111       2  54    0270f a70f      8.940 "
test,1583577072552325888,52," | 52  |   7398       5   7361      29 |   5    0      7024       366 |   3  18    0    0 330f |    2.777       0       5       0       5     18     18      0   6897     493       2  18    0330f a70f     11.850 "
test,1583577072545355008,53," | 53  |   7398       5   7372       0 |   4    0      6987       385 |   2  53    0    1 a00f |    1.739       0       4       0       4     53     53      0   6913     459       2  53    1a00f a70f      6.480 "
test,1583577072544878848,54," | 54  |   7398       5   7390       0 |   5    0      7268       122 |   2  54    0    1 270f |    1.739       0       4       0       4     54     54      0   7151     239       2  54    1270f a70f      6.510 "
test,1583577072545607168,55," | 55  |   7398       5   7377       0 |   5    0      7098       279 |   1  53    0    0 a00f |    2.075       0       5       0       5     53     53      0   7039     338       1  53    0a00f a70f      8.160 "
test,1583577072555380992,56," | 56  |   7398       5   7380       0 |   5    0      7270       110 |   2  54    0    0 270f |    2.777       0       5       0       5     54     54      0   7181     199       2  54    0270f a70f      9.540 "
test,1583577072549434880,57," | 57  |   7398       5   7335       0 |   1    0      7146       189 |  14  18    0    0 330f |    2.777       0       5       0       5     18     18      0   6702     633       2  18    0330f a70f      8.850 "
test,1583577072546291968,58," | 58  |   7398       5   7389       0 |   5    0      7292        97 |   1  54    0    0 270f |    2.014       0       5       0       5     54     54      0   6993     396       1  54    0270f a70f      8.220 "
test,1583577072548500992,5," |  5  |   7398       5   7396       0 |   5    0      6730       666 |   2  54    0    0 270f |    2.746       0       5       0       5     54     54      0   6603     793       2  54    0270f a70f      9.630 "
test,1583577072550363136,60," | 60  |   7398       5   7389       0 |   5    0      6911       478 |   3  54    0    0 270f |    3.448       0       5       0       5     54     54      0   6764     625       3  54    0270f a70f      9.630 "
test,1583577072547272960,61," | 61  |   7398       5   7384       4 |   5    0      7062       326 |   1  54    0    0 270f |    2.014       0       5       0       5     54     54      0   6817     571       1  54    0270f a70f      8.250 "
test,1583577072545760000,7," |  7  |   7398       5   7395       0 |   5    0      7286       109 |   1  54    0    0 270f |    1.983       0       5       0       5     54     54      0   7236     159       1  54    0270f a70f      8.220 "
test,1583577072548667904,9," |  9  |   7398       5   7394       0 |   5    0      7147       247 |   1  54    0    0 270f |    2.014       0       5       0       5     54     54      0   7111     283       1  54    0270f a70f      8.280 "
