test,1583577213304357120,10," | 10  |   7961       5   7933       0 |   5    0      7810       123 |   2  12    0    0 7e0f |    2.807       0       5       0       5     12     12      0   7723     210       2  12    07e0f a70f      9.060 "
test,1583577213297632000,12," | 12  |   7961       5   7925      34 |   5    0      7878        81 |   2  12    0    1 7e0f |    1.739       0       4       0       4     12     12      0   7740     219       2  12    17e0f a70f      6.480 "
test,1583577213300934144,13," | 13  |   7961       5   7957       0 |   5    0      7895        62 |   1  12    0    0 7e0f |    2.777       0       5       0       5     12     12      0   7815     142       2  12    07e0f a70f      9.720 "
test,1583577213298726912,15," | 15  |   7961       5   7916      43 |   5    0      7634       325 |   1  12    0    0 7e0f |    2.044       0       5       0       5     12     12      0   7269     690       1  12    07e0f a70f      8.280 "
test,1583577213300753152,16," | 16  |   7961       5   7957       0 |   5    0      7658       299 |   2  17    0    0 1c0f |    2.014       0       5       0       5     17     17      0   7457     500       1  17    01c0f a70f      8.940 "
test,1583577213300571904,17," | 17  |   7961       5   7946      11 |   4    0      7851       106 |   2  17    0    1 1c0f |    1.739       0       4       0       4     17     17      0   7615     342       2  17    11c0f a70f      6.480 "
test,1583577213302323200,18," | 18  |   7961       5   7956       0 |   5    0      7529       427 |   2  17    0    0 1c0f |    2.716       0       5       0       5     17     17      0   7224     732       2  17    01c0f a70f     11.730 "
test,1583577213301150976,19," | 19  |   7961       5   7942      15 |   5    0      7802       155 |   1  17    0    0 1c0f |    2.014       0       5       0       5     17     17      0   7586     371       1  17    01c0f a70f      8.130 "
test,1583577213303420928,1," |  1  |   7961       4   7958       0 |   5    0      7748       210 |   1  12    0    0 7e0f |    2.746       0       5       0       5     12     12      0   7696     262       1  12    07e0f a70f      8.850 "
test,1583577213301302016,22," | 22  |   7961       5   7955       0 |   5    0      7888        67 |   1  17    0    0 1c0f |    2.014       0       5       0       5     17     17      0   7540     415       1  17    01c0f a70f      8.220 "
test,1583577213300419072,23," | 23  |   7961       5   7899       0 |   5    0      7863        36 |   1  17    0    0 1c0f |    2.044       0       5       0       5     17     17      0   7712     187       1  17    01c0f a70f      9.720 "
test,1583577213297848832,24," | 24  |   7961       5   7955       2 |   5    0      7867        90 |   1  17    0    0 1c0f |    2.014       0       5       0       5     17     17      0   7669     288       1  17    01c0f a70f      8.220 "
test,1583577213298209024,26," | 26  |   7961       5   7955       2 |   5    0      7925        32 |   1  17    0    0 1c0f |    2.044       0       5       0       5     17     17      0   7781     176       1  17    01c0f a70f      8.130 "
test,1583577213323194112,27," | 27  |   7961       5   7959       0 |   5    0      7724       235 |   1  17    0    0 1c0f |    2.746       0       4       0       4     17     17      0   7414     545       2  17    01c0f a70f     30.390 "
test,1583577213306788864,28," | 28  |   7961       5   7949       8 |   5    0      7329       628 |   1  17    0    0 1c0f |    2.014       0       5       0       5     17     17      0   7012     945       1  17    01c0f a70f     10.290 "
test,1583577213320111872,29," | 29  |   7961       5   7946      13 |   0    1      7049       910 |   0  29   17    1 200f |    0           0       0       0       8      0      0      0   6704    1255       0  29    1200f a70f     30.120 "
test,1583577213301620992,30," | 30  |   7961       5   7954       3 |   5    0      7846       111 |   4  17    0    0 1c0f |    2.777       0       5       0       5     17     17      0   7551     406       2  17    01c0f a70f      9.630 "
test,1583577213299185920,35," | 35  |   7961       5   7954       3 |   5    0      7574       383 |   4  17    0    0 1c0f |    2.777       0       5       0       5     17     17      0   7394     563       2  17    01c0f a70f      9.000 "
test,1583577213318223104,40," | 40  |   7961       5   7879      74 |   0    3      7505       448 |   0  40   17    1 510f |    0           0       0       0       8      0      0      0   7311     642       0  40    1510f a70f     30.060 "
test,1583577213299416064,41," | 41  |   7961       5   7888      59 |   3    4      7876        71 |   1  46   40    0 ea0f |    2.014       0       5       0       5     46     46      0   7695     252       1  46    0ea0f a70f      8.160 "
test,1583577213321988096,42," | 42  |   7961       5   7895      62 |   1    4      7812       145 |   3  17   40    0 1c0f |   10.070       0       2       0       2     17     17      0   7650     307      12  17    01c0f a70f     30.390 "
test,1583577213322462976,44," | 44  |   7961       5   7900      57 |   3    0      7813       144 |   4  17    0    0 1c0f |   10.101       0       2       0       2     17     17      0   7659     298      12  17    01c0f a70f     30.390 "
test,1583577213321422080,45," | 45  |   7961       5   7914      43 |   4    2      7716       241 |   3  17   40    0 1c0f |    9.338       0       3       0       3     17     17      0   7580     377      11  17    01c0f a70f     30.300 "
test,1583577213293363968,46," | 46  |   7961       5   7893      57 |   2    0      7567       383 |   2  46    0    1 ea0f |    1.739       0       4       0       4     46     46      0   7446     504       2  46    1ea0f a70f      6.510 "
test,1583577213322235136,47," | 47  |   7961       5   7900      57 |   4    4      7710       247 |   3  17   40    0 1c0f |   10.803       0       2       0       2     17     17      0   7577     380      13  17    01c0f a70f     30.390 "
test,1583577213320269056,48," | 48  |   7961       5   7835      55 |   4    4      7728       162 |   2  17   40    0 1c0f |   11.505       0       1       0       1     17     17      0   7581     309      14  17    01c0f a70f     30.360 "
test,1583577213303930112,49," | 49  |   7961       5   7951       0 |   5    0      7797       154 |   5  12    0    0 7e0f |    4.272       0       5       0       5     12     12      0   7739     212       4  12    07e0f a70f     10.290 "
test,1583577213321193984,51," | 51  |   7961       5   7952       0 |   5    0      7862        90 |   3  12    0    0 7e0f |    2.807       0       3       0       3     12     12      0   7835     117       2  12    07e0f a70f     30.330 "
test,1583577213306989824,52," | 52  |   7961       5   7922      31 |   3    0      7556       397 |   3  17    0    0 1c0f |    2.777       0       5       0       5     17     17      0   7418     535       2  17    01c0f a70f     10.470 "
test,1583577213302155008,53," | 53  |   7961       5   7935       0 |   5    0      7533       402 |   6  12    0    0 7e0f |    4.974       0       5       0       5     12     12      0   7451     484       5  12    07e0f a70f     11.160 "
test,1583577213300165888,54," | 54  |   7961       5   7953       0 |   5    0      7820       133 |   1  12    0    0 7e0f |    2.807       0       5       0       5     12     12      0   7687     266       2  12    07e0f a70f      9.750 "
test,1583577213305986048,55," | 55  |   7961       5   7940       0 |   5    0      7640       300 |   5  12    0    0 7e0f |    4.211       0       5       0       5     12     12      0   7570     370       4  12    07e0f a70f     10.410 "
test,1583577213319458048,56," | 56  |   7961       5   7943       0 |   0    7      7824       119 |   0  56   12    1 c50f |    0           0       0       0       8      0      0      0   7727     216       0  56    1c50f a70f     30.150 "
test,1583577213320983040,57," | 57  |   7961       3   7898       0 |   5    0      7688       210 |   2  17    0    0 1c0f |    2.777       0       4       0       4     17     17      0   7207     691       2  17    01c0f a70f     30.390 "
test,1583577213319783936,58," | 58  |   7961       5   7952       0 |   4    5      7844       108 |   4  12   61    0 7e0f |    3.479       0       4       0       4     12     12      0   7520     432       3  12    07e0f a70f     30.390 "
test,1583577213298369024,5," |  5  |   7961       5   7959       0 |   5    0      7227       732 |   1  12    0    0 7e0f |    2.044       0       5       0       5     12     12      0   7094     865       1  12    07e0f a70f      8.250 "
test,1583577213322735104,60," | 60  |   7961       5   7952       0 |   4    7      7432       520 |   3  17   56    0 1c0f |    6.439       0       2       0       2     17     17      0   7273     679       7  17    01c0f a70f     30.360 "
test,1583577213318785792,61," | 61  |   7961       5   7944       7 |   0    7      7591       360 |   0  61   12    1 100f |    0           0       0       0       8      0      0      0   7323     628       0  61    1100f a70f     30.240 "
test,1583577213305306880,7," |  7  |   7961       5   7958       0 |   5    0      7837       121 |   1  12    0    0 7e0f |    2.044       0       5       0       5     12     12      0   7782     176       1  12    07e0f a70f      8.280 "
test,1583577213301827072,9," |  9  |   7961       5   7957       0 |   5    0      7698       259 |   1  12    0    0 7e0f |    2.075       0       5       0       5     12     12      0   7660     297       1  12    07e0f a70f      8.310 "
