test,1583577120800726784,10," | 10  |   7591       5   7563       0 |   5    0      7445       118 |   3  57    0    0 dc0f |    2.716       0       5       0       5     57     57      0   7362     201       2  57    0dc0f a70f     10.230 "
test,1583577120817475072,12," | 12  |   7591       5   7555      34 |   5    0      7511        78 |   1   5    0    0 1d0f |    2.044       0       1       0       1      5      5      0   7380     209       1   5    01d0f a70f     30.360 "
test,1583577120817807872,13," | 13  |   7591       5   7587       0 |   1    9      7526        61 |   1   5   57    0 1d0f |    2.014       0       1       0       1      5      5      0   7449     138       1   5    01d0f a70f     30.390 "
test,1583577120819433984,15," | 15  |   7591       5   7546      43 |   5    0      7277       312 |   2   5    0    0 1d0f |    2.746       0       1       0       1      5      5      0   6933     656       2   5    01d0f a70f     30.360 "
test,1583577120800903168,16," | 16  |   7591       5   7587       0 |   5    0      7304       283 |   2  24    0    0 740f |    3.479       0       5       0       5     24     24      0   7107     480       3  24    0740f a70f     10.440 "
test,1583577120802661888,17," | 17  |   7591       5   7577      10 |   5    0      7486       101 |   1  24    0    0 740f |    2.075       0       5       0       5     24     24      0   7257     330       1  24    0740f a70f      8.190 "
test,1583577120809079040,18," | 18  |   7591       5   7586       0 |   5    0      7189       397 |   1  24    0    0 740f |    2.014       0       5       0       5     24     24      0   6892     694       1  24    0740f a70f      8.250 "
test,1583577120804100096,19," | 19  |   7591       5   7573      14 |   5    0      7442       145 |   1  24    0    0 740f |    2.075       0       5       0       5     24     24      0   7236     351       1  24    0740f a70f      8.160 "
test,1583577120812844032,1," |  1  |   7591       4   7588       0 |   5    0      7388       200 |   3  57    0    0 dc0f |    4.150       0       5       0       5     57     57      0   7337     251       3  57    0dc0f a70f     11.610 "
test,1583577120795887872,22," | 22  |   7591       5   7585       0 |   5    0      7518        67 |   1  24    0    0 740f |    2.014       0       5       0       5     24     24      0   7183     402       1  24    0740f a70f      8.100 "
test,1583577120800317952,23," | 23  |   7591       5   7529       0 |   5    0      7496        33 |   3  24    0    0 740f |    2.807       0       5       0       5     24     24      0   7351     178       2  24    0740f a70f      9.690 "
test,1583577120796140800,24," | 24  |   7591       5   7585       2 |   4    0      7503        84 |   4  24    0    1 740f |    1.739       0       4       0       4     24     24      0   7311     276       2  24    1740f a70f      6.510 "
test,1583577120799437056,26," | 26  |   7591       5   7585       2 |   5    1      7557        30 |   1  24   57    0 740f |    2.014       0       5       0       5     24     24      0   7417     170       1  24    0740f a70f      8.100 "
test,1583577120801989120,27," | 27  |   7591       5   7589       0 |   1    5      7365       224 |   7  24   29    0 740f |    3.479       0       5       0       5     24     24      0   7078     511       3  24    0740f a70f     10.410 "
test,1583577120820147968,28," | 28  |   7591       5   7579       8 |   3    3      6985       602 |   1  24   30    0 740f |    5.676       0       1       0       1     24     24      0   6684     903       6  24    0740f a70f     30.300 "
test,1583577120818299136,29," | 29  |   7591       2   7579      10 |   0    4      6719       870 |   0  29   24    1  40f |    0           0       0       0       8      0      0      0   6396    1193       0  29    1 40f a70f     30.210 "
test,1583577120804460032,30," | 30  |   7591       5   7584       3 |   4    0      7479       108 |   2  30    0    1 640f |    1.739       0       4       0       4     30     30      0   7200     387       2  30    1640f a70f      6.510 "
test,1583577120797952768,35," | 35  |   7591       5   7584       3 |   4    0      7218       369 |   3  30    0    0 640f |    2.014       0       5       0       5     30     30      0   7048     539       1  30    0640f a70f      8.130 "
test,1583577120796454912,40," | 40  |   7591       5   7509      74 |   5    0      7162       421 |   1  24    0    0 740f |    2.014       0       5       0       5     24     24      0   6987     596       1  24    0740f a70f      8.250 "
test,1583577120798827008,41," | 41  |   7591       5   7518      59 |   5    0      7508        69 |   2  24    0    0 740f |    2.777       0       5       0       5     24     24      0   7337     240       2  24    0740f a70f      9.000 "
test,1583577120799955968,42," | 42  |   7591       5   7525      62 |   5    0      7452       135 |   2  24    0    0 740f |    2.746       0       5       0       5     24     24      0   7297     290       2  24    0740f a70f      8.940 "
test,1583577120797800192,44," | 44  |   7591       5   7530      57 |   5    0      7451       136 |   1  24    0    0 740f |    2.044       0       5       0       5     24     24      0   7303     284       1  24    0740f a70f      8.280 "
test,1583577120801677824,45," | 45  |   7591       5   7544      43 |   5    0      7355       232 |   2  24    0    0 740f |    2.777       0       5       0       5     24     24      0   7225     362       2  24    0740f a70f      8.880 "
test,1583577120803812096,46," | 46  |   7591       5   7523      57 |   5    0      7219       361 |   2  24    0    0 740f |    2.777       0       5       0       5     24     24      0   7104     476       2  24    0740f a70f      9.750 "
test,1583577120798355200,47," | 47  |   7591       5   7530      57 |   5    0      7350       237 |   2  24    0    0 740f |    2.777       0       5       0       5     24     24      0   7221     366       2  24    0740f a70f      8.880 "
test,1583577120798653952,48," | 48  |   7591       5   7465      55 |   5    0      7367       153 |   2  24    0    0 740f |    2.746       0       5       0       5     24     24      0   7231     289       2  24    0740f a70f      8.940 "
test,1583577120798142976,49," | 49  |   7591       5   7581       0 |   5    0      7435       146 |   2  57    0    0 dc0f |    2.716       0       5       0       5     57     57      0   7383     198       2  57    0dc0f a70f      8.820 "
test,1583577120796644864,51," | 51  |   7591       5   7582       0 |   5    0      7495        87 |   1  57    0    0 dc0f |    1.983       0       5       0       5     57     57      0   7468     114       1  57    0dc0f a70f      8.790 "
test,1583577120806034944,52," | 52  |   7591       3   7552      31 |   5    0      7204       379 |   1  24    0    0 740f |    2.777       0       5       0       5     24     24      0   7071     512       2  24    0740f a70f     10.980 "
test,1583577120801844992,53," | 53  |   7591       5   7565       0 |   5    0      7171       394 |   3  57    0    0 dc0f |    2.716       0       5       0       5     57     57      0   7095     470       2  57    0dc0f a70f      9.630 "
test,1583577120800518912,54," | 54  |   7591       5   7583       0 |   5    0      7458       125 |   1  57    0    0 dc0f |    1.983       0       5       0       5     57     57      0   7334     249       1  57    0dc0f a70f     10.830 "
test,1583577120797570048,55," | 55  |   7591       5   7570       0 |   5    0      7283       287 |   2  57    0    0 dc0f |    2.746       0       5       0       5     57     57      0   7220     350       2  57    0dc0f a70f      8.910 "
test,1583577120796827136,56," | 56  |   7591       5   7573       0 |   5    0      7459       114 |   1  57    0    0 dc0f |    2.014       0       5       0       5     57     57      0   7365     208       1  57    0dc0f a70f      8.070 "
test,1583577120819756032,57," | 57  |   7591       5   7528       0 |   0    5      7333       195 |   0  57   24    1 dc0f |    8.178       0       2       0       2     57     57      0   6876     652      11  57    1dc0f a70f     30.270 "
test,1583577120809287936,58," | 58  |   7591       5   7582       0 |   5    0      7481       101 |   1  57    0    0 dc0f |    2.044       0       5       0       5     57     57      0   7174     408       1  57    0dc0f a70f     10.170 "
test,1583577120820463872,5," |  5  |   7591       4   7589       0 |   4    0      6895       694 |   3   5    0    1 1d0f |    1.770       0       1       0       1      5      5      0   6766     823       2   5    11d0f a70f     30.300 "
test,1583577120799257088,60," | 60  |   7591       5   7582       0 |   5    1      7089       493 |   1  57    5    0 dc0f |    2.044       0       5       0       5     57     57      0   6936     646       1  57    0dc0f a70f      9.450 "
test,1583577120819215104,61," | 61  |   7591       5   7577       4 |   5    0      7245       336 |   1  57    0    0 dc0f |    2.014       0       4       0       4     57     57      0   6992     589       1  57    0dc0f a70f     30.330 "
test,1583577120799782144,7," |  7  |   7591       5   7588       0 |   5    0      7475       113 |   3  57    0    0 dc0f |    3.479       0       5       0       5     57     57      0   7424     164       3  57    0dc0f a70f     10.860 "
test,1583577120801197056,9," |  9  |   7591       5   7587       0 |   5    0      7337       250 |   2  57    0    0 dc0f |    2.777       0       5       0       5     57     57      0   7300     287       2  57    0dc0f a70f      9.450 "
