test,1583577143298109952,10," | 10  |   7681       5   7653       0 |   5    0      7533       120 |   1  51    0    0 e60f |    2.075       0       5       0       5     51     51      0   7450     203       1  51    0e60f a70f      8.190 "
test,1583577143300721920,12," | 12  |   7681       5   7645      34 |   5    0      7601        78 |   2  51    0    0 e60f |    2.807       0       5       0       5     51     51      0   7468     211       2  51    0e60f a70f      8.880 "
test,1583577143296093952,13," | 13  |   7681       5   7677       0 |   5    0      7616        61 |   1  51    0    0 e60f |    2.075       0       5       0       5     51     51      0   7538     139       1  51    0e60f a70f      8.190 "
test,1583577143320684800,15," | 15  |   7681       5   7636      43 |   5    0      7365       314 |   3  51    0    0 e60f |    2.777       0       4       0       4     51     51      0   7017     662       2  51    0e60f a70f     30.360 "
test,1583577143297169920,16," | 16  |   7681       5   7677       0 |   5    0      7391       286 |   4  16    0    1  d0f |    1.770       0       4       0       4     16     16      0   7194     483       2  16    1 d0f a70f      6.510 "
test,1583577143309465856,17," | 17  |   7681       5   7667      10 |   5    0      7576       101 |   3  16    0    0  d0f |    2.746       0       5       0       5     16     16      0   7346     331       2  16    0 d0f a70f      8.820 "
test,1583577143317220096,18," | 18  |   7681       5   7676       0 |   0   10      7273       403 |   0  18   48    1 d30f |    0           0       0       0       8      0      0      0   6975     701       0  18    1d30f a70f     30.180 "
test,1583577143320160000,19," | 19  |   7681       2   7663      14 |   5    0      7531       146 |   4  16    0    0  d0f |    2.746       0       4       0       4     16     16      0   7323     354       2  16    0 d0f a70f     30.270 "
test,1583577143297376000,1," |  1  |   7681       4   7678       0 |   5    0      7477       201 |   1  51    0    0 e60f |    2.716       0       5       0       5     51     51      0   7426     252       1  51    0e60f a70f      8.940 "
test,1583577143314935808,22," | 22  |   7681       5   7675       0 |   5    6      7608        67 |   1  48   16    0 6b0f |    0           0       0       0       8      0      0      0   7270     405       0  48    06b0f a70f     30.330 "
test,1583577143298284032,23," | 23  |   7681       5   7619       0 |   2    8      7584        35 |   1  16   48    0  d0f |    2.014       0       5       0       5     16     16      0   7437     182       1  16    0 d0f a70f      8.220 "
test,1583577143315827968,24," | 24  |   7681       5   7675       2 |   0   13      7590        87 |   0  24   48    1 de0f |    0           0       0       0       8      0      0      0   7397     280       0  24    1de0f a70f     30.120 "
test,1583577143319271936,26," | 26  |   7681       5   7675       2 |   5    0      7646        31 |   3  16    0    0  d0f |    2.746       0       4       0       4     16     16      0   7506     171       2  16    0 d0f a70f     30.270 "
test,1583577143305682944,27," | 27  |   7681       5   7679       0 |   5    0      7453       226 |   2  16    0    0  d0f |    2.716       0       5       0       5     16     16      0   7161     518       2  16    0 d0f a70f      8.970 "
test,1583577143317768960,28," | 28  |   7681       3   7669       8 |   4    7      7070       607 |   3  48   16    0 6b0f |    0           0       0       0       8      0      0      0   6761     916       0  48    06b0f a70f     30.360 "
test,1583577143319674880,29," | 29  |   7681       4   7668      11 |   5    0      6802       877 |   5  16    0    0  d0f |    4.974       0       4       0       4     16     16      0   6472    1207       5  16    0 d0f a70f     30.330 "
test,1583577143316523008,30," | 30  |   7681       5   7674       3 |   5    3      7569       108 |   2  48   51    0 6b0f |    0           0       0       0       8      0      0      0   7283     394       0  48    06b0f a70f     30.390 "
test,1583577143316348928,35," | 35  |   7681       5   7674       3 |   5    0      7306       371 |   2  48    0    0 6b0f |    0           0       0       0       8      0      0      0   7131     546       0  48    06b0f a70f     30.390 "
test,1583577143302232064,40," | 40  |   7681       5   7599      74 |   5    0      7242       431 |   1  48    0    0 6b0f |    2.075       0       5       0       5     48     48      0   7063     610       1  48    06b0f a70f      9.570 "
test,1583577143300136192,41," | 41  |   7681       5   7608      59 |   5    7      7598        69 |   1  48   16    0 6b0f |    2.044       0       5       0       5     48     48      0   7426     241       1  48    06b0f a70f     10.170 "
test,1583577143309679872,42," | 42  |   7681       5   7615      62 |   5    0      7539       138 |   1  48    0    0 6b0f |    2.075       0       5       0       5     48     48      0   7383     294       1  48    06b0f a70f     10.290 "
test,1583577143302892032,44," | 44  |   7681       5   7620      57 |   5    4      7537       140 |   1  48   16    0 6b0f |    2.044       0       5       0       5     48     48      0   7388     289       1  48    06b0f a70f     10.920 "
test,1583577143312305920,45," | 45  |   7681       5   7634      43 |   5    2      7442       235 |   1  48   16    0 6b0f |    2.105       0       5       0       5     48     48      0   7311     366       1  48    06b0f a70f     10.980 "
test,1583577143300988928,46," | 46  |   7681       5   7613      57 |   5    0      7304       366 |   2  48    0    0 6b0f |    2.044       0       5       0       5     48     48      0   7188     482       1  48    06b0f a70f      9.540 "
test,1583577143301184000,47," | 47  |   7681       5   7620      57 |   5    0      7437       240 |   1  48    0    0 6b0f |    2.105       0       5       0       5     48     48      0   7308     369       1  48    06b0f a70f      9.540 "
test,1583577143302419968,48," | 48  |   7681       5   7555      55 |   4    0      7455       155 |   5  48    0    1 6b0f |    5.981       0       4       0       4     48     48      0   7317     293       8  48    16b0f a70f     10.530 "
test,1583577143296356864,49," | 49  |   7681       5   7671       0 |   5    0      7522       149 |   1  53    0    0 c60f |    2.014       0       5       0       5     53     53      0   7469     202       1  53    0c60f a70f      8.250 "
test,1583577143299515136,51," | 51  |   7681       5   7672       0 |   4    0      7585        87 |   2  51    0    1 e60f |    1.739       0       4       0       4     51     51      0   7558     114       2  51    1e60f a70f      6.480 "
test,1583577143299333120,52," | 52  |   7681       4   7642      31 |   5    0      7289       384 |   2  16    0    0  d0f |    2.777       0       5       0       5     16     16      0   7153     520       2  16    0 d0f a70f      8.880 "
test,1583577143298701056,53," | 53  |   7681       5   7655       0 |   5    0      7258       397 |   2  53    0    1 c60f |    1.770       0       4       0       4     53     53      0   7181     474       2  53    1c60f a70f      6.510 "
test,1583577143303107072,54," | 54  |   7681       5   7673       0 |   5    0      7548       125 |   2  51    0    0 e60f |    2.777       0       5       0       5     51     51      0   7424     249       2  51    0e60f a70f      9.000 "
test,1583577143296969984,55," | 55  |   7681       5   7660       0 |   5    0      7371       289 |   1  53    0    0 c60f |    2.044       0       5       0       5     53     53      0   7306     354       1  53    0c60f a70f      8.250 "
test,1583577143296791040,56," | 56  |   7681       5   7663       0 |   5    0      7549       114 |   1  51    0    0 e60f |    1.983       0       5       0       5     51     51      0   7455     208       1  51    0e60f a70f      8.220 "
test,1583577143320368896,57," | 57  |   7681       4   7618       0 |   5    0      7419       199 |   2  51    0    0 e60f |    9.368       0       1       0       1     51     51      0   6957     661      11  51    0e60f a70f     30.390 "
test,1583577143304153088,58," | 58  |   7681       5   7672       0 |   5    0      7570       102 |   2  51    0    0 e60f |    3.509       0       5       0       5     51     51      0   7256     416       3  51    0e60f a70f      9.720 "
test,1583577143300379136,5," |  5  |   7681       5   7679       0 |   5    0      6976       703 |   2  51    0    0 e60f |    2.777       0       5       0       5     51     51      0   6847     832       2  51    0e60f a70f      8.940 "
test,1583577143316816128,60," | 60  |   7681       5   7672       0 |   0    2      7169       503 |   0  60   51    1 420f |    0           0       0       0       8      0      0      0   7016     656       0  60    1420f a70f     30.180 "
test,1583577143306343168,61," | 61  |   7681       5   7665       6 |   5    0      7328       343 |   2  51    0    0 e60f |    2.777       0       5       0       5     51     51      0   7071     600       2  51    0e60f a70f      9.000 "
test,1583577143297790976,7," |  7  |   7681       5   7678       0 |   5    0      7562       116 |   1  51    0    0 e60f |    2.075       0       5       0       5     51     51      0   7511     167       1  51    0e60f a70f      8.970 "
test,1583577143299126016,9," |  9  |   7681       5   7677       0 |   5    0      7424       253 |   2  51    0    0 e60f |    2.746       0       5       0       5     51     51      0   7388     289       2  51    0e60f a70f      8.970 "
