test,1583577156046027008,10," | 10  |   7732       5   7704       0 |   5    0      7583       121 |   1   1    0    0 220f |    1.403       0       5       0       5      1      1      0   7500     204       1   1    0220f a70f      7.590 "
test,1583577156047584000,12," | 12  |   7732       5   7696      34 |   5    0      7652        78 |   1   1    0    0 220f |    2.136       0       5       0       5      1      1      0   7518     212       2   1    0220f a70f      8.190 "
test,1583577156046187008,13," | 13  |   7732       5   7728       0 |   5    0      7667        61 |   1   1    0    0 220f |    1.403       0       5       0       5      1      1      0   7588     140       1   1    0220f a70f      7.650 "
test,1583577156050077952,15," | 15  |   7732       5   7687      43 |   5    0      7414       316 |   2   1    0    0 220f |    2.838       0       5       0       5      1      1      0   7064     666       3   1    0220f a70f      9.030 "
test,1583577156052398080,16," | 16  |   7732       5   7728       0 |   5    0      7439       289 |   1  26    0    0 560f |    3.509       0       5       0       5     26     26      0   7240     488       3  26    0560f a70f      9.510 "
test,1583577156051702016,17," | 17  |   7732       5   7718      10 |   5    0      7625       103 |   1  26    0    0 560f |    2.014       0       5       0       5     26     26      0   7394     334       1  26    0560f a70f      9.000 "
test,1583577156054172160,18," | 18  |   7732       5   7727       0 |   5    0      7319       408 |   1  26    0    0 560f |    2.014       0       5       0       5     26     26      0   7021     706       1  26    0560f a70f      8.970 "
test,1583577156070208000,19," | 19  |   7732       4   7714      14 |   4    4      7578       150 |   1  26   52    0 560f |    2.014       0       4       0       4     26     26      0   7369     359       1  26    0560f a70f     30.360 "
test,1583577156045288192,1," |  1  |   7732       4   7729       0 |   5    0      7526       203 |   2   1    0    1 220f |    1.739       0       4       0       4      1      1      0   7475     254       2   1    1220f a70f      6.480 "
test,1583577156051064064,22," | 22  |   7732       5   7726       0 |   5    0      7659        67 |   1  26    0    0 560f |    2.044       0       5       0       5     26     26      0   7319     407       1  26    0560f a70f      8.250 "
test,1583577156049416960,23," | 23  |   7732       5   7670       0 |   5    0      7635        35 |   2  26    0    0 560f |    2.746       0       5       0       5     26     26      0   7486     184       2  26    0560f a70f      8.820 "
test,1583577156053828096,24," | 24  |   7732       5   7726       2 |   5    0      7641        87 |   1  26    0    0 560f |    2.014       0       5       0       5     26     26      0   7447     281       1  26    0560f a70f      8.940 "
test,1583577156050360064,26," | 26  |   7732       5   7726       2 |   4    0      7697        31 |   2  26    0    1 560f |    1.739       0       4       0       4     26     26      0   7556     172       2  26    1560f a70f      8.640 "
test,1583577156054419968,27," | 27  |   7732       5   7730       0 |   5    0      7501       229 |   2  26    0    0 560f |    2.777       0       5       0       5     26     26      0   7205     525       2  26    0560f a70f      9.600 "
test,1583577156069905920,28," | 28  |   7732       4   7720       8 |   1    5      7117       611 |   2  26   35    0 560f |    6.408       0       2       0       2     26     26      0   6807     921       7  26    0560f a70f     30.360 "
test,1583577156071031040,29," | 29  |   7732       5   7719      11 |   5    0      6848       882 |   2  26    0    0 560f |    2.716       0       4       0       4     26     26      0   6515    1215       2  26    0560f a70f     30.360 "
test,1583577156056185856,30," | 30  |   7732       5   7725       3 |   5    0      7620       108 |   4  35    0    0 420f |    2.014       0       5       0       5     35     35      0   7332     396       1  35    0420f a70f      8.100 "
test,1583577156049096960,35," | 35  |   7732       5   7725       3 |   4    0      7353       375 |   5  35    0    1 420f |    1.739       0       4       0       4     35     35      0   7176     552       2  35    1420f a70f      6.510 "
test,1583577156048496128,40," | 40  |   7732       5   7650      74 |   5    0      7290       434 |   2  26    0    0 560f |    3.448       0       5       0       5     26     26      0   7110     614       3  26    0560f a70f      9.660 "
test,1583577156048265984,41," | 41  |   7732       5   7659      59 |   5    0      7649        69 |   2  26    0    0 560f |    2.685       0       5       0       5     26     26      0   7475     243       2  26    0560f a70f      8.940 "
test,1583577156053611008,42," | 42  |   7732       5   7666      62 |   5    0      7588       140 |   2  26    0    0 560f |    2.746       0       5       0       5     26     26      0   7431     297       2  26    0560f a70f      9.540 "
test,1583577156058181120,44," | 44  |   7732       5   7671      57 |   5    0      7588       140 |   2  26    0    0 560f |    1.983       0       5       0       5     26     26      0   7437     291       1  26    0560f a70f      8.220 "
test,1583577156055696896,45," | 45  |   7732       5   7685      43 |   5    0      7492       236 |   2  26    0    0 560f |    2.716       0       5       0       5     26     26      0   7359     369       2  26    0560f a70f      8.910 "
test,1583577156050733056,46," | 46  |   7732       5   7664      57 |   5    0      7352       369 |   3  26    0    0 560f |    2.746       0       5       0       5     26     26      0   7235     486       2  26    0560f a70f      8.940 "
test,1583577156050555904,47," | 47  |   7732       5   7671      57 |   4    0      7485       243 |   3  26    0    0 560f |    2.746       0       5       0       5     26     26      0   7356     372       2  26    0560f a70f      9.000 "
test,1583577156051403008,48," | 48  |   7732       5   7606      55 |   5    0      7503       158 |   2  26    0    0 560f |    2.746       0       5       0       5     26     26      0   7364     297       2  26    0560f a70f      8.940 "
test,1583577156047781888,49," | 49  |   7732       5   7722       0 |   5    1      7573       149 |   1  55   61    0  c0f |    2.044       0       5       0       5     55     55      0   7520     202       1  55    0 c0f a70f      8.130 "
test,1583577156046406912,51," | 51  |   7732       5   7723       0 |   5    0      7635        88 |   1   1    0    0 220f |    1.373       0       5       0       5      1      1      0   7608     115       1   1    0220f a70f      7.530 "
test,1583577156068873984,52," | 52  |   7732       3   7693      31 |   0    5      7335       389 |   0  52   26    1 bc0f |    0           0       0       0       8      0      0      0   7198     526       0  52    1bc0f a70f     30.210 "
test,1583577156048669184,53," | 53  |   7732       5   7706       0 |   5    0      7309       397 |   1  55    0    0  c0f |    2.014       0       5       0       5     55     55      0   7232     474       1  55    0 c0f a70f      8.250 "
test,1583577156046678016,54," | 54  |   7732       5   7724       0 |   5    0      7599       125 |   1   1    0    0 220f |    1.403       0       5       0       5      1      1      0   7474     250       1   1    0220f a70f      7.560 "
test,1583577156055481856,55," | 55  |   7732       5   7711       0 |   4    1      7420       291 |   8  55   61    1  c0f |    1.739       0       4       0       4     55     55      0   7355     356       2  55    1 c0f a70f      6.480 "
test,1583577156055898880,56," | 56  |   7732       5   7714       0 |   3    5      7600       114 |   2  26   61    0 560f |    2.746       0       5       0       5     26     26      0   7506     208       2  26    0560f a70f     11.130 "
test,1583577156052632064,57," | 57  |   7732       5   7669       0 |   4    0      7470       199 |   1  26    0    0 560f |    1.983       0       5       0       5     26     26      0   7007     662       1  26    0560f a70f     10.380 "
test,1583577156068697088,58," | 58  |   7732       5   7723       0 |   5    0      7620       103 |   4  61    0    0 420f |    2.014       0       1       0       1     61     61      0   7305     418       1  61    0420f a70f     30.390 "
test,1583577156053044992,5," |  5  |   7732       5   7730       0 |   5    0      7020       710 |   2   1    0    0 220f |    2.075       0       5       0       5      1      1      0   6890     840       2   1    0220f a70f      8.280 "
test,1583577156069613056,60," | 60  |   7732       5   7723       0 |   3    2      7217       506 |   2  26    1    0 560f |    2.746       0       4       0       4     26     26      0   7064     659       2  26    0560f a70f     30.300 "
test,1583577156069134080,61," | 61  |   7732       5   7716       6 |   4    0      7375       347 |   5  61    0    1 420f |    1.739       0       1       0       1     61     61      0   7116     606       2  61    1420f a70f     30.300 "
test,1583577156047988992,7," |  7  |   7732       5   7729       0 |   5    0      7612       117 |   1   1    0    0 220f |    1.403       0       5       0       5      1      1      0   7561     168       1   1    0220f a70f      7.590 "
test,1583577156047377152,9," |  9  |   7732       5   7728       0 |   5    0      7473       255 |   1   1    0    0 220f |    1.342       0       5       0       5      1      1      0   7437     291       1   1    0220f a70f      7.590 "
