test,1583576984794776064,10," | 10  |   7047       5   7019       0 |   5    0      6905       114 |   1  58    0    0 450f |    1.983       0       5       0       5     58     58      0   6825     194       1  58    0450f a70f      8.190 "
test,1583576984794595072,12," | 12  |   7047       5   7011      34 |   5    0      6969        76 |   1  58    0    0 450f |    1.983       0       5       0       5     58     58      0   6853     192       1  58    0450f a70f      8.160 "
test,1583576984795080960,13," | 13  |   7047       5   7043       0 |   4    0      6984        59 |   2  58    0    0 450f |    2.716       0       5       0       5     58     58      0   6910     133       2  58    0450f a70f      8.970 "
test,1583576984815772928,15," | 15  |   7047       5   7002      43 |   4    1      6758       287 |   3  58   16    0 450f |    2.716       0       4       0       4     58     58      0   6443     602       2  58    0450f a70f     30.330 "
test,1583576984794368000,16," | 16  |   7047       5   7043       0 |   4    0      6779       264 |   3  16    0    1 9a0f |    1.739       0       4       0       4     16     16      0   6595     448       2  16    19a0f a70f      6.510 "
test,1583576984797121024,17," | 17  |   7047       5   7034       9 |   5    0      6946        97 |   2  16    0    0 9a0f |    3.509       0       5       0       5     16     16      0   6739     304       3  16    09a0f a70f      9.690 "
test,1583576984813977856,18," | 18  |   7047       5   7042       0 |   0    9      6677       365 |   0  18   16    1 7e0f |    0           0       0       0       8      0      0      0   6400     642       0  18    17e0f a70f     30.180 "
test,1583576984818644992,19," | 19  |   7047       5   7030      13 |   2    7      6911       132 |   8  19   16    1 3e0f |   10.284       0       1       0       1     19     19      0   6722     321      14  19    13e0f a70f     30.270 "
test,1583576984804222208,1," |  1  |   7047       4   7044       0 |   5    0      6858       186 |   2  58    0    0 450f |    3.417       0       5       0       5     58     58      0   6809     235       2  58    0450f a70f     10.230 "
test,1583576984797800960,22," | 22  |   7047       5   7041       0 |   5    0      6978        63 |   4  16    0    0 9a0f |    3.540       0       5       0       5     16     16      0   6662     379       3  16    09a0f a70f      9.570 "
test,1583576984796039168,23," | 23  |   7047       5   6985       0 |   5    0      6956        29 |   1  16    0    0 9a0f |    2.014       0       5       0       5     16     16      0   6821     164       1  16    09a0f a70f      9.660 "
test,1583576984796925952,24," | 24  |   7047       5   7041       2 |   5    0      6965        78 |   3  16    0    0 9a0f |    3.540       0       5       0       5     16     16      0   6792     251       3  16    09a0f a70f      9.720 "
test,1583576984799762944,26," | 26  |   7047       5   7041       2 |   5    0      7015        28 |   2  16    0    0 9a0f |    2.777       0       5       0       5     16     16      0   6886     157       2  16    09a0f a70f      9.000 "
test,1583576984817126144,27," | 27  |   7047       5   7045       0 |   4    5      6837       208 |   4  16   19    0 9a0f |    2.807       0       4       0       4     16     16      0   6567     478       2  16    09a0f a70f     30.360 "
test,1583576984800316928,28," | 28  |   7047       4   7035       8 |   5    0      6486       557 |   1  35    0    0 600f |    2.044       0       5       0       5     35     35      0   6211     832       1  35    0600f a70f      8.250 "
test,1583576984810619136,29," | 29  |   7047       1   7035      10 |   3    3      6220       825 |   1  19   16    0 3e0f |    2.044       0       5       0       5     19     19      0   5924    1121       1  19    03e0f a70f     12.270 "
test,1583576984793580032,30," | 30  |   7047       5   7040       3 |   5    0      6948        95 |   1  35    0    0 600f |    2.044       0       5       0       5     35     35      0   6690     353       1  35    0600f a70f      8.280 "
test,1583576984797476096,35," | 35  |   7047       5   7040       3 |   4    0      6711       332 |   2  35    0    1 600f |    1.739       0       4       0       4     35     35      0   6553     490       2  35    1600f a70f      6.480 "
test,1583576984814907136,40," | 40  |   7047       5   6965      74 |   0    3      6636       403 |   0  40   16    1 910f |    0           0       0       0       8      0      0      0   6470     569       0  40    1910f a70f     30.270 "
test,1583576984795772928,41," | 41  |   7047       5   6974      59 |   5    0      6971        62 |   1  16    0    0 9a0f |    3.540       0       5       0       5     16     16      0   6808     225       3  16    09a0f a70f      9.600 "
test,1583576984798752000,42," | 42  |   7047       5   6981      62 |   5    0      6918       125 |   2  16    0    0 9a0f |    4.241       0       5       0       5     16     16      0   6769     274       4  16    09a0f a70f     10.350 "
test,1583576984813298944,44," | 44  |   7047       5   6986      57 |   4    5      6914       129 |   3  16   48    0 9a0f |    3.540       0       4       0       4     16     16      0   6775     268       3  16    09a0f a70f     30.390 "
test,1583576984798443008,45," | 45  |   7047       5   7000      43 |   5    0      6829       214 |   1  16    0    0 9a0f |    3.509       0       5       0       5     16     16      0   6706     337       3  16    09a0f a70f     10.290 "
test,1583576984798036992,46," | 46  |   7047       5   6979      57 |   5    0      6709       327 |   2  16    0    0 9a0f |    4.241       0       5       0       5     16     16      0   6599     437       4  16    09a0f a70f     10.440 "
test,1583576984799497984,47," | 47  |   7047       5   6986      57 |   5    0      6820       223 |   2  16    0    0 9a0f |    4.241       0       5       0       5     16     16      0   6699     344       4  16    09a0f a70f     10.290 "
test,1583576984815598080,48," | 48  |   7047       5   6921      55 |   0    8      6836       140 |   0  48   16    1 780f |    0           0       0       0       8      0      0      0   6707     269       0  48    1780f a70f     30.120 "
test,1583576984796369152,49," | 49  |   7047       5   7037       0 |   5    0      6903       134 |   1  58    0    0 450f |    2.014       0       5       0       5     58     58      0   6856     181       1  58    0450f a70f      8.190 "
test,1583576984807315968,51," | 51  |   7047       5   7038       0 |   5    0      6959        79 |   2  58    0    0 450f |    2.716       0       5       0       5     58     58      0   6934     104       2  58    0450f a70f      8.940 "
test,1583576984802274048,52," | 52  |   7047       5   7010      29 |   5    0      6690       349 |   1  16    0    0 9a0f |    2.044       0       5       0       5     16     16      0   6566     473       1  16    09a0f a70f      8.250 "
test,1583576984795468032,53," | 53  |   7047       5   7021       0 |   5    0      6648       373 |   2  58    0    0 450f |    2.746       0       5       0       5     58     58      0   6580     441       2  58    0450f a70f      8.910 "
test,1583576984793960960,54," | 54  |   7047       5   7039       0 |   5    0      6921       118 |   1  58    0    0 450f |    1.983       0       5       0       5     58     58      0   6810     229       1  58    0450f a70f      8.070 "
test,1583576984794157056,55," | 55  |   7047       5   7026       0 |   5    0      6764       262 |   1  58    0    0 450f |    1.983       0       5       0       5     58     58      0   6709     317       1  58    0450f a70f      8.160 "
test,1583576984793323008,56," | 56  |   7047       5   7029       0 |   5    0      6923       106 |   1  58    0    0 450f |    2.014       0       5       0       5     58     58      0   6839     190       1  58    0450f a70f      8.220 "
test,1583576984817332992,57," | 57  |   7047       5   6984       0 |   4    1      6802       182 |   4  16   58    0 9a0f |    2.807       0       4       0       4     16     16      0   6366     618       2  16    09a0f a70f     30.240 "
test,1583576984798226176,58," | 58  |   7047       5   7038       0 |   4    0      6945        93 |   4  58    0    1 450f |    1.739       0       4       0       4     58     58      0   6660     378       2  58    1450f a70f      6.510 "
test,1583576984796544000,5," |  5  |   7047       5   7045       0 |   5    0      6416       629 |   2  58    0    0 450f |    2.746       0       5       0       5     58     58      0   6292     753       2  58    0450f a70f      8.940 "
test,1583576984800146176,60," | 60  |   7047       5   7038       0 |   5    0      6594       444 |   3  58    0    0 450f |    2.746       0       5       0       5     58     58      0   6454     584       2  58    0450f a70f      9.660 "
test,1583576984799913984,61," | 61  |   7047       5   7033       4 |   5    0      6721       316 |   1  58    0    0 450f |    1.983       0       5       0       5     58     58      0   6488     549       1  58    0450f a70f      8.160 "
test,1583576984796745984,7," |  7  |   7047       5   7044       0 |   5    0      6943       101 |   2  58    0    0 450f |    2.746       0       5       0       5     58     58      0   6895     149       2  58    0450f a70f      8.970 "
test,1583576984799060992,9," |  9  |   7047       5   7043       0 |   5    0      6809       234 |   2  58    0    0 450f |    2.777       0       5       0       5     58     58      0   6774     269       2  58    0450f a70f      8.850 "
