test,1583576998050476032,10," | 10  |   7100       5   7072       0 |   5    0      6958       114 |   1   9    0    0 730f |    2.044       0       5       0       5      9      9      0   6878     194       1   9    0730f a70f      8.250 "
test,1583576998047238144,12," | 12  |   7100       5   7064      34 |   5    0      7022        76 |   1   9    0    0 730f |    2.044       0       5       0       5      9      9      0   6905     193       1   9    0730f a70f      8.130 "
test,1583576998043965184,13," | 13  |   7100       5   7096       0 |   5    0      7037        59 |   1   9    0    0 730f |    2.044       0       5       0       5      9      9      0   6963     133       1   9    0730f a70f      8.160 "
test,1583576998047055872,15," | 15  |   7100       5   7055      43 |   5    0      6806       292 |   2   9    0    0 730f |    2.685       0       5       0       5      9      9      0   6491     607       2   9    0730f a70f      8.940 "
test,1583576998048652032,16," | 16  |   7100       5   7096       0 |   5    0      6831       265 |   2  24    0    0 420f |    2.746       0       5       0       5     24     24      0   6647     449       2  24    0420f a70f      8.970 "
test,1583576998047561984,17," | 17  |   7100       5   7087       9 |   5    0      6999        97 |   2  24    0    0 420f |    2.014       0       5       0       5     24     24      0   6791     305       1  24    0420f a70f      9.690 "
test,1583576998045679104,18," | 18  |   7100       5   7095       0 |   5    0      6728       367 |   1  24    0    0 420f |    2.746       0       5       0       5     24     24      0   6449     646       2  24    0420f a70f      8.940 "
test,1583576998046798080,19," | 19  |   7100       5   7083      13 |   5    0      6963       133 |   2  24    0    0 420f |    1.983       0       5       0       5     24     24      0   6773     323       1  24    0420f a70f      8.850 "
test,1583576998051747072,1," |  1  |   7100       4   7097       0 |   5    0      6911       186 |   1   9    0    0 730f |    2.716       0       5       0       5      9      9      0   6862     235       1   9    0730f a70f      8.790 "
test,1583576998043836160,22," | 22  |   7100       5   7094       0 |   5    0      7031        63 |   1  24    0    0 420f |    2.014       0       5       0       5     24     24      0   6711     383       1  24    0420f a70f      8.070 "
test,1583576998044621056,23," | 23  |   7100       5   7038       0 |   5    0      7009        29 |   2  24    0    0 420f |    2.014       0       5       0       5     24     24      0   6874     164       1  24    0420f a70f      8.100 "
test,1583576998043622144,24," | 24  |   7100       5   7094       2 |   4    0      7017        79 |   3  24    0    1 420f |    1.739       0       4       0       4     24     24      0   6841     255       2  24    1420f a70f      6.480 "
test,1583576998044205056,26," | 26  |   7100       5   7094       2 |   5    0      7068        28 |   1  24    0    0 420f |    1.953       0       5       0       5     24     24      0   6939     157       1  24    0420f a70f      8.220 "
test,1583576998051451904,27," | 27  |   7100       5   7098       0 |   4    0      6889       209 |   3  24    0    0 420f |    2.777       0       5       0       5     24     24      0   6619     479       2  24    0420f a70f      8.820 "
test,1583576998049288960,28," | 28  |   7100       5   7088       8 |   4    0      6534       562 |   3  24    0    0 420f |    2.716       0       5       0       5     24     24      0   6260     836       2  24    0420f a70f      9.630 "
test,1583576998052648192,29," | 29  |   7100       5   7088      10 |   4    0      6271       827 |   3  24    0    0 420f |    2.746       0       5       0       5     24     24      0   5974    1124       2  24    0420f a70f      9.660 "
test,1583576998048451840,30," | 30  |   7100       5   7093       3 |   5    0      6999        97 |   3  24    0    0 420f |    3.479       0       5       0       5     24     24      0   6740     356       3  24    0420f a70f      9.510 "
test,1583576998046356992,35," | 35  |   7100       5   7093       3 |   5    0      6759       337 |   2  24    0    0 420f |    2.716       0       5       0       5     24     24      0   6601     495       2  24    0420f a70f      8.760 "
test,1583576998065808128,40," | 40  |   7100       5   7018      74 |   4    0      6687       405 |   3  24    0    0 420f |    3.448       0       4       0       4     24     24      0   6521     571       3  24    0420f a70f     30.390 "
test,1583576998045472000,41," | 41  |   7100       5   7027      59 |   4    0      7024        62 |   2  24    0    0 420f |    2.746       0       5       0       5     24     24      0   6861     225       2  24    0420f a70f      8.970 "
test,1583576998046016000,42," | 42  |   7100       5   7034      62 |   5    0      6970       126 |   1  24    0    0 420f |    2.746       0       5       0       5     24     24      0   6821     275       2  24    0420f a70f      8.940 "
test,1583576998049572864,44," | 44  |   7100       5   7039      57 |   5    0      6966       130 |   1  24    0    0 420f |    2.044       0       5       0       5     24     24      0   6827     269       1  24    0420f a70f      8.220 "
test,1583576998049846784,45," | 45  |   7100       5   7053      43 |   4    0      6882       214 |   2  24    0    0 420f |    2.716       0       5       0       5     24     24      0   6758     338       2  24    0420f a70f      8.940 "
test,1583576998050746880,46," | 46  |   7100       5   7032      57 |   5    0      6760       329 |   2  24    0    0 420f |    2.746       0       5       0       5     24     24      0   6651     438       2  24    0420f a70f      8.940 "
test,1583576998049447168,47," | 47  |   7100       5   7039      57 |   5    0      6872       224 |   1  24    0    0 420f |    2.014       0       5       0       5     24     24      0   6751     345       1  24    0420f a70f      8.970 "
test,1583576998047365888,48," | 48  |   7100       5   6974      55 |   4    0      6888       141 |   3  24    0    0 420f |    2.716       0       5       0       5     24     24      0   6759     270       2  24    0420f a70f      9.630 "
test,1583576998047136000,49," | 49  |   7100       5   7090       0 |   5    0      6955       135 |   1  58    0    0 ce0f |    2.014       0       5       0       5     58     58      0   6907     183       1  58    0ce0f a70f     10.170 "
test,1583576998045191168,51," | 51  |   7100       5   7091       0 |   5    0      7011        80 |   2   9    0    0 730f |    2.685       0       5       0       5      9      9      0   6986     105       2   9    0730f a70f      8.940 "
test,1583576998066917888,52," | 52  |   7100       5   7063      29 |   5    0      6741       351 |   2  24    0    0 420f |    2.746       0       4       0       4     24     24      0   6617     475       2  24    0420f a70f     30.300 "
test,1583576998048544768,53," | 53  |   7100       5   7074       0 |   5    0      6701       373 |   2  58    0    0 ce0f |    1.983       0       5       0       5     58     58      0   6631     443       1  58    0ce0f a70f     10.080 "
test,1583576998044513024,54," | 54  |   7100       5   7092       0 |   5    1      6973       119 |   1   9   58    0 730f |    2.044       0       5       0       5      9      9      0   6862     230       1   9    0730f a70f      8.280 "
test,1583576998047836160,55," | 55  |   7100       5   7079       0 |   5    0      6814       265 |   1  58    0    0 ce0f |    2.014       0       5       0       5     58     58      0   6757     322       1  58    0ce0f a70f     10.140 "
test,1583576998047651072,56," | 56  |   7100       5   7082       0 |   5    0      6976       106 |   2   9    0    0 730f |    2.746       0       5       0       5      9      9      0   6890     192       2   9    0730f a70f      8.940 "
test,1583576998048994048,57," | 57  |   7100       5   7037       0 |   3    4      6854       183 |   2  24   58    0 420f |    2.746       0       5       0       5     24     24      0   6417     620       2  24    0420f a70f      8.970 "
test,1583576998065065984,58," | 58  |   7100       5   7091       0 |   0    5      6997        94 |   0  58   24    1 ce0f |    8.117       0       1       0       1     58     58      0   6712     379      11  58    1ce0f a70f     30.270 "
test,1583576998047972864,5," |  5  |   7100       5   7098       0 |   5    0      6460       638 |   2   9    0    0 730f |    2.685       0       5       0       5      9      9      0   6336     762       2   9    0730f a70f      8.880 "
test,1583576998051906048,60," | 60  |   7100       5   7091       0 |   5    0      6641       450 |   3   9    0    0 730f |    3.448       0       5       0       5      9      9      0   6501     590       3   9    0730f a70f      9.660 "
test,1583576998066044928,61," | 61  |   7100       5   7086       4 |   4    5      6772       318 |   5   9   58    0 730f |    2.746       0       3       0       3      9      9      0   6538     552       2   9    0730f a70f     30.360 "
test,1583576998043424000,7," |  7  |   7100       5   7097       0 |   5    0      6996       101 |   1   9    0    0 730f |    2.014       0       5       0       5      9      9      0   6947     150       1   9    0730f a70f      8.250 "
test,1583576998044779008,9," |  9  |   7100       5   7096       0 |   4    0      6860       236 |   4   9    0    1 730f |    1.739       0       4       0       4      9      9      0   6825     271       2   9    1730f a70f      6.480 "
