test,1583577032794861056,10," | 10  |   7239       5   7211       0 |   4    0      7096       115 |   3  10    0    1 a80f |    1.739       0       4       0       4     10     10      0   7016     195       2  10    1a80f a70f      6.480 "
test,1583577032815377920,12," | 12  |   7239       5   7203      34 |   1    9      7159        78 |   1  15   10    0 ed0f |    2.014       0       2       0       2     15     15      0   7040     197       1  15    0ed0f a70f     30.330 "
test,1583577032794692096,13," | 13  |   7239       5   7235       0 |   5    0      7175        60 |   2  10    0    0 a80f |    1.983       0       5       0       5     10     10      0   7101     134       1  10    0a80f a70f      8.160 "
test,1583577032815862016,15," | 15  |   7239       5   7194      43 |   1    0      6937       300 |   2  15    0    1 ed0f |    1.739       0       2       0       2     15     15      0   6614     623       2  15    1ed0f a70f     30.300 "
test,1583577032798834176,16," | 16  |   7239       5   7235       0 |   5    0      6968       267 |   1  23    0    0 410f |    2.044       0       5       0       5     23     23      0   6780     455       1  23    0410f a70f      9.030 "
test,1583577032802340096,17," | 17  |   7239       5   7225      10 |   5    0      7138        97 |   1  23    0    0 410f |    2.014       0       5       0       5     23     23      0   6921     314       1  23    0410f a70f      8.880 "
test,1583577032796796928,18," | 18  |   7239       5   7234       0 |   5    0      6851       383 |   2  23    0    0 410f |    2.777       0       5       0       5     23     23      0   6567     667       2  23    0410f a70f      9.690 "
test,1583577032800257024,19," | 19  |   7239       5   7221      14 |   5    0      7098       137 |   1  23    0    0 410f |    2.777       0       5       0       5     23     23      0   6900     335       2  23    0410f a70f      8.910 "
test,1583577032805082112,1," |  1  |   7239       4   7236       0 |   5    0      7043       193 |   1  10    0    0 a80f |    2.685       0       5       0       5     10     10      0   6994     242       1  10    0a80f a70f      8.820 "
test,1583577032801209088,22," | 22  |   7239       5   7233       0 |   5    0      7167        66 |   1  23    0    0 410f |    2.044       0       5       0       5     23     23      0   6841     392       1  23    0410f a70f      9.690 "
test,1583577032797932032,23," | 23  |   7239       5   7177       0 |   4    0      7147        30 |   3  23    0    1 410f |    3.204       0       4       0       4     23     23      0   7009     168       4  23    1410f a70f      8.670 "
test,1583577032796288000,24," | 24  |   7239       5   7233       2 |   5    0      7155        80 |   2  23    0    0 410f |    2.075       0       5       0       5     23     23      0   6971     264       1  23    0410f a70f      9.000 "
test,1583577032801948160,26," | 26  |   7239       5   7233       2 |   5    0      7206        29 |   1  23    0    0 410f |    2.044       0       5       0       5     23     23      0   7073     162       1  23    0410f a70f      8.220 "
test,1583577032811991040,27," | 27  |   7239       5   7237       0 |   2    0      7022       215 |   5  23    0    0 410f |    2.777       0       5       0       5     23     23      0   6748     489       2  23    0410f a70f     11.640 "
test,1583577032818061056,28," | 28  |   7239       5   7227       8 |   4    6      6663       572 |   1  35   23    0 990f |    3.540       0       2       0       2     35     35      0   6383     852       3  35    0990f a70f     30.180 "
test,1583577032818268928,29," | 29  |   7239       5   7227      10 |   3    0      6396       841 |   2  23    0    0 410f |    4.943       0       3       0       3     23     23      0   6090    1147       5  23    0410f a70f     30.390 "
test,1583577032797730048,30," | 30  |   7239       5   7232       3 |   5    3      7136        99 |   1  35   23    0 990f |    2.075       0       5       0       5     35     35      0   6869     366       1  35    0990f a70f      8.280 "
test,1583577032797028096,35," | 35  |   7239       5   7232       3 |   4    3      6893       342 |   5  35   23    1 990f |    1.739       0       4       0       4     35     35      0   6729     506       2  35    1990f a70f      6.510 "
test,1583577032803458048,40," | 40  |   7239       5   7157      74 |   5    0      6822       409 |   3  23    0    0 410f |    2.777       0       5       0       5     23     23      0   6654     577       2  23    0410f a70f     11.760 "
test,1583577032799331840,41," | 41  |   7239       5   7166      59 |   5    0      7162        63 |   2  23    0    0 410f |    3.479       0       5       0       5     23     23      0   6998     227       3  23    0410f a70f     11.850 "
test,1583577032801507072,42," | 42  |   7239       5   7173      62 |   5    0      7108       127 |   2  23    0    0 410f |    2.777       0       5       0       5     23     23      0   6958     277       2  23    0410f a70f     10.440 "
test,1583577032805628160,44," | 44  |   7239       5   7178      57 |   5    0      7103       132 |   2  23    0    0 410f |    3.479       0       5       0       5     23     23      0   6962     273       3  23    0410f a70f     10.230 "
test,1583577032799508992,45," | 45  |   7239       5   7192      43 |   5    0      7015       220 |   2  23    0    0 410f |    3.479       0       5       0       5     23     23      0   6890     345       3  23    0410f a70f      9.660 "
test,1583577032805282048,46," | 46  |   7239       5   7171      57 |   5    0      6891       337 |   3  23    0    0 410f |    3.479       0       5       0       5     23     23      0   6781     447       3  23    0410f a70f     11.130 "
test,1583577032798435072,47," | 47  |   7239       5   7178      57 |   5    0      7007       228 |   3  23    0    0 410f |    3.509       0       5       0       5     23     23      0   6884     351       3  23    0410f a70f      9.570 "
test,1583577032799968000,48," | 48  |   7239       5   7113      55 |   5    0      7022       146 |   2  23    0    0 410f |    2.746       0       5       0       5     23     23      0   6890     278       2  23    0410f a70f     11.100 "
test,1583577032797372160,49," | 49  |   7239       5   7229       0 |   5    0      7093       136 |   2  10    0    0 a80f |    2.716       0       5       0       5     10     10      0   7042     187       2  10    0a80f a70f      8.910 "
test,1583577032795689216,51," | 51  |   7239       5   7230       0 |   5    0      7148        82 |   1  10    0    0 a80f |    1.983       0       5       0       5     10     10      0   7123     107       1  10    0a80f a70f      8.220 "
test,1583577032795987968,52," | 52  |   7239       5   7202      29 |   5    0      6873       358 |   1  23    0    0 410f |    2.044       0       5       0       5     23     23      0   6748     483       1  23    0410f a70f      8.910 "
test,1583577032803257088,53," | 53  |   7239       5   7213       0 |   5    0      6836       377 |   3  10    0    0 a80f |    3.448       0       5       0       5     10     10      0   6763     450       3  10    0a80f a70f      9.630 "
test,1583577032795469056,54," | 54  |   7239       5   7231       0 |   5    0      7111       120 |   1  10    0    0 a80f |    1.983       0       5       0       5     10     10      0   6998     233       1  10    0a80f a70f      8.220 "
test,1583577032804239872,55," | 55  |   7239       5   7218       0 |   5    0      6948       270 |   2  10    0    0 a80f |    2.716       0       5       0       5     10     10      0   6889     329       2  10    0a80f a70f      8.910 "
test,1583577032798665984,56," | 56  |   7239       5   7221       0 |   5    0      7113       108 |   1  10    0    0 a80f |    1.983       0       5       0       5     10     10      0   7024     197       1  10    0a80f a70f      8.220 "
test,1583577032817111040,57," | 57  |   7239       5   7176       0 |   4    1      6989       187 |   1  23   10    0 410f |    2.014       0       4       0       4     23     23      0   6549     627       1  23    0410f a70f     30.360 "
test,1583577032797193984,58," | 58  |   7239       5   7230       0 |   5    0      7135        95 |   1  10    0    0 a80f |    2.014       0       5       0       5     10     10      0   6840     390       1  10    0a80f a70f      8.970 "
test,1583577032814821120,5," |  5  |   7239       5   7237       0 |   1    4      6587       650 |   1  15   10    0 ed0f |    0           0       0       0       8      0      0      0   6460     777       0  15    0ed0f a70f     30.360 "
test,1583577032800659968,60," | 60  |   7239       5   7230       0 |   5    0      6766       464 |   2  10    0    0 a80f |    2.716       0       5       0       5     10     10      0   6622     608       2  10    0a80f a70f      8.850 "
test,1583577032798264064,61," | 61  |   7239       5   7225       4 |   5    0      6908       321 |   2  10    0    0 a80f |    2.746       0       5       0       5     10     10      0   6668     561       2  10    0a80f a70f      9.570 "
test,1583577032795067136,7," |  7  |   7239       5   7236       0 |   5    0      7130       106 |   3  10    0    0 a80f |    1.983       0       5       0       5     10     10      0   7083     153       1  10    0a80f a70f      8.160 "
test,1583577032795255040,9," |  9  |   7239       5   7235       0 |   5    0      6991       244 |   1  10    0    0 a80f |    1.983       0       5       0       5     10     10      0   6956     279       1  10    0a80f a70f      8.130 "
