test,1583577008547794944,10," | 10  |   7142       5   7114       0 |   5    0      7000       114 |   1  51    0    0 ae0f |    2.014       0       5       0       5     51     51      0   6920     194       1  51    0ae0f a70f      8.220 "
test,1583577008565123072,12," | 12  |   7142       5   7106      34 |   4    9      7063        77 |   1  15   55    0 9e0f |    2.014       0       2       0       2     15     15      0   6946     194       1  15    09e0f a70f     30.390 "
test,1583577008546763776,13," | 13  |   7142       5   7138       0 |   5    0      7078        60 |   1  51    0    0 ae0f |    2.014       0       5       0       5     51     51      0   7004     134       1  51    0ae0f a70f      8.250 "
test,1583577008566329088,15," | 15  |   7142       5   7097      43 |   2    0      6845       295 |   5  15    0    1 9e0f |    1.739       0       2       0       2     15     15      0   6530     610       2  15    19e0f a70f     30.300 "
test,1583577008548919808,16," | 16  |   7142       5   7138       0 |   4    0      6873       265 |   5  51    0    0 ae0f |    3.479       0       5       0       5     51     51      0   6688     450       3  51    0ae0f a70f      9.690 "
test,1583577008567249920,17," | 17  |   7142       5   7129       9 |   5    0      7041        97 |   4  51    0    0 ae0f |    4.943       0       4       0       4     51     51      0   6830     308       5  51    0ae0f a70f     30.330 "
test,1583577008564357888,18," | 18  |   7142       5   7137       0 |   0    7      6767       370 |   0  18   51    1 170f |    0           0       0       0       8      0      0      0   6487     650       0  18    1170f a70f     30.150 "
test,1583577008569474048,19," | 19  |   7142       4   7125      13 |   5    0      7004       134 |   4  51    0    0 ae0f |    4.974       0       3       0       3     51     51      0   6811     327       5  51    0ae0f a70f     30.390 "
test,1583577008544702976,1," |  1  |   7142       4   7139       0 |   5    0      6951       188 |   1  51    0    0 ae0f |    2.716       0       5       0       5     51     51      0   6902     237       1  51    0ae0f a70f      8.940 "
test,1583577008568749824,22," | 22  |   7142       5   7136       0 |   5    0      7073        63 |   5  51    0    0 ae0f |    3.479       0       4       0       4     51     51      0   6753     383       3  51    0ae0f a70f     30.360 "
test,1583577008546042880,23," | 23  |   7142       5   7080       0 |   5    0      7051        29 |   2  51    0    0 ae0f |    2.746       0       5       0       5     51     51      0   6915     165       2  51    0ae0f a70f      8.940 "
test,1583577008563890944,24," | 24  |   7142       5   7136       2 |   1   11      7058        80 |   1  44   18    0 cd0f |    0           0       0       0       8      0      0      0   6879     259       0  44    0cd0f a70f     30.360 "
test,1583577008545458176,26," | 26  |   7142       5   7136       2 |   5    0      7110        28 |   2  51    0    0 ae0f |    2.777       0       5       0       5     51     51      0   6981     157       2  51    0ae0f a70f      8.910 "
test,1583577008570308096,27," | 27  |   7142       4   7140       0 |   3    5      6928       212 |   1  15   51    0 9e0f |    2.044       0       1       0       1     15     15      0   6657     483       1  15    09e0f a70f     30.300 "
test,1583577008567815936,28," | 28  |   7142       5   7130       8 |   5    0      6574       564 |   5  51    0    0 ae0f |    5.706       0       2       0       2     51     51      0   6297     841       6  51    0ae0f a70f     30.330 "
test,1583577008570124032,29," | 29  |   7142       4   7130      10 |   3    8      6306       834 |   1  15   51    0 9e0f |    2.044       0       1       0       1     15     15      0   6008    1132       1  15    09e0f a70f     30.360 "
test,1583577008563684864,30," | 30  |   7142       5   7135       3 |   5    0      7040        98 |   6  51    0    0 ae0f |    0           0       0       0       8      0      0      0   6778     360       0  51    0ae0f a70f     30.360 "
test,1583577008565395200,35," | 35  |   7142       5   7135       3 |   0    7      6800       338 |   0  35   51    1 390f |    0           0       0       0       8      0      0      0   6640     498       0  35    1390f a70f     30.210 "
test,1583577008544971008,40," | 40  |   7142       5   7060      74 |   5    0      6728       406 |   1  44    0    0 cd0f |    2.014       0       5       0       5     44     44      0   6562     572       1  44    0cd0f a70f      8.250 "
test,1583577008545154048,41," | 41  |   7142       5   7069      59 |   5    0      7066        62 |   1  44    0    0 cd0f |    2.044       0       5       0       5     44     44      0   6903     225       1  44    0cd0f a70f      8.280 "
test,1583577008548664064,42," | 42  |   7142       5   7076      62 |   5    0      7011       127 |   1  44    0    0 cd0f |    2.014       0       5       0       5     44     44      0   6862     276       1  44    0cd0f a70f      8.220 "
test,1583577008549086208,44," | 44  |   7142       5   7081      57 |   4    0      7006       132 |   8  44    0    1 cd0f |    1.770       0       4       0       4     44     44      0   6867     271       2  44    1cd0f a70f      6.510 "
test,1583577008547499008,45," | 45  |   7142       5   7095      43 |   5    0      6924       214 |   1  44    0    0 cd0f |    2.044       0       5       0       5     44     44      0   6800     338       1  44    0cd0f a70f      8.160 "
test,1583577008549912064,46," | 46  |   7142       5   7074      57 |   5    0      6801       330 |   1  44    0    0 cd0f |    2.044       0       5       0       5     44     44      0   6692     439       1  44    0cd0f a70f      8.100 "
test,1583577008550294016,47," | 47  |   7142       5   7081      57 |   5    0      6913       225 |   1  44    0    0 cd0f |    2.014       0       5       0       5     44     44      0   6791     347       1  44    0cd0f a70f      8.250 "
test,1583577008545652992,48," | 48  |   7142       5   7016      55 |   5    0      6929       142 |   1  44    0    0 cd0f |    2.014       0       5       0       5     44     44      0   6800     271       1  44    0cd0f a70f      8.220 "
test,1583577008549449984,49," | 49  |   7142       5   7132       0 |   5    0      6997       135 |   1  55    0    0 a20f |    2.044       0       5       0       5     55     55      0   6948     184       1  55    0a20f a70f      8.100 "
test,1583577008543622912,51," | 51  |   7142       5   7133       0 |   4    0      7052        81 |   4  51    0    1 ae0f |    1.739       0       4       0       4     51     51      0   7027     106       2  51    1ae0f a70f      6.510 "
test,1583577008548169984,52," | 52  |   7142       5   7105      29 |   5    0      6781       353 |   5  51    0    0 ae0f |    3.479       0       5       0       5     51     51      0   6657     477       3  51    0ae0f a70f      9.510 "
test,1583577008546388992,53," | 53  |   7142       5   7116       0 |   5    0      6742       374 |   1  55    0    0 a20f |    2.044       0       5       0       5     55     55      0   6671     445       1  55    0a20f a70f      8.220 "
test,1583577008547218176,54," | 54  |   7142       5   7134       0 |   5    0      7015       119 |   2  51    0    0 ae0f |    2.746       0       5       0       5     51     51      0   6902     232       2  51    0ae0f a70f      8.970 "
test,1583577008552005120,55," | 55  |   7142       5   7121       0 |   5    0      6854       267 |   2  55    0    1 a20f |    1.770       0       4       0       4     55     55      0   6796     325       2  55    1a20f a70f      6.510 "
test,1583577008544302080,56," | 56  |   7142       5   7124       0 |   5    0      7017       107 |   1  51    0    0 ae0f |    2.044       0       5       0       5     51     51      0   6931     193       1  51    0ae0f a70f      8.190 "
test,1583577008550134016,57," | 57  |   7142       5   7079       0 |   5    0      6895       184 |   1  51    0    0 ae0f |    2.014       0       5       0       5     51     51      0   6459     620       1  51    0ae0f a70f      9.000 "
test,1583577008553196800,58," | 58  |   7142       4   7133       0 |   2    5      7039        94 |   2  55   15    0 a20f |    2.075       0       5       0       5     55     55      0   6749     384       1  55    0a20f a70f      8.310 "
test,1583577008566082048,5," |  5  |   7142       5   7140       0 |   4    4      6498       642 |   1  15   51    0 9e0f |    2.014       0       3       0       3     15     15      0   6374     766       1  15    09e0f a70f     30.360 "
test,1583577008551117056,60," | 60  |   7142       5   7133       0 |   5    0      6679       454 |   1  51    0    0 ae0f |    2.044       0       5       0       5     51     51      0   6537     596       1  51    0ae0f a70f      8.250 "
test,1583577008567638016,61," | 61  |   7142       3   7128       4 |   3    2      6813       319 |   2  51   55    0 ae0f |    4.974       0       3       0       3     51     51      0   6576     556       5  51    0ae0f a70f     30.390 "
test,1583577008546968064,7," |  7  |   7142       5   7139       0 |   5    0      7035       104 |   1  51    0    0 ae0f |    2.014       0       5       0       5     51     51      0   6987     152       1  51    0ae0f a70f      8.250 "
test,1583577008551806976,9," |  9  |   7142       5   7138       0 |   5    0      6900       238 |   2  51    0    0 ae0f |    2.777       0       5       0       5     51     51      0   6865     273       2  51    0ae0f a70f      8.940 "
