test,1583577072299269888,10," | 10  |   7397       5   7369       0 |   5    0      7253       116 |   1  58    0    0 d40f |    1.983       0       5       0       5     58     58      0   7172     197       1  58    0d40f a70f      8.190 "
test,1583577072305447936,12," | 12  |   7397       5   7361      34 |   5    0      7317        78 |   1  58    0    0 d40f |    2.716       0       5       0       5     58     58      0   7194     201       2  58    0d40f a70f      9.540 "
test,1583577072301837824,13," | 13  |   7397       5   7393       0 |   5    0      7332        61 |   3  58    0    0 d40f |    2.746       0       5       0       5     58     58      0   7257     136       2  58    0d40f a70f      8.970 "
test,1583577072298356992,15," | 15  |   7397       5   7352      43 |   5    0      7089       306 |   2  58    0    0 d40f |    3.417       0       5       0       5     58     58      0   6762     633       3  58    0d40f a70f     10.260 "
test,1583577072301486848,16," | 16  |   7397       5   7393       0 |   5    1      7119       274 |   1  23   48    0 740f |    1.983       0       5       0       5     23     23      0   6929     464       1  23    0740f a70f      9.600 "
test,1583577072297033984,17," | 17  |   7397       5   7383      10 |   5    0      7295        98 |   1  23    0    0 740f |    2.014       0       5       0       5     23     23      0   7074     319       1  23    0740f a70f      8.970 "
test,1583577072296008960,18," | 18  |   7397       5   7392       0 |   5    0      7006       386 |   2  23    0    0 740f |    2.746       0       5       0       5     23     23      0   6715     677       2  23    0740f a70f      8.790 "
test,1583577072299518208,19," | 19  |   7397       5   7379      14 |   5    0      7250       143 |   1  23    0    0 740f |    2.014       0       5       0       5     23     23      0   7047     346       1  23    0740f a70f      8.250 "
test,1583577072302609920,1," |  1  |   7397       4   7394       0 |   5    0      7196       198 |   2  58    0    0 d40f |    3.387       0       5       0       5     58     58      0   7145     249       2  58    0d40f a70f     10.230 "
test,1583577072294853888,22," | 22  |   7397       5   7391       0 |   5    0      7325        66 |   1  23    0    0 740f |    2.014       0       5       0       5     23     23      0   6996     395       1  23    0740f a70f      8.220 "
test,1583577072309784832,23," | 23  |   7397       5   7335       0 |   4    0      7305        30 |   4  23    0    1 740f |    1.770       0       4       0       4     23     23      0   7165     170       2  23    1740f a70f      7.950 "
test,1583577072294616832,24," | 24  |   7397       5   7391       2 |   5    0      7312        81 |   1  23    0    0 740f |    2.014       0       5       0       5     23     23      0   7124     269       1  23    0740f a70f      8.220 "
test,1583577072298907136,26," | 26  |   7397       5   7391       2 |   5    0      7364        29 |   1  23    0    0 740f |    1.983       0       5       0       5     23     23      0   7227     166       1  23    0740f a70f      8.820 "
test,1583577072300237824,27," | 27  |   7397       5   7395       0 |   5    0      7175       220 |   1  23    0    0 740f |    1.983       0       5       0       5     23     23      0   6897     498       1  23    0740f a70f      8.220 "
test,1583577072318511104,28," | 28  |   7397       5   7385       8 |   5    0      6805       588 |   3  23    0    0 740f |    4.211       0       4       0       4     23     23      0   6524     869       4  23    0740f a70f     30.390 "
test,1583577072319348992,29," | 29  |   7397       5   7385      10 |   3    0      6542       853 |   2  23    0    0 740f |    4.180       0       3       0       3     23     23      0   6228    1167       4  23    0740f a70f     30.270 "
test,1583577072301059072,30," | 30  |   7397       5   7390       3 |   5    0      7289       104 |   2  23    0    0 740f |    4.180       0       5       0       5     23     23      0   7019     374       4  23    0740f a70f     11.130 "
test,1583577072302064896,35," | 35  |   7397       5   7390       3 |   5    0      7039       354 |   2  23    0    0 740f |    4.150       0       5       0       5     23     23      0   6874     519       4  23    0740f a70f     10.350 "
test,1583577072315505152,40," | 40  |   7397       5   7315      74 |   5    0      6974       415 |   6  23    0    0 740f |    0           0       0       0       8      0      0      0   6804     585       0  23    0740f a70f     30.390 "
test,1583577072315821824,41," | 41  |   7397       5   7324      59 |   5    0      7315        68 |   5  23    0    0 740f |    0           0       0       0       8      0      0      0   7149     234       0  23    0740f a70f     30.360 "
test,1583577072298154240,42," | 42  |   7397       5   7331      62 |   5    7      7264       129 |   1  48   23    0 5c0f |    2.075       0       5       0       5     48     48      0   7112     281       1  48    05c0f a70f      8.130 "
test,1583577072300921088,44," | 44  |   7397       5   7336      57 |   5    8      7259       134 |   1  48   23    0 5c0f |    2.044       0       5       0       5     48     48      0   7114     279       1  48    05c0f a70f      8.280 "
test,1583577072297940992,45," | 45  |   7397       5   7350      43 |   5    8      7167       226 |   1  48   23    0 5c0f |    2.075       0       5       0       5     48     48      0   7040     353       1  48    05c0f a70f      8.280 "
test,1583577072299706880,46," | 46  |   7397       5   7329      57 |   5    5      7039       347 |   1  48   23    0 5c0f |    2.746       0       5       0       5     48     48      0   6928     458       2  48    05c0f a70f      9.000 "
test,1583577072299092992,47," | 47  |   7397       5   7336      57 |   5    7      7160       233 |   1  48   23    0 5c0f |    2.075       0       5       0       5     48     48      0   7035     358       1  48    05c0f a70f      8.220 "
test,1583577072298521088,48," | 48  |   7397       5   7271      55 |   2   10      7175       151 |  11  48   23    1 5c0f |    1.739       0       4       0       4     48     48      0   7042     284       2  48    15c0f a70f      6.510 "
test,1583577072295440896,49," | 49  |   7397       5   7387       0 |   5    0      7248       139 |   1  53    0    0 580f |    2.044       0       5       0       5     53     53      0   7196     191       1  53    0580f a70f      8.130 "
test,1583577072299969792,51," | 51  |   7397       5   7388       0 |   3    4      7303        85 |   2  23   58    0 740f |    3.448       0       5       0       5     23     23      0   7277     111       3  23    0740f a70f      9.510 "
test,1583577072301271808,52," | 52  |   7397       5   7360      29 |   3    0      7023       366 |   1  23    0    0 740f |    2.014       0       5       0       5     23     23      0   6896     493       1  23    0740f a70f      9.600 "
test,1583577072306098944,53," | 53  |   7397       5   7371       0 |   4    0      6986       385 |   2  53    0    1 580f |    1.739       0       4       0       4     53     53      0   6912     459       2  53    1580f a70f      6.480 "
test,1583577072295761152,54," | 54  |   7397       5   7389       0 |   5    0      7267       122 |   1  58    0    0 d40f |    2.014       0       5       0       5     58     58      0   7150     239       1  58    0d40f a70f      8.190 "
test,1583577072296435968,55," | 55  |   7397       5   7376       0 |   5    0      7097       279 |   1  53    0    0 580f |    2.075       0       5       0       5     53     53      0   7038     338       1  53    0580f a70f      8.130 "
test,1583577072300738048,56," | 56  |   7397       5   7379       0 |   5    2      7269       110 |   2  23   58    0 740f |    2.777       0       5       0       5     23     23      0   7180     199       2  23    0740f a70f      8.820 "
test,1583577072297777920,57," | 57  |   7397       5   7334       0 |   5    0      7145       189 |   1  23    0    0 740f |    2.014       0       5       0       5     23     23      0   6701     633       1  23    0740f a70f     11.130 "
test,1583577072297293824,58," | 58  |   7397       5   7388       0 |   1    2      7291        97 |  10  58   23    1 d40f |    3.814       0       4       0       4     58     58      0   6992     396       5  58    1d40f a70f      8.520 "
test,1583577072316082944,5," |  5  |   7397       5   7395       0 |   0    6      6729       666 |   0   5   58    1 c00f |    0           0       0       0       8      0      0      0   6602     793       0   5    1c00f a70f     30.150 "
test,1583577072297588992,60," | 60  |   7397       5   7388       0 |   5    0      6910       478 |   2  23    0    0 740f |    4.180       0       5       0       5     23     23      0   6763     625       4  23    0740f a70f     10.320 "
test,1583577072298701056,61," | 61  |   7397       5   7383       4 |   4    2      7061       326 |   1  58   23    0 d40f |    2.014       0       5       0       5     58     58      0   6816     571       1  58    0d40f a70f      8.760 "
test,1583577072296655872,7," |  7  |   7397       5   7394       0 |   5    0      7285       109 |   2  58    0    0 d40f |    2.685       0       5       0       5     58     58      0   7235     159       2  58    0d40f a70f      8.820 "
test,1583577072304434944,9," |  9  |   7397       5   7393       0 |   5    0      7146       247 |   2  58    0    0 d40f |    2.746       0       5       0       5     58     58      0   7110     283       2  58    0d40f a70f      8.970 "
