test,1583576976042905088,10," | 10  |   7012       5   6984       0 |   5    0      6871       113 |   2  10    0    1 6d0f |    1.770       0       4       0       4     10     10      0   6791     193       2  10    16d0f a70f      6.510 "
test,1583576976048804096,12," | 12  |   7012       5   6976      34 |   5    0      6934        76 |   1  10    0    0 6d0f |    2.014       0       5       0       5     10     10      0   6818     192       1  10    06d0f a70f      8.160 "
test,1583576976044056064,13," | 13  |   7012       5   7008       0 |   5    0      6949        59 |   1  10    0    0 6d0f |    1.983       0       5       0       5     10     10      0   6875     133       1  10    06d0f a70f      8.220 "
test,1583576976051689984,15," | 15  |   7012       5   6967      43 |   4    0      6729       281 |   5  10    0    0 6d0f |    2.716       0       5       0       5     10     10      0   6412     598       2  10    06d0f a70f      8.910 "
test,1583576976048424960,16," | 16  |   7012       5   7008       0 |   5    0      6744       264 |   2  27    0    0 c00f |    2.807       0       5       0       5     27     27      0   6560     448       2  27    0c00f a70f      8.910 "
test,1583576976051179008,17," | 17  |   7012       5   6999       9 |   5    0      6911        97 |   2  27    0    0 c00f |    2.014       0       5       0       5     27     27      0   6706     302       1  27    0c00f a70f      8.250 "
test,1583576976052288000,18," | 18  |   7012       5   7007       0 |   5    0      6643       364 |   4  27    0    0 c00f |    3.509       0       5       0       5     27     27      0   6367     640       3  27    0c00f a70f      9.570 "
test,1583576976049694976,19," | 19  |   7012       4   6995      13 |   3    0      6878       130 |   3  27    0    0 c00f |    2.075       0       5       0       5     27     27      0   6688     320       1  27    0c00f a70f      8.280 "
test,1583576976044340992,1," |  1  |   7012       4   7009       0 |   5    0      6824       185 |   1  10    0    0 6d0f |    2.685       0       5       0       5     10     10      0   6775     234       1  10    06d0f a70f      8.880 "
test,1583576976050643968,22," | 22  |   7012       5   7006       0 |   5    0      6943        63 |   2  27    0    0 c00f |    2.807       0       5       0       5     27     27      0   6628     378       2  27    0c00f a70f      9.660 "
test,1583576976043095040,23," | 23  |   7012       5   6950       0 |   5    0      6921        29 |   1  27    0    0 c00f |    2.044       0       5       0       5     27     27      0   6786     164       1  27    0c00f a70f      8.250 "
test,1583576976050400000,24," | 24  |   7012       5   7006       2 |   5    0      6931        77 |   3  27    0    0 c00f |    2.777       0       5       0       5     27     27      0   6758     250       2  27    0c00f a70f      9.690 "
test,1583576976046116096,26," | 26  |   7012       5   7006       2 |   5    0      6980        28 |   2  27    0    0 c00f |    2.777       0       5       0       5     27     27      0   6851     157       2  27    0c00f a70f      9.000 "
test,1583576976052090880,27," | 27  |   7012       5   7010       0 |   3    1      6802       208 |   6  27   10    1 c00f |    1.739       0       4       0       4     27     27      0   6533     477       2  27    1c00f a70f      7.200 "
test,1583576976066957824,28," | 28  |   7012       4   7000       8 |   1    6      6454       554 |   2  28   35    1 270f |    0           0       0       0       8      0      0      0   6179     829       0  28    1270f a70f     30.210 "
test,1583576976050185984,29," | 29  |   7012       4   7000      10 |   2    0      6191       819 |   6  27    0    0 c00f |    2.075       0       5       0       5     27     27      0   5898    1112       1  27    0c00f a70f      8.820 "
test,1583576976063628800,30," | 30  |   7012       5   7005       3 |   1    5      6913        95 |   1  28   35    0 270f |    0           0       0       0       8      0      0      0   6655     353       0  28    0270f a70f     30.360 "
test,1583576976066746880,35," | 35  |   7012       5   7005       3 |   0    1      6677       331 |   0  35   27    1 470f |    0           0       0       0       8      0      0      0   6519     489       0  35    1470f a70f     30.180 "
test,1583576976047179008,40," | 40  |   7012       5   6930      74 |   5    0      6603       401 |   4  40    0    1 a20f |    3.814       0       4       0       4     40     40      0   6437     567       5  40    1a20f a70f      8.520 "
test,1583576976053602048,41," | 41  |   7012       5   6939      59 |   5    0      6936        62 |   2  40    0    0 a20f |    4.119       0       5       0       5     40     40      0   6774     224       4  40    0a20f a70f     11.670 "
test,1583576976049005056,42," | 42  |   7012       5   6946      62 |   5    0      6883       125 |   2  40    0    0 a20f |    4.089       0       5       0       5     40     40      0   6734     274       4  40    0a20f a70f     10.170 "
test,1583576976048219904,44," | 44  |   7012       5   6951      57 |   5    0      6879       129 |   2  40    0    0 a20f |    4.089       0       5       0       5     40     40      0   6740     268       4  40    0a20f a70f     10.230 "
test,1583576976057347072,45," | 45  |   7012       5   6965      43 |   5    0      6794       214 |   2  40    0    0 a20f |    4.821       0       5       0       5     40     40      0   6671     337       5  40    0a20f a70f     10.980 "
test,1583576976050846976,46," | 46  |   7012       5   6944      57 |   5    0      6676       325 |   2  40    0    0 a20f |    4.821       0       5       0       5     40     40      0   6565     436       5  40    0a20f a70f     11.580 "
test,1583576976048005120,47," | 47  |   7012       5   6951      57 |   5    0      6786       222 |   1  40    0    0 a20f |    4.821       0       5       0       5     40     40      0   6665     343       5  40    0a20f a70f     11.010 "
test,1583576976051330048,48," | 48  |   7012       5   6886      55 |   5    0      6802       139 |   1  40    0    0 a20f |    4.119       0       5       0       5     40     40      0   6674     267       4  40    0a20f a70f     10.290 "
test,1583576976045868032,49," | 49  |   7012       5   7002       0 |   5    0      6868       134 |   2  10    0    0 6d0f |    3.448       0       5       0       5     10     10      0   6821     181       3  10    06d0f a70f      9.660 "
test,1583576976044888064,51," | 51  |   7012       5   7003       0 |   5    0      6924        79 |   1  10    0    0 6d0f |    2.014       0       5       0       5     10     10      0   6899     104       1  10    06d0f a70f      8.130 "
test,1583576976051022080,52," | 52  |   7012       3   6975      29 |   5    0      6656       348 |   2  27    0    0 c00f |    2.807       0       5       0       5     27     27      0   6533     471       2  27    0c00f a70f      8.940 "
test,1583576976047610112,53," | 53  |   7012       5   6986       0 |   5    0      6615       371 |   3  10    0    0 6d0f |    4.180       0       5       0       5     10     10      0   6547     439       4  10    06d0f a70f     10.350 "
test,1583576976053148928,54," | 54  |   7012       5   7004       0 |   5    0      6887       117 |   1  10    0    0 6d0f |    2.014       0       5       0       5     10     10      0   6777     227       1  10    06d0f a70f      8.250 "
test,1583576976054029824,55," | 55  |   7012       5   6991       0 |   5    0      6729       262 |   2  10    0    0 6d0f |    3.448       0       5       0       5     10     10      0   6674     317       3  10    06d0f a70f      9.660 "
test,1583576976045306880,56," | 56  |   7012       5   6994       0 |   5    0      6888       106 |   1  10    0    0 6d0f |    2.014       0       5       0       5     10     10      0   6804     190       1  10    06d0f a70f      8.220 "
test,1583576976066298880,57," | 57  |   7012       3   6949       0 |   3    3      6767       182 |   2  27   10    0 c00f |    0           0       0       0       8      0      0      0   6332     617       0  27    0c00f a70f     30.390 "
test,1583576976046951168,58," | 58  |   7012       5   7003       0 |   5    0      6910        93 |   1  10    0    0 6d0f |    2.746       0       5       0       5     10     10      0   6626     377       2  10    06d0f a70f      9.540 "
test,1583576976046509056,5," |  5  |   7012       5   7010       0 |   5    0      6383       627 |   2  10    0    0 6d0f |    2.746       0       5       0       5     10     10      0   6259     751       2  10    06d0f a70f      8.940 "
test,1583576976047388160,60," | 60  |   7012       5   7003       0 |   5    0      6560       443 |   2  10    0    0 6d0f |    2.746       0       5       0       5     10     10      0   6420     583       2  10    06d0f a70f      8.940 "
test,1583576976055473152,61," | 61  |   7012       5   6998       4 |   5    0      6689       313 |   2  10    0    0 6d0f |    2.716       0       5       0       5     10     10      0   6455     547       2  10    06d0f a70f      8.850 "
test,1583576976043535104,7," |  7  |   7012       5   7009       0 |   5    0      6908       101 |   1  10    0    0 6d0f |    2.044       0       5       0       5     10     10      0   6860     149       1  10    06d0f a70f      8.190 "
test,1583576976046718976,9," |  9  |   7012       5   7008       0 |   5    0      6774       234 |   1  10    0    0 6d0f |    1.983       0       5       0       5     10     10      0   6739     269       1  10    06d0f a70f      8.250 "
