test,1583577027053021952,10," | 10  |   7216       5   7188       0 |   5    0      7074       114 |   1  54    0    0 3e0f |    2.014       0       5       0       5     54     54      0   6994     194       1  54    03e0f a70f      8.220 "
test,1583577027053668096,12," | 12  |   7216       5   7180      34 |   5    0      7136        78 |   1  54    0    0 3e0f |    1.983       0       5       0       5     54     54      0   7017     197       1  54    03e0f a70f      8.190 "
test,1583577027043892992,13," | 13  |   7216       5   7212       0 |   5    0      7152        60 |   1  54    0    0 3e0f |    1.983       0       5       0       5     54     54      0   7078     134       1  54    03e0f a70f      8.790 "
test,1583577027050724096,15," | 15  |   7216       5   7171      43 |   5    0      6916       298 |   2  54    0    0 3e0f |    2.716       0       5       0       5     54     54      0   6595     619       2  54    03e0f a70f      8.940 "
test,1583577027066249984,16," | 16  |   7216       5   7212       0 |   5    0      6946       266 |   1  52    0    0 240f |    2.014       0       1       0       1     52     52      0   6760     452       1  52    0240f a70f     30.360 "
test,1583577027046411008,17," | 17  |   7216       5   7202      10 |   5    0      7115        97 |   1  19    0    0 ba0f |    1.983       0       5       0       5     19     19      0   6901     311       1  19    0ba0f a70f      8.220 "
test,1583577027051329024,18," | 18  |   7216       5   7211       0 |   5    0      6832       379 |   3  19    0    0 ba0f |    2.716       0       5       0       5     19     19      0   6550     661       2  19    0ba0f a70f      8.910 "
test,1583577027047593984,19," | 19  |   7216       5   7198      14 |   4    0      7075       137 |   4  19    0    1 ba0f |    1.739       0       4       0       4     19     19      0   6880     332       2  19    1ba0f a70f      6.510 "
test,1583577027044779008,1," |  1  |   7216       4   7213       0 |   5    0      7022       191 |   1  54    0    0 3e0f |    2.685       0       5       0       5     54     54      0   6973     240       1  54    03e0f a70f      8.760 "
test,1583577027049073920,22," | 22  |   7216       5   7210       0 |   5    0      7144        66 |   2  19    0    0 ba0f |    3.448       0       5       0       5     19     19      0   6821     389       3  19    0ba0f a70f      9.480 "
test,1583577027065604096,23," | 23  |   7216       5   7154       0 |   5    0      7124        30 |   2  52    0    0 240f |    2.014       0       1       0       1     52     52      0   6988     166       1  52    0240f a70f     30.360 "
test,1583577027045479168,24," | 24  |   7216       5   7210       2 |   5    0      7132        80 |   2  19    0    0 ba0f |    2.746       0       5       0       5     19     19      0   6951     261       2  19    0ba0f a70f      8.970 "
test,1583577027046252032,26," | 26  |   7216       5   7210       2 |   5    0      7183        29 |   2  19    0    0 ba0f |    2.716       0       5       0       5     19     19      0   7052     160       2  19    0ba0f a70f      8.940 "
test,1583577027067570944,27," | 27  |   7216       5   7214       0 |   4    1      7001       213 |   3  52   19    0 240f |    2.746       0       1       0       1     52     52      0   6728     486       2  52    0240f a70f     30.360 "
test,1583577027066900992,28," | 28  |   7216       4   7204       8 |   0    6      6642       570 |   0  28   19    1 410f |    0           0       0       0       8      0      0      0   6362     850       0  28    1410f a70f     30.180 "
test,1583577027065850880,29," | 29  |   7216       5   7204      10 |   1    1      6374       840 |  10  52   19    0 240f |    0           0       0       0       8      0      0      0   6069    1145       0  52    0240f a70f     30.360 "
test,1583577027047028992,30," | 30  |   7216       5   7209       3 |   5    0      7113        99 |   1  35    0    0 1e0f |    2.014       0       5       0       5     35     35      0   6846     366       1  35    01e0f a70f      8.250 "
test,1583577027046859008,35," | 35  |   7216       5   7209       3 |   5    0      6871       341 |   2  35    0    1 1e0f |    1.739       0       4       0       4     35     35      0   6707     505       2  35    11e0f a70f      6.480 "
test,1583577027066628096,40," | 40  |   7216       5   7134      74 |   0    6      6799       409 |   0  40   19    1 930f |    0           0       0       0       8      0      0      0   6631     577       0  40    1930f a70f     30.180 "
test,1583577027049869056,41," | 41  |   7216       5   7143      59 |   3    5      7139        63 |   5  19   40    0 ba0f |    4.241       0       5       0       5     19     19      0   6975     227       4  19    0ba0f a70f     10.320 "
test,1583577027051089152,42," | 42  |   7216       5   7150      62 |   5    0      7085       127 |   5  19    0    0 ba0f |    3.479       0       5       0       5     19     19      0   6935     277       3  19    0ba0f a70f     10.230 "
test,1583577027058121984,44," | 44  |   7216       5   7155      57 |   5    0      7080       132 |   5  19    0    0 ba0f |    3.479       0       5       0       5     19     19      0   6939     273       3  19    0ba0f a70f     10.260 "
test,1583577027051675136,45," | 45  |   7216       5   7169      43 |   5    0      6995       217 |   6  19    0    0 ba0f |    4.180       0       5       0       5     19     19      0   6870     342       4  19    0ba0f a70f     10.950 "
test,1583577027050578176,46," | 46  |   7216       5   7148      57 |   5    0      6872       333 |   5  19    0    0 ba0f |    4.211       0       5       0       5     19     19      0   6762     443       4  19    0ba0f a70f     11.010 "
test,1583577027049335040,47," | 47  |   7216       5   7155      57 |   5    0      6985       227 |   4  19    0    0 ba0f |    4.180       0       5       0       5     19     19      0   6862     350       4  19    0ba0f a70f     10.320 "
test,1583577027068487936,48," | 48  |   7216       2   7090      55 |   5    0      6999       146 |   5  19    0    0 ba0f |    5.676       0       4       0       4     19     19      0   6867     278       6  19    0ba0f a70f     30.330 "
test,1583577027046080000,49," | 49  |   7216       5   7206       0 |   5    0      7071       135 |   1  53    0    0 960f |    2.105       0       5       0       5     53     53      0   7020     186       1  53    0960f a70f      8.280 "
test,1583577027045933056,51," | 51  |   7216       5   7207       0 |   5    0      7125        82 |   2  54    0    0 3e0f |    2.746       0       5       0       5     54     54      0   7100     107       2  54    03e0f a70f      9.000 "
test,1583577027068109056,52," | 52  |   7216       4   7179      29 |   0    2      6851       357 |   0  52   19    1 240f |    1.739       0       1       0       1     52     52      0   6727     481       2  52    1240f a70f     30.300 "
test,1583577027044954112,53," | 53  |   7216       5   7190       0 |   5    0      6814       376 |   2  53    0    1 960f |    1.739       0       4       0       4     53     53      0   6741     449       2  53    1960f a70f      6.480 "
test,1583577027047416064,54," | 54  |   7216       5   7208       0 |   4    0      7088       120 |   2  54    0    1 3e0f |    1.739       0       4       0       4     54     54      0   6975     233       2  54    13e0f a70f      6.510 "
test,1583577027044562176,55," | 55  |   7216       5   7195       0 |   5    0      6926       269 |   1  53    0    0 960f |    2.044       0       5       0       5     53     53      0   6867     328       1  53    0960f a70f      8.250 "
test,1583577027048356096,56," | 56  |   7216       5   7198       0 |   5    0      7090       108 |   2  54    0    0 3e0f |    2.746       0       5       0       5     54     54      0   7001     197       2  54    03e0f a70f      8.850 "
test,1583577027067214080,57," | 57  |   7216       5   7153       0 |   2    1      6968       185 |  11  52   54    0 240f |    2.746       0       1       0       1     52     52      0   6530     623       2  52    0240f a70f     30.390 "
test,1583577027052356096,58," | 58  |   7216       4   7207       0 |   5    0      7112        95 |   1  54    0    0 3e0f |    2.014       0       5       0       5     54     54      0   6818     389       1  54    03e0f a70f      8.160 "
test,1583577027066070016,5," |  5  |   7216       5   7214       0 |   5    0      6565       649 |   2  54    0    0 3e0f |    2.746       0       4       0       4     54     54      0   6439     775       2  54    03e0f a70f     30.360 "
test,1583577027046721024,60," | 60  |   7216       5   7207       0 |   5    0      6745       462 |   3  54    0    0 3e0f |    3.479       0       5       0       5     54     54      0   6601     606       3  54    03e0f a70f      9.690 "
test,1583577027056929024,61," | 61  |   7216       5   7202       4 |   5    0      6885       321 |   1  54    0    0 3e0f |    2.014       0       5       0       5     54     54      0   6645     561       1  54    03e0f a70f      8.880 "
test,1583577027045708800,7," |  7  |   7216       5   7213       0 |   5    0      7109       104 |   1  54    0    0 3e0f |    2.014       0       5       0       5     54     54      0   7061     152       1  54    03e0f a70f      8.250 "
test,1583577027044264192,9," |  9  |   7216       5   7212       0 |   5    0      6970       242 |   1  54    0    0 3e0f |    1.983       0       5       0       5     54     54      0   6935     277       1  54    03e0f a70f      8.250 "
