test,1583576994566205952,10," | 10  |   7086       5   7058       0 |   2    4      6944       114 |   2  15   22    0 230f |    2.746       0       4       0       4     15     15      0   6864     194       2  15    0230f a70f     30.360 "
test,1583576994544465152,12," | 12  |   7086       5   7050      34 |   5    0      7008        76 |   1  15    0    0 230f |    2.014       0       5       0       5     15     15      0   6891     193       1  15    0230f a70f      8.250 "
test,1583576994553440000,13," | 13  |   7086       5   7082       0 |   5    0      7023        59 |   1  15    0    0 230f |    1.983       0       5       0       5     15     15      0   6949     133       1  15    0230f a70f      8.070 "
test,1583576994544233984,15," | 15  |   7086       5   7041      43 |   4    0      6793       291 |   2  15    0    1 230f |    1.739       0       4       0       4     15     15      0   6478     606       2  15    1230f a70f      6.480 "
test,1583576994554290176,16," | 16  |   7086       5   7082       0 |   4    0      6817       265 |   4  22    0    0 2c0f |    2.777       0       5       0       5     22     22      0   6633     449       2  22    02c0f a70f      8.850 "
test,1583576994546270976,17," | 17  |   7086       5   7073       9 |   5    0      6985        97 |   1  22    0    0 2c0f |    2.014       0       5       0       5     22     22      0   6777     305       1  22    02c0f a70f      9.720 "
test,1583576994544784896,18," | 18  |   7086       5   7081       0 |   5    0      6715       366 |   1  22    0    0 2c0f |    2.014       0       5       0       5     22     22      0   6436     645       1  22    02c0f a70f      8.220 "
test,1583576994549233920,19," | 19  |   7086       5   7069      13 |   5    0      6949       133 |   1  22    0    0 2c0f |    2.044       0       5       0       5     22     22      0   6760     322       1  22    02c0f a70f     10.350 "
test,1583576994545747968,1," |  1  |   7086       4   7083       0 |   5    0      6897       186 |   2  15    0    0 230f |    3.417       0       5       0       5     15     15      0   6848     235       2  15    0230f a70f      9.510 "
test,1583576994543118848,22," | 22  |   7086       5   7080       0 |   4    0      7017        63 |   2  22    0    1 2c0f |    1.770       0       4       0       4     22     22      0   6697     383       2  22    12c0f a70f      6.510 "
test,1583576994543778816,23," | 23  |   7086       5   7024       0 |   5    0      6995        29 |   1  22    0    0 2c0f |    2.014       0       5       0       5     22     22      0   6860     164       1  22    02c0f a70f      8.070 "
test,1583576994549745920,24," | 24  |   7086       5   7080       2 |   5    0      7003        79 |   1  22    0    0 2c0f |    2.014       0       5       0       5     22     22      0   6827     255       1  22    02c0f a70f      8.220 "
test,1583576994548388864,26," | 26  |   7086       5   7080       2 |   5    0      7054        28 |   1  22    0    0 2c0f |    2.014       0       5       0       5     22     22      0   6925     157       1  22    02c0f a70f     10.440 "
test,1583576994567563008,27," | 27  |   7086       5   7084       0 |   3    0      6876       208 |   3  22    0    0 2c0f |    2.746       0       4       0       4     22     22      0   6605     479       2  22    02c0f a70f     30.360 "
test,1583576994548989184,28," | 28  |   7086       5   7074       8 |   2    7      6520       562 |   5  22   35    0 2c0f |    2.777       0       5       0       5     22     22      0   6246     836       2  22    02c0f a70f     10.260 "
test,1583576994568054016,29," | 29  |   7086       5   7074      10 |   5    0      6257       827 |   2  22    0    0 2c0f |    2.716       0       2       0       2     22     22      0   5960    1124       2  22    02c0f a70f     30.300 "
test,1583576994566562816,30," | 30  |   7086       5   7079       3 |   1    8      6985        97 |   8  22   35    0 2c0f |    3.448       0       3       0       3     22     22      0   6726     356       3  22    02c0f a70f     30.360 "
test,1583576994565753088,35," | 35  |   7086       5   7079       3 |   0    1      6747       335 |   0  35   22    1 490f |    0           0       0       0       8      0      0      0   6589     493       0  35    1490f a70f     30.150 "
test,1583576994553078784,40," | 40  |   7086       5   7004      74 |   5    0      6673       405 |   3  45    0    0 e90f |    2.746       0       5       0       5     45     45      0   6507     571       2  45    0e90f a70f      8.970 "
test,1583576994550530816,41," | 41  |   7086       5   7013      59 |   5    0      7010        62 |   2  45    0    0 e90f |    2.044       0       5       0       5     45     45      0   6847     225       1  45    0e90f a70f      8.160 "
test,1583576994546004992,42," | 42  |   7086       5   7020      62 |   5    0      6956       126 |   2  45    0    0 e90f |    2.044       0       5       0       5     45     45      0   6807     275       1  45    0e90f a70f      8.820 "
test,1583576994547064064,44," | 44  |   7086       5   7025      57 |   5    0      6952       130 |   1  45    0    0 e90f |    2.044       0       5       0       5     45     45      0   6813     269       1  45    0e90f a70f      8.850 "
test,1583576994549448960,45," | 45  |   7086       5   7039      43 |   4    0      6868       214 |   3  45    0    1 e90f |    1.739       0       4       0       4     45     45      0   6744     338       2  45    1e90f a70f      7.920 "
test,1583576994548022016,46," | 46  |   7086       5   7018      57 |   5    0      6746       329 |   2  45    0    0 e90f |    2.044       0       5       0       5     45     45      0   6637     438       1  45    0e90f a70f      8.850 "
test,1583576994547460096,47," | 47  |   7086       5   7025      57 |   5    0      6859       223 |   1  45    0    0 e90f |    2.014       0       5       0       5     45     45      0   6738     344       1  45    0e90f a70f      8.790 "
test,1583576994548237056,48," | 48  |   7086       5   6960      55 |   5    0      6875       140 |   2  45    0    0 e90f |    2.044       0       5       0       5     45     45      0   6746     269       1  45    0e90f a70f      8.250 "
test,1583576994551447040,49," | 49  |   7086       5   7076       0 |   5    0      6942       134 |   1  55    0    0 800f |    2.044       0       5       0       5     55     55      0   6895     181       1  55    0800f a70f      8.280 "
test,1583576994547837952,51," | 51  |   7086       5   7077       0 |   5    0      6997        80 |   3  22    0    0 2c0f |    3.448       0       5       0       5     22     22      0   6972     105       3  22    02c0f a70f      9.660 "
test,1583576994550391040,52," | 52  |   7086       3   7049      29 |   4    0      6728       350 |   2  22    0    0 2c0f |    2.777       0       5       0       5     22     22      0   6604     474       2  22    02c0f a70f      9.540 "
test,1583576994545202944,53," | 53  |   7086       5   7060       0 |   5    0      6687       373 |   1  55    0    0 800f |    2.075       0       5       0       5     55     55      0   6619     441       1  55    0800f a70f      8.160 "
test,1583576994546850048,54," | 54  |   7086       5   7078       0 |   5    0      6959       119 |   4  15    0    0 230f |    2.746       0       5       0       5     15     15      0   6848     230       2  15    0230f a70f      8.970 "
test,1583576994545017856,55," | 55  |   7086       5   7065       0 |   5    0      6801       264 |   2  55    0    1 800f |    1.770       0       4       0       4     55     55      0   6746     319       2  55    1800f a70f      6.510 "
test,1583576994549926144,56," | 56  |   7086       5   7068       0 |   5    0      6962       106 |   2  22    0    0 2c0f |    2.777       0       5       0       5     22     22      0   6877     191       2  22    02c0f a70f      8.850 "
test,1583576994546446080,57," | 57  |   7086       5   7023       0 |   5    0      6840       183 |   1  22    0    0 2c0f |    2.014       0       5       0       5     22     22      0   6403     620       1  22    02c0f a70f      8.100 "
test,1583576994567357184,58," | 58  |   7086       5   7077       0 |   1    3      6984        93 |   2  22   55    0 2c0f |    9.368       0       2       0       2     22     22      0   6699     378      11  22    02c0f a70f     30.330 "
test,1583576994550717952,5," |  5  |   7086       5   7084       0 |   5    0      6447       637 |   1  15    0    0 230f |    2.014       0       5       0       5     15     15      0   6323     761       1  15    0230f a70f      8.940 "
test,1583576994567099136,60," | 60  |   7086       5   7077       0 |   1    6      6631       446 |   1  15   22    0 230f |    1.983       0       1       0       1     15     15      0   6491     586       1  15    0230f a70f     30.360 "
test,1583576994557889024,61," | 61  |   7086       5   7072       4 |   5    0      6758       318 |   2  22    0    0 2c0f |    2.746       0       5       0       5     22     22      0   6525     551       2  22    02c0f a70f     10.230 "
test,1583576994545392128,7," |  7  |   7086       5   7083       0 |   5    0      6982       101 |   3  15    0    0 230f |    2.716       0       5       0       5     15     15      0   6933     150       2  15    0230f a70f      8.940 "
test,1583576994547635200,9," |  9  |   7086       5   7082       0 |   5    0      6846       236 |   2  15    0    0 230f |    2.746       0       5       0       5     15     15      0   6811     271       2  15    0230f a70f      8.850 "
