test,1583577011298830080,10," | 10  |   7153       5   7125       0 |   5    0      7011       114 |   1   1    0    0 e90f |    1.342       0       5       0       5      1      1      0   6931     194       1   1    0e90f a70f      9.000 "
test,1583577011293725952,12," | 12  |   7153       5   7117      34 |   5    0      7074        77 |   2   1    0    0 e90f |    2.044       0       5       0       5      1      1      0   6956     195       2   1    0e90f a70f      8.280 "
test,1583577011313512192,13," | 13  |   7153       5   7149       0 |   4    9      7089        60 |   5  13    1    1 7d0f |    1.739       0       1       0       1     13     13      0   7015     134       2  13    17d0f a70f     30.300 "
test,1583577011304236032,15," | 15  |   7153       5   7108      43 |   5    0      6856       295 |   3   1    0    0 e90f |    2.807       0       5       0       5      1      1      0   6540     611       3   1    0e90f a70f      9.030 "
test,1583577011288829184,16," | 16  |   7153       5   7149       0 |   4    0      6884       265 |   4  16    0    1  70f |    1.739       0       4       0       4     16     16      0   6699     450       2  16    1 70f a70f      6.510 "
test,1583577011299176960,17," | 17  |   7153       5   7139      10 |   5    0      7052        97 |   2  16    0    0  70f |    2.746       0       5       0       5     16     16      0   6841     308       2  16    0 70f a70f      8.940 "
test,1583577011297035008,18," | 18  |   7153       5   7148       0 |   5    0      6778       370 |   2  16    0    0  70f |    2.746       0       5       0       5     16     16      0   6498     650       2  16    0 70f a70f     11.100 "
test,1583577011299351040,19," | 19  |   7153       5   7135      14 |   5    0      7015       134 |   2  16    0    0  70f |    3.479       0       5       0       5     16     16      0   6822     327       3  16    0 70f a70f      9.690 "
test,1583577011296497152,1," |  1  |   7153       4   7150       0 |   4    0      6961       189 |   4   1    0    1 e90f |    3.234       0       4       0       4      1      1      0   6912     238       4   1    1e90f a70f      7.950 "
test,1583577011297846016,22," | 22  |   7153       5   7147       0 |   5    0      7083        64 |   2  16    0    0  70f |    2.685       0       5       0       5     16     16      0   6763     384       2  16    0 70f a70f     10.320 "
test,1583577011300893184,23," | 23  |   7153       5   7091       0 |   5    0      7062        29 |   1  16    0    0  70f |    1.983       0       5       0       5     16     16      0   6926     165       1  16    0 70f a70f      9.630 "
test,1583577011297699072,24," | 24  |   7153       5   7147       2 |   5    0      7069        80 |   2  16    0    0  70f |    2.746       0       5       0       5     16     16      0   6890     259       2  16    0 70f a70f      9.660 "
test,1583577011295393024,26," | 26  |   7153       5   7147       2 |   5    0      7121        28 |   1  16    0    0  70f |    1.983       0       5       0       5     16     16      0   6992     157       1  16    0 70f a70f      8.850 "
test,1583577011298539008,27," | 27  |   7153       5   7151       0 |   5    0      6938       213 |   2  16    0    0  70f |    2.746       0       5       0       5     16     16      0   6667     484       2  16    0 70f a70f      8.940 "
test,1583577011320249088,28," | 28  |   7153       5   7141       8 |   5    0      6584       565 |   3  16    0    0  70f |    4.241       0       4       0       4     16     16      0   6307     842       4  16    0 70f a70f     30.330 "
test,1583577011299734016,29," | 29  |   7153       5   7141      10 |   3    0      6316       835 |   9  16    0    0  70f |    4.180       0       5       0       5     16     16      0   6018    1133       4  16    0 70f a70f     10.260 "
test,1583577011315557120,30," | 30  |   7153       5   7146       3 |   5    0      7050        99 |   4  16    0    0  70f |    3.479       0       4       0       4     16     16      0   6788     361       3  16    0 70f a70f     30.360 "
test,1583577011317938176,35," | 35  |   7153       5   7146       3 |   5    0      6810       339 |   3  16    0    0  70f |    3.479       0       4       0       4     16     16      0   6650     499       3  16    0 70f a70f     30.360 "
test,1583577011316153088,40," | 40  |   7153       5   7071      74 |   5    0      6738       407 |   3  45    0    0 1c0f |    2.777       0       3       0       3     45     45      0   6572     573       2  45    01c0f a70f     30.300 "
test,1583577011300226816,41," | 41  |   7153       5   7080      59 |   4   10      7077        62 |   5  41   16    1 ce0f |    3.814       0       4       0       4     41     41      0   6914     225       5  41    1ce0f a70f      8.520 "
test,1583577011317074944,42," | 42  |   7153       5   7087      62 |   5    0      7022       127 |   3  45    0    0 1c0f |    3.479       0       3       0       3     45     45      0   6873     276       3  45    01c0f a70f     30.360 "
test,1583577011295579904,44," | 44  |   7153       5   7092      57 |   5    0      7017       132 |   1  45    0    0 1c0f |    2.014       0       5       0       5     45     45      0   6878     271       1  45    01c0f a70f      8.220 "
test,1583577011295005184,45," | 45  |   7153       5   7106      43 |   4    0      6935       214 |   2  45    0    1 1c0f |    1.739       0       4       0       4     45     45      0   6811     338       2  45    11c0f a70f      6.480 "
test,1583577011298300928,46," | 46  |   7153       5   7085      57 |   5    7      6811       331 |   1  41   45    0 ce0f |    2.014       0       5       0       5     41     41      0   6702     440       1  41    0ce0f a70f      8.760 "
test,1583577011316687104,47," | 47  |   7153       5   7092      57 |   5    0      6923       226 |   3  45    0    0 1c0f |    2.746       0       3       0       3     45     45      0   6801     348       2  45    01c0f a70f     30.360 "
test,1583577011316384000,48," | 48  |   7153       5   7027      55 |   5    0      6940       142 |   2  45    0    0 1c0f |    1.983       0       4       0       4     45     45      0   6811     271       1  45    01c0f a70f     30.360 "
test,1583577011294627072,49," | 49  |   7153       5   7143       0 |   5    0      7008       135 |   1  55    0    0 760f |    2.014       0       5       0       5     55     55      0   6959     184       1  55    0760f a70f      8.220 "
test,1583577011294118912,51," | 51  |   7153       5   7144       0 |   5    0      7062        82 |   1   1    0    0 e90f |    1.373       0       5       0       5      1      1      0   7037     107       1   1    0e90f a70f      7.530 "
test,1583577011298027008,52," | 52  |   7153       5   7116      29 |   5    0      6792       353 |   1  16    0    0  70f |    2.014       0       5       0       5     16     16      0   6668     477       1  16    0 70f a70f      8.940 "
test,1583577011297282816,53," | 53  |   7153       5   7127       0 |   5    0      6753       374 |   1  55    0    0 760f |    2.044       0       5       0       5     55     55      0   6682     445       1  55    0760f a70f      8.280 "
test,1583577011299886848,54," | 54  |   7153       5   7145       0 |   5    0      7026       119 |   1   1    0    0 e90f |    1.312       0       5       0       5      1      1      0   6913     232       1   1    0e90f a70f      8.250 "
test,1583577011293960192,55," | 55  |   7153       5   7132       0 |   4    0      6865       267 |   8  55    0    1 760f |    1.770       0       4       0       4     55     55      0   6807     325       2  55    1760f a70f      6.510 "
test,1583577011315097088,56," | 56  |   7153       5   7135       0 |   5    8      7027       108 |   1  13   16    0 7d0f |    0           0       0       0       8      0      0      0   6940     195       0  13    07d0f a70f     30.360 "
test,1583577011305042944,57," | 57  |   7153       5   7090       0 |   4    5      6905       185 |   4  16   13    0  70f |    2.716       0       5       0       5     16     16      0   6469     621       2  16    0 70f a70f      9.660 "
test,1583577011304642048,58," | 58  |   7153       5   7144       0 |   5    1      7050        94 |   1  55    1    0 760f |    2.044       0       5       0       5     55     55      0   6760     384       1  55    0760f a70f      8.280 "
test,1583577011314355968,5," |  5  |   7153       4   7151       0 |   5    8      6508       643 |   1  13    1    0 7d0f |    2.014       0       1       0       1     13     13      0   6383     768       1  13    07d0f a70f     30.360 "
test,1583577011302768896,60," | 60  |   7153       5   7144       0 |   5    0      6690       454 |   2   1    0    0 e90f |    2.105       0       5       0       5      1      1      0   6547     597       2   1    0e90f a70f      8.160 "
test,1583577011317692928,61," | 61  |   7153       5   7139       4 |   2    5      6824       319 |   8  55   13    0 760f |    2.777       0       4       0       4     55     55      0   6586     557       2  55    0760f a70f     30.360 "
test,1583577011302607104,7," |  7  |   7153       5   7150       0 |   5    0      7046       104 |   1   1    0    0 e90f |    1.373       0       5       0       5      1      1      0   6998     152       1   1    0e90f a70f      7.470 "
test,1583577011295864064,9," |  9  |   7153       5   7149       0 |   5    0      6909       240 |   1   1    0    0 e90f |    1.312       0       5       0       5      1      1      0   6874     275       1   1    0e90f a70f      7.560 "
