test,1583576974547745024,10," | 10  |   7006       5   6978       0 |   5    0      6865       113 |   3  12    0    0 730f |    3.479       0       5       0       5     12     12      0   6785     193       3  12    0730f a70f      9.660 "
test,1583576974549494016,12," | 12  |   7006       5   6970      34 |   4    0      6928        76 |   2  12    0    1 730f |    1.739       0       4       0       4     12     12      0   6812     192       2  12    1730f a70f      8.640 "
test,1583576974545996800,13," | 13  |   7006       5   7002       0 |   5    0      6943        59 |   2  12    0    0 730f |    2.716       0       5       0       5     12     12      0   6869     133       2  12    0730f a70f      9.660 "
test,1583576974548271872,15," | 15  |   7006       5   6961      43 |   5    0      6723       281 |   1  12    0    0 730f |    2.014       0       5       0       5     12     12      0   6406     598       1  12    0730f a70f     10.320 "
test,1583576974548656896,16," | 16  |   7006       5   7002       0 |   4    0      6739       263 |   3  16    0    1 9c0f |    1.739       0       4       0       4     16     16      0   6556     446       2  16    19c0f a70f      6.510 "
test,1583576974566662912,17," | 17  |   7006       5   6993       9 |   1    7      6906        96 |   1  27   16    0 9b0f |    9.948       0       1       0       1     27     27      0   6701     301      12  27    09b0f a70f     30.390 "
test,1583576974549293056,18," | 18  |   7006       5   7001       0 |   5    0      6637       364 |   3  16    0    0 9c0f |    3.509       0       5       0       5     16     16      0   6362     639       3  16    09c0f a70f      9.690 "
test,1583576974566419968,19," | 19  |   7006       5   6989      13 |   1    1      6872       130 |   1  27   16    0 9b0f |    2.014       0       2       0       2     27     27      0   6682     320       1  27    09b0f a70f     30.390 "
test,1583576974564768000,1," |  1  |   7006       4   7003       0 |   4    3      6818       185 |   4  12    7    0 730f |    4.150       0       4       0       4     12     12      0   6769     234       3  12    0730f a70f     30.270 "
test,1583576974563672064,22," | 22  |   7006       5   7000       0 |   0    0      6937        63 |   0   0    0    0    0 |    0           0       0       0       8      0      0      0   6623     377       0   0    0   0 a70f     30.360 "
test,1583576974543512064,23," | 23  |   7006       5   6944       0 |   5    0      6915        29 |   3  16    0    0 9c0f |    2.014       0       5       0       5     16     16      0   6781     163       1  16    09c0f a70f      8.130 "
test,1583576974548901120,24," | 24  |   7006       5   7000       2 |   5    0      6925        77 |   3  16    0    0 9c0f |    2.777       0       5       0       5     16     16      0   6752     250       2  16    09c0f a70f      8.970 "
test,1583576974545489152,26," | 26  |   7006       5   7000       2 |   5    0      6974        28 |   1  16    0    0 9c0f |    2.014       0       5       0       5     16     16      0   6846     156       1  16    09c0f a70f      8.250 "
test,1583576974552381952,27," | 27  |   7006       4   7004       0 |   4    0      6796       208 |   3  27    0    1 9b0f |    3.814       0       4       0       4     27     27      0   6527     477       5  27    19b0f a70f      8.520 "
test,1583576974564300032,28," | 28  |   7006       5   6994       8 |   1    8      6448       554 |   2  27   30    0 9b0f |    0           0       0       0       8      0      0      0   6176     826       0  27    09b0f a70f     30.330 "
test,1583576974552866048,29," | 29  |   7006       3   6994      10 |   5    0      6185       819 |   2  27    0    0 9b0f |    2.014       0       5       0       5     27     27      0   5892    1112       1  27    09b0f a70f      8.760 "
test,1583576974544336128,30," | 30  |   7006       5   6999       3 |   5    0      6907        95 |   2  30    0    1 210f |    1.739       0       4       0       4     30     30      0   6651     351       2  30    1210f a70f      6.480 "
test,1583576974548464128,35," | 35  |   7006       5   6999       3 |   5    0      6672       330 |   1  30    0    0 210f |    2.014       0       5       0       5     30     30      0   6515     487       1  30    0210f a70f      8.100 "
test,1583576974566993920,40," | 40  |   7006       5   6924      74 |   5    0      6598       400 |   3  16    0    0 9c0f |    3.509       0       4       0       4     16     16      0   6432     566       3  16    09c0f a70f     30.390 "
test,1583576974544052992,41," | 41  |   7006       5   6933      59 |   5    0      6930        62 |   1  16    0    0 9c0f |    2.075       0       5       0       5     16     16      0   6768     224       1  16    09c0f a70f      8.220 "
test,1583576974570828800,42," | 42  |   7006       5   6940      62 |   5    0      6877       125 |   2  16    0    0 9c0f |    3.479       0       4       0       4     16     16      0   6728     274       3  16    09c0f a70f     30.300 "
test,1583576974569399040,44," | 44  |   7006       5   6945      57 |   5    0      6873       129 |   2  16    0    0 9c0f |    3.509       0       4       0       4     16     16      0   6734     268       3  16    09c0f a70f     30.360 "
test,1583576974544992000,45," | 45  |   7006       5   6959      43 |   5    0      6788       214 |   2  16    0    0 9c0f |    2.075       0       5       0       5     16     16      0   6665     337       1  16    09c0f a70f      8.940 "
test,1583576974566825984,46," | 46  |   7006       5   6938      57 |   5    0      6670       325 |   2  16    0    0 9c0f |    3.540       0       4       0       4     16     16      0   6559     436       3  16    09c0f a70f     30.270 "
test,1583576974546192896,47," | 47  |   7006       5   6945      57 |   5    0      6780       222 |   2  16    0    0 9c0f |    2.807       0       5       0       5     16     16      0   6659     343       2  16    09c0f a70f      9.030 "
test,1583576974567353856,48," | 48  |   7006       5   6880      55 |   5    0      6797       138 |   2  16    0    0 9c0f |    3.479       0       4       0       4     16     16      0   6668     267       3  16    09c0f a70f     30.360 "
test,1583576974542853120,49," | 49  |   7006       5   6996       0 |   4    0      6863       133 |   5  49    0    1 d40f |    1.770       0       4       0       4     49     49      0   6816     180       2  49    1d40f a70f      6.510 "
test,1583576974547527168,51," | 51  |   7006       5   6997       0 |   5    0      6918        79 |   3  12    0    0 730f |    3.448       0       5       0       5     12     12      0   6893     104       3  12    0730f a70f      9.510 "
test,1583576974565985024,52," | 52  |   7006       5   6969      29 |   5    0      6651       347 |   2  16    0    0 9c0f |    2.014       0       4       0       4     16     16      0   6528     470       1  16    09c0f a70f     30.360 "
test,1583576974543853056,53," | 53  |   7006       5   6980       0 |   5    0      6610       370 |   4  49    0    0 d40f |    1.983       0       5       0       5     49     49      0   6542     438       1  49    0d40f a70f      8.130 "
test,1583576974549857024,54," | 54  |   7006       5   6998       0 |   5    0      6881       117 |   4  12    0    0 730f |    3.448       0       5       0       5     12     12      0   6771     227       3  12    0730f a70f     10.380 "
test,1583576974562203904,55," | 55  |   7006       5   6985       0 |   0    8      6725       260 |   0  55   49    1 8c0f |    0           0       0       0       8      0      0      0   6670     315       0  55    18c0f a70f     30.180 "
test,1583576974552644096,56," | 56  |   7006       5   6988       0 |   5    0      6882       106 |   4  12    0    0 730f |    4.211       0       5       0       5     12     12      0   6798     190       4  12    0730f a70f     10.380 "
test,1583576974547969024,57," | 57  |   7006       5   6943       0 |   1    4      6762       181 |   2  16   60    0 9c0f |    2.807       0       5       0       5     16     16      0   6328     615       2  16    09c0f a70f      9.030 "
test,1583576974564486912,58," | 58  |   7006       5   6997       0 |   4    5      6905        92 |   4  16   55    0 9c0f |    0           0       0       0       8      0      0      0   6622     375       0  16    09c0f a70f     30.390 "
test,1583576974545149952,5," |  5  |   7006       5   7004       0 |   5    0      6378       626 |   1  12    0    0 730f |    1.983       0       5       0       5     12     12      0   6254     750       1  12    0730f a70f      8.190 "
test,1583576974563889920,60," | 60  |   7006       5   6997       0 |   0    5      6555       442 |   0  60   12    1 7a0f |    0           0       0       0       8      0      0      0   6415     582       0  60    17a0f a70f     30.180 "
test,1583576974564120064,61," | 61  |   7006       5   6992       4 |   4    0      6684       312 |   3  16    0    0 9c0f |    0           0       0       0       8      0      0      0   6451     545       0  16    09c0f a70f     30.390 "
test,1583576974560587008,7," |  7  |   7006       5   7003       0 |   0    7      6902       101 |   0   7   12    1 2d0f |    0           0       0       0       8      0      0      0   6854     149       0   7    12d0f a70f     30.180 "
test,1583576974565335040,9," |  9  |   7006       5   7002       0 |   4    3      6768       234 |   4  12    7    0 730f |    3.448       0       4       0       4     12     12      0   6733     269       3  12    0730f a70f     30.390 "
