test,1583577039544253184,10," | 10  |   7266       5   7238       0 |   5    0      7123       115 |   1   7    0    0 c80f |    2.075       0       5       0       5      7      7      0   7043     195       1   7    0c80f a70f      8.220 "
test,1583577039545243904,12," | 12  |   7266       5   7230      34 |   5    0      7186        78 |   1   7    0    0 c80f |    2.014       0       5       0       5      7      7      0   7067     197       1   7    0c80f a70f      8.220 "
test,1583577039544493056,13," | 13  |   7266       5   7262       0 |   5    0      7202        60 |   1   7    0    0 c80f |    2.044       0       5       0       5      7      7      0   7128     134       1   7    0c80f a70f      8.310 "
test,1583577039566212864,15," | 15  |   7266       5   7221      43 |   5    0      6963       301 |   2   7    0    0 c80f |    2.777       0       4       0       4      7      7      0   6640     624       2   7    0c80f a70f     30.390 "
test,1583577039552084992,16," | 16  |   7266       5   7262       0 |   5    0      6993       269 |   1  23    0    0 c20f |    2.044       0       5       0       5     23     23      0   6805     457       1  23    0c20f a70f      8.160 "
test,1583577039555105024,17," | 17  |   7266       5   7252      10 |   5    0      7164        98 |   1  23    0    0 c20f |    2.075       0       5       0       5     23     23      0   6947     315       1  23    0c20f a70f      8.160 "
test,1583577039552869120,18," | 18  |   7266       5   7261       0 |   5    0      6876       385 |   2  23    0    0 c20f |    2.777       0       5       0       5     23     23      0   6591     670       2  23    0c20f a70f      9.690 "
test,1583577039551584000,19," | 19  |   7266       5   7248      14 |   5    0      7123       139 |   1  23    0    0 c20f |    2.105       0       5       0       5     23     23      0   6923     339       1  23    0c20f a70f     10.380 "
test,1583577039546765056,1," |  1  |   7266       4   7263       0 |   5    0      7070       193 |   1   7    0    0 c80f |    2.716       0       5       0       5      7      7      0   7021     242       1   7    0c80f a70f      9.630 "
test,1583577039542179072,22," | 22  |   7266       5   7260       0 |   5    0      7194        66 |   1  23    0    0 c20f |    2.075       0       5       0       5     23     23      0   6867     393       1  23    0c20f a70f      9.630 "
test,1583577039539952896,23," | 23  |   7266       5   7204       0 |   5    0      7174        30 |   4  23    0    1 c20f |    1.770       0       4       0       4     23     23      0   7036     168       2  23    1c20f a70f      6.510 "
test,1583577039548902144,24," | 24  |   7266       5   7260       2 |   5    0      7182        80 |   1  23    0    0 c20f |    2.807       0       5       0       5     23     23      0   6998     264       2  23    0c20f a70f      9.000 "
test,1583577039546983936,26," | 26  |   7266       5   7260       2 |   5    0      7233        29 |   1  23    0    0 c20f |    2.044       0       5       0       5     23     23      0   7100     162       1  23    0c20f a70f      8.310 "
test,1583577039552641024,27," | 27  |   7266       5   7264       0 |   4    0      7049       215 |   1  23    0    0 c20f |    2.044       0       5       0       5     23     23      0   6773     491       1  23    0c20f a70f      8.130 "
test,1583577039567795968,28," | 28  |   7266       5   7254       8 |   0    6      6688       574 |   0  28   23    1 360f |    0           0       0       0       8      0      0      0   6409     853       0  28    1360f a70f     30.240 "
test,1583577039552258048,29," | 29  |   7266       5   7254      10 |   4    0      6422       842 |   5  23    0    0 c20f |    2.746       0       5       0       5     23     23      0   6112    1152       2  23    0c20f a70f      8.970 "
test,1583577039547568128,30," | 30  |   7266       5   7259       3 |   5    0      7163        99 |   2  23    0    0 c20f |    2.777       0       5       0       5     23     23      0   6895     367       2  23    0c20f a70f      9.570 "
test,1583577039547230976,35," | 35  |   7266       5   7259       3 |   5    0      6917       345 |   2  23    0    0 c20f |    2.777       0       5       0       5     23     23      0   6753     509       2  23    0c20f a70f      9.000 "
test,1583577039567398912,40," | 40  |   7266       5   7184      74 |   2    2      6849       409 |   1  41   44    0  60f |    2.014       0       4       0       4     41     41      0   6681     577       1  41    0 60f a70f     30.360 "
test,1583577039567961088,41," | 41  |   7266       5   7193      59 |   1    8      7189        63 |   5  41   23    1  60f |   12.451       0       1       0       1     41     41      0   7025     227      17  41    1 60f a70f     30.210 "
test,1583577039568207872,42," | 42  |   7266       5   7200      62 |   5    0      7135       127 |   2  44    0    0 9d0f |    2.746       0       4       0       4     44     44      0   6984     278       2  44    09d0f a70f     30.240 "
test,1583577039544847872,44," | 44  |   7266       5   7205      57 |   5    0      7130       132 |   2  44    0    1 9d0f |    1.739       0       4       0       4     44     44      0   6989     273       2  44    19d0f a70f      6.510 "
test,1583577039545686016,45," | 45  |   7266       5   7219      43 |   5    0      7042       220 |   1  44    0    0 9d0f |    1.983       0       5       0       5     44     44      0   6917     345       1  44    09d0f a70f      8.040 "
test,1583577039566473984,46," | 46  |   7266       5   7198      57 |   5    0      6916       339 |   2  44    0    0 9d0f |    2.746       0       4       0       4     44     44      0   6806     449       2  44    09d0f a70f     30.300 "
test,1583577039547836160,47," | 47  |   7266       5   7205      57 |   5    0      7033       229 |   2  44    0    0 9d0f |    2.746       0       5       0       5     44     44      0   6910     352       2  44    09d0f a70f     10.410 "
test,1583577039555977216,48," | 48  |   7266       5   7140      55 |   5    0      7049       146 |   1  44    0    0 9d0f |    1.983       0       5       0       5     44     44      0   6916     279       1  44    09d0f a70f     10.290 "
test,1583577039545048064,49," | 49  |   7266       5   7256       0 |   5    0      7120       136 |   2  49    0    1 d90f |    1.739       0       4       0       4     49     49      0   7068     188       2  49    1d90f a70f      6.480 "
test,1583577039543993856,51," | 51  |   7266       5   7257       0 |   5    0      7173        84 |   1   7    0    0 c80f |    2.014       0       5       0       5      7      7      0   7147     110       1   7    0c80f a70f      8.250 "
test,1583577039557965056,52," | 52  |   7266       5   7229      29 |   5    0      6899       359 |   1  23    0    0 c20f |    2.044       0       5       0       5     23     23      0   6773     485       1  23    0c20f a70f      8.250 "
test,1583577039545427968,53," | 53  |   7266       5   7240       0 |   5    0      6860       380 |   1  49    0    0 d90f |    2.044       0       5       0       5     49     49      0   6786     454       1  49    0d90f a70f      8.280 "
test,1583577039549840896,54," | 54  |   7266       5   7258       0 |   4    1      7138       120 |   1   7   49    0 c80f |    2.014       0       5       0       5      7      7      0   7024     234       1   7    0c80f a70f      8.970 "
test,1583577039546089984,55," | 55  |   7266       5   7245       0 |   5    0      6975       270 |   1  49    0    0 d90f |    2.044       0       5       0       5     49     49      0   6915     330       1  49    0d90f a70f      8.160 "
test,1583577039551762176,56," | 56  |   7266       5   7248       0 |   5    0      7139       109 |   2   7    0    0 c80f |    2.777       0       5       0       5      7      7      0   7049     199       2   7    0c80f a70f      8.970 "
test,1583577039551286016,57," | 57  |   7266       5   7203       0 |   3    1      7016       187 |   1  23   49    0 c20f |    2.075       0       5       0       5     23     23      0   6575     628       1  23    0c20f a70f      9.030 "
test,1583577039550471168,58," | 58  |   7266       5   7257       0 |   5    0      7161        96 |   1  49    0    0 d90f |    2.044       0       5       0       5     49     49      0   6865     392       1  49    0d90f a70f      8.940 "
test,1583577039542798080,5," |  5  |   7266       5   7264       0 |   5    0      6610       654 |   2   7    0    0 c80f |    2.777       0       5       0       5      7      7      0   6483     781       2   7    0c80f a70f      8.970 "
test,1583577039548051200,60," | 60  |   7266       5   7257       0 |   5    0      6790       467 |   2   7    0    0 c80f |    2.777       0       5       0       5      7      7      0   6646     611       2   7    0c80f a70f      8.970 "
test,1583577039555277056,61," | 61  |   7266       5   7252       4 |   4    0      6934       322 |   2  49    0    0 d90f |    2.746       0       5       0       5     49     49      0   6693     563       2  49    0d90f a70f      9.570 "
test,1583577039548731136,7," |  7  |   7266       5   7263       0 |   4    0      7157       106 |   4   7    0    1 c80f |    1.739       0       4       0       4      7      7      0   7110     153       2   7    1c80f a70f      8.640 "
test,1583577039549113088,9," |  9  |   7266       5   7262       0 |   5    0      7018       244 |   1   7    0    0 c80f |    2.044       0       5       0       5      7      7      0   6983     279       1   7    0c80f a70f      8.880 "
