test,1583577189052113920,10," | 10  |   7864       5   7836       0 |   1    2      7714       122 |   2  12   23    0 9d0f |    2.044       0       5       0       5     12     12      0   7628     208       1  12    09d0f a70f      9.630 "
test,1583577189048142080,12," | 12  |   7864       5   7828      34 |   4    0      7783        79 |   2  12    0    1 9d0f |    1.739       0       4       0       4     12     12      0   7647     215       2  12    19d0f a70f      6.480 "
test,1583577189049968896,13," | 13  |   7864       5   7860       0 |   5    0      7799        61 |   2  12    0    0 9d0f |    2.075       0       5       0       5     12     12      0   7720     140       1  12    09d0f a70f      8.970 "
test,1583577189070874880,15," | 15  |   7864       5   7819      43 |   3    0      7540       322 |   3  12    0    0 9d0f |    2.014       0       4       0       4     12     12      0   7181     681       1  12    09d0f a70f     30.300 "
test,1583577189055169024,16," | 16  |   7864       5   7860       0 |   5    0      7569       291 |   2  23    0    0 d80f |    2.014       0       5       0       5     23     23      0   7367     493       1  23    0d80f a70f      8.280 "
test,1583577189051013888,17," | 17  |   7864       5   7849      11 |   4    2      7755       105 |   3  23   41    0 d80f |    2.044       0       5       0       5     23     23      0   7519     341       1  23    0d80f a70f      8.190 "
test,1583577189055488000,18," | 18  |   7864       5   7859       0 |   4    3      7441       418 |   4  23   41    0 d80f |    2.746       0       5       0       5     23     23      0   7138     721       2  23    0d80f a70f      9.690 "
test,1583577189052841984,19," | 19  |   7864       5   7845      15 |   5    0      7706       154 |   1  23    0    0 d80f |    2.746       0       5       0       5     23     23      0   7492     368       2  23    0d80f a70f      8.970 "
test,1583577189048579072,1," |  1  |   7864       4   7861       0 |   5    0      7657       204 |   1  12    0    0 9d0f |    2.716       0       5       0       5     12     12      0   7605     256       1  12    09d0f a70f      8.940 "
test,1583577189054088192,22," | 22  |   7864       5   7858       0 |   5    0      7791        67 |   1  23    0    0 d80f |    2.014       0       5       0       5     23     23      0   7445     413       1  23    0d80f a70f      9.660 "
test,1583577189049595136,23," | 23  |   7864       5   7802       0 |   5    0      7767        35 |   2  23    0    1 d80f |    1.739       0       4       0       4     23     23      0   7616     186       2  23    1d80f a70f      6.480 "
test,1583577189073757952,24," | 24  |   7864       5   7858       2 |   2    8      7771        89 |   2  45   23    0 610f |    0           0       0       0       8      0      0      0   7574     286       0  45    0610f a70f     30.360 "
test,1583577189054876160,26," | 26  |   7864       5   7858       2 |   4    2      7829        31 |   3  23   45    0 d80f |    2.014       0       5       0       5     23     23      0   7687     173       1  23    0d80f a70f      8.970 "
test,1583577189053607936,27," | 27  |   7864       4   7862       0 |   5    0      7628       234 |   1  23    0    0 d80f |    2.777       0       5       0       5     23     23      0   7324     538       2  23    0d80f a70f      9.720 "
test,1583577189067354880,28," | 28  |   7864       5   7852       8 |   4    1      7237       623 |   1  30   45    0 6a0f |    2.075       0       4       0       4     30     30      0   6922     938       1  30    06a0f a70f     30.270 "
test,1583577189070202112,29," | 29  |   7864       3   7851      11 |   0    2      6966       896 |   0  29   23    1 3d0f |    0           0       0       0       8      0      0      0   6628    1234       0  29    13d0f a70f     30.150 "
test,1583577189047755008,30," | 30  |   7864       5   7857       3 |   5    0      7749       111 |   2  30    0    1 6a0f |    1.770       0       4       0       4     30     30      0   7457     403       2  30    16a0f a70f      6.510 "
test,1583577189049141760,35," | 35  |   7864       5   7857       3 |   5    0      7482       378 |   1  30    0    0 6a0f |    2.075       0       5       0       5     30     30      0   7302     558       1  30    06a0f a70f      8.310 "
test,1583577189071261952,40," | 40  |   7864       5   7782      74 |   3    4      7413       443 |  10  45   41    0 610f |    5.523       0       1       0       1     45     45      0   7225     631       6  45    0610f a70f     30.390 "
test,1583577189068489984,41," | 41  |   7864       5   7791      59 |   2    7      7780        70 |   5  41   45    1 7a0f |    1.739       0       2       0       2     41     41      0   7601     249       2  41    17a0f a70f     30.300 "
test,1583577189074383872,42," | 42  |   7864       5   7798      62 |   3    4      7719       141 |   1  41   45    0 7a0f |    2.075       0       2       0       2     41     41      0   7559     301       1  41    07a0f a70f     30.390 "
test,1583577189069708032,44," | 44  |   7864       5   7803      57 |   5    1      7718       142 |   1  45   23    0 610f |    4.058       0       1       0       1     45     45      0   7565     295       4  45    0610f a70f     30.390 "
test,1583577189073404928,45," | 45  |   7864       5   7817      43 |   4    0      7621       239 |   8  45    0    1 610f |    3.814       0       1       0       1     45     45      0   7485     375       5  45    1610f a70f     30.300 "
test,1583577189068759040,46," | 46  |   7864       5   7796      57 |   0   12      7473       380 |   0  46   41    1 b40f |    0           0       0       0       8      0      0      0   7354     499       0  46    1b40f a70f     30.240 "
test,1583577189070592000,47," | 47  |   7864       5   7803      57 |   4    4      7614       246 |   1  41   45    0 7a0f |    2.044       0       3       0       3     41     41      0   7482     378       1  41    07a0f a70f     30.390 "
test,1583577189072286976,48," | 48  |   7864       5   7738      55 |   5    1      7632       161 |   2  45   23    0 610f |    4.852       0       1       0       1     45     45      0   7487     306       5  45    0610f a70f     30.330 "
test,1583577189050255104,49," | 49  |   7864       5   7854       0 |   5    0      7702       152 |   1  53    0    0 3b0f |    2.044       0       5       0       5     53     53      0   7644     210       1  53    03b0f a70f      8.130 "
test,1583577189061172992,51," | 51  |   7864       5   7855       0 |   5    0      7766        89 |   3  23    0    0 d80f |    3.509       0       5       0       5     23     23      0   7739     116       3  23    0d80f a70f      9.720 "
test,1583577189059350016,52," | 52  |   7864       5   7825      31 |   5    0      7463       393 |   1  23    0    0 d80f |    2.807       0       5       0       5     23     23      0   7326     530       2  23    0d80f a70f      8.910 "
test,1583577189047235840,53," | 53  |   7864       5   7838       0 |   5    0      7436       402 |   2  53    0    1 3b0f |    1.739       0       4       0       4     53     53      0   7354     484       2  53    13b0f a70f      6.480 "
test,1583577189060355072,54," | 54  |   7864       5   7856       0 |   5    0      7726       130 |   1  12    0    0 9d0f |    2.075       0       5       0       5     12     12      0   7594     262       1  12    09d0f a70f      9.030 "
test,1583577189052353024,55," | 55  |   7864       5   7843       0 |   5    0      7544       299 |   1  53    0    0 3b0f |    2.014       0       5       0       5     53     53      0   7474     369       1  53    03b0f a70f      8.100 "
test,1583577189056220928,56," | 56  |   7864       5   7846       0 |   5    0      7730       116 |   2  23    0    0 d80f |    2.777       0       5       0       5     23     23      0   7633     213       2  23    0d80f a70f      9.000 "
test,1583577189051748864,57," | 57  |   7864       5   7801       0 |   5    0      7594       207 |   1  23    0    0 d80f |    2.014       0       5       0       5     23     23      0   7123     678       1  23    0d80f a70f      8.190 "
test,1583577189043179008,58," | 58  |   7864       4   7855       0 |   5    0      7748       107 |   2  12    0    0 9d0f |    2.014       0       5       0       5     12     12      0   7425     430       1  12    09d0f a70f      8.250 "
test,1583577189050489856,5," |  5  |   7864       5   7862       0 |   5    0      7139       723 |   1  12    0    0 9d0f |    2.044       0       5       0       5     12     12      0   7007     855       1  12    09d0f a70f      8.190 "
test,1583577189051378944,60," | 60  |   7864       5   7855       0 |   5    0      7338       517 |   4  23    0    0 d80f |    2.777       0       5       0       5     23     23      0   7180     675       2  23    0d80f a70f      8.970 "
test,1583577189071832064,61," | 61  |   7864       5   7847       7 |   3    0      7499       355 |   5  12    0    0 9d0f |    2.777       0       4       0       4     12     12      0   7233     621       2  12    09d0f a70f     30.300 "
test,1583577189048870144,7," |  7  |   7864       5   7861       0 |   5    0      7742       119 |   1  12    0    0 9d0f |    2.014       0       5       0       5     12     12      0   7689     172       1  12    09d0f a70f      8.250 "
test,1583577189057605120,9," |  9  |   7864       5   7860       0 |   5    0      7602       258 |   1  12    0    0 9d0f |    2.044       0       5       0       5     12     12      0   7565     295       1  12    09d0f a70f      8.910 "
