test,1583577166558206208,10," | 10  |   7774       5   7746       0 |   5    0      7625       121 |   1  56    0    0  c0f |    1.983       0       5       0       5     56     56      0   7542     204       1  56    0 c0f a70f      8.220 "
test,1583577166549726976,12," | 12  |   7774       5   7738      34 |   1   15      7694        78 |   1  15   55    0 6c0f |    2.044       0       5       0       5     15     15      0   7559     213       1  15    06c0f a70f      8.310 "
test,1583577166545395968,13," | 13  |   7774       5   7770       0 |   5    0      7709        61 |   2  56    0    0  c0f |    2.746       0       5       0       5     56     56      0   7630     140       2  56    0 c0f a70f      8.970 "
test,1583577166548048128,15," | 15  |   7774       5   7729      43 |   1    3      7454       318 |   2  15   48    1 6c0f |    1.739       0       4       0       4     15     15      0   7101     671       2  15    16c0f a70f      6.480 "
test,1583577166552811008,16," | 16  |   7774       5   7770       0 |   5    0      7480       290 |   2  48    0    0 320f |    2.777       0       5       0       5     48     48      0   7281     489       2  48    0320f a70f      9.540 "
test,1583577166550352128,17," | 17  |   7774       5   7759      11 |   5    0      7666       104 |   2  48    0    0 320f |    2.777       0       5       0       5     48     48      0   7433     337       2  48    0320f a70f      8.880 "
test,1583577166551278080,18," | 18  |   7774       5   7769       0 |   5    0      7358       411 |   2  48    0    0 320f |    2.746       0       5       0       5     48     48      0   7058     711       2  48    0320f a70f      8.940 "
test,1583577166572133120,19," | 19  |   7774       4   7755      15 |   5    0      7619       151 |   3  48    0    0 320f |    3.509       0       4       0       4     48     48      0   7410     360       3  48    0320f a70f     30.360 "
test,1583577166543369984,1," |  1  |   7774       4   7771       0 |   5    0      7567       204 |   3  56    0    0  c0f |    3.417       0       5       0       5     56     56      0   7516     255       2  56    0 c0f a70f      9.600 "
test,1583577166549516032,22," | 22  |   7774       5   7768       0 |   5    0      7701        67 |   1  48    0    0 320f |    2.044       0       5       0       5     48     48      0   7358     410       1  48    0320f a70f      8.280 "
test,1583577166550960128,23," | 23  |   7774       5   7712       0 |   5    0      7677        35 |   2  48    0    0 320f |    2.746       0       5       0       5     48     48      0   7528     184       2  48    0320f a70f      8.940 "
test,1583577166549334016,24," | 24  |   7774       5   7768       2 |   5    0      7682        88 |   2  48    0    0 320f |    2.746       0       5       0       5     48     48      0   7487     283       2  48    0320f a70f      8.790 "
test,1583577166550744064,26," | 26  |   7774       5   7768       2 |   5    0      7739        31 |   2  48    0    0 320f |    2.716       0       5       0       5     48     48      0   7597     173       2  48    0320f a70f      8.970 "
test,1583577166569953024,27," | 27  |   7774       5   7772       0 |   5    0      7542       230 |   3  48    0    0 320f |    3.479       0       4       0       4     48     48      0   7243     529       3  48    0320f a70f     30.390 "
test,1583577166553111040,28," | 28  |   7774       5   7762       8 |   5    0      7156       614 |   2  48    0    0 320f |    3.448       0       5       0       5     48     48      0   6846     924       3  48    0320f a70f     11.100 "
test,1583577166570655232,29," | 29  |   7774       4   7761      11 |   1    0      6886       886 |   4  48    0    0 320f |    6.439       0       1       0       1     48     48      0   6552    1220       7  48    0320f a70f     30.360 "
test,1583577166555366144,30," | 30  |   7774       5   7767       3 |   5    0      7662       108 |   2  48    0    0 320f |    2.716       0       5       0       5     48     48      0   7373     397       2  48    0320f a70f     10.380 "
test,1583577166552606208,35," | 35  |   7774       5   7767       3 |   5    0      7395       375 |   2  48    0    0 320f |    2.746       0       5       0       5     48     48      0   7217     553       2  48    0320f a70f     11.160 "
test,1583577166548839168,40," | 40  |   7774       5   7692      74 |   5    0      7328       438 |   1  48    0    0 320f |    2.014       0       5       0       5     48     48      0   7146     620       1  48    0320f a70f      8.250 "
test,1583577166552364032,41," | 41  |   7774       5   7701      59 |   5    0      7691        69 |   1  48    0    0 320f |    2.014       0       5       0       5     48     48      0   7515     245       1  48    0320f a70f      8.970 "
test,1583577166551589888,42," | 42  |   7774       5   7708      62 |   5    0      7630       140 |   1  48    0    0 320f |    2.044       0       5       0       5     48     48      0   7472     298       1  48    0320f a70f      9.540 "
test,1583577166557159936,44," | 44  |   7774       5   7713      57 |   5    0      7630       140 |   1  48    0    0 320f |    2.044       0       5       0       5     48     48      0   7478     292       1  48    0320f a70f     10.230 "
test,1583577166550172160,45," | 45  |   7774       5   7727      43 |   5    0      7534       236 |   1  48    0    0 320f |    1.983       0       5       0       5     48     48      0   7400     370       1  48    0320f a70f      9.630 "
test,1583577166552040960,46," | 46  |   7774       5   7706      57 |   5    0      7388       375 |   1  48    0    0 320f |    1.983       0       5       0       5     48     48      0   7271     492       1  48    0320f a70f     10.350 "
test,1583577166568780032,47," | 47  |   7774       3   7713      57 |   5    0      7525       245 |   1  48    0    0 320f |    2.014       0       4       0       4     48     48      0   7395     375       1  48    0320f a70f     30.390 "
test,1583577166549076992,48," | 48  |   7774       5   7648      55 |   4    0      7542       161 |   5  48    0    1 320f |    1.770       0       4       0       4     48     48      0   7402     301       2  48    1320f a70f      7.950 "
test,1583577166549926912,49," | 49  |   7774       5   7764       0 |   5    0      7615       149 |   1  55    0    0 890f |    2.105       0       5       0       5     55     55      0   7559     205       1  55    0890f a70f      8.970 "
test,1583577166548343040,51," | 51  |   7774       5   7765       0 |   5    0      7677        88 |   1  56    0    0  c0f |    2.014       0       5       0       5     56     56      0   7650     115       1  56    0 c0f a70f      8.250 "
test,1583577166569268992,52," | 52  |   7774       3   7735      31 |   5    0      7376       390 |   3  48    0    0 320f |    3.509       0       4       0       4     48     48      0   7239     527       3  48    0320f a70f     30.270 "
test,1583577166547795968,53," | 53  |   7774       5   7748       0 |   5    0      7349       399 |   1  55    0    0 890f |    2.044       0       5       0       5     55     55      0   7269     479       1  55    0890f a70f      8.280 "
test,1583577166571014912,54," | 54  |   7774       5   7766       0 |   5   10      7639       127 |   2  55   56    0 890f |   10.101       0       1       0       1     55     55      0   7513     253      12  55    0890f a70f     30.390 "
test,1583577166547305216,55," | 55  |   7774       5   7753       0 |   4    0      7460       293 |   8  55    0    1 890f |    1.739       0       4       0       4     55     55      0   7392     361       2  55    1890f a70f      6.480 "
test,1583577166553634816,56," | 56  |   7774       5   7756       0 |   5    0      7641       115 |   2  56    0    1  c0f |    1.739       0       4       0       4     56     56      0   7547     209       2  56    1 c0f a70f      6.480 "
test,1583577166571866112,57," | 57  |   7774       4   7711       0 |   1    5      7511       200 |   2  48   55    0 320f |    9.368       0       4       0       4     48     48      0   7044     667      11  48    0320f a70f     30.210 "
test,1583577166554204928,58," | 58  |   7774       5   7765       0 |   5    1      7661       104 |   1  55   56    0 890f |    2.105       0       5       0       5     55     55      0   7343     422       1  55    0890f a70f      9.780 "
test,1583577166550537984,5," |  5  |   7774       5   7772       0 |   1    5      7059       713 |   1  15   56    0 6c0f |    2.044       0       5       0       5     15     15      0   6929     843       1  15    06c0f a70f      8.910 "
test,1583577166570166016,60," | 60  |   7774       5   7765       0 |   1    6      7254       511 |   3  48   56    0 320f |   10.070       0       3       0       3     48     48      0   7100     665      12  48    0320f a70f     30.360 "
test,1583577166570828800,61," | 61  |   7774       5   7757       7 |   4    6      7412       352 |   2  55   56    0 890f |    2.807       0       2       0       2     55     55      0   7151     613       2  55    0890f a70f     30.390 "
test,1583577166553273088,7," |  7  |   7774       5   7771       0 |   1   13      7653       118 |   2  15   55    0 6c0f |    2.777       0       5       0       5     15     15      0   7602     169       2  15    06c0f a70f      8.910 "
test,1583577166546545920,9," |  9  |   7774       5   7770       0 |   5    0      7513       257 |   2  56    0    0  c0f |    2.716       0       5       0       5     56     56      0   7477     293       2  56    0 c0f a70f      8.940 "
