test,1583577020303329024,10," | 10  |   7189       5   7161       0 |   5    0      7047       114 |   4  30    0    0 350f |   10.101       0       5       0       5     30     30      0   6967     194      12  30    0350f a70f     16.890 "
test,1583577020312009216,12," | 12  |   7189       5   7153      34 |   1   11      7110        77 |   3  30    5    0 350f |   10.070       0       5       0       5     30     30      0   6992     195      12  30    0350f a70f     16.020 "
test,1583577020294393088,13," | 13  |   7189       5   7185       0 |   5    0      7125        60 |   1   5    0    0 ae0f |    2.075       0       5       0       5      5      5      0   7051     134       1   5    0ae0f a70f      8.220 "
test,1583577020306888960,15," | 15  |   7189       5   7144      43 |   2    0      6890       297 |   2  30    0    0 350f |    9.368       0       5       0       5     30     30      0   6572     615      11  30    0350f a70f     15.480 "
test,1583577020299900928,16," | 16  |   7189       5   7185       0 |   5    0      6920       265 |   3  30    0    0 350f |    4.180       0       5       0       5     30     30      0   6734     451       4  30    0350f a70f     10.380 "
test,1583577020301393920,17," | 17  |   7189       5   7175      10 |   5    0      7088        97 |   2  30    0    0 350f |    3.448       0       5       0       5     30     30      0   6876     309       3  30    0350f a70f     11.820 "
test,1583577020304102912,18," | 18  |   7189       5   7184       0 |   5    0      6810       374 |   2  30    0    0 350f |    3.448       0       5       0       5     30     30      0   6530     654       3  30    0350f a70f      9.630 "
test,1583577020302583808,19," | 19  |   7189       5   7171      14 |   5    0      7050       135 |   2  30    0    0 350f |    3.448       0       5       0       5     30     30      0   6857     328       3  30    0350f a70f     12.510 "
test,1583577020296428800,1," |  1  |   7189       4   7186       0 |   5    0      6996       190 |   2   5    0    0 ae0f |    3.448       0       5       0       5      5      5      0   6947     239       2   5    0ae0f a70f      9.630 "
test,1583577020296210944,22," | 22  |   7189       5   7183       0 |   5    0      7118        65 |   1  30    0    0 350f |    2.716       0       5       0       5     30     30      0   6797     386       2  30    0350f a70f      8.940 "
test,1583577020297274112,23," | 23  |   7189       5   7127       0 |   5    0      7098        29 |   2  30    0    0 350f |    3.448       0       5       0       5     30     30      0   6962     165       3  30    0350f a70f      9.540 "
test,1583577020303774976,24," | 24  |   7189       5   7183       2 |   5    0      7105        80 |   2  30    0    0 350f |    3.479       0       5       0       5     30     30      0   6925     260       3  30    0350f a70f      9.660 "
test,1583577020296564224,26," | 26  |   7189       5   7183       2 |   5    0      7157        28 |   2  30    0    0 350f |    3.448       0       5       0       5     30     30      0   7028     157       3  30    0350f a70f      9.660 "
test,1583577020300087040,27," | 27  |   7189       5   7187       0 |   5    0      6974       213 |   3  30    0    0 350f |    4.211       0       5       0       5     30     30      0   6703     484       4  30    0350f a70f     10.380 "
test,1583577020301573888,28," | 28  |   7189       5   7177       8 |   5    0      6617       568 |   1  30    0    0 350f |    2.014       0       5       0       5     30     30      0   6340     845       1  30    0350f a70f     10.410 "
test,1583577020309145856,29," | 29  |   7189       5   7177      10 |   4    0      6351       836 |   3  30    0    0 350f |    4.241       0       5       0       5     30     30      0   6050    1137       4  30    0350f a70f     10.980 "
test,1583577020295571200,30," | 30  |   7189       5   7182       3 |   4    0      7086        99 |   2  30    0    1 350f |    1.739       0       4       0       4     30     30      0   6822     363       2  30    1350f a70f      6.480 "
test,1583577020295960064,35," | 35  |   7189       5   7182       3 |   5    0      6844       341 |   1  30    0    0 350f |    2.044       0       5       0       5     30     30      0   6683     502       1  30    0350f a70f      8.130 "
test,1583577020318337792,40," | 40  |   7189       4   7107      74 |   4    0      6773       408 |   3  30    0    0 350f |    4.241       0       4       0       4     30     30      0   6607     574       4  30    0350f a70f     30.270 "
test,1583577020299185920,41," | 41  |   7189       5   7116      59 |   5    0      7113        62 |   3  30    0    0 350f |    4.241       0       5       0       5     30     30      0   6950     225       4  30    0350f a70f     12.510 "
test,1583577020308556032,42," | 42  |   7189       5   7123      62 |   5    0      7058       127 |   2  30    0    0 350f |    4.180       0       5       0       5     30     30      0   6909     276       4  30    0350f a70f     13.200 "
test,1583577020305149184,44," | 44  |   7189       5   7128      57 |   5    0      7053       132 |   3  30    0    0 350f |    4.180       0       5       0       5     30     30      0   6914     271       4  30    0350f a70f     13.230 "
test,1583577020307787008,45," | 45  |   7189       5   7142      43 |   5    0      6968       217 |   3  30    0    0 350f |    4.211       0       5       0       5     30     30      0   6844     341       4  30    0350f a70f     13.140 "
test,1583577020301747968,46," | 46  |   7189       5   7121      57 |   5    0      6846       332 |   3  30    0    0 350f |    4.974       0       5       0       5     30     30      0   6737     441       5  30    0350f a70f     13.230 "
test,1583577020300430080,47," | 47  |   7189       5   7128      57 |   5    0      6958       227 |   3  30    0    0 350f |    4.241       0       5       0       5     30     30      0   6836     349       4  30    0350f a70f     10.410 "
test,1583577020300990976,48," | 48  |   7189       5   7063      55 |   5    0      6972       146 |   2  30    0    0 350f |    3.448       0       5       0       5     30     30      0   6843     275       3  30    0350f a70f      9.480 "
test,1583577020296955136,49," | 49  |   7189       5   7179       0 |   5    0      7044       135 |   1  55    0    0 db0f |    2.044       0       5       0       5     55     55      0   6993     186       1  55    0db0f a70f      8.250 "
test,1583577020299454976,51," | 51  |   7189       5   7180       0 |   5    0      7098        82 |   3  30    0    0 350f |    5.645       0       5       0       5     30     30      0   7073     107       6  30    0350f a70f     11.820 "
test,1583577020302167808,52," | 52  |   7189       4   7152      29 |   5    0      6825       356 |   3  30    0    0 350f |    4.241       0       5       0       5     30     30      0   6700     481       4  30    0350f a70f     11.040 "
test,1583577020299724032,53," | 53  |   7189       5   7163       0 |   5    0      6787       376 |   1  55    0    0 db0f |    2.014       0       5       0       5     55     55      0   6714     449       1  55    0db0f a70f      8.250 "
test,1583577020300740096,54," | 54  |   7189       5   7181       0 |   5    0      7061       120 |   4   5    0    0 ae0f |    2.777       0       5       0       5      5      5      0   6948     233       2   5    0ae0f a70f      8.850 "
test,1583577020295751168,55," | 55  |   7189       5   7168       0 |   4    0      6899       269 |   2  55    0    1 db0f |    1.770       0       4       0       4     55     55      0   6840     328       2  55    1db0f a70f      6.510 "
test,1583577020298110976,56," | 56  |   7189       5   7171       0 |   5    0      7063       108 |   3  30    0    0 350f |    4.974       0       5       0       5     30     30      0   6975     196       5  30    0350f a70f     11.130 "
test,1583577020298650880,57," | 57  |   7189       5   7126       0 |   5    0      6941       185 |   2  30    0    0 350f |    4.180       0       5       0       5     30     30      0   6505     621       4  30    0350f a70f     11.100 "
test,1583577020304286976,58," | 58  |   7189       5   7180       0 |   1    6      7085        95 |   3  30    5    0 350f |    9.307       0       5       0       5     30     30      0   6793     387      11  30    0350f a70f     16.890 "
test,1583577020297607936,5," |  5  |   7189       5   7187       0 |   5    0      6540       647 |   2   5    0    1 ae0f |    1.770       0       4       0       4      5      5      0   6414     773       2   5    1ae0f a70f      6.510 "
test,1583577020305538816,60," | 60  |   7189       5   7180       0 |   5    0      6723       457 |   3  30    0    0 350f |    4.974       0       5       0       5     30     30      0   6580     600       5  30    0350f a70f     10.980 "
test,1583577020300594176,61," | 61  |   7189       5   7175       4 |   4    2      6860       319 |   4  30    5    0 350f |    5.706       0       5       0       5     30     30      0   6621     558       6  30    0350f a70f     11.820 "
test,1583577020295109120,7," |  7  |   7189       5   7186       0 |   5    0      7082       104 |   3   5    0    0 ae0f |    2.746       0       5       0       5      5      5      0   7034     152       2   5    0ae0f a70f      8.940 "
test,1583577020302429952,9," |  9  |   7189       5   7185       0 |   5    0      6944       241 |   2   5    0    0 ae0f |    2.777       0       5       0       5      5      5      0   6909     276       2   5    0ae0f a70f      9.000 "
