test,1583577217070976000,10," | 10  |   7976       5   7948       0 |   1    8      7825       123 |   2  10    1    1 e20f |    7.598       0       2       0       2     10     10      0   7738     210      10  10    1e20f a70f     30.300 "
test,1583577217049200128,12," | 12  |   7976       5   7940      34 |   5    0      7893        81 |   4   1    0    0 a10f |    1.342       0       5       0       5      1      1      0   7755     219       1   1    0a10f a70f      7.440 "
test,1583577217046715904,13," | 13  |   7976       5   7972       0 |   5    0      7910        62 |   5   1    0    0 a10f |    1.342       0       5       0       5      1      1      0   7830     142       1   1    0a10f a70f      7.530 "
test,1583577217047723008,15," | 15  |   7976       5   7931      43 |   5    0      7649       325 |   5   1    0    0 a10f |    2.044       0       5       0       5      1      1      0   7284     690       2   1    0a10f a70f      8.280 "
test,1583577217052911104,16," | 16  |   7976       5   7972       0 |   5    0      7673       299 |   4  10    0    0 e20f |    4.180       0       5       0       5     10     10      0   7472     500       4  10    0e20f a70f     11.070 "
test,1583577217073033984,17," | 17  |   7976       5   7961      11 |   4    0      7865       107 |   2  17    0    1  e0f |    1.739       0       2       0       2     17     17      0   7629     343       2  17    1 e0f a70f     30.300 "
test,1583577217052354048,18," | 18  |   7976       5   7971       0 |   5    0      7543       428 |   4  10    0    0 e20f |    4.943       0       5       0       5     10     10      0   7238     733       5  10    0e20f a70f     10.980 "
test,1583577217071485952,19," | 19  |   7976       5   7957      15 |   5    0      7817       155 |   1  17    0    0  e0f |    2.075       0       2       0       2     17     17      0   7601     371       1  17    0 e0f a70f     30.330 "
test,1583577217047944960,1," |  1  |   7976       4   7973       0 |   4    0      7763       210 |   5   1    0    1 a10f |    1.739       0       4       0       4      1      1      0   7711     262       2   1    1a10f a70f      6.480 "
test,1583577217055699968,22," | 22  |   7976       5   7970       0 |   5    0      7903        67 |   6  10    0    0 e20f |    4.241       0       5       0       5     10     10      0   7555     415       4  10    0e20f a70f     11.040 "
test,1583577217051089920,23," | 23  |   7976       5   7914       0 |   5    0      7878        36 |   3  10    0    0 e20f |    3.479       0       5       0       5     10     10      0   7727     187       3  10    0e20f a70f     10.230 "
test,1583577217051971840,24," | 24  |   7976       5   7970       2 |   5    0      7881        91 |   4  10    0    0 e20f |    4.943       0       5       0       5     10     10      0   7683     289       5  10    0e20f a70f     11.100 "
test,1583577217054571008,26," | 26  |   7976       5   7970       2 |   5    0      7940        32 |   3  10    0    0 e20f |    5.645       0       5       0       5     10     10      0   7796     176       6  10    0e20f a70f     11.820 "
test,1583577217051778048,27," | 27  |   7976       5   7974       0 |   4    0      7738       236 |   4  10    0    0 e20f |    4.211       0       5       0       5     10     10      0   7427     547       4  10    0e20f a70f     11.130 "
test,1583577217070584064,28," | 28  |   7976       5   7964       8 |   5    0      7342       630 |   1  30    0    0 a20f |    2.075       0       4       0       4     30     30      0   7023     949       1  30    0a20f a70f     30.360 "
test,1583577217068631040,29," | 29  |   7976       3   7961      13 |   0    0      7060       914 |   0   0    0    0    0 |    0           0       0       0       8      0      0      0   6714    1260       0   0    0   0 a70f     30.390 "
test,1583577217048933888,30," | 30  |   7976       5   7969       3 |   5    0      7861       111 |   2  30    0    1 a20f |    1.739       0       4       0       4     30     30      0   7566     406       2  30    1a20f a70f      6.510 "
test,1583577217049818880,35," | 35  |   7976       5   7969       3 |   5    0      7589       383 |   1  30    0    0 a20f |    2.044       0       5       0       5     30     30      0   7409     563       1  30    0a20f a70f      8.250 "
test,1583577217070269952,40," | 40  |   7976       5   7894      74 |   0    4      7517       451 |   0  40   48    1 2d0f |    0           0       0       0       8      0      0      0   7323     645       0  40    12d0f a70f     30.180 "
test,1583577217053767936,41," | 41  |   7976       5   7903      59 |   5    0      7890        72 |   2  48    0    0 b70f |    3.540       0       5       0       5     48     48      0   7708     254       3  48    0b70f a70f     10.410 "
test,1583577217050360064,42," | 42  |   7976       5   7910      62 |   5    0      7827       145 |   2  48    0    0 b70f |    2.044       0       5       0       5     48     48      0   7664     308       1  48    0b70f a70f      8.280 "
test,1583577217072218880,44," | 44  |   7976       5   7915      57 |   2    8      7827       145 |   4  10   45    0 e20f |   11.566       0       1       0       1     10     10      0   7672     300      14  10    0e20f a70f     30.360 "
test,1583577217069885952,45," | 45  |   7976       5   7929      43 |   0    9      7729       243 |   0  45   48    1 140f |    0           0       0       0       8      0      0      0   7593     379       0  45    1140f a70f     30.210 "
test,1583577217057012992,46," | 46  |   7976       5   7908      57 |   5    0      7582       383 |   1  48    0    0 b70f |    2.044       0       5       0       5     48     48      0   7460     505       1  48    0b70f a70f      9.630 "
test,1583577217059375104,47," | 47  |   7976       5   7915      57 |   5    0      7724       248 |   2  48    0    0 b70f |    2.044       0       5       0       5     48     48      0   7590     382       1  48    0b70f a70f      8.130 "
test,1583577217052155136,48," | 48  |   7976       5   7850      55 |   4    0      7743       162 |   2  48    0    1 b70f |    1.739       0       4       0       4     48     48      0   7595     310       2  48    1b70f a70f      6.480 "
test,1583577217052684032,49," | 49  |   7976       5   7966       0 |   5    0      7812       154 |   3  10    0    0 e20f |    3.509       0       5       0       5     10     10      0   7754     212       3  10    0e20f a70f      9.630 "
test,1583577217049984000,51," | 51  |   7976       5   7967       0 |   5    0      7877        90 |   1  10    0    0 e20f |    1.983       0       5       0       5     10     10      0   7850     117       1  10    0e20f a70f      8.250 "
test,1583577217068905216,52," | 52  |   7976       5   7937      31 |   0    3      7569       399 |   0  52   10    1 130f |    0           0       0       0       8      0      0      0   7432     536       0  52    1130f a70f     30.180 "
test,1583577217058340096,53," | 53  |   7976       5   7950       0 |   5    0      7548       402 |   4  10    0    0 e20f |    4.180       0       5       0       5     10     10      0   7466     484       4  10    0e20f a70f     10.350 "
test,1583577217050902016,54," | 54  |   7976       5   7968       0 |   5    0      7834       134 |   4   1    0    0 a10f |    1.342       0       5       0       5      1      1      0   7701     267       1   1    0a10f a70f      7.500 "
test,1583577217056133120,55," | 55  |   7976       5   7955       0 |   5    0      7654       301 |   3  10    0    0 e20f |    3.448       0       5       0       5     10     10      0   7584     371       3  10    0e20f a70f      9.570 "
test,1583577217049534208,56," | 56  |   7976       5   7958       0 |   5    0      7838       120 |   1  10    0    0 e20f |    2.014       0       5       0       5     10     10      0   7741     217       1  10    0e20f a70f      8.130 "
test,1583577217050743040,57," | 57  |   7976       5   7913       0 |   5    0      7702       211 |   2  10    0    0 e20f |    2.746       0       5       0       5     10     10      0   7221     692       2  10    0e20f a70f      8.970 "
test,1583577217054337024,58," | 58  |   7976       5   7967       0 |   5    0      7858       109 |   2  10    0    0 e20f |    2.777       0       5       0       5     10     10      0   7534     433       2  10    0e20f a70f      9.570 "
test,1583577217048389888,5," |  5  |   7976       5   7974       0 |   5    0      7241       733 |   5   1    0    0 a10f |    2.075       0       5       0       5      1      1      0   7108     866       2   1    0a10f a70f      8.220 "
test,1583577217054972928,60," | 60  |   7976       5   7967       0 |   5    0      7444       523 |   2  10    0    0 e20f |    2.746       0       5       0       5     10     10      0   7285     682       2  10    0e20f a70f      8.850 "
test,1583577217053977856,61," | 61  |   7976       5   7959       7 |   5    0      7604       362 |   2  10    0    0 e20f |    3.509       0       5       0       5     10     10      0   7336     630       3  10    0e20f a70f     10.260 "
test,1583577217048182016,7," |  7  |   7976       5   7973       0 |   5    0      7852       121 |   5   1    0    0 a10f |    1.342       0       5       0       5      1      1      0   7797     176       1   1    0a10f a70f      7.590 "
test,1583577217050550016,9," |  9  |   7976       5   7972       0 |   5    0      7713       259 |   4   1    0    0 a10f |    1.342       0       5       0       5      1      1      0   7675     297       1   1    0a10f a70f      7.530 "
