test,1583575414780040960,10," | 10  |    767       5    739       0 |   3    0       729        10 |   7  60    0    0 980f |    0           0       0       0       8      0      0      0    717      22       0  60    0980f a70f     30.360 "
test,1583575414762675968,12," | 12  |    767       5    765       0 |   5    0       759         6 |   1  13    0    0 c10f |    2.044       0       5       0       5     13     13      0    746      19       1  13    0c10f a70f      9.000 "
test,1583575414760384000,13," | 13  |    767       5    763       0 |   2    3       755         8 |   2  13   60    1 c10f |    1.739       0       4       0       4     13     13      0    744      19       2  13    1c10f a70f      6.480 "
test,1583575414763627008,15," | 15  |    767       5    765       0 |   5    0       736        29 |   2  13    0    0 c10f |    2.777       0       5       0       5     13     13      0    709      56       2  13    0c10f a70f      9.600 "
test,1583575414767781120,16," | 16  |    767       5    763       0 |   5    0       734        29 |   4  60    0    0 980f |    4.180       0       5       0       5     60     60      0    717      46       4  60    0980f a70f     11.040 "
test,1583575414766819072,17," | 17  |    767       5    763       0 |   5    0       754         9 |   4  60    0    0 980f |    4.211       0       5       0       5     60     60      0    734      29       4  60    0980f a70f     12.570 "
test,1583575414764684032,18," | 18  |    767       5    762       0 |   5    0       712        50 |   4  60    0    0 980f |    4.180       0       5       0       5     60     60      0    680      82       4  60    0980f a70f     10.350 "
test,1583575414768337920,19," | 19  |    767       5    762       1 |   5    0       757         6 |   4  60    0    0 980f |    4.180       0       5       0       5     60     60      0    735      28       4  60    0980f a70f     12.480 "
test,1583575414768520192,1," |  1  |    767       4    764       0 |   3    3       750        14 |   1  13   60    0 c10f |    2.716       0       5       0       5     13     13      0    743      21       1  13    0c10f a70f      8.940 "
test,1583575414765746176,22," | 22  |    767       5    761       0 |   5    0       754         7 |   3  60    0    0 980f |    3.479       0       5       0       5     60     60      0    717      44       3  60    0980f a70f      9.660 "
test,1583575414765219840,23," | 23  |    767       5    705       0 |   5    0       701         4 |   3  60    0    0 980f |    3.448       0       5       0       5     60     60      0    690      15       3  60    0980f a70f     10.380 "
test,1583575414766382848,24," | 24  |    767       5    763       0 |   5    0       758         5 |   4  60    0    0 980f |    4.180       0       5       0       5     60     60      0    741      22       4  60    0980f a70f     10.350 "
test,1583575414764177920,26," | 26  |    767       5    763       0 |   5    0       760         3 |   3  60    0    0 980f |    3.448       0       5       0       5     60     60      0    747      16       3  60    0980f a70f     10.350 "
test,1583575414772381184,27," | 27  |    767       5    765       0 |   5    0       747        18 |   5  60    0    0 980f |    4.180       0       5       0       5     60     60      0    716      49       4  60    0980f a70f     11.790 "
test,1583575414782373888,28," | 28  |    767       5    763       0 |   0    9       697        66 |   0  28   60    1 3b0f |    0           0       0       0       8      0      0      0    677      86       0  28    13b0f a70f     30.210 "
test,1583575414769094912,29," | 29  |    767       5    763       2 |   5    0       674        91 |   5  60    0    0 980f |    6.378       0       5       0       5     60     60      0    635     130       7  60    0980f a70f     12.390 "
test,1583575414774297856,30," | 30  |    767       5    763       0 |   5    0       754         9 |   5  60    0    0 980f |    4.913       0       5       0       5     60     60      0    737      26       5  60    0980f a70f     11.040 "
test,1583575414769922048,35," | 35  |    767       5    763       0 |   5    0       728        35 |   4  60    0    0 980f |    4.180       0       5       0       5     60     60      0    718      45       4  60    0980f a70f     10.410 "
test,1583575414781212928,40," | 40  |    767       5    737      22 |   0    5       696        63 |   0  40   60    1 7c0f |    0           0       0       0       8      0      0      0    667      92       0  40    17c0f a70f     30.150 "
test,1583575414782759936,41," | 41  |    767       5    730      23 |   5    0       745         8 |   4  60    0    0 980f |    5.645       0       4       0       4     60     60      0    726      27       6  60    0980f a70f     30.300 "
test,1583575414781948928,42," | 42  |    767       5    737      26 |   5    0       732        31 |   4  60    0    0 980f |    6.378       0       4       0       4     60     60      0    712      51       7  60    0980f a70f     30.270 "
test,1583575414771491072,44," | 44  |    767       5    742      21 |   5    0       740        23 |   4  60    0    0 980f |    4.882       0       5       0       5     60     60      0    716      47       5  60    0980f a70f     12.480 "
test,1583575414767993856,45," | 45  |    767       5    746      17 |   5    0       726        37 |   5  60    0    0 980f |    5.676       0       5       0       5     60     60      0    706      57       6  60    0980f a70f     11.850 "
test,1583575414781079040,46," | 46  |    767       5    734      22 |   0    7       722        34 |   0  46   60    1 4b0f |    0           0       0       0       8      0      0      0    705      51       0  46    14b0f a70f     30.240 "
test,1583575414775046144,47," | 47  |    767       5    741      22 |   5    0       728        35 |   6  60    0    0 980f |    4.882       0       5       0       5     60     60      0    712      51       5  60    0980f a70f     12.510 "
test,1583575414784480000,48," | 48  |    767       5    676      20 |   5    0       671        25 |   6  60    0    0 980f |    5.676       0       3       0       3     60     60      0    648      48       6  60    0980f a70f     30.270 "
test,1583575414762240000,49," | 49  |    767       5    757       0 |   4    0       745        12 |   2  49    0    1 c50f |    1.770       0       4       0       4     49     49      0    741      16       2  49    1c50f a70f      6.510 "
test,1583575414762444032,51," | 51  |    767       5    758       0 |   5    0       754         4 |   1  60    0    0 980f |    1.983       0       5       0       5     60     60      0    752       6       1  60    0980f a70f      8.190 "
test,1583575414768707072,52," | 52  |    767       4    753       6 |   5    0       722        37 |   4  60    0    0 980f |    4.211       0       5       0       5     60     60      0    706      53       4  60    0980f a70f     11.100 "
test,1583575414761452800,53," | 53  |    767       5    741       0 |   5    0       704        37 |   1  49    0    0 c50f |    2.014       0       5       0       5     49     49      0    698      43       1  49    0c50f a70f      8.250 "
test,1583575414783406080,54," | 54  |    767       5    759       0 |   1    5       749        10 |   1  61   49    0 4b0f |    6.195       0       1       0       1     61     61      0    732      27       7  61    04b0f a70f     30.390 "
test,1583575414761982976,55," | 55  |    767       5    746       0 |   5    0       713        33 |   1  49    0    0 c50f |    1.983       0       5       0       5     49     49      0    711      35       1  49    0c50f a70f      8.160 "
test,1583575414762882048,56," | 56  |    767       5    749       0 |   5    0       732        17 |   2  60    0    0 980f |    2.777       0       5       0       5     60     60      0    727      22       2  60    0980f a70f      9.000 "
test,1583575414764979968,57," | 57  |    767       5    704       0 |   5    0       677        27 |   2  60    0    0 980f |    2.746       0       5       0       5     60     60      0    635      69       2  60    0980f a70f      8.940 "
test,1583575414783916032,58," | 58  |    767       5    758       0 |   5    0       748        10 |   2  49    0    0 c50f |    2.716       0       4       0       4     49     49      0    727      31       2  49    0c50f a70f     30.360 "
test,1583575414763444992,5," |  5  |    767       5    765       0 |   5    0       706        59 |   1  13    0    0 c10f |    2.014       0       5       0       5     13     13      0    689      76       1  13    0c10f a70f      8.250 "
test,1583575414770715904,60," | 60  |    767       5    758       0 |   4    0       712        46 |   2  60    0    1 980f |    1.739       0       4       0       4     60     60      0    705      53       2  60    1980f a70f      6.510 "
test,1583575414785099008,61," | 61  |    767       5    757       0 |   1    4       727        30 |   2  61   49    1 4b0f |    5.950       0       1       0       1     61     61      0    707      50       8  61    14b0f a70f     30.270 "
test,1583575414761112064,7," |  7  |    767       5    764       0 |   3    1       751        13 |   1  13   60    0 c10f |    2.014       0       5       0       5     13     13      0    747      17       1  13    0c10f a70f      8.280 "
test,1583575414763844096,9," |  9  |    767       5    763       0 |   3    3       731        32 |   1  13   60    0 c10f |    2.014       0       5       0       5     13     13      0    726      37       1  13    0c10f a70f      8.940 "
