test,1583577096295578880,10," | 10  |   7493       5   7465       0 |   5    0      7347       118 |   3  13    0    0 210f |    2.044       0       5       0       5     13     13      0   7265     200       1  13    0210f a70f      8.280 "
test,1583577096298191104,12," | 12  |   7493       5   7457      34 |   5    0      7413        78 |   3  13    0    0 210f |    2.044       0       5       0       5     13     13      0   7286     205       1  13    0210f a70f      8.910 "
test,1583577096295300096,13," | 13  |   7493       5   7489       0 |   4    0      7428        61 |   3  13    0    1 210f |    1.739       0       4       0       4     13     13      0   7352     137       2  13    1210f a70f      6.510 "
test,1583577096316489984,15," | 15  |   7493       5   7448      43 |   1    8      7180       311 |   2  24   60    0 620f |    0           0       0       0       8      0      0      0   6845     646       0  24    0620f a70f     30.390 "
test,1583577096300390912,16," | 16  |   7493       5   7489       0 |   5    0      7211       278 |   2  24    0    0 620f |    2.777       0       5       0       5     24     24      0   7019     470       2  24    0620f a70f      9.000 "
test,1583577096299177984,17," | 17  |   7493       5   7479      10 |   5    0      7391        98 |   1  24    0    0 620f |    2.014       0       5       0       5     24     24      0   7166     323       1  24    0620f a70f      8.100 "
test,1583577096317259008,18," | 18  |   7493       5   7488       0 |   0    1      7095       393 |   0  18   24    1 ab0f |    0           0       0       0       8      0      0      0   6802     686       0  18    1ab0f a70f     30.240 "
test,1583577096304282880,19," | 19  |   7493       5   7475      14 |   5    0      7345       144 |   1  24    0    0 620f |    2.014       0       5       0       5     24     24      0   7140     349       1  24    0620f a70f      8.250 "
test,1583577096295883008,1," |  1  |   7493       4   7490       0 |   5    0      7292       198 |   1  13    0    0 210f |    2.685       0       5       0       5     13     13      0   7241     249       1  13    0210f a70f      8.910 "
test,1583577096300231936,22," | 22  |   7493       5   7487       0 |   4    8      7421        66 |   1  24   18    0 620f |    2.014       0       5       0       5     24     24      0   7090     397       1  24    0620f a70f      8.280 "
test,1583577096296355840,23," | 23  |   7493       5   7431       0 |   5    0      7400        31 |   1  24    0    0 620f |    2.014       0       5       0       5     24     24      0   7258     173       1  24    0620f a70f      8.220 "
test,1583577096297370880,24," | 24  |   7493       5   7487       2 |   4    0      7406        83 |   2  24    0    1 620f |    1.739       0       4       0       4     24     24      0   7217     272       2  24    1620f a70f      6.480 "
test,1583577096296939008,26," | 26  |   7493       5   7487       2 |   5    0      7460        29 |   1  24    0    0 620f |    2.014       0       5       0       5     24     24      0   7322     167       1  24    0620f a70f      8.190 "
test,1583577096301104896,27," | 27  |   7493       5   7491       0 |   5    0      7269       222 |   2  24    0    0 620f |    2.746       0       5       0       5     24     24      0   6987     504       2  24    0620f a70f      8.790 "
test,1583577096302088960,28," | 28  |   7493       5   7481       8 |   5    0      6895       594 |   1  24    0    0 620f |    3.509       0       5       0       5     24     24      0   6606     883       3  24    0620f a70f      9.660 "
test,1583577096307575040,29," | 29  |   7493       5   7481      10 |   5    0      6631       860 |   2  24    0    0 620f |    2.746       0       5       0       5     24     24      0   6314    1177       2  24    0620f a70f      9.000 "
test,1583577096302669056,30," | 30  |   7493       5   7486       3 |   5    0      7384       105 |   3  24    0    0 620f |    2.746       0       5       0       5     24     24      0   7112     377       2  24    0620f a70f      8.970 "
test,1583577096301313024,35," | 35  |   7493       5   7486       3 |   5    0      7128       361 |   2  24    0    0 620f |    2.777       0       5       0       5     24     24      0   6960     529       2  24    0620f a70f      8.850 "
test,1583577096305831936,40," | 40  |   7493       5   7411      74 |   5    0      7068       417 |   1  24    0    0 620f |    2.044       0       5       0       5     24     24      0   6896     589       1  24    0620f a70f      8.220 "
test,1583577096301915904,41," | 41  |   7493       5   7420      59 |   5    0      7410        69 |   2  24    0    0 620f |    2.716       0       5       0       5     24     24      0   7243     236       2  24    0620f a70f      9.660 "
test,1583577096299785984,42," | 42  |   7493       5   7427      62 |   5    0      7359       130 |   2  24    0    0 620f |    2.777       0       5       0       5     24     24      0   7207     282       2  24    0620f a70f      9.660 "
test,1583577096299994112,44," | 44  |   7493       5   7432      57 |   5    0      7355       134 |   1  24    0    0 620f |    2.014       0       5       0       5     24     24      0   7210     279       1  24    0620f a70f      8.250 "
test,1583577096306672128,45," | 45  |   7493       5   7446      43 |   5    0      7261       228 |   2  24    0    0 620f |    2.716       0       5       0       5     24     24      0   7134     355       2  24    0620f a70f      8.910 "
test,1583577096299612928,46," | 46  |   7493       5   7425      57 |   5    0      7128       354 |   2  24    0    0 620f |    2.746       0       5       0       5     24     24      0   7017     465       2  24    0620f a70f     10.410 "
test,1583577096300854016,47," | 47  |   7493       5   7432      57 |   5    0      7254       235 |   2  24    0    0 620f |    2.746       0       5       0       5     24     24      0   7127     362       2  24    0620f a70f      9.540 "
test,1583577096298043904,48," | 48  |   7493       5   7367      55 |   5    0      7271       151 |   2  24    0    0 620f |    2.716       0       5       0       5     24     24      0   7138     284       2  24    0620f a70f      9.690 "
test,1583577096304705024,49," | 49  |   7493       5   7483       0 |   5    0      7343       140 |   1  55    0    0 110f |    2.044       0       5       0       5     55     55      0   7290     193       1  55    0110f a70f      8.820 "
test,1583577096313554176,51," | 51  |   7493       5   7484       0 |   4    5      7398        86 |   5  55   60    0 110f |   10.803       0       5       0       5     55     55      0   7372     112      13  55    0110f a70f     16.890 "
test,1583577096301719040,52," | 52  |   7493       5   7456      29 |   4    0      7112       373 |   1  24    0    0 620f |    2.014       0       5       0       5     24     24      0   6981     504       1  24    0620f a70f      8.970 "
test,1583577096297826048,53," | 53  |   7493       5   7467       0 |   5    0      7080       387 |   1  55    0    0 110f |    2.014       0       5       0       5     55     55      0   7005     462       1  55    0110f a70f      8.160 "
test,1583577096317033984,54," | 54  |   7493       5   7485       0 |   1    9      7361       124 |   2  55   13    0 110f |    7.904       0       2       0       2     55     55      0   7243     242       9  55    0110f a70f     30.330 "
test,1583577096296133888,55," | 55  |   7493       5   7472       0 |   4    0      7190       282 |   2  55    0    1 110f |    1.770       0       4       0       4     55     55      0   7130     342       2  55    1110f a70f      6.510 "
test,1583577096309722880,56," | 56  |   7493       5   7475       0 |   5    0      7363       112 |   2  55    0    0 110f |   10.101       0       5       0       5     55     55      0   7273     202      12  55    0110f a70f     16.170 "
test,1583577096302845952,57," | 57  |   7493       5   7430       0 |   5    0      7238       192 |   2  24    0    0 620f |    2.746       0       5       0       5     24     24      0   6787     643       2  24    0620f a70f      8.940 "
test,1583577096298962176,58," | 58  |   7493       5   7484       0 |   5    0      7384       100 |   1  55    0    0 110f |    2.075       0       5       0       5     55     55      0   7081     403       1  55    0110f a70f      9.030 "
test,1583577096298434048,5," |  5  |   7493       5   7491       0 |   5    0      6806       685 |   1  13    0    0 210f |    2.014       0       5       0       5     13     13      0   6679     812       1  13    0210f a70f      8.160 "
test,1583577096316184064,60," | 60  |   7493       5   7484       0 |   0    7      7000       484 |   0  60   55    1 2a0f |    0           0       0       0       8      0      0      0   6852     632       0  60    12a0f a70f     30.180 "
test,1583577096300731904,61," | 61  |   7493       5   7479       4 |   5    0      7151       332 |   2  55    0    0 110f |    2.777       0       5       0       5     55     55      0   6902     581       2  55    0110f a70f      9.600 "
test,1583577096297149952,7," |  7  |   7493       5   7490       0 |   5    0      7377       113 |   1  13    0    0 210f |    2.014       0       5       0       5     13     13      0   7327     163       1  13    0210f a70f      8.250 "
test,1583577096297534976,9," |  9  |   7493       5   7489       0 |   5    0      7240       249 |   2  13    0    0 210f |    2.014       0       5       0       5     13     13      0   7204     285       1  13    0210f a70f      8.760 "
