test,1583577137297915904,10," | 10  |   7657       5   7629       0 |   5    0      7510       119 |   1   7    0    0 580f |    2.014       0       5       0       5      7      7      0   7426     203       1   7    0580f a70f      8.220 "
test,1583577137295706112,12," | 12  |   7657       5   7621      34 |   5    0      7577        78 |   1   7    0    0 580f |    2.044       0       5       0       5      7      7      0   7445     210       1   7    0580f a70f      8.190 "
test,1583577137300924928,13," | 13  |   7657       5   7653       0 |   5    0      7592        61 |   1   7    0    0 580f |    2.014       0       5       0       5      7      7      0   7514     139       1   7    0580f a70f      8.250 "
test,1583577137311129088,15," | 15  |   7657       5   7612      43 |   4    6      7341       314 |   5  15   48    1 2d0f |   12.451       0       4       0       4     15     15      0   6995     660      17  15    12d0f a70f     16.830 "
test,1583577137302458112,16," | 16  |   7657       5   7653       0 |   5    0      7368       285 |   2  48    0    0 510f |    3.540       0       5       0       5     48     48      0   7171     482       3  48    0510f a70f      9.540 "
test,1583577137307194880,17," | 17  |   7657       5   7643      10 |   5    0      7552       101 |   2  48    0    0 510f |    2.807       0       5       0       5     48     48      0   7322     331       2  48    0510f a70f     10.260 "
test,1583577137306528000,18," | 18  |   7657       5   7652       0 |   5    0      7252       400 |   2  48    0    0 510f |    2.777       0       5       0       5     48     48      0   6954     698       2  48    0510f a70f      8.850 "
test,1583577137311458048,19," | 19  |   7657       5   7639      14 |   5    0      7508       145 |   3  48    0    0 510f |    3.509       0       5       0       5     48     48      0   7300     353       3  48    0510f a70f     10.260 "
test,1583577137297283840,1," |  1  |   7657       4   7654       0 |   5    0      7453       201 |   1   7    0    0 580f |    2.685       0       5       0       5      7      7      0   7402     252       1   7    0580f a70f      8.880 "
test,1583577137298464000,22," | 22  |   7657       5   7651       0 |   5    0      7584        67 |   1  48    0    0 510f |    2.044       0       5       0       5     48     48      0   7248     403       1  48    0510f a70f      8.130 "
test,1583577137302150912,23," | 23  |   7657       5   7595       0 |   3    8      7561        34 |   2  48   52    0 510f |    2.777       0       5       0       5     48     48      0   7415     180       2  48    0510f a70f      8.880 "
test,1583577137301212160,24," | 24  |   7657       5   7651       2 |   5    0      7567        86 |   2  48    0    0 510f |    2.746       0       5       0       5     48     48      0   7374     279       2  48    0510f a70f      8.790 "
test,1583577137305324032,26," | 26  |   7657       5   7651       2 |   5    0      7622        31 |   2  48    0    0 510f |    2.777       0       5       0       5     48     48      0   7482     171       2  48    0510f a70f      9.540 "
test,1583577137303759104,27," | 27  |   7657       5   7655       0 |   5    0      7429       226 |   3  48    0    0 510f |    3.509       0       5       0       5     48     48      0   7140     515       3  48    0510f a70f      9.630 "
test,1583577137317787904,28," | 28  |   7657       5   7645       8 |   0    5      7047       606 |   0  28   48    1 8c0f |    0           0       0       0       8      0      0      0   6742     911       0  28    18c0f a70f     30.180 "
test,1583577137320400896,29," | 29  |   7657       5   7644      11 |   5    0      6779       876 |   4  48    0    0 510f |    5.676       0       4       0       4     48     48      0   6451    1204       6  48    0510f a70f     30.390 "
test,1583577137306977024,30," | 30  |   7657       5   7650       3 |   5    0      7545       108 |   3  48    0    0 510f |    3.509       0       5       0       5     48     48      0   7261     392       3  48    0510f a70f      9.600 "
test,1583577137302633984,35," | 35  |   7657       5   7650       3 |   5    0      7282       371 |   2  48    0    0 510f |    2.746       0       5       0       5     48     48      0   7109     544       2  48    0510f a70f      8.790 "
test,1583577137304122880,40," | 40  |   7657       5   7575      74 |   5    0      7218       431 |   1  48    0    0 510f |    2.075       0       5       0       5     48     48      0   7040     609       1  48    0510f a70f      8.820 "
test,1583577137303278848,41," | 41  |   7657       5   7584      59 |   5    0      7574        69 |   1  48    0    0 510f |    2.777       0       5       0       5     48     48      0   7403     240       2  48    0510f a70f     10.290 "
test,1583577137299886080,42," | 42  |   7657       5   7591      62 |   5    0      7515       138 |   1  48    0    0 510f |    2.044       0       5       0       5     48     48      0   7359     294       1  48    0510f a70f      8.130 "
test,1583577137298692864,44," | 44  |   7657       5   7596      57 |   5    0      7514       139 |   1  48    0    0 510f |    2.075       0       5       0       5     48     48      0   7366     287       1  48    0510f a70f      8.220 "
test,1583577137305520128,45," | 45  |   7657       5   7610      43 |   5    0      7418       235 |   1  48    0    0 510f |    2.014       0       5       0       5     48     48      0   7288     365       1  48    0510f a70f      8.790 "
test,1583577137300412928,46," | 46  |   7657       5   7589      57 |   5    0      7280       366 |   1  48    0    0 510f |    2.014       0       5       0       5     48     48      0   7164     482       1  48    0510f a70f      8.220 "
test,1583577137301446912,47," | 47  |   7657       5   7596      57 |   4    0      7413       240 |   1  48    0    0 510f |    2.044       0       5       0       5     48     48      0   7284     369       1  48    0510f a70f      8.850 "
test,1583577137299462144,48," | 48  |   7657       5   7531      55 |   4    0      7431       155 |   2  48    0    1 510f |    1.770       0       4       0       4     48     48      0   7294     292       2  48    1510f a70f      7.230 "
test,1583577137300020992,49," | 49  |   7657       5   7647       0 |   5    0      7499       148 |   3   7    0    0 580f |    3.479       0       5       0       5      7      7      0   7446     201       3   7    0580f a70f      9.660 "
test,1583577137296046848,51," | 51  |   7657       5   7648       0 |   5    0      7561        87 |   1   7    0    0 580f |    2.014       0       5       0       5      7      7      0   7534     114       1   7    0580f a70f      8.250 "
test,1583577137318257920,52," | 52  |   7657       3   7618      31 |   0    7      7266       383 |   0  52   48    1 2a0f |    0           0       0       0       8      0      0      0   7130     519       0  52    12a0f a70f     30.180 "
test,1583577137301796864,53," | 53  |   7657       5   7631       0 |   5    0      7234       397 |   4   7    0    0 580f |    4.150       0       5       0       5      7      7      0   7158     473       4   7    0580f a70f     10.350 "
test,1583577137296919040,54," | 54  |   7657       5   7649       0 |   5    0      7524       125 |   1   7    0    0 580f |    1.953       0       5       0       5      7      7      0   7400     249       1   7    0580f a70f      8.190 "
test,1583577137299094016,55," | 55  |   7657       5   7636       0 |   5    0      7347       289 |   3   7    0    0 580f |    3.448       0       5       0       5      7      7      0   7283     353       3   7    0580f a70f      9.630 "
test,1583577137299259904,56," | 56  |   7657       5   7639       0 |   5    0      7525       114 |   2   7    0    0 580f |    2.746       0       5       0       5      7      7      0   7431     208       2   7    0580f a70f      8.880 "
test,1583577137316765184,57," | 57  |   7657       5   7594       0 |   5    0      7398       196 |   3   7    0    0 580f |    0           0       0       0       8      0      0      0   6939     655       0   7    0580f a70f     30.360 "
test,1583577137319196928,58," | 58  |   7657       5   7648       0 |   5    0      7546       102 |   2   7    0    0 580f |    2.746       0       4       0       4      7      7      0   7234     414       2   7    0580f a70f     30.390 "
test,1583577137304352000,5," |  5  |   7657       4   7655       0 |   5    0      6952       703 |   2   7    0    0 580f |    2.746       0       5       0       5      7      7      0   6824     831       2   7    0580f a70f      8.940 "
test,1583577137298213888,60," | 60  |   7657       5   7648       0 |   5    0      7149       499 |   2   7    0    0 580f |    2.746       0       5       0       5      7      7      0   6996     652       2   7    0580f a70f      8.790 "
test,1583577137319523072,61," | 61  |   7657       5   7641       6 |   5    0      7305       342 |   2   7    0    0 580f |    2.746       0       4       0       4      7      7      0   7048     599       2   7    0580f a70f     30.210 "
test,1583577137295279104,7," |  7  |   7657       5   7654       0 |   5    0      7541       113 |   2   7    0    1 580f |    1.739       0       4       0       4      7      7      0   7490     164       2   7    1580f a70f      6.510 "
test,1583577137296729088,9," |  9  |   7657       5   7653       0 |   5    0      7401       252 |   1   7    0    0 580f |    1.983       0       5       0       5      7      7      0   7364     289       1   7    0580f a70f      8.250 "
