test,1583576982566268928,10," | 10  |   7038       5   7010       0 |   2    0      6896       114 |   9  10    0    1 a30f |    8.148       0       3       0       3     10     10      0   6816     194      11  10    1a30f a70f     30.270 "
test,1583576982553606912,12," | 12  |   7038       5   7002      34 |   5    0      6960        76 |   1  10    0    0 a30f |    2.044       0       5       0       5     10     10      0   6844     192       1  10    0a30f a70f     11.640 "
test,1583576982546909952,13," | 13  |   7038       5   7034       0 |   5    0      6975        59 |   4  10    0    0 a30f |    2.044       0       5       0       5     10     10      0   6901     133       1  10    0a30f a70f     10.230 "
test,1583576982554483968,15," | 15  |   7038       5   6993      43 |   5    0      6749       287 |   2  10    0    0 a30f |    2.746       0       5       0       5     10     10      0   6434     602       2  10    0a30f a70f     12.330 "
test,1583576982549419008,16," | 16  |   7038       5   7034       0 |   5    0      6770       264 |   1  23    0    0 1a0f |    2.014       0       5       0       5     23     23      0   6586     448       1  23    01a0f a70f      8.190 "
test,1583576982554322944,17," | 17  |   7038       5   7025       9 |   5    0      6937        97 |   1  23    0    0 1a0f |    2.014       0       5       0       5     23     23      0   6730     304       1  23    01a0f a70f     11.850 "
test,1583576982544667904,18," | 18  |   7038       5   7033       0 |   5    0      6669       364 |   5  23    0    0 1a0f |    2.716       0       5       0       5     23     23      0   6392     641       2  23    01a0f a70f      8.940 "
test,1583576982549935104,19," | 19  |   7038       5   7021      13 |   5    0      6902       132 |   1  23    0    0 1a0f |    1.983       0       5       0       5     23     23      0   6714     320       1  23    01a0f a70f     11.070 "
test,1583576982548559872,1," |  1  |   7038       4   7035       0 |   5    0      6849       186 |   1  10    0    0 a30f |    2.685       0       5       0       5     10     10      0   6800     235       1  10    0a30f a70f     10.830 "
test,1583576982546125824,22," | 22  |   7038       5   7032       0 |   5    0      6969        63 |   1  23    0    0 1a0f |    2.014       0       5       0       5     23     23      0   6653     379       1  23    01a0f a70f      8.220 "
test,1583576982542936064,23," | 23  |   7038       5   6976       0 |   4    0      6947        29 |   5  23    0    1 1a0f |    1.770       0       4       0       4     23     23      0   6812     164       2  23    11a0f a70f      6.510 "
test,1583576982545203968,24," | 24  |   7038       5   7032       2 |   5    0      6956        78 |   1  23    0    0 1a0f |    1.983       0       5       0       5     23     23      0   6783     251       1  23    01a0f a70f      8.910 "
test,1583576982544114176,26," | 26  |   7038       5   7032       2 |   5    0      7006        28 |   1  23    0    0 1a0f |    2.014       0       5       0       5     23     23      0   6877     157       1  23    01a0f a70f      8.910 "
test,1583576982544918016,27," | 27  |   7038       5   7036       0 |   5    0      6828       208 |   1  23    0    0 1a0f |    2.014       0       5       0       5     23     23      0   6559     477       1  23    01a0f a70f      8.250 "
test,1583576982552054016,28," | 28  |   7038       5   7026       8 |   5    0      6478       556 |   2  23    0    0 1a0f |    2.716       0       5       0       5     23     23      0   6203     831       2  23    01a0f a70f     11.100 "
test,1583576982550519040,29," | 29  |   7038       5   7026      10 |   3    0      6212       824 |   5  23    0    0 1a0f |    2.746       0       5       0       5     23     23      0   5917    1119       2  23    01a0f a70f     11.700 "
test,1583576982549213952,30," | 30  |   7038       4   7031       3 |   5    0      6939        95 |   2  23    0    0 1a0f |    2.777       0       5       0       5     23     23      0   6681     353       2  23    01a0f a70f     10.260 "
test,1583576982547860992,35," | 35  |   7038       4   7031       3 |   5    0      6702       332 |   2  23    0    0 1a0f |    2.746       0       5       0       5     23     23      0   6544     490       2  23    01a0f a70f     11.070 "
test,1583576982563528960,40," | 40  |   7038       5   6956      74 |   0    5      6628       402 |   0  40   47    1 c40f |    0           0       0       0       8      0      0      0   6462     568       0  40    1c40f a70f     30.210 "
test,1583576982547517184,41," | 41  |   7038       5   6965      59 |   5    0      6962        62 |   1  47    0    0 ad0f |    2.044       0       5       0       5     47     47      0   6800     224       1  47    0ad0f a70f      8.880 "
test,1583576982548739840,42," | 42  |   7038       5   6972      62 |   5    0      6909       125 |   1  47    0    0 ad0f |    2.044       0       5       0       5     47     47      0   6760     274       1  47    0ad0f a70f      8.730 "
test,1583576982547086080,44," | 44  |   7038       5   6977      57 |   5    0      6905       129 |   1  47    0    0 ad0f |    2.014       0       5       0       5     47     47      0   6766     268       1  47    0ad0f a70f      8.730 "
test,1583576982548105984,45," | 45  |   7038       5   6991      43 |   4    5      6820       214 |   2  47   40    0 ad0f |    2.014       0       5       0       5     47     47      0   6697     337       1  47    0ad0f a70f      9.540 "
test,1583576982546685952,46," | 46  |   7038       5   6970      57 |   5    0      6700       327 |   1  47    0    0 ad0f |    2.075       0       5       0       5     47     47      0   6590     437       1  47    0ad0f a70f      8.850 "
test,1583576982551239936,47," | 47  |   7038       5   6977      57 |   4    0      6812       222 |   3  47    0    1 ad0f |    3.814       0       4       0       4     47     47      0   6691     343       5  47    1ad0f a70f      8.520 "
test,1583576982565767936,48," | 48  |   7038       5   6912      55 |   4    6      6828       139 |   2  47   40    0 ad0f |    4.821       0       3       0       3     47     47      0   6700     267       5  47    0ad0f a70f     30.360 "
test,1583576982545900032,49," | 49  |   7038       5   7028       0 |   5    0      6894       134 |   2  56    0    0 9e0f |    3.417       0       5       0       5     56     56      0   6847     181       3  56    09e0f a70f      9.600 "
test,1583576982543828992,51," | 51  |   7038       5   7029       0 |   5    0      6950        79 |   1  56    0    0 9e0f |    2.014       0       5       0       5     56     56      0   6925     104       1  56    09e0f a70f      8.250 "
test,1583576982550354944,52," | 52  |   7038       5   7001      29 |   5    0      6682       348 |   1  23    0    0 1a0f |    1.983       0       5       0       5     23     23      0   6558     472       1  23    01a0f a70f      9.630 "
test,1583576982548363008,53," | 53  |   7038       5   7012       0 |   5    0      6639       373 |   3  56    0    0 9e0f |    4.150       0       5       0       5     56     56      0   6571     441       4  56    09e0f a70f     10.380 "
test,1583576982549770240,54," | 54  |   7038       5   7030       0 |   5    0      6912       118 |   1  10    0    0 a30f |    1.983       0       5       0       5     10     10      0   6801     229       1  10    0a30f a70f     10.170 "
test,1583576982550662144,55," | 55  |   7038       5   7017       0 |   5    0      6755       262 |   2  56    0    0 9e0f |    3.448       0       5       0       5     56     56      0   6700     317       3  56    09e0f a70f      9.660 "
test,1583576982544464128,56," | 56  |   7038       5   7020       0 |   4    0      6914       106 |   2  56    0    1 9e0f |    1.739       0       4       0       4     56     56      0   6830     190       2  56    19e0f a70f      6.480 "
test,1583576982562948864,57," | 57  |   7038       5   6975       0 |   5    0      6793       182 |   1  23    0    0 1a0f |    2.014       0       5       0       5     23     23      0   6357     618       1  23    01a0f a70f      9.660 "
test,1583576982566710016,58," | 58  |   7038       5   7029       0 |   1    0      6936        93 |   1  56    0    0 9e0f |    2.716       0       2       0       2     56     56      0   6651     378       2  56    09e0f a70f     30.390 "
test,1583576982554151936,5," |  5  |   7038       5   7036       0 |   5    0      6408       628 |   2  10    0    0 a30f |    2.746       0       5       0       5     10     10      0   6284     752       2  10    0a30f a70f     10.770 "
test,1583576982546295040,60," | 60  |   7038       5   7029       0 |   5    0      6585       444 |   1  56    0    0 9e0f |    2.014       0       5       0       5     56     56      0   6445     584       1  56    09e0f a70f      8.940 "
test,1583576982566024192,61," | 61  |   7038       5   7024       4 |   1    3      6713       315 |   1  56   23    0 9e0f |    2.014       0       3       0       3     56     56      0   6479     549       1  56    09e0f a70f     30.360 "
test,1583576982551030016,7," |  7  |   7038       5   7035       0 |   5    0      6934       101 |   1  10    0    0 a30f |    2.044       0       5       0       5     10     10      0   6886     149       1  10    0a30f a70f     10.230 "
test,1583576982545694208,9," |  9  |   7038       5   7034       0 |   5    0      6800       234 |   1  10    0    0 a30f |    2.014       0       5       0       5     10     10      0   6765     269       1  10    0a30f a70f     10.230 "
