test,1583577069544462080,10," | 10  |   7386       5   7358       0 |   5    0      7242       116 |   1   7    0    0 810f |    2.014       0       5       0       5      7      7      0   7162     196       1   7    0810f a70f      8.220 "
test,1583577069544847872,12," | 12  |   7386       5   7350      34 |   5    0      7306        78 |   1   7    0    0 810f |    2.014       0       5       0       5      7      7      0   7184     200       1   7    0810f a70f      8.250 "
test,1583577069544248064,13," | 13  |   7386       5   7382       0 |   5    0      7322        60 |   1   7    0    0 810f |    2.044       0       5       0       5      7      7      0   7248     134       1   7    0810f a70f      8.130 "
test,1583577069545985024,15," | 15  |   7386       5   7341      43 |   5    0      7080       304 |   2   7    0    0 810f |    2.746       0       5       0       5      7      7      0   6753     631       2   7    0810f a70f      8.970 "
test,1583577069568931072,16," | 16  |   7386       5   7382       0 |   4    3      7108       274 |   4  18   23    0 430f |    3.509       0       4       0       4     18     18      0   6918     464       3  18    0430f a70f     30.300 "
test,1583577069551971840,17," | 17  |   7386       5   7372      10 |   5    0      7284        98 |   2  18    0    0 430f |    3.509       0       5       0       5     18     18      0   7064     318       3  18    0430f a70f      9.600 "
test,1583577069553767936,18," | 18  |   7386       5   7381       0 |   4    0      6995       386 |   4  18    0    1 430f |    1.739       0       4       0       4     18     18      0   6704     677       2  18    1430f a70f      6.480 "
test,1583577069550259968,19," | 19  |   7386       5   7368      14 |   5    0      7239       143 |   3  18    0    0 430f |    4.180       0       5       0       5     18     18      0   7037     345       4  18    0430f a70f     10.350 "
test,1583577069547415040,1," |  1  |   7386       4   7383       0 |   5    0      7185       198 |   1   7    0    0 810f |    2.685       0       5       0       5      7      7      0   7135     248       1   7    0810f a70f      8.910 "
test,1583577069548571136,22," | 22  |   7386       5   7380       0 |   5    0      7314        66 |   1  18    0    0 430f |    2.044       0       5       0       5     18     18      0   6985     395       1  18    0430f a70f      8.280 "
test,1583577069568238080,23," | 23  |   7386       5   7324       0 |   2    6      7294        30 |   5  23   56    1  d0f |   10.253       0       1       0       1     23     23      0   7154     170      14  23    1 d0f a70f     30.300 "
test,1583577069552990976,24," | 24  |   7386       5   7380       2 |   5    0      7301        81 |   1  18    0    0 430f |    2.777       0       5       0       5     18     18      0   7113     269       2  18    0430f a70f      9.570 "
test,1583577069547020800,26," | 26  |   7386       5   7380       2 |   5    0      7353        29 |   1  18    0    0 430f |    2.716       0       5       0       5     18     18      0   7216     166       2  18    0430f a70f      8.970 "
test,1583577069552320000,27," | 27  |   7386       5   7384       0 |   3    7      7164       220 |   1  23   18    0  d0f |    2.014       0       5       0       5     23     23      0   6886     498       1  23    0 d0f a70f     12.210 "
test,1583577069567312128,28," | 28  |   7386       5   7374       8 |   5    0      6794       588 |   1  30    0    0 9c0f |    3.509       0       4       0       4     30     30      0   6513     869       3  30    09c0f a70f     30.390 "
test,1583577069553211904,29," | 29  |   7386       5   7374      10 |   3    4      6531       853 |   2  23   18    0  d0f |    2.716       0       5       0       5     23     23      0   6217    1167       2  23    0 d0f a70f     12.900 "
test,1583577069546211840,30," | 30  |   7386       5   7379       3 |   5    0      7278       104 |   2  30    0    1 9c0f |    1.739       0       4       0       4     30     30      0   7008     374       2  30    19c0f a70f      6.480 "
test,1583577069545420032,35," | 35  |   7386       5   7379       3 |   5    0      7028       354 |   1  30    0    0 9c0f |    2.014       0       5       0       5     30     30      0   6863     519       1  30    09c0f a70f      8.280 "
test,1583577069550509824,40," | 40  |   7386       5   7304      74 |   4    0      6964       414 |   3  18    0    0 430f |    3.509       0       5       0       5     18     18      0   6795     583       3  18    0430f a70f     10.380 "
test,1583577069551184896,41," | 41  |   7386       5   7313      59 |   5    0      7304        68 |   2  18    0    0 430f |    2.777       0       5       0       5     18     18      0   7140     232       2  18    0430f a70f      9.570 "
test,1583577069551567104,42," | 42  |   7386       5   7320      62 |   5    0      7253       129 |   2  18    0    0 430f |    2.746       0       5       0       5     18     18      0   7101     281       2  18    0430f a70f      8.970 "
test,1583577069549159168,44," | 44  |   7386       5   7325      57 |   5    0      7248       134 |   2  18    0    0 430f |    2.746       0       5       0       5     18     18      0   7105     277       2  18    0430f a70f      9.540 "
test,1583577069550972928,45," | 45  |   7386       5   7339      43 |   4    0      7157       225 |   2  18    0    0 430f |    2.716       0       5       0       5     18     18      0   7031     351       2  18    0430f a70f      9.660 "
test,1583577069549467136,46," | 46  |   7386       5   7318      57 |   5    0      7028       347 |   2  18    0    0 430f |    3.509       0       5       0       5     18     18      0   6917     458       3  18    0430f a70f     10.290 "
test,1583577069549735168,47," | 47  |   7386       5   7325      57 |   5    0      7149       233 |   1  18    0    0 430f |    2.014       0       5       0       5     18     18      0   7025     357       1  18    0430f a70f      8.100 "
test,1583577069553559040,48," | 48  |   7386       5   7260      55 |   5    0      7164       151 |   2  18    0    0 430f |    2.746       0       5       0       5     18     18      0   7031     284       2  18    0430f a70f      9.630 "
test,1583577069551759104,49," | 49  |   7386       5   7376       0 |   5    0      7237       139 |   1  55    0    0 e10f |    2.014       0       5       0       5     55     55      0   7185     191       1  55    0e10f a70f      8.940 "
test,1583577069566757888,51," | 51  |   7386       5   7377       0 |   1    6      7292        85 |   1   7   56    0 810f |    2.716       0       3       0       3      7      7      0   7266     111       2   7    0810f a70f     30.390 "
test,1583577069560188160,52," | 52  |   7386       5   7349      29 |   4    3      7012       366 |   4  18   23    0 430f |    3.479       0       5       0       5     18     18      0   6885     493       3  18    0430f a70f      9.570 "
test,1583577069547741952,53," | 53  |   7386       5   7360       0 |   5    0      6975       385 |   1  55    0    0 e10f |    2.014       0       5       0       5     55     55      0   6901     459       1  55    0e10f a70f      8.250 "
test,1583577069545627136,54," | 54  |   7386       5   7378       0 |   5    0      7257       121 |   1   7    0    0 810f |    2.044       0       5       0       5      7      7      0   7141     237       1   7    0810f a70f      8.130 "
test,1583577069555376896,55," | 55  |   7386       5   7365       0 |   5    0      7087       278 |   4  55    0    1 e10f |    1.770       0       4       0       4     55     55      0   7028     337       2  55    1e10f a70f      6.510 "
test,1583577069562840064,56," | 56  |   7386       5   7368       0 |   4    1      7258       110 |   8  56   55    1 140f |   12.420       0       4       0       4     56     56      0   7169     199      17  56    1140f a70f     16.980 "
test,1583577069559149056,57," | 57  |   7386       5   7323       0 |   5    0      7134       189 |   7  56    0    0 140f |   12.664       0       5       0       5     56     56      0   6690     633      16  56    0140f a70f     18.720 "
test,1583577069561285888,58," | 58  |   7386       5   7377       0 |   4    1      7280        97 |   1  55   56    0 e10f |    2.075       0       5       0       5     55     55      0   6982     395       1  55    0e10f a70f      8.880 "
test,1583577069547589120,5," |  5  |   7386       5   7384       0 |   5    0      6721       663 |   2   7    0    0 810f |    2.716       0       5       0       5      7      7      0   6595     789       2   7    0810f a70f      8.910 "
test,1583577069567499008,60," | 60  |   7386       5   7377       0 |   1    5      6899       478 |   2   7   56    0 810f |    3.479       0       3       0       3      7      7      0   6752     625       3   7    0810f a70f     30.360 "
test,1583577069548190976,61," | 61  |   7386       5   7372       4 |   3    4      7050       326 |   2  55   56    0 e10f |    2.777       0       5       0       5     55     55      0   6806     570       2  55    0e10f a70f      9.720 "
test,1583577069544680192,7," |  7  |   7386       5   7383       0 |   4    0      7274       109 |   2   7    0    1 810f |    1.739       0       4       0       4      7      7      0   7225     158       2   7    1810f a70f      6.480 "
test,1583577069545037056,9," |  9  |   7386       5   7382       0 |   5    0      7136       246 |   1   7    0    0 810f |    2.044       0       5       0       5      7      7      0   7100     282       1   7    0810f a70f      8.160 "
