test,1583577068044696064,10," | 10  |   7380       5   7352       0 |   4    1      7236       116 |   5  10   58    1 d70f |    1.739       0       4       0       4     10     10      0   7156     196       2  10    1d70f a70f      6.480 "
test,1583577068046514944,12," | 12  |   7380       5   7344      34 |   5    0      7300        78 |   1  10    0    0 d70f |    2.777       0       5       0       5     10     10      0   7178     200       2  10    0d70f a70f      8.880 "
test,1583577068047133952,13," | 13  |   7380       5   7376       0 |   5    0      7316        60 |   1  10    0    0 d70f |    1.983       0       5       0       5     10     10      0   7242     134       1  10    0d70f a70f      8.250 "
test,1583577068053400064,15," | 15  |   7380       5   7335      43 |   4    0      7074       304 |   4  10    0    0 d70f |    3.509       0       5       0       5     10     10      0   6747     631       3  10    0d70f a70f      9.660 "
test,1583577068063149056,16," | 16  |   7380       5   7376       0 |   5    0      7102       274 |   2  42    0    0 6a0f |    2.777       0       5       0       5     42     42      0   6912     464       2  42    06a0f a70f      9.000 "
test,1583577068049573888,17," | 17  |   7380       5   7366      10 |   5    0      7278        98 |   2  42    0    0 6a0f |    3.540       0       5       0       5     42     42      0   7058     318       3  42    06a0f a70f      9.600 "
test,1583577068049946112,18," | 18  |   7380       5   7375       0 |   5    0      6989       386 |   2  42    0    0 6a0f |    2.807       0       5       0       5     42     42      0   6698     677       2  42    06a0f a70f      8.880 "
test,1583577068048890112,19," | 19  |   7380       5   7362      14 |   4    5      7233       143 |   5  42   29    0 6a0f |    3.509       0       5       0       5     42     42      0   7031     345       3  42    06a0f a70f      9.570 "
test,1583577068046022912,1," |  1  |   7380       4   7377       0 |   5    0      7179       198 |   1  10    0    0 d70f |    2.685       0       5       0       5     10     10      0   7129     248       1  10    0d70f a70f      8.880 "
test,1583577068048125952,22," | 22  |   7380       5   7374       0 |   5    0      7308        66 |   1  42    0    0 6a0f |    2.807       0       5       0       5     42     42      0   6979     395       2  42    06a0f a70f      8.880 "
test,1583577068047364864,23," | 23  |   7380       5   7318       0 |   5    0      7288        30 |   3  42    0    0 6a0f |    3.540       0       5       0       5     42     42      0   7148     170       3  42    06a0f a70f      9.690 "
test,1583577068045104128,24," | 24  |   7380       5   7374       2 |   5    0      7295        81 |   1  42    0    0 6a0f |    2.044       0       5       0       5     42     42      0   7107     269       1  42    06a0f a70f      8.250 "
test,1583577068046888192,26," | 26  |   7380       5   7374       2 |   5    0      7347        29 |   2  42    0    0 6a0f |    2.777       0       5       0       5     42     42      0   7210     166       2  42    06a0f a70f      9.000 "
test,1583577068070580992,28," | 28  |   7380       5   7368       8 |   3    1      6788       588 |   6  42   35    0 6a0f |    2.777       0       4       0       4     42     42      0   6507     869       2  42    06a0f a70f     30.390 "
test,1583577068070946816,29," | 29  |   7380       5   7368      10 |   2    0      6525       853 |  11  29    0    1 150f |    1.770       0       1       0       1     29     29      0   6211    1167       2  29    1150f a70f     30.300 "
test,1583577068066976000,30," | 30  |   7380       5   7373       3 |   4    5      7272       104 |   4  42   35    0 6a0f |    3.540       0       3       0       3     42     42      0   7002     374       3  42    06a0f a70f     30.270 "
test,1583577068065875968,35," | 35  |   7380       5   7373       3 |   0    8      7022       354 |   0  35   42    1 600f |    0           0       0       0       8      0      0      0   6857     519       0  35    1600f a70f     30.270 "
test,1583577068050411008,40," | 40  |   7380       5   7298      74 |   5    0      6958       414 |   1  42    0    0 6a0f |    2.075       0       5       0       5     42     42      0   6789     583       1  42    06a0f a70f      9.660 "
test,1583577068046706944,41," | 41  |   7380       5   7307      59 |   5    0      7298        68 |   1  42    0    0 6a0f |    2.044       0       5       0       5     42     42      0   7134     232       1  42    06a0f a70f      9.000 "
test,1583577068047529984,42," | 42  |   7380       5   7314      62 |   4    0      7247       129 |   5  42    0    1 6a0f |    1.739       0       4       0       4     42     42      0   7095     281       2  42    16a0f a70f      6.480 "
test,1583577068057761792,44," | 44  |   7380       5   7319      57 |   5    0      7242       134 |   1  42    0    0 6a0f |    2.044       0       5       0       5     42     42      0   7099     277       1  42    06a0f a70f      9.030 "
test,1583577068055246080,45," | 45  |   7380       5   7333      43 |   5    0      7151       225 |   1  42    0    0 6a0f |    2.014       0       5       0       5     42     42      0   7025     351       1  42    06a0f a70f      8.220 "
test,1583577068051630848,47," | 47  |   7380       4   7319      57 |   5    0      7143       233 |   1  42    0    0 6a0f |    2.044       0       5       0       5     42     42      0   7019     357       1  42    06a0f a70f      8.310 "
test,1583577068049051136,48," | 48  |   7380       5   7254      55 |   5    0      7158       151 |   1  42    0    0 6a0f |    2.075       0       5       0       5     42     42      0   7025     284       1  42    06a0f a70f      9.690 "
test,1583577068049745920,49," | 49  |   7380       5   7370       0 |   5    0      7231       139 |   2  55    0    0 290f |    2.746       0       5       0       5     55     55      0   7179     191       2  55    0290f a70f      8.760 "
test,1583577068049287168,52," | 52  |   7380       5   7343      29 |   5    0      7006       366 |   2  42    0    0 6a0f |    2.777       0       5       0       5     42     42      0   6879     493       2  42    06a0f a70f      8.970 "
test,1583577068046190080,53," | 53  |   7380       5   7354       0 |   5    0      6970       384 |   1  55    0    0 290f |    1.983       0       5       0       5     55     55      0   6896     458       1  55    0290f a70f      8.220 "
test,1583577068048538880,54," | 54  |   7380       5   7372       0 |   5    1      7251       121 |   1  10   58    0 d70f |    2.014       0       5       0       5     10     10      0   7135     237       1  10    0d70f a70f      8.130 "
test,1583577068045515008,55," | 55  |   7380       5   7359       0 |   5    0      7081       278 |   2  55    0    1 290f |    1.739       0       4       0       4     55     55      0   7022     337       2  55    1290f a70f      6.480 "
test,1583577068045716992,56," | 56  |   7380       5   7362       0 |   4    9      7252       110 |   5  56   10    1 1c0f |    1.739       0       4       0       4     56     56      0   7163     199       2  56    11c0f a70f      6.480 "
test,1583577068051887872,57," | 57  |   7380       5   7317       0 |   5    7      7128       189 |   1  56   10    0 1c0f |    2.014       0       5       0       5     56     56      0   6685     632       1  56    01c0f a70f      8.250 "
test,1583577068067532032,58," | 58  |   7380       5   7371       0 |   5    0      7274        97 |   2  58    0    1 d90f |    1.739       0       1       0       1     58     58      0   6976     395       2  58    1d90f a70f     30.300 "
test,1583577068047843072,5," |  5  |   7380       5   7378       0 |   5    0      6715       663 |   2  10    0    0 d70f |    2.777       0       5       0       5     10     10      0   6589     789       2  10    0d70f a70f      9.600 "
test,1583577068068538880,60," | 60  |   7380       5   7371       0 |   5    5      6893       478 |   1  56   10    0 1c0f |    2.014       0       4       0       4     56     56      0   6746     625       1  56    01c0f a70f     30.360 "
test,1583577068071710976,61," | 61  |   7380       5   7366       4 |   5    0      7044       326 |   1  58    0    0 d90f |    2.044       0       1       0       1     58     58      0   6800     570       1  58    0d90f a70f     30.360 "
test,1583577068048712960,7," |  7  |   7380       5   7377       0 |   5    0      7268       109 |   1  10    0    0 d70f |    1.983       0       5       0       5     10     10      0   7219     158       1  10    0d70f a70f      8.220 "
test,1583577068044899840,9," |  9  |   7380       5   7376       0 |   5    0      7130       246 |   1  10    0    0 d70f |    2.044       0       5       0       5     10     10      0   7094     282       1  10    0d70f a70f      8.190 "
