test,1583576993047704832,10," | 10  |   7080       5   7052       0 |   5    0      6938       114 |   1  13    0    0  d0f |    2.014       0       5       0       5     13     13      0   6858     194       1  13    0 d0f a70f      8.220 "
test,1583576993050309888,12," | 12  |   7080       5   7044      34 |   5    0      7002        76 |   2  13    0    0  d0f |    2.777       0       5       0       5     13     13      0   6885     193       2  13    0 d0f a70f      8.850 "
test,1583576993046897920,13," | 13  |   7080       5   7076       0 |   5    0      7017        59 |   2  13    0    1  d0f |    1.739       0       4       0       4     13     13      0   6943     133       2  13    1 d0f a70f      6.510 "
test,1583576993065801984,15," | 15  |   7080       5   7035      43 |   0    7      6788       290 |   0  15   23    1 5e0f |    0           0       0       0       8      0      0      0   6473     605       0  15    15e0f a70f     30.120 "
test,1583576993044672000,16," | 16  |   7080       5   7076       0 |   5    0      6811       265 |   1  23    0    0 c80f |    2.044       0       5       0       5     23     23      0   6627     449       1  23    0c80f a70f      8.280 "
test,1583576993052779008,17," | 17  |   7080       5   7067       9 |   5    0      6979        97 |   1  23    0    0 c80f |    2.044       0       5       0       5     23     23      0   6771     305       1  23    0c80f a70f      8.280 "
test,1583576993045015040,18," | 18  |   7080       5   7075       0 |   5    0      6709       366 |   2  23    0    0 c80f |    2.746       0       5       0       5     23     23      0   6430     645       2  23    0c80f a70f      8.970 "
test,1583576993064605952,19," | 19  |   7080       5   7063      13 |   5    0      6943       133 |   1  23    0    0 c80f |    2.044       0       5       0       5     23     23      0   6754     322       1  23    0c80f a70f      8.280 "
test,1583576993046546944,1," |  1  |   7080       4   7077       0 |   5    0      6891       186 |   1  13    0    0  d0f |    2.716       0       5       0       5     13     13      0   6842     235       1  13    0 d0f a70f      8.820 "
test,1583576993043526912,22," | 22  |   7080       5   7074       0 |   5    0      7011        63 |   1  23    0    0 c80f |    2.044       0       5       0       5     23     23      0   6691     383       1  23    0c80f a70f      8.250 "
test,1583576993043083008,23," | 23  |   7080       5   7018       0 |   4    0      6989        29 |   5  23    0    1 c80f |    1.739       0       4       0       4     23     23      0   6854     164       2  23    1c80f a70f      6.510 "
test,1583576993043972864,24," | 24  |   7080       5   7074       2 |   5    0      6997        79 |   1  23    0    0 c80f |    2.044       0       5       0       5     23     23      0   6821     255       1  23    0c80f a70f      8.130 "
test,1583576993051453952,26," | 26  |   7080       5   7074       2 |   5    0      7048        28 |   1  23    0    0 c80f |    2.014       0       5       0       5     23     23      0   6919     157       1  23    0c80f a70f      8.970 "
test,1583576993066701056,27," | 27  |   7080       5   7078       0 |   4    4      6870       208 |   1  23   29    0 c80f |    2.044       0       4       0       4     23     23      0   6599     479       1  23    0c80f a70f     30.180 "
test,1583576993049672960,28," | 28  |   7080       5   7068       8 |   4    0      6516       560 |   2  23    0    0 c80f |    3.509       0       5       0       5     23     23      0   6241     835       3  23    0c80f a70f      9.600 "
test,1583576993066262016,29," | 29  |   7080       5   7068      10 |   0    3      6251       827 |   0  29   23    1 690f |    0           0       0       0       8      0      0      0   5954    1124       0  29    1690f a70f     30.180 "
test,1583576993052190976,30," | 30  |   7080       5   7073       3 |   5    0      6980        96 |   2  23    0    0 c80f |    3.509       0       5       0       5     23     23      0   6721     355       3  23    0c80f a70f      9.690 "
test,1583576993046716928,35," | 35  |   7080       5   7073       3 |   5    0      6742       334 |   2  23    0    0 c80f |    2.746       0       5       0       5     23     23      0   6584     492       2  23    0c80f a70f      8.940 "
test,1583576993047115008,40," | 40  |   7080       5   6998      74 |   4    0      6667       405 |   3  41    0    0 e30f |    2.014       0       5       0       5     41     41      0   6501     571       1  41    0e30f a70f      8.220 "
test,1583576993047331072,41," | 41  |   7080       5   7007      59 |   3    0      7004        62 |   2  41    0    1 e30f |    1.739       0       4       0       4     41     41      0   6841     225       2  41    1e30f a70f      7.200 "
test,1583576993047524096,42," | 42  |   7080       5   7014      62 |   4    0      6950       126 |   1  41    0    0 e30f |    2.014       0       5       0       5     41     41      0   6801     275       1  41    0e30f a70f      8.250 "
test,1583576993048932096,44," | 44  |   7080       5   7019      57 |   4    0      6946       130 |   1  41    0    0 e30f |    2.014       0       5       0       5     41     41      0   6807     269       1  41    0e30f a70f      8.910 "
test,1583576993045881088,45," | 45  |   7080       5   7033      43 |   4    0      6862       214 |   1  41    0    0 e30f |    2.014       0       5       0       5     41     41      0   6738     338       1  41    0e30f a70f      8.130 "
test,1583576993050944000,46," | 46  |   7080       5   7012      57 |   5    0      6741       328 |   1  41    0    0 e30f |    1.983       0       5       0       5     41     41      0   6631     438       1  41    0e30f a70f      8.220 "
test,1583576993045264896,47," | 47  |   7080       5   7019      57 |   5    0      6853       223 |   1  41    0    0 e30f |    2.044       0       5       0       5     41     41      0   6732     344       1  41    0e30f a70f      8.160 "
test,1583576993048268032,48," | 48  |   7080       5   6954      55 |   4    0      6869       140 |   2  41    0    0 e30f |    2.014       0       5       0       5     41     41      0   6740     269       1  41    0e30f a70f      9.660 "
test,1583576993051695104,49," | 49  |   7080       5   7070       0 |   5    0      6936       134 |   1  55    0    0 880f |    2.014       0       5       0       5     55     55      0   6889     181       1  55    0880f a70f      8.940 "
test,1583576993046287104,51," | 51  |   7080       5   7071       0 |   5    0      6991        80 |   1  13    0    0  d0f |    1.983       0       5       0       5     13     13      0   6966     105       1  13    0 d0f a70f      8.070 "
test,1583576993044414976,52," | 52  |   7080       5   7043      29 |   5    0      6722       350 |   1  23    0    0 c80f |    2.014       0       5       0       5     23     23      0   6598     474       1  23    0c80f a70f      8.250 "
test,1583576993054425856,53," | 53  |   7080       5   7054       0 |   5    0      6681       373 |   1  55    0    0 880f |    2.044       0       5       0       5     55     55      0   6613     441       1  55    0880f a70f      8.220 "
test,1583576993054203904,54," | 54  |   7080       5   7072       0 |   4    4      6953       119 |   1  13   61    0  d0f |    2.777       0       5       0       5     13     13      0   6842     230       2  13    0 d0f a70f      9.000 "
test,1583576993045659904,55," | 55  |   7080       5   7059       0 |   5    0      6796       263 |   2  55    0    1 880f |    1.739       0       4       0       4     55     55      0   6741     318       2  55    1880f a70f      6.510 "
test,1583576993046135040,56," | 56  |   7080       5   7062       0 |   5    0      6956       106 |   2  13    0    0  d0f |    2.746       0       5       0       5     13     13      0   6871     191       2  13    0 d0f a70f      8.940 "
test,1583576993066051840,57," | 57  |   7080       5   7017       0 |   5    1      6834       183 |   1  23   13    0 c80f |    2.075       0       4       0       4     23     23      0   6398     619       1  23    0c80f a70f     30.360 "
test,1583576993068231168,58," | 58  |   7080       4   7071       0 |   5    0      6978        93 |   1  55    0    0 880f |    2.777       0       2       0       2     55     55      0   6693     378       2  55    0880f a70f     30.390 "
test,1583576993051124992,5," |  5  |   7080       4   7078       0 |   5    0      6442       636 |   1  13    0    0  d0f |    2.044       0       5       0       5     13     13      0   6318     760       1  13    0 d0f a70f      8.250 "
test,1583576993067408128,60," | 60  |   7080       5   7071       0 |   5    3      6625       446 |   2  23   13    0 c80f |    7.904       0       1       0       1     23     23      0   6485     586       9  23    0c80f a70f     30.330 "
test,1583576993064142848,61," | 61  |   7080       5   7066       4 |   0    6      6752       318 |   0  61   23    1 e70f |    0           0       0       0       8      0      0      0   6519     551       0  61    1e70f a70f     30.150 "
test,1583576993047987968,7," |  7  |   7080       5   7077       0 |   5    0      6976       101 |   1  13    0    0  d0f |    2.014       0       5       0       5     13     13      0   6927     150       1  13    0 d0f a70f      8.250 "
test,1583576993048784128,9," |  9  |   7080       5   7076       0 |   5    0      6840       236 |   1  13    0    0  d0f |    2.014       0       5       0       5     13     13      0   6805     271       1  13    0 d0f a70f      8.160 "
