test,1583577175054276864,10," | 10  |   7808       5   7780       0 |   5    0      7658       122 |   2  55    0    0 740f |    2.716       0       5       0       5     55     55      0   7574     206       2  55    0740f a70f      8.910 "
test,1583577175050874880,12," | 12  |   7808       5   7772      34 |   5    0      7728        78 |   2  55    0    0 740f |    2.746       0       5       0       5     55     55      0   7593     213       2  55    0740f a70f      8.940 "
test,1583577175057049088,13," | 13  |   7808       5   7804       0 |   5    0      7743        61 |   3  55    0    0 740f |    3.509       0       5       0       5     55     55      0   7664     140       3  55    0740f a70f      9.570 "
test,1583577175053551872,15," | 15  |   7808       5   7763      43 |   5    0      7486       320 |   3  55    0    0 740f |    3.540       0       5       0       5     55     55      0   7131     675       3  55    0740f a70f      9.660 "
test,1583577175069992192,16," | 16  |   7808       5   7804       0 |   1    6      7513       291 |   1  44   18    0 470f |    2.044       0       1       0       1     44     44      0   7314     490       1  44    0470f a70f     30.360 "
test,1583577175056350976,17," | 17  |   7808       5   7793      11 |   5    0      7699       105 |   2  18    0    0 bd0f |    3.479       0       5       0       5     18     18      0   7463     341       3  18    0bd0f a70f     11.070 "
test,1583577175047975936,18," | 18  |   7808       5   7803       0 |   4    0      7390       413 |   2  18    0    1 bd0f |    1.739       0       4       0       4     18     18      0   7088     715       2  18    1bd0f a70f      6.510 "
test,1583577175056544000,19," | 19  |   7808       5   7789      15 |   5    0      7653       151 |   2  18    0    0 bd0f |    2.777       0       5       0       5     18     18      0   7441     363       2  18    0bd0f a70f      9.720 "
test,1583577175053769984,1," |  1  |   7808       4   7805       0 |   5    0      7601       204 |   4  55    0    0 740f |    4.180       0       5       0       5     55     55      0   7550     255       3  55    0740f a70f     11.070 "
test,1583577175050051840,22," | 22  |   7808       5   7802       0 |   5    0      7735        67 |   1  18    0    0 bd0f |    2.014       0       5       0       5     18     18      0   7390     412       1  18    0bd0f a70f      8.250 "
test,1583577175051811072,23," | 23  |   7808       5   7746       0 |   5    0      7711        35 |   2  18    0    0 bd0f |    3.479       0       5       0       5     18     18      0   7562     184       3  18    0bd0f a70f     10.380 "
test,1583577175047269120,24," | 24  |   7808       5   7802       2 |   5    0      7716        88 |   1  18    0    0 bd0f |    2.014       0       5       0       5     18     18      0   7521     283       1  18    0bd0f a70f      8.160 "
test,1583577175049102080,26," | 26  |   7808       5   7802       2 |   5    0      7773        31 |   2  18    0    0 bd0f |    2.777       0       5       0       5     18     18      0   7631     173       2  18    0bd0f a70f      9.030 "
test,1583577175059045120,27," | 27  |   7808       5   7806       0 |   4    2      7576       230 |   5  18   29    0 bd0f |    3.509       0       5       0       5     18     18      0   7274     532       3  18    0bd0f a70f     11.160 "
test,1583577175071564032,28," | 28  |   7808       5   7796       8 |   2    0      7186       618 |   3  18    0    0 bd0f |    3.448       0       4       0       4     18     18      0   6876     928       3  18    0bd0f a70f     30.360 "
test,1583577175069324032,29," | 29  |   7808       5   7795      11 |   1    8      6919       887 |   5  29   18    1 500f |    0           0       0       0       8      0      0      0   6583    1223       0  29    1500f a70f     30.180 "
test,1583577175052210944,30," | 30  |   7808       5   7801       3 |   5    0      7695       109 |   2  18    0    0 bd0f |    2.746       0       5       0       5     18     18      0   7405     399       2  18    0bd0f a70f      9.660 "
test,1583577175053085184,35," | 35  |   7808       5   7801       3 |   5    0      7427       377 |   2  18    0    0 bd0f |    2.777       0       5       0       5     18     18      0   7248     556       2  18    0bd0f a70f      8.970 "
test,1583577175068111872,40," | 40  |   7808       5   7726      74 |   2    2      7359       441 |   2  18   44    0 bd0f |    0           0       0       0       8      0      0      0   7173     627       0  18    0bd0f a70f     30.390 "
test,1583577175056838912,41," | 41  |   7808       5   7735      59 |   4    0      7724        70 |   1  44    0    0 470f |    2.014       0       5       0       5     44     44      0   7546     248       1  44    0470f a70f      8.940 "
test,1583577175050429952,42," | 42  |   7808       5   7742      62 |   4    1      7664       140 |   1  44   18    0 470f |    2.044       0       5       0       5     44     44      0   7505     299       1  44    0470f a70f      9.750 "
test,1583577175048891904,44," | 44  |   7808       5   7747      57 |   2    1      7664       140 |   8  44   18    1 470f |    1.739       0       4       0       4     44     44      0   7511     293       2  44    1470f a70f      6.510 "
test,1583577175054456832,45," | 45  |   7808       5   7761      43 |   4    0      7568       236 |   1  44    0    0 470f |    2.044       0       5       0       5     44     44      0   7433     371       1  44    0470f a70f      8.130 "
test,1583577175051596032,46," | 46  |   7808       5   7740      57 |   4    0      7419       378 |   1  44    0    0 470f |    2.044       0       5       0       5     44     44      0   7300     497       1  44    0470f a70f      9.690 "
test,1583577175055187968,47," | 47  |   7808       5   7747      57 |   4    0      7559       245 |   1  44    0    0 470f |    2.014       0       5       0       5     44     44      0   7427     377       1  44    0470f a70f      9.690 "
test,1583577175051371008,48," | 48  |   7808       5   7682      55 |   3    1      7576       161 |   1  44   18    0 470f |    2.044       0       5       0       5     44     44      0   7433     304       1  44    0470f a70f      9.690 "
test,1583577175049488896,49," | 49  |   7808       5   7798       0 |   5    0      7649       149 |   1  55    0    0 740f |    2.014       0       5       0       5     55     55      0   7593     205       1  55    0740f a70f      8.820 "
test,1583577175052535040,51," | 51  |   7808       5   7799       0 |   5    0      7711        88 |   3  55    0    0 740f |    3.509       0       5       0       5     55     55      0   7684     115       3  55    0740f a70f      9.720 "
test,1583577175051054080,52," | 52  |   7808       5   7769      31 |   5    0      7409       391 |   2  18    0    0 bd0f |    3.509       0       5       0       5     18     18      0   7272     528       3  18    0bd0f a70f      9.690 "
test,1583577175048413952,53," | 53  |   7808       5   7782       0 |   5    0      7383       399 |   1  55    0    0 740f |    2.014       0       5       0       5     55     55      0   7303     479       1  55    0740f a70f      8.250 "
test,1583577175050641152,54," | 54  |   7808       5   7800       0 |   5    0      7672       128 |   2  55    0    0 740f |    2.746       0       5       0       5     55     55      0   7546     254       2  55    0740f a70f      8.970 "
test,1583577175047062016,55," | 55  |   7808       5   7787       0 |   4    0      7493       294 |   2  55    0    1 740f |    1.770       0       4       0       4     55     55      0   7425     362       2  55    1740f a70f      6.510 "
test,1583577175054013952,56," | 56  |   7808       5   7790       0 |   5    0      7675       115 |   2  55    0    0 740f |    2.807       0       5       0       5     55     55      0   7579     211       2  55    0740f a70f      8.850 "
test,1583577175070902016,57," | 57  |   7808       5   7745       0 |   2    0      7543       202 |   2  55    0    0 740f |    2.777       0       2       0       2     55     55      0   7075     670       2  55    0740f a70f     30.390 "
test,1583577175050235136,58," | 58  |   7808       5   7799       0 |   5    0      7694       105 |   1  55    0    0 740f |    2.044       0       5       0       5     55     55      0   7374     425       1  55    0740f a70f      9.000 "
test,1583577175068593920,5," |  5  |   7808       5   7806       0 |   0    9      7086       720 |   0   5   55    1  c0f |    0           0       0       0       8      0      0      0   6956     850       0   5    1 c0f a70f     30.210 "
test,1583577175059227904,60," | 60  |   7808       5   7799       0 |   5    0      7287       512 |   3  55    0    0 740f |    3.509       0       5       0       5     55     55      0   7132     667       3  55    0740f a70f     10.410 "
test,1583577175053266176,61," | 61  |   7808       5   7791       7 |   4    0      7443       355 |   2  55    0    0 740f |    2.777       0       5       0       5     55     55      0   7180     618       2  55    0740f a70f      9.750 "
test,1583577175049869056,7," |  7  |   7808       5   7805       0 |   5    0      7687       118 |   3  55    0    0 740f |    3.479       0       5       0       5     55     55      0   7636     169       3  55    0740f a70f      9.690 "
test,1583577175054644992,9," |  9  |   7808       5   7804       0 |   5    0      7547       257 |   3  55    0    0 740f |    3.509       0       5       0       5     55     55      0   7511     293       3  55    0740f a70f      9.570 "
