test,1583577191554198016,10," | 10  |   7874       5   7846       0 |   5    0      7724       122 |   1  13    0    0 1a0f |    2.014       0       5       0       5     13     13      0   7638     208       1  13    01a0f a70f      8.280 "
test,1583577191549174016,12," | 12  |   7874       5   7838      34 |   5    0      7793        79 |   1  13    0    0 1a0f |    2.777       0       5       0       5     13     13      0   7657     215       2  13    01a0f a70f      9.000 "
test,1583577191547083008,13," | 13  |   7874       5   7870       0 |   4    0      7809        61 |   2  13    0    1 1a0f |    1.739       0       4       0       4     13     13      0   7730     140       2  13    11a0f a70f      6.510 "
test,1583577191553720064,15," | 15  |   7874       5   7829      43 |   5    0      7550       322 |   1  13    0    0 1a0f |    2.044       0       5       0       5     13     13      0   7191     681       1  13    01a0f a70f      8.280 "
test,1583577191555400960,16," | 16  |   7874       5   7870       0 |   5    0      7579       291 |   1  52    0    0 180f |    2.014       0       5       0       5     52     52      0   7377     493       1  52    0180f a70f      9.690 "
test,1583577191552832000,17," | 17  |   7874       5   7859      11 |   3    1      7765       105 |   3  52   13    0 180f |    2.777       0       5       0       5     52     52      0   7529     341       2  52    0180f a70f     10.440 "
test,1583577191551486976,18," | 18  |   7874       5   7869       0 |   4    0      7451       418 |   5  52    0    0 180f |    2.716       0       5       0       5     52     52      0   7148     721       2  52    0180f a70f      8.940 "
test,1583577191553978880,19," | 19  |   7874       5   7855      15 |   5    0      7715       155 |   2  52    0    0 180f |    3.509       0       5       0       5     52     52      0   7501     369       3  52    0180f a70f      9.570 "
test,1583577191548489984,1," |  1  |   7874       4   7871       0 |   5    0      7666       205 |   1  13    0    0 1a0f |    2.716       0       5       0       5     13     13      0   7614     257       1  13    01a0f a70f      8.850 "
test,1583577191548707072,22," | 22  |   7874       5   7868       0 |   5    0      7801        67 |   2  52    0    0 180f |    2.746       0       5       0       5     52     52      0   7455     413       2  52    0180f a70f      8.970 "
test,1583577191550940160,23," | 23  |   7874       5   7812       0 |   5    0      7777        35 |   1  52    0    0 180f |    2.044       0       5       0       5     52     52      0   7626     186       1  52    0180f a70f      9.690 "
test,1583577191553518080,24," | 24  |   7874       5   7868       2 |   5    0      7780        90 |   2  52    0    0 180f |    2.716       0       5       0       5     52     52      0   7583     287       2  52    0180f a70f      8.940 "
test,1583577191548216064,26," | 26  |   7874       5   7868       2 |   5    0      7838        32 |   1  52    0    0 180f |    2.014       0       5       0       5     52     52      0   7695     175       1  52    0180f a70f      8.100 "
test,1583577191554647040,27," | 27  |   7874       5   7872       0 |   5    0      7638       234 |   2  52    0    0 180f |    2.777       0       5       0       5     52     52      0   7333     539       2  52    0180f a70f     11.040 "
test,1583577191553300992,28," | 28  |   7874       4   7862       8 |   3    0      7247       623 |   5  28    0    1 700f |    3.814       0       4       0       4     28     28      0   6932     938       5  28    1700f a70f      9.960 "
test,1583577191570269184,29," | 29  |   7874       4   7861      11 |   0    2      6975       897 |   0  29   13    1 890f |    0           0       0       0       8      0      0      0   6636    1236       0  29    1890f a70f     30.180 "
test,1583577191555610880,30," | 30  |   7874       5   7867       3 |   5    0      7759       111 |   1  28    0    0 700f |    4.058       0       5       0       5     28     28      0   7467     403       4  28    0700f a70f     10.080 "
test,1583577191552481024,35," | 35  |   7874       5   7867       3 |   5    0      7491       379 |   2  28    0    0 700f |    4.760       0       5       0       5     28     28      0   7311     559       5  28    0700f a70f     10.950 "
test,1583577191569899008,40," | 40  |   7874       5   7792      74 |   4    5      7423       443 |   2  42   48    0  d0f |    2.746       0       4       0       4     42     42      0   7235     631       2  42    0 d0f a70f     30.270 "
test,1583577191563175936,41," | 41  |   7874       5   7801      59 |   5    0      7790        70 |   1  42    0    0  d0f |    1.983       0       5       0       5     42     42      0   7611     249       1  42    0 d0f a70f      8.220 "
test,1583577191551983104,42," | 42  |   7874       5   7808      62 |   4    0      7729       141 |   2  42    0    1  d0f |    1.739       0       4       0       4     42     42      0   7569     301       2  42    1 d0f a70f      7.920 "
test,1583577191555164928,44," | 44  |   7874       5   7813      57 |   5    0      7727       143 |   2  42    0    0  d0f |    2.716       0       5       0       5     42     42      0   7574     296       2  42    0 d0f a70f      9.570 "
test,1583577191555772928,45," | 45  |   7874       5   7827      43 |   5    0      7631       239 |   2  42    0    0  d0f |    2.746       0       5       0       5     42     42      0   7495     375       2  42    0 d0f a70f      8.790 "
test,1583577191551723008,46," | 46  |   7874       5   7806      57 |   4    5      7483       380 |   4  42   48    0  d0f |    2.746       0       5       0       5     42     42      0   7364     499       2  42    0 d0f a70f      8.970 "
test,1583577191550365952,47," | 47  |   7874       5   7813      57 |   5    0      7624       246 |   1  42    0    0  d0f |    1.983       0       5       0       5     42     42      0   7492     378       1  42    0 d0f a70f      8.940 "
test,1583577191570451968,48," | 48  |   7874       5   7748      55 |   0    9      7641       162 |   0  48   42    1 9b0f |    0           0       0       0       8      0      0      0   7496     307       0  48    19b0f a70f     30.240 "
test,1583577191550724864,49," | 49  |   7874       5   7864       0 |   5    0      7712       152 |   1  58    0    0 e00f |    1.953       0       5       0       5     58     58      0   7654     210       1  58    0e00f a70f      8.190 "
test,1583577191547966976,51," | 51  |   7874       5   7865       0 |   5    0      7776        89 |   1  13    0    0 1a0f |    2.075       0       5       0       5     13     13      0   7749     116       1  13    01a0f a70f      8.220 "
test,1583577191553137920,52," | 52  |   7874       5   7835      31 |   4    0      7473       393 |   2  52    0    1 180f |    1.739       0       4       0       4     52     52      0   7336     530       2  52    1180f a70f      7.920 "
test,1583577191551142912,53," | 53  |   7874       5   7848       0 |   5    0      7446       402 |   1  58    0    0 e00f |    2.014       0       5       0       5     58     58      0   7364     484       1  58    0e00f a70f      9.000 "
test,1583577191556741120,54," | 54  |   7874       5   7866       0 |   5    0      7736       130 |   2  13    0    0 1a0f |    2.777       0       5       0       5     13     13      0   7604     262       2  13    01a0f a70f      9.630 "
test,1583577191554418176,55," | 55  |   7874       5   7853       0 |   5    0      7554       299 |   1  58    0    0 e00f |    1.983       0       5       0       5     58     58      0   7484     369       1  58    0e00f a70f      8.190 "
test,1583577191550120960,56," | 56  |   7874       5   7856       0 |   5    0      7740       116 |   2  13    0    0 1a0f |    2.807       0       5       0       5     13     13      0   7643     213       2  13    01a0f a70f      8.850 "
test,1583577191552224000,57," | 57  |   7874       5   7811       0 |   5    0      7604       207 |   3  13    0    0 1a0f |    3.540       0       5       0       5     13     13      0   7133     678       3  13    01a0f a70f      9.750 "
test,1583577191572413952,58," | 58  |   7874       5   7865       0 |   4    5      7758       107 |   5  58   13    1 e00f |    1.739       0       3       0       3     58     58      0   7435     430       2  58    1e00f a70f     30.300 "
test,1583577191549527040,5," |  5  |   7874       5   7872       0 |   5    0      7148       724 |   1  13    0    0 1a0f |    2.044       0       5       0       5     13     13      0   7016     856       1  13    01a0f a70f      8.250 "
test,1583577191549912832,60," | 60  |   7874       5   7865       0 |   5    0      7348       517 |   2  13    0    0 1a0f |    2.777       0       5       0       5     13     13      0   7190     675       2  13    01a0f a70f      8.850 "
test,1583577191571904000,61," | 61  |   7874       5   7857       7 |   5    7      7509       355 |   1  58   13    0 e00f |    2.044       0       4       0       4     58     58      0   7243     621       1  58    0e00f a70f     30.390 "
test,1583577191549741056,7," |  7  |   7874       5   7871       0 |   5    0      7752       119 |   1  13    0    0 1a0f |    2.014       0       5       0       5     13     13      0   7699     172       1  13    01a0f a70f      9.000 "
test,1583577191548903936,9," |  9  |   7874       5   7870       0 |   5    0      7612       258 |   1  13    0    0 1a0f |    2.044       0       5       0       5     13     13      0   7575     295       1  13    01a0f a70f      8.130 "
