test,1583577207548829184,10," | 10  |   7938       5   7910       0 |   5    0      7787       123 |   1   1    0    0 c00f |    1.342       0       5       0       5      1      1      0   7701     209       1   1    0c00f a70f      7.590 "
test,1583577207547924992,12," | 12  |   7938       5   7902      34 |   5    0      7855        81 |   1   1    0    0 c00f |    1.342       0       5       0       5      1      1      0   7719     217       1   1    0c00f a70f      7.590 "
test,1583577207547235840,13," | 13  |   7938       5   7934       0 |   5    0      7872        62 |   1   1    0    0 c00f |    1.342       0       5       0       5      1      1      0   7793     141       1   1    0c00f a70f      7.410 "
test,1583577207550798848,15," | 15  |   7938       4   7893      43 |   4    4      7612       324 |   2   1   60    0 c00f |    2.075       0       5       0       5      1      1      0   7248     688       2   1    0c00f a70f      8.340 "
test,1583577207562500096,16," | 16  |   7938       5   7934       0 |   5    5      7637       297 |   1  52   24    0 830f |    2.044       0       5       0       5     52     52      0   7436     498       1  52    0830f a70f     13.650 "
test,1583577207550117120,17," | 17  |   7938       5   7923      11 |   4    3      7828       106 |   2  24   52    0 1a0f |    2.044       0       5       0       5     24     24      0   7592     342       1  24    01a0f a70f      8.130 "
test,1583577207560837888,18," | 18  |   7938       5   7933       0 |   5    0      7510       423 |   1  24    0    0 1a0f |    2.014       0       5       0       5     24     24      0   7205     728       1  24    01a0f a70f      8.100 "
test,1583577207565383936,19," | 19  |   7938       5   7919      15 |   5    0      7779       155 |   1  24    0    0 1a0f |    1.983       0       5       0       5     24     24      0   7563     371       1  24    01a0f a70f      8.220 "
test,1583577207547052032,1," |  1  |   7938       4   7935       0 |   5    0      7726       209 |   2   1    0    1 c00f |    1.739       0       4       0       4      1      1      0   7675     260       2   1    1c00f a70f      6.480 "
test,1583577207548402176,22," | 22  |   7938       5   7932       0 |   5    0      7865        67 |   1  24    0    0 1a0f |    2.044       0       5       0       5     24     24      0   7518     414       1  24    01a0f a70f      8.100 "
test,1583577207555774976,23," | 23  |   7938       4   7876       0 |   5    6      7840        36 |   1  52   24    0 830f |    2.075       0       5       0       5     52     52      0   7689     187       1  52    0830f a70f     13.710 "
test,1583577207551806976,24," | 24  |   7938       5   7932       2 |   5    0      7844        90 |   2  24    0    1 1a0f |    1.739       0       4       0       4     24     24      0   7647     287       2  24    11a0f a70f      6.510 "
test,1583577207548679168,26," | 26  |   7938       5   7932       2 |   5    0      7902        32 |   1  24    0    0 1a0f |    2.014       0       5       0       5     24     24      0   7759     175       1  24    01a0f a70f      8.250 "
test,1583577207570853888,27," | 27  |   7938       5   7936       0 |   5    0      7701       235 |   4  24    0    0 1a0f |    3.448       0       4       0       4     24     24      0   7392     544       3  24    01a0f a70f     30.390 "
test,1583577207552463104,28," | 28  |   7938       5   7926       8 |   4    0      7306       628 |   1  24    0    0 1a0f |    2.014       0       5       0       5     24     24      0   6990     944       1  24    01a0f a70f      8.250 "
test,1583577207571119104,29," | 29  |   7938       4   7924      12 |   4    0      7031       905 |   4  24    0    0 1a0f |    2.777       0       4       0       4     24     24      0   6686    1250       2  24    01a0f a70f     30.270 "
test,1583577207552023808,30," | 30  |   7938       5   7931       3 |   5    0      7823       111 |   2  24    0    0 1a0f |    2.777       0       5       0       5     24     24      0   7528     406       2  24    01a0f a70f      9.540 "
test,1583577207553880832,35," | 35  |   7938       5   7931       3 |   5    0      7552       382 |   2  24    0    0 1a0f |    2.777       0       5       0       5     24     24      0   7372     562       2  24    01a0f a70f      8.880 "
test,1583577207550375936,40," | 40  |   7938       4   7856      74 |   5    0      7484       446 |   2  24    0    0 1a0f |    1.983       0       5       0       5     24     24      0   7292     638       1  24    01a0f a70f      8.220 "
test,1583577207549724160,41," | 41  |   7938       5   7865      59 |   5    0      7854        70 |   2  24    0    0 1a0f |    2.716       0       5       0       5     24     24      0   7673     251       2  24    01a0f a70f      9.660 "
test,1583577207552870912,42," | 42  |   7938       5   7872      62 |   5    0      7791       143 |   1  24    0    0 1a0f |    2.044       0       5       0       5     24     24      0   7629     305       1  24    01a0f a70f      8.130 "
test,1583577207551394816,44," | 44  |   7938       5   7877      57 |   5    0      7790       144 |   1  24    0    0 1a0f |    2.014       0       5       0       5     24     24      0   7637     297       1  24    01a0f a70f      8.250 "
test,1583577207558877952,45," | 45  |   7938       5   7891      43 |   5    0      7693       241 |   2  24    0    0 1a0f |    2.746       0       5       0       5     24     24      0   7557     377       2  24    01a0f a70f      9.660 "
test,1583577207551654144,46," | 46  |   7938       5   7870      57 |   5    0      7546       381 |   2  24    0    0 1a0f |    2.777       0       5       0       5     24     24      0   7425     502       2  24    01a0f a70f      9.690 "
test,1583577207552655872,47," | 47  |   7938       5   7877      57 |   5    0      7688       246 |   2  24    0    0 1a0f |    2.746       0       5       0       5     24     24      0   7555     379       2  24    01a0f a70f      8.970 "
test,1583577207549261056,48," | 48  |   7938       5   7812      55 |   5    0      7705       162 |   2  24    0    0 1a0f |    2.777       0       5       0       5     24     24      0   7558     309       2  24    01a0f a70f      8.910 "
test,1583577207556184064,49," | 49  |   7938       5   7928       0 |   5    0      7775       153 |   1  53    0    0 640f |    2.044       0       5       0       5     53     53      0   7717     211       1  53    0640f a70f      8.130 "
test,1583577207547527168,51," | 51  |   7938       5   7929       0 |   5    0      7839        90 |   1   1    0    0 c00f |    1.342       0       5       0       5      1      1      0   7812     117       1   1    0c00f a70f      7.500 "
test,1583577207572007936,52," | 52  |   7938       5   7899      31 |   4    9      7533       397 |   5  52   24    1 830f |   10.253       0       3       0       3     52     52      0   7395     535      14  52    1830f a70f     30.300 "
test,1583577207551012096,53," | 53  |   7938       5   7912       0 |   4    0      7510       402 |   2  53    0    1 640f |    1.739       0       4       0       4     53     53      0   7428     484       2  53    1640f a70f      6.480 "
test,1583577207546852096,54," | 54  |   7938       5   7930       0 |   5    0      7797       133 |   1   1    0    0 c00f |    1.342       0       5       0       5      1      1      0   7666     264       1   1    0c00f a70f      7.590 "
test,1583577207549046016,55," | 55  |   7938       5   7917       0 |   5    0      7617       300 |   1  53    0    0 640f |    2.044       0       5       0       5     53     53      0   7547     370       1  53    0640f a70f      8.100 "
test,1583577207548225024,56," | 56  |   7938       5   7920       0 |   5    0      7802       118 |   2   1    0    0 c00f |    2.075       0       5       0       5      1      1      0   7705     215       2   1    0c00f a70f      8.280 "
test,1583577207570636032,57," | 57  |   7938       5   7875       0 |   4    0      7665       210 |   4  60    0    0 b60f |    6.256       0       3       0       3     60     60      0   7187     688       7  60    0b60f a70f     30.390 "
test,1583577207556850944,58," | 58  |   7938       5   7929       0 |   3    4      7821       108 |   4   1   60    0 c00f |    2.105       0       5       0       5      1      1      0   7497     432       2   1    0c00f a70f      8.280 "
test,1583577207553281024,5," |  5  |   7938       5   7936       0 |   5    0      7207       729 |   2   1    0    0 c00f |    2.075       0       5       0       5      1      1      0   7075     861       2   1    0c00f a70f      8.250 "
test,1583577207571810048,60," | 60  |   7938       5   7929       0 |   4    5      7409       520 |   5  60    1    1 b60f |    5.981       0       2       0       2     60     60      0   7250     679       8  60    1b60f a70f     30.300 "
test,1583577207554241024,61," | 61  |   7938       5   7921       7 |   5    0      7571       357 |   2   1    0    0 c00f |    2.075       0       5       0       5      1      1      0   7304     624       2   1    0c00f a70f      8.160 "
test,1583577207547759104,7," |  7  |   7938       5   7935       0 |   5    0      7814       121 |   1   1    0    0 c00f |    1.373       0       5       0       5      1      1      0   7760     175       1   1    0c00f a70f      7.620 "
test,1583577207550610944,9," |  9  |   7938       5   7934       0 |   5    0      7676       258 |   1   1    0    0 c00f |    1.312       0       5       0       5      1      1      0   7638     296       1   1    0c00f a70f      7.590 "
