test,1583577113047296000,10," | 10  |   7560       5   7532       0 |   5    0      7414       118 |   1  13    0    0 340f |    2.075       0       5       0       5     13     13      0   7332     200       1  13    0340f a70f      8.160 "
test,1583577113048389888,12," | 12  |   7560       5   7524      34 |   5    0      7480        78 |   1  13    0    0 340f |    2.044       0       5       0       5     13     13      0   7353     205       1  13    0340f a70f      8.160 "
test,1583577113045580032,13," | 13  |   7560       5   7556       0 |   4    0      7495        61 |   2  13    0    1 340f |    1.739       0       4       0       4     13     13      0   7418     138       2  13    1340f a70f      6.510 "
test,1583577113050478848,15," | 15  |   7560       5   7515      43 |   3    1      7246       312 |   1  13   35    0 340f |    2.014       0       5       0       5     13     13      0   6908     650       1  13    0340f a70f      8.970 "
test,1583577113052503040,16," | 16  |   7560       5   7556       0 |   5    0      7275       281 |   3  35    0    0 a20f |    3.540       0       5       0       5     35     35      0   7079     477       3  35    0a20f a70f      9.750 "
test,1583577113052304128,17," | 17  |   7560       5   7546      10 |   5    0      7456       100 |   2  35    0    0 a20f |    4.272       0       5       0       5     35     35      0   7228     328       4  35    0a20f a70f     10.470 "
test,1583577113049869056,18," | 18  |   7560       5   7555       0 |   5    0      7161       394 |   2  35    0    0 a20f |    2.807       0       5       0       5     35     35      0   6865     690       2  35    0a20f a70f      8.940 "
test,1583577113054953216,19," | 19  |   7560       5   7542      14 |   5    0      7412       144 |   2  35    0    0 a20f |    4.302       0       5       0       5     35     35      0   7206     350       4  35    0a20f a70f     11.130 "
test,1583577113048884992,1," |  1  |   7560       4   7557       0 |   5    0      7358       199 |   1  13    0    0 340f |    2.716       0       5       0       5     13     13      0   7307     250       1  13    0340f a70f      8.850 "
test,1583577113052686848,22," | 22  |   7560       5   7554       0 |   5    0      7487        67 |   1  35    0    0 a20f |    2.044       0       5       0       5     35     35      0   7154     400       1  35    0a20f a70f      8.280 "
test,1583577113051233024,23," | 23  |   7560       5   7498       0 |   5    0      7466        32 |   2  35    0    0 a20f |    2.777       0       5       0       5     35     35      0   7322     176       2  35    0a20f a70f      8.970 "
test,1583577113052946176,24," | 24  |   7560       5   7554       2 |   5    0      7473        83 |   2  35    0    0 a20f |    2.807       0       5       0       5     35     35      0   7282     274       2  35    0a20f a70f      9.000 "
test,1583577113048619008,26," | 26  |   7560       5   7554       2 |   5    0      7527        29 |   2  35    0    0 a20f |    2.807       0       5       0       5     35     35      0   7387     169       2  35    0a20f a70f      9.060 "
test,1583577113067421952,27," | 27  |   7560       5   7558       0 |   3    3      7335       223 |   2  13   35    0 340f |    0           0       0       0       8      0      0      0   7049     509       0  13    0340f a70f     30.360 "
test,1583577113055389952,28," | 28  |   7560       5   7548       8 |   5    0      6957       599 |   1  35    0    0 a20f |    2.105       0       5       0       5     35     35      0   6661     895       1  35    0a20f a70f      8.940 "
test,1583577113068186112,29," | 29  |   7560       5   7548      10 |   1    2      6694       864 |   7  13   35    0 340f |    0           0       0       0       8      0      0      0   6373    1185       0  13    0340f a70f     30.390 "
test,1583577113046961920,30," | 30  |   7560       5   7553       3 |   5    0      7450       106 |   1  35    0    0 a20f |    2.075       0       5       0       5     35     35      0   7173     383       1  35    0a20f a70f      8.280 "
test,1583577113046722816,35," | 35  |   7560       5   7553       3 |   4    0      7189       367 |   2  35    0    1 a20f |    1.770       0       4       0       4     35     35      0   7021     535       2  35    1a20f a70f      6.510 "
test,1583577113071345920,40," | 40  |   7560       5   7478      74 |   5    0      7133       419 |   5  35    0    0 a20f |    5.004       0       1       0       1     35     35      0   6959     593       5  35    0a20f a70f     30.390 "
test,1583577113064992000,41," | 41  |   7560       5   7487      59 |   5    0      7477        69 |   2  35    0    0 a20f |    0           0       0       0       8      0      0      0   7306     240       0  35    0a20f a70f     30.390 "
test,1583577113065238016,42," | 42  |   7560       5   7494      62 |   5    0      7421       135 |   2  35    0    0 a20f |    0           0       0       0       8      0      0      0   7267     289       0  35    0a20f a70f     30.330 "
test,1583577113066808064,44," | 44  |   7560       5   7499      57 |   4    5      7420       136 |   6  35   47    0 a20f |    0           0       0       0       8      0      0      0   7272     284       0  35    0a20f a70f     30.390 "
test,1583577113067190784,45," | 45  |   7560       5   7513      43 |   5    0      7325       231 |   4  35    0    0 a20f |    0           0       0       0       8      0      0      0   7195     361       0  35    0a20f a70f     30.360 "
test,1583577113065465088,46," | 46  |   7560       5   7492      57 |   5    0      7190       359 |   5  35    0    0 a20f |    0           0       0       0       8      0      0      0   7075     474       0  35    0a20f a70f     30.390 "
test,1583577113063503104,47," | 47  |   7560       5   7499      57 |   0    8      7319       237 |   0  47   35    1 c20f |    0           0       0       0       8      0      0      0   7190     366       0  47    1c20f a70f     30.180 "
test,1583577113070838016,48," | 48  |   7560       5   7434      55 |   5    0      7336       153 |   2  35    0    0 a20f |    2.807       0       1       0       1     35     35      0   7201     288       2  35    0a20f a70f     30.360 "
test,1583577113050734080,49," | 49  |   7560       5   7550       0 |   5    0      7406       144 |   1  55    0    0 a30f |    2.044       0       5       0       5     55     55      0   7354     196       1  55    0a30f a70f      8.190 "
test,1583577113045780992,51," | 51  |   7560       5   7551       0 |   5    0      7464        87 |   1  13    0    0 340f |    2.014       0       5       0       5     13     13      0   7437     114       1  13    0340f a70f      8.250 "
test,1583577113069901056,52," | 52  |   7560       3   7522      30 |   5    0      7174       378 |   2  35    0    0 a20f |    4.272       0       1       0       1     35     35      0   7041     511       4  35    0a20f a70f     30.270 "
test,1583577113047777024,53," | 53  |   7560       5   7534       0 |   5    0      7142       392 |   1  55    0    0 a30f |    1.983       0       5       0       5     55     55      0   7066     468       1  55    0a30f a70f      8.220 "
test,1583577113053554944,54," | 54  |   7560       5   7552       0 |   4    7      7427       125 |   1  13   61    0 340f |    2.777       0       5       0       5     13     13      0   7306     246       2  13    0340f a70f      9.630 "
test,1583577113045371136,55," | 55  |   7560       5   7539       0 |   4    0      7253       286 |   2  55    0    1 a30f |    1.739       0       4       0       4     55     55      0   7192     347       2  55    1a30f a70f      6.510 "
test,1583577113050170880,56," | 56  |   7560       5   7542       0 |   5    0      7429       113 |   1  13    0    0 340f |    2.746       0       5       0       5     13     13      0   7335     207       2  13    0340f a70f      8.940 "
test,1583577113067828992,57," | 57  |   7560       3   7497       0 |   5    0      7303       194 |   2  13    0    0 340f |    0           0       0       0       8      0      0      0   6845     652       0  13    0340f a70f     30.390 "
test,1583577113069479936,58," | 58  |   7560       5   7551       0 |   3   10      7450       101 |   1  55   61    0 a30f |    2.777       0       3       0       3     55     55      0   7146     405       2  55    0a30f a70f     30.390 "
test,1583577113046130944,5," |  5  |   7560       5   7558       0 |   5    0      6870       688 |   1  13    0    0 340f |    2.014       0       5       0       5     13     13      0   6742     816       1  13    0340f a70f      8.070 "
test,1583577113048219904,60," | 60  |   7560       5   7551       0 |   5    0      7062       489 |   2  13    0    0 340f |    2.777       0       5       0       5     13     13      0   6911     640       2  13    0340f a70f      8.970 "
test,1583577113067032064,61," | 61  |   7560       5   7546       4 |   0    2      7215       335 |   0  61   13    1 1d0f |    0           0       0       0       8      0      0      0   6964     586       0  61    11d0f a70f     30.240 "
test,1583577113046531840,7," |  7  |   7560       5   7557       0 |   5    0      7444       113 |   1  13    0    0 340f |    2.044       0       5       0       5     13     13      0   7394     163       1  13    0340f a70f      8.310 "
test,1583577113046326016,9," |  9  |   7560       5   7556       0 |   5    0      7306       250 |   1  13    0    0 340f |    2.014       0       5       0       5     13     13      0   7270     286       1  13    0340f a70f      8.250 "
