test,1583577076299177984,10," | 10  |   7413       5   7385       0 |   5    0      7269       116 |   2  61    0    0 640f |    3.509       0       5       0       5     61     61      0   7187     198       3  61    0640f a70f      9.690 "
test,1583577076295293184,12," | 12  |   7413       5   7377      34 |   1    0      7333        78 |   5  12    0    1 980f |    1.739       0       4       0       4     12     12      0   7208     203       2  12    1980f a70f      6.480 "
test,1583577076300045056,13," | 13  |   7413       5   7409       0 |   5    0      7348        61 |   3  61    0    0 640f |    3.509       0       5       0       5     61     61      0   7272     137       3  61    0640f a70f     11.880 "
test,1583577076317275136,15," | 15  |   7413       5   7368      43 |   2    0      7104       307 |  23  15    0    1 dc0f |    1.739       0       1       0       1     15     15      0   6775     636       2  15    1dc0f a70f     30.300 "
test,1583577076300306944,16," | 16  |   7413       4   7409       0 |   5    0      7134       275 |   3  61    0    0 640f |    3.509       0       5       0       5     61     61      0   6943     466       3  61    0640f a70f      9.630 "
test,1583577076315817984,17," | 17  |   7413       5   7399      10 |   5    9      7311        98 |   2  15   61    0 dc0f |    0           0       0       0       8      0      0      0   7089     320       0  15    0dc0f a70f     30.390 "
test,1583577076299900160,18," | 18  |   7413       5   7408       0 |   5    0      7022       386 |   3  61    0    0 640f |    3.479       0       5       0       5     61     61      0   6731     677       3  61    0640f a70f      9.720 "
test,1583577076316184064,19," | 19  |   7413       4   7395      14 |   5    9      7265       144 |   2  15   61    0 dc0f |    0           0       0       0       8      0      0      0   7061     348       0  15    0dc0f a70f     30.390 "
test,1583577076303915008,1," |  1  |   7413       4   7410       0 |   5    0      7212       198 |   2  61    0    0 640f |   10.040       0       5       0       5     61     61      0   7161     249      11  61    0640f a70f     16.020 "
test,1583577076304132864,22," | 22  |   7413       5   7407       0 |   5    0      7341        66 |   2  61    0    0 640f |    2.716       0       5       0       5     61     61      0   7012     395       2  61    0640f a70f      8.940 "
test,1583577076296806144,23," | 23  |   7413       5   7351       0 |   5    0      7321        30 |   2  61    0    0 640f |    2.746       0       5       0       5     61     61      0   7180     171       2  61    0640f a70f      8.940 "
test,1583577076299614976,24," | 24  |   7413       5   7407       2 |   5    0      7327        82 |   3  61    0    0 640f |    3.509       0       5       0       5     61     61      0   7139     270       3  61    0640f a70f      9.690 "
test,1583577076297620992,26," | 26  |   7413       5   7407       2 |   5    0      7380        29 |   2  61    0    0 640f |    2.716       0       5       0       5     61     61      0   7243     166       2  61    0640f a70f      8.910 "
test,1583577076316773888,27," | 27  |   7413       5   7411       0 |   5    4      7190       221 |   1  15   61    0 dc0f |    0           0       0       0       8      0      0      0   6910     501       0  15    0dc0f a70f     30.390 "
test,1583577076319194112,28," | 28  |   7413       5   7401       8 |   5    0      6821       588 |   3  15    0    0 dc0f |    0           0       0       0       8      0      0      0   6538     871       0  15    0dc0f a70f     30.390 "
test,1583577076316986112,29," | 29  |   7413       4   7401      10 |   4    0      6556       855 |   2  15    0    0 dc0f |    0           0       0       0       8      0      0      0   6242    1169       0  15    0dc0f a70f     30.360 "
test,1583577076315484928,30," | 30  |   7413       5   7406       3 |   5    0      7305       104 |   2  15    0    0 dc0f |    0           0       0       0       8      0      0      0   7034     375       0  15    0dc0f a70f     30.390 "
test,1583577076317416960,35," | 35  |   7413       5   7406       3 |   5    0      7054       355 |   3  15    0    0 dc0f |    0           0       0       0       8      0      0      0   6888     521       0  15    0dc0f a70f     30.390 "
test,1583577076300809984,40," | 40  |   7413       5   7331      74 |   5    1      6990       415 |   4  61   15    0 640f |    4.180       0       5       0       5     61     61      0   6819     586       4  61    0640f a70f     11.100 "
test,1583577076313888000,41," | 41  |   7413       5   7340      59 |   5    8      7331        68 |   3  15   61    0 dc0f |    0           0       0       0       8      0      0      0   7164     235       0  15    0dc0f a70f     30.360 "
test,1583577076300998912,42," | 42  |   7413       5   7347      62 |   5    2      7280       129 |   3  61   15    0 640f |    4.211       0       5       0       5     61     61      0   7128     281       4  61    0640f a70f     10.380 "
test,1583577076305159168,44," | 44  |   7413       5   7352      57 |   5    0      7275       134 |   3  61    0    0 640f |    4.241       0       5       0       5     61     61      0   7130     279       4  61    0640f a70f     10.440 "
test,1583577076298831104,45," | 45  |   7413       5   7366      43 |   5    0      7183       226 |   4  61    0    0 640f |    4.211       0       5       0       5     61     61      0   7056     353       4  61    0640f a70f     10.260 "
test,1583577076315267072,46," | 46  |   7413       5   7345      57 |   5    4      7053       349 |   4  15   61    0 dc0f |    0           0       0       0       8      0      0      0   6941     461       0  15    0dc0f a70f     30.390 "
test,1583577076313602048,47," | 47  |   7413       5   7352      57 |   4    8      7174       235 |   6  15   61    0 dc0f |    0           0       0       0       8      0      0      0   7048     361       0  15    0dc0f a70f     30.390 "
test,1583577076298288128,48," | 48  |   7413       5   7287      55 |   5    0      7191       151 |   3  61    0    0 640f |    3.509       0       5       0       5     61     61      0   7058     284       3  61    0640f a70f      9.570 "
test,1583577076295533056,49," | 49  |   7413       5   7403       0 |   3    3      7264       139 |   1  53   61    0 7c0f |    2.014       0       5       0       5     53     53      0   7211     192       1  53    07c0f a70f      8.220 "
test,1583577076296348928,51," | 51  |   7413       5   7404       0 |   5    0      7319        85 |   2  61    0    0 640f |    2.716       0       5       0       5     61     61      0   7293     111       2  61    0640f a70f      8.940 "
test,1583577076297831936,52," | 52  |   7413       4   7376      29 |   5    0      7038       367 |   2  61    0    0 640f |    3.509       0       5       0       5     61     61      0   6910     495       3  61    0640f a70f      9.660 "
test,1583577076294835200,53," | 53  |   7413       5   7387       0 |   2    0      7002       385 |   2  53    0    1 7c0f |    1.739       0       4       0       4     53     53      0   6927     460       2  53    17c0f a70f      6.480 "
test,1583577076304464128,54," | 54  |   7413       5   7405       0 |   5    0      7283       122 |   1  61    0    0 640f |    9.368       0       5       0       5     61     61      0   7165     240      11  61    0640f a70f     15.420 "
test,1583577076296101120,55," | 55  |   7413       5   7392       0 |   3    3      7113       279 |   1  53   61    0 7c0f |    2.014       0       5       0       5     53     53      0   7053     339       1  53    07c0f a70f      8.220 "
test,1583577076295057152,56," | 56  |   7413       5   7395       0 |   5    0      7285       110 |   1  61    0    0 640f |    2.014       0       5       0       5     61     61      0   7195     200       1  61    0640f a70f      8.220 "
test,1583577076297164800,57," | 57  |   7413       5   7350       0 |   5    0      7160       190 |   1  61    0    0 640f |    2.044       0       5       0       5     61     61      0   6717     633       1  61    0640f a70f      8.940 "
test,1583577076300496128,58," | 58  |   7413       5   7404       0 |   5    0      7307        97 |   1  61    0    0 640f |    2.044       0       5       0       5     61     61      0   7007     397       1  61    0640f a70f      8.250 "
test,1583577076315043072,5," |  5  |   7413       5   7411       0 |   0    7      6739       672 |   0   5   15    1 b60f |    0           0       0       0       8      0      0      0   6612     799       0   5    1b60f a70f     30.210 "
test,1583577076318514176,60," | 60  |   7413       5   7404       0 |   4    7      6925       479 |   1  15   61    0 dc0f |    2.014       0       1       0       1     15     15      0   6777     627       1  15    0dc0f a70f     30.360 "
test,1583577076307369984,61," | 61  |   7413       5   7399       4 |   4    0      7076       327 |   8  61    0    1 640f |    1.739       0       4       0       4     61     61      0   6830     573       2  61    1640f a70f      6.510 "
test,1583577076295705088,7," |  7  |   7413       5   7410       0 |   3    8      7299       111 |   1  12   61    0 980f |    2.014       0       5       0       5     12     12      0   7249     161       1  12    0980f a70f      8.130 "
test,1583577076302659072,9," |  9  |   7413       5   7409       0 |   5    0      7162       247 |   2  61    0    0 640f |   10.070       0       5       0       5     61     61      0   7126     283      12  61    0640f a70f     16.200 "
