test,1583577057544662016,10," | 10  |   7338       5   7310       0 |   5    0      7194       116 |   1  54    0    0 e60f |    2.014       0       5       0       5     54     54      0   7115     195       1  54    0e60f a70f      8.220 "
test,1583577057546607104,12," | 12  |   7338       5   7302      34 |   5    0      7258        78 |   1  54    0    0 e60f |    2.014       0       5       0       5     54     54      0   7137     199       1  54    0e60f a70f      8.850 "
test,1583577057545090816,13," | 13  |   7338       5   7334       0 |   5    0      7274        60 |   1  54    0    0 e60f |    2.014       0       5       0       5     54     54      0   7200     134       1  54    0e60f a70f      8.160 "
test,1583577057547934976,15," | 15  |   7338       5   7293      43 |   5    0      7032       304 |   2  54    0    0 e60f |    2.746       0       5       0       5     54     54      0   6707     629       2  54    0e60f a70f      9.660 "
test,1583577057552537088,16," | 16  |   7338       5   7334       0 |   5    0      7061       273 |   3  54    0    0 e60f |    4.241       0       5       0       5     54     54      0   6872     462       4  54    0e60f a70f     11.730 "
test,1583577057551275008,17," | 17  |   7338       5   7324      10 |   5    0      7236        98 |   3  54    0    0 e60f |    4.211       0       5       0       5     54     54      0   7017     317       4  54    0e60f a70f     10.410 "
test,1583577057551660032,18," | 18  |   7338       5   7333       0 |   5    0      6947       386 |   3  54    0    0 e60f |    4.211       0       5       0       5     54     54      0   6657     676       4  54    0e60f a70f     10.980 "
test,1583577057552098048,19," | 19  |   7338       5   7320      14 |   5    0      7192       142 |   3  54    0    0 e60f |    4.211       0       5       0       5     54     54      0   6991     343       4  54    0e60f a70f     11.640 "
test,1583577057546861824,1," |  1  |   7338       4   7335       0 |   5    0      7140       195 |   1  54    0    0 e60f |    2.716       0       5       0       5     54     54      0   7091     244       1  54    0e60f a70f      8.850 "
test,1583577057552280064,22," | 22  |   7338       5   7332       0 |   5    0      7266        66 |   2  54    0    0 e60f |    4.211       0       5       0       5     54     54      0   6937     395       4  54    0e60f a70f     10.380 "
test,1583577057549031936,23," | 23  |   7338       5   7276       0 |   5    0      7246        30 |   2  54    0    0 e60f |    3.509       0       5       0       5     54     54      0   7107     169       3  54    0e60f a70f     11.130 "
test,1583577057548409856,24," | 24  |   7338       5   7332       2 |   5    0      7254        80 |   3  54    0    0 e60f |    4.211       0       5       0       5     54     54      0   7066     268       4  54    0e60f a70f     10.230 "
test,1583577057547298048,26," | 26  |   7338       5   7332       2 |   5    0      7305        29 |   2  54    0    0 e60f |    3.479       0       5       0       5     54     54      0   7170     164       3  54    0e60f a70f      9.660 "
test,1583577057555414016,27," | 27  |   7338       5   7336       0 |   4    0      7117       219 |   3  54    0    0 e60f |    4.211       0       5       0       5     54     54      0   6840     496       4  54    0e60f a70f     11.790 "
test,1583577057559137024,28," | 28  |   7338       5   7326       8 |   5    0      6749       585 |   4  54    0    0 e60f |    4.943       0       5       0       5     54     54      0   6469     865       5  54    0e60f a70f     11.880 "
test,1583577057553944064,29," | 29  |   7338       3   7326      10 |   4    0      6485       851 |   4  54    0    0 e60f |    4.974       0       5       0       5     54     54      0   6174    1162       5  54    0e60f a70f     12.420 "
test,1583577057549863168,30," | 30  |   7338       5   7331       3 |   5    0      7232       102 |   3  54    0    0 e60f |    4.943       0       5       0       5     54     54      0   6962     372       5  54    0e60f a70f     11.850 "
test,1583577057550304768,35," | 35  |   7338       5   7331       3 |   5    0      6982       352 |   3  54    0    0 e60f |    4.943       0       5       0       5     54     54      0   6817     517       5  54    0e60f a70f     11.130 "
test,1583577057555762944,40," | 40  |   7338       4   7256      74 |   5    0      6918       412 |   4  54    0    0 e60f |    4.943       0       5       0       5     54     54      0   6749     581       5  54    0e60f a70f     14.010 "
test,1583577057566017024,41," | 41  |   7338       5   7265      59 |   0    7      7257        67 |   0  41   54    1 310f |    0           0       0       0       8      0      0      0   7093     231       0  41    1310f a70f     30.150 "
test,1583577057567343104,42," | 42  |   7338       5   7272      62 |   5    0      7205       129 |   3  54    0    0 e60f |    4.943       0       4       0       4     54     54      0   7053     281       5  54    0e60f a70f     30.240 "
test,1583577057551078144,44," | 44  |   7338       5   7277      57 |   5    0      7201       133 |   3  54    0    0 e60f |    4.943       0       5       0       5     54     54      0   7058     276       5  54    0e60f a70f     12.510 "
test,1583577057560039936,45," | 45  |   7338       5   7291      43 |   5    0      7110       224 |   4  54    0    0 e60f |    5.645       0       5       0       5     54     54      0   6984     350       6  54    0e60f a70f     13.260 "
test,1583577057567532032,46," | 46  |   7338       5   7270      57 |   4    5      6984       343 |   6  54   41    0 e60f |    5.676       0       4       0       4     54     54      0   6873     454       6  54    0e60f a70f     30.330 "
test,1583577057552841984,47," | 47  |   7338       5   7277      57 |   5    0      7103       231 |   6  54    0    0 e60f |    4.943       0       5       0       5     54     54      0   6979     355       5  54    0e60f a70f     14.010 "
test,1583577057550877952,48," | 48  |   7338       5   7212      55 |   5    0      7119       148 |   3  54    0    0 e60f |    4.943       0       5       0       5     54     54      0   6985     282       5  54    0e60f a70f     13.140 "
test,1583577057545581056,49," | 49  |   7338       5   7328       0 |   4    0      7191       137 |   8  49    0    1 e00f |    1.739       0       4       0       4     49     49      0   7139     189       2  49    1e00f a70f      6.480 "
test,1583577057547458048,51," | 51  |   7338       5   7329       0 |   5    0      7244        85 |   2  54    0    0 e60f |    2.746       0       5       0       5     54     54      0   7218     111       2  54    0e60f a70f      8.970 "
test,1583577057548780800,52," | 52  |   7338       5   7301      29 |   5    0      6965       365 |   3  54    0    0 e60f |    4.241       0       5       0       5     54     54      0   6839     491       4  54    0e60f a70f     10.410 "
test,1583577057547712000,53," | 53  |   7338       5   7312       0 |   5    0      6930       382 |   1  49    0    0 e00f |    2.014       0       5       0       5     49     49      0   6856     456       1  49    0e00f a70f      8.250 "
test,1583577057545900032,54," | 54  |   7338       5   7330       0 |   4    0      7210       120 |   2  54    0    1 e60f |    1.739       0       4       0       4     54     54      0   7096     234       2  54    1e60f a70f      7.200 "
test,1583577057566714112,55," | 55  |   7338       5   7317       0 |   0    5      7040       277 |   0  55   49    1 d00f |    0           0       0       0       8      0      0      0   6980     337       0  55    1d00f a70f     30.150 "
test,1583577057550661120,56," | 56  |   7338       5   7320       0 |   5    0      7211       109 |   1  54    0    0 e60f |    2.777       0       5       0       5     54     54      0   7121     199       2  54    0e60f a70f      8.940 "
test,1583577057554501888,57," | 57  |   7338       5   7275       0 |   5    0      7086       189 |   1  54    0    0 e60f |    2.777       0       5       0       5     54     54      0   6644     631       2  54    0e60f a70f      9.720 "
test,1583577057568627200,58," | 58  |   7338       5   7329       0 |   2    4      7233        96 |   1  54   55    0 e60f |    2.777       0       4       0       4     54     54      0   6935     394       2  54    0e60f a70f     30.390 "
test,1583577057546377984,5," |  5  |   7338       5   7336       0 |   5    0      6676       660 |   2  54    0    0 e60f |    2.777       0       5       0       5     54     54      0   6550     786       2  54    0e60f a70f      8.970 "
test,1583577057562769920,60," | 60  |   7338       5   7329       0 |   5    0      6854       475 |   2  54    0    0 e60f |    3.509       0       5       0       5     54     54      0   6707     622       3  54    0e60f a70f      9.690 "
test,1583577057549576960,61," | 61  |   7338       5   7324       4 |   4    0      7005       323 |   1  54    0    0 e60f |    2.014       0       5       0       5     54     54      0   6761     567       1  54    0e60f a70f      8.100 "
test,1583577057544882944,7," |  7  |   7338       5   7335       0 |   5    0      7227       108 |   1  54    0    0 e60f |    2.044       0       5       0       5     54     54      0   7180     155       1  54    0e60f a70f      8.190 "
test,1583577057545389056,9," |  9  |   7338       5   7334       0 |   5    0      7088       246 |   1  54    0    0 e60f |    2.044       0       5       0       5     54     54      0   7053     281       1  54    0e60f a70f      8.280 "
