test,1583577260798721024,10," | 10  |   8151       5   8123       0 |   5    0      7998       125 |   1  12    0    0 430f |    2.014       0       5       0       5     12     12      0   7909     214       1  12    0430f a70f      8.100 "
test,1583577260800584192,12," | 12  |   8151       5   8115      34 |   4    0      8066        83 |   4  12    0    1 430f |    1.739       0       4       0       4     12     12      0   7926     223       2  12    1430f a70f      6.480 "
test,1583577260798465024,13," | 13  |   8151       5   8147       0 |   5    0      8085        62 |   1  12    0    0 430f |    2.014       0       5       0       5     12     12      0   8003     144       1  12    0430f a70f      8.130 "
test,1583577260802253056,15," | 15  |   8151       5   8106      43 |   3    1      7813       336 |   1  12   60    0 430f |    2.014       0       5       0       5     12     12      0   7444     705       1  12    0430f a70f      8.250 "
test,1583577260808918016,16," | 16  |   8151       5   8147       0 |   5    0      7836       311 |   4  20    0    0 580f |    7.873       0       5       0       5     20     20      0   7631     516       9  20    0580f a70f     13.980 "
test,1583577260806353920,17," | 17  |   8151       5   8136      11 |   5    0      8040       107 |   3  20    0    0 580f |    7.141       0       5       0       5     20     20      0   7800     347       8  20    0580f a70f     13.170 "
test,1583577260807212032,18," | 18  |   8151       5   8146       0 |   5    0      7705       441 |   2  20    0    0 580f |    7.141       0       5       0       5     20     20      0   7399     747       8  20    0580f a70f     13.890 "
test,1583577260825676800,19," | 19  |   8151       5   8132      15 |   1   15      7989       158 |   1  29   52    0 230f |    6.958       0       1       0       1     29     29      0   7771     376       8  29    0230f a70f     30.360 "
test,1583577260799636992,1," |  1  |   8151       4   8148       0 |   5    0      7934       214 |   1  12    0    0 430f |    2.685       0       5       0       5     12     12      0   7881     267       1  12    0430f a70f      8.820 "
test,1583577260805732864,22," | 22  |   8151       5   8145       0 |   5    0      8077        68 |   2  20    0    0 580f |    6.408       0       5       0       5     20     20      0   7726     419       7  20    0580f a70f     13.170 "
test,1583577260803904000,23," | 23  |   8151       5   8089       0 |   5    0      8052        37 |   4  20    0    0 580f |    7.110       0       5       0       5     20     20      0   7901     188       8  20    0580f a70f     13.260 "
test,1583577260803705088,24," | 24  |   8151       5   8145       2 |   5    0      8050        97 |   1  20    0    0 580f |    7.110       0       5       0       5     20     20      0   7847     300       8  20    0580f a70f     13.230 "
test,1583577260804879872,26," | 26  |   8151       5   8145       2 |   5    0      8115        32 |   2  20    0    0 580f |    7.141       0       5       0       5     20     20      0   7969     178       8  20    0580f a70f     13.860 "
test,1583577260822913024,27," | 27  |   8151       5   8149       0 |   1    9      7912       237 |   2  29   20    0 230f |    6.286       0       1       0       1     29     29      0   7599     550       7  29    0230f a70f     30.330 "
test,1583577260804288000,28," | 28  |   8151       5   8139       8 |   5    0      7498       649 |   3  20    0    0 580f |    3.448       0       5       0       5     20     20      0   7173     974       3  20    0580f a70f     11.100 "
test,1583577260823297024,29," | 29  |   8151       1   8136      13 |   1    0      7217       932 |   3  29    0    1 230f |    5.981       0       1       0       1     29     29      0   6867    1282       8  29    1230f a70f     30.240 "
test,1583577260799459840,30," | 30  |   8151       5   8143       4 |   5    0      8035       112 |   1  20    0    0 580f |    2.014       0       5       0       5     20     20      0   7736     411       1  20    0580f a70f      8.250 "
test,1583577260802505984,35," | 35  |   8151       5   8143       4 |   5    0      7760       387 |   2  20    0    0 580f |    2.746       0       5       0       5     20     20      0   7577     570       2  20    0580f a70f      8.970 "
test,1583577260821675008,40," | 40  |   8151       5   8068      75 |   4    0      7680       463 |   2  20    0    0 580f |    7.843       0       4       0       4     20     20      0   7483     660       9  20    0580f a70f     30.390 "
test,1583577260809565184,41," | 41  |   8151       5   8077      60 |   2    0      8061        76 |   3  20    0    0 580f |    7.110       0       5       0       5     20     20      0   7876     261       8  20    0580f a70f     13.980 "
test,1583577260822668032,42," | 42  |   8151       5   8080      67 |   1    0      8002       145 |   3  20    0    0 580f |    7.110       0       4       0       4     20     20      0   7833     314       8  20    0580f a70f     30.360 "
test,1583577260809351936,44," | 44  |   8151       5   8089      58 |   3    0      8000       147 |   2  20    0    0 580f |    7.812       0       5       0       5     20     20      0   7842     305       9  20    0580f a70f     13.950 "
test,1583577260810887936,45," | 45  |   8151       5   8103      44 |   3    0      7900       247 |   3  20    0    0 580f |    7.843       0       5       0       5     20     20      0   7759     388       9  20    0580f a70f     14.670 "
test,1583577260807631104,46," | 46  |   8151       5   8082      58 |   2    0      7750       390 |   3  20    0    0 580f |    7.812       0       5       0       5     20     20      0   7626     514       9  20    0580f a70f     14.700 "
test,1583577260822337024,47," | 47  |   8151       5   8089      58 |   1    0      7894       253 |   3  20    0    0 580f |    8.575       0       4       0       4     20     20      0   7755     392      10  20    0580f a70f     30.210 "
test,1583577260822094080,48," | 48  |   8151       5   8025      55 |   2    0      7916       164 |   3  20    0    0 580f |    7.110       0       4       0       4     20     20      0   7765     315       8  20    0580f a70f     30.360 "
test,1583577260799803904,49," | 49  |   8151       5   8141       0 |   5    1      7985       156 |   1  53   55    0 190f |    2.014       0       5       0       5     53     53      0   7926     215       1  53    0190f a70f      8.220 "
test,1583577260805437184,51," | 51  |   8151       5   8142       0 |   5    0      8050        92 |   2  12    0    0 430f |    2.716       0       5       0       5     12     12      0   8022     120       2  12    0430f a70f      8.790 "
test,1583577260819145984,52," | 52  |   8151       4   8112      31 |   0    9      7740       403 |   0  52   20    1 850f |    0           0       0       0       8      0      0      0   7601     542       0  52    1850f a70f     30.210 "
test,1583577260801295872,53," | 53  |   8151       5   8125       0 |   4    1      7722       403 |   8  53   55    1 190f |    1.739       0       4       0       4     53     53      0   7638     487       2  53    1190f a70f      6.510 "
test,1583577260800957952,54," | 54  |   8151       5   8143       0 |   5    0      8007       136 |   1  12    0    0 430f |    2.014       0       5       0       5     12     12      0   7872     271       1  12    0430f a70f      8.850 "
test,1583577260818900992,55," | 55  |   8151       5   8130       0 |   0    7      7826       304 |   0  55   53    1  c0f |    0           0       0       0       8      0      0      0   7755     375       0  55    1 c0f a70f     30.150 "
test,1583577260801135104,56," | 56  |   8151       5   8133       0 |   5    0      8011       122 |   2  12    0    0 430f |    2.716       0       5       0       5     12     12      0   7914     219       2  12    0430f a70f      8.880 "
test,1583577260821846016,57," | 57  |   8151       5   8088       0 |   1    5      7872       216 |  13  20   60    0 580f |   10.070       0       4       0       4     20     20      0   7382     706      12  20    0580f a70f     30.360 "
test,1583577260820727040,58," | 58  |   8151       5   8142       0 |   5    1      8030       112 |   1  12   55    0 430f |    4.913       0       4       0       4     12     12      0   7702     440       5  12    0430f a70f     30.390 "
test,1583577260802012928,5," |  5  |   8151       5   8149       0 |   5    0      7400       749 |   1  12    0    0 430f |    2.014       0       5       0       5     12     12      0   7263     886       1  12    0430f a70f      8.220 "
test,1583577260817886208,60," | 60  |   8151       5   8142       0 |   0    6      7605       537 |   0  60   20    1 940f |    0           0       0       0       8      0      0      0   7443     699       0  60    1940f a70f     30.180 "
test,1583577260805201152,61," | 61  |   8151       5   8134       7 |   5    0      7773       368 |   2  12    0    0 430f |    4.180       0       5       0       5     12     12      0   7498     643       4  12    0430f a70f     10.200 "
test,1583577260801472000,7," |  7  |   8151       5   8148       0 |   5    0      8027       121 |   1  12    0    0 430f |    2.014       0       5       0       5     12     12      0   7971     177       1  12    0430f a70f      8.220 "
test,1583577260799112960,9," |  9  |   8151       5   8147       0 |   5    0      7882       265 |   1  12    0    0 430f |    1.983       0       5       0       5     12     12      0   7841     306       1  12    0430f a70f      8.130 "
