test,1583577305561028864,10," | 10  |   8330       5   8302       0 |   5    0      8174       128 |   4  18    0    0 b50f |    7.019       0       5       0       5     18     18      0   8085     217       8  18    0b50f a70f     13.200 "
test,1583577305557447936,12," | 12  |   8330       5   8294      34 |   5    0      8243        85 |   5  18    0    0 b50f |    6.988       0       5       0       5     18     18      0   8101     227       8  18    0b50f a70f     13.860 "
test,1583577305554429952,13," | 13  |   8330       5   8326       0 |   5    0      8260        66 |   4  18    0    0 b50f |    7.019       0       5       0       5     18     18      0   8179     147       8  18    0b50f a70f     13.890 "
test,1583577305556721920,15," | 15  |   8330       5   8285      43 |   5    0      7977       351 |   5  18    0    0 b50f |    7.751       0       5       0       5     18     18      0   7603     725       9  18    0b50f a70f     14.610 "
test,1583577305572685056,16," | 16  |   8330       5   8326       0 |   5    0      8003       323 |   2  40    0    0 5e0f |    2.746       0       2       0       2     40     40      0   7791     535       2  40    05e0f a70f     30.390 "
test,1583577305558882048,17," | 17  |   8330       5   8315      11 |   5    0      8214       112 |   2  18    0    0 b50f |    4.791       0       5       0       5     18     18      0   7972     354       5  18    0b50f a70f     10.980 "
test,1583577305551599104,18," | 18  |   8330       5   8325       0 |   4    0      7873       452 |   2  18    0    1 b50f |    3.814       0       4       0       4     18     18      0   7561     764       5  18    1b50f a70f      8.430 "
test,1583577305558163968,19," | 19  |   8330       5   8309      17 |   5    0      8164       162 |   3  18    0    0 b50f |    4.821       0       5       0       5     18     18      0   7937     389       5  18    0b50f a70f     10.830 "
test,1583577305555696896,1," |  1  |   8330       4   8327       0 |   5    0      8103       224 |   4  18    0    0 b50f |    7.690       0       5       0       5     18     18      0   8049     278       8  18    0b50f a70f     13.830 "
test,1583577305554033152,22," | 22  |   8330       5   8324       0 |   5    0      8253        71 |   1  18    0    0 b50f |    4.058       0       5       0       5     18     18      0   7898     426       4  18    0b50f a70f     11.520 "
test,1583577305554863872,23," | 23  |   8330       5   8268       0 |   5    0      8231        37 |   2  18    0    0 b50f |    5.554       0       5       0       5     18     18      0   8074     194       6  18    0b50f a70f     11.760 "
test,1583577305553500928,24," | 24  |   8330       5   8324       2 |   5    0      8222       104 |   1  18    0    0 b50f |    4.058       0       5       0       5     18     18      0   8015     311       4  18    0b50f a70f     10.230 "
test,1583577305553340928,26," | 26  |   8330       5   8324       2 |   5    0      8294        32 |   2  18    0    0 b50f |    4.791       0       5       0       5     18     18      0   8145     181       5  18    0b50f a70f     10.830 "
test,1583577305559616000,27," | 27  |   8330       5   8328       0 |   5    0      8080       248 |   3  18    0    0 b50f |    5.523       0       5       0       5     18     18      0   7762     566       6  18    0b50f a70f     12.300 "
test,1583577305574295040,28," | 28  |   8330       4   8318       8 |   3    7      7665       661 |   4  18   35    0 b50f |   11.383       0       1       0       1     18     18      0   7337     989      14  18    0b50f a70f     30.390 "
test,1583577305557620992,29," | 29  |   8330       2   8314      14 |   5    0      7370       958 |   4  18    0    0 b50f |    5.554       0       5       0       5     18     18      0   7012    1316       6  18    0b50f a70f     13.140 "
test,1583577305560396800,30," | 30  |   8330       5   8322       4 |   5    5      8211       115 |   1  35   18    0 670f |    2.044       0       5       0       5     35     35      0   7909     417       1  35    0670f a70f      8.280 "
test,1583577305550430976,35," | 35  |   8330       5   8322       4 |   4    4      7932       394 |   5  35   18    1 670f |    1.770       0       4       0       4     35     35      0   7747     579       2  35    1670f a70f      6.510 "
test,1583577305555519232,40," | 40  |   8330       4   8247      75 |   4    0      7853       469 |   2  40    0    1 5e0f |    1.739       0       4       0       4     40     40      0   7653     669       2  40    15e0f a70f      6.510 "
test,1583577305551261952,41," | 41  |   8330       5   8256      60 |   5    0      8237        79 |   1  40    0    0 5e0f |    1.983       0       5       0       5     40     40      0   8048     268       1  40    05e0f a70f      8.910 "
test,1583577305550711040,42," | 42  |   8330       5   8259      67 |   5    0      8176       150 |   1  40    0    0 5e0f |    2.014       0       5       0       5     40     40      0   8005     321       1  40    05e0f a70f      8.100 "
test,1583577305552752896,44," | 44  |   8330       5   8268      58 |   5    0      8179       147 |   1  40    0    0 5e0f |    2.014       0       5       0       5     40     40      0   8018     308       1  40    05e0f a70f      9.630 "
test,1583577305558671104,45," | 45  |   8330       5   8282      44 |   4    0      8073       253 |   4  40    0    0 5e0f |    2.777       0       5       0       5     40     40      0   7930     396       2  40    05e0f a70f     10.230 "
test,1583577305550949120,46," | 46  |   8330       5   8261      58 |   5    0      7916       403 |   1  40    0    0 5e0f |    2.014       0       5       0       5     40     40      0   7790     529       1  40    05e0f a70f      8.970 "
test,1583577305552290816,47," | 47  |   8330       5   8268      58 |   4    0      8068       258 |   2  40    0    0 5e0f |    2.777       0       5       0       5     40     40      0   7927     399       2  40    05e0f a70f      9.000 "
test,1583577305551801088,48," | 48  |   8330       5   8204      55 |   5    0      8093       166 |   1  40    0    0 5e0f |    2.014       0       5       0       5     40     40      0   7938     321       1  40    05e0f a70f      8.850 "
test,1583577305561835008,49," | 49  |   8330       5   8320       0 |   5    0      8159       161 |   5  18    0    0 b50f |    6.988       0       5       0       5     18     18      0   8100     220       8  18    0b50f a70f     13.020 "
test,1583577305555877888,51," | 51  |   8330       5   8321       0 |   5    0      8225        96 |   3  18    0    0 b50f |    6.286       0       5       0       5     18     18      0   8197     124       7  18    0b50f a70f     12.420 "
test,1583577305560197120,52," | 52  |   8330       5   8289      33 |   5    0      7908       414 |   2  18    0    0 b50f |    5.554       0       5       0       5     18     18      0   7767     555       6  18    0b50f a70f     11.700 "
test,1583577305562701056,53," | 53  |   8330       5   8304       0 |   5    0      7894       410 |   6  18    0    0 b50f |    7.720       0       5       0       5     18     18      0   7809     495       9  18    0b50f a70f     13.860 "
test,1583577305556888064,54," | 54  |   8330       5   8322       0 |   5    0      8180       142 |   4  18    0    0 b50f |    6.988       0       5       0       5     18     18      0   8041     281       8  18    0b50f a70f     13.140 "
test,1583577305556251904,55," | 55  |   8330       5   8309       0 |   5    0      7998       311 |   5  18    0    0 b50f |    6.988       0       5       0       5     18     18      0   7927     382       8  18    0b50f a70f     13.050 "
test,1583577305565541888,56," | 56  |   8330       5   8312       0 |   5    0      8186       126 |   3  18    0    0 b50f |    6.286       0       5       0       5     18     18      0   8086     226       7  18    0b50f a70f     12.420 "
test,1583577305556482048,57," | 57  |   8330       5   8267       0 |   5    0      8047       220 |   2  18    0    0 b50f |    5.523       0       5       0       5     18     18      0   7539     728       6  18    0b50f a70f     12.420 "
test,1583577305557793024,58," | 58  |   8330       5   8321       0 |   5    0      8208       113 |   4  18    0    0 b50f |    6.286       0       5       0       5     18     18      0   7874     447       7  18    0b50f a70f     12.300 "
test,1583577305558483968,5," |  5  |   8330       3   8328       0 |   5    0      7566       762 |   5  18    0    0 b50f |    7.751       0       5       0       5     18     18      0   7425     903       9  18    0b50f a70f     14.430 "
test,1583577305559094016,60," | 60  |   8330       5   8321       0 |   5    0      7776       545 |   3  18    0    0 b50f |    6.317       0       5       0       5     18     18      0   7611     710       7  18    0b50f a70f     13.050 "
test,1583577305572918016,61," | 61  |   8330       5   8313       7 |   5    0      7944       376 |   3  18    0    0 b50f |    6.286       0       4       0       4     18     18      0   7661     659       7  18    0b50f a70f     30.390 "
test,1583577305554725888,7," |  7  |   8330       5   8327       0 |   5    0      8206       121 |   4  18    0    0 b50f |    6.988       0       5       0       5     18     18      0   8148     179       8  18    0b50f a70f     13.020 "
test,1583577305557065984,9," |  9  |   8330       5   8326       0 |   5    0      8056       270 |   5  18    0    0 b50f |    7.720       0       5       0       5     18     18      0   8014     312       9  18    0b50f a70f     13.740 "
