test,1583577306301757952,10," | 10  |   8333       5   8305       0 |   5    0      8177       128 |   4  19    0    0  a0f |    4.211       0       5       0       5     19     19      0   8088     217       4  19    0 a0f a70f     10.440 "
test,1583577306316386048,12," | 12  |   8333       5   8297      34 |   5    0      8246        85 |   4  19    0    0  a0f |    4.974       0       5       0       5     19     19      0   8104     227       5  19    0 a0f a70f     11.790 "
test,1583577306306230016,13," | 13  |   8333       5   8329       0 |   5    0      8263        66 |   4  19    0    0  a0f |    4.241       0       5       0       5     19     19      0   8182     147       4  19    0 a0f a70f     10.350 "
test,1583577306318722048,15," | 15  |   8333       5   8288      43 |   5    0      7980       351 |   5  19    0    0  a0f |    5.706       0       5       0       5     19     19      0   7606     725       6  19    0 a0f a70f     11.790 "
test,1583577306300743936,16," | 16  |   8333       5   8329       0 |   5    0      8006       323 |   2  19    0    0  a0f |    2.777       0       5       0       5     19     19      0   7794     535       2  19    0 a0f a70f      8.880 "
test,1583577306309545984,17," | 17  |   8333       5   8318      11 |   5    0      8217       112 |   1  19    0    0  a0f |    2.044       0       5       0       5     19     19      0   7975     354       1  19    0 a0f a70f      8.130 "
test,1583577306302035200,18," | 18  |   8333       5   8328       0 |   5    0      7876       452 |   1  19    0    0  a0f |    1.983       0       5       0       5     19     19      0   7564     764       1  19    0 a0f a70f      8.220 "
test,1583577306313039104,19," | 19  |   8333       5   8312      17 |   4    0      8167       162 |   2  19    0    1  a0f |    1.770       0       4       0       4     19     19      0   7940     389       2  19    1 a0f a70f      7.230 "
test,1583577306308474112,1," |  1  |   8333       4   8330       0 |   5    0      8106       224 |   4  19    0    0  a0f |    4.913       0       5       0       5     19     19      0   8052     278       4  19    0 a0f a70f     10.950 "
test,1583577306313828096,22," | 22  |   8333       5   8327       0 |   5    0      8256        71 |   2  19    0    0  a0f |    2.777       0       5       0       5     19     19      0   7901     426       2  19    0 a0f a70f      8.970 "
test,1583577306296180992,23," | 23  |   8333       5   8271       0 |   4    0      8234        37 |   1  19    0    0  a0f |    2.044       0       5       0       5     19     19      0   8077     194       1  19    0 a0f a70f      8.280 "
test,1583577306303340800,24," | 24  |   8333       5   8327       2 |   5    0      8225       104 |   1  19    0    0  a0f |    2.014       0       5       0       5     19     19      0   8018     311       1  19    0 a0f a70f      8.160 "
test,1583577306299667968,26," | 26  |   8333       5   8327       2 |   5    0      8297        32 |   1  19    0    0  a0f |    1.953       0       5       0       5     19     19      0   8148     181       1  19    0 a0f a70f      8.220 "
test,1583577306298368000,27," | 27  |   8333       5   8331       0 |   5    0      8083       248 |   1  19    0    0  a0f |    2.014       0       5       0       5     19     19      0   7765     566       1  19    0 a0f a70f      8.940 "
test,1583577306312672000,28," | 28  |   8333       5   8321       8 |   4    0      7668       661 |   3  30    0    0 c20f |    2.014       0       5       0       5     30     30      0   7340     989       1  30    0c20f a70f      8.250 "
test,1583577306326641152,29," | 29  |   8333       4   8317      14 |   4    0      7373       958 |   3  19    0    0  a0f |    2.044       0       4       0       4     19     19      0   7015    1316       1  19    0 a0f a70f     30.270 "
test,1583577306300293888,30," | 30  |   8333       5   8325       4 |   5    0      8214       115 |   2  30    0    1 c20f |    1.739       0       4       0       4     30     30      0   7912     417       2  30    1c20f a70f      6.480 "
test,1583577306301125888,35," | 35  |   8333       5   8325       4 |   5    0      7935       394 |   1  30    0    0 c20f |    2.014       0       5       0       5     30     30      0   7750     579       1  30    0c20f a70f      8.070 "
test,1583577306309235200,40," | 40  |   8333       5   8250      75 |   4    0      7856       469 |   3  19    0    0  a0f |    3.448       0       5       0       5     19     19      0   7656     669       3  19    0 a0f a70f     11.100 "
test,1583577306315038976,41," | 41  |   8333       5   8259      60 |   5    0      8240        79 |   3  19    0    0  a0f |    3.479       0       5       0       5     19     19      0   8051     268       3  19    0 a0f a70f      9.630 "
test,1583577306311208960,42," | 42  |   8333       5   8262      67 |   5    0      8179       150 |   3  19    0    0  a0f |    2.777       0       5       0       5     19     19      0   8008     321       2  19    0 a0f a70f      8.850 "
test,1583577306311907072,44," | 44  |   8333       5   8271      58 |   5    0      8181       148 |   2  19    0    0  a0f |    2.777       0       5       0       5     19     19      0   8020     309       2  19    0 a0f a70f      8.850 "
test,1583577306319240192,45," | 45  |   8333       5   8285      44 |   5    0      8076       253 |   3  19    0    0  a0f |    3.509       0       5       0       5     19     19      0   7933     396       3  19    0 a0f a70f      9.630 "
test,1583577306308207872,46," | 46  |   8333       5   8264      58 |   5    0      7919       403 |   3  19    0    0  a0f |    3.479       0       5       0       5     19     19      0   7793     529       3  19    0 a0f a70f     10.380 "
test,1583577306302993152,47," | 47  |   8333       5   8271      58 |   5    0      8071       258 |   3  19    0    0  a0f |    3.479       0       5       0       5     19     19      0   7930     399       3  19    0 a0f a70f      9.690 "
test,1583577306305819136,48," | 48  |   8333       5   8207      55 |   4    0      8096       166 |   3  19    0    0  a0f |    3.448       0       5       0       5     19     19      0   7941     321       3  19    0 a0f a70f     10.410 "
test,1583577306318259968,49," | 49  |   8333       5   8323       0 |   5    0      8162       161 |   4  19    0    0  a0f |    4.913       0       5       0       5     19     19      0   8103     220       5  19    0 a0f a70f     11.790 "
test,1583577306304610048,51," | 51  |   8333       5   8324       0 |   5    0      8228        96 |   3  19    0    0  a0f |    3.479       0       5       0       5     19     19      0   8200     124       3  19    0 a0f a70f      9.600 "
test,1583577306308989952,52," | 52  |   8333       5   8292      33 |   5    0      7911       414 |   1  19    0    0  a0f |    2.044       0       5       0       5     19     19      0   7770     555       1  19    0 a0f a70f      9.630 "
test,1583577306305246976,53," | 53  |   8333       5   8307       0 |   5    0      7897       410 |   5  19    0    0  a0f |    4.913       0       5       0       5     19     19      0   7812     495       5  19    0 a0f a70f     12.540 "
test,1583577306317662976,54," | 54  |   8333       5   8325       0 |   5    0      8183       142 |   3  19    0    0  a0f |    4.974       0       5       0       5     19     19      0   8044     281       5  19    0 a0f a70f     11.850 "
test,1583577306304045824,55," | 55  |   8333       5   8312       0 |   5    0      8001       311 |   4  19    0    0  a0f |    4.913       0       5       0       5     19     19      0   7930     382       5  19    0 a0f a70f     11.790 "
test,1583577306310419968,56," | 56  |   8333       5   8315       0 |   5    0      8189       126 |   3  19    0    0  a0f |    3.509       0       5       0       5     19     19      0   8089     226       3  19    0 a0f a70f     10.260 "
test,1583577306309890048,57," | 57  |   8333       5   8270       0 |   5    0      8050       220 |   2  19    0    0  a0f |    2.777       0       5       0       5     19     19      0   7542     728       2  19    0 a0f a70f     11.010 "
test,1583577306330231808,58," | 58  |   8333       5   8324       0 |   4    0      8211       113 |   3  19    0    0  a0f |    4.211       0       4       0       4     19     19      0   7877     447       4  19    0 a0f a70f     30.300 "
test,1583577306321551104,5," |  5  |   8333       5   8331       0 |   5    0      7569       762 |   5  19    0    0  a0f |    4.913       0       5       0       5     19     19      0   7428     903       5  19    0 a0f a70f     11.070 "
test,1583577306311616000,60," | 60  |   8333       5   8324       0 |   5    0      7779       545 |   3  19    0    0  a0f |    3.509       0       5       0       5     19     19      0   7613     711       3  19    0 a0f a70f     10.410 "
test,1583577306320250112,61," | 61  |   8333       5   8316       7 |   5    0      7947       376 |   3  19    0    0  a0f |    4.211       0       5       0       5     19     19      0   7664     659       4  19    0 a0f a70f     11.160 "
test,1583577306299261952,7," |  7  |   8333       5   8330       0 |   5    0      8209       121 |   4  19    0    0  a0f |    4.241       0       5       0       5     19     19      0   8151     179       4  19    0 a0f a70f     11.190 "
test,1583577306315696896,9," |  9  |   8333       5   8329       0 |   5    0      8059       270 |   4  19    0    0  a0f |    4.913       0       5       0       5     19     19      0   8017     312       5  19    0 a0f a70f     11.100 "
