test,1583577303069363968,10," | 10  |   8320       5   8292       0 |   1    8      8164       128 |   8  10   49    1 210f |    0           0       0       0       8      0      0      0   8075     217       0  10    1210f a70f     30.120 "
test,1583577303056282880,12," | 12  |   8320       5   8284      34 |   5    0      8233        85 |   1   7    0    0 e70f |    1.983       0       5       0       5      7      7      0   8091     227       1   7    0e70f a70f      8.250 "
test,1583577303052527872,13," | 13  |   8320       5   8316       0 |   5    1      8250        66 |   1   7   10    0 e70f |    1.983       0       5       0       5      7      7      0   8169     147       1   7    0e70f a70f      8.100 "
test,1583577303051852032,15," | 15  |   8320       5   8275      43 |   5    0      7967       351 |   2   7    0    0 e70f |    2.716       0       5       0       5      7      7      0   7593     725       2   7    0e70f a70f      8.910 "
test,1583577303073626112,16," | 16  |   8320       5   8316       0 |   1    7      7994       322 |   1  45   35    0 630f |    2.014       0       1       0       1     45     45      0   7783     533       1  45    0630f a70f     30.360 "
test,1583577303058636800,17," | 17  |   8320       5   8305      11 |   5    0      8205       111 |   2  35    0    0 3b0f |    2.807       0       5       0       5     35     35      0   7963     353       2  35    03b0f a70f      9.750 "
test,1583577303060483840,18," | 18  |   8320       5   8315       0 |   5    0      7864       451 |   2  35    0    0 3b0f |    2.807       0       5       0       5     35     35      0   7553     762       2  35    03b0f a70f      8.880 "
test,1583577303059761152,19," | 19  |   8320       4   8299      17 |   4    2      8154       162 |   4  35   29    0 3b0f |    3.540       0       5       0       5     35     35      0   7927     389       3  35    03b0f a70f     11.910 "
test,1583577303050863872,1," |  1  |   8320       4   8317       0 |   5    0      8094       223 |   1   7    0    0 e70f |    2.685       0       5       0       5      7      7      0   8040     277       1   7    0e70f a70f      8.820 "
test,1583577303055970048,22," | 22  |   8320       5   8314       0 |   5    0      8243        71 |   1  35    0    0 3b0f |    2.075       0       5       0       5     35     35      0   7889     425       1  35    03b0f a70f      8.310 "
test,1583577303058301952,23," | 23  |   8320       5   8258       0 |   5    0      8221        37 |   2  35    0    0 3b0f |    4.302       0       5       0       5     35     35      0   8064     194       4  35    03b0f a70f     11.070 "
test,1583577303057463040,24," | 24  |   8320       5   8314       2 |   5    0      8212       104 |   2  35    0    0 3b0f |    2.777       0       5       0       5     35     35      0   8006     310       2  35    03b0f a70f      9.720 "
test,1583577303060686080,26," | 26  |   8320       5   8314       2 |   5    0      8284        32 |   2  35    0    0 3b0f |    2.807       0       5       0       5     35     35      0   8135     181       2  35    03b0f a70f      9.030 "
test,1583577303065620992,27," | 27  |   8320       5   8318       0 |   5    0      8071       247 |   3  35    0    0 3b0f |    3.570       0       5       0       5     35     35      0   7753     565       3  35    03b0f a70f     10.380 "
test,1583577303058012928,28," | 28  |   8320       5   8308       8 |   5    0      7656       660 |   1  35    0    0 3b0f |    2.075       0       5       0       5     35     35      0   7328     988       1  35    03b0f a70f     10.470 "
test,1583577303071567104,29," | 29  |   8320       5   8304      14 |   0    4      7361       957 |   0  29   35    1 dd0f |    0           0       0       0       8      0      0      0   7003    1315       0  29    1dd0f a70f     30.150 "
test,1583577303052052992,30," | 30  |   8320       5   8312       4 |   4    0      8201       115 |   1  35    0    0 3b0f |    2.044       0       5       0       5     35     35      0   7899     417       1  35    03b0f a70f      8.130 "
test,1583577303053246976,35," | 35  |   8320       5   8312       4 |   3    0      7922       394 |   4  35    0    1 3b0f |    1.739       0       4       0       4     35     35      0   7737     579       2  35    13b0f a70f      6.480 "
test,1583577303075074048,40," | 40  |   8320       5   8237      75 |   5    0      7843       469 |   2  45    0    0 630f |    2.777       0       4       0       4     45     45      0   7643     669       2  45    0630f a70f     30.390 "
test,1583577303071798016,41," | 41  |   8320       5   8246      60 |   5    0      8228        78 |   1  45    0    0 630f |    2.075       0       4       0       4     45     45      0   8039     267       1  45    0630f a70f     30.330 "
test,1583577303072685056,42," | 42  |   8320       5   8249      67 |   5    0      8166       150 |   1  45    0    0 630f |    3.540       0       3       0       3     45     45      0   7996     320       3  45    0630f a70f     30.390 "
test,1583577303072508160,44," | 44  |   8320       5   8258      58 |   5    0      8169       147 |   1  45    0    0 630f |    2.075       0       4       0       4     45     45      0   8008     308       1  45    0630f a70f     30.360 "
test,1583577303053582848,45," | 45  |   8320       5   8272      44 |   5    0      8063       253 |   2  45    0    1 630f |    1.739       0       4       0       4     45     45      0   7920     396       2  45    1630f a70f      6.510 "
test,1583577303073483008,46," | 46  |   8320       5   8251      58 |   5    0      7907       402 |   2  45    0    0 630f |    2.777       0       3       0       3     45     45      0   7781     528       2  45    0630f a70f     30.390 "
test,1583577303074675200,47," | 47  |   8320       5   8258      58 |   5    0      8058       258 |   1  45    0    0 630f |    2.075       0       4       0       4     45     45      0   7917     399       1  45    0630f a70f     30.390 "
test,1583577303072000000,48," | 48  |   8320       5   8194      55 |   5    0      8083       166 |   1  45    0    0 630f |    2.075       0       4       0       4     45     45      0   7928     321       1  45    0630f a70f     30.390 "
test,1583577303050088960,49," | 49  |   8320       5   8310       0 |   4    0      8150       160 |   2  49    0    1 c60f |    1.739       0       4       0       4     49     49      0   8091     219       2  49    1c60f a70f      6.510 "
test,1583577303052310016,51," | 51  |   8320       5   8311       0 |   5    0      8215        96 |   6  10    0    0 210f |    2.014       0       5       0       5     10     10      0   8187     124       1  10    0210f a70f      7.980 "
test,1583577303052800000,52," | 52  |   8320       5   8279      33 |   5    0      7898       414 |   3  35    0    0 3b0f |    3.509       0       5       0       5     35     35      0   7757     555       3  35    03b0f a70f      9.720 "
test,1583577303051378944,53," | 53  |   8320       5   8294       0 |   5    0      7886       408 |   1  49    0    0 c60f |    1.983       0       5       0       5     49     49      0   7801     493       1  49    0c60f a70f      8.220 "
test,1583577303054183936,54," | 54  |   8320       5   8312       0 |   5    0      8170       142 |   2   7    0    0 e70f |    2.746       0       5       0       5      7      7      0   8031     281       2   7    0e70f a70f      8.970 "
test,1583577303050662144,55," | 55  |   8320       5   8299       0 |   5    0      7988       311 |   1  49    0    0 c60f |    1.983       0       5       0       5     49     49      0   7917     382       1  49    0c60f a70f      8.100 "
test,1583577303058928896,56," | 56  |   8320       5   8302       0 |   5    0      8176       126 |   1  10    0    0 210f |    2.044       0       5       0       5     10     10      0   8076     226       1  10    0210f a70f      8.640 "
test,1583577303074140928,57," | 57  |   8320       3   8257       0 |   5    0      8037       220 |   2  10    0    0 210f |    2.777       0       4       0       4     10     10      0   7530     727       2  10    0210f a70f     30.240 "
test,1583577303046412032,58," | 58  |   8320       5   8311       0 |   5    0      8198       113 |   1  49    0    0 c60f |    2.014       0       5       0       5     49     49      0   7864     447       1  49    0c60f a70f      8.820 "
test,1583577303073309952,5," |  5  |   8320       5   8318       0 |   5    0      7557       761 |   2   7    0    0 e70f |    4.211       0       3       0       3      7      7      0   7416     902       4   7    0e70f a70f     30.360 "
test,1583577303053092864,60," | 60  |   8320       5   8311       0 |   5    0      7766       545 |   3  10    0    0 210f |    2.716       0       5       0       5     10     10      0   7601     710       2  10    0210f a70f      8.610 "
test,1583577303057807872,61," | 61  |   8320       5   8303       7 |   3    1      7935       375 |   4  49   10    0 c60f |    2.746       0       5       0       5     49     49      0   7652     658       2  49    0c60f a70f      9.570 "
test,1583577303049633024,7," |  7  |   8320       5   8317       0 |   4    0      8196       121 |   3   7    0    1 e70f |    1.770       0       4       0       4      7      7      0   8138     179       2   7    1e70f a70f      6.510 "
test,1583577303051106048,9," |  9  |   8320       5   8316       0 |   5    0      8046       270 |   2   7    0    0 e70f |    2.716       0       5       0       5      7      7      0   8004     312       2   7    0e70f a70f      8.970 "
