test,1583577239298607104,10," | 10  |   8065       5   8037       0 |   2    8      7912       125 |   9   9   54    0 5c0f |    2.044       0       5       0       5      9      9      0   7825     212       1   9    05c0f a70f      8.190 "
test,1583577239313273856,12," | 12  |   8065       5   8029      34 |   5    9      7981        82 |   1  54    9    0 d30f |   10.559       0       5       0       5     54     54      0   7841     222      13  54    0d30f a70f     16.650 "
test,1583577239300333056,13," | 13  |   8065       5   8061       0 |   5    0      7999        62 |   2   9    0    0 5c0f |    2.777       0       5       0       5      9      9      0   7918     143       2   9    05c0f a70f      8.910 "
test,1583577239307971840,15," | 15  |   8065       5   8020      43 |   4    2      7734       329 |   2  54    5    0 d30f |   11.291       0       5       0       5     54     54      0   7367     696      14  54    0d30f a70f     17.250 "
test,1583577239319782144,16," | 16  |   8065       5   8061       0 |   0    9      7756       305 |   0  16   18    1 a60f |    0           0       0       0       8      0      0      0   7553     508       0  16    1a60f a70f     30.210 "
test,1583577239306459904,17," | 17  |   8065       5   8050      11 |   5    0      7954       107 |   3  18    0    0 610f |    3.509       0       5       0       5     18     18      0   7716     345       3  18    0610f a70f     11.160 "
test,1583577239302004224,18," | 18  |   8065       5   8060       0 |   4    0      7620       440 |   3  18    0    1 610f |    1.739       0       4       0       4     18     18      0   7316     744       2  18    1610f a70f      6.510 "
test,1583577239305655040,19," | 19  |   8065       5   8046      15 |   5    0      7904       157 |   2  18    0    0 610f |    2.777       0       5       0       5     18     18      0   7688     373       2  18    0610f a70f      9.540 "
test,1583577239298221056,1," |  1  |   8065       4   8062       0 |   5    0      7851       211 |   1   9    0    0 5c0f |    2.716       0       5       0       5      9      9      0   7798     264       1   9    05c0f a70f      8.820 "
test,1583577239302434048,22," | 22  |   8065       5   8059       0 |   5    0      7992        67 |   1  18    0    0 610f |    2.014       0       5       0       5     18     18      0   7644     415       1  18    0610f a70f      8.220 "
test,1583577239307267840,23," | 23  |   8065       5   8003       0 |   5    0      7967        36 |   3  18    0    0 610f |    3.540       0       5       0       5     18     18      0   7816     187       3  18    0610f a70f     11.790 "
test,1583577239299560192,24," | 24  |   8065       5   8059       2 |   5    0      7967        94 |   1  18    0    0 610f |    2.044       0       5       0       5     18     18      0   7767     294       1  18    0610f a70f      8.250 "
test,1583577239308259840,26," | 26  |   8065       5   8059       2 |   5    0      8029        32 |   2  18    0    0 610f |    2.777       0       5       0       5     18     18      0   7884     177       2  18    0610f a70f      8.850 "
test,1583577239306076928,27," | 27  |   8065       5   8063       0 |   4    2      7826       237 |   4  18   54    0 610f |    3.540       0       5       0       5     18     18      0   7514     549       3  18    0610f a70f     11.850 "
test,1583577239322076928,28," | 28  |   8065       5   8053       8 |   5    0      7425       636 |   2  18    0    0 610f |    4.211       0       4       0       4     18     18      0   7103     958       4  18    0610f a70f     30.390 "
test,1583577239304774912,29," | 29  |   8065       5   8050      13 |   2    0      7139       924 |   3  18    0    0 610f |    3.509       0       5       0       5     18     18      0   6790    1273       3  18    0610f a70f     11.070 "
test,1583577239307044864,30," | 30  |   8065       5   8058       3 |   5    0      7950       111 |   2  18    0    0 610f |    3.509       0       5       0       5     18     18      0   7652     409       3  18    0610f a70f      9.720 "
test,1583577239301161984,35," | 35  |   8065       5   8058       3 |   5    0      7675       386 |   2  18    0    0 610f |    2.746       0       5       0       5     18     18      0   7493     568       2  18    0610f a70f      9.000 "
test,1583577239318619904,40," | 40  |   8065       5   7983      74 |   5    0      7600       457 |   2  45    0    0 8d0f |    4.211       0       3       0       3     45     45      0   7404     653       4  45    08d0f a70f     30.360 "
test,1583577239300566784,41," | 41  |   8065       5   7992      59 |   5    0      7976        75 |   1  45    0    0 8d0f |    2.014       0       5       0       5     45     45      0   7793     258       1  45    08d0f a70f      8.880 "
test,1583577239303531008,42," | 42  |   8065       5   7998      63 |   5    0      7916       145 |   2  45    0    0 8d0f |    2.075       0       5       0       5     45     45      0   7750     311       1  45    08d0f a70f      8.910 "
test,1583577239303747840,44," | 44  |   8065       5   8004      57 |   5    0      7914       147 |   1  45    0    0 8d0f |    2.044       0       5       0       5     45     45      0   7757     304       1  45    08d0f a70f      8.970 "
test,1583577239323718912,45," | 45  |   8065       5   8018      43 |   4    0      7815       246 |   4  45    0    1 8d0f |    1.739       0       3       0       3     45     45      0   7677     384       2  45    18d0f a70f     30.300 "
test,1583577239306276096,46," | 46  |   8065       5   7997      57 |   5    0      7669       385 |   1  45    0    0 8d0f |    2.014       0       5       0       5     45     45      0   7546     508       1  45    08d0f a70f      8.970 "
test,1583577239299268096,47," | 47  |   8065       5   8004      57 |   5    0      7811       250 |   2  45    0    0 8d0f |    2.014       0       5       0       5     45     45      0   7673     388       1  45    08d0f a70f      8.250 "
test,1583577239301435904,48," | 48  |   8065       5   7939      55 |   5    0      7832       162 |   2  45    0    0 8d0f |    2.044       0       5       0       5     45     45      0   7682     312       1  45    08d0f a70f      8.100 "
test,1583577239307463936,49," | 49  |   8065       5   8055       0 |   5    1      7900       155 |   1  53   54    0 2d0f |    1.983       0       5       0       5     53     53      0   7841     214       1  53    02d0f a70f      8.190 "
test,1583577239300731904,51," | 51  |   8065       5   8056       0 |   5    0      7966        90 |   1  60    0    0 1d0f |    2.014       0       5       0       5     60     60      0   7938     118       1  60    01d0f a70f      8.160 "
test,1583577239302750208,52," | 52  |   8065       5   8026      31 |   5    0      7658       399 |   3  18    0    0 610f |    3.479       0       5       0       5     18     18      0   7520     537       3  18    0610f a70f      9.480 "
test,1583577239299835904,53," | 53  |   8065       5   8039       0 |   4    0      7636       403 |   8  53    0    1 2d0f |    1.739       0       4       0       4     53     53      0   7552     487       2  53    12d0f a70f      6.510 "
test,1583577239322454016,54," | 54  |   8065       5   8057       0 |   4    8      7922       135 |   8  54    9    1 d30f |   14.678       0       2       0       2     54     54      0   7787     270      20  54    1d30f a70f     30.180 "
test,1583577239303201024,55," | 55  |   8065       5   8044       0 |   5    1      7742       302 |   1  53   54    0 2d0f |    2.014       0       5       0       5     53     53      0   7671     373       1  53    02d0f a70f      8.220 "
test,1583577239320553984,56," | 56  |   8065       5   8047       0 |   4    2      7927       120 |   1  60    9    0 1d0f |    2.746       0       3       0       3     60     60      0   7829     218       2  60    01d0f a70f     30.360 "
test,1583577239321818112,57," | 57  |   8065       5   8002       0 |   1    8      7790       212 |   1  60   18    0 1d0f |    1.953       0       4       0       4     60     60      0   7303     699       1  60    01d0f a70f     30.390 "
test,1583577239314786048,58," | 58  |   8065       5   8056       0 |   5    1      7946       110 |   1  54    9    0 d30f |    2.014       0       5       0       5     54     54      0   7618     438       1  54    0d30f a70f     15.900 "
test,1583577239318892032,5," |  5  |   8065       5   8063       0 |   0    8      7321       742 |   0   5   54    1 120f |    0           0       0       0       8      0      0      0   7185     878       0   5    1120f a70f     30.180 "
test,1583577239298883072,60," | 60  |   8065       5   8056       0 |   4    0      7528       528 |   2  60    0    1 1d0f |    1.739       0       4       0       4     60     60      0   7366     690       2  60    11d0f a70f      6.480 "
test,1583577239305412096,61," | 61  |   8065       5   8048       7 |   5    2      7689       366 |   2  54   60    0 d30f |    2.716       0       5       0       5     54     54      0   7417     638       2  54    0d30f a70f     16.530 "
test,1583577239300019968,7," |  7  |   8065       5   8062       0 |   5    0      7941       121 |   1   9    0    0 5c0f |    2.044       0       5       0       5      9      9      0   7885     177       1   9    05c0f a70f      9.000 "
test,1583577239298424064,9," |  9  |   8065       5   8061       0 |   4    1      7799       262 |   4   9   54    1 5c0f |    1.739       0       4       0       4      9      9      0   7759     302       2   9    15c0f a70f      6.510 "
