test,1583577274800156160,10," | 10  |   8207       5   8179       0 |   5    0      8052       127 |   1  13    0    0 e00f |    2.014       0       5       0       5     13     13      0   7965     214       1  13    0e00f a70f      8.130 "
test,1583577274803478016,12," | 12  |   8207       5   8171      34 |   5    0      8121        84 |   1  13    0    0 e00f |    2.044       0       5       0       5     13     13      0   7982     223       1  13    0e00f a70f      8.850 "
test,1583577274799924992,13," | 13  |   8207       5   8203       0 |   4    0      8139        64 |   2  13    0    1 e00f |    1.739       0       4       0       4     13     13      0   8058     145       2  13    1e00f a70f      6.510 "
test,1583577274820995072,15," | 15  |   8207       5   8162      43 |   5    0      7865       340 |   2  13    0    0 e00f |    2.807       0       4       0       4     13     13      0   7493     712       2  13    0e00f a70f     30.360 "
test,1583577274803840000,16," | 16  |   8207       5   8203       0 |   5    0      7890       313 |   2  42    0    0  c0f |    2.807       0       5       0       5     42     42      0   7684     519       2  42    0 c0f a70f      9.000 "
test,1583577274813331968,17," | 17  |   8207       5   8192      11 |   5    0      8096       107 |   2  42    0    0  c0f |    2.777       0       5       0       5     42     42      0   7855     348       2  42    0 c0f a70f      9.000 "
test,1583577274805104128,18," | 18  |   8207       5   8202       0 |   5    0      7756       446 |   2  42    0    0  c0f |    2.777       0       5       0       5     42     42      0   7448     754       2  42    0 c0f a70f      9.030 "
test,1583577274807830016,19," | 19  |   8207       5   8188      15 |   5    0      8045       158 |   3  42    0    0  c0f |    2.777       0       5       0       5     42     42      0   7825     378       2  42    0 c0f a70f      9.720 "
test,1583577274799160064,1," |  1  |   8207       4   8204       0 |   5    0      7986       218 |   1  13    0    0 e00f |    2.716       0       5       0       5     13     13      0   7933     271       1  13    0e00f a70f      8.940 "
test,1583577274800971008,22," | 22  |   8207       5   8201       0 |   5    0      8133        68 |   1  42    0    0  c0f |    2.044       0       5       0       5     42     42      0   7781     420       1  42    0 c0f a70f      8.280 "
test,1583577274801878016,23," | 23  |   8207       5   8145       0 |   5    0      8108        37 |   2  42    0    0  c0f |    2.807       0       5       0       5     42     42      0   7956     189       2  42    0 c0f a70f      9.240 "
test,1583577274802531072,24," | 24  |   8207       5   8201       2 |   5    0      8104        99 |   2  42    0    0  c0f |    2.807       0       5       0       5     42     42      0   7900     303       2  42    0 c0f a70f      8.940 "
test,1583577274802684928,26," | 26  |   8207       5   8201       2 |   5    0      8171        32 |   2  42    0    0  c0f |    2.777       0       5       0       5     42     42      0   8024     179       2  42    0 c0f a70f      9.000 "
test,1583577274809547008,27," | 27  |   8207       5   8205       0 |   5    0      7967       238 |   3  42    0    0  c0f |    3.479       0       5       0       5     42     42      0   7653     552       3  42    0 c0f a70f      9.690 "
test,1583577274803261952,28," | 28  |   8207       4   8195       8 |   5    0      7551       652 |   3  42    0    0  c0f |    2.746       0       5       0       5     42     42      0   7225     978       2  42    0 c0f a70f      9.690 "
test,1583577274821292032,29," | 29  |   8207       3   8191      14 |   0    2      7264       941 |   0  29   42    1 300f |    0           0       0       0       8      0      0      0   6912    1293       0  29    1300f a70f     30.180 "
test,1583577274804811008,30," | 30  |   8207       5   8199       4 |   5    0      8090       113 |   2  42    0    0  c0f |    2.807       0       5       0       5     42     42      0   7790     413       2  42    0 c0f a70f     10.470 "
test,1583577274808192000,35," | 35  |   8207       5   8199       4 |   5    0      7812       391 |   2  42    0    0  c0f |    2.807       0       5       0       5     42     42      0   7629     574       2  42    0 c0f a70f     11.040 "
test,1583577274805337856,40," | 40  |   8207       5   8124      75 |   4    3      7733       466 |   4  42   46    0  c0f |    2.044       0       5       0       5     42     42      0   7535     664       1  42    0 c0f a70f      8.220 "
test,1583577274822305024,41," | 41  |   8207       5   8133      60 |   5    1      8117        76 |   3  42   46    0  c0f |    2.777       0       3       0       3     42     42      0   7931     262       2  42    0 c0f a70f     30.390 "
test,1583577274804569856,42," | 42  |   8207       5   8136      67 |   5    0      8057       146 |   3  42    0    1  c0f |    3.204       0       4       0       4     42     42      0   7888     315       4  42    1 c0f a70f      7.920 "
test,1583577274805878016,44," | 44  |   8207       5   8145      58 |   5    0      8056       147 |   2  42    0    0  c0f |    2.777       0       5       0       5     42     42      0   7897     306       2  42    0 c0f a70f     10.320 "
test,1583577274806878208,45," | 45  |   8207       5   8159      44 |   5    0      7953       250 |   1  42    0    0  c0f |    2.075       0       5       0       5     42     42      0   7811     392       1  42    0 c0f a70f      8.280 "
test,1583577274821508864,46," | 46  |   8207       5   8138      58 |   0    6      7802       394 |   0  46   42    1 160f |    0           0       0       0       8      0      0      0   7679     517       0  46    1160f a70f     30.180 "
test,1583577274806226944,47," | 47  |   8207       5   8145      58 |   5    0      7949       254 |   1  42    0    0  c0f |    2.075       0       5       0       5     42     42      0   7810     393       1  42    0 c0f a70f      8.310 "
test,1583577274811790080,48," | 48  |   8207       5   8081      55 |   5    0      7971       165 |   3  42    0    0  c0f |    2.044       0       5       0       5     42     42      0   7818     318       1  42    0 c0f a70f      8.280 "
test,1583577274799489024,49," | 49  |   8207       5   8197       0 |   4    0      8041       156 |   2  49    0    1 bb0f |    1.739       0       4       0       4     49     49      0   7982     215       2  49    1bb0f a70f      6.480 "
test,1583577274798854144,51," | 51  |   8207       5   8198       0 |   5    0      8105        93 |   1  13    0    0 e00f |    2.044       0       5       0       5     13     13      0   8077     121       1  13    0e00f a70f      8.190 "
test,1583577274822487040,52," | 52  |   8207       5   8168      31 |   2    0      7794       405 |   7  42    0    0  c0f |    4.974       0       3       0       3     42     42      0   7655     544       5  42    0 c0f a70f     30.300 "
test,1583577274800623872,53," | 53  |   8207       5   8181       0 |   5    0      7778       403 |   1  49    0    0 bb0f |    1.983       0       5       0       5     49     49      0   7694     487       1  49    0bb0f a70f      8.220 "
test,1583577274802948864,54," | 54  |   8207       5   8199       0 |   5    0      8062       137 |   1  13    0    0 e00f |    2.014       0       5       0       5     13     13      0   7925     274       1  13    0e00f a70f      8.910 "
test,1583577274819820800,55," | 55  |   8207       5   8186       0 |   0    4      7879       307 |   0  55   13    1 dc0f |    0           0       0       0       8      0      0      0   7809     377       0  55    1dc0f a70f     30.150 "
test,1583577274801177088,56," | 56  |   8207       5   8189       0 |   5    0      8066       123 |   2  13    0    0 e00f |    2.044       0       5       0       5     13     13      0   7967     222       1  13    0e00f a70f      8.820 "
test,1583577274823191808,57," | 57  |   8207       5   8144       0 |   1    2      7924       220 |   2  42   13    0  c0f |    3.540       0       2       0       2     42     42      0   7428     716       3  42    0 c0f a70f     30.390 "
test,1583577274821816064,58," | 58  |   8207       5   8198       0 |   5    0      8086       112 |   3  13    0    0 e00f |    2.777       0       4       0       4     13     13      0   7756     442       2  13    0e00f a70f     30.390 "
test,1583577274801649152,5," |  5  |   8207       5   8205       0 |   5    0      7450       755 |   1  13    0    0 e00f |    2.014       0       5       0       5     13     13      0   7313     892       1  13    0e00f a70f      8.220 "
test,1583577274800376832,60," | 60  |   8207       5   8198       0 |   4    0      7660       538 |   4  13    0    0 e00f |    2.777       0       5       0       5     13     13      0   7498     700       2  13    0e00f a70f      8.850 "
test,1583577274807117824,61," | 61  |   8207       5   8190       7 |   5    0      7828       369 |   3  13    0    0 e00f |    3.509       0       5       0       5     13     13      0   7550     647       3  13    0e00f a70f      9.720 "
test,1583577274803649792,7," |  7  |   8207       5   8204       0 |   5    0      8083       121 |   1  13    0    0 e00f |    2.044       0       5       0       5     13     13      0   8026     178       1  13    0e00f a70f      8.280 "
test,1583577274802241024,9," |  9  |   8207       5   8203       0 |   5    0      7935       268 |   1  13    0    0 e00f |    2.044       0       5       0       5     13     13      0   7893     310       1  13    0e00f a70f      9.690 "
