test,1583577241303278848,10," | 10  |   8073       5   8045       0 |   5    0      7920       125 |   4   1    0    0 e90f |    1.373       0       5       0       5      1      1      0   7832     213       1   1    0e90f a70f      7.530 "
test,1583577241303508992,12," | 12  |   8073       5   8037      34 |   5    0      7988        83 |   4   1    0    0 e90f |    1.342       0       5       0       5      1      1      0   7849     222       1   1    0e90f a70f      8.310 "
test,1583577241299516928,13," | 13  |   8073       5   8069       0 |   5    0      8007        62 |   4   1    0    0 e90f |    1.342       0       5       0       5      1      1      0   7926     143       1   1    0e90f a70f      7.440 "
test,1583577241308764928,15," | 15  |   8073       5   8028      43 |   5    0      7742       329 |   5   1    0    0 e90f |    2.075       0       5       0       5      1      1      0   7374     697       2   1    0e90f a70f      9.030 "
test,1583577241302619904,16," | 16  |   8073       5   8069       0 |   5    0      7764       305 |   3  29    0    0 480f |    4.241       0       5       0       5     29     29      0   7561     508       4  29    0480f a70f     10.440 "
test,1583577241301872896,17," | 17  |   8073       5   8058      11 |   5    0      7962       107 |   2  29    0    0 480f |    2.746       0       5       0       5     29     29      0   7723     346       2  29    0480f a70f      9.000 "
test,1583577241306979840,18," | 18  |   8073       5   8068       0 |   5    0      7628       440 |   3  29    0    0 480f |    3.479       0       5       0       5     29     29      0   7323     745       3  29    0480f a70f      9.660 "
test,1583577241321443072,19," | 19  |   8073       5   8054      15 |   5    0      7912       157 |   1  29    0    0 480f |    2.014       0       4       0       4     29     29      0   7695     374       1  29    0480f a70f     30.360 "
test,1583577241297408000,1," |  1  |   8073       4   8070       0 |   4    0      7858       212 |   5   1    0    1 e90f |    1.739       0       4       0       4      1      1      0   7805     265       2   1    1e90f a70f      6.480 "
test,1583577241303923968,22," | 22  |   8073       5   8067       0 |   5    0      7999        68 |   5  29    0    0 480f |    3.509       0       5       0       5     29     29      0   7650     417       3  29    0480f a70f      9.540 "
test,1583577241302806016,23," | 23  |   8073       5   8011       0 |   5    0      7975        36 |   4  29    0    0 480f |    3.540       0       5       0       5     29     29      0   7824     187       3  29    0480f a70f      9.690 "
test,1583577241305381120,24," | 24  |   8073       5   8067       2 |   5    0      7975        94 |   2  29    0    0 480f |    2.777       0       5       0       5     29     29      0   7774     295       2  29    0480f a70f      8.820 "
test,1583577241304809216,26," | 26  |   8073       5   8067       2 |   5    0      8037        32 |   2  29    0    0 480f |    3.540       0       5       0       5     29     29      0   7891     178       3  29    0480f a70f      9.690 "
test,1583577241306034944,27," | 27  |   8073       5   8071       0 |   5    0      7834       237 |   1  29    0    0 480f |    2.075       0       5       0       5     29     29      0   7522     549       1  29    0480f a70f      8.940 "
test,1583577241307699968,28," | 28  |   8073       5   8061       8 |   4    1      7432       637 |   2  35   29    0 240f |    2.044       0       5       0       5     35     35      0   7109     960       1  35    0240f a70f      8.910 "
test,1583577241302939904,29," | 29  |   8073       5   8058      13 |   4    0      7147       924 |   2  29    0    1 480f |    1.739       0       4       0       4     29     29      0   6798    1273       2  29    1480f a70f      7.200 "
test,1583577241299788032,30," | 30  |   8073       5   8066       3 |   5    0      7958       111 |   1  35    0    0 240f |    2.014       0       5       0       5     35     35      0   7659     410       1  35    0240f a70f      8.220 "
test,1583577241299968000,35," | 35  |   8073       5   8066       3 |   5    0      7683       386 |   2  35    0    1 240f |    1.770       0       4       0       4     35     35      0   7500     569       2  35    1240f a70f      6.510 "
test,1583577241301677824,40," | 40  |   8073       5   7991      74 |   5    0      7608       457 |   3  29    0    0 480f |    3.540       0       5       0       5     29     29      0   7412     653       3  29    0480f a70f      9.690 "
test,1583577241304398080,41," | 41  |   8073       5   8000      59 |   5    0      7984        75 |   3  29    0    0 480f |    3.509       0       5       0       5     29     29      0   7801     258       3  29    0480f a70f     11.880 "
test,1583577241309273088,42," | 42  |   8073       5   8003      66 |   5    0      7924       145 |   3  29    0    0 480f |    4.272       0       5       0       5     29     29      0   7756     313       4  29    0480f a70f     11.790 "
test,1583577241303729152,44," | 44  |   8073       5   8012      57 |   5    0      7922       147 |   3  29    0    0 480f |    4.974       0       5       0       5     29     29      0   7765     304       5  29    0480f a70f     10.980 "
test,1583577241302329088,45," | 45  |   8073       5   8026      43 |   5    0      7823       246 |   4  29    0    0 480f |    4.211       0       5       0       5     29     29      0   7685     384       4  29    0480f a70f     10.380 "
test,1583577241311378944,46," | 46  |   8073       5   8005      57 |   5    0      7677       385 |   4  29    0    0 480f |    4.241       0       5       0       5     29     29      0   7554     508       4  29    0480f a70f     10.350 "
test,1583577241305713920,47," | 47  |   8073       5   8012      57 |   5    0      7819       250 |   6  29    0    0 480f |    4.241       0       5       0       5     29     29      0   7681     388       4  29    0480f a70f     10.260 "
test,1583577241304977920,48," | 48  |   8073       5   7947      55 |   5    0      7840       162 |   4  29    0    0 480f |    4.241       0       5       0       5     29     29      0   7690     312       4  29    0480f a70f     10.350 "
test,1583577241298896128,49," | 49  |   8073       5   8063       0 |   5    0      7908       155 |   1  53    0    0 5b0f |    2.014       0       5       0       5     53     53      0   7849     214       1  53    05b0f a70f      8.220 "
test,1583577241299357952,51," | 51  |   8073       5   8064       0 |   5    0      7974        90 |   5   1    0    0 e90f |    1.342       0       5       0       5      1      1      0   7946     118       1   1    0e90f a70f      7.590 "
test,1583577241320226048,52," | 52  |   8073       5   8034      31 |   5    0      7666       399 |   2  29    0    0 480f |    2.777       0       4       0       4     29     29      0   7528     537       2  29    0480f a70f     30.240 "
test,1583577241301251840,53," | 53  |   8073       5   8047       0 |   4    0      7644       403 |   8  53    0    1 5b0f |    1.739       0       4       0       4     53     53      0   7560     487       2  53    15b0f a70f      6.480 "
test,1583577241323003904,54," | 54  |   8073       5   8065       0 |   1    9      7930       135 |   1  61    1    0 680f |   10.101       0       2       0       2     61     61      0   7795     270      12  61    0680f a70f     30.390 "
test,1583577241300205824,55," | 55  |   8073       5   8052       0 |   5    0      7750       302 |   1  53    0    0 5b0f |    2.014       0       5       0       5     53     53      0   7679     373       1  53    05b0f a70f      8.100 "
test,1583577241301063936,56," | 56  |   8073       5   8055       0 |   1   10      7935       120 |   1  61    1    0 680f |    2.777       0       5       0       5     61     61      0   7837     218       2  61    0680f a70f      8.970 "
test,1583577241306201856,57," | 57  |   8073       5   8010       0 |   2    6      7798       212 |   1  61   29    0 680f |    2.014       0       5       0       5     61     61      0   7310     700       1  61    0680f a70f      8.250 "
test,1583577241305191936,58," | 58  |   8073       5   8064       0 |   1    1      7954       110 |   1  61   53    0 680f |    2.014       0       5       0       5     61     61      0   7626     438       1  61    0680f a70f     11.100 "
test,1583577241297142016,5," |  5  |   8073       5   8071       0 |   5    0      7329       742 |   5   1    0    0 e90f |    2.044       0       5       0       5      1      1      0   7193     878       2   1    0e90f a70f      8.280 "
test,1583577241321083136,60," | 60  |   8073       5   8064       0 |   1    6      7535       529 |   2  61    1    0 680f |    2.777       0       4       0       4     61     61      0   7373     691       2  61    0680f a70f     30.240 "
test,1583577241302078976,61," | 61  |   8073       5   8056       7 |   1    0      7697       366 |   4  61    0    1 680f |    1.739       0       4       0       4     61     61      0   7425     638       2  61    1680f a70f      7.230 "
test,1583577241297904128,7," |  7  |   8073       5   8070       0 |   5    0      7949       121 |   4   1    0    0 e90f |    1.373       0       5       0       5      1      1      0   7893     177       1   1    0e90f a70f      7.530 "
test,1583577241298612992,9," |  9  |   8073       5   8069       0 |   5    0      7807       262 |   4   1    0    0 e90f |    1.342       0       5       0       5      1      1      0   7767     302       1   1    0e90f a70f      7.530 "
