test,1583577443054755072,10," | 10  |   8880       5   8852       0 |   5    0      8717       135 |   1   9    0    0 980f |    2.014       0       5       0       5      9      9      0   8625     227       1   9    0980f a70f      8.130 "
test,1583577443056581120,12," | 12  |   8880       5   8844      34 |   5    0      8788        90 |   2   9    0    0 980f |    2.014       0       5       0       5      9      9      0   8641     237       1   9    0980f a70f      8.970 "
test,1583577443054286848,13," | 13  |   8880       5   8876       0 |   5    0      8806        70 |   2   9    0    0 980f |    2.014       0       5       0       5      9      9      0   8722     154       1   9    0980f a70f      8.940 "
test,1583577443075825920,15," | 15  |   8880       5   8835      43 |   5    0      8503       375 |   3   9    0    0 980f |    2.777       0       4       0       4      9      9      0   8112     766       2   9    0980f a70f     30.390 "
test,1583577443059449856,16," | 16  |   8880       5   8876       0 |   5    0      8525       351 |   2  24    0    0 7e0f |    2.777       0       5       0       5     24     24      0   8303     573       2  24    07e0f a70f      8.850 "
test,1583577443053302016,17," | 17  |   8880       5   8865      11 |   5    0      8757       119 |   1  24    0    0 7e0f |    2.044       0       5       0       5     24     24      0   8508     368       1  24    07e0f a70f      8.310 "
test,1583577443053967872,18," | 18  |   8880       5   8875       0 |   5    0      8391       484 |   1  24    0    0 7e0f |    2.014       0       5       0       5     24     24      0   8064     811       1  24    07e0f a70f      8.250 "
test,1583577443057133824,19," | 19  |   8880       5   8859      17 |   5    0      8702       174 |   1  24    0    0 7e0f |    2.777       0       5       0       5     24     24      0   8463     413       2  24    07e0f a70f      9.000 "
test,1583577443052126976,1," |  1  |   8880       4   8877       0 |   5    0      8634       243 |   1   9    0    0 980f |    2.716       0       5       0       5      9      9      0   8579     298       1   9    0980f a70f      8.940 "
test,1583577443052524032,22," | 22  |   8880       5   8874       0 |   5    0      8801        73 |   1  24    0    0 7e0f |    2.014       0       5       0       5     24     24      0   8429     445       1  24    07e0f a70f      8.250 "
test,1583577443063888128,23," | 23  |   8880       5   8818       0 |   5    0      8780        38 |   1  24    0    0 7e0f |    2.777       0       5       0       5     24     24      0   8617     201       2  24    07e0f a70f      8.880 "
test,1583577443053056000,24," | 24  |   8880       5   8874       2 |   4    0      8764       112 |   2  24    0    1 7e0f |    1.739       0       4       0       4     24     24      0   8543     333       2  24    17e0f a70f      6.480 "
test,1583577443052828928,26," | 26  |   8880       5   8874       2 |   5    0      8841        35 |   1  24    0    0 7e0f |    2.014       0       5       0       5     24     24      0   8688     188       1  24    07e0f a70f      8.250 "
test,1583577443077888000,27," | 27  |   8880       5   8878       0 |   1    3      8620       258 |  20  27   24    1  10f |   10.253       0       2       0       2     27     27      0   8284     594      14  27    1 10f a70f     30.270 "
test,1583577443076829952,28," | 28  |   8880       5   8868       8 |   5    0      8181       695 |   2  24    0    0 7e0f |    3.479       0       4       0       4     24     24      0   7827    1049       3  24    07e0f a70f     30.240 "
test,1583577443060386048,29," | 29  |   8880       5   8863      15 |   5    0      7863      1015 |   4  27    0    0  10f |    2.014       0       5       0       5     27     27      0   7486    1392       1  27    0 10f a70f     12.300 "
test,1583577443060708096,30," | 30  |   8880       5   8872       4 |   5    0      8757       119 |   2  24    0    0 7e0f |    2.746       0       5       0       5     24     24      0   8434     442       2  24    07e0f a70f      9.480 "
test,1583577443055104000,35," | 35  |   8880       5   8872       4 |   5    0      8462       414 |   2  24    0    0 7e0f |    2.746       0       5       0       5     24     24      0   8266     610       2  24    07e0f a70f      8.940 "
test,1583577443074938112,40," | 40  |   8880       5   8790      82 |   0    4      8353       519 |   0  40   44    1 400f |    0           0       0       0       8      0      0      0   8133     739       0  40    1400f a70f     30.150 "
test,1583577443072880128,41," | 41  |   8880       5   8800      66 |   0    5      8775        91 |   0  41   44    1 590f |    0           0       0       0       8      0      0      0   8575     291       0  41    1590f a70f     30.180 "
test,1583577443072582912,42," | 42  |   8880       5   8803      73 |   2    5      8712       164 |   1  48   44    0 520f |    0           0       0       0       8      0      0      0   8522     354       0  48    0520f a70f     30.390 "
test,1583577443078409984,44," | 44  |   8880       5   8812      64 |   4    4      8712       164 |   5  44   48    1 8b0f |    3.814       0       2       0       2     44     44      0   8538     338       5  44    18b0f a70f     30.300 "
test,1583577443076051968,45," | 45  |   8880       5   8829      47 |   5    6      8602       274 |   1  44   24    0 8b0f |    2.014       0       4       0       4     44     44      0   8441     435       1  44    08b0f a70f     30.390 "
test,1583577443073281024,46," | 46  |   8880       5   8806      63 |   0    5      8445       424 |   0  46   44    1 b50f |    0           0       0       0       8      0      0      0   8303     566       0  46    1b50f a70f     30.120 "
test,1583577443073522944,47," | 47  |   8880       5   8811      65 |   0    5      8599       277 |   0  47   44    1 700f |    0           0       0       0       8      0      0      0   8440     436       0  47    1700f a70f     30.150 "
test,1583577443073723136,48," | 48  |   8880       5   8748      61 |   1    5      8631       178 |   2  48   44    1 520f |    0           0       0       0       8      0      0      0   8460     349       0  48    1520f a70f     30.210 "
test,1583577443055609088,49," | 49  |   8880       5   8870       0 |   5    0      8700       170 |   3   9    0    0 980f |    3.479       0       5       0       5      9      9      0   8640     230       3   9    0980f a70f      9.630 "
test,1583577443057626112,51," | 51  |   8880       5   8871       0 |   5    0      8771       100 |   2   9    0    0 980f |    2.746       0       5       0       5      9      9      0   8738     133       2   9    0980f a70f      8.880 "
test,1583577443056092928,52," | 52  |   8880       1   8839      33 |   2    0      8431       441 |   1  24    0    0 7e0f |    2.777       0       5       0       5     24     24      0   8282     590       2  24    07e0f a70f      8.820 "
test,1583577443058594816,53," | 53  |   8880       5   8854       0 |   5    0      8417       437 |   4   9    0    0 980f |    4.211       0       5       0       5      9      9      0   8329     525       4   9    0980f a70f     10.380 "
test,1583577443053510912,54," | 54  |   8880       5   8872       0 |   5    0      8725       147 |   1   9    0    0 980f |    2.014       0       5       0       5      9      9      0   8582     290       1   9    0980f a70f      8.100 "
test,1583577443056418048,55," | 55  |   8880       5   8859       0 |   5    0      8531       328 |   3   9    0    0 980f |    3.479       0       5       0       5      9      9      0   8453     406       3   9    0980f a70f      9.540 "
test,1583577443054430976,56," | 56  |   8880       5   8862       0 |   5    0      8732       130 |   2   9    0    0 980f |    2.777       0       5       0       5      9      9      0   8626     236       2   9    0980f a70f      9.000 "
test,1583577443061894912,57," | 57  |   8880       5   8817       0 |   1    3      8582       235 |   2  24    9    0 7e0f |    2.807       0       5       0       5     24     24      0   8043     774       2  24    07e0f a70f      8.880 "
test,1583577443059634944,58," | 58  |   8880       5   8871       0 |   4    0      8749       122 |   2   9    0    0 980f |    2.746       0       5       0       5      9      9      0   8391     480       2   9    0980f a70f      9.600 "
test,1583577443056775168,5," |  5  |   8880       4   8878       0 |   5    0      8061       817 |   3   9    0    0 980f |    2.777       0       5       0       5      9      9      0   7917     961       2   9    0980f a70f      8.970 "
test,1583577443056945152,60," | 60  |   8880       5   8871       0 |   5    0      8284       587 |   3   9    0    0 980f |    3.540       0       5       0       5      9      9      0   8107     764       3   9    0980f a70f      9.690 "
test,1583577443055803904,61," | 61  |   8880       5   8863       7 |   5    0      8464       406 |   3   9    0    0 980f |    2.777       0       5       0       5      9      9      0   8160     710       2   9    0980f a70f      8.850 "
test,1583577443053769984,7," |  7  |   8880       5   8877       0 |   5    0      8751       126 |   1   9    0    0 980f |    2.044       0       5       0       5      9      9      0   8691     186       1   9    0980f a70f      8.280 "
test,1583577443052316928,9," |  9  |   8880       5   8876       0 |   4    0      8592       284 |   2   9    0    1 980f |    1.739       0       4       0       4      9      9      0   8549     327       2   9    1980f a70f      6.510 "
