test,1583577240304094976,10," | 10  |   8069       5   8041       0 |   5    0      7916       125 |   2  60    0    0 710f |    2.746       0       5       0       5     60     60      0   7829     212       2  60    0710f a70f      8.970 "
test,1583577240298336000,12," | 12  |   8069       5   8033      34 |   2    3      7985        82 |   2  55   60    0 710f |    2.807       0       4       1       5     55     55      0   7845     222       2  55    0710f a70f     10.230 "
test,1583577240300890880,13," | 13  |   8069       5   8065       0 |   5    0      8003        62 |   2  60    0    0 710f |    2.746       0       5       0       5     60     60      0   7922     143       2  60    0710f a70f      9.570 "
test,1583577240304354816,15," | 15  |   8069       5   8024      43 |   2    0      7738       329 |   3  55    0    0 710f |    3.479       0       4       1       5     55     55      0   7371     696       3  55    0710f a70f     10.980 "
test,1583577240294964992,16," | 16  |   8069       5   8065       0 |   5    0      7760       305 |   2  17    0    0 e90f |    2.746       0       5       0       5     17     17      0   7557     508       2  17    0e90f a70f      8.940 "
test,1583577240302984960,17," | 17  |   8069       5   8054      11 |   4    0      7958       107 |   4  17    0    1 e90f |    1.739       0       4       0       4     17     17      0   7720     345       2  17    1e90f a70f      8.640 "
test,1583577240320589056,18," | 18  |   8069       5   8064       0 |   5    0      7624       440 |   5  17    0    0 e90f |    2.716       0       4       0       4     17     17      0   7320     744       2  17    0e90f a70f     30.360 "
test,1583577240322254848,19," | 19  |   8069       5   8050      15 |   5    0      7908       157 |   1  17    0    0 e90f |    2.777       0       4       0       4     17     17      0   7692     373       2  17    0e90f a70f     30.330 "
test,1583577240305326848,1," |  1  |   8069       4   8066       0 |   5    0      7855       211 |   2  60    0    0 710f |    3.417       0       5       0       5     60     60      0   7802     264       2  60    0710f a70f      9.480 "
test,1583577240319969024,22," | 22  |   8069       5   8063       0 |   0    7      7995        68 |   0  22   17    1 180f |    0           0       0       0       8      0      0      0   7647     416       0  22    1180f a70f     30.210 "
test,1583577240306663936,23," | 23  |   8069       5   8007       0 |   5    0      7971        36 |   1  17    0    0 e90f |    2.777       0       5       0       5     17     17      0   7820     187       2  17    0e90f a70f      9.600 "
test,1583577240301259008,24," | 24  |   8069       5   8063       2 |   5    0      7971        94 |   1  17    0    0 e90f |    2.746       0       5       0       5     17     17      0   7771     294       2  17    0e90f a70f      9.690 "
test,1583577240318723840,26," | 26  |   8069       5   8063       2 |   5    0      8033        32 |   1  17    0    0 e90f |    2.014       0       4       0       4     17     17      0   7888     177       1  17    0e90f a70f     30.240 "
test,1583577240321582080,27," | 27  |   8069       5   8067       0 |   5    0      7830       237 |   1  17    0    0 e90f |    3.448       0       4       0       4     17     17      0   7518     549       3  17    0e90f a70f     30.360 "
test,1583577240322045184,28," | 28  |   8069       4   8057       8 |   1    8      7428       637 |   1  17   22    0 e90f |   10.070       0       1       0       1     17     17      0   7105     960      12  17    0e90f a70f     30.390 "
test,1583577240322729216,29," | 29  |   8069       5   8054      13 |   5    0      7143       924 |   2  17    0    0 e90f |    3.448       0       2       0       2     17     17      0   6794    1273       3  17    0e90f a70f     30.390 "
test,1583577240310290944,30," | 30  |   8069       5   8062       3 |   5    0      7954       111 |   1  35    0    0 780f |    2.075       0       5       0       5     35     35      0   7655     410       1  35    0780f a70f      8.280 "
test,1583577240298490880,35," | 35  |   8069       5   8062       3 |   5    0      7679       386 |   2  35    0    1 780f |    1.770       0       4       0       4     35     35      0   7496     569       2  35    1780f a70f      6.510 "
test,1583577240302331904,40," | 40  |   8069       5   7987      74 |   5    0      7604       457 |   2  17    0    0 e90f |    4.211       0       5       0       5     17     17      0   7408     653       4  17    0e90f a70f     10.410 "
test,1583577240309472000,41," | 41  |   8069       5   7996      59 |   5    0      7980        75 |   1  17    0    0 e90f |    1.983       0       5       0       5     17     17      0   7797     258       1  17    0e90f a70f      8.940 "
test,1583577240302732032,42," | 42  |   8069       5   8000      65 |   5    0      7920       145 |   2  17    0    0 e90f |    3.479       0       5       0       5     17     17      0   7752     313       3  17    0e90f a70f      9.540 "
test,1583577240303661056,44," | 44  |   8069       5   8008      57 |   5    0      7918       147 |   2  17    0    0 e90f |    3.448       0       5       0       5     17     17      0   7761     304       3  17    0e90f a70f      9.690 "
test,1583577240305152000,45," | 45  |   8069       5   8022      43 |   5    0      7819       246 |   2  17    0    0 e90f |    2.746       0       5       0       5     17     17      0   7681     384       2  17    0e90f a70f      8.850 "
test,1583577240300719872,46," | 46  |   8069       5   8001      57 |   5    0      7673       385 |   2  17    0    0 e90f |    2.746       0       5       0       5     17     17      0   7550     508       2  17    0e90f a70f      8.850 "
test,1583577240311016192,47," | 47  |   8069       5   8008      57 |   5    0      7815       250 |   2  17    0    0 e90f |    2.777       0       5       0       5     17     17      0   7677     388       2  17    0e90f a70f      8.970 "
test,1583577240302576128,48," | 48  |   8069       5   7943      55 |   5    0      7836       162 |   3  17    0    0 e90f |    4.913       0       5       0       5     17     17      0   7686     312       5  17    0e90f a70f     10.950 "
test,1583577240299709184,49," | 49  |   8069       5   8059       0 |   5    0      7904       155 |   1  55    0    0 710f |    2.014       0       5       0       5     55     55      0   7845     214       1  55    0710f a70f      8.850 "
test,1583577240299119104,51," | 51  |   8069       5   8060       0 |   5    0      7970        90 |   1  60    0    0 710f |    2.014       0       5       0       5     60     60      0   7942     118       1  60    0710f a70f      8.100 "
test,1583577240305694208,52," | 52  |   8069       5   8030      31 |   3    0      7662       399 |   3  17    0    0 e90f |    2.746       0       5       0       5     17     17      0   7524     537       2  17    0e90f a70f      9.570 "
test,1583577240298929920,53," | 53  |   8069       5   8043       0 |   5    0      7640       403 |   1  55    0    0 710f |    2.014       0       5       0       5     55     55      0   7556     487       1  55    0710f a70f      8.130 "
test,1583577240304903936,54," | 54  |   8069       5   8061       0 |   1    7      7926       135 |   2  55   60    0 710f |    2.807       0       1       4       5     55     55      0   7791     270       2  55    0710f a70f      8.940 "
test,1583577240298046208,55," | 55  |   8069       5   8048       0 |   5    0      7746       302 |   2  55    0    1 710f |    1.739       0       4       0       4     55     55      0   7675     373       2  55    1710f a70f      6.510 "
test,1583577240301707008,56," | 56  |   8069       5   8051       0 |   5    0      7931       120 |   1  60    0    0 710f |    2.014       0       5       0       5     60     60      0   7833     218       1  60    0710f a70f      8.220 "
test,1583577240320836096,57," | 57  |   8069       5   8006       0 |   5    0      7794       212 |   2  60    0    0 710f |    2.716       0       3       0       3     60     60      0   7307     699       2  60    0710f a70f     30.390 "
test,1583577240300177152,58," | 58  |   8069       5   8060       0 |   5    0      7950       110 |   1  55    0    0 710f |    1.983       0       3       2       5     55     55      0   7622     438       1  55    0710f a70f      8.880 "
test,1583577240304680192,5," |  5  |   8069       5   8067       0 |   4    0      7325       742 |   3  60    0    0 710f |    3.448       0       4       1       5     60     60      0   7189     878       3  60    0710f a70f     10.200 "
test,1583577240297810944,60," | 60  |   8069       5   8060       0 |   5    0      7531       529 |   2  60    0    1 710f |    1.739       0       4       0       4     60     60      0   7369     691       2  60    1710f a70f      6.480 "
test,1583577240310551808,61," | 61  |   8069       5   8052       7 |   5    0      7693       366 |   2  55    0    0 710f |    2.807       0       1       4       5     55     55      0   7421     638       2  55    0710f a70f      8.910 "
test,1583577240300525056,7," |  7  |   8069       5   8066       0 |   5    0      7945       121 |   2  60    0    0 710f |    2.716       0       5       0       5     60     60      0   7889     177       2  60    0710f a70f      8.940 "
test,1583577240301438976,9," |  9  |   8069       5   8065       0 |   5    0      7803       262 |   3  60    0    0 710f |    3.479       0       5       0       5     60     60      0   7763     302       3  60    0710f a70f      9.690 "
