test,1583577226301811968,10," | 10  |   8013       5   7985       0 |   1    5      7860       125 |   1  13   58    0  a0f |    2.044       0       5       0       5     13     13      0   7773     212       1  13    0 a0f a70f      9.000 "
test,1583577226306739200,12," | 12  |   8013       5   7977      34 |   5    0      7930        81 |   2  13    0    0  a0f |    2.777       0       5       0       5     13     13      0   7790     221       2  13    0 a0f a70f      8.970 "
test,1583577226298535936,13," | 13  |   8013       5   8009       0 |   4    1      7947        62 |   2  13   58    1  a0f |    1.739       0       4       0       4     13     13      0   7866     143       2  13    1 a0f a70f      6.480 "
test,1583577226302433024,15," | 15  |   8013       5   7968      43 |   5    0      7683       328 |   1  13    0    0  a0f |    3.540       0       5       0       5     13     13      0   7317     694       3  13    0 a0f a70f      9.750 "
test,1583577226302746112,16," | 16  |   8013       5   8009       0 |   5    0      7707       302 |   2  18    0    0 4a0f |    3.479       0       5       0       5     18     18      0   7506     503       3  18    04a0f a70f      9.720 "
test,1583577226305319936,17," | 17  |   8013       5   7998      11 |   5    0      7902       107 |   2  18    0    0 4a0f |    2.807       0       5       0       5     18     18      0   7665     344       2  18    04a0f a70f      8.970 "
test,1583577226298310144,18," | 18  |   8013       5   8008       0 |   5    0      7574       434 |   2  18    0    1 4a0f |    1.739       0       4       0       4     18     18      0   7269     739       2  18    14a0f a70f      6.510 "
test,1583577226307116032,19," | 19  |   8013       5   7994      15 |   4    2      7853       156 |   3  18   29    0 4a0f |    2.777       0       5       0       5     18     18      0   7637     372       2  18    04a0f a70f     10.440 "
test,1583577226300476160,1," |  1  |   8013       4   8010       0 |   5    0      7799       211 |   1  13    0    0  a0f |    2.746       0       5       0       5     13     13      0   7746     264       1  13    0 a0f a70f      8.910 "
test,1583577226299185920,22," | 22  |   8013       5   8007       0 |   5    0      7940        67 |   1  18    0    0 4a0f |    2.044       0       5       0       5     18     18      0   7592     415       1  18    04a0f a70f      8.250 "
test,1583577226306219008,23," | 23  |   8013       5   7951       0 |   5    0      7915        36 |   3  18    0    0 4a0f |    2.777       0       5       0       5     18     18      0   7764     187       2  18    04a0f a70f      9.000 "
test,1583577226297619968,24," | 24  |   8013       5   8007       2 |   5    0      7918        91 |   1  18    0    0 4a0f |    2.075       0       5       0       5     18     18      0   7719     290       1  18    04a0f a70f      8.220 "
test,1583577226298945024,26," | 26  |   8013       5   8007       2 |   5    0      7977        32 |   1  18    0    0 4a0f |    2.075       0       5       0       5     18     18      0   7833     176       1  18    04a0f a70f      9.030 "
test,1583577226300973824,27," | 27  |   8013       5   8011       0 |   5    0      7774       237 |   4  18    0    0 4a0f |    3.540       0       5       0       5     18     18      0   7463     548       3  18    04a0f a70f      9.720 "
test,1583577226306056960,28," | 28  |   8013       5   8001       8 |   4    0      7379       630 |   3  18    0    0 4a0f |    3.540       0       5       0       5     18     18      0   7058     951       3  18    04a0f a70f      9.750 "
test,1583577226319750912,29," | 29  |   8013       5   7998      13 |   0    6      7094       917 |   0  29   18    1 580f |    0           0       0       0       8      0      0      0   6746    1265       0  29    1580f a70f     30.210 "
test,1583577226304979968,30," | 30  |   8013       5   8006       3 |   5    0      7898       111 |   2  18    0    0 4a0f |    2.777       0       5       0       5     18     18      0   7602     407       2  18    04a0f a70f     10.440 "
test,1583577226302040064,35," | 35  |   8013       5   8006       3 |   5    0      7626       383 |   2  18    0    0 4a0f |    2.777       0       5       0       5     18     18      0   7445     564       2  18    04a0f a70f     11.160 "
test,1583577226321604864,40," | 40  |   8013       5   7931      74 |   4    0      7550       455 |   2  42    0    0 3a0f |    2.044       0       3       0       3     42     42      0   7356     649       1  42    03a0f a70f     30.390 "
test,1583577226320638976,41," | 41  |   8013       5   7940      59 |   3    0      7927        72 |   1  42    0    0 3a0f |    2.075       0       3       0       3     42     42      0   7744     255       1  42    03a0f a70f     30.390 "
test,1583577226323648000,42," | 42  |   8013       5   7947      62 |   3    0      7864       145 |   2  42    0    1 3a0f |    1.739       0       2       0       2     42     42      0   7699     310       2  42    13a0f a70f     30.300 "
test,1583577226322124032,44," | 44  |   8013       5   7952      57 |   4    0      7864       145 |   2  42    0    0 3a0f |    2.075       0       3       0       3     42     42      0   7708     301       1  42    03a0f a70f     30.360 "
test,1583577226321233920,45," | 45  |   8013       5   7966      43 |   4    0      7765       244 |   3  42    0    0 3a0f |    2.075       0       3       0       3     42     42      0   7628     381       1  42    03a0f a70f     30.270 "
test,1583577226322500864,46," | 46  |   8013       5   7945      57 |   4    0      7618       384 |   1  42    0    0 3a0f |    2.044       0       3       0       3     42     42      0   7495     507       1  42    03a0f a70f     30.300 "
test,1583577226325350144,47," | 47  |   8013       5   7952      57 |   5    0      7760       249 |   1  42    0    0 3a0f |    2.044       0       3       0       3     42     42      0   7624     385       1  42    03a0f a70f     30.390 "
test,1583577226321435904,48," | 48  |   8013       5   7887      55 |   4    0      7780       162 |   2  42    0    0 3a0f |    2.075       0       3       0       3     42     42      0   7631     311       1  42    03a0f a70f     30.270 "
test,1583577226299389952,49," | 49  |   8013       5   8003       0 |   5    0      7849       154 |   1  58    0    0  90f |    2.075       0       5       0       5     58     58      0   7791     212       1  58    0 90f a70f      8.130 "
test,1583577226300695808,51," | 51  |   8013       5   8004       0 |   5    0      7914        90 |   2  58    0    0  90f |    2.807       0       5       0       5     58     58      0   7886     118       2  58    0 90f a70f      8.880 "
test,1583577226321847808,52," | 52  |   8013       5   7974      31 |   4    0      7606       399 |   2  18    0    0 4a0f |    4.211       0       4       0       4     18     18      0   7468     537       4  18    04a0f a70f     30.360 "
test,1583577226301321984,53," | 53  |   8013       5   7987       0 |   5    0      7585       402 |   2  58    0    0  90f |    2.777       0       5       0       5     58     58      0   7503     484       2  58    0 90f a70f      9.000 "
test,1583577226320971008,54," | 54  |   8013       5   8005       0 |   1    6      7871       134 |   1  58   13    0  90f |    9.979       0       1       0       1     58     58      0   7737     268      12  58    0 90f a70f     30.360 "
test,1583577226303048960,55," | 55  |   8013       5   7992       0 |   5    0      7691       301 |   1  58    0    0  90f |    2.014       0       5       0       5     58     58      0   7621     371       1  58    0 90f a70f      8.130 "
test,1583577226299880960,56," | 56  |   8013       5   7995       0 |   5    0      7875       120 |   1  58    0    0  90f |    2.044       0       5       0       5     58     58      0   7777     218       1  58    0 90f a70f      8.130 "
test,1583577226320231936,57," | 57  |   8013       5   7950       0 |   3    6      7739       211 |   1  58   60    0  90f |    7.202       0       3       0       3     58     58      0   7255     695       8  58    0 90f a70f     30.330 "
test,1583577226303697152,58," | 58  |   8013       5   8004       0 |   2    0      7894       110 |   4  58    0    1  90f |    3.814       0       4       0       4     58     58      0   7568     436       5  58    1 90f a70f      8.400 "
test,1583577226298060800,5," |  5  |   8013       5   8011       0 |   5    0      7277       734 |   1  13    0    0  a0f |    2.075       0       5       0       5     13     13      0   7142     869       1  13    0 a0f a70f      8.280 "
test,1583577226318388992,60," | 60  |   8013       5   8004       0 |   0    6      7477       527 |   0  60   58    1 850f |    0           0       0       0       8      0      0      0   7317     687       0  60    1850f a70f     30.180 "
test,1583577226300271104,61," | 61  |   8013       5   7996       7 |   3    0      7638       365 |   1  58    0    0  90f |    2.044       0       5       0       5     58     58      0   7368     635       1  58    0 90f a70f      8.790 "
test,1583577226298763008,7," |  7  |   8013       5   8010       0 |   5    0      7889       121 |   1  13    0    0  a0f |    2.075       0       5       0       5     13     13      0   7833     177       1  13    0 a0f a70f      8.310 "
test,1583577226299710976,9," |  9  |   8013       5   8009       0 |   5    0      7748       261 |   1  13    0    0  a0f |    2.807       0       5       0       5     13     13      0   7708     301       2  13    0 a0f a70f      9.030 "
