test,1583575425763112960,10," | 10  |    811       5    783       0 |   4   12       773        10 |   6   9   49    0  e0f |    1.983       0       5       0       5      9      9      0    761      22       1   9    0 e0f a70f      8.190 "
test,1583575425773596160,12," | 12  |    811       5    809       0 |   4    1       803         6 |  17  12    9    1 340f |   10.284       0       4       0       4     12     12      0    790      19      14  12    1340f a70f     14.760 "
test,1583575425774714880,13," | 13  |    811       5    807       0 |   5    8       799         8 |   2  12    9    0 340f |   10.589       0       5       0       5     12     12      0    788      19      13  12    0340f a70f     16.590 "
test,1583575425768670976,15," | 15  |    811       5    809       0 |   5    0       779        30 |   1  12    0    0 340f |    2.014       0       5       0       5     12     12      0    751      58       1  12    0340f a70f     12.240 "
test,1583575425767840000,16," | 16  |    811       5    807       0 |   5    0       777        30 |   2  44    0    0 760f |    4.241       0       5       0       5     44     44      0    758      49       4  44    0760f a70f     12.600 "
test,1583575425766287104,17," | 17  |    811       5    807       0 |   5    0       797        10 |   2  44    0    0 760f |    5.706       0       5       0       5     44     44      0    774      33       6  44    0760f a70f     12.600 "
test,1583575425784120064,18," | 18  |    811       5    806       0 |   5    1       752        54 |   4  44   22    0 760f |    9.368       0       2       0       2     44     44      0    717      89      11  44    0760f a70f     30.360 "
test,1583575425767566080,19," | 19  |    811       5    806       1 |   5    0       799         8 |   2  44    0    0 760f |    5.706       0       5       0       5     44     44      0    775      32       6  44    0760f a70f     11.850 "
test,1583575425760798976,1," |  1  |    811       4    808       0 |   5    0       794        14 |   4   9    0    0  e0f |    2.685       0       5       0       5      9      9      0    787      21       1   9    0 e0f a70f      8.910 "
test,1583575425781240832,22," | 22  |    811       5    805       0 |   0    6       796         9 |   0  22   44    1 ab0f |    0           0       0       0       8      0      0      0    756      49       0  22    1ab0f a70f     30.180 "
test,1583575425782008832,23," | 23  |    811       5    749       0 |   2    8       745         4 |   2  56   22    0  50f |    2.716       0       3       0       3     56     56      0    731      18       2  56    0 50f a70f     30.360 "
test,1583575425783400960,24," | 24  |    811       5    807       0 |   5    0       802         5 |   1  44    0    0 760f |    5.706       0       4       0       4     44     44      0    783      24       6  44    0760f a70f     30.360 "
test,1583575425781035008,26," | 26  |    811       5    807       0 |   5    0       804         3 |   1  44    0    0 760f |    5.004       0       4       0       4     44     44      0    788      19       5  44    0760f a70f     30.360 "
test,1583575425770246912,27," | 27  |    811       5    809       0 |   5    0       791        18 |   4  44    0    0 760f |    7.171       0       5       0       5     44     44      0    757      52       8  44    0760f a70f     13.230 "
test,1583575425786788096,28," | 28  |    811       5    807       0 |   4    3       740        67 |   1  35   22    0 d30f |    2.716       0       4       0       4     35     35      0    718      89       2  35    0d30f a70f     30.360 "
test,1583575425787034112,29," | 29  |    811       5    807       2 |   5    0       714        95 |   3  44    0    0 760f |    6.469       0       3       0       3     44     44      0    673     136       7  44    0760f a70f     30.300 "
test,1583575425761633024,30," | 30  |    811       5    807       0 |   5    0       798         9 |   1  35    0    0 d30f |    2.014       0       5       0       5     35     35      0    778      29       1  35    0d30f a70f      8.250 "
test,1583575425767368192,35," | 35  |    811       5    807       0 |   5    0       772        35 |   2  35    0    1 d30f |    1.739       0       4       0       4     35     35      0    759      48       2  35    1d30f a70f      6.510 "
test,1583575425790806016,41," | 41  |    811       2    772      25 |   1    0       787        10 |   7  46    0    0 c30f |    2.014       0       3       0       3     46     46      0    766      31       1  46    0c30f a70f     30.270 "
test,1583575425782833152,42," | 42  |    811       1    779      28 |   1    0       774        33 |   7  44    0    0 760f |    2.044       0       1       0       1     44     44      0    753      54       1  44    0760f a70f     30.390 "
test,1583575425785383936,44," | 44  |    811       1    784      23 |   1    0       781        26 |   8  44    0    1 760f |    1.770       0       1       0       1     44     44      0    757      50       2  44    1760f a70f     30.300 "
test,1583575425784308992,45," | 45  |    811       2    788      19 |   4    0       767        40 |   1  44    0    0 760f |    2.044       0       2       0       2     44     44      0    746      61       1  44    0760f a70f     30.390 "
test,1583575425786385920,46," | 46  |    811       2    776      24 |   1    1       765        35 |   8  46   44    1 c30f |   25.360       0       2       0       2     46     46      0    747      53      35  46    1c30f a70f     30.120 "
test,1583575425784634112,47," | 47  |    811       1    782      25 |   3    0       770        37 |   4  44    0    0 760f |    2.044       0       1       0       1     44     44      0    754      53       1  44    0760f a70f     30.360 "
test,1583575425783124992,48," | 48  |    811       1    718      22 |   2    0       712        28 |   7  44    0    0 760f |    2.044       0       1       0       1     44     44      0    689      51       1  44    0760f a70f     30.330 "
test,1583575425766524928,49," | 49  |    811       5    801       0 |   4    9       789        12 |   5  49   53    1 740f |    5.981       0       4       0       4     49     49      0    783      18       8  49    1740f a70f     10.590 "
test,1583575425761212160,51," | 51  |    811       5    802       0 |   5    0       797         5 |   1  56    0    0  50f |    2.014       0       5       0       5     56     56      0    795       7       1  56    0 50f a70f      8.160 "
test,1583575425787607808,52," | 52  |    811       3    797       6 |   5    0       765        38 |   2  44    0    0 760f |    5.737       0       4       0       4     44     44      0    747      56       6  44    0760f a70f     30.240 "
test,1583575425784858880,53," | 53  |    811       5    785       0 |   5    0       745        40 |   2  53    0    1 760f |    1.739       0       1       0       1     53     53      0    739      46       2  53    1760f a70f     30.300 "
test,1583575425762908928,54," | 54  |    811       5    803       0 |   5    0       792        11 |   4   9    0    0  e0f |    1.983       0       5       0       5      9      9      0    773      30       1   9    0 e0f a70f      8.220 "
test,1583575425786600192,55," | 55  |    811       5    790       0 |   5    0       755        35 |   1  53    0    0 760f |    2.014       0       2       0       2     53     53      0    753      37       1  53    0760f a70f     30.300 "
test,1583575425762161920,56," | 56  |    811       5    793       0 |   5    0       776        17 |   2  56    0    1  50f |    1.739       0       4       0       4     56     56      0    770      23       2  56    1 50f a70f      6.480 "
test,1583575425785872896,57," | 57  |    811       5    748       0 |   5    0       720        28 |   1  56    0    0  50f |    1.983       0       3       0       3     56     56      0    677      71       1  56    0 50f a70f     30.360 "
test,1583575425765715968,58," | 58  |    811       5    802       0 |   5    7       792        10 |   1  49   12    0 740f |    2.044       0       5       0       5     49     49      0    770      32       1  49    0740f a70f     10.890 "
test,1583575425764131072,5," |  5  |    811       5    809       0 |   5    0       747        62 |   1  12    0    0 340f |    2.014       0       5       0       5     12     12      0    730      79       1  12    0340f a70f     10.800 "
test,1583575425761915904,60," | 60  |    811       5    802       0 |   5    0       753        49 |   2  56    0    0  50f |    1.983       0       5       0       5     56     56      0    744      58       1  56    0 50f a70f      8.250 "
test,1583575425785044992,61," | 61  |    811       5    801       0 |   1    4       770        31 |   1  56   49    0  50f |    1.983       0       4       0       4     56     56      0    750      51       1  56    0 50f a70f     30.390 "
test,1583575425774988032,7," |  7  |    811       5    808       0 |   5    7       794        14 |   1  12    9    0 340f |   10.559       0       5       0       5     12     12      0    790      18      13  12    0340f a70f     16.650 "
test,1583575425760984832,9," |  9  |    811       5    807       0 |   4    0       774        33 |   5   9    0    1  e0f |    1.770       0       4       0       4      9      9      0    769      38       2   9    1 e0f a70f      6.510 "
