test,1583575431516530944,10," | 10  |    834       5    806       0 |   5    0       796        10 |   1  13    0    0 ba0f |    2.014       0       5       0       5     13     13      0    784      22       1  13    0ba0f a70f      8.130 "
test,1583575431511329792,12," | 12  |    834       5    832       0 |   5    0       826         6 |   1  13    0    0 ba0f |    2.014       0       5       0       5     13     13      0    812      20       1  13    0ba0f a70f      8.220 "
test,1583575431510647040,13," | 13  |    834       5    830       0 |   4    0       821         9 |   2  13    0    1 ba0f |    1.739       0       4       0       4     13     13      0    811      19       2  13    1ba0f a70f      6.480 "
test,1583575431516864000,15," | 15  |    834       5    832       0 |   4    0       802        30 |   1  13    0    0 ba0f |    2.716       0       5       0       5     13     13      0    772      60       2  13    0ba0f a70f      8.850 "
test,1583575431517970176,16," | 16  |    834       5    830       0 |   5    0       799        31 |   3  40    0    0 c60f |    3.509       0       5       0       5     40     40      0    780      50       3  40    0c60f a70f      9.720 "
test,1583575431522214912,17," | 17  |    834       5    830       0 |   4    0       820        10 |   9  40    0    0 c60f |    2.807       0       5       0       5     40     40      0    796      34       2  40    0c60f a70f      9.720 "
test,1583575431515814144,18," | 18  |    834       5    829       0 |   5    0       774        55 |   1  40    0    0 c60f |    2.777       0       5       0       5     40     40      0    737      92       2  40    0c60f a70f      8.970 "
test,1583575431530420992,19," | 19  |    834       5    829       1 |   3    8       822         8 |   3  13   40    0 ba0f |    0           0       0       0       8      0      0      0    796      34       0  13    0ba0f a70f     30.360 "
test,1583575431513086208,1," |  1  |    834       4    831       0 |   5    0       816        15 |   1  13    0    0 ba0f |    2.685       0       5       0       5     13     13      0    809      22       1  13    0ba0f a70f      8.760 "
test,1583575431515256832,22," | 22  |    834       5    828       0 |   5    0       819         9 |   2  40    0    0 c60f |    2.777       0       5       0       5     40     40      0    778      50       2  40    0c60f a70f      8.910 "
test,1583575431514791936,23," | 23  |    834       5    772       0 |   5    0       767         5 |   8  40    0    0 c60f |    2.777       0       5       0       5     40     40      0    753      19       2  40    0c60f a70f      9.000 "
test,1583575431515426048,24," | 24  |    834       5    830       0 |   5    0       825         5 |   1  40    0    0 c60f |    2.044       0       5       0       5     40     40      0    806      24       1  40    0c60f a70f      8.250 "
test,1583575431513736960,26," | 26  |    834       5    830       0 |   5    0       827         3 |   2  40    0    0 c60f |    2.777       0       5       0       5     40     40      0    811      19       2  40    0c60f a70f      8.910 "
test,1583575431532615936,27," | 27  |    834       5    832       0 |   4    8       812        20 |   2  13   40    0 ba0f |    0           0       0       0       8      0      0      0    775      57       0  13    0ba0f a70f     30.390 "
test,1583575431523820032,28," | 28  |    834       4    830       0 |   5    0       761        69 |   4  40    0    0 c60f |    4.241       0       5       0       5     40     40      0    739      91       4  40    0c60f a70f     11.160 "
test,1583575431533334016,29," | 29  |    834       3    829       3 |   3    0       732       100 |   3  13    0    0 ba0f |    0           0       0       0       8      0      0      0    687     145       0  13    0ba0f a70f     30.360 "
test,1583575431517038080,30," | 30  |    834       5    830       0 |   5    0       821         9 |   3  40    0    0 c60f |    4.272       0       5       0       5     40     40      0    799      31       4  40    0c60f a70f     10.440 "
test,1583575431517783040,35," | 35  |    834       5    830       0 |   5    0       794        36 |   3  40    0    0 c60f |    3.509       0       5       0       5     40     40      0    780      50       3  40    0c60f a70f      9.720 "
test,1583575431512217088,40," | 40  |    834       4    800      26 |   4    0       757        69 |   4  40    0    1 c60f |    1.770       0       4       0       4     40     40      0    728      98       2  40    1c60f a70f      6.510 "
test,1583575431513467136,41," | 41  |    834       5    795      25 |   5    0       809        11 |   1  40    0    0 c60f |    2.014       0       5       0       5     40     40      0    788      32       1  40    0c60f a70f      8.220 "
test,1583575431514605056,42," | 42  |    834       5    802      28 |   5    0       796        34 |   1  40    0    0 c60f |    2.746       0       5       0       5     40     40      0    776      54       2  40    0c60f a70f      9.720 "
test,1583575431523582976,44," | 44  |    834       5    807      23 |   5    0       803        27 |   2  40    0    0 c60f |    2.014       0       5       0       5     40     40      0    780      50       1  40    0c60f a70f      8.220 "
test,1583575431516329984,45," | 45  |    834       5    811      19 |   5    0       790        40 |   1  40    0    0 c60f |    2.075       0       5       0       5     40     40      0    769      61       1  40    0c60f a70f      8.970 "
test,1583575431523106048,46," | 46  |    834       5    799      24 |   5    0       787        36 |   1  40    0    0 c60f |    2.075       0       5       0       5     40     40      0    769      54       1  40    0c60f a70f      8.310 "
test,1583575431522018816,47," | 47  |    834       5    805      25 |   5    0       793        37 |   1  40    0    0 c60f |    2.075       0       5       0       5     40     40      0    777      53       1  40    0c60f a70f      8.280 "
test,1583575431514999040,48," | 48  |    834       5    741      22 |   5    0       735        28 |   1  40    0    0 c60f |    2.044       0       5       0       5     40     40      0    712      51       1  40    0c60f a70f      8.100 "
test,1583575431513912832,49," | 49  |    834       5    824       0 |   5    0       812        12 |   1  53    0    0 c30f |    2.044       0       5       0       5     53     53      0    806      18       1  53    0c30f a70f      8.190 "
test,1583575431511843072,51," | 51  |    834       5    825       0 |   5    0       819         6 |   1  13    0    0 ba0f |    1.983       0       5       0       5     13     13      0    818       7       1  13    0ba0f a70f      8.220 "
test,1583575431534016000,52," | 52  |    834       3    819       7 |   5    0       786        40 |   2  40    0    0 c60f |    2.746       0       4       0       4     40     40      0    768      58       2  40    0c60f a70f     30.360 "
test,1583575431511648000,53," | 53  |    834       5    808       0 |   5    0       767        41 |   2  53    0    1 c30f |    1.739       0       4       0       4     53     53      0    761      47       2  53    1c30f a70f      6.480 "
test,1583575431522470912,54," | 54  |    834       5    826       0 |   5    0       815        11 |   1  13    0    0 ba0f |    1.983       0       5       0       5     13     13      0    796      30       1  13    0ba0f a70f      8.790 "
test,1583575431512659968,55," | 55  |    834       5    813       0 |   5    0       777        36 |   1  53    0    0 c30f |    2.044       0       5       0       5     53     53      0    775      38       1  53    0c30f a70f      8.130 "
test,1583575431518477824,56," | 56  |    834       5    816       0 |   5    0       799        17 |   1  13    0    0 ba0f |    2.014       0       5       0       5     13     13      0    793      23       1  13    0ba0f a70f      8.160 "
test,1583575431517373184,57," | 57  |    834       4    771       0 |   5    0       743        28 |   3  13    0    0 ba0f |    2.746       0       5       0       5     13     13      0    699      72       2  13    0ba0f a70f      8.910 "
test,1583575431534995968,58," | 58  |    834       5    825       0 |   5    0       815        10 |   2  13    0    0 ba0f |    3.479       0       4       0       4     13     13      0    793      32       3  13    0ba0f a70f     30.240 "
test,1583575431514096896,5," |  5  |    834       5    832       0 |   5    0       768        64 |   1  13    0    0 ba0f |    1.953       0       5       0       5     13     13      0    751      81       1  13    0ba0f a70f      8.190 "
test,1583575431515607040,60," | 60  |    834       5    825       0 |   5    0       775        50 |   2  13    0    0 ba0f |    2.746       0       5       0       5     13     13      0    766      59       2  13    0ba0f a70f      8.820 "
test,1583575431518286080,61," | 61  |    834       5    824       0 |   5    0       793        31 |   2  13    0    0 ba0f |    2.746       0       5       0       5     13     13      0    773      51       2  13    0ba0f a70f      8.820 "
test,1583575431520028160,7," |  7  |    834       5    831       0 |   5    0       815        16 |   1  13    0    0 ba0f |    2.014       0       5       0       5     13     13      0    811      20       1  13    0ba0f a70f      8.100 "
test,1583575431512865024,9," |  9  |    834       5    830       0 |   5    0       797        33 |   1  13    0    0 ba0f |    1.983       0       5       0       5     13     13      0    792      38       1  13    0ba0f a70f      8.160 "
