test,1583577355052205056,10," | 10  |   8528       5   8500       0 |   5    0      8369       131 |   2   5    0    0 aa0f |    3.479       0       5       0       5      5      5      0   8278     222       3   5    0aa0f a70f      9.600 "
test,1583577355056118016,12," | 12  |   8528       5   8492      34 |   5    0      8439        87 |   1   5    0    0 aa0f |    2.044       0       5       0       5      5      5      0   8295     231       1   5    0aa0f a70f      8.130 "
test,1583577355050610944,13," | 13  |   8528       5   8524       0 |   5    0      8455        69 |   1   5    0    0 aa0f |    2.014       0       5       0       5      5      5      0   8372     152       1   5    0aa0f a70f      8.250 "
test,1583577355053991168,15," | 15  |   8528       5   8483      43 |   5    0      8167       359 |   1   5    0    0 aa0f |    2.014       0       5       0       5      5      5      0   7788     738       1   5    0aa0f a70f      8.820 "
test,1583577355070731008,16," | 16  |   8528       5   8524       0 |   0    4      8188       336 |   0  16   48    1 330f |    0           0       0       0       8      0      0      0   7972     552       0  16    1330f a70f     30.180 "
test,1583577355057513984,17," | 17  |   8528       5   8513      11 |   5    0      8410       114 |   2  48    0    0 730f |    2.716       0       5       0       5     48     48      0   8163     361       2  48    0730f a70f      8.970 "
test,1583577355061011968,18," | 18  |   8528       5   8523       0 |   5    0      8054       469 |   2  48    0    0 730f |    2.716       0       5       0       5     48     48      0   7738     785       2  48    0730f a70f      8.820 "
test,1583577355074420992,19," | 19  |   8528       5   8507      17 |   5    0      8357       167 |   2  48    0    0 730f |    3.479       0       4       0       4     48     48      0   8124     400       3  48    0730f a70f     30.390 "
test,1583577355052398080,1," |  1  |   8528       4   8525       0 |   5    0      8293       232 |   2   5    0    0 aa0f |    3.417       0       5       0       5      5      5      0   8238     287       2   5    0aa0f a70f      9.630 "
test,1583577355059828992,22," | 22  |   8528       5   8522       0 |   5    0      8451        71 |   1  48    0    0 730f |    2.014       0       5       0       5     48     48      0   8089     433       1  48    0730f a70f      8.160 "
test,1583577355072297216,23," | 23  |   8528       5   8466       0 |   5    0      8429        37 |   2  48    0    0 730f |    2.746       0       4       0       4     48     48      0   8270     196       2  48    0730f a70f     30.330 "
test,1583577355054596864,24," | 24  |   8528       5   8522       2 |   5    0      8416       108 |   2  48    0    0 730f |    2.746       0       5       0       5     48     48      0   8204     320       2  48    0730f a70f      8.940 "
test,1583577355052649984,26," | 26  |   8528       5   8522       2 |   5    0      8491        33 |   2  48    0    0 730f |    2.746       0       5       0       5     48     48      0   8340     184       2  48    0730f a70f      8.940 "
test,1583577355065656064,27," | 27  |   8528       5   8526       0 |   5    0      8274       252 |   5  48    0    0 730f |    3.479       0       5       0       5     48     48      0   7949     577       3  48    0730f a70f     10.260 "
test,1583577355074909952,28," | 28  |   8528       5   8516       8 |   5    0      7845       679 |   2  48    0    0 730f |    2.746       0       3       0       3     48     48      0   7512    1012       2  48    0730f a70f     30.330 "
test,1583577355074623232,29," | 29  |   8528       4   8512      14 |   5    0      7551       975 |   3  48    0    0 730f |    4.211       0       3       0       3     48     48      0   7185    1341       4  48    0730f a70f     30.390 "
test,1583577355056668928,30," | 30  |   8528       5   8520       4 |   5    0      8408       116 |   3  48    0    0 730f |    2.716       0       5       0       5     48     48      0   8100     424       2  48    0730f a70f      9.540 "
test,1583577355058787072,35," | 35  |   8528       5   8520       4 |   5    0      8122       402 |   2  48    0    0 730f |    2.746       0       5       0       5     48     48      0   7936     588       2  48    0730f a70f      8.820 "
test,1583577355058307840,40," | 40  |   8528       5   8445      75 |   4    0      8032       488 |   1  48    0    0 730f |    1.983       0       5       0       5     48     48      0   7826     694       1  48    0730f a70f      9.660 "
test,1583577355052910080,41," | 41  |   8528       5   8454      60 |   5    0      8434        80 |   1  48    0    0 730f |    1.983       0       5       0       5     48     48      0   8242     272       1  48    0730f a70f      8.040 "
test,1583577355054415872,42," | 42  |   8528       5   8457      67 |   5    0      8371       153 |   1  48    0    0 730f |    2.716       0       5       0       5     48     48      0   8196     328       2  48    0730f a70f      9.630 "
test,1583577355075079936,44," | 44  |   8528       5   8466      58 |   4    3      8374       150 |   2  48   45    0 730f |    2.716       0       3       0       3     48     48      0   8213     311       2  48    0730f a70f     30.360 "
test,1583577355072033024,45," | 45  |   8528       5   8480      44 |   0    3      8265       259 |   0  45   48    1 ec0f |    0           0       0       0       8      0      0      0   8118     406       0  45    1ec0f a70f     30.210 "
test,1583577355067808000,46," | 46  |   8528       5   8459      58 |   5    0      8107       410 |   1  48    0    0 730f |    2.014       0       5       0       5     48     48      0   7976     541       1  48    0730f a70f      8.940 "
test,1583577355053561088,47," | 47  |   8528       5   8466      58 |   5    0      8263       261 |   1  48    0    0 730f |    2.014       0       5       0       5     48     48      0   8117     407       1  48    0730f a70f      8.250 "
test,1583577355053208064,48," | 48  |   8528       5   8402      55 |   4    0      8289       168 |   2  48    0    1 730f |    1.739       0       4       0       4     48     48      0   8129     328       2  48    1730f a70f      6.480 "
test,1583577355053391104,49," | 49  |   8528       5   8518       0 |   5    0      8353       165 |   1  53    0    0 c90f |    2.075       0       5       0       5     53     53      0   8294     224       1  53    0c90f a70f      8.280 "
test,1583577355053826048,51," | 51  |   8528       5   8519       0 |   5    0      8422        97 |   1  56    0    0 550f |    2.014       0       5       0       5     56     56      0   8393     126       1  56    0550f a70f      8.250 "
test,1583577355072905984,52," | 52  |   8528       4   8487      33 |   5    0      8092       428 |   3  48    0    0 730f |    4.943       0       3       0       3     48     48      0   7949     571       5  48    0730f a70f     30.180 "
test,1583577355051975936,53," | 53  |   8528       5   8502       0 |   5    0      8083       419 |   2  53    0    1 c90f |    1.739       0       4       0       4     53     53      0   7997     505       2  53    1c90f a70f      6.480 "
test,1583577355055023872,54," | 54  |   8528       5   8520       0 |   5    0      8376       144 |   3   5    0    0 aa0f |    3.479       0       5       0       5      5      5      0   8238     282       3   5    0aa0f a70f     10.410 "
test,1583577355054255104,55," | 55  |   8528       5   8507       0 |   5    0      8190       317 |   1  53    0    0 c90f |    2.075       0       5       0       5     53     53      0   8117     390       1  53    0c90f a70f      8.280 "
test,1583577355055687936,56," | 56  |   8528       5   8510       0 |   3    0      8382       128 |   6  56    0    1 550f |    1.770       0       4       0       4     56     56      0   8280     230       2  56    1550f a70f      6.510 "
test,1583577355073821952,57," | 57  |   8528       5   8465       0 |   3    0      8241       224 |   5  48    0    0 730f |    5.645       0       2       0       2     48     48      0   7721     744       6  48    0730f a70f     30.390 "
test,1583577355057229056,58," | 58  |   8528       5   8519       0 |   1    1      8404       115 |   1  56    5    0 550f |    2.044       0       5       0       5     56     56      0   8063     456       1  56    0550f a70f      8.280 "
test,1583577355050370048,5," |  5  |   8528       5   8526       0 |   4    0      7747       779 |   2   5    0    1 aa0f |    1.739       0       4       0       4      5      5      0   7605     921       2   5    1aa0f a70f      6.480 "
test,1583577355059400960,60," | 60  |   8528       5   8519       0 |   5    0      7961       558 |   2  56    0    0 550f |    2.044       0       5       0       5     56     56      0   7792     727       1  56    0550f a70f      8.970 "
test,1583577355057728000,61," | 61  |   8528       5   8511       7 |   1    0      8135       383 |   2  56    0    0 550f |    2.044       0       5       0       5     56     56      0   7846     672       1  56    0550f a70f      8.850 "
test,1583577355051762944,7," |  7  |   8528       5   8525       0 |   5    0      8403       122 |   2   5    0    0 aa0f |    2.746       0       5       0       5      5      5      0   8343     182       2   5    0aa0f a70f      8.880 "
test,1583577355051547904,9," |  9  |   8528       5   8524       0 |   5    0      8247       277 |   2   5    0    0 aa0f |    2.746       0       5       0       5      5      5      0   8205     319       2   5    0aa0f a70f      8.970 "
