test,1583577265548441856,10," | 10  |   8170       5   8142       0 |   4    0      8017       125 |   3  10    0    1 220f |    1.739       0       4       0       4     10     10      0   7928     214       2  10    1220f a70f      6.510 "
test,1583577265551017984,12," | 12  |   8170       5   8134      34 |   5    0      8085        83 |   2  10    0    0 220f |    2.014       0       5       0       5     10     10      0   7945     223       1  10    0220f a70f      8.970 "
test,1583577265551179008,13," | 13  |   8170       5   8166       0 |   5    0      8104        62 |   1  10    0    0 220f |    2.014       0       5       0       5     10     10      0   8022     144       1  10    0220f a70f      8.130 "
test,1583577265570453760,15," | 15  |   8170       5   8125      43 |   1    3      7831       337 |   1  20   23    0 200f |    0           0       0       0       8      0      0      0   7461     707       0  20    0200f a70f     30.360 "
test,1583577265551634944,16," | 16  |   8170       5   8166       0 |   5    1      7855       311 |   1  23   24    0 9d0f |    2.014       0       5       0       5     23     23      0   7650     516       1  23    09d0f a70f      8.790 "
test,1583577265553992960,17," | 17  |   8170       5   8155      11 |   5    0      8059       107 |   2  24    0    0 2b0f |    2.746       0       5       0       5     24     24      0   7819     347       2  24    02b0f a70f      9.690 "
test,1583577265550417920,18," | 18  |   8170       5   8165       0 |   5    0      7722       443 |   1  24    0    0 2b0f |    1.983       0       5       0       5     24     24      0   7416     749       1  24    02b0f a70f      8.220 "
test,1583577265556494848,19," | 19  |   8170       4   8151      15 |   5    0      8008       158 |   3  24    0    0 2b0f |    2.777       0       5       0       5     24     24      0   7789     377       2  24    02b0f a70f      9.630 "
test,1583577265549755136,1," |  1  |   8170       4   8167       0 |   5    0      7952       215 |   1  10    0    0 220f |    2.716       0       5       0       5     10     10      0   7899     268       1  10    0220f a70f      8.850 "
test,1583577265555403008,22," | 22  |   8170       5   8164       0 |   5    0      8096        68 |   6  24    0    0 2b0f |    1.983       0       5       0       5     24     24      0   7745     419       1  24    02b0f a70f      9.660 "
test,1583577265566239232,23," | 23  |   8170       5   8108       0 |   4    3      8071        37 |   8  23   24    1 9d0f |    3.814       0       4       0       4     23     23      0   7920     188       5  23    19d0f a70f      8.400 "
test,1583577265553137920,24," | 24  |   8170       5   8164       2 |   5    0      8069        97 |   4  24    0    1 2b0f |    1.739       0       4       0       4     24     24      0   7866     300       2  24    12b0f a70f      7.200 "
test,1583577265549971200,26," | 26  |   8170       5   8164       2 |   5    0      8134        32 |   1  24    0    0 2b0f |    2.014       0       5       0       5     24     24      0   7988     178       1  24    02b0f a70f      8.970 "
test,1583577265553623808,27," | 27  |   8170       5   8168       0 |   4    3      7930       238 |   4  23   29    0 9d0f |    1.953       0       5       0       5     23     23      0   7617     551       1  23    09d0f a70f     10.170 "
test,1583577265557841920,28," | 28  |   8170       4   8158       8 |   4    1      7517       649 |   7  20   24    0 200f |    2.777       0       5       0       5     20     20      0   7192     974       2  20    0200f a70f      9.660 "
test,1583577265573151232,29," | 29  |   8170       5   8155      13 |   0    0      7233       935 |   0  29    0    1 250f |    0           0       0       0       8      0      0      0   6883    1285       0  29    1250f a70f     30.210 "
test,1583577265552514048,30," | 30  |   8170       5   8162       4 |   5    0      8053       113 |   4  20    0    0 200f |    1.983       0       5       0       5     20     20      0   7754     412       1  20    0200f a70f      8.190 "
test,1583577265552963072,35," | 35  |   8170       5   8162       4 |   5    0      7779       387 |   5  20    0    0 200f |    2.746       0       5       0       5     20     20      0   7596     570       2  20    0200f a70f      8.940 "
test,1583577265550839040,40," | 40  |   8170       5   8087      75 |   5    0      7698       464 |   1  24    0    0 2b0f |    2.044       0       5       0       5     24     24      0   7500     662       1  24    02b0f a70f      8.160 "
test,1583577265551884032,41," | 41  |   8170       5   8096      60 |   5    0      8080        76 |   5  24    0    0 2b0f |    2.716       0       5       0       5     24     24      0   7895     261       2  24    02b0f a70f      9.660 "
test,1583577265558834176,42," | 42  |   8170       5   8099      67 |   5    0      8021       145 |   3  24    0    0 2b0f |    2.746       0       5       0       5     24     24      0   7852     314       2  24    02b0f a70f      8.850 "
test,1583577265563087872,44," | 44  |   8170       5   8108      58 |   5    0      8019       147 |   3  24    0    0 2b0f |    2.014       0       5       0       5     24     24      0   7860     306       1  24    02b0f a70f      8.220 "
test,1583577265559273984,45," | 45  |   8170       5   8122      44 |   5    0      7919       247 |   3  24    0    0 2b0f |    2.746       0       5       0       5     24     24      0   7777     389       2  24    02b0f a70f      8.880 "
test,1583577265571202048,46," | 46  |   8170       5   8101      58 |   5    0      7767       392 |   3  24    0    0 2b0f |    4.974       0       4       0       4     24     24      0   7643     516       5  24    02b0f a70f     30.240 "
test,1583577265556910080,47," | 47  |   8170       5   8108      58 |   5    0      7912       254 |   3  24    0    0 2b0f |    2.746       0       5       0       5     24     24      0   7773     393       2  24    02b0f a70f      8.820 "
test,1583577265556338944,48," | 48  |   8170       5   8044      55 |   5    0      7934       165 |   2  24    0    0 2b0f |    2.716       0       5       0       5     24     24      0   7781     318       2  24    02b0f a70f      9.660 "
test,1583577265553297152,49," | 49  |   8170       5   8160       0 |   5    0      8004       156 |   2  10    0    0 220f |    2.746       0       5       0       5     10     10      0   7945     215       2  10    0220f a70f      8.790 "
test,1583577265554429952,51," | 51  |   8170       5   8161       0 |   5    0      8069        92 |   1  10    0    0 220f |    2.044       0       5       0       5     10     10      0   8041     120       1  10    0220f a70f      8.130 "
test,1583577265560658944,52," | 52  |   8170       4   8131      31 |   2    3      7759       403 |   2  24   23    0 2b0f |    2.777       0       5       0       5     24     24      0   7620     542       2  24    02b0f a70f      9.600 "
test,1583577265552165888,53," | 53  |   8170       5   8144       0 |   5    0      7741       403 |   3  10    0    0 220f |    3.448       0       5       0       5     10     10      0   7657     487       3  10    0220f a70f      9.510 "
test,1583577265549187072,54," | 54  |   8170       5   8162       0 |   5    0      8026       136 |   1  10    0    0 220f |    2.044       0       5       0       5     10     10      0   7890     272       1  10    0220f a70f      8.130 "
test,1583577265556737024,55," | 55  |   8170       5   8149       0 |   5    0      7845       304 |   2  10    0    0 220f |    2.777       0       5       0       5     10     10      0   7774     375       2  10    0220f a70f      8.970 "
test,1583577265549361920,56," | 56  |   8170       5   8152       0 |   5    0      8029       123 |   1  10    0    0 220f |    2.044       0       5       0       5     10     10      0   7931     221       1  10    0220f a70f      8.250 "
test,1583577265572896000,57," | 57  |   8170       5   8107       0 |   5    0      7890       217 |   1  23    0    0 9d0f |    1.983       0       3       0       3     23     23      0   7400     707       1  23    09d0f a70f     30.360 "
test,1583577265571943936,58," | 58  |   8170       5   8161       0 |   5    0      8049       112 |   1  10    0    0 220f |    2.044       0       4       0       4     10     10      0   7721     440       1  10    0220f a70f     30.390 "
test,1583577265551384832,5," |  5  |   8170       5   8168       0 |   5    0      7418       750 |   3  10    0    0 220f |    2.746       0       5       0       5     10     10      0   7281     887       2  10    0220f a70f      8.880 "
test,1583577265553443072,60," | 60  |   8170       5   8161       0 |   5    0      7623       538 |   2  10    0    0 220f |    2.746       0       5       0       5     10     10      0   7461     700       2  10    0220f a70f      8.940 "
test,1583577265568530176,61," | 61  |   8170       5   8153       7 |   5    1      7792       368 |   2  10   23    0 220f |    1.983       0       4       0       4     10     10      0   7517     643       1  10    0220f a70f     30.390 "
test,1583577265548907008,7," |  7  |   8170       5   8167       0 |   5    0      8046       121 |   1  10    0    0 220f |    2.044       0       5       0       5     10     10      0   7990     177       1  10    0220f a70f      8.280 "
test,1583577265550205952,9," |  9  |   8170       5   8166       0 |   5    0      7900       266 |   1  10    0    0 220f |    2.075       0       5       0       5     10     10      0   7858     308       1  10    0220f a70f      8.160 "
