test,1583577351054797824,10," | 10  |   8512       5   8484       0 |   5    0      8353       131 |   2  55    0    0 b50f |    2.777       0       5       0       5     55     55      0   8262     222       2  55    0b50f a70f     11.040 "
test,1583577351054359808,12," | 12  |   8512       5   8476      34 |   5    0      8423        87 |   5  55    0    0 b50f |    2.716       0       5       0       5     55     55      0   8279     231       2  55    0b50f a70f      8.970 "
test,1583577351067744000,13," | 13  |   8512       5   8508       0 |   1   10      8439        69 |   1   5   55    0 e10f |    6.286       0       5       0       5      5      5      0   8356     152       7   5    0e10f a70f     12.450 "
test,1583577351063879936,15," | 15  |   8512       5   8467      43 |   5    0      8152       358 |   6  55    0    0 b50f |    3.448       0       5       0       5     55     55      0   7773     737       3  55    0b50f a70f      9.690 "
test,1583577351058424064,16," | 16  |   8512       5   8508       0 |   5    0      8175       333 |   3  30    0    0 b90f |    3.509       0       5       0       5     30     30      0   7961     547       3  30    0b90f a70f     10.470 "
test,1583577351056934144,17," | 17  |   8512       5   8497      11 |   5    0      8394       114 |   2  30    0    0 b90f |    3.540       0       5       0       5     30     30      0   8147     361       3  30    0b90f a70f     11.040 "
test,1583577351055433984,18," | 18  |   8512       5   8507       0 |   5    0      8039       468 |   2  30    0    0 b90f |    2.746       0       5       0       5     30     30      0   7724     783       2  30    0b90f a70f      8.940 "
test,1583577351065572864,19," | 19  |   8512       5   8491      17 |   5    0      8341       167 |   4  30    0    0 b90f |    3.448       0       5       0       5     30     30      0   8108     400       3  30    0b90f a70f     11.100 "
test,1583577351053916928,1," |  1  |   8512       4   8509       0 |   5    0      8278       231 |   4  55    0    0 b50f |    4.180       0       5       0       5     55     55      0   8223     286       3  55    0b50f a70f     10.320 "
test,1583577351051033088,22," | 22  |   8512       5   8506       0 |   5    0      8435        71 |   1  30    0    0 b90f |    2.044       0       5       0       5     30     30      0   8073     433       1  30    0b90f a70f      8.280 "
test,1583577351054561024,23," | 23  |   8512       5   8450       0 |   5    0      8413        37 |   2  30    0    0 b90f |    3.540       0       5       0       5     30     30      0   8254     196       3  30    0b90f a70f     10.380 "
test,1583577351061675008,24," | 24  |   8512       5   8506       2 |   5    0      8400       108 |   4  30    0    0 b90f |    2.777       0       5       0       5     30     30      0   8188     320       2  30    0b90f a70f     10.440 "
test,1583577351052707072,26," | 26  |   8512       5   8506       2 |   5    0      8475        33 |   3  30    0    0 b90f |    2.777       0       5       0       5     30     30      0   8324     184       2  30    0b90f a70f      9.720 "
test,1583577351057167104,27," | 27  |   8512       5   8510       0 |   5    0      8258       252 |   3  30    0    0 b90f |    4.974       0       5       0       5     30     30      0   7933     577       5  30    0b90f a70f     11.160 "
test,1583577351052904960,28," | 28  |   8512       5   8500       8 |   4    0      7829       679 |   1  30    0    0 b90f |    2.014       0       5       0       5     30     30      0   7497    1011       1  30    0b90f a70f      8.220 "
test,1583577351063156992,29," | 29  |   8512       5   8496      14 |   4    0      7536       974 |   4  30    0    0 b90f |    4.241       0       5       0       5     30     30      0   7170    1340       4  30    0b90f a70f     11.880 "
test,1583577351053064960,30," | 30  |   8512       5   8504       4 |   4    0      8392       116 |   2  30    0    1 b90f |    1.739       0       4       0       4     30     30      0   8086     422       2  30    1b90f a70f      6.510 "
test,1583577351051512064,35," | 35  |   8512       5   8504       4 |   5    0      8108       400 |   1  30    0    0 b90f |    2.044       0       5       0       5     30     30      0   7922     586       1  30    0b90f a70f      8.100 "
test,1583577351073427968,40," | 40  |   8512       5   8429      75 |   5    0      8016       488 |   1  44    0    0 5b0f |    2.014       0       4       0       4     44     44      0   7811     693       1  44    05b0f a70f     30.390 "
test,1583577351060004096,41," | 41  |   8512       5   8438      60 |   5    0      8418        80 |   1  44    0    0 5b0f |    2.014       0       5       0       5     44     44      0   8227     271       1  44    05b0f a70f      9.390 "
test,1583577351056081152,42," | 42  |   8512       5   8441      67 |   5    0      8355       153 |   1  44    0    0 5b0f |    2.014       0       5       0       5     44     44      0   8180     328       1  44    05b0f a70f      8.820 "
test,1583577351057707008,44," | 44  |   8512       5   8450      58 |   4    0      8359       149 |   8  44    0    1 5b0f |    3.814       0       4       0       4     44     44      0   8197     311       5  44    15b0f a70f      8.520 "
test,1583577351059598080,45," | 45  |   8512       5   8464      44 |   5    0      8250       258 |   1  44    0    0 5b0f |    1.983       0       5       0       5     44     44      0   8103     405       1  44    05b0f a70f      8.760 "
test,1583577351053750016,46," | 46  |   8512       5   8443      58 |   5    0      8092       409 |   1  44    0    0 5b0f |    1.953       0       5       0       5     44     44      0   7961     540       1  44    05b0f a70f     10.140 "
test,1583577351053526016,47," | 47  |   8512       5   8450      58 |   5    0      8247       261 |   1  44    0    0 5b0f |    2.014       0       5       0       5     44     44      0   8101     407       1  44    05b0f a70f      8.820 "
test,1583577351052001024,48," | 48  |   8512       5   8386      55 |   5    0      8273       168 |   1  44    0    0 5b0f |    2.014       0       5       0       5     44     44      0   8113     328       1  44    05b0f a70f      8.850 "
test,1583577351056678144,49," | 49  |   8512       4   8502       0 |   5    0      8337       165 |   1  55    0    0 b50f |    2.044       0       5       0       5     55     55      0   8278     224       1  55    0b50f a70f      8.100 "
test,1583577351062551040,51," | 51  |   8512       5   8503       0 |   4    2      8407        96 |   3  30   55    0 b90f |    4.974       0       5       0       5     30     30      0   8378     125       5  30    0b90f a70f     11.010 "
test,1583577351060749056,52," | 52  |   8512       4   8471      33 |   5    0      8076       428 |   3  30    0    0 b90f |    3.509       0       5       0       5     30     30      0   7933     571       3  30    0b90f a70f     10.320 "
test,1583577351067558144,53," | 53  |   8512       4   8486       0 |   5    0      8068       418 |   1  55    0    0 b50f |    2.044       0       5       0       5     55     55      0   7982     504       1  55    0b50f a70f      8.220 "
test,1583577351056407808,54," | 54  |   8512       5   8504       0 |   5    0      8360       144 |   2  55    0    0 b50f |    2.746       0       5       0       5     55     55      0   8222     282       2  55    0b50f a70f     10.440 "
test,1583577351046252032,55," | 55  |   8512       4   8491       0 |   4    0      8175       316 |   5  55    0    1 b50f |    1.739       0       4       0       4     55     55      0   8102     389       2  55    1b50f a70f      6.480 "
test,1583577351058660864,56," | 56  |   8512       5   8494       0 |   5    0      8366       128 |   3  30    0    0 b90f |    4.272       0       5       0       5     30     30      0   8264     230       4  30    0b90f a70f     10.350 "
test,1583577351062272000,57," | 57  |   8512       5   8449       0 |   5    0      8225       224 |   2  30    0    0 b90f |    3.540       0       5       0       5     30     30      0   7706     743       3  30    0b90f a70f      9.600 "
test,1583577351046464000,58," | 58  |   8512       4   8503       0 |   5    0      8388       115 |   1  55    0    0 b50f |    2.044       0       5       0       5     55     55      0   8047     456       1  55    0b50f a70f      8.280 "
test,1583577351057992960,5," |  5  |   8512       5   8510       0 |   1    7      7731       779 |   2   5   55    1 e10f |    5.950       0       4       0       4      5      5      0   7589     921       8   5    1e10f a70f     10.620 "
test,1583577351056248064,60," | 60  |   8512       5   8503       0 |   5    0      7946       557 |   3  30    0    0 b90f |    4.211       0       5       0       5     30     30      0   7778     725       4  30    0b90f a70f     10.380 "
test,1583577351060401920,61," | 61  |   8512       5   8495       7 |   5    0      8120       382 |   2  55    0    0 b50f |    2.777       0       5       0       5     55     55      0   7831     671       2  55    0b50f a70f      8.940 "
test,1583577351054102016,7," |  7  |   8512       5   8509       0 |   5    0      8387       122 |   4  55    0    0 b50f |    3.479       0       5       0       5     55     55      0   8327     182       3  55    0b50f a70f      9.660 "
test,1583577351052303104,9," |  9  |   8512       5   8508       0 |   5    0      8231       277 |   3  55    0    0 b50f |    3.479       0       5       0       5     55     55      0   8189     319       3  55    0b50f a70f      9.540 "
