test,1583577281821088000,10," | 10  |   8235       5   8207       0 |   5    0      8080       127 |   4  61    0    0 ac0f |    4.211       0       3       0       3     61     61      0   7993     214       4  61    0ac0f a70f     30.330 "
test,1583577281823416832,12," | 12  |   8235       5   8199      34 |   5    0      8149        84 |   2  61    0    0 ac0f |    2.807       0       4       0       4     61     61      0   8010     223       2  61    0ac0f a70f     30.390 "
test,1583577281820663040,13," | 13  |   8235       5   8231       0 |   1   14      8167        64 |   1  51    1    0 870f |    2.075       0       2       0       2     51     51      0   8086     145       1  51    0870f a70f     30.330 "
test,1583577281823024128,15," | 15  |   8235       5   8190      43 |   5    0      7889       344 |   3  61    0    0 ac0f |    3.540       0       4       0       4     61     61      0   7517     716       3  61    0ac0f a70f     30.270 "
test,1583577281819539968,16," | 16  |   8235       5   8231       0 |   1    8      7914       317 |   1  45   52    0 b00f |    0           0       0       0       8      0      0      0   7706     525       0  45    0b00f a70f     30.360 "
test,1583577281803284992,17," | 17  |   8235       5   8220      11 |   5    0      8124       107 |   2  52    0    0 1a0f |    2.746       0       5       0       5     52     52      0   7882     349       2  52    01a0f a70f      9.510 "
test,1583577281802411008,18," | 18  |   8235       5   8230       0 |   5    0      7783       447 |   2  52    0    0 1a0f |    3.479       0       5       0       5     52     52      0   7474     756       3  52    01a0f a70f      9.420 "
test,1583577281801600000,19," | 19  |   8235       5   8216      15 |   5    0      8073       158 |   1  52    0    0 1a0f |    2.014       0       5       0       5     52     52      0   7852     379       1  52    01a0f a70f      9.480 "
test,1583577281815591936,1," |  1  |   8235       4   8232       0 |   0   11      8011       221 |   0   1   61    1 1b0f |    0           0       0       0       8      0      0      0   7958     274       0   1    11b0f a70f     30.240 "
test,1583577281803646976,22," | 22  |   8235       5   8229       0 |   4    0      8161        68 |   5  52    0    0 1a0f |    2.746       0       5       0       5     52     52      0   7808     421       2  52    01a0f a70f      9.480 "
test,1583577281802697984,23," | 23  |   8235       5   8173       0 |   5    0      8136        37 |   3  52    0    0 1a0f |    2.044       0       5       0       5     52     52      0   7983     190       1  52    01a0f a70f      9.540 "
test,1583577281809323008,24," | 24  |   8235       5   8229       2 |   5    0      8132        99 |   2  52    0    0 1a0f |    2.044       0       5       0       5     52     52      0   7928     303       1  52    01a0f a70f     10.170 "
test,1583577281800740864,26," | 26  |   8235       5   8229       2 |   5    0      8199        32 |   1  52    0    0 1a0f |    2.044       0       5       0       5     52     52      0   8052     179       1  52    01a0f a70f      9.540 "
test,1583577281804451840,27," | 27  |   8235       5   8233       0 |   5    0      7991       242 |   2  52    0    0 1a0f |    2.746       0       5       0       5     52     52      0   7676     557       2  52    01a0f a70f     10.230 "
test,1583577281822125056,28," | 28  |   8235       5   8223       8 |   3    0      7579       652 |   1  35    0    0 4a0f |    2.044       0       4       0       4     35     35      0   7251     980       1  35    04a0f a70f     30.390 "
test,1583577281823604992,29," | 29  |   8235       5   8219      14 |   5    0      7287       946 |   2  52    0    0 1a0f |    2.746       0       4       0       4     52     52      0   6934    1299       2  52    01a0f a70f     30.360 "
test,1583577281800297984,30," | 30  |   8235       5   8227       4 |   5    0      8117       114 |   1  35    0    0 4a0f |    2.044       0       5       0       5     35     35      0   7816     415       1  35    04a0f a70f      8.280 "
test,1583577281799303168,35," | 35  |   8235       5   8227       4 |   4    0      7839       392 |   2  35    0    1 4a0f |    1.739       0       4       0       4     35     35      0   7655     576       2  35    14a0f a70f      6.480 "
test,1583577281822486016,40," | 40  |   8235       5   8152      75 |   1    0      7760       467 |   4  42    0    0 d20f |    2.014       0       2       0       2     42     42      0   7561     666       1  42    0d20f a70f     30.330 "
test,1583577281828195072,41," | 41  |   8235       5   8161      60 |   2    2      8145        76 |   4  42   45    0 d20f |    1.953       0       2       0       2     42     42      0   7959     262       1  42    0d20f a70f     30.390 "
test,1583577281824429056,42," | 42  |   8235       5   8164      67 |   1    0      8085       146 |   5  42    0    1 d20f |    1.739       0       1       0       1     42     42      0   7916     315       2  42    1d20f a70f     30.300 "
test,1583577281801785088,44," | 44  |   8235       5   8173      58 |   3    0      8084       147 |   4  45    0    0 b00f |    1.983       0       5       0       5     45     45      0   7924     307       1  45    0b00f a70f      8.220 "
test,1583577281802882816,45," | 45  |   8235       5   8187      44 |   3    0      7980       251 |   5  45    0    1 b00f |    1.739       0       4       0       4     45     45      0   7838     393       2  45    1b00f a70f      6.510 "
test,1583577281822699008,46," | 46  |   8235       5   8166      58 |   2    0      7827       397 |   4  42    0    0 d20f |    1.983       0       2       0       2     42     42      0   7704     520       1  42    0d20f a70f     30.330 "
test,1583577281825686016,47," | 47  |   8235       5   8173      58 |   2    0      7974       257 |   4  45    0    0 b00f |    5.706       0       3       0       3     45     45      0   7835     396       6  45    0b00f a70f     30.390 "
test,1583577281826006016,48," | 48  |   8235       5   8109      55 |   1    1      7998       166 |   4  42   45    0 d20f |    1.983       0       2       0       2     42     42      0   7845     319       1  42    0d20f a70f     30.390 "
test,1583577281800498944,49," | 49  |   8235       5   8225       0 |   5    0      8068       157 |   2  61    0    0 ac0f |    2.807       0       5       0       5     61     61      0   8009     216       2  61    0ac0f a70f      8.880 "
test,1583577281798898944,51," | 51  |   8235       5   8226       0 |   0   11      8132        94 |   0  51    1    1 870f |    1.739       0       4       0       4     51     51      0   8105     121       2  51    1870f a70f      6.510 "
test,1583577281824210944,52," | 52  |   8235       5   8196      31 |   5    0      7820       407 |   2  52    0    1 1a0f |    5.950       0       3       0       3     52     52      0   7680     547       8  52    11a0f a70f     30.300 "
test,1583577281803947008,53," | 53  |   8235       5   8209       0 |   5    0      7806       403 |   3  61    0    0 ac0f |    3.479       0       5       0       5     61     61      0   7722     487       3  61    0ac0f a70f      9.690 "
test,1583577281821464064,54," | 54  |   8235       5   8227       0 |   5    0      8089       138 |   1  61    0    0 ac0f |    2.075       0       4       0       4     61     61      0   7951     276       1  61    0ac0f a70f     30.270 "
test,1583577281806798080,55," | 55  |   8235       5   8214       0 |   5    0      7906       308 |   2  61    0    0 ac0f |    2.746       0       5       0       5     61     61      0   7836     378       2  61    0ac0f a70f      8.940 "
test,1583577281805032960,56," | 56  |   8235       5   8217       0 |   5    0      8093       124 |   2  61    0    0 ac0f |    4.241       0       5       0       5     61     61      0   7994     223       4  61    0ac0f a70f     10.320 "
test,1583577281807133952,57," | 57  |   8235       5   8172       0 |   1    3      7952       220 |   1  61   52    0 ac0f |    4.943       0       5       0       5     61     61      0   7453     719       5  61    0ac0f a70f     11.100 "
test,1583577281799813120,58," | 58  |   8235       4   8226       0 |   5    0      8113       113 |   1  61    0    0 ac0f |    2.075       0       5       0       5     61     61      0   7783     443       1  61    0ac0f a70f      8.250 "
test,1583577281822284032,5," |  5  |   8235       5   8233       0 |   1    7      7477       756 |   2  51   61    0 870f |    2.777       0       2       0       2     51     51      0   7340     893       2  51    0870f a70f     30.360 "
test,1583577281803087872,60," | 60  |   8235       5   8226       0 |   1    5      7686       540 |   1  51   61    0 870f |    2.044       0       5       0       5     51     51      0   7523     703       1  51    0870f a70f      8.250 "
test,1583577281800049920,61," | 61  |   8235       5   8218       7 |   4    0      7856       369 |   3  61    0    1 ac0f |    1.770       0       4       0       4     61     61      0   7578     647       2  61    1ac0f a70f      6.510 "
test,1583577281823806976,7," |  7  |   8235       5   8232       0 |   5    0      8111       121 |   4  61    0    0 ac0f |    4.943       0       1       0       1     61     61      0   8054     178       5  61    0ac0f a70f     30.390 "
test,1583577281819353088,9," |  9  |   8235       5   8231       0 |   5    0      7962       269 |   2  61    0    0 ac0f |    2.777       0       3       0       3     61     61      0   7920     311       2  61    0ac0f a70f     30.330 "
