test,1583577320306249984,10," | 10  |   8389       5   8361       0 |   5    0      8232       129 |   1   7    0    0 be0f |    2.044       0       5       0       5      7      7      0   8143     218       1   7    0be0f a70f      8.280 "
test,1583577320303075072,12," | 12  |   8389       5   8353      34 |   5    0      8301        86 |   1   7    0    0 be0f |    2.014       0       5       0       5      7      7      0   8159     228       1   7    0be0f a70f      8.250 "
test,1583577320301280000,13," | 13  |   8389       5   8385       0 |   5    0      8319        66 |   1   7    0    0 be0f |    2.014       0       5       0       5      7      7      0   8237     148       1   7    0be0f a70f      8.250 "
test,1583577320314771968,15," | 15  |   8389       5   8344      43 |   5    0      8035       352 |   4   7    0    0 be0f |    2.777       0       5       0       5      7      7      0   7659     728       2   7    0be0f a70f      9.000 "
test,1583577320302642176,16," | 16  |   8389       5   8385       0 |   3    2      8060       325 |   4  16   17    1  c0f |    1.739       0       4       0       4     16     16      0   7847     538       2  16    1 c0f a70f      6.480 "
test,1583577320296508160,17," | 17  |   8389       5   8374      11 |   4    1      8273       112 |   5  17   16    1 da0f |    1.739       0       4       0       4     17     17      0   8031     354       2  17    1da0f a70f      6.480 "
test,1583577320320868864,18," | 18  |   8389       5   8384       0 |   0    9      7924       460 |   0  18   17    1 9b0f |    0           0       0       0       8      0      0      0   7611     773       0  18    19b0f a70f     30.180 "
test,1583577320325426176,19," | 19  |   8389       5   8368      17 |   2    9      8221       164 |   4  16   29    0  c0f |    2.746       0       4       0       4     16     16      0   7993     392       2  16    0 c0f a70f     30.360 "
test,1583577320303446016,1," |  1  |   8389       4   8386       0 |   5    0      8161       225 |   1   7    0    0 be0f |    2.716       0       5       0       5      7      7      0   8106     280       1   7    0be0f a70f      8.820 "
test,1583577320310225920,22," | 22  |   8389       5   8383       0 |   5    0      8312        71 |   1  17    0    0 da0f |    2.746       0       5       0       5     17     17      0   7955     428       2  17    0da0f a70f     11.730 "
test,1583577320300836096,23," | 23  |   8389       5   8327       0 |   4    5      8290        37 |   1  16   18    0  c0f |    2.044       0       5       0       5     16     16      0   8133     194       1  16    0 c0f a70f      8.130 "
test,1583577320305211136,24," | 24  |   8389       5   8383       2 |   5    0      8279       106 |   1  17    0    0 da0f |    2.746       0       5       0       5     17     17      0   8070     315       2  17    0da0f a70f      8.910 "
test,1583577320317445888,26," | 26  |   8389       5   8383       2 |   5    1      8353        32 |   1  17   16    0 da0f |    2.044       0       5       0       5     17     17      0   8203     182       1  17    0da0f a70f      8.280 "
test,1583577320312525056,27," | 27  |   8389       5   8387       0 |   3    7      8139       248 |   2  16   29    0  c0f |    2.746       0       5       0       5     16     16      0   7818     569       2  16    0 c0f a70f      8.970 "
test,1583577320326354944,28," | 28  |   8389       5   8377       8 |   1    7      7715       670 |   1  17   30    0 da0f |    9.338       0       1       0       1     17     17      0   7387     998      11  17    0da0f a70f     30.390 "
test,1583577320328735232,29," | 29  |   8389       4   8373      14 |   0    1      7424       963 |   0  29    7    1 a30f |    0           0       0       0       8      0      0      0   7063    1324       0  29    1a30f a70f     30.180 "
test,1583577320304275968,30," | 30  |   8389       5   8381       4 |   5    0      8269       116 |   2  30    0    1 6e0f |    1.739       0       4       0       4     30     30      0   7966     419       2  30    16e0f a70f      6.510 "
test,1583577320304658944,35," | 35  |   8389       5   8381       4 |   5    0      7989       396 |   1  30    0    0 6e0f |    2.044       0       5       0       5     30     30      0   7804     581       1  30    06e0f a70f      8.250 "
test,1583577320308926208,40," | 40  |   8389       5   8306      75 |   5    0      7904       477 |   2  17    0    0 da0f |    4.241       0       5       0       5     17     17      0   7703     678       4  17    0da0f a70f     11.850 "
test,1583577320306966016,41," | 41  |   8389       4   8315      60 |   5    0      8296        79 |   3  17    0    0 da0f |    4.211       0       5       0       5     17     17      0   8107     268       4  17    0da0f a70f     12.540 "
test,1583577320312911872,42," | 42  |   8389       5   8318      67 |   5    0      8235       150 |   2  17    0    0 da0f |    4.211       0       5       0       5     17     17      0   8063     322       4  17    0da0f a70f     12.540 "
test,1583577320308634880,44," | 44  |   8389       5   8327      58 |   5    0      8236       149 |   2  17    0    0 da0f |    3.509       0       5       0       5     17     17      0   8075     310       3  17    0da0f a70f     10.290 "
test,1583577320313942016,45," | 45  |   8389       5   8341      44 |   5    0      8130       255 |   3  17    0    0 da0f |    4.241       0       5       0       5     17     17      0   7985     400       4  17    0da0f a70f     13.170 "
test,1583577320309473024,46," | 46  |   8389       5   8320      58 |   5    0      7972       406 |   3  17    0    0 da0f |    4.180       0       5       0       5     17     17      0   7845     533       4  17    0da0f a70f     11.790 "
test,1583577320315799040,47," | 47  |   8389       5   8327      58 |   5    0      8127       258 |   3  17    0    0 da0f |    4.943       0       5       0       5     17     17      0   7985     400       5  17    0da0f a70f     12.570 "
test,1583577320307977984,48," | 48  |   8389       5   8263      55 |   5    0      8152       166 |   2  17    0    0 da0f |    3.479       0       5       0       5     17     17      0   7995     323       3  17    0da0f a70f     11.040 "
test,1583577320307435008,49," | 49  |   8389       5   8379       0 |   5    0      8218       161 |   1  58    0    0 210f |    2.044       0       5       0       5     58     58      0   8159     220       1  58    0210f a70f      8.250 "
test,1583577320323156224,51," | 51  |   8389       5   8380       0 |   5    0      8284        96 |   1   7    0    0 be0f |    2.746       0       3       0       3      7      7      0   8256     124       2   7    0be0f a70f     30.390 "
test,1583577320323548160,52," | 52  |   8389       5   8348      33 |   4    2      7962       419 |   1  16   17    0  c0f |    0           0       0       0       8      0      0      0   7820     561       0  16    0 c0f a70f     30.330 "
test,1583577320316785152,53," | 53  |   8389       5   8363       0 |   5    0      7949       414 |   2  58    0    0 210f |    2.777       0       5       0       5     58     58      0   7864     499       2  58    0210f a70f      8.850 "
test,1583577320302209024,54," | 54  |   8389       5   8381       0 |   5    0      8239       142 |   1   7    0    0 be0f |    2.014       0       5       0       5      7      7      0   8100     281       1   7    0be0f a70f      8.850 "
test,1583577320303792896,55," | 55  |   8389       5   8368       0 |   5    0      8055       313 |   1  58    0    0 210f |    2.044       0       5       0       5     58     58      0   7984     384       1  58    0210f a70f      8.100 "
test,1583577320322472960,56," | 56  |   8389       5   8371       0 |   0    9      8244       127 |   0  56   58    1 6c0f |    0           0       0       0       8      0      0      0   8143     228       0  56    16c0f a70f     30.150 "
test,1583577320324465152,57," | 57  |   8389       5   8326       0 |   4    7      8106       220 |   2  16   58    0  c0f |    2.716       0       1       0       1     16     16      0   7593     733       2  16    0 c0f a70f     30.330 "
test,1583577320325725952,58," | 58  |   8389       5   8380       0 |   2    0      8267       113 |   5  58    0    1 210f |    1.739       0       1       0       1     58     58      0   7930     450       2  58    1210f a70f     30.300 "
test,1583577320298680064,5," |  5  |   8389       5   8387       0 |   5    0      7621       766 |   2   7    0    0 be0f |    2.777       0       5       0       5      7      7      0   7480     907       2   7    0be0f a70f      8.910 "
test,1583577320326100224,60," | 60  |   8389       5   8380       0 |   5    0      7830       550 |   2   7    0    0 be0f |    3.479       0       3       0       3      7      7      0   7663     717       3   7    0be0f a70f     30.240 "
test,1583577320325042944,61," | 61  |   8389       5   8372       7 |   3    0      8001       378 |   1  58    0    0 210f |    2.075       0       2       0       2     58     58      0   7716     663       1  58    0210f a70f     30.330 "
test,1583577320300349952,7," |  7  |   8389       5   8386       0 |   4    0      8265       121 |   2   7    0    1 be0f |    1.739       0       4       0       4      7      7      0   8207     179       2   7    1be0f a70f      7.200 "
test,1583577320301765888,9," |  9  |   8389       5   8385       0 |   5    0      8109       276 |   1   7    0    0 be0f |    2.044       0       5       0       5      7      7      0   8067     318       1   7    0be0f a70f      9.000 "
