test,1583577303307038976,10," | 10  |   8321       5   8293       0 |   5    0      8165       128 |   1  13    0    0 4a0f |    2.044       0       5       0       5     13     13      0   8076     217       1  13    04a0f a70f      8.310 "
test,1583577303301987840,12," | 12  |   8321       5   8285      34 |   5    0      8234        85 |   1  13    0    0 4a0f |    2.044       0       5       0       5     13     13      0   8092     227       1  13    04a0f a70f      8.280 "
test,1583577303299879936,13," | 13  |   8321       5   8317       0 |   4    0      8251        66 |   2  13    0    1 4a0f |    1.739       0       4       0       4     13     13      0   8170     147       2  13    14a0f a70f      6.510 "
test,1583577303301204992,15," | 15  |   8321       5   8276      43 |   5    0      7968       351 |   1  13    0    0 4a0f |    2.014       0       5       0       5     13     13      0   7594     725       1  13    04a0f a70f      8.970 "
test,1583577303306129920,16," | 16  |   8321       5   8317       0 |   3    0      7995       322 |   4  17    0    0 1d0f |    2.746       0       5       0       5     17     17      0   7784     533       2  17    01d0f a70f      8.790 "
test,1583577303307537920,17," | 17  |   8321       5   8306      11 |   4    0      8206       111 |   2  17    0    1 1d0f |    1.739       0       4       0       4     17     17      0   7964     353       2  17    11d0f a70f      8.640 "
test,1583577303321351168,18," | 18  |   8321       4   8316       0 |   0    2      7864       452 |   0  18   17    1 120f |    0           0       0       0       8      0      0      0   7553     763       0  18    1120f a70f     30.210 "
test,1583577303325017856,19," | 19  |   8321       5   8300      17 |   2    3      8155       162 |  17  19   17    1 750f |   14.587       0       1       0       1     19     19      0   7928     389      20  19    1750f a70f     30.180 "
test,1583577303304840192,1," |  1  |   8321       4   8318       0 |   5    0      8095       223 |   1  13    0    0 4a0f |    2.716       0       5       0       5     13     13      0   8041     277       1  13    04a0f a70f      8.910 "
test,1583577303323677184,22," | 22  |   8321       5   8315       0 |   4   12      8244        71 |   1  17   18    0 1d0f |    2.716       0       4       0       4     17     17      0   7890     425       2  17    01d0f a70f     30.390 "
test,1583577303303736064,23," | 23  |   8321       5   8259       0 |   5    0      8222        37 |   4  17    0    0 1d0f |    2.777       0       5       0       5     17     17      0   8065     194       2  17    01d0f a70f      9.660 "
test,1583577303307873024,24," | 24  |   8321       5   8315       2 |   5    0      8213       104 |   1  17    0    0 1d0f |    2.746       0       5       0       5     17     17      0   8007     310       2  17    01d0f a70f      8.970 "
test,1583577303301410816,26," | 26  |   8321       5   8315       2 |   5    0      8285        32 |   1  17    0    0 1d0f |    1.953       0       5       0       5     17     17      0   8136     181       1  17    01d0f a70f      8.190 "
test,1583577303302691072,27," | 27  |   8321       5   8319       0 |   5    0      8072       247 |   1  17    0    0 1d0f |    2.014       0       5       0       5     17     17      0   7754     565       1  17    01d0f a70f      8.910 "
test,1583577303324346112,28," | 28  |   8321       5   8309       8 |   4    7      7657       660 |   1  17   30    0 1d0f |    5.645       0       2       0       2     17     17      0   7329     988       6  17    01d0f a70f     30.390 "
test,1583577303312238080,29," | 29  |   8321       5   8305      14 |   5    0      7362       957 |   1  19    0    0 750f |    2.014       0       5       0       5     19     19      0   7004    1315       1  19    0750f a70f     15.030 "
test,1583577303300756992,30," | 30  |   8321       5   8313       4 |   4    4      8202       115 |   5  30   17    1 400f |    1.739       0       4       0       4     30     30      0   7900     417       2  30    1400f a70f      6.480 "
test,1583577303301683968,35," | 35  |   8321       5   8313       4 |   5    3      7923       394 |   1  30   17    0 400f |    2.014       0       5       0       5     30     30      0   7738     579       1  30    0400f a70f      8.160 "
test,1583577303323465984,40," | 40  |   8321       4   8238      75 |   5    0      7844       469 |   2  44    0    0 ed0f |    2.044       0       4       0       4     44     44      0   7644     669       1  44    0ed0f a70f     30.330 "
test,1583577303324119040,41," | 41  |   8321       5   8247      60 |   2   11      8229        78 |   1  17   44    0 1d0f |    4.943       0       3       0       3     17     17      0   8040     267       5  17    01d0f a70f     30.300 "
test,1583577303309040896,42," | 42  |   8321       5   8250      67 |   5    0      8167       150 |   2  44    0    0 ed0f |    2.044       0       5       0       5     44     44      0   7997     320       1  44    0ed0f a70f      8.280 "
test,1583577303305147904,44," | 44  |   8321       5   8259      58 |   4    0      8170       147 |   3  44    0    1 ed0f |    1.770       0       4       0       4     44     44      0   8009     308       2  44    1ed0f a70f      6.510 "
test,1583577303303181824,45," | 45  |   8321       5   8273      44 |   5    0      8064       253 |   1  44    0    0 ed0f |    2.075       0       5       0       5     44     44      0   7921     396       1  44    0ed0f a70f      8.130 "
test,1583577303310345984,46," | 46  |   8321       5   8252      58 |   5    0      7908       402 |   2  44    0    0 ed0f |    2.075       0       5       0       5     44     44      0   7782     528       1  44    0ed0f a70f      8.310 "
test,1583577303310113792,47," | 47  |   8321       5   8259      58 |   5    0      8059       258 |   2  44    0    0 ed0f |    2.014       0       5       0       5     44     44      0   7918     399       1  44    0ed0f a70f      8.160 "
test,1583577303304325120,48," | 48  |   8321       5   8195      55 |   5    0      8084       166 |   1  44    0    0 ed0f |    2.044       0       5       0       5     44     44      0   7929     321       1  44    0ed0f a70f      8.130 "
test,1583577303318782208,49," | 49  |   8321       5   8311       0 |   0    7      8150       161 |   0  49   53    1 ca0f |    0           0       0       0       8      0      0      0   8091     220       0  49    1ca0f a70f     30.120 "
test,1583577303300374016,51," | 51  |   8321       5   8312       0 |   5    0      8216        96 |   1  13    0    0 4a0f |    2.044       0       5       0       5     13     13      0   8188     124       1  13    04a0f a70f      8.160 "
test,1583577303322156800,52," | 52  |   8321       5   8280      33 |   2    6      7899       414 |   1  19   17    0 750f |   10.559       0       1       0       1     19     19      0   7758     555      13  19    0750f a70f     30.330 "
test,1583577303323280128,53," | 53  |   8321       5   8295       0 |   5    0      7887       408 |   2  53    0    1 460f |    1.739       0       1       0       1     53     53      0   7802     493       2  53    1460f a70f     30.300 "
test,1583577303304048896,54," | 54  |   8321       5   8313       0 |   5    0      8171       142 |   1  13    0    0 4a0f |    2.044       0       5       0       5     13     13      0   8032     281       1  13    04a0f a70f     11.040 "
test,1583577303321553920,55," | 55  |   8321       5   8300       0 |   5    0      7989       311 |   1  53    0    0 460f |    2.014       0       2       0       2     53     53      0   7918     382       1  53    0460f a70f     30.360 "
test,1583577303304662016,56," | 56  |   8321       5   8303       0 |   5    0      8177       126 |   1  13    0    0 4a0f |    2.075       0       5       0       5     13     13      0   8077     226       1  13    04a0f a70f      8.220 "
test,1583577303308742144,57," | 57  |   8321       4   8258       0 |   4    3      8038       220 |   4  13   17    0 4a0f |    2.807       0       5       0       5     13     13      0   7531     727       2  13    04a0f a70f     11.130 "
test,1583577303302326016,58," | 58  |   8321       5   8312       0 |   4    6      8199       113 |   2  13   49    0 4a0f |    3.479       0       5       0       5     13     13      0   7865     447       3  13    04a0f a70f     11.850 "
test,1583577303306477056,5," |  5  |   8321       5   8319       0 |   5    0      7558       761 |   1  13    0    0 4a0f |    2.014       0       5       0       5     13     13      0   7417     902       1  13    04a0f a70f      8.130 "
test,1583577303302875904,60," | 60  |   8321       5   8312       0 |   5    0      7767       545 |   2  13    0    0 4a0f |    2.807       0       5       0       5     13     13      0   7602     710       2  13    04a0f a70f      8.910 "
test,1583577303305342976,61," | 61  |   8321       5   8304       7 |   4    0      7936       375 |   3  13    0    0 4a0f |    2.777       0       5       0       5     13     13      0   7653     658       2  13    04a0f a70f     10.440 "
test,1583577303300550912,7," |  7  |   8321       5   8318       0 |   5    0      8197       121 |   1  13    0    0 4a0f |    2.014       0       5       0       5     13     13      0   8139     179       1  13    04a0f a70f      8.250 "
test,1583577303300132864,9," |  9  |   8321       5   8317       0 |   5    0      8047       270 |   1  13    0    0 4a0f |    2.044       0       5       0       5     13     13      0   8005     312       1  13    04a0f a70f      8.280 "
