test,1583577363057588992,10," | 10  |   8560       5   8532       0 |   5    0      8401       131 |   1   9    0    0  70f |    1.983       0       5       0       5      9      9      0   8310     222       1   9    0 70f a70f      8.190 "
test,1583577363057807872,12," | 12  |   8560       5   8524      34 |   5    0      8471        87 |   2   9    0    0  70f |    2.777       0       5       0       5      9      9      0   8327     231       2   9    0 70f a70f      8.820 "
test,1583577363054071040,13," | 13  |   8560       5   8556       0 |   5    0      8487        69 |   2   9    0    0  70f |    2.746       0       5       0       5      9      9      0   8404     152       2   9    0 70f a70f      8.790 "
test,1583577363070184960,15," | 15  |   8560       5   8515      43 |   5    0      8197       361 |   3   9    0    0  70f |    3.448       0       5       0       5      9      9      0   7816     742       3   9    0 70f a70f      9.510 "
test,1583577363057400832,16," | 16  |   8560       5   8556       0 |   5    0      8217       339 |   3  18    0    0 710f |    3.448       0       5       0       5     18     18      0   8000     556       3  18    0710f a70f     10.380 "
test,1583577363056549120,17," | 17  |   8560       5   8545      11 |   5    0      8442       114 |   2  18    0    0 710f |    2.746       0       5       0       5     18     18      0   8194     362       2  18    0710f a70f      9.690 "
test,1583577363054600960,18," | 18  |   8560       5   8555       0 |   5    0      8085       470 |   2  18    0    1 710f |    1.739       0       4       0       4     18     18      0   7768     787       2  18    1710f a70f      7.200 "
test,1583577363064995072,19," | 19  |   8560       5   8539      17 |   3    5      8389       167 |   3  18   29    0 710f |    3.479       0       5       0       5     18     18      0   8155     401       3  18    0710f a70f     10.440 "
test,1583577363051279104,1," |  1  |   8560       4   8557       0 |   5    0      8324       233 |   1   9    0    0  70f |    2.685       0       5       0       5      9      9      0   8269     288       1   9    0 70f a70f      8.910 "
test,1583577363059139072,22," | 22  |   8560       5   8554       0 |   5    0      8482        72 |   1  18    0    0 710f |    1.983       0       5       0       5     18     18      0   8120     434       1  18    0710f a70f      9.570 "
test,1583577363054267904,23," | 23  |   8560       5   8498       0 |   5    0      8461        37 |   2  18    0    0 710f |    3.479       0       5       0       5     18     18      0   8301     197       3  18    0710f a70f      9.720 "
test,1583577363052993024,24," | 24  |   8560       5   8554       2 |   5    0      8448       108 |   1  18    0    0 710f |    2.014       0       5       0       5     18     18      0   8236     320       1  18    0710f a70f      8.970 "
test,1583577363053142016,26," | 26  |   8560       5   8554       2 |   5    0      8523        33 |   2  18    0    0 710f |    1.983       0       5       0       5     18     18      0   8372     184       1  18    0710f a70f      8.160 "
test,1583577363057986048,27," | 27  |   8560       5   8558       0 |   4    5      8306       252 |   4  18   29    0 710f |    3.448       0       5       0       5     18     18      0   7979     579       3  18    0710f a70f     10.380 "
test,1583577363074294016,28," | 28  |   8560       4   8548       8 |   4    0      7875       681 |   2  20    0    0 b10f |    2.746       0       4       0       4     20     20      0   7540    1016       2  20    0b10f a70f     30.300 "
test,1583577363073664000,29," | 29  |   8560       5   8544      14 |   0    4      7575       983 |   0  29   18    1 bd0f |    0           0       0       0       8      0      0      0   7208    1350       0  29    1bd0f a70f     30.210 "
test,1583577363058968064,30," | 30  |   8560       5   8552       4 |   5    0      8440       116 |   1  20    0    0 b10f |    2.014       0       5       0       5     20     20      0   8131     425       1  20    0b10f a70f     10.170 "
test,1583577363061229824,35," | 35  |   8560       5   8552       4 |   5    0      8149       407 |   2  20    0    0 b10f |    2.716       0       5       0       5     20     20      0   7963     593       2  20    0b10f a70f     10.770 "
test,1583577363056356864,40," | 40  |   8560       5   8477      75 |   3    1      8063       489 |   2  42   18    0 b70f |    1.983       0       5       0       5     42     42      0   7857     695       1  42    0b70f a70f      8.220 "
test,1583577363055731968,41," | 41  |   8560       5   8486      60 |   4    2      8464        82 |   1  42   18    0 b70f |    2.044       0       5       0       5     42     42      0   8272     274       1  42    0b70f a70f      8.100 "
test,1583577363055073024,42," | 42  |   8560       5   8489      67 |   3    3      8402       154 |   4  42   18    1 b70f |    1.739       0       4       0       4     42     42      0   8227     329       2  42    1b70f a70f      6.480 "
test,1583577363053870080,44," | 44  |   8560       5   8498      58 |   3    3      8406       150 |   1  42   18    0 b70f |    1.983       0       5       0       5     42     42      0   8245     311       1  42    0b70f a70f      8.220 "
test,1583577363055366912,45," | 45  |   8560       5   8512      44 |   4    2      8296       260 |   1  42   18    0 b70f |    2.044       0       5       0       5     42     42      0   8149     407       1  42    0b70f a70f      8.310 "
test,1583577363047512064,46," | 46  |   8560       5   8491      58 |   3    0      8138       411 |   1  42    0    0 b70f |    1.983       0       5       0       5     42     42      0   8007     542       1  42    0b70f a70f      8.190 "
test,1583577363064084992,47," | 47  |   8560       5   8498      58 |   5    0      8295       261 |   1  42    0    0 b70f |    2.014       0       5       0       5     42     42      0   8149     407       1  42    0b70f a70f      8.250 "
test,1583577363056118016,48," | 48  |   8560       5   8434      55 |   3    1      8320       169 |   1  42   18    0 b70f |    2.044       0       5       0       5     42     42      0   8160     329       1  42    0b70f a70f      8.280 "
test,1583577363052592896,49," | 49  |   8560       5   8550       0 |   5    0      8385       165 |   1  53    0    0 240f |    1.983       0       5       0       5     53     53      0   8326     224       1  53    0240f a70f      8.220 "
test,1583577363051892992,51," | 51  |   8560       5   8551       0 |   5    0      8453        98 |   1  56    0    0 900f |    1.983       0       5       0       5     56     56      0   8425     126       1  56    0900f a70f      8.130 "
test,1583577363073142016,52," | 52  |   8560       4   8519      33 |   2    0      8123       429 |   2  18    0    0 710f |    2.746       0       4       0       4     18     18      0   7979     573       2  18    0710f a70f     30.360 "
test,1583577363051580928,53," | 53  |   8560       5   8534       0 |   5    0      8115       419 |   2  53    0    1 240f |    1.739       0       4       0       4     53     53      0   8029     505       2  53    1240f a70f      6.480 "
test,1583577363060129792,54," | 54  |   8560       5   8552       0 |   5    0      8408       144 |   1   9    0    0  70f |    2.044       0       5       0       5      9      9      0   8269     283       1   9    0 70f a70f      8.280 "
test,1583577363052380928,55," | 55  |   8560       5   8539       0 |   5    0      8221       318 |   1  53    0    0 240f |    2.014       0       5       0       5     53     53      0   8148     391       1  53    0240f a70f      8.130 "
test,1583577363054401024,56," | 56  |   8560       5   8542       0 |   4    0      8414       128 |   2  56    0    1 900f |    1.739       0       4       0       4     56     56      0   8311     231       2  56    1900f a70f      6.480 "
test,1583577363053352960,57," | 57  |   8560       5   8497       0 |   5    0      8271       226 |   1  56    0    0 900f |    1.983       0       5       0       5     56     56      0   7749     748       1  56    0900f a70f      8.220 "
test,1583577363070724096,58," | 58  |   8560       5   8551       0 |   0    0      8435       116 |   0   0    0    0    0 |    0           0       0       0       8      0      0      0   8093     458       0   0    0   0 a70f     30.390 "
test,1583577363072918784,5," |  5  |   8560       5   8558       0 |   0    3      7775       783 |   0   5    9    1 ce0f |    0           0       0       0       8      0      0      0   7633     925       0   5    1ce0f a70f     30.180 "
test,1583577363053584128,60," | 60  |   8560       5   8551       0 |   5    0      7992       559 |   1  56    0    0 900f |    2.014       0       5       0       5     56     56      0   7820     731       1  56    0900f a70f      8.790 "
test,1583577363071224832,61," | 61  |   8560       5   8543       7 |   5    0      8166       384 |   2   9    0    0  70f |    0           0       0       0       8      0      0      0   7875     675       0   9    0 70f a70f     30.390 "
test,1583577363055550976,7," |  7  |   8560       5   8557       0 |   5    0      8433       124 |   1   9    0    0  70f |    2.014       0       5       0       5      9      9      0   8373     184       1   9    0 70f a70f      8.970 "
test,1583577363050734080,9," |  9  |   8560       5   8556       0 |   5    0      8278       278 |   2   9    0    1  70f |    1.739       0       4       0       4      9      9      0   8236     320       2   9    1 70f a70f      6.480 "
