test,1583577273554966016,10," | 10  |   8202       5   8174       0 |   5    0      8047       127 |   1  54    0    0 6a0f |    2.044       0       5       0       5     54     54      0   7960     214       1  54    06a0f a70f      8.160 "
test,1583577273549701888,12," | 12  |   8202       5   8166      34 |   5    0      8116        84 |   2  54    0    0 6a0f |    2.044       0       5       0       5     54     54      0   7977     223       1  54    06a0f a70f      9.030 "
test,1583577273550606080,13," | 13  |   8202       5   8198       0 |   5    0      8134        64 |   1  54    0    0 6a0f |    2.014       0       5       0       5     54     54      0   8053     145       1  54    06a0f a70f      8.970 "
test,1583577273568475904,15," | 15  |   8202       5   8157      43 |   3    3      7860       340 |   2  30   54    0 540f |    0           0       0       0       8      0      0      0   7488     712       0  30    0540f a70f     30.390 "
test,1583577273569467136,16," | 16  |   8202       5   8198       0 |   0    8      7885       313 |   0  16   30    1 740f |    0           0       0       0       8      0      0      0   7679     519       0  16    1740f a70f     30.150 "
test,1583577273553929216,17," | 17  |   8202       5   8187      11 |   5    0      8091       107 |   2  30    0    0 540f |    2.777       0       5       0       5     30     30      0   7850     348       2  30    0540f a70f      9.720 "
test,1583577273559843072,18," | 18  |   8202       5   8197       0 |   5    0      7752       445 |   2  30    0    0 540f |    2.746       0       5       0       5     30     30      0   7444     753       2  30    0540f a70f      8.970 "
test,1583577273575545088,19," | 19  |   8202       5   8183      15 |   2    6      8040       158 |   8  19   30    1 520f |    1.739       0       1       0       1     19     19      0   7820     378       2  19    1520f a70f     30.300 "
test,1583577273549104896,1," |  1  |   8202       4   8199       0 |   5    0      7981       218 |   1  54    0    0 6a0f |    2.716       0       5       0       5     54     54      0   7928     271       1  54    06a0f a70f      8.850 "
test,1583577273556056064,22," | 22  |   8202       5   8196       0 |   5    0      8128        68 |   1  30    0    0 540f |    2.044       0       5       0       5     30     30      0   7776     420       1  30    0540f a70f      8.100 "
test,1583577273572133120,23," | 23  |   8202       5   8140       0 |   5    0      8103        37 |   2  30    0    0 540f |    2.746       0       4       0       4     30     30      0   7951     189       2  30    0540f a70f     30.390 "
test,1583577273551880960,24," | 24  |   8202       5   8196       2 |   5    0      8099        99 |   2  30    0    0 540f |    2.777       0       5       0       5     30     30      0   7895     303       2  30    0540f a70f      8.970 "
test,1583577273553744128,26," | 26  |   8202       5   8196       2 |   5    0      8166        32 |   2  30    0    0 540f |    2.777       0       5       0       5     30     30      0   8019     179       2  30    0540f a70f      9.000 "
test,1583577273552464896,27," | 27  |   8202       5   8200       0 |   5    0      7962       238 |   3  30    0    0 540f |    3.479       0       5       0       5     30     30      0   7648     552       3  30    0540f a70f     10.290 "
test,1583577273549961216,28," | 28  |   8202       4   8190       8 |   5    0      7546       652 |   1  30    0    0 540f |    2.044       0       5       0       5     30     30      0   7220     978       1  30    0540f a70f      8.190 "
test,1583577273574173952,29," | 29  |   8202       5   8186      14 |   4    4      7260       940 |   1  19   30    0 520f |    2.014       0       2       0       2     19     19      0   6908    1292       1  19    0520f a70f     30.360 "
test,1583577273550403072,30," | 30  |   8202       5   8194       4 |   4    0      8085       113 |   4  30    0    1 540f |    1.739       0       4       0       4     30     30      0   7785     413       2  30    1540f a70f      6.480 "
test,1583577273550169856,35," | 35  |   8202       5   8194       4 |   5    0      7808       390 |   1  30    0    0 540f |    2.075       0       5       0       5     30     30      0   7625     573       1  30    0540f a70f      8.130 "
test,1583577273571793152,40," | 40  |   8202       5   8119      75 |   1    1      7728       466 |   2  46   30    0 220f |    2.014       0       1       0       1     46     46      0   7530     664       1  46    0220f a70f     30.390 "
test,1583577273570702080,41," | 41  |   8202       5   8128      60 |   1    5      8112        76 |   1  46   45    0 220f |    2.014       0       1       0       1     46     46      0   7926     262       1  46    0220f a70f     30.390 "
test,1583577273572910080,42," | 42  |   8202       5   8131      67 |   1    6      8052       146 |   2  46   45    0 220f |    2.807       0       1       0       1     46     46      0   7883     315       2  46    0220f a70f     30.360 "
test,1583577273575046912,44," | 44  |   8202       5   8140      58 |   1    6      8051       147 |   2  46   45    0 220f |    2.807       0       1       0       1     46     46      0   7892     306       2  46    0220f a70f     30.360 "
test,1583577273569711872,45," | 45  |   8202       5   8154      44 |   0    1      7948       250 |   0  45   46    1 880f |    0           0       0       0       8      0      0      0   7806     392       0  45    1880f a70f     30.240 "
test,1583577273574614016,46," | 46  |   8202       5   8133      58 |   1    3      7798       393 |   2  46   45    1 220f |    1.739       0       1       0       1     46     46      0   7675     516       2  46    1220f a70f     30.300 "
test,1583577273573463808,47," | 47  |   8202       5   8140      58 |   1    1      7944       254 |   2  46   30    0 220f |    2.044       0       2       0       2     46     46      0   7805     393       1  46    0220f a70f     30.390 "
test,1583577273573908992,48," | 48  |   8202       5   8076      55 |   1    5      7966       165 |   2  46   45    0 220f |    2.044       0       1       0       1     46     46      0   7813     318       1  46    0220f a70f     30.330 "
test,1583577273554395904,49," | 49  |   8202       5   8192       0 |   5    0      8036       156 |   2  49    0    1 de0f |    1.739       0       4       0       4     49     49      0   7977     215       2  49    1de0f a70f      6.480 "
test,1583577273551439104,51," | 51  |   8202       5   8193       0 |   5    0      8100        93 |   2  54    0    0 6a0f |    2.807       0       5       0       5     54     54      0   8072     121       2  54    06a0f a70f      9.000 "
test,1583577273572470016,52," | 52  |   8202       5   8163      31 |   5    0      7789       405 |   3  30    0    0 540f |    3.509       0       4       0       4     30     30      0   7650     544       3  30    0540f a70f     30.360 "
test,1583577273555182848,53," | 53  |   8202       5   8176       0 |   5    0      7773       403 |   1  49    0    0 de0f |    1.983       0       5       0       5     49     49      0   7689     487       1  49    0de0f a70f      8.160 "
test,1583577273552786944,54," | 54  |   8202       5   8194       0 |   5    0      8058       136 |   2  54    0    1 6a0f |    1.739       0       4       0       4     54     54      0   7921     273       2  54    16a0f a70f      8.640 "
test,1583577273552110080,55," | 55  |   8202       5   8181       0 |   5    0      7876       305 |   1  49    0    0 de0f |    1.983       0       5       0       5     49     49      0   7806     375       1  49    0de0f a70f      8.100 "
test,1583577273553193216,56," | 56  |   8202       5   8184       0 |   5    0      8061       123 |   3  54    0    0 6a0f |    2.746       0       5       0       5     54     54      0   7962     222       2  54    06a0f a70f      9.540 "
test,1583577273571380992,57," | 57  |   8202       5   8139       0 |   5    0      7919       220 |   3  30    0    0 540f |    5.676       0       3       0       3     30     30      0   7424     715       6  30    0540f a70f     30.360 "
test,1583577273557854976,58," | 58  |   8202       4   8193       0 |   5    0      8081       112 |   1  49    0    0 de0f |    2.044       0       5       0       5     49     49      0   7751     442       1  49    0de0f a70f      8.220 "
test,1583577273551245056,5," |  5  |   8202       5   8200       0 |   5    0      7446       754 |   3  54    0    0 6a0f |    2.746       0       5       0       5     54     54      0   7309     891       2  54    06a0f a70f      9.600 "
test,1583577273553606912,60," | 60  |   8202       5   8193       0 |   4    2      7655       538 |   5  54   30    0 6a0f |    3.540       0       5       0       5     54     54      0   7493     700       3  54    06a0f a70f      9.630 "
test,1583577273552990976,61," | 61  |   8202       5   8185       7 |   5    0      7823       369 |   1  54    0    0 6a0f |    2.075       0       5       0       5     54     54      0   7545     647       1  54    06a0f a70f     10.350 "
test,1583577273551613184,7," |  7  |   8202       5   8199       0 |   5    0      8078       121 |   1  54    0    0 6a0f |    2.044       0       5       0       5     54     54      0   8021     178       1  54    06a0f a70f      9.000 "
test,1583577273548631808,9," |  9  |   8202       5   8198       0 |   5    0      7931       267 |   1  54    0    0 6a0f |    2.044       0       5       0       5     54     54      0   7889     309       1  54    06a0f a70f      8.280 "
