test,1583577396802032896,10," | 10  |   8695       5   8667       0 |   5    0      8534       133 |   1  13    0    0 3e0f |    2.044       0       5       0       5     13     13      0   8443     224       1  13    03e0f a70f      8.280 "
test,1583577396807094016,12," | 12  |   8695       5   8659      34 |   5    0      8603        90 |   2  13    0    0 3e0f |    2.746       0       5       0       5     13     13      0   8457     236       2  13    03e0f a70f      8.970 "
test,1583577396801474048,13," | 13  |   8695       5   8691       0 |   5    0      8621        70 |   2  13    0    1 3e0f |    1.770       0       4       0       4     13     13      0   8537     154       2  13    13e0f a70f      6.510 "
test,1583577396810771968,15," | 15  |   8695       5   8650      43 |   5    0      8327       366 |   3  13    0    0 3e0f |    3.509       0       5       0       5     13     13      0   7940     753       3  13    03e0f a70f      9.720 "
test,1583577396805840128,16," | 16  |   8695       5   8691       0 |   4    0      8347       344 |   2  16    0    1 4b0f |    1.770       0       4       0       4     16     16      0   8129     562       2  16    14b0f a70f      6.510 "
test,1583577396806265088,17," | 17  |   8695       5   8680      11 |   5    0      8575       116 |   3  16    0    0 4b0f |    2.746       0       5       0       5     16     16      0   8327     364       2  16    04b0f a70f     10.410 "
test,1583577396829536000,18," | 18  |   8695       5   8690       0 |   5    7      8213       477 |   1  24   16    0 210f |    2.014       0       2       0       2     24     24      0   7892     798       1  24    0210f a70f     30.300 "
test,1583577396822223872,19," | 19  |   8695       4   8674      17 |   5    5      8520       171 |   1  24   16    0 210f |    0           0       0       0       8      0      0      0   8286     405       0  24    0210f a70f     30.390 "
test,1583577396804382208,1," |  1  |   8695       4   8692       0 |   5    0      8456       236 |   1  13    0    0 3e0f |    2.716       0       5       0       5     13     13      0   8401     291       1  13    03e0f a70f      8.790 "
test,1583577396808140032,22," | 22  |   8695       5   8689       0 |   5    0      8616        73 |   3  16    0    0 4b0f |    5.004       0       5       0       5     16     16      0   8250     439       5  16    04b0f a70f     11.190 "
test,1583577396804851968,23," | 23  |   8695       5   8633       0 |   5    0      8595        38 |   1  16    0    0 4b0f |    2.044       0       5       0       5     16     16      0   8435     198       1  16    04b0f a70f      9.000 "
test,1583577396827163904,24," | 24  |   8695       5   8689       2 |   4   11      8581       110 |   5  24   16    1 210f |    1.770       0       1       0       1     24     24      0   8365     326       2  24    1210f a70f     30.300 "
test,1583577396805042944,26," | 26  |   8695       5   8689       2 |   5    0      8658        33 |   2  16    0    0 4b0f |    2.807       0       5       0       5     16     16      0   8505     186       2  16    04b0f a70f     10.410 "
test,1583577396806458880,27," | 27  |   8695       5   8693       0 |   5    0      8438       255 |   2  16    0    0 4b0f |    2.746       0       5       0       5     16     16      0   8109     584       2  16    04b0f a70f      9.660 "
test,1583577396803437824,28," | 28  |   8695       5   8683       8 |   4    5      8006       685 |   3  30   24    0 a60f |    2.014       0       5       0       5     30     30      0   7666    1025       1  30    0a60f a70f      8.250 "
test,1583577396823288832,29," | 29  |   8695       5   8678      15 |   5    4      7696       997 |   2  24   16    0 210f |    0           0       0       0       8      0      0      0   7324    1369       0  24    0210f a70f     30.390 "
test,1583577396803712000,30," | 30  |   8695       5   8687       4 |   4    0      8574       117 |   2  30    0    1 a60f |    1.770       0       4       0       4     30     30      0   8262     429       2  30    1a60f a70f      6.510 "
test,1583577396802632192,35," | 35  |   8695       5   8687       4 |   5    0      8283       408 |   1  30    0    0 a60f |    2.014       0       5       0       5     30     30      0   8094     597       1  30    0a60f a70f      8.160 "
test,1583577396823884032,40," | 40  |   8695       4   8612      75 |   0    4      8182       505 |   0  40   16    1 a20f |    0           0       0       0       8      0      0      0   7975     712       0  40    1a20f a70f     30.150 "
test,1583577396827357952,41," | 41  |   8695       5   8621      60 |   5    0      8598        83 |   6  16    0    0 4b0f |    5.676       0       2       0       2     16     16      0   8405     276       6  16    04b0f a70f     30.360 "
test,1583577396825777152,42," | 42  |   8695       5   8624      67 |   3    0      8537       154 |  11  16    0    0 4b0f |    7.171       0       1       0       1     16     16      0   8361     330       8  16    04b0f a70f     30.390 "
test,1583577396826695936,44," | 44  |   8695       5   8633      58 |   1   11      8536       155 |   1  24   16    0 210f |    3.448       0       1       0       1     24     24      0   8371     320       3  24    0210f a70f     30.330 "
test,1583577396825640960,45," | 45  |   8695       5   8647      44 |   5    0      8428       263 |   1  16    0    0 4b0f |    3.509       0       3       0       3     16     16      0   8277     414       3  16    04b0f a70f     30.390 "
test,1583577396826409216,46," | 46  |   8695       5   8626      58 |   5    0      8267       417 |   7  16    0    0 4b0f |    5.706       0       2       0       2     16     16      0   8137     547       6  16    04b0f a70f     30.360 "
test,1583577396825303040,47," | 47  |   8695       5   8633      58 |   0    5      8426       265 |   0  47   16    1 330f |    0           0       0       0       8      0      0      0   8278     413       0  47    1330f a70f     30.240 "
test,1583577396828247040,48," | 48  |   8695       5   8569      55 |   4    0      8454       170 |   8  16    0    0 4b0f |    5.676       0       2       0       2     16     16      0   8294     330       6  16    04b0f a70f     30.390 "
test,1583577396804541184,49," | 49  |   8695       5   8685       0 |   4    0      8519       166 |   2  49    0    1 150f |    1.739       0       4       0       4     49     49      0   8459     226       2  49    1150f a70f      6.480 "
test,1583577396802372864,51," | 51  |   8695       5   8686       0 |   5    0      8588        98 |   1  13    0    0 3e0f |    2.014       0       5       0       5     13     13      0   8558     128       1  13    03e0f a70f      8.250 "
test,1583577396809946112,52," | 52  |   8695       3   8654      33 |   5    0      8254       433 |   1  16    0    0 4b0f |    2.807       0       5       0       5     16     16      0   8110     577       2  16    04b0f a70f      9.570 "
test,1583577396802874112,53," | 53  |   8695       5   8669       0 |   5    0      8240       429 |   1  49    0    0 150f |    2.014       0       5       0       5     49     49      0   8153     516       1  49    0150f a70f      8.130 "
test,1583577396806042880,54," | 54  |   8695       5   8687       0 |   5    0      8543       144 |   2  13    0    0 3e0f |    2.777       0       5       0       5     13     13      0   8400     287       2  13    03e0f a70f      8.970 "
test,1583577396809544192,55," | 55  |   8695       5   8674       0 |   5    0      8353       321 |   1  49    0    0 150f |    2.044       0       5       0       5     49     49      0   8278     396       1  49    0150f a70f      8.970 "
test,1583577396809362944,56," | 56  |   8695       5   8677       0 |   5    0      8549       128 |   2  13    0    0 3e0f |    2.777       0       5       0       5     13     13      0   8444     233       2  13    03e0f a70f      8.850 "
test,1583577396826211072,57," | 57  |   8695       2   8632       0 |   5    0      8401       231 |   2  16    0    0 4b0f |    2.777       0       4       0       4     16     16      0   7875     757       2  16    04b0f a70f     30.330 "
test,1583577396824762112,58," | 58  |   8695       4   8686       0 |   5    0      8568       118 |   1  49    0    0 150f |    2.807       0       2       0       2     49     49      0   8223     463       2  49    0150f a70f     30.330 "
test,1583577396821556992,5," |  5  |   8695       5   8693       0 |   0    7      7894       799 |   0   5   13    1 d80f |    0           0       0       0       8      0      0      0   7751     942       0   5    1d80f a70f     30.210 "
test,1583577396824935936,60," | 60  |   8695       5   8686       0 |   4    1      8119       567 |   3  16   13    0 4b0f |    3.509       0       4       0       4     16     16      0   7946     740       3  16    04b0f a70f     30.330 "
test,1583577396822406912,61," | 61  |   8695       5   8678       7 |   0    6      8288       397 |   0  61   13    1 120f |    0           0       0       0       8      0      0      0   7993     692       0  61    1120f a70f     30.150 "
test,1583577396803112960,7," |  7  |   8695       5   8692       0 |   5    0      8567       125 |   1  13    0    0 3e0f |    2.014       0       5       0       5     13     13      0   8506     186       1  13    03e0f a70f      8.190 "
test,1583577396803969024,9," |  9  |   8695       5   8691       0 |   5    0      8411       280 |   1  13    0    0 3e0f |    2.044       0       5       0       5     13     13      0   8368     323       1  13    03e0f a70f      8.310 "
