test,1583575433013709056,10," | 10  |    840       5    812       0 |   5    1       802        10 |   1   7   22    0 680f |    2.014       0       5       0       5      7      7      0    790      22       1   7    0680f a70f      8.940 "
test,1583575433010976000,12," | 12  |    840       5    838       0 |   5    0       832         6 |   1   7    0    0 680f |    2.044       0       5       0       5      7      7      0    818      20       1   7    0680f a70f      8.280 "
test,1583575433012200192,13," | 13  |    840       5    836       0 |   5    0       827         9 |   1   7    0    0 680f |    2.075       0       5       0       5      7      7      0    817      19       1   7    0680f a70f      8.280 "
test,1583575433036009984,15," | 15  |    840       5    838       0 |   5    0       808        30 |   2   7    0    0 680f |    4.241       0       4       0       4      7      7      0    778      60       4   7    0680f a70f     30.300 "
test,1583575433014909952,16," | 16  |    840       5    836       0 |   5    0       805        31 |   2  22    0    0 240f |    2.746       0       5       0       5     22     22      0    786      50       2  22    0240f a70f      8.970 "
test,1583575433014544128,17," | 17  |    840       5    836       0 |   4    0       826        10 |   4  22    0    0 240f |    2.716       0       5       0       5     22     22      0    802      34       2  22    0240f a70f      9.660 "
test,1583575433017174016,18," | 18  |    840       5    835       0 |   5    0       780        55 |   1  22    0    0 240f |    2.014       0       5       0       5     22     22      0    743      92       1  22    0240f a70f      8.250 "
test,1583575433030704128,19," | 19  |    840       5    835       1 |   1    6       828         8 |   1  29   22    0 a10f |    0           0       0       0       8      0      0      0    801      35       0  29    0a10f a70f     30.360 "
test,1583575433011734016,1," |  1  |    840       4    837       0 |   5    0       822        15 |   1   7    0    0 680f |    2.716       0       5       0       5      7      7      0    815      22       1   7    0680f a70f      8.940 "
test,1583575433012572928,22," | 22  |    840       5    834       0 |   4    0       825         9 |   3  22    0    1 240f |    1.770       0       4       0       4     22     22      0    784      50       2  22    1240f a70f      6.510 "
test,1583575433012832000,23," | 23  |    840       5    778       0 |   5    0       773         5 |   1  22    0    0 240f |    2.044       0       5       0       5     22     22      0    759      19       1  22    0240f a70f      8.130 "
test,1583575433015720960,24," | 24  |    840       5    836       0 |   5    0       831         5 |   2  22    0    0 240f |    1.983       0       5       0       5     22     22      0    812      24       1  22    0240f a70f      9.540 "
test,1583575433014384128,26," | 26  |    840       5    836       0 |   5    0       833         3 |   1  22    0    0 240f |    1.983       0       5       0       5     22     22      0    817      19       1  22    0240f a70f      8.910 "
test,1583575433033432064,27," | 27  |    840       5    838       0 |   2    5       818        20 |   1  29    7    0 a10f |    2.014       0       1       0       1     29     29      0    781      57       1  29    0a10f a70f     30.390 "
test,1583575433016045056,28," | 28  |    840       5    836       0 |   4    0       767        69 |   3  22    0    0 240f |    2.746       0       5       0       5     22     22      0    745      91       2  22    0240f a70f      8.910 "
test,1583575433037106944,29," | 29  |    840       5    835       3 |   1    0       738       100 |   5  29    0    1 a10f |    1.739       0       1       0       1     29     29      0    692     146       2  29    1a10f a70f     30.300 "
test,1583575433020248832,30," | 30  |    840       5    836       0 |   5    0       827         9 |   2  22    0    0 240f |    1.983       0       5       0       5     22     22      0    805      31       1  22    0240f a70f      8.790 "
test,1583575433012398080,35," | 35  |    840       5    836       0 |   5    0       800        36 |   1  22    0    0 240f |    2.014       0       5       0       5     22     22      0    786      50       1  22    0240f a70f      8.220 "
test,1583575433035158016,40," | 40  |    840       5    806      26 |   5    0       763        69 |   1  42    0    0 d60f |    2.014       0       4       0       4     42     42      0    734      98       1  42    0d60f a70f     30.360 "
test,1583575433035526144,41," | 41  |    840       5    801      25 |   5    0       815        11 |   1  42    0    0 d60f |    2.014       0       4       0       4     42     42      0    794      32       1  42    0d60f a70f     30.360 "
test,1583575433038064128,42," | 42  |    840       5    808      28 |   4    0       802        34 |   2  42    0    1 d60f |    1.739       0       3       0       3     42     42      0    782      54       2  42    1d60f a70f     30.300 "
test,1583575433036536832,44," | 44  |    840       5    813      23 |   5    0       809        27 |   1  42    0    0 d60f |    1.983       0       4       0       4     42     42      0    786      50       1  42    0d60f a70f     30.390 "
test,1583575433033884160,45," | 45  |    840       5    817      19 |   5    0       796        40 |   1  42    0    0 d60f |    2.014       0       4       0       4     42     42      0    775      61       1  42    0d60f a70f     30.360 "
test,1583575433035770880,46," | 46  |    840       5    805      24 |   5    0       793        36 |   1  42    0    0 d60f |    1.983       0       4       0       4     42     42      0    775      54       1  42    0d60f a70f     30.390 "
test,1583575433035325952,47," | 47  |    840       5    811      25 |   5    0       799        37 |   1  42    0    0 d60f |    2.014       0       4       0       4     42     42      0    783      53       1  42    0d60f a70f     30.390 "
test,1583575433034627840,48," | 48  |    840       5    747      22 |   5    0       741        28 |   1  42    0    0 d60f |    2.044       0       4       0       4     42     42      0    718      51       1  42    0d60f a70f     30.240 "
test,1583575433014735872,49," | 49  |    840       5    830       0 |   5    0       818        12 |   1  55    0    0 ac0f |    1.983       0       5       0       5     55     55      0    812      18       1  55    0ac0f a70f      8.790 "
test,1583575433022174976,51," | 51  |    840       5    831       0 |   5    0       825         6 |   3  22    0    0 240f |    4.211       0       5       0       5     22     22      0    824       7       4  22    0240f a70f     10.290 "
test,1583575433015362048,52," | 52  |    840       5    825       7 |   2    0       792        40 |   2  22    0    0 240f |    2.746       0       5       0       5     22     22      0    774      58       2  22    0240f a70f      9.630 "
test,1583575433013046016,53," | 53  |    840       5    814       0 |   5    0       773        41 |   1  55    0    0 ac0f |    1.983       0       5       0       5     55     55      0    767      47       1  55    0ac0f a70f      8.250 "
test,1583575433017561856,54," | 54  |    840       5    832       0 |   5    0       821        11 |   1   7    0    0 680f |    2.014       0       5       0       5      7      7      0    802      30       1   7    0680f a70f      9.690 "
test,1583575433011426048,55," | 55  |    840       5    819       0 |   4    0       783        36 |   8  55    0    1 ac0f |    1.770       0       4       0       4     55     55      0    781      38       2  55    1ac0f a70f      6.510 "
test,1583575433016774912,56," | 56  |    840       5    822       0 |   5    0       805        17 |   2  22    0    0 240f |    3.479       0       5       0       5     22     22      0    799      23       3  22    0240f a70f      9.690 "
test,1583575433016587008,57," | 57  |    840       5    777       0 |   5    0       749        28 |   1  22    0    0 240f |    2.716       0       5       0       5     22     22      0    705      72       2  22    0240f a70f     10.350 "
test,1583575433034373120,58," | 58  |    840       5    831       0 |   5    1       821        10 |   1  55   22    0 ac0f |    2.746       0       3       0       3     55     55      0    799      32       2  55    0ac0f a70f     30.270 "
test,1583575433013388032,5," |  5  |    840       5    838       0 |   5    0       774        64 |   2   7    0    0 680f |    2.777       0       5       0       5      7      7      0    757      81       2   7    0680f a70f      8.940 "
test,1583575433015160064,60," | 60  |    840       5    831       0 |   5    0       780        51 |   2  22    0    0 240f |    3.448       0       5       0       5     22     22      0    771      60       3  22    0240f a70f      9.660 "
test,1583575433038435072,61," | 61  |    840       5    830       0 |   0    5       798        32 |   0  61   55    1 8a0f |    0           0       0       0       8      0      0      0    778      52       0  61    18a0f a70f     30.150 "
test,1583575433011169024,7," |  7  |    840       5    837       0 |   5    0       821        16 |   2   7    0    1 680f |    1.739       0       4       0       4      7      7      0    817      20       2   7    1680f a70f      6.480 "
test,1583575433011943936,9," |  9  |    840       5    836       0 |   5    0       803        33 |   1   7    0    0 680f |    2.044       0       5       0       5      7      7      0    798      38       1   7    0680f a70f      8.250 "
