test,1583577410325103104,10," | 10  |   8749       5   8721       0 |   5    1      8587       134 |   1   9    1    0 ae0f |    4.119       0       2       0       2      9      9      0   8496     225       4   9    0ae0f a70f     30.390 "
test,1583577410303438848,12," | 12  |   8749       5   8713      34 |   5    0      8657        90 |   4   1    0    0 3a0f |    1.373       0       5       0       5      1      1      0   8511     236       1   1    03a0f a70f      7.410 "
test,1583577410302820864,13," | 13  |   8749       5   8745       0 |   2    6      8675        70 |   4   1    9    0 3a0f |    1.342       0       5       0       5      1      1      0   8591     154       1   1    03a0f a70f      7.380 "
test,1583577410304047104,15," | 15  |   8749       5   8704      43 |   4    1      8379       368 |   5   1    9    0 3a0f |    2.044       0       5       0       5      1      1      0   7989     758       2   1    03a0f a70f      8.070 "
test,1583577410311894784,16," | 16  |   8749       5   8745       0 |   5    0      8399       346 |   1  26    0    0  80f |    2.014       0       5       0       5     26     26      0   8180     565       1  26    0 80f a70f      8.070 "
test,1583577410325747968,17," | 17  |   8749       5   8734      11 |   5    0      8628       117 |   1  26    0    0  80f |    2.746       0       4       0       4     26     26      0   8380     365       2  26    0 80f a70f     30.390 "
test,1583577410325374976,18," | 18  |   8749       5   8744       0 |   5    0      8265       479 |   1  26    0    0  80f |    2.716       0       4       0       4     26     26      0   7944     800       2  26    0 80f a70f     30.360 "
test,1583577410327622912,19," | 19  |   8749       5   8728      17 |   4    0      8573       172 |   1  26    0    0  80f |    3.479       0       4       0       4     26     26      0   8337     408       3  26    0 80f a70f     30.240 "
test,1583577410306940160,1," |  1  |   8749       4   8746       0 |   1    8      8506       240 |   5   1    9    1 3a0f |    6.011       0       4       0       4      1      1      0   8451     295       8   1    13a0f a70f     10.680 "
test,1583577410306208000,22," | 22  |   8749       5   8743       0 |   5    0      8670        73 |   1  26    0    0  80f |    2.044       0       5       0       5     26     26      0   8303     440       1  26    0 80f a70f      8.130 "
test,1583577410305305856,23," | 23  |   8749       5   8687       0 |   5    0      8649        38 |   1  26    0    0  80f |    2.044       0       5       0       5     26     26      0   8488     199       1  26    0 80f a70f      8.280 "
test,1583577410305465088,24," | 24  |   8749       5   8743       2 |   5    0      8635       110 |   1  26    0    0  80f |    2.014       0       5       0       5     26     26      0   8417     328       1  26    0 80f a70f      8.070 "
test,1583577410302350080,26," | 26  |   8749       5   8743       2 |   4    0      8711        34 |   2  26    0    1  80f |    1.739       0       4       0       4     26     26      0   8559     186       2  26    1 80f a70f      6.510 "
test,1583577410324784896,27," | 27  |   8749       5   8747       0 |   1    7      8491       256 |   4  29   26    0 190f |    2.044       0       1       0       1     29     29      0   8159     588       1  29    0190f a70f     30.330 "
test,1583577410324460032,28," | 28  |   8749       5   8737       8 |   5    0      8058       687 |   2  26    0    0  80f |    3.479       0       4       0       4     26     26      0   7714    1031       3  26    0 80f a70f     30.390 "
test,1583577410328666880,29," | 29  |   8749       5   8732      15 |   1    3      7747      1000 |   5  29   26    1 190f |    1.739       0       1       0       1     29     29      0   7375    1372       2  29    1190f a70f     30.300 "
test,1583577410310374144,30," | 30  |   8749       5   8741       4 |   5    0      8628       117 |   2  26    0    0  80f |    2.777       0       5       0       5     26     26      0   8312     433       2  26    0 80f a70f      9.660 "
test,1583577410303865856,35," | 35  |   8749       5   8741       4 |   5    0      8335       410 |   2  26    0    0  80f |    2.746       0       5       0       5     26     26      0   8144     601       2  26    0 80f a70f      8.910 "
test,1583577410327919872,40," | 40  |   8749       5   8665      76 |   5    0      8234       507 |   2  42    0    0 7c0f |   12.695       0       5       0       5     42     42      0   8025     716      16  42    07c0f a70f     30.360 "
test,1583577410326848000,41," | 41  |   8749       5   8674      61 |   5    0      8651        84 |   1  42    0    0 7c0f |   12.725       0       5       0       5     42     42      0   8455     280      16  42    07c0f a70f     30.360 "
test,1583577410327422976,42," | 42  |   8749       5   8677      68 |   0    0      8589       156 |   0  42    0    1 7c0f |   27.465       0       2       0       2     42     42      0   8411     334      38  42    17c0f a70f     30.300 "
test,1583577410327091968,44," | 44  |   8749       5   8686      59 |   5    0      8589       156 |   1  42    0    0 7c0f |   12.695       0       5       0       5     42     42      0   8422     323      16  42    07c0f a70f     30.270 "
test,1583577410318379008,45," | 45  |   8749       5   8701      44 |   5    0      8478       267 |   1  42    0    0 7c0f |    6.256       0       5       0       5     42     42      0   8325     420       7  42    07c0f a70f     23.580 "
test,1583577410322875136,46," | 46  |   8749       5   8680      58 |   5    0      8320       418 |   1  42    0    0 7c0f |    4.089       0       5       0       5     42     42      0   8187     551       4  42    07c0f a70f     27.690 "
test,1583577410320358912,47," | 47  |   8749       5   8686      59 |   5    0      8479       266 |   1  42    0    0 7c0f |    4.089       0       5       0       5     42     42      0   8329     416       4  42    07c0f a70f     25.620 "
test,1583577410328227072,48," | 48  |   8749       5   8622      56 |   4    0      8507       171 |   3  42    0    0 7c0f |   12.664       0       4       0       4     42     42      0   8344     334      16  42    07c0f a70f     30.330 "
test,1583577410305961984,49," | 49  |   8749       5   8739       0 |   5    5      8570       169 |   1  53   58    0  c0f |    2.044       0       5       0       5     53     53      0   8509     230       1  53    0 c0f a70f      8.190 "
test,1583577410326618880,51," | 51  |   8749       5   8740       0 |   2    3      8641        99 |   3  26    9    0  80f |    7.873       0       3       0       3     26     26      0   8610     130       9  26    0 80f a70f     30.300 "
test,1583577410304580864,52," | 52  |   8749       2   8708      33 |   5    0      8308       433 |   1  26    0    0  80f |    2.014       0       5       0       5     26     26      0   8164     577       1  26    0 80f a70f      8.220 "
test,1583577410301934848,53," | 53  |   8749       5   8723       0 |   4    0      8292       431 |   5  53    0    1  c0f |    1.739       0       4       0       4     53     53      0   8204     519       2  53    1 c0f a70f      6.510 "
test,1583577410307735040,54," | 54  |   8749       5   8741       0 |   1    5      8596       145 |   6   1    9    0 3a0f |    1.342       0       5       0       5      1      1      0   8453     288       1   1    03a0f a70f     11.790 "
test,1583577410303715072,55," | 55  |   8749       5   8728       0 |   5    5      8404       324 |   1  53   58    0  c0f |    2.044       0       5       0       5     53     53      0   8327     401       1  53    0 c0f a70f      8.250 "
test,1583577410329474816,56," | 56  |   8749       5   8731       0 |   2    2      8602       129 |   7  58   26    0 690f |    2.014       0       3       0       3     58     58      0   8497     234       1  58    0690f a70f     30.330 "
test,1583577410305645056,57," | 57  |   8749       5   8686       0 |   5    1      8454       232 |   1  26   58    0  80f |    2.014       0       5       0       5     26     26      0   7924     762       1  26    0 80f a70f      8.250 "
test,1583577410310177024,58," | 58  |   8749       5   8740       0 |   4    0      8621       119 |   5  58    0    1 690f |    3.814       0       4       0       4     58     58      0   8274     466       5  58    1690f a70f      8.520 "
test,1583577410303006976,5," |  5  |   8749       5   8747       0 |   4    0      7942       805 |   5   1    0    0 3a0f |    2.075       0       5       0       5      1      1      0   7799     948       2   1    03a0f a70f      8.130 "
test,1583577410306745088,60," | 60  |   8749       5   8740       0 |   4    0      8168       572 |   2  26    0    0  80f |    4.241       0       5       0       5     26     26      0   7995     745       4  26    0 80f a70f     10.410 "
test,1583577410304916992,61," | 61  |   8749       5   8732       7 |   5    0      8338       401 |   1  58    0    0 690f |    2.044       0       5       0       5     58     58      0   8041     698       1  58    0690f a70f      8.790 "
test,1583577410304719872,7," |  7  |   8749       5   8746       0 |   2    2      8620       126 |   4   1    9    0 3a0f |    1.312       0       5       0       5      1      1      0   8560     186       1   1    03a0f a70f      8.130 "
test,1583577410325990912,9," |  9  |   8749       5   8745       0 |   4    1      8464       281 |   8   9    1    1 ae0f |    3.814       0       2       0       2      9      9      0   8421     324       5   9    1ae0f a70f     30.300 "
