test,1583577268570772992,10," | 10  |   8182       5   8154       0 |   5    0      8028       126 |   1  12    0    0 630f |    2.746       0       4       0       4     12     12      0   7940     214       2  12    0630f a70f     30.330 "
test,1583577268551554048,12," | 12  |   8182       5   8146      34 |   4    0      8096        84 |   4  12    0    1 630f |    1.739       0       4       0       4     12     12      0   7957     223       2  12    1630f a70f      6.510 "
test,1583577268550509824,13," | 13  |   8182       5   8178       0 |   5    0      8116        62 |   1  12    0    0 630f |    2.746       0       5       0       5     12     12      0   8034     144       2  12    0630f a70f      8.820 "
test,1583577268553276928,15," | 15  |   8182       5   8137      43 |   4    2      7842       338 |   1  12   29    0 630f |    2.044       0       5       0       5     12     12      0   7472     708       1  12    0630f a70f      8.160 "
test,1583577268551325184,16," | 16  |   8182       5   8178       0 |   5    0      7867       311 |   3  29    0    0 150f |    3.448       0       5       0       5     29     29      0   7661     517       3  29    0150f a70f      9.630 "
test,1583577268550878976,17," | 17  |   8182       5   8167      11 |   5    0      8071       107 |   2  29    0    0 150f |    2.746       0       5       0       5     29     29      0   7831     347       2  29    0150f a70f      8.820 "
test,1583577268549874176,18," | 18  |   8182       5   8177       0 |   5    0      7733       444 |   1  47    0    0 850f |    1.983       0       5       0       5     47     47      0   7426     751       1  47    0850f a70f      8.130 "
test,1583577268549598976,19," | 19  |   8182       5   8163      15 |   5    0      8020       158 |   1  29    0    0 150f |    1.983       0       5       0       5     29     29      0   7801     377       1  29    0150f a70f      8.070 "
test,1583577268552434944,1," |  1  |   8182       4   8179       0 |   5    0      7962       217 |   1  12    0    0 630f |    2.716       0       5       0       5     12     12      0   7909     270       1  12    0630f a70f      9.540 "
test,1583577268554048000,22," | 22  |   8182       5   8176       0 |   5    0      8108        68 |   2  47    0    0 850f |    2.746       0       5       0       5     47     47      0   7757     419       2  47    0850f a70f      8.940 "
test,1583577268551048960,23," | 23  |   8182       5   8120       0 |   5    0      8083        37 |   4  29    0    0 150f |    2.746       0       5       0       5     29     29      0   7932     188       2  29    0150f a70f      8.970 "
test,1583577268553896960,24," | 24  |   8182       5   8176       2 |   5    0      8081        97 |   2  47    0    0 850f |    2.716       0       5       0       5     47     47      0   7878     300       2  47    0850f a70f      8.910 "
test,1583577268555119872,26," | 26  |   8182       5   8176       2 |   3    2      8146        32 |   2  29   47    0 150f |    2.777       0       5       0       5     29     29      0   8000     178       2  29    0150f a70f     10.320 "
test,1583577268551908096,27," | 27  |   8182       5   8180       0 |   5    0      7942       238 |   1  29    0    0 150f |    2.014       0       5       0       5     29     29      0   7628     552       1  29    0150f a70f      9.540 "
test,1583577268572029952,28," | 28  |   8182       5   8170       8 |   2    4      7527       651 |   3  29   47    0 150f |    2.746       0       1       0       1     29     29      0   7201     977       2  29    0150f a70f     30.390 "
test,1583577268573184000,29," | 29  |   8182       3   8167      13 |   0    0      7243       937 |   0  29    0    1 150f |    1.770       0       3       0       3     29     29      0   6892    1288       2  29    1150f a70f     30.300 "
test,1583577268557362176,30," | 30  |   8182       5   8174       4 |   5    0      8065       113 |   3  47    0    0 850f |    4.211       0       5       0       5     47     47      0   7765     413       4  47    0850f a70f     10.410 "
test,1583577268552884224,35," | 35  |   8182       5   8174       4 |   5    0      7788       390 |   3  47    0    0 850f |    3.509       0       5       0       5     47     47      0   7605     573       3  47    0850f a70f      9.600 "
test,1583577268554434048,40," | 40  |   8182       5   8099      75 |   5    0      7710       464 |   5  47    0    0 850f |    4.180       0       5       0       5     47     47      0   7512     662       4  47    0850f a70f     10.230 "
test,1583577268565329920,41," | 41  |   8182       5   8108      60 |   5    0      8092        76 |   4  47    0    0 850f |    3.448       0       5       0       5     47     47      0   7906     262       3  47    0850f a70f      9.660 "
test,1583577268556772864,42," | 42  |   8182       5   8111      67 |   5    0      8032       146 |   5  47    0    0 850f |    4.211       0       5       0       5     47     47      0   7863     315       4  47    0850f a70f     10.410 "
test,1583577268555741184,44," | 44  |   8182       5   8120      58 |   5    0      8031       147 |   5  47    0    0 850f |    4.180       0       5       0       5     47     47      0   7872     306       4  47    0850f a70f     10.380 "
test,1583577268554814208,45," | 45  |   8182       5   8134      44 |   5    0      7931       247 |   5  47    0    0 850f |    4.241       0       5       0       5     47     47      0   7789     389       4  47    0850f a70f     10.320 "
test,1583577268560391936,46," | 46  |   8182       5   8113      58 |   5    0      7779       392 |   4  47    0    0 850f |    4.180       0       5       0       5     47     47      0   7655     516       4  47    0850f a70f     11.820 "
test,1583577268548230912,47," | 47  |   8182       5   8120      58 |   4    0      7924       254 |   5  47    0    1 850f |    1.770       0       4       0       4     47     47      0   7785     393       2  47    1850f a70f      6.510 "
test,1583577268561960960,48," | 48  |   8182       5   8056      55 |   5    0      7946       165 |   5  47    0    0 850f |    4.180       0       5       0       5     47     47      0   7793     318       4  47    0850f a70f     11.070 "
test,1583577268553057792,49," | 49  |   8182       5   8172       0 |   5    4      8016       156 |   1  53   12    0 ae0f |    2.014       0       5       0       5     53     53      0   7957     215       1  53    0ae0f a70f      8.220 "
test,1583577268567734016,51," | 51  |   8182       5   8173       0 |   0    7      8080        93 |   0  51   29    1 4b0f |    0           0       0       0       8      0      0      0   8052     121       0  51    14b0f a70f     30.150 "
test,1583577268554612992,52," | 52  |   8182       3   8143      31 |   5    0      7771       403 |   2  29    0    0 150f |    2.746       0       5       0       5     29     29      0   7632     542       2  29    0150f a70f      9.660 "
test,1583577268558633984,53," | 53  |   8182       5   8156       0 |   4    0      7753       403 |   5  53    0    1 ae0f |    1.739       0       4       0       4     53     53      0   7669     487       2  53    1ae0f a70f      6.480 "
test,1583577268552211968,54," | 54  |   8182       5   8174       0 |   5    0      8038       136 |   1  12    0    0 630f |    2.014       0       5       0       5     12     12      0   7901     273       1  12    0630f a70f      8.970 "
test,1583577268550268928,55," | 55  |   8182       5   8161       0 |   5    4      7857       304 |   1  53   12    0 ae0f |    2.014       0       5       0       5     53     53      0   7786     375       1  53    0ae0f a70f      8.220 "
test,1583577268570988032,56," | 56  |   8182       5   8164       0 |   3    0      8041       123 |  13  29    0    0 150f |    5.645       0       2       0       2     29     29      0   7942     222       6  29    0150f a70f     30.360 "
test,1583577268558448128,57," | 57  |   8182       5   8119       0 |   5    0      7901       218 |   5  29    0    0 150f |    3.417       0       5       0       5     29     29      0   7409     710       3  29    0150f a70f     10.980 "
test,1583577268572614912,58," | 58  |   8182       2   8173       0 |   5    0      8061       112 |   1  12    0    0 630f |    3.509       0       4       0       4     12     12      0   7733     440       3  12    0630f a70f     30.390 "
test,1583577268552655104,5," |  5  |   8182       5   8180       0 |   5    0      7429       751 |   1  12    0    0 630f |    3.448       0       5       0       5     12     12      0   7292     888       3  12    0630f a70f      9.630 "
test,1583577268570596864,60," | 60  |   8182       5   8173       0 |   5    0      7635       538 |   6  29    0    0 150f |    5.676       0       2       0       2     29     29      0   7473     700       6  29    0150f a70f     30.270 "
test,1583577268572361984,61," | 61  |   8182       5   8165       7 |   4    2      7804       368 |   2  12   29    0 630f |    2.746       0       4       0       4     12     12      0   7527     645       2  12    0630f a70f     30.360 "
test,1583577268548843008,7," |  7  |   8182       5   8179       0 |   5    0      8058       121 |   1  12    0    0 630f |    2.044       0       5       0       5     12     12      0   8002     177       1  12    0630f a70f      8.220 "
test,1583577268548546048,9," |  9  |   8182       5   8178       0 |   5    0      7911       267 |   1  12    0    0 630f |    2.044       0       5       0       5     12     12      0   7869     309       1  12    0630f a70f      8.250 "
