test,1583577467323577856,10," | 10  |   8977       5   8949       0 |   5    1      8813       136 |   1  51   49    0 470f |    2.777       0       3       0       3     51     51      0   8719     230       2  51    0470f a70f     30.330 "
test,1583577467321554944,12," | 12  |   8977       5   8941      34 |   1   12      8885        90 |   1  15    9    0 330f |    1.983       0       2       0       2     15     15      0   8738     237       1  15    0330f a70f     30.390 "
test,1583577467306025984,13," | 13  |   8977       5   8973       0 |   5    0      8901        72 |   1  51    0    0 470f |    3.509       0       5       0       5     51     51      0   8816     157       3  51    0470f a70f      9.600 "
test,1583577467324034816,15," | 15  |   8977       5   8932      43 |   1    0      8595       380 |   2  15    0    1 330f |    1.770       0       2       0       2     15     15      0   8202     773       2  15    1330f a70f     30.300 "
test,1583577467308929024,16," | 16  |   8977       5   8973       0 |   4    0      8620       353 |   2  16    0    1 2e0f |    1.770       0       4       0       4     16     16      0   8395     578       2  16    12e0f a70f      6.510 "
test,1583577467303753984,17," | 17  |   8977       5   8962      11 |   4    7      8852       121 |   5  17   41    1 930f |    1.739       0       4       0       4     17     17      0   8600     373       2  17    1930f a70f      6.480 "
test,1583577467329672960,18," | 18  |   8977       5   8972       0 |   5    0      8481       491 |   6  41    0    0 b50f |    2.777       0       1       0       1     41     41      0   8148     824       2  41    0b50f a70f     30.270 "
test,1583577467303028224,19," | 19  |   8977       5   8955      18 |   5    6      8797       176 |   1  17   41    0 930f |    2.014       0       5       0       5     17     17      0   8557     416       1  17    0930f a70f      8.280 "
test,1583577467327329024,1," |  1  |   8977       4   8974       0 |   5    0      8725       249 |   1  51    0    0 470f |    4.180       0       3       0       3     51     51      0   8670     304       3  51    0470f a70f     30.300 "
test,1583577467321757952,22," | 22  |   8977       5   8971       0 |   5    0      8896        75 |   7  41    0    0 b50f |    0           0       0       0       8      0      0      0   8519     452       0  41    0b50f a70f     30.360 "
test,1583577467302490880,23," | 23  |   8977       5   8915       0 |   5    0      8877        38 |   1  16    0    0 2e0f |    2.044       0       5       0       5     16     16      0   8712     203       1  16    02e0f a70f      8.190 "
test,1583577467322521856,24," | 24  |   8977       5   8971       2 |   5    0      8860       113 |   5  41    0    0 b50f |    0           0       0       0       8      0      0      0   8637     336       0  41    0b50f a70f     30.390 "
test,1583577467308723968,26," | 26  |   8977       5   8971       2 |   1   14      8938        35 |   5  16   17    0 2e0f |    2.746       0       5       0       5     16     16      0   8785     188       2  16    02e0f a70f      8.910 "
test,1583577467328435968,27," | 27  |   8977       5   8975       0 |   2    7      8713       262 |   8  16   17    0 2e0f |    2.777       0       3       0       3     16     16      0   8375     600       2  16    02e0f a70f     30.360 "
test,1583577467305131008,28," | 28  |   8977       5   8965       8 |   5    0      8268       705 |   1  17    0    0 930f |    2.014       0       5       0       5     17     17      0   7909    1064       1  17    0930f a70f      9.480 "
test,1583577467326296064,29," | 29  |   8977       5   8960      15 |   0    4      7949      1026 |   0  29   17    1 d90f |    0           0       0       0       8      0      0      0   7570    1405       0  29    1d90f a70f     30.210 "
test,1583577467307895040,30," | 30  |   8977       5   8969       4 |   5    0      8853       120 |   2  17    0    0 930f |    2.746       0       5       0       5     17     17      0   8524     449       2  17    0930f a70f      8.910 "
test,1583577467306565120,35," | 35  |   8977       5   8969       4 |   5    0      8557       416 |   3  17    0    0 930f |    3.509       0       5       0       5     17     17      0   8357     616       3  17    0930f a70f      9.600 "
test,1583577467319856896,40," | 40  |   8977       5   8885      84 |   0    5      8443       526 |   0  40   41    1 240f |    0           0       0       0       8      0      0      0   8219     750       0  40    1240f a70f     30.150 "
test,1583577467305573888,41," | 41  |   8977       5   8895      68 |   4    0      8867        96 |   2  41    0    1 b50f |    1.739       0       4       0       4     41     41      0   8665     298       2  41    1b50f a70f      7.920 "
test,1583577467326459904,42," | 42  |   8977       5   8898      75 |   5    0      8806       167 |   3  41    0    0 b50f |    4.180       0       4       0       4     41     41      0   8614     359       4  41    0b50f a70f     30.390 "
test,1583577467307023104,44," | 44  |   8977       5   8907      66 |   5    0      8805       168 |   1  41    0    0 b50f |    2.777       0       5       0       5     41     41      0   8629     344       2  41    0b50f a70f      8.970 "
test,1583577467310804992,45," | 45  |   8977       5   8924      49 |   5    0      8693       280 |   1  41    0    0 b50f |    2.044       0       5       0       5     41     41      0   8531     442       1  41    0b50f a70f      8.280 "
test,1583577467304270080,46," | 46  |   8977       5   8901      65 |   5    0      8532       434 |   2  41    0    0 b50f |    1.983       0       5       0       5     41     41      0   8390     576       1  41    0b50f a70f      8.160 "
test,1583577467303240960,47," | 47  |   8977       5   8906      67 |   5    0      8690       283 |   3  41    0    0 b50f |    2.014       0       5       0       5     41     41      0   8530     443       1  41    0b50f a70f      8.130 "
test,1583577467325730048,48," | 48  |   8977       5   8843      63 |   4    2      8727       179 |   4  41   40    0 b50f |    3.479       0       3       0       3     41     41      0   8553     353       3  41    0b50f a70f     30.330 "
test,1583577467323195904,49," | 49  |   8977       5   8967       0 |   2    1      8794       173 |   8  49   53    1 a10f |    5.981       0       3       0       3     49     49      0   8735     232       8  49    1a10f a70f     30.300 "
test,1583577467304802048,51," | 51  |   8977       5   8968       0 |   4    0      8865       103 |   3  51    0    1 470f |    1.739       0       4       0       4     51     51      0   8833     135       2  51    1470f a70f      6.510 "
test,1583577467305288192,52," | 52  |   8977       4   8936      33 |   5    0      8522       447 |   1  16    0    0 2e0f |    2.044       0       5       0       5     16     16      0   8371     598       1  16    02e0f a70f      8.100 "
test,1583577467325961984,53," | 53  |   8977       5   8951       0 |   2    2      8506       445 |   2  53   49    1 c80f |    1.739       0       1       0       1     53     53      0   8417     534       2  53    1c80f a70f     30.300 "
test,1583577467323041792,54," | 54  |   8977       5   8969       0 |   1   11      8820       149 |   4  49    9    0 a10f |    2.746       0       3       0       3     49     49      0   8677     292       2  49    0a10f a70f     30.390 "
test,1583577467324956928,55," | 55  |   8977       5   8956       0 |   3    4      8625       331 |   1  53   49    0 c80f |    2.014       0       2       0       2     53     53      0   8546     410       1  53    0c80f a70f     30.360 "
test,1583577467304552192,56," | 56  |   8977       5   8959       0 |   5    0      8826       133 |   1  51    0    0 470f |    2.014       0       5       0       5     51     51      0   8720     239       1  51    0470f a70f      8.220 "
test,1583577467322113024,57," | 57  |   8977       4   8914       0 |   5    0      8676       238 |   2  51    0    0 470f |    0           0       0       0       8      0      0      0   8131     783       0  51    0470f a70f     30.390 "
test,1583577467305764864,58," | 58  |   8977       5   8968       0 |   5    0      8844       124 |   1  49    0    0 a10f |    2.075       0       5       0       5     49     49      0   8478     490       1  49    0a10f a70f      9.510 "
test,1583577467306756864,5," |  5  |   8977       5   8975       0 |   5    0      8147       828 |   2  51    0    0 470f |    4.211       0       5       0       5     51     51      0   8000     975       4  51    0470f a70f     10.380 "
test,1583577467303491072,60," | 60  |   8977       5   8968       0 |   5    0      8378       590 |   1  51    0    0 470f |    2.014       0       5       0       5     51     51      0   8199     769       1  51    0470f a70f      8.130 "
test,1583577467308422144,61," | 61  |   8977       5   8951      16 |   5    0      8548       419 |   2  49    0    0 a10f |    2.746       0       5       0       5     49     49      0   8241     726       2  49    0a10f a70f     10.170 "
test,1583577467321347840,7," |  7  |   8977       5   8974       0 |   5    0      8848       126 |   1  51    0    0 470f |    4.211       0       4       0       4     51     51      0   8787     187       4  51    0470f a70f     30.300 "
test,1583577467328780032,9," |  9  |   8977       5   8973       0 |   0    7      8687       286 |   0   9   51    1 450f |    0           0       0       0       8      0      0      0   8644     329       0   9    1450f a70f     30.210 "
