test,1583577377803921920,10," | 10  |   8619       5   8591       0 |   5    0      8460       131 |   1   9    0    0 880f |    1.983       0       5       0       5      9      9      0   8369     222       1   9    0880f a70f      8.220 "
test,1583577377804729856,12," | 12  |   8619       5   8583      34 |   5    0      8529        88 |   2   9    0    0 880f |    2.044       0       5       0       5      9      9      0   8384     233       1   9    0880f a70f      8.850 "
test,1583577377802987008,13," | 13  |   8619       5   8615       0 |   5    0      8546        69 |   1   9    0    0 880f |    1.983       0       5       0       5      9      9      0   8463     152       1   9    0880f a70f      8.940 "
test,1583577377808026112,15," | 15  |   8619       5   8574      43 |   5    0      8254       363 |   3   9    0    0 880f |    2.716       0       5       0       5      9      9      0   7868     749       2   9    0880f a70f      9.660 "
test,1583577377802776064,16," | 16  |   8619       5   8615       0 |   4    0      8273       342 |   8  16    0    1 810f |    1.770       0       4       0       4     16     16      0   8056     559       2  16    1810f a70f      6.510 "
test,1583577377804471040,17," | 17  |   8619       5   8604      11 |   4    9      8499       116 |   2  26   16    0 950f |    1.953       0       5       0       5     26     26      0   8252     363       1  26    0950f a70f      8.190 "
test,1583577377807410944,18," | 18  |   8619       5   8614       0 |   1    2      8140       474 |   5  18   26    1 9b0f |    3.814       0       4       0       4     18     18      0   7822     792       5  18    19b0f a70f      8.520 "
test,1583577377807203072,19," | 19  |   8619       5   8598      17 |   5    0      8447       168 |   1  26    0    0 950f |    2.014       0       5       0       5     26     26      0   8213     402       1  26    0950f a70f      8.160 "
test,1583577377804209920,1," |  1  |   8619       4   8616       0 |   5    0      8382       234 |   1   9    0    0 880f |    2.685       0       5       0       5      9      9      0   8327     289       1   9    0880f a70f      8.910 "
test,1583577377823520000,22," | 22  |   8619       5   8613       0 |   1    9      8541        72 |   4  18   16    0 9b0f |    4.119       0       4       0       4     18     18      0   8178     435       4  18    09b0f a70f     30.390 "
test,1583577377805593856,23," | 23  |   8619       5   8557       0 |   5    7      8520        37 |   1  16    9    0 810f |    2.044       0       5       0       5     16     16      0   8360     197       1  16    0810f a70f      8.280 "
test,1583577377824694016,24," | 24  |   8619       5   8613       2 |   1    5      8505       110 |   4  18   16    0 9b0f |    9.246       0       1       0       1     18     18      0   8292     323      11  18    09b0f a70f     30.390 "
test,1583577377801000960,26," | 26  |   8619       5   8613       2 |   2   13      8582        33 |   7  26   16    1 950f |    1.739       0       4       0       4     26     26      0   8430     185       2  26    1950f a70f      6.480 "
test,1583577377825179136,27," | 27  |   8619       5   8617       0 |   5    6      8365       252 |   2  16   26    0 810f |    2.716       0       1       0       1     16     16      0   8036     581       2  16    0810f a70f     30.360 "
test,1583577377824904960,28," | 28  |   8619       5   8607       8 |   4    0      7931       684 |   1  35    0    0 e60f |    2.044       0       4       0       4     35     35      0   7595    1020       1  35    0e60f a70f     30.360 "
test,1583577377817229056,29," | 29  |   8619       3   8602      15 |   4    4      7631       986 |   4  26   16    0 950f |    2.716       0       5       0       5     26     26      0   7263    1354       2  26    0950f a70f      8.940 "
test,1583577377802099968,30," | 30  |   8619       5   8611       4 |   5    0      8498       117 |   1  35    0    0 e60f |    2.014       0       5       0       5     35     35      0   8189     426       1  35    0e60f a70f      8.130 "
test,1583577377801393152,35," | 35  |   8619       5   8611       4 |   5    0      8207       408 |   2  35    0    1 e60f |    1.739       0       4       0       4     35     35      0   8021     594       2  35    1e60f a70f      6.480 "
test,1583577377805778944,40," | 40  |   8619       5   8536      75 |   5    0      8116       495 |   1  47    0    0 770f |    2.014       0       5       0       5     47     47      0   7910     701       1  47    0770f a70f      9.570 "
test,1583577377817629952,41," | 41  |   8619       5   8545      60 |   5    0      8523        82 |   1  47    0    0 770f |    2.014       0       5       0       5     47     47      0   8330     275       1  47    0770f a70f      8.220 "
test,1583577377809241088,42," | 42  |   8619       5   8548      67 |   5    0      8461       154 |   1  47    0    0 770f |    1.983       0       5       0       5     47     47      0   8285     330       1  47    0770f a70f      8.820 "
test,1583577377803651072,44," | 44  |   8619       5   8557      58 |   4    0      8462       153 |   1  47    0    0 770f |    2.746       0       5       0       5     47     47      0   8297     318       2  47    0770f a70f      8.940 "
test,1583577377808811008,45," | 45  |   8619       5   8571      44 |   5    0      8355       260 |   1  47    0    0 770f |    2.014       0       5       0       5     47     47      0   8205     410       1  47    0770f a70f      8.190 "
test,1583577377805003008,46," | 46  |   8619       5   8550      58 |   5    0      8194       414 |   1  47    0    0 770f |    2.014       0       5       0       5     47     47      0   8064     544       1  47    0770f a70f      8.940 "
test,1583577377810003968,47," | 47  |   8619       5   8557      58 |   5    0      8353       262 |   2  47    0    1 770f |    1.739       0       4       0       4     47     47      0   8207     408       2  47    1770f a70f      7.920 "
test,1583577377810573056,48," | 48  |   8619       5   8493      55 |   5    0      8378       170 |   1  47    0    0 770f |    1.983       0       5       0       5     47     47      0   8218     330       1  47    0770f a70f      9.660 "
test,1583577377810206976,49," | 49  |   8619       5   8609       0 |   5    0      8443       166 |   2  61    0    0 900f |    2.746       0       5       0       5     61     61      0   8383     226       2  61    0900f a70f      8.850 "
test,1583577377802617088,51," | 51  |   8619       5   8610       0 |   5    0      8512        98 |   2   9    0    0 880f |    2.716       0       5       0       5      9      9      0   8484     126       2   9    0880f a70f      8.970 "
test,1583577377826050048,52," | 52  |   8619       5   8578      33 |   1   12      8180       431 |   5  18   16    0 9b0f |   10.009       0       1       0       1     18     18      0   8037     574      12  18    09b0f a70f     30.330 "
test,1583577377806219008,53," | 53  |   8619       5   8593       0 |   5    0      8171       422 |   3  61    0    0 900f |    3.479       0       5       0       5     61     61      0   8084     509       3  61    0900f a70f      9.690 "
test,1583577377803488000,54," | 54  |   8619       5   8611       0 |   4    0      8467       144 |   4   9    0    0 880f |    2.014       0       5       0       5      9      9      0   8326     285       1   9    0880f a70f      8.250 "
test,1583577377815060992,55," | 55  |   8619       5   8598       0 |   5    0      8280       318 |   2  61    0    0 900f |    2.746       0       5       0       5     61     61      0   8206     392       2  61    0900f a70f      8.970 "
test,1583577377811484160,56," | 56  |   8619       5   8601       0 |   5    0      8473       128 |   2   9    0    0 880f |    2.777       0       5       0       5      9      9      0   8370     231       2   9    0880f a70f      8.850 "
test,1583577377824024832,57," | 57  |   8619       5   8556       0 |   4    5      8327       229 |   5   9   16    0 880f |    9.338       0       1       0       1      9      9      0   7804     752      11   9    0880f a70f     30.360 "
test,1583577377824320000,58," | 58  |   8619       5   8610       0 |   4    1      8494       116 |   1  61    9    0 900f |    2.044       0       3       0       3     61     61      0   8151     459       1  61    0900f a70f     30.330 "
test,1583577377805982208,5," |  5  |   8619       5   8617       0 |   5    0      7829       788 |   2   9    0    0 880f |    2.746       0       5       0       5      9      9      0   7687     930       2   9    0880f a70f      8.790 "
test,1583577377806715904,60," | 60  |   8619       5   8610       0 |   5    0      8046       564 |   3   9    0    0 880f |    3.479       0       5       0       5      9      9      0   7874     736       3   9    0880f a70f      9.570 "
test,1583577377826476032,61," | 61  |   8619       5   8602       7 |   1    3      8220       389 |   2  61    9    1 900f |    1.739       0       3       0       3     61     61      0   7927     682       2  61    1900f a70f     30.300 "
test,1583577377806487040,7," |  7  |   8619       5   8616       0 |   5    0      8492       124 |   1   9    0    0 880f |    1.983       0       5       0       5      9      9      0   8432     184       1   9    0880f a70f      8.310 "
test,1583577377802462208,9," |  9  |   8619       5   8615       0 |   4    0      8337       278 |   4   9    0    1 880f |    1.739       0       4       0       4      9      9      0   8295     320       2   9    1880f a70f      6.480 "
