test,1583577407804986112,10," | 10  |   8739       5   8711       0 |   5    0      8578       133 |   4  10    0    1 590f |    1.739       0       4       0       4     10     10      0   8487     224       2  10    1590f a70f      6.480 "
test,1583577407803465984,12," | 12  |   8739       5   8703      34 |   5    0      8647        90 |   1  10    0    0 590f |    2.044       0       5       0       5     10     10      0   8501     236       1  10    0590f a70f      8.280 "
test,1583577407803774976,13," | 13  |   8739       5   8735       0 |   5    0      8665        70 |   1  10    0    0 590f |    2.014       0       5       0       5     10     10      0   8581     154       1  10    0590f a70f      8.250 "
test,1583577407809650944,15," | 15  |   8739       5   8694      43 |   5    0      8369       368 |   2  10    0    0 590f |    2.746       0       5       0       5     10     10      0   7979     758       2  10    0590f a70f      9.000 "
test,1583577407809097984,16," | 16  |   8739       5   8735       0 |   5    0      8390       345 |   2  17    0    0 110f |    2.746       0       5       0       5     17     17      0   8171     564       2  17    0110f a70f      9.630 "
test,1583577407806256896,17," | 17  |   8739       5   8724      11 |   4    0      8618       117 |   2  17    0    1 110f |    1.739       0       4       0       4     17     17      0   8370     365       2  17    1110f a70f      6.510 "
test,1583577407825987072,18," | 18  |   8739       5   8734       0 |   5    0      8255       479 |   1  17    0    0 110f |    4.943       0       4       0       4     17     17      0   7934     800       5  17    0110f a70f     30.360 "
test,1583577407810183168,19," | 19  |   8739       5   8718      17 |   5    0      8563       172 |   1  17    0    0 110f |    2.746       0       5       0       5     17     17      0   8327     408       2  17    0110f a70f      8.970 "
test,1583577407809353984,1," |  1  |   8739       4   8736       0 |   5    0      8497       239 |   1  10    0    0 590f |    2.716       0       5       0       5     10     10      0   8442     294       1  10    0590f a70f      8.880 "
test,1583577407813560064,22," | 22  |   8739       5   8733       0 |   5    0      8660        73 |   1  17    0    0 110f |    2.746       0       5       0       5     17     17      0   8293     440       2  17    0110f a70f      9.690 "
test,1583577407805865984,23," | 23  |   8739       5   8677       0 |   5    0      8639        38 |   2  17    0    0 110f |    2.716       0       5       0       5     17     17      0   8478     199       2  17    0110f a70f      8.940 "
test,1583577407807763200,24," | 24  |   8739       5   8733       2 |   5    0      8625       110 |   1  17    0    0 110f |    2.685       0       5       0       5     17     17      0   8408     327       2  17    0110f a70f      8.880 "
test,1583577407805668096,26," | 26  |   8739       5   8733       2 |   5    0      8702        33 |   1  17    0    0 110f |    2.014       0       5       0       5     17     17      0   8549     186       1  17    0110f a70f      9.690 "
test,1583577407826514944,27," | 27  |   8739       5   8737       0 |   5    0      8481       256 |   2  17    0    0 110f |    4.211       0       3       0       3     17     17      0   8150     587       4  17    0110f a70f     30.360 "
test,1583577407824512000,28," | 28  |   8739       4   8727       8 |   5    0      8048       687 |   2  35    0    0 c80f |    2.807       0       4       0       4     35     35      0   7705    1030       2  35    0c80f a70f     30.360 "
test,1583577407827475968,29," | 29  |   8739       4   8722      15 |   5    0      7737      1000 |   2  17    0    0 110f |    3.448       0       3       0       3     17     17      0   7365    1372       3  17    0110f a70f     30.390 "
test,1583577407807140096,30," | 30  |   8739       5   8731       4 |   5    0      8618       117 |   1  35    0    0 c80f |    2.044       0       5       0       5     35     35      0   8303     432       1  35    0c80f a70f      8.280 "
test,1583577407802232064,35," | 35  |   8739       5   8731       4 |   4    0      8325       410 |   2  35    0    1 c80f |    1.770       0       4       0       4     35     35      0   8135     600       2  35    1c80f a70f      6.510 "
test,1583577407811163904,40," | 40  |   8739       4   8656      75 |   2    6      8224       507 |   1  47   17    0 e10f |    6.256       0       5       0       5     47     47      0   8017     714       7  47    0e10f a70f     15.870 "
test,1583577407825426176,41," | 41  |   8739       5   8665      60 |   5    0      8641        84 |   3  17    0    0 110f |    3.387       0       3       0       3     17     17      0   8447     278       3  17    0110f a70f     30.390 "
test,1583577407810041856,42," | 42  |   8739       5   8668      67 |   5    0      8581       154 |   3  17    0    0 110f |    3.387       0       5       0       5     17     17      0   8404     331       3  17    0110f a70f     11.040 "
test,1583577407808176128,44," | 44  |   8739       5   8677      58 |   5    0      8580       155 |   2  17    0    0 110f |    2.655       0       5       0       5     17     17      0   8415     320       2  17    0110f a70f     10.290 "
test,1583577407816503040,45," | 45  |   8739       5   8691      44 |   5    0      8469       266 |   3  17    0    0 110f |    3.387       0       5       0       5     17     17      0   8317     418       3  17    0110f a70f     11.040 "
test,1583577407820278016,46," | 46  |   8739       5   8670      58 |   5    0      8310       418 |   3  17    0    0 110f |    3.448       0       5       0       5     17     17      0   8179     549       3  17    0110f a70f     11.070 "
test,1583577407827287040,47," | 47  |   8739       5   8677      58 |   1    7      8470       265 |  14  47   17    1 e10f |   12.420       0       3       0       3     47     47      0   8322     413      17  47    1e10f a70f     30.240 "
test,1583577407806489088,48," | 48  |   8739       5   8613      55 |   5    0      8498       170 |   6  17    0    0 110f |    3.448       0       5       0       5     17     17      0   8337     331       3  17    0110f a70f     11.100 "
test,1583577407804802816,49," | 49  |   8739       5   8729       0 |   5    0      8561       168 |   2  10    0    0 590f |    2.746       0       5       0       5     10     10      0   8500     229       2  10    0590f a70f      8.940 "
test,1583577407801997824,51," | 51  |   8739       5   8730       0 |   5    1      8631        99 |   1  10   17    0 590f |    2.014       0       5       0       5     10     10      0   8600     130       1  10    0590f a70f      8.250 "
test,1583577407807593984,52," | 52  |   8739       4   8698      33 |   5    0      8298       433 |   2  17    0    0 110f |    2.716       0       5       0       5     17     17      0   8154     577       2  17    0110f a70f      9.630 "
test,1583577407806878208,53," | 53  |   8739       5   8713       0 |   5    0      8282       431 |   3  10    0    0 590f |    3.479       0       5       0       5     10     10      0   8194     519       3  10    0590f a70f      9.540 "
test,1583577407804272896,54," | 54  |   8739       5   8731       0 |   5    0      8586       145 |   1  10    0    0 590f |    2.014       0       5       0       5     10     10      0   8443     288       1  10    0590f a70f      8.160 "
test,1583577407805480960,55," | 55  |   8739       5   8718       0 |   5    0      8395       323 |   2  10    0    0 590f |    2.777       0       5       0       5     10     10      0   8318     400       2  10    0590f a70f      8.910 "
test,1583577407804492032,56," | 56  |   8739       5   8721       0 |   4    7      8592       129 |   1  10   60    0 590f |    2.014       0       5       0       5     10     10      0   8487     234       1  10    0590f a70f      8.220 "
test,1583577407824273152,57," | 57  |   8739       5   8676       0 |   5    0      8444       232 |   2  17    0    0 110f |    3.479       0       4       0       4     17     17      0   7915     761       3  17    0110f a70f     30.390 "
test,1583577407802688000,58," | 58  |   8739       5   8730       0 |   5    0      8611       119 |   1  10    0    0 590f |    2.014       0       5       0       5     10     10      0   8265     465       1  10    0590f a70f      8.250 "
test,1583577407826291200,5," |  5  |   8739       5   8737       0 |   5    0      7933       804 |   2  10    0    0 590f |    4.241       0       4       0       4     10     10      0   7790     947       4  10    0590f a70f     30.360 "
test,1583577407822315008,60," | 60  |   8739       5   8730       0 |   0    5      8159       571 |   0  60   10    1 3b0f |    0           0       0       0       8      0      0      0   7986     744       0  60    13b0f a70f     30.180 "
test,1583577407803250944,61," | 61  |   8739       4   8722       7 |   5    0      8329       400 |   2  10    0    0 590f |    2.777       0       5       0       5     10     10      0   8033     696       2  10    0590f a70f      8.970 "
test,1583577407805268992,7," |  7  |   8739       5   8736       0 |   5    0      8610       126 |   1  10    0    0 590f |    2.014       0       5       0       5     10     10      0   8550     186       1  10    0590f a70f      8.160 "
test,1583577407812443904,9," |  9  |   8739       5   8735       0 |   5    0      8454       281 |   1  10    0    0 590f |    2.014       0       5       0       5     10     10      0   8411     324       1  10    0590f a70f      8.160 "
