test,1583577313801409024,10," | 10  |   8363       5   8335       0 |   5    0      8207       128 |   1   1    0    0 1b0f |    1.312       0       5       0       5      1      1      0   8118     217       1   1    01b0f a70f      7.560 "
test,1583577313800645120,12," | 12  |   8363       5   8327      34 |   5    0      8276        85 |   1   1    0    0 1b0f |    1.342       0       5       0       5      1      1      0   8134     227       1   1    01b0f a70f      7.440 "
test,1583577313799491840,13," | 13  |   8363       5   8359       0 |   5    0      8293        66 |   1   1    0    0 1b0f |    1.312       0       5       0       5      1      1      0   8211     148       1   1    01b0f a70f      7.410 "
test,1583577313824115968,15," | 15  |   8363       5   8318      43 |   0    2      8009       352 |   0  15   60    1 890f |   10.284       0       1       0       1     15     15      0   7635     726      14  15    1890f a70f     30.270 "
test,1583577313804541184,16," | 16  |   8363       5   8359       0 |   5    0      8034       325 |   2  17    0    0 ae0f |    2.777       0       5       0       5     17     17      0   7822     537       2  17    0ae0f a70f     10.410 "
test,1583577313807173120,17," | 17  |   8363       5   8348      11 |   4    0      8247       112 |   2  17    0    1 ae0f |    1.739       0       4       0       4     17     17      0   8005     354       2  17    1ae0f a70f      6.480 "
test,1583577313823864064,18," | 18  |   8363       5   8358       0 |   4    1      7902       456 |  13  18   17    1  70f |    1.770       0       1       0       1     18     18      0   7589     769       2  18    1 70f a70f     30.300 "
test,1583577313802443008,19," | 19  |   8363       5   8342      17 |   4   10      8196       163 |   1  17   15    0 ae0f |    2.044       0       5       0       5     17     17      0   7968     391       1  17    0ae0f a70f      8.310 "
test,1583577313799266048,1," |  1  |   8363       4   8360       0 |   4    0      8136       224 |   4   1    0    1 1b0f |    1.770       0       4       0       4      1      1      0   8082     278       2   1    11b0f a70f      6.510 "
test,1583577313823566848,22," | 22  |   8363       5   8357       0 |   5    4      8286        71 |   1  18   17    0  70f |    2.075       0       1       0       1     18     18      0   7929     428       1  18    0 70f a70f     30.390 "
test,1583577313808870912,23," | 23  |   8363       5   8301       0 |   5    0      8264        37 |   1  17    0    0 ae0f |    2.807       0       5       0       5     17     17      0   8107     194       2  17    0ae0f a70f      9.630 "
test,1583577313819497984,24," | 24  |   8363       5   8357       2 |   5    3      8255       104 |   1  18   17    0  70f |    0           0       0       0       8      0      0      0   8046     313       0  18    0 70f a70f     30.390 "
test,1583577313800462848,26," | 26  |   8363       5   8357       2 |   5    0      8327        32 |   1  17    0    0 ae0f |    2.014       0       5       0       5     17     17      0   8178     181       1  17    0ae0f a70f      8.250 "
test,1583577313804040960,27," | 27  |   8363       4   8361       0 |   5    0      8113       248 |   1  17    0    0 ae0f |    2.075       0       5       0       5     17     17      0   7793     568       1  17    0ae0f a70f      8.190 "
test,1583577313822654976,28," | 28  |   8363       3   8351       8 |   3   10      7693       666 |   1  17   18    0 ae0f |    4.974       0       3       0       3     17     17      0   7365     994       5  17    0ae0f a70f     30.390 "
test,1583577313825489920,29," | 29  |   8363       3   8347      14 |   4    1      7401       960 |   1  15   17    0 890f |   12.054       0       1       0       1     15     15      0   7040    1321      15  15    0890f a70f     30.330 "
test,1583577313822961920,30," | 30  |   8363       5   8355       4 |   5    0      8244       115 |   3  18    0    0  70f |    2.777       0       1       0       1     18     18      0   7941     418       2  18    0 70f a70f     30.390 "
test,1583577313823275008,35," | 35  |   8363       5   8355       4 |   5    0      7964       395 |   2  18    0    0  70f |    2.746       0       1       0       1     18     18      0   7779     580       2  18    0 70f a70f     30.360 "
test,1583577313811054848,40," | 40  |   8363       5   8280      75 |   4    9      7882       473 |   2  45   46    0 930f |    4.791       0       5       0       5     45     45      0   7681     674       5  45    0930f a70f     12.990 "
test,1583577313807532032,41," | 41  |   8363       5   8289      60 |   5    0      8270        79 |   1  45    0    0 930f |    4.760       0       5       0       5     45     45      0   8081     268       5  45    0930f a70f     13.710 "
test,1583577313805326080,42," | 42  |   8363       5   8292      67 |   4    8      8209       150 |   2  45   46    0 930f |    4.760       0       5       0       5     45     45      0   8037     322       5  45    0930f a70f     12.240 "
test,1583577313805111040,44," | 44  |   8363       5   8301      58 |   5    0      8211       148 |   1  45    0    0 930f |    4.058       0       5       0       5     45     45      0   8050     309       4  45    0930f a70f     10.170 "
test,1583577313804331008,45," | 45  |   8363       5   8315      44 |   5    0      8105       254 |   2  45    0    1 930f |    3.814       0       4       0       4     45     45      0   7961     398       5  45    1930f a70f      8.520 "
test,1583577313822249984,46," | 46  |   8363       5   8294      58 |   0    7      7947       405 |   0  46   45    1 e30f |    0           0       0       0       8      0      0      0   7820     532       0  46    1e30f a70f     30.150 "
test,1583577313808161024,47," | 47  |   8363       5   8301      58 |   5    0      8101       258 |   1  45    0    0 930f |    4.791       0       5       0       5     45     45      0   7959     400       5  45    0930f a70f     13.140 "
test,1583577313806099968,48," | 48  |   8363       5   8237      55 |   5    0      8126       166 |   1  45    0    0 930f |    4.760       0       5       0       5     45     45      0   7969     323       5  45    0930f a70f     12.300 "
test,1583577313803694080,49," | 49  |   8363       5   8353       0 |   5    0      8192       161 |   4   1    0    0 1b0f |    2.777       0       5       0       5      1      1      0   8133     220       3   1    01b0f a70f      8.970 "
test,1583577313801111040,51," | 51  |   8363       5   8354       0 |   5    0      8258        96 |   1   1    0    0 1b0f |    1.342       0       5       0       5      1      1      0   8230     124       1   1    01b0f a70f      7.590 "
test,1583577313819792128,52," | 52  |   8363       4   8322      33 |   0    5      7938       417 |   0  52   18    1 ac0f |    0           0       0       0       8      0      0      0   7797     558       0  52    1ac0f a70f     30.180 "
test,1583577313803077888,53," | 53  |   8363       5   8337       0 |   5    0      7925       412 |   5   1    0    0 1b0f |    3.540       0       5       0       5      1      1      0   7840     497       4   1    01b0f a70f      9.660 "
test,1583577313802757120,54," | 54  |   8363       5   8355       0 |   5    0      8213       142 |   1   1    0    0 1b0f |    1.342       0       5       0       5      1      1      0   8074     281       1   1    01b0f a70f      7.500 "
test,1583577313800914176,55," | 55  |   8363       5   8342       0 |   5    0      8030       312 |   4   1    0    0 1b0f |    2.807       0       5       0       5      1      1      0   7959     383       3   1    01b0f a70f      9.030 "
test,1583577313801702912,56," | 56  |   8363       5   8345       0 |   5    0      8219       126 |   2   1    0    0 1b0f |    2.105       0       5       0       5      1      1      0   8119     226       2   1    01b0f a70f      8.310 "
test,1583577313820785920,57," | 57  |   8363       5   8300       0 |   3    3      8080       220 |  15  18   60    0  70f |    0           0       0       0       8      0      0      0   7569     731       0  18    0 70f a70f     30.390 "
test,1583577313796171008,58," | 58  |   8363       5   8354       0 |   5    0      8241       113 |   3   1    0    0 1b0f |    2.105       0       5       0       5      1      1      0   7904     450       2   1    01b0f a70f      8.280 "
test,1583577313800112128,5," |  5  |   8363       5   8361       0 |   5    0      7597       764 |   2   1    0    0 1b0f |    2.075       0       5       0       5      1      1      0   7456     905       2   1    01b0f a70f      8.280 "
test,1583577313820377088,60," | 60  |   8363       5   8354       0 |   0    7      7808       546 |   0  60   18    1 b20f |    0           0       0       0       8      0      0      0   7641     713       0  60    1b20f a70f     30.150 "
test,1583577313806465024,61," | 61  |   8363       5   8346       7 |   5    0      7975       378 |   2   1    0    0 1b0f |    2.838       0       5       0       5      1      1      0   7691     662       3   1    01b0f a70f      8.910 "
test,1583577313799702784,7," |  7  |   8363       5   8360       0 |   5    0      8239       121 |   1   1    0    0 1b0f |    1.342       0       5       0       5      1      1      0   8181     179       1   1    01b0f a70f      7.590 "
test,1583577313799866880,9," |  9  |   8363       5   8359       0 |   5    0      8087       272 |   1   1    0    0 1b0f |    1.312       0       5       0       5      1      1      0   8045     314       1   1    01b0f a70f      7.560 "
