test,1583577370051019008,10," | 10  |   8588       5   8560       0 |   5    4      8429       131 |   2   1   13    0 220f |    1.342       0       5       0       5      1      1      0   8338     222       1   1    0220f a70f      7.560 "
test,1583577370053654016,12," | 12  |   8588       5   8552      34 |   5    0      8498        88 |   1   1    0    0 220f |    1.373       0       5       0       5      1      1      0   8353     233       1   1    0220f a70f      7.620 "
test,1583577370063597824,13," | 13  |   8588       5   8584       0 |   4    0      8515        69 |   5  13    0    1 750f |    8.117       0       4       0       4     13     13      0   8432     152      11  13    1750f a70f     12.660 "
test,1583577370055315968,15," | 15  |   8588       5   8543      43 |   5    0      8224       362 |   2   1    0    0 220f |    2.105       0       5       0       5      1      1      0   7840     746       2   1    0220f a70f      8.190 "
test,1583577370054568960,16," | 16  |   8588       5   8584       0 |   5    6      8242       342 |   1  23   44    0 ba0f |    2.014       0       5       0       5     23     23      0   8025     559       1  23    0ba0f a70f      8.220 "
test,1583577370059308032,17," | 17  |   8588       5   8573      11 |   5    0      8470       114 |   5  44    0    0 4e0f |    9.368       0       5       0       5     44     44      0   8222     362      11  44    04e0f a70f     16.920 "
test,1583577370060224000,18," | 18  |   8588       5   8583       0 |   5    0      8111       472 |   2  44    0    0 4e0f |    8.605       0       5       0       5     44     44      0   7794     789      10  44    04e0f a70f     14.700 "
test,1583577370073731840,19," | 19  |   8588       5   8567      17 |   5   10      8417       167 |   1  23   44    0 ba0f |    2.014       0       4       0       4     23     23      0   8183     401       1  23    0ba0f a70f     30.390 "
test,1583577370049714944,1," |  1  |   8588       4   8585       0 |   4    7      8352       233 |   8   1   13    1 220f |    1.739       0       4       0       4      1      1      0   8297     288       2   1    1220f a70f      6.480 "
test,1583577370061875200,22," | 22  |   8588       5   8582       0 |   5    0      8510        72 |   3  44    0    0 4e0f |    8.636       0       5       0       5     44     44      0   8148     434      10  44    04e0f a70f     14.760 "
test,1583577370050785024,23," | 23  |   8588       5   8526       0 |   4    9      8489        37 |   5  23   44    1 ba0f |    1.739       0       4       0       4     23     23      0   8329     197       2  23    1ba0f a70f      6.510 "
test,1583577370057359872,24," | 24  |   8588       5   8582       2 |   5    0      8476       108 |   1  44    0    0 4e0f |    7.904       0       5       0       5     44     44      0   8264     320       9  44    04e0f a70f     14.070 "
test,1583577370059151872,26," | 26  |   8588       5   8582       2 |   5    0      8551        33 |   2  44    0    0 4e0f |    8.605       0       5       0       5     44     44      0   8400     184      10  44    04e0f a70f     15.300 "
test,1583577370058494208,27," | 27  |   8588       5   8586       0 |   5    2      8334       252 |   1  23   44    0 ba0f |    2.014       0       5       0       5     23     23      0   8007     579       1  23    0ba0f a70f      8.220 "
test,1583577370061434880,28," | 28  |   8588       4   8576       8 |   5    0      7902       682 |   5  44    0    0 4e0f |    9.368       0       5       0       5     44     44      0   7566    1018      11  44    04e0f a70f     16.770 "
test,1583577370075088128,29," | 29  |   8588       5   8571      15 |   5    1      7602       984 |   2  23   44    0 ba0f |    2.716       0       4       0       4     23     23      0   7235    1351       2  23    0ba0f a70f     30.270 "
test,1583577370058872064,30," | 30  |   8588       5   8580       4 |   5    0      8467       117 |   4  44    0    0 4e0f |    9.338       0       5       0       5     44     44      0   8158     426      11  44    04e0f a70f     16.020 "
test,1583577370069040896,35," | 35  |   8588       5   8580       4 |   5    0      8177       407 |   4  44    0    0 4e0f |    9.338       0       5       0       5     44     44      0   7991     593      11  44    04e0f a70f     15.390 "
test,1583577370053992960,40," | 40  |   8588       5   8505      75 |   5   10      8089       491 |   1  48   44    0  20f |    2.075       0       5       0       5     48     48      0   7882     698       1  48    0 20f a70f      8.160 "
test,1583577370066718208,41," | 41  |   8588       5   8514      60 |   5    0      8492        82 |   4  44    0    0 4e0f |    9.368       0       5       0       5     44     44      0   8300     274      11  44    04e0f a70f     16.170 "
test,1583577370061009920,42," | 42  |   8588       5   8517      67 |   5    0      8430       154 |   4  44    0    0 4e0f |    9.368       0       5       0       5     44     44      0   8255     329      11  44    04e0f a70f     16.020 "
test,1583577370052818944,44," | 44  |   8588       5   8526      58 |   4    0      8433       151 |   2  44    0    1 4e0f |    1.770       0       4       0       4     44     44      0   8271     313       2  44    14e0f a70f      6.510 "
test,1583577370054359040,45," | 45  |   8588       5   8540      44 |   5    0      8324       260 |   1  44    0    0 4e0f |    2.044       0       5       0       5     44     44      0   8175     409       1  44    04e0f a70f      8.280 "
test,1583577370068605952,46," | 46  |   8588       5   8519      58 |   5    0      8166       411 |   4  44    0    0 4e0f |   10.101       0       5       0       5     44     44      0   8035     542      12  44    04e0f a70f     16.830 "
test,1583577370052601088,47," | 47  |   8588       5   8526      58 |   5    9      8323       261 |   1  48   44    0  20f |    2.044       0       5       0       5     48     48      0   8177     407       1  48    0 20f a70f      8.310 "
test,1583577370053161984,48," | 48  |   8588       5   8462      55 |   4   11      8348       169 |   5  48   44    1  20f |    1.739       0       4       0       4     48     48      0   8188     329       2  48    1 20f a70f      6.480 "
test,1583577370054755840,49," | 49  |   8588       5   8578       0 |   5    0      8412       166 |   4   1    0    0 220f |    2.838       0       5       0       5      1      1      0   8352     226       3   1    0220f a70f      9.000 "
test,1583577370050551808,51," | 51  |   8588       5   8579       0 |   5    0      8481        98 |   1   1    0    0 220f |    1.373       0       5       0       5      1      1      0   8453     126       1   1    0220f a70f      7.620 "
test,1583577370073435904,52," | 52  |   8588       5   8547      33 |   5    7      8151       429 |   1  23   44    0 ba0f |    1.983       0       4       0       4     23     23      0   8007     573       1  23    0ba0f a70f     30.360 "
test,1583577370059009024,53," | 53  |   8588       5   8562       0 |   5    0      8141       421 |   5   1    0    0 220f |    3.570       0       5       0       5      1      1      0   8054     508       4   1    0220f a70f      9.630 "
test,1583577370051703040,54," | 54  |   8588       5   8580       0 |   5    5      8436       144 |   2   1   13    0 220f |    1.342       0       5       0       5      1      1      0   8295     285       1   1    0220f a70f      7.440 "
test,1583577370056701952,55," | 55  |   8588       5   8567       0 |   5    0      8249       318 |   4   1    0    0 220f |    2.807       0       5       0       5      1      1      0   8175     392       3   1    0220f a70f      9.030 "
test,1583577370052283904,56," | 56  |   8588       5   8570       0 |   5    0      8442       128 |   2   1    0    0 220f |    2.105       0       5       0       5      1      1      0   8339     231       2   1    0220f a70f      8.250 "
test,1583577370066930176,57," | 57  |   8588       5   8525       0 |   5    0      8298       227 |   3  44    0    0 4e0f |    9.368       0       5       0       5     44     44      0   7776     749      11  44    04e0f a70f     15.480 "
test,1583577370053363200,58," | 58  |   8588       5   8579       0 |   5    0      8463       116 |   3   1    0    0 220f |    2.105       0       5       0       5      1      1      0   8120     459       2   1    0220f a70f      8.910 "
test,1583577370056215040,5," |  5  |   8588       5   8586       0 |   2    0      7801       785 |   1  13    0    0 750f |    2.044       0       5       0       5     13     13      0   7659     927       1  13    0750f a70f     11.490 "
test,1583577370053803008,60," | 60  |   8588       5   8579       0 |   5    0      8016       563 |   2   1    0    0 220f |    2.075       0       5       0       5      1      1      0   7844     735       2   1    0220f a70f      8.190 "
test,1583577370051517952,61," | 61  |   8588       5   8571       7 |   5    1      8189       389 |   3   1   44    0 220f |    2.075       0       5       0       5      1      1      0   7897     681       2   1    0220f a70f      8.310 "
test,1583577370051184896,7," |  7  |   8588       5   8585       0 |   5    2      8461       124 |   2   1   13    0 220f |    1.373       0       5       0       5      1      1      0   8401     184       1   1    0220f a70f      7.500 "
test,1583577370057612032,9," |  9  |   8588       5   8584       0 |   5    0      8306       278 |   1  13    0    0 750f |    8.361       0       5       0       5     13     13      0   8264     320      10  13    0750f a70f     14.490 "
