test,1583577263802473984,10," | 10  |   8163       5   8135       0 |   5    0      8010       125 |   2  55    0    0 530f |    3.540       0       5       0       5     55     55      0   7921     214       3  55    0530f a70f      9.690 "
test,1583577263800774144,12," | 12  |   8163       5   8127      34 |   5    0      8078        83 |   2  55    0    0 530f |    2.746       0       5       0       5     55     55      0   7938     223       2  55    0530f a70f      8.970 "
test,1583577263807481088,13," | 13  |   8163       5   8159       0 |   5    0      8097        62 |   3  55    0    0 530f |    3.509       0       5       0       5     55     55      0   8015     144       3  55    0530f a70f      9.720 "
test,1583577263803548928,15," | 15  |   8163       5   8118      43 |   5    0      7824       337 |   3  55    0    0 530f |    3.540       0       5       0       5     55     55      0   7455     706       3  55    0530f a70f      9.690 "
test,1583577263805381120,16," | 16  |   8163       5   8159       0 |   5    0      7848       311 |   1  26    0    0 a90f |    2.044       0       5       0       5     26     26      0   7643     516       1  26    0a90f a70f      8.130 "
test,1583577263810868992,17," | 17  |   8163       4   8148      11 |   5    0      8052       107 |   2  26    0    0 a90f |    2.075       0       5       0       5     26     26      0   7812     347       1  26    0a90f a70f      8.310 "
test,1583577263803302912,18," | 18  |   8163       5   8158       0 |   5    0      7716       442 |   1  26    0    0 a90f |    2.075       0       5       0       5     26     26      0   7410     748       1  26    0a90f a70f      8.910 "
test,1583577263802884096,19," | 19  |   8163       5   8144      15 |   5    0      8001       158 |   2  26    0    0 a90f |    2.075       0       5       0       5     26     26      0   7782     377       1  26    0a90f a70f      8.310 "
test,1583577263806524928,1," |  1  |   8163       4   8160       0 |   5    0      7946       214 |   3  55    0    0 530f |    4.180       0       5       0       5     55     55      0   7893     267       3  55    0530f a70f     10.380 "
test,1583577263804349952,22," | 22  |   8163       5   8157       0 |   5    0      8089        68 |   1  26    0    0 a90f |    2.075       0       5       0       5     26     26      0   7738     419       1  26    0a90f a70f      9.000 "
test,1583577263801314048,23," | 23  |   8163       5   8101       0 |   5    0      8064        37 |   2  26    0    0 a90f |    2.075       0       5       0       5     26     26      0   7913     188       1  26    0a90f a70f      8.280 "
test,1583577263801836032,24," | 24  |   8163       5   8157       2 |   5    0      8062        97 |   1  26    0    0 a90f |    2.075       0       5       0       5     26     26      0   7859     300       1  26    0a90f a70f      8.280 "
test,1583577263798077952,26," | 26  |   8163       5   8157       2 |   4    0      8127        32 |   2  26    0    1 a90f |    1.739       0       4       0       4     26     26      0   7981     178       2  26    1a90f a70f      6.510 "
test,1583577263823205120,27," | 27  |   8163       5   8161       0 |   4    0      7923       238 |   3  26    0    0 a90f |    2.777       0       4       0       4     26     26      0   7610     551       2  26    0a90f a70f     30.360 "
test,1583577263804137984,28," | 28  |   8163       5   8151       8 |   5    1      7510       649 |   1  30   26    0 310f |    2.044       0       5       0       5     30     30      0   7185     974       1  30    0310f a70f      8.280 "
test,1583577263811503872,29," | 29  |   8163       5   8148      13 |   5    0      7228       933 |   3  26    0    0 a90f |    2.777       0       5       0       5     26     26      0   6878    1283       2  26    0a90f a70f      8.880 "
test,1583577263799233024,30," | 30  |   8163       5   8155       4 |   4    0      8047       112 |  11  30    0    1 310f |    1.739       0       4       0       4     30     30      0   7748     411       2  30    1310f a70f      6.480 "
test,1583577263800183040,35," | 35  |   8163       5   8155       4 |   5    1      7772       387 |   1  30   26    0 310f |    2.044       0       5       0       5     30     30      0   7589     570       1  30    0310f a70f      8.250 "
test,1583577263800401920,40," | 40  |   8163       5   8080      75 |   2    0      7692       463 |   5  40    0    1 eb0f |    1.739       0       4       0       4     40     40      0   7494     661       2  40    1eb0f a70f      7.230 "
test,1583577263806718208,41," | 41  |   8163       5   8089      60 |   4    0      8073        76 |   1  40    0    0 eb0f |    2.075       0       5       0       5     40     40      0   7888     261       1  40    0eb0f a70f      9.630 "
test,1583577263802701824,42," | 42  |   8163       5   8092      67 |   5    0      8014       145 |   1  40    0    0 eb0f |    2.075       0       5       0       5     40     40      0   7845     314       1  40    0eb0f a70f      8.970 "
test,1583577263804708864,44," | 44  |   8163       5   8101      58 |   1    0      8012       147 |  11  40    0    0 eb0f |    2.807       0       5       0       5     40     40      0   7853     306       2  40    0eb0f a70f      9.030 "
test,1583577263803075072,45," | 45  |   8163       5   8115      44 |   5    0      7912       247 |   1  40    0    0 eb0f |    2.044       0       5       0       5     40     40      0   7770     389       1  40    0eb0f a70f      8.250 "
test,1583577263807981056,46," | 46  |   8163       5   8094      58 |   5    0      7761       391 |   2  40    0    0 eb0f |    2.044       0       5       0       5     40     40      0   7637     515       1  40    0eb0f a70f     10.350 "
test,1583577263808346112,47," | 47  |   8163       5   8101      58 |   5    0      7905       254 |   1  40    0    0 eb0f |    2.075       0       5       0       5     40     40      0   7766     393       1  40    0eb0f a70f      9.690 "
test,1583577263805850880,48," | 48  |   8163       4   8037      55 |   4    0      7927       165 |   1  40    0    0 eb0f |    2.075       0       5       0       5     40     40      0   7775     317       1  40    0eb0f a70f     10.410 "
test,1583577263798893056,49," | 49  |   8163       5   8153       0 |   5    0      7997       156 |   1  55    0    0 530f |    2.014       0       5       0       5     55     55      0   7938     215       1  55    0530f a70f      8.220 "
test,1583577263799949824,51," | 51  |   8163       5   8154       0 |   5    5      8062        92 |   1  60   55    0 560f |    1.983       0       5       0       5     60     60      0   8034     120       1  60    0560f a70f      8.220 "
test,1583577263799774976,52," | 52  |   8163       5   8124      31 |   5    0      7752       403 |   1  26    0    0 a90f |    2.075       0       5       0       5     26     26      0   7613     542       1  26    0a90f a70f      8.130 "
test,1583577263799393792,53," | 53  |   8163       5   8137       0 |   5    0      7734       403 |   1  55    0    0 530f |    2.014       0       5       0       5     55     55      0   7650     487       1  55    0530f a70f      8.160 "
test,1583577263809099008,54," | 54  |   8163       5   8155       0 |   5    0      8019       136 |   2  55    0    0 530f |    2.746       0       5       0       5     55     55      0   7883     272       2  55    0530f a70f      9.570 "
test,1583577263798721024,55," | 55  |   8163       5   8142       0 |   4    0      7838       304 |   2  55    0    1 530f |    1.770       0       4       0       4     55     55      0   7767     375       2  55    1530f a70f      6.510 "
test,1583577263822097920,56," | 56  |   8163       5   8145       0 |   3   11      8023       122 |   2  26   60    0 a90f |    0           0       0       0       8      0      0      0   7925     220       0  26    0a90f a70f     30.360 "
test,1583577263801115136,57," | 57  |   8163       3   8100       0 |   5    0      7884       216 |   1  26    0    0 a90f |    2.075       0       5       0       5     26     26      0   7393     707       1  26    0a90f a70f      8.160 "
test,1583577263804500224,58," | 58  |   8163       4   8154       0 |   5    0      8042       112 |   1  55    0    0 530f |    2.075       0       5       0       5     55     55      0   7714     440       1  55    0530f a70f      9.630 "
test,1583577263801553920,5," |  5  |   8163       5   8161       0 |   5    0      7411       750 |   3  55    0    0 530f |    3.479       0       5       0       5     55     55      0   7274     887       3  55    0530f a70f      9.510 "
test,1583577263802061056,60," | 60  |   8163       5   8154       0 |   4    1      7617       537 |  17  60   26    1 560f |    1.739       0       4       0       4     60     60      0   7455     699       2  60    1560f a70f      6.480 "
test,1583577263805010176,61," | 61  |   8163       5   8146       7 |   4    1      7785       368 |   2  55   26    0 530f |    2.746       0       5       0       5     55     55      0   7510     643       2  55    0530f a70f     10.320 "
test,1583577263802252032,7," |  7  |   8163       5   8160       0 |   5    0      8039       121 |   3  55    0    0 530f |    3.479       0       5       0       5     55     55      0   7983     177       3  55    0530f a70f      9.690 "
test,1583577263806086912,9," |  9  |   8163       5   8159       0 |   5    0      7894       265 |   3  55    0    0 530f |    3.479       0       5       0       5     55     55      0   7852     307       3  55    0530f a70f      9.540 "
