test,1583577345323864064,10," | 10  |   8489       5   8461       0 |   5    0      8330       131 |   1  54    0    0 4a0f |    2.746       0       4       0       4     54     54      0   8240     221       2  54    04a0f a70f     30.360 "
test,1583577345303973888,12," | 12  |   8489       5   8453      34 |   5    0      8400        87 |   2  54    0    0 4a0f |    2.777       0       5       0       5     54     54      0   8256     231       2  54    04a0f a70f      9.720 "
test,1583577345305252096,13," | 13  |   8489       5   8485       0 |   5    0      8416        69 |   1  54    0    0 4a0f |    2.807       0       5       0       5     54     54      0   8334     151       2  54    04a0f a70f      8.880 "
test,1583577345326832896,15," | 15  |   8489       5   8444      43 |   4    3      8130       357 |   8  15   54    1  60f |   10.284       0       1       0       1     15     15      0   7751     736      14  15    1 60f a70f     30.210 "
test,1583577345307977984,16," | 16  |   8489       5   8485       0 |   5    0      8155       330 |   2  19    0    0 650f |    2.746       0       5       0       5     19     19      0   7941     544       2  19    0650f a70f      8.910 "
test,1583577345309071104,17," | 17  |   8489       4   8474      11 |   5    0      8373       112 |   1  19    0    0 650f |    2.044       0       5       0       5     19     19      0   8126     359       1  19    0650f a70f      8.820 "
test,1583577345321971968,18," | 18  |   8489       5   8484       0 |   1    8      8018       466 |   3  30   40    0 110f |    0           0       0       0       8      0      0      0   7703     781       0  30    0110f a70f     30.360 "
test,1583577345305891072,19," | 19  |   8489       4   8468      17 |   3    0      8319       166 |   7  19    0    1 650f |    1.739       0       4       0       4     19     19      0   8086     399       2  19    1650f a70f      8.640 "
test,1583577345310715904,1," |  1  |   8489       4   8486       0 |   5    0      8257       229 |   1  54    0    0 4a0f |    2.716       0       5       0       5     54     54      0   8202     284       1  54    04a0f a70f      8.940 "
test,1583577345320673024,22," | 22  |   8489       5   8483       0 |   1    8      8412        71 |   2  30   19    0 110f |    0           0       0       0       8      0      0      0   8050     433       0  30    0110f a70f     30.390 "
test,1583577345304805888,23," | 23  |   8489       5   8427       0 |   5    0      8390        37 |   3  19    0    0 650f |    2.044       0       5       0       5     19     19      0   8231     196       1  19    0650f a70f      8.100 "
test,1583577345304217088,24," | 24  |   8489       5   8483       2 |   5    0      8378       107 |   2  19    0    0 650f |    2.746       0       5       0       5     19     19      0   8166     319       2  19    0650f a70f      8.940 "
test,1583577345303389952,26," | 26  |   8489       5   8483       2 |   5    0      8452        33 |   1  19    0    0 650f |    1.983       0       5       0       5     19     19      0   8301     184       1  19    0650f a70f      8.220 "
test,1583577345324167936,27," | 27  |   8489       4   8487       0 |   5    0      8235       252 |   2  19    0    0 650f |    2.746       0       4       0       4     19     19      0   7911     576       2  19    0650f a70f     30.360 "
test,1583577345307782912,28," | 28  |   8489       5   8477       8 |   5    0      7806       679 |   1  30    0    0 110f |    2.075       0       5       0       5     30     30      0   7475    1010       1  30    0110f a70f      8.130 "
test,1583577345325889024,29," | 29  |   8489       4   8473      14 |   3    0      7515       972 |   5  19    0    0 650f |    3.479       0       3       0       3     19     19      0   7149    1338       3  19    0650f a70f     30.270 "
test,1583577345304439040,30," | 30  |   8489       5   8481       4 |   4    0      8369       116 |   2  30    0    1 110f |    1.739       0       4       0       4     30     30      0   8063     422       2  30    1110f a70f      6.510 "
test,1583577345306961152,35," | 35  |   8489       5   8481       4 |   5    0      8087       398 |   1  30    0    0 110f |    2.014       0       5       0       5     30     30      0   7901     584       1  30    0110f a70f      8.220 "
test,1583577345323132928,40," | 40  |   8489       5   8406      75 |   0    6      7996       485 |   0  40   19    1 480f |    0           0       0       0       8      0      0      0   7791     690       0  40    1480f a70f     30.150 "
test,1583577345300967936,41," | 41  |   8489       5   8415      60 |   4    4      8395        80 |   7  19   40    0 650f |    2.746       0       5       0       5     19     19      0   8204     271       2  19    0650f a70f      8.940 "
test,1583577345320880896,42," | 42  |   8489       5   8418      67 |   2   10      8333       152 |   5  30   40    0 110f |    0           0       0       0       8      0      0      0   8158     327       0  30    0110f a70f     30.360 "
test,1583577345307388928,44," | 44  |   8489       5   8427      58 |   5    0      8336       149 |   2  19    0    0 650f |    2.716       0       5       0       5     19     19      0   8174     311       2  19    0650f a70f      8.760 "
test,1583577345309504000,45," | 45  |   8489       5   8441      44 |   5    0      8228       257 |   5  19    0    0 650f |    3.417       0       5       0       5     19     19      0   8081     404       3  19    0650f a70f      9.480 "
test,1583577345321542144,46," | 46  |   8489       5   8420      58 |   2    6      8069       409 |   4  30   19    0 110f |    0           0       0       0       8      0      0      0   7938     540       0  30    0110f a70f     30.360 "
test,1583577345304641024,47," | 47  |   8489       5   8427      58 |   5    0      8224       261 |   3  19    0    0 650f |    3.479       0       5       0       5     19     19      0   8079     406       3  19    0650f a70f      9.660 "
test,1583577345322155008,48," | 48  |   8489       5   8363      55 |   4   11      8250       168 |   3  30   40    0 110f |    0           0       0       0       8      0      0      0   8090     328       0  30    0110f a70f     30.390 "
test,1583577345303587840,49," | 49  |   8489       5   8479       0 |   5    0      8316       163 |   2  54    0    0 4a0f |    2.777       0       5       0       5     54     54      0   8256     223       2  54    04a0f a70f      9.000 "
test,1583577345300285952,51," | 51  |   8489       5   8480       0 |   4    3      8384        96 |   8  51   19    1 460f |    1.739       0       4       0       4     51     51      0   8356     124       2  51    1460f a70f      6.510 "
test,1583577345324368128,52," | 52  |   8489       2   8448      33 |   2    0      8055       426 |  10  19    0    0 650f |    7.171       0       3       0       3     19     19      0   7912     569       8  19    0650f a70f     30.210 "
test,1583577345303021824,53," | 53  |   8489       5   8463       0 |   5    0      8045       418 |   2  54    0    0 4a0f |    2.746       0       5       0       5     54     54      0   7960     503       2  54    04a0f a70f      9.570 "
test,1583577345301501952,54," | 54  |   8489       5   8481       0 |   4    0      8337       144 |   2  54    0    1 4a0f |    1.739       0       4       0       4     54     54      0   8199     282       2  54    14a0f a70f      6.510 "
test,1583577345302372096,55," | 55  |   8489       5   8468       0 |   5    0      8153       315 |   2  54    0    0 4a0f |    2.807       0       5       0       5     54     54      0   8081     387       2  54    04a0f a70f      8.880 "
test,1583577345301955072,56," | 56  |   8489       5   8471       0 |   5    4      8343       128 |   4  51   54    0 460f |    1.983       0       5       0       5     51     51      0   8241     230       1  51    0460f a70f      8.040 "
test,1583577345323671040,57," | 57  |   8489       5   8426       0 |   3    8      8202       224 |   6  19   51    0 650f |    0           0       0       0       8      0      0      0   7683     743       0  19    0650f a70f     30.300 "
test,1583577345306586112,58," | 58  |   8489       5   8480       0 |   5    0      8365       115 |   1  54    0    0 4a0f |    2.044       0       5       0       5     54     54      0   8026     454       1  54    04a0f a70f      9.600 "
test,1583577345324579072,5," |  5  |   8489       5   8487       0 |   5    7      7708       779 |   1  15   54    0  60f |    1.983       0       1       0       1     15     15      0   7567     920       1  15    0 60f a70f     30.360 "
test,1583577345323452928,60," | 60  |   8489       5   8480       0 |   1   14      7923       557 |   1  15   51    0  60f |   10.498       0       1       0       1     15     15      0   7756     724      13  15    0 60f a70f     30.330 "
test,1583577345307593984,61," | 61  |   8489       5   8472       7 |   5    0      8099       380 |   1  54    0    0 4a0f |    2.044       0       5       0       5     54     54      0   7812     667       1  54    04a0f a70f     10.440 "
test,1583577345301661952,7," |  7  |   8489       5   8486       0 |   5    0      8364       122 |   1  54    0    0 4a0f |    2.014       0       5       0       5     54     54      0   8305     181       1  54    04a0f a70f      8.880 "
test,1583577345300606976,9," |  9  |   8489       5   8485       0 |   5    0      8208       277 |   1  54    0    0 4a0f |    2.044       0       5       0       5     54     54      0   8166     319       1  54    04a0f a70f      8.280 "
