test,1583577352322860032,10," | 10  |   8517       5   8489       0 |   5    0      8358       131 |   1  58    0    0 ca0f |    1.983       0       4       0       4     58     58      0   8267     222       1  58    0ca0f a70f     30.360 "
test,1583577352312418816,12," | 12  |   8517       5   8481      34 |   5    0      8428        87 |   1  58    0    0 ca0f |    2.014       0       5       0       5     58     58      0   8284     231       1  58    0ca0f a70f      9.690 "
test,1583577352319216896,13," | 13  |   8517       5   8513       0 |   5    0      8444        69 |   3  58    0    0 ca0f |    2.807       0       4       0       4     58     58      0   8361     152       2  58    0ca0f a70f     30.330 "
test,1583577352321595904,15," | 15  |   8517       5   8472      43 |   5    0      8157       358 |   2  58    0    0 ca0f |    2.746       0       4       0       4     58     58      0   7778     737       2  58    0ca0f a70f     30.390 "
test,1583577352307137024,16," | 16  |   8517       5   8513       0 |   5    0      8180       333 |   3  58    0    0 ca0f |    3.479       0       5       0       5     58     58      0   7966     547       3  58    0ca0f a70f     12.450 "
test,1583577352303766016,17," | 17  |   8517       5   8502      11 |   2    8      8399       114 |   2  17   18    1 760f |    1.739       0       4       0       4     17     17      0   8152     361       2  17    1760f a70f      6.510 "
test,1583577352302608896,18," | 18  |   8517       5   8512       0 |   5    0      8044       468 |   2  18    0    1 1a0f |    1.739       0       4       0       4     18     18      0   7729     783       2  18    11a0f a70f      6.480 "
test,1583577352304719872,19," | 19  |   8517       5   8496      17 |   2    2      8346       167 |   1  17   18    0 760f |    2.014       0       5       0       5     17     17      0   8113     400       1  17    0760f a70f      8.220 "
test,1583577352317513984,1," |  1  |   8517       4   8514       0 |   0    3      8282       232 |   0   1   58    1 3a0f |    0           0       0       0       8      0      0      0   8227     287       0   1    13a0f a70f     26.010 "
test,1583577352303590144,22," | 22  |   8517       5   8511       0 |   5    0      8440        71 |   1  18    0    0 1a0f |    1.983       0       5       0       5     18     18      0   8078     433       1  18    01a0f a70f      8.130 "
test,1583577352308250880,23," | 23  |   8517       5   8455       0 |   5    0      8418        37 |   2  58    0    0 ca0f |    2.807       0       5       0       5     58     58      0   8259     196       2  58    0ca0f a70f     11.760 "
test,1583577352306477056,24," | 24  |   8517       5   8511       2 |   5    1      8405       108 |   1  18   58    0 1a0f |    2.014       0       5       0       5     18     18      0   8193     320       1  18    01a0f a70f      8.250 "
test,1583577352324484096,26," | 26  |   8517       5   8511       2 |   5    0      8480        33 |   2  58    0    0 ca0f |    9.368       0       3       0       3     58     58      0   8329     184      11  58    0ca0f a70f     30.390 "
test,1583577352324048896,27," | 27  |   8517       5   8515       0 |   4    0      8263       252 |   3  58    0    0 ca0f |    4.974       0       4       0       4     58     58      0   7938     577       5  58    0ca0f a70f     30.270 "
test,1583577352305373952,28," | 28  |   8517       5   8505       8 |   4    0      7834       679 |   2  35    0    0 dc0f |    2.807       0       5       0       5     35     35      0   7502    1011       2  35    0dc0f a70f      8.910 "
test,1583577352324871168,29," | 29  |   8517       5   8501      14 |   2    0      7540       975 |   8  58    0    0 ca0f |   10.101       0       3       0       3     58     58      0   7174    1341      12  58    0ca0f a70f     30.330 "
test,1583577352303297024,30," | 30  |   8517       5   8509       4 |   5    0      8397       116 |   1  35    0    0 dc0f |    2.044       0       5       0       5     35     35      0   8091     422       1  35    0dc0f a70f      8.130 "
test,1583577352302908928,35," | 35  |   8517       5   8509       4 |   5    0      8113       400 |   2  35    0    1 dc0f |    1.739       0       4       0       4     35     35      0   7927     586       2  35    1dc0f a70f      6.480 "
test,1583577352306260224,40," | 40  |   8517       5   8434      75 |   5    0      8021       488 |   2  18    0    0 1a0f |    3.479       0       5       0       5     18     18      0   7816     693       3  18    01a0f a70f     10.350 "
test,1583577352307714048,41," | 41  |   8517       5   8443      60 |   5    0      8423        80 |   7  18    0    0 1a0f |    2.777       0       5       0       5     18     18      0   8232     271       2  18    01a0f a70f      9.570 "
test,1583577352305073920,42," | 42  |   8517       5   8446      67 |   5    0      8360       153 |   4  18    0    0 1a0f |    2.746       0       5       0       5     18     18      0   8185     328       2  18    01a0f a70f      9.600 "
test,1583577352304894976,44," | 44  |   8517       5   8455      58 |   5    0      8364       149 |   4  18    0    0 1a0f |    2.746       0       5       0       5     18     18      0   8202     311       2  18    01a0f a70f     10.380 "
test,1583577352307885056,45," | 45  |   8517       5   8469      44 |   5    0      8255       258 |   5  18    0    0 1a0f |    2.716       0       5       0       5     18     18      0   8108     405       2  18    01a0f a70f     10.200 "
test,1583577352306891008,46," | 46  |   8517       5   8448      58 |   5    0      8096       410 |   4  18    0    0 1a0f |    2.716       0       5       0       5     18     18      0   7965     541       2  18    01a0f a70f     10.200 "
test,1583577352301007104,47," | 47  |   8517       5   8455      58 |   5    0      8252       261 |   4  18    0    0 1a0f |    2.014       0       5       0       5     18     18      0   8106     407       1  18    01a0f a70f      8.250 "
test,1583577352306051072,48," | 48  |   8517       5   8391      55 |   5    0      8278       168 |   3  18    0    0 1a0f |    2.716       0       5       0       5     18     18      0   8118     328       2  18    01a0f a70f      9.630 "
test,1583577352323721984,49," | 49  |   8517       5   8507       0 |   1   10      8342       165 |   5  58   53    0 ca0f |    3.479       0       3       0       3     58     58      0   8283     224       3  58    0ca0f a70f     30.360 "
test,1583577352305562880,51," | 51  |   8517       5   8508       0 |   5    0      8411        97 |   2  58    0    0 ca0f |    2.777       0       5       0       5     58     58      0   8382     126       2  58    0ca0f a70f      8.910 "
test,1583577352311856128,52," | 52  |   8517       5   8476      33 |   3    1      8081       428 |   7  58   18    0 ca0f |    3.479       0       5       0       5     58     58      0   7938     571       3  58    0ca0f a70f     12.450 "
test,1583577352320233984,53," | 53  |   8517       5   8491       0 |   0    0      8072       419 |   0  53    0    1 110f |    0           0       0       0       8      0      0      0   7986     505       0  53    1110f a70f     30.210 "
test,1583577352319664896,54," | 54  |   8517       5   8509       0 |   4    7      8365       144 |   1  58    1    0 ca0f |    2.044       0       4       0       4     58     58      0   8227     282       1  58    0ca0f a70f     30.390 "
test,1583577352323273984,55," | 55  |   8517       5   8496       0 |   1   10      8180       316 |   5  58   53    0 ca0f |    3.479       0       3       0       3     58     58      0   8107     389       3  58    0ca0f a70f     30.270 "
test,1583577352301969152,56," | 56  |   8517       5   8499       0 |   5    0      8371       128 |   1  58    0    0 ca0f |    2.075       0       5       0       5     58     58      0   8269     230       1  58    0ca0f a70f      8.220 "
test,1583577352311646976,57," | 57  |   8517       5   8454       0 |   5    0      8230       224 |   1  58    0    0 ca0f |    2.044       0       5       0       5     58     58      0   7710     744       1  58    0ca0f a70f      9.750 "
test,1583577352300775936,58," | 58  |   8517       5   8508       0 |   4    0      8393       115 |   2  58    0    1 ca0f |    1.739       0       4       0       4     58     58      0   8052     456       2  58    1ca0f a70f      6.510 "
test,1583577352304481024,5," |  5  |   8517       5   8515       0 |   5    0      7736       779 |   2  58    0    0 ca0f |    2.777       0       5       0       5     58     58      0   7594     921       2  58    0ca0f a70f      9.690 "
test,1583577352302144000,60," | 60  |   8517       5   8508       0 |   5    0      7951       557 |   2  58    0    0 ca0f |    2.777       0       5       0       5     58     58      0   7782     726       2  58    0ca0f a70f      9.690 "
test,1583577352302365952,61," | 61  |   8517       5   8500       7 |   5    0      8125       382 |   1  58    0    0 ca0f |    2.014       0       5       0       5     58     58      0   7836     671       1  58    0ca0f a70f      8.220 "
test,1583577352320976128,7," |  7  |   8517       5   8514       0 |   3    7      8392       122 |   3  58    1    0 ca0f |    2.777       0       4       0       4     58     58      0   8332     182       2  58    0ca0f a70f     30.300 "
test,1583577352321192960,9," |  9  |   8517       5   8513       0 |   2    7      8236       277 |   4  58    1    0 ca0f |    2.777       0       4       0       4     58     58      0   8194     319       2  58    0ca0f a70f     30.360 "
