test,1583577383802236928,10," | 10  |   8643       5   8615       0 |   4    0      8484       131 |   4  10    0    1 690f |    1.739       0       4       0       4     10     10      0   8393     222       2  10    1690f a70f      6.510 "
test,1583577383808320000,12," | 12  |   8643       5   8607      34 |   5    0      8552        89 |   1  10    0    0 690f |    2.075       0       5       0       5     10     10      0   8407     234       1  10    0690f a70f      8.250 "
test,1583577383804228096,13," | 13  |   8643       5   8639       0 |   5    0      8570        69 |   1  10    0    0 690f |    2.044       0       5       0       5     10     10      0   8487     152       1  10    0690f a70f      8.190 "
test,1583577383806368000,15," | 15  |   8643       5   8598      43 |   5    0      8277       364 |   2  10    0    0 690f |    2.807       0       5       0       5     10     10      0   7891     750       2  10    0690f a70f      8.880 "
test,1583577383803459840,16," | 16  |   8643       5   8639       0 |   5    0      8297       342 |   2  17    0    0 ea0f |    2.014       0       5       0       5     17     17      0   8080     559       1  17    0ea0f a70f      8.910 "
test,1583577383807270144,17," | 17  |   8643       5   8628      11 |   4    0      8523       116 |   4  17    0    1 ea0f |    1.739       0       4       0       4     17     17      0   8276     363       2  17    1ea0f a70f      6.510 "
test,1583577383814131968,18," | 18  |   8643       5   8638       0 |   5    0      8163       475 |   1  17    0    0 ea0f |    2.044       0       5       0       5     17     17      0   7845     793       1  17    0ea0f a70f      8.160 "
test,1583577383807465984,19," | 19  |   8643       5   8622      17 |   5    0      8470       169 |   1  17    0    0 ea0f |    2.014       0       5       0       5     17     17      0   8237     402       1  17    0ea0f a70f     10.260 "
test,1583577383811059968,1," |  1  |   8643       4   8640       0 |   5    0      8406       234 |   1  10    0    0 690f |    2.716       0       5       0       5     10     10      0   8351     289       1  10    0690f a70f      8.940 "
test,1583577383806979840,22," | 22  |   8643       5   8637       0 |   5    0      8565        72 |   1  17    0    0 ea0f |    2.777       0       5       0       5     17     17      0   8202     435       2  17    0ea0f a70f      9.000 "
test,1583577383801552896,23," | 23  |   8643       5   8581       0 |   5    0      8544        37 |   1  17    0    0 ea0f |    2.044       0       5       0       5     17     17      0   8384     197       1  17    0ea0f a70f      8.130 "
test,1583577383802766080,24," | 24  |   8643       5   8637       2 |   5    0      8529       110 |   1  17    0    0 ea0f |    2.044       0       5       0       5     17     17      0   8316     323       1  17    0ea0f a70f      8.160 "
test,1583577383803750144,26," | 26  |   8643       5   8637       2 |   5    0      8606        33 |   1  17    0    0 ea0f |    2.044       0       5       0       5     17     17      0   8454     185       1  17    0ea0f a70f      8.160 "
test,1583577383803143936,27," | 27  |   8643       5   8641       0 |   5    0      8389       252 |   1  17    0    0 ea0f |    1.983       0       5       0       5     17     17      0   8060     581       1  17    0ea0f a70f      8.970 "
test,1583577383825895936,28," | 28  |   8643       5   8631       8 |   4    1      7955       684 |   1  17   30    0 ea0f |   10.803       0       1       0       1     17     17      0   7617    1022      13  17    0ea0f a70f     30.300 "
test,1583577383811738112,29," | 29  |   8643       5   8626      15 |   5    0      7655       986 |   2  17    0    0 ea0f |    4.211       0       5       0       5     17     17      0   7284    1357       4  17    0ea0f a70f     11.040 "
test,1583577383802617088,30," | 30  |   8643       5   8635       4 |   5    0      8522       117 |   2  30    0    1 9c0f |    1.739       0       4       0       4     30     30      0   8213     426       2  30    19c0f a70f      6.510 "
test,1583577383809444864,35," | 35  |   8643       5   8635       4 |   5    0      8231       408 |   1  30    0    0 9c0f |    2.014       0       5       0       5     30     30      0   8045     594       1  30    09c0f a70f      8.070 "
test,1583577383808788992,40," | 40  |   8643       5   8560      75 |   5    0      8138       497 |   2  17    0    0 ea0f |    3.448       0       5       0       5     17     17      0   7932     703       3  17    0ea0f a70f     10.380 "
test,1583577383810887168,41," | 41  |   8643       5   8569      60 |   5    0      8547        82 |   1  17    0    0 ea0f |    2.777       0       5       0       5     17     17      0   8354     275       2  17    0ea0f a70f      9.540 "
test,1583577383806780928,42," | 42  |   8643       5   8572      67 |   5    0      8485       154 |   2  17    0    0 ea0f |    3.509       0       5       0       5     17     17      0   8309     330       3  17    0ea0f a70f     10.260 "
test,1583577383807638784,44," | 44  |   8643       5   8581      58 |   5    0      8486       153 |   2  17    0    0 ea0f |    3.509       0       5       0       5     17     17      0   8321     318       3  17    0ea0f a70f      9.690 "
test,1583577383804805888,45," | 45  |   8643       5   8595      44 |   5    0      8377       262 |   2  17    0    0 ea0f |    2.746       0       5       0       5     17     17      0   8227     412       2  17    0ea0f a70f      8.850 "
test,1583577383809854976,46," | 46  |   8643       5   8574      58 |   5    0      8217       415 |   2  17    0    0 ea0f |    3.479       0       5       0       5     17     17      0   8087     545       3  17    0ea0f a70f     10.350 "
test,1583577383811333888,47," | 47  |   8643       5   8581      58 |   5    0      8377       262 |   2  17    0    0 ea0f |    3.479       0       5       0       5     17     17      0   8231     408       3  17    0ea0f a70f      9.540 "
test,1583577383805689088,48," | 48  |   8643       5   8517      55 |   5    0      8402       170 |   2  17    0    0 ea0f |    3.448       0       5       0       5     17     17      0   8242     330       3  17    0ea0f a70f      9.660 "
test,1583577383804524032,49," | 49  |   8643       5   8633       0 |   5    0      8467       166 |   1  55    0    0  c0f |    2.014       0       5       0       5     55     55      0   8407     226       1  55    0 c0f a70f      8.220 "
test,1583577383801763072,51," | 51  |   8643       5   8634       0 |   5    0      8536        98 |   1  10    0    0 690f |    2.044       0       5       0       5     10     10      0   8508     126       1  10    0690f a70f      8.280 "
test,1583577383810391040,52," | 52  |   8643       2   8602      33 |   5    0      8204       431 |   2  17    0    0 ea0f |    2.746       0       5       0       5     17     17      0   8061     574       2  17    0ea0f a70f      9.660 "
test,1583577383803302144,53," | 53  |   8643       5   8617       0 |   5    0      8193       424 |   1  55    0    0  c0f |    2.044       0       5       0       5     55     55      0   8106     511       1  55    0 c0f a70f      8.280 "
test,1583577383801976832,54," | 54  |   8643       5   8635       0 |   5    0      8491       144 |   1  10    0    0 690f |    2.044       0       5       0       5     10     10      0   8350     285       1  10    0690f a70f      8.160 "
test,1583577383801314048,55," | 55  |   8643       5   8622       0 |   4    0      8302       320 |   2  55    0    1  c0f |    1.770       0       4       0       4     55     55      0   8228     394       2  55    1 c0f a70f      6.510 "
test,1583577383804025856,56," | 56  |   8643       5   8625       0 |   5    0      8497       128 |   1  10    0    0 690f |    2.044       0       5       0       5     10     10      0   8392     233       1  10    0690f a70f      8.250 "
test,1583577383824759040,57," | 57  |   8643       4   8580       0 |   1    6      8351       229 |   2  55   17    0  c0f |   10.131       0       1       0       1     55     55      0   7827     753      12  55    0 c0f a70f     30.360 "
test,1583577383809232896,58," | 58  |   8643       5   8634       0 |   5    0      8517       117 |   1  55    0    0  c0f |    2.075       0       5       0       5     55     55      0   8173     461       1  55    0 c0f a70f      8.880 "
test,1583577383805282048,5," |  5  |   8643       5   8641       0 |   5    0      7850       791 |   2  10    0    0 690f |    2.746       0       5       0       5     10     10      0   7708     933       2  10    0690f a70f      8.850 "
test,1583577383806206976,60," | 60  |   8643       5   8634       0 |   5    0      8068       566 |   2  10    0    0 690f |    2.777       0       5       0       5     10     10      0   7894     740       2  10    0690f a70f      8.850 "
test,1583577383805989888,61," | 61  |   8643       5   8626       7 |   3    0      8242       391 |   5  55    0    0  c0f |    2.807       0       5       0       5     55     55      0   7947     686       2  55    0 c0f a70f      9.570 "
test,1583577383808614912,7," |  7  |   8643       5   8640       0 |   5    0      8516       124 |   1  10    0    0 690f |    2.014       0       5       0       5     10     10      0   8456     184       1  10    0690f a70f      8.250 "
test,1583577383802438912,9," |  9  |   8643       5   8639       0 |   5    0      8361       278 |   1  10    0    0 690f |    2.075       0       5       0       5     10     10      0   8319     320       1  10    0690f a70f      8.190 "
