test,1583577392576097024,10," | 10  |   8678       5   8650       0 |   5    0      8517       133 |   3  12    0    0 7c0f |    2.807       0       3       0       3     12     12      0   8426     224       2  12    07c0f a70f     30.330 "
test,1583577392552838144,12," | 12  |   8678       5   8642      34 |   4    0      8587        89 |   3  12    0    1 7c0f |    1.739       0       4       0       4     12     12      0   8441     235       2  12    17c0f a70f      6.480 "
test,1583577392576793856,13," | 13  |   8678       5   8674       0 |   5    0      8604        70 |   2  12    0    0 7c0f |    2.807       0       4       0       4     12     12      0   8520     154       2  12    07c0f a70f     30.360 "
test,1583577392555329024,15," | 15  |   8678       5   8633      43 |   4    0      8310       366 |   1  12    0    0 7c0f |    2.075       0       5       0       5     12     12      0   7924     752       1  12    07c0f a70f      8.250 "
test,1583577392554029056,16," | 16  |   8678       5   8674       0 |   4    0      8330       344 |   4  16    0    1 390f |    1.739       0       4       0       4     16     16      0   8113     561       2  16    1390f a70f      6.510 "
test,1583577392557761024,17," | 17  |   8678       5   8663      11 |   5    0      8558       116 |   1  16    0    0 390f |    3.509       0       5       0       5     16     16      0   8310     364       3  16    0390f a70f      9.600 "
test,1583577392556830976,18," | 18  |   8678       5   8673       0 |   5    0      8198       475 |   2  16    0    0 390f |    3.479       0       5       0       5     16     16      0   7879     794       3  16    0390f a70f      9.690 "
test,1583577392559214080,19," | 19  |   8678       5   8657      17 |   5    0      8503       171 |   2  16    0    0 390f |    3.540       0       5       0       5     16     16      0   8270     404       3  16    0390f a70f     10.350 "
test,1583577392576292096,1," |  1  |   8678       4   8675       0 |   4   12      8439       236 |   5   1   12    1 820f |    8.117       0       1       0       1      1      1      0   8384     291      11   1    1820f a70f     30.300 "
test,1583577392562982912,22," | 22  |   8678       5   8672       0 |   5    0      8600        72 |   2  16    0    0 390f |    3.509       0       5       0       5     16     16      0   8235     437       3  16    0390f a70f     10.440 "
test,1583577392551906048,23," | 23  |   8678       5   8616       0 |   5    0      8578        38 |   1  16    0    0 390f |    2.075       0       5       0       5     16     16      0   8419     197       1  16    0390f a70f      8.310 "
test,1583577392555008000,24," | 24  |   8678       5   8672       2 |   5    0      8564       110 |   2  16    0    0 390f |    3.540       0       5       0       5     16     16      0   8350     324       3  16    0390f a70f      9.660 "
test,1583577392553414144,26," | 26  |   8678       5   8672       2 |   5    0      8641        33 |   1  16    0    0 390f |    2.777       0       5       0       5     16     16      0   8489     185       2  16    0390f a70f      9.570 "
test,1583577392558393088,27," | 27  |   8678       5   8676       0 |   5    0      8421       255 |   2  16    0    0 390f |    2.777       0       5       0       5     16     16      0   8092     584       2  16    0390f a70f     10.380 "
test,1583577392557938944,28," | 28  |   8678       5   8666       8 |   5    0      7989       685 |   2  16    0    0 390f |    4.211       0       5       0       5     16     16      0   7650    1024       4  16    0390f a70f     11.160 "
test,1583577392577038080,29," | 29  |   8678       5   8661      15 |   3    0      7683       993 |   3  16    0    0 390f |    3.509       0       4       0       4     16     16      0   7312    1364       3  16    0390f a70f     30.240 "
test,1583577392557123840,30," | 30  |   8678       5   8670       4 |   5    0      8557       117 |   4  16    0    0 390f |    4.272       0       5       0       5     16     16      0   8245     429       4  16    0390f a70f     10.470 "
test,1583577392556116224,35," | 35  |   8678       5   8670       4 |   5    0      8266       408 |   3  16    0    0 390f |    4.241       0       5       0       5     16     16      0   8077     597       4  16    0390f a70f     10.980 "
test,1583577392560368128,40," | 40  |   8678       5   8595      75 |   5    0      8169       501 |   3  16    0    0 390f |    3.509       0       5       0       5     16     16      0   7963     707       3  16    0390f a70f     10.350 "
test,1583577392559073024,41," | 41  |   8678       5   8604      60 |   5    0      8581        83 |   1  16    0    0 390f |    2.807       0       5       0       5     16     16      0   8388     276       2  16    0390f a70f     10.380 "
test,1583577392562748928,42," | 42  |   8678       5   8607      67 |   5    0      8520       154 |   2  16    0    0 390f |    2.807       0       5       0       5     16     16      0   8344     330       2  16    0390f a70f      9.660 "
test,1583577392561636096,44," | 44  |   8678       5   8616      58 |   5    0      8520       154 |   2  16    0    0 390f |    2.746       0       5       0       5     16     16      0   8355     319       2  16    0390f a70f      9.690 "
test,1583577392548402944,45," | 45  |   8678       5   8630      44 |   5    0      8411       263 |   1  16    0    0 390f |    2.044       0       5       0       5     16     16      0   8260     414       1  16    0390f a70f      8.130 "
test,1583577392563769088,46," | 46  |   8678       5   8609      58 |   5    0      8250       417 |   2  16    0    0 390f |    3.509       0       5       0       5     16     16      0   8120     547       3  16    0390f a70f     10.260 "
test,1583577392558130944,47," | 47  |   8678       5   8616      58 |   5    0      8410       264 |   2  16    0    0 390f |    2.746       0       5       0       5     16     16      0   8262     412       2  16    0390f a70f      9.690 "
test,1583577392557437952,48," | 48  |   8678       5   8552      55 |   5    0      8437       170 |   2  16    0    0 390f |    2.777       0       5       0       5     16     16      0   8277     330       2  16    0390f a70f      9.630 "
test,1583577392552355072,49," | 49  |   8678       5   8668       0 |   5    0      8502       166 |   2  55    0    0 a40f |    2.044       0       5       0       5     55     55      0   8442     226       1  55    0a40f a70f      8.250 "
test,1583577392574312960,51," | 51  |   8678       5   8669       0 |   5    6      8571        98 |   1   1   12    0 820f |    1.373       0       4       0       4      1      1      0   8541     128       1   1    0820f a70f     30.390 "
test,1583577392556576000,52," | 52  |   8678       3   8637      33 |   4    0      8237       433 |   1  16    0    0 390f |    2.075       0       5       0       5     16     16      0   8094     576       1  16    0390f a70f      8.220 "
test,1583577392552634112,53," | 53  |   8678       5   8652       0 |   5    0      8225       427 |   1  55    0    0 a40f |    2.014       0       5       0       5     55     55      0   8138     514       1  55    0a40f a70f      8.220 "
test,1583577392573221888,54," | 54  |   8678       5   8670       0 |   5    0      8526       144 |   2  12    0    0 7c0f |    2.075       0       3       0       3     12     12      0   8383     287       1  12    07c0f a70f     30.360 "
test,1583577392552123904,55," | 55  |   8678       5   8657       0 |   5    0      8336       321 |   2  55    0    1 a40f |    1.739       0       4       0       4     55     55      0   8261     396       2  55    1a40f a70f      6.510 "
test,1583577392575262976,56," | 56  |   8678       5   8660       0 |   4    9      8532       128 |   3  16    1    0 390f |    6.469       0       3       0       3     16     16      0   8427     233       7  16    0390f a70f     30.360 "
test,1583577392560167168,57," | 57  |   8678       5   8615       0 |   4    8      8385       230 |   2  16    1    0 390f |    2.807       0       5       0       5     16     16      0   7860     755       2  16    0390f a70f     10.470 "
test,1583577392575572992,58," | 58  |   8678       5   8669       0 |   5    0      8551       118 |   1  12    0    0 7c0f |    3.479       0       1       0       1     12     12      0   8207     462       3  12    07c0f a70f     30.390 "
test,1583577392554385920,5," |  5  |   8678       5   8676       0 |   5    0      7879       797 |   1  12    0    0 7c0f |    2.014       0       5       0       5     12     12      0   7736     940       1  12    07c0f a70f      8.220 "
test,1583577392574859008,60," | 60  |   8678       5   8669       0 |   5    3      8103       566 |   2   1   16    0 820f |    2.075       0       4       0       4      1      1      0   7929     740       2   1    0820f a70f     30.360 "
test,1583577392575051008,61," | 61  |   8678       5   8661       7 |   5    0      8273       395 |   2  12    0    0 7c0f |    2.777       0       3       0       3     12     12      0   7978     690       2  12    07c0f a70f     30.360 "
test,1583577392574008064,7," |  7  |   8678       5   8675       0 |   5    0      8550       125 |   4  12    0    0 7c0f |    2.044       0       3       0       3     12     12      0   8489     186       1  12    07c0f a70f     30.390 "
test,1583577392574577152,9," |  9  |   8678       5   8674       0 |   5    0      8394       280 |   3  12    0    0 7c0f |    2.044       0       3       0       3     12     12      0   8351     323       1  12    07c0f a70f     30.300 "
