test,1583577334302853120,10," | 10  |   8445       5   8417       0 |   5    0      8287       130 |   1   1    0    0 3a0f |    1.342       0       5       0       5      1      1      0   8197     220       1   1    03a0f a70f      7.500 "
test,1583577334314310912,12," | 12  |   8445       5   8409      34 |   5    0      8357        86 |   1   1    0    0 3a0f |    1.342       0       5       0       5      1      1      0   8213     230       1   1    03a0f a70f      7.470 "
test,1583577334300136192,13," | 13  |   8445       5   8441       0 |   5    0      8374        67 |   1   1    0    0 3a0f |    1.312       0       5       0       5      1      1      0   8291     150       1   1    03a0f a70f      7.590 "
test,1583577334313254144,15," | 15  |   8445       5   8400      43 |   5    0      8089       354 |   1   1    0    0 3a0f |    2.075       0       5       0       5      1      1      0   7711     732       2   1    03a0f a70f      8.160 "
test,1583577334303164928,16," | 16  |   8445       5   8441       0 |   5    0      8114       327 |   1  41    0    0 270f |    2.014       0       5       0       5     41     41      0   7899     542       1  41    0270f a70f      8.220 "
test,1583577334301160192,17," | 17  |   8445       5   8430      11 |   4    0      8329       112 |   1  41    0    0 270f |    2.014       0       5       0       5     41     41      0   8084     357       1  41    0270f a70f      8.160 "
test,1583577334305210112,18," | 18  |   8445       5   8440       0 |   5    0      7976       464 |   3  41    0    0 270f |    3.448       0       5       0       5     41     41      0   7662     778       3  41    0270f a70f      9.480 "
test,1583577334307457024,19," | 19  |   8445       5   8424      17 |   5    0      8276       165 |   2  41    0    0 270f |    2.685       0       5       0       5     41     41      0   8045     396       2  41    0270f a70f     10.350 "
test,1583577334299020032,1," |  1  |   8445       4   8442       0 |   4    0      8214       228 |   4   1    0    1 3a0f |    1.739       0       4       0       4      1      1      0   8159     283       2   1    13a0f a70f      6.480 "
test,1583577334304568064,22," | 22  |   8445       5   8439       0 |   5    0      8368        71 |   2  41    0    0 270f |    3.479       0       5       0       5     41     41      0   8007     432       3  41    0270f a70f      9.690 "
test,1583577334298693888,23," | 23  |   8445       5   8383       0 |   5    0      8346        37 |   2  41    0    0 270f |    2.746       0       5       0       5     41     41      0   8188     195       2  41    0270f a70f      9.000 "
test,1583577334307056896,24," | 24  |   8445       5   8439       2 |   5    0      8334       107 |   2  41    0    0 270f |    3.448       0       5       0       5     41     41      0   8124     317       3  41    0270f a70f      9.630 "
test,1583577334304748032,26," | 26  |   8445       5   8439       2 |   5    0      8409        32 |   2  41    0    0 270f |    2.716       0       5       0       5     41     41      0   8258     183       2  41    0270f a70f      8.940 "
test,1583577334310795008,27," | 27  |   8445       5   8443       0 |   5    0      8193       250 |   2  41    0    0 270f |    2.716       0       5       0       5     41     41      0   7872     571       2  41    0270f a70f     11.010 "
test,1583577334305562880,28," | 28  |   8445       5   8433       8 |   5    0      7768       673 |   2  41    0    0 270f |    3.448       0       5       0       5     41     41      0   7438    1003       3  41    0270f a70f     10.350 "
test,1583577334324381184,29," | 29  |   8445       5   8429      14 |   5    0      7474       969 |   3  41    0    0 270f |    4.913       0       4       0       4     41     41      0   7110    1333       5  41    0270f a70f     30.270 "
test,1583577334323051008,30," | 30  |   8445       5   8437       4 |   5    0      8325       116 |   4  41    0    0 270f |    4.211       0       4       0       4     41     41      0   8021     420       4  41    0270f a70f     30.390 "
test,1583577334323270912,35," | 35  |   8445       5   8437       4 |   5    0      8043       398 |   3  41    0    0 270f |    4.241       0       4       0       4     41     41      0   7858     583       4  41    0270f a70f     30.330 "
test,1583577334324534016,40," | 40  |   8445       5   8362      75 |   2    3      7958       479 |   7  41   42    0 270f |    2.746       0       4       0       4     41     41      0   7754     683       2  41    0270f a70f     30.390 "
test,1583577334305789952,41," | 41  |   8445       5   8371      60 |   4    0      8351        80 |   5  41    0    1 270f |    1.739       0       4       0       4     41     41      0   8160     271       2  41    1270f a70f      8.640 "
test,1583577334322043904,42," | 42  |   8445       5   8374      67 |   0    9      8289       152 |   0  42   41    1 9b0f |    0           0       0       0       8      0      0      0   8115     326       0  42    19b0f a70f     30.180 "
test,1583577334310988800,44," | 44  |   8445       5   8383      58 |   4    5      8292       149 |   5  41   42    0 270f |    1.983       0       5       0       5     41     41      0   8130     311       1  41    0270f a70f      8.940 "
test,1583577334308484096,45," | 45  |   8445       5   8397      44 |   5    0      8184       257 |   1  41    0    0 270f |    2.014       0       5       0       5     41     41      0   8037     404       1  41    0270f a70f      8.790 "
test,1583577334323574016,46," | 46  |   8445       5   8376      58 |   5    0      8025       409 |   1  41    0    0 270f |    2.716       0       4       0       4     41     41      0   7896     538       2  41    0270f a70f     30.330 "
test,1583577334323788800,47," | 47  |   8445       5   8383      58 |   5    0      8182       259 |   4  41    0    0 270f |    2.746       0       4       0       4     41     41      0   8037     404       2  41    0270f a70f     30.390 "
test,1583577334325906944,48," | 48  |   8445       5   8319      55 |   4    5      8206       168 |   4  41   42    0 270f |    2.716       0       4       0       4     41     41      0   8047     327       2  41    0270f a70f     30.300 "
test,1583577334304399104,49," | 49  |   8445       5   8435       0 |   5    0      8273       162 |   3   1    0    0 3a0f |    2.746       0       5       0       5      1      1      0   8214     221       3   1    03a0f a70f      8.970 "
test,1583577334302087936,51," | 51  |   8445       5   8436       0 |   5    0      8340        96 |   1   1    0    0 3a0f |    1.342       0       5       0       5      1      1      0   8312     124       1   1    03a0f a70f      8.280 "
test,1583577334304009984,52," | 52  |   8445       5   8404      33 |   4    0      8013       424 |   2  41    0    0 270f |    2.716       0       5       0       5     41     41      0   7871     566       2  41    0270f a70f      9.630 "
test,1583577334306528000,53," | 53  |   8445       5   8419       0 |   5    0      8004       415 |   4   1    0    0 3a0f |    3.509       0       5       0       5      1      1      0   7919     500       4   1    03a0f a70f      9.720 "
test,1583577334299662080,54," | 54  |   8445       5   8437       0 |   5    0      8294       143 |   1   1    0    0 3a0f |    1.342       0       5       0       5      1      1      0   8155     282       1   1    03a0f a70f      7.440 "
test,1583577334301667840,55," | 55  |   8445       5   8424       0 |   5    0      8110       314 |   3   1    0    0 3a0f |    2.838       0       5       0       5      1      1      0   8039     385       3   1    03a0f a70f      8.880 "
test,1583577334321620992,56," | 56  |   8445       5   8427       0 |   5    0      8300       127 |   2   1    0    0 3a0f |    3.509       0       4       0       4      1      1      0   8199     228       4   1    03a0f a70f     30.360 "
test,1583577334325469952,57," | 57  |   8445       5   8382       0 |   1    1      8159       223 |   8  41    1    0 270f |    3.479       0       2       0       2     41     41      0   7643     739       3  41    0270f a70f     30.390 "
test,1583577334300688128,58," | 58  |   8445       5   8436       0 |   5    0      8322       114 |   2   1    0    0 3a0f |    2.044       0       5       0       5      1      1      0   7983     453       2   1    03a0f a70f      8.280 "
test,1583577334300892160,5," |  5  |   8445       5   8443       0 |   5    0      7670       773 |   2   1    0    0 3a0f |    2.105       0       5       0       5      1      1      0   7529     914       2   1    03a0f a70f      8.220 "
test,1583577334303790080,60," | 60  |   8445       5   8436       0 |   5    0      7884       552 |   2   1    0    0 3a0f |    2.075       0       5       0       5      1      1      0   7716     720       2   1    03a0f a70f      8.940 "
test,1583577334301466112,61," | 61  |   8445       5   8428       7 |   4    0      8056       379 |   2   1    0    0 3a0f |    2.044       0       5       0       5      1      1      0   7770     665       2   1    03a0f a70f      8.250 "
test,1583577334306927872,7," |  7  |   8445       5   8442       0 |   5    0      8320       122 |   1   1    0    0 3a0f |    1.342       0       5       0       5      1      1      0   8261     181       1   1    03a0f a70f      7.530 "
test,1583577334299429888,9," |  9  |   8445       5   8441       0 |   5    0      8164       277 |   1   1    0    0 3a0f |    1.373       0       5       0       5      1      1      0   8122     319       1   1    03a0f a70f      7.530 "
