test,1583577329301991936,10," | 10  |   8425       5   8397       0 |   5    0      8268       129 |   1  13    0    0 c90f |    2.044       0       5       0       5     13     13      0   8178     219       1  13    0c90f a70f      8.250 "
test,1583577329301577984,12," | 12  |   8425       5   8389      34 |   5    0      8337        86 |   1  13    0    0 c90f |    2.075       0       5       0       5     13     13      0   8193     230       1  13    0c90f a70f      9.030 "
test,1583577329300561920,13," | 13  |   8425       5   8421       0 |   4    0      8355        66 |   2  13    0    1 c90f |    1.770       0       4       0       4     13     13      0   8272     149       2  13    1c90f a70f      6.510 "
test,1583577329305381888,15," | 15  |   8425       5   8380      43 |   5    0      8069       354 |   2  13    0    0 c90f |    2.777       0       5       0       5     13     13      0   7693     730       2  13    0c90f a70f      9.540 "
test,1583577329314675200,16," | 16  |   8425       5   8421       0 |   5    0      8094       327 |   3  17    0    0 e40f |    3.479       0       5       0       5     17     17      0   7879     542       3  17    0e40f a70f      9.660 "
test,1583577329306123008,17," | 17  |   8425       4   8410      11 |   4    0      8309       112 |   2  17    0    1 e40f |    1.739       0       4       0       4     17     17      0   8064     357       2  17    1e40f a70f      8.670 "
test,1583577329304056832,18," | 18  |   8425       5   8420       0 |   5    0      7956       464 |   2  17    0    0 e40f |    3.509       0       5       0       5     17     17      0   7643     777       3  17    0e40f a70f     10.290 "
test,1583577329309364992,19," | 19  |   8425       4   8404      17 |   5    0      8256       165 |   1  17    0    0 e40f |    2.044       0       5       0       5     17     17      0   8026     395       1  17    0e40f a70f      9.720 "
test,1583577329300740096,1," |  1  |   8425       4   8422       0 |   5    0      8196       226 |   1  13    0    0 c90f |    2.746       0       5       0       5     13     13      0   8141     281       1  13    0c90f a70f      8.880 "
test,1583577329304647936,22," | 22  |   8425       5   8419       0 |   5    0      8348        71 |   2  17    0    0 e40f |    2.777       0       5       0       5     17     17      0   7989     430       2  17    0e40f a70f      9.540 "
test,1583577329302743808,23," | 23  |   8425       5   8363       0 |   5    0      8326        37 |   2  17    0    0 e40f |    2.777       0       5       0       5     17     17      0   8168     195       2  17    0e40f a70f      8.970 "
test,1583577329303107072,24," | 24  |   8425       5   8419       2 |   5    0      8314       107 |   2  17    0    0 e40f |    2.746       0       5       0       5     17     17      0   8104     317       2  17    0e40f a70f      8.970 "
test,1583577329304435968,26," | 26  |   8425       5   8419       2 |   5    0      8389        32 |   1  17    0    0 e40f |    2.044       0       5       0       5     17     17      0   8238     183       1  17    0e40f a70f      9.720 "
test,1583577329310065152,27," | 27  |   8425       5   8423       0 |   5    0      8174       249 |   2  17    0    0 e40f |    2.014       0       5       0       5     17     17      0   7853     570       1  17    0e40f a70f      9.720 "
test,1583577329316532992,28," | 28  |   8425       5   8413       8 |   5    0      7749       672 |   1  17    0    0 e40f |    2.044       0       5       0       5     17     17      0   7420    1001       1  17    0e40f a70f      9.600 "
test,1583577329325360896,29," | 29  |   8425       4   8409      14 |   5    0      7456       967 |   2  17    0    0 e40f |    5.706       0       3       0       3     17     17      0   7092    1331       6  17    0e40f a70f     30.360 "
test,1583577329307173888,30," | 30  |   8425       5   8417       4 |   4    0      8305       116 |   3  17    0    0 e40f |    2.746       0       5       0       5     17     17      0   8001     420       2  17    0e40f a70f      8.910 "
test,1583577329306283008,35," | 35  |   8425       5   8417       4 |   4    0      8024       397 |   3  17    0    0 e40f |    3.509       0       5       0       5     17     17      0   7839     582       3  17    0e40f a70f      9.540 "
test,1583577329306718208,40," | 40  |   8425       4   8342      75 |   5    0      7939       478 |   1  42    0    0 d50f |    2.044       0       5       0       5     42     42      0   7736     681       1  42    0d50f a70f      9.030 "
test,1583577329307843072,41," | 41  |   8425       5   8351      60 |   5    0      8331        80 |   1  42    0    0 d50f |    2.075       0       5       0       5     42     42      0   8141     270       1  42    0d50f a70f      8.310 "
test,1583577329304822016,42," | 42  |   8425       5   8354      67 |   4    0      8270       151 |   3  42    0    1 d50f |    1.770       0       4       0       4     42     42      0   8097     324       2  42    1d50f a70f      7.230 "
test,1583577329322823168,44," | 44  |   8425       5   8363      58 |   5    0      8272       149 |   2  42    0    0 d50f |    2.807       0       2       0       2     42     42      0   8111     310       2  42    0d50f a70f     30.300 "
test,1583577329321115136,45," | 45  |   8425       5   8377      44 |   0    8      8165       256 |   0  45   42    1 780f |    0           0       0       0       8      0      0      0   8019     402       0  45    1780f a70f     30.240 "
test,1583577329305154048,46," | 46  |   8425       5   8356      58 |   5    0      8006       408 |   1  42    0    0 d50f |    2.075       0       5       0       5     42     42      0   7878     536       1  42    0d50f a70f      9.000 "
test,1583577329302936064,47," | 47  |   8425       5   8363      58 |   5    0      8163       258 |   1  42    0    0 d50f |    2.044       0       5       0       5     42     42      0   8019     402       1  42    0d50f a70f      8.970 "
test,1583577329307333888,48," | 48  |   8425       5   8299      55 |   5    0      8186       168 |   1  42    0    0 d50f |    2.075       0       5       0       5     42     42      0   8028     326       1  42    0d50f a70f      9.720 "
test,1583577329309883136,49," | 49  |   8425       5   8415       0 |   5    0      8253       162 |   3  13    0    0 c90f |    3.540       0       5       0       5     13     13      0   8194     221       3  13    0c90f a70f      9.690 "
test,1583577329301400832,51," | 51  |   8425       5   8416       0 |   5    0      8320        96 |   2  13    0    0 c90f |    2.044       0       5       0       5     13     13      0   8292     124       1  13    0c90f a70f      8.220 "
test,1583577329320620032,52," | 52  |   8425       5   8384      33 |   0    8      7993       424 |   0  52   17    1 c80f |    0           0       0       0       8      0      0      0   7851     566       0  52    1c80f a70f     30.180 "
test,1583577329303674880,53," | 53  |   8425       5   8399       0 |   5    0      7984       415 |   4  13    0    0 c90f |    4.241       0       5       0       5     13     13      0   7899     500       4  13    0c90f a70f     10.290 "
test,1583577329300337920,54," | 54  |   8425       5   8417       0 |   5    0      8274       143 |   1  13    0    0 c90f |    2.044       0       5       0       5     13     13      0   8135     282       1  13    0c90f a70f      8.280 "
test,1583577329308200960,55," | 55  |   8425       5   8404       0 |   5    0      8090       314 |   3  13    0    0 c90f |    3.509       0       5       0       5     13     13      0   8019     385       3  13    0c90f a70f      9.690 "
test,1583577329305821952,56," | 56  |   8425       5   8407       0 |   5    0      8280       127 |   1  13    0    0 c90f |    2.044       0       5       0       5     13     13      0   8179     228       1  13    0c90f a70f      8.940 "
test,1583577329324436992,57," | 57  |   8425       5   8362       0 |   2    0      8140       222 |   5  17    0    0 e40f |    3.479       0       3       0       3     17     17      0   7625     737       3  17    0e40f a70f     30.390 "
test,1583577329323607808,58," | 58  |   8425       5   8416       0 |   4    0      8302       114 |   2  13    0    0 c90f |    2.807       0       4       0       4     13     13      0   7963     453       2  13    0c90f a70f     30.390 "
test,1583577329303868160,5," |  5  |   8425       5   8423       0 |   5    0      7653       770 |   1  13    0    0 c90f |    2.044       0       5       0       5     13     13      0   7512     911       1  13    0c90f a70f      8.100 "
test,1583577329303299840,60," | 60  |   8425       5   8416       0 |   5    0      7865       551 |   3  13    0    0 c90f |    2.807       0       5       0       5     13     13      0   7698     718       2  13    0c90f a70f      8.850 "
test,1583577329324038912,61," | 61  |   8425       5   8408       7 |   4    1      8036       379 |   2  13   17    0 c90f |    2.777       0       3       0       3     13     13      0   7750     665       2  13    0c90f a70f     30.330 "
test,1583577329301740800,7," |  7  |   8425       5   8422       0 |   5    0      8300       122 |   1  13    0    0 c90f |    2.044       0       5       0       5     13     13      0   8241     181       1  13    0c90f a70f      8.280 "
test,1583577329300988928,9," |  9  |   8425       5   8421       0 |   5    0      8144       277 |   1  13    0    0 c90f |    2.044       0       5       0       5     13     13      0   8102     319       1  13    0c90f a70f      9.030 "
