test,1583577301562608896,10," | 10  |   8314       5   8286       0 |   1    5      8159       127 |   3  49    5    0 3c0f |    3.479       0       5       0       5     49     49      0   8071     215       3  49    03c0f a70f      9.690 "
test,1583577301549715968,12," | 12  |   8314       5   8278      34 |   4    0      8227        85 |   2  12    0    1 be0f |    1.739       0       4       0       4     12     12      0   8085     227       2  12    1be0f a70f      6.480 "
test,1583577301549513216,13," | 13  |   8314       5   8310       0 |   5    7      8245        65 |   1   5   12    0  80f |    1.983       0       5       0       5      5      5      0   8164     146       1   5    0 80f a70f      8.100 "
test,1583577301571425024,15," | 15  |   8314       5   8269      43 |   0    6      7962       350 |   0  15    5    1 1d0f |    0           0       0       0       8      0      0      0   7588     724       0  15    11d0f a70f     30.210 "
test,1583577301555192064,16," | 16  |   8314       5   8310       0 |   5    0      7988       322 |   6  18    0    0 160f |    3.509       0       5       0       5     18     18      0   7777     533       3  18    0160f a70f      9.750 "
test,1583577301576935168,17," | 17  |   8314       5   8299      11 |   0    5      8199       111 |   0  17   18    1 380f |    0           0       0       0       8      0      0      0   7957     353       0  17    1380f a70f     30.180 "
test,1583577301551661056,18," | 18  |   8314       5   8309       0 |   4    0      7858       451 |   2  18    0    1 160f |    1.739       0       4       0       4     18     18      0   7547     762       2  18    1160f a70f      6.510 "
test,1583577301574292992,19," | 19  |   8314       4   8293      17 |   4    3      8148       162 |   6  18   17    0 160f |    2.777       0       3       0       3     18     18      0   7921     389       2  18    0160f a70f     30.300 "
test,1583577301553113088,1," |  1  |   8314       4   8311       0 |   5    0      8088       223 |   1  12    0    0 be0f |    2.685       0       5       0       5     12     12      0   8034     277       1  12    0be0f a70f      8.820 "
test,1583577301551044096,22," | 22  |   8314       5   8308       0 |   5    0      8237        71 |   1  18    0    0 160f |    2.044       0       5       0       5     18     18      0   7883     425       1  18    0160f a70f      8.310 "
test,1583577301555830016,23," | 23  |   8314       5   8252       0 |   5    0      8215        37 |   5  18    0    0 160f |    2.807       0       5       0       5     18     18      0   8058     194       2  18    0160f a70f      8.970 "
test,1583577301550710016,24," | 24  |   8314       5   8308       2 |   5    0      8206       104 |   1  18    0    0 160f |    2.044       0       5       0       5     18     18      0   8001     309       1  18    0160f a70f      8.250 "
test,1583577301556241920,26," | 26  |   8314       5   8308       2 |   5    0      8278        32 |   1  18    0    0 160f |    2.746       0       5       0       5     18     18      0   8129     181       2  18    0160f a70f      8.940 "
test,1583577301573367040,27," | 27  |   8314       5   8312       0 |   1    9      8065       247 |   5  27   17    1 ac0f |    1.739       0       1       0       1     27     27      0   7747     565       2  27    1ac0f a70f     30.300 "
test,1583577301552891904,28," | 28  |   8314       5   8302       8 |   5    0      7650       660 |   1  30    0    0 5b0f |    2.014       0       5       0       5     30     30      0   7322     988       1  30    05b0f a70f      8.160 "
test,1583577301575452160,29," | 29  |   8314       5   8298      14 |   2    2      7356       956 |   4  27   18    0 ac0f |    2.044       0       1       0       1     27     27      0   6998    1314       1  27    0ac0f a70f     30.360 "
test,1583577301550496000,30," | 30  |   8314       5   8306       4 |   4    0      8195       115 |   2  30    0    1 5b0f |    1.739       0       4       0       4     30     30      0   7893     417       2  30    15b0f a70f      6.480 "
test,1583577301554470912,35," | 35  |   8314       5   8306       4 |   5    0      7916       394 |   1  30    0    0 5b0f |    2.044       0       5       0       5     30     30      0   7731     579       1  30    05b0f a70f      8.250 "
test,1583577301574702080,40," | 40  |   8314       5   8231      75 |   3    0      7837       469 |   2  46    0    0 bb0f |    2.746       0       4       0       4     46     46      0   7637     669       2  46    0bb0f a70f     30.390 "
test,1583577301572108032,41," | 41  |   8314       5   8240      60 |   5    0      8222        78 |   1  46    0    0 bb0f |    2.014       0       4       0       4     46     46      0   8033     267       1  46    0bb0f a70f     30.360 "
test,1583577301573729024,42," | 42  |   8314       5   8243      67 |   5    0      8160       150 |   1  46    0    0 bb0f |    3.448       0       3       0       3     46     46      0   7990     320       3  46    0bb0f a70f     30.330 "
test,1583577301575058944,44," | 44  |   8314       5   8252      58 |   5    0      8163       147 |   1  46    0    0 bb0f |    2.716       0       4       0       4     46     46      0   8002     308       2  46    0bb0f a70f     30.390 "
test,1583577301572658944,45," | 45  |   8314       5   8266      44 |   5    0      8057       253 |   1  46    0    0 bb0f |    2.716       0       4       0       4     46     46      0   7914     396       2  46    0bb0f a70f     30.300 "
test,1583577301552197888,46," | 46  |   8314       4   8245      58 |   4    0      7901       402 |   2  46    0    1 bb0f |    1.739       0       4       0       4     46     46      0   7775     528       2  46    1bb0f a70f      6.510 "
test,1583577301572877056,47," | 47  |   8314       4   8252      58 |   5    0      8052       258 |   1  46    0    0 bb0f |    2.777       0       4       0       4     46     46      0   7911     399       2  46    0bb0f a70f     30.270 "
test,1583577301571728896,48," | 48  |   8314       5   8188      55 |   5    0      8077       166 |   1  46    0    0 bb0f |    2.014       0       4       0       4     46     46      0   7922     321       1  46    0bb0f a70f     30.360 "
test,1583577301549981952,49," | 49  |   8314       5   8304       0 |   4    0      8144       160 |   2  49    0    1 3c0f |    1.739       0       4       0       4     49     49      0   8085     219       2  49    13c0f a70f      6.480 "
test,1583577301555385088,51," | 51  |   8314       5   8305       0 |   1    7      8209        96 |   4  49    5    0 3c0f |    3.509       0       5       0       5     49     49      0   8181     124       3  49    03c0f a70f      9.720 "
test,1583577301574497024,52," | 52  |   8314       3   8273      33 |   5    0      7893       413 |   4  18    0    0 160f |    2.777       0       3       0       3     18     18      0   7752     554       2  18    0160f a70f     30.360 "
test,1583577301551911168,53," | 53  |   8314       5   8288       0 |   5    0      7880       408 |   1  49    0    0 3c0f |    2.014       0       5       0       5     49     49      0   7795     493       1  49    03c0f a70f      8.100 "
test,1583577301551460096,54," | 54  |   8314       5   8306       0 |   3    4      8164       142 |   7  12    5    0 be0f |    1.983       0       5       0       5     12     12      0   8025     281       1  12    0be0f a70f      8.220 "
test,1583577301552681984,55," | 55  |   8314       5   8293       0 |   5    0      7982       311 |   1  49    0    0 3c0f |    2.044       0       5       0       5     49     49      0   7911     382       1  49    03c0f a70f      8.190 "
test,1583577301553769984,56," | 56  |   8314       5   8296       0 |   5    0      8170       126 |   2  49    0    0 3c0f |    2.777       0       5       0       5     49     49      0   8070     226       2  49    03c0f a70f      8.970 "
test,1583577301569447168,57," | 57  |   8314       5   8251       0 |   4    2      8031       220 |   2  18   49    0 160f |    0           0       0       0       8      0      0      0   7525     726       0  18    0160f a70f     30.390 "
test,1583577301550220032,58," | 58  |   8314       5   8305       0 |   5    0      8192       113 |   1  49    0    0 3c0f |    2.014       0       5       0       5     49     49      0   7858     447       1  49    03c0f a70f      8.250 "
test,1583577301554872064,5," |  5  |   8314       5   8312       0 |   4    4      7552       760 |   5   5   12    1  80f |    1.739       0       4       0       4      5      5      0   7411     901       2   5    1 80f a70f      6.480 "
test,1583577301569699072,60," | 60  |   8314       5   8305       0 |   4    2      7761       544 |   3  18   49    0 160f |    0           0       0       0       8      0      0      0   7596     709       0  18    0160f a70f     30.360 "
test,1583577301553337088,61," | 61  |   8314       5   8297       7 |   4    1      7930       374 |   2  49   12    0 3c0f |    3.479       0       5       0       5     49     49      0   7647     657       3  49    03c0f a70f      9.660 "
test,1583577301551211008,7," |  7  |   8314       5   8311       0 |   5    0      8190       121 |   1  12    0    0 be0f |    2.044       0       5       0       5     12     12      0   8132     179       1  12    0be0f a70f      8.160 "
test,1583577301554142976,9," |  9  |   8314       5   8310       0 |   5    0      8040       270 |   1  12    0    0 be0f |    1.983       0       5       0       5     12     12      0   7998     312       1  12    0be0f a70f      8.130 "
