test,1583577400551843840,10," | 10  |   8710       5   8682       0 |   5    0      8549       133 |   1   1    0    0 820f |    1.373       0       5       0       5      1      1      0   8458     224       1   1    0820f a70f      7.470 "
test,1583577400553675776,12," | 12  |   8710       5   8674      34 |   5    0      8618        90 |   1   1    0    0 820f |    1.312       0       5       0       5      1      1      0   8472     236       1   1    0820f a70f      7.590 "
test,1583577400551635968,13," | 13  |   8710       5   8706       0 |   5    0      8636        70 |   1   1    0    0 820f |    1.312       0       5       0       5      1      1      0   8552     154       1   1    0820f a70f      7.530 "
test,1583577400553358080,15," | 15  |   8710       5   8665      43 |   5    0      8342       366 |   2   1    0    0 820f |    2.075       0       5       0       5      1      1      0   7954     754       2   1    0820f a70f      8.310 "
test,1583577400568110848,16," | 16  |   8710       5   8706       0 |   5    0      8362       344 |   2  52    0    0 470f |    2.746       0       5       0       5     52     52      0   8144     562       2  52    0470f a70f      9.690 "
test,1583577400554903040,17," | 17  |   8710       5   8695      11 |   5    0      8590       116 |   2  52    0    0 470f |    2.777       0       5       0       5     52     52      0   8342     364       2  52    0470f a70f      8.910 "
test,1583577400558445824,18," | 18  |   8710       5   8705       0 |   5    0      8227       478 |   2  52    0    0 470f |    2.746       0       5       0       5     52     52      0   7906     799       2  52    0470f a70f      9.510 "
test,1583577400556294912,19," | 19  |   8710       5   8689      17 |   5    0      8535       171 |   3  52    0    0 470f |    3.479       0       5       0       5     52     52      0   8301     405       3  52    0470f a70f      9.630 "
test,1583577400550362112,1," |  1  |   8710       4   8707       0 |   5    0      8471       236 |   2   1    0    1 820f |    1.739       0       4       0       4      1      1      0   8416     291       2   1    1820f a70f      6.510 "
test,1583577400560352000,22," | 22  |   8710       5   8704       0 |   5    0      8631        73 |   2  52    0    0 470f |    2.716       0       5       0       5     52     52      0   8265     439       2  52    0470f a70f      9.630 "
test,1583577400554151168,23," | 23  |   8710       5   8648       0 |   5    0      8610        38 |   1  52    0    0 470f |    2.044       0       5       0       5     52     52      0   8450     198       1  52    0470f a70f     10.260 "
test,1583577400557905920,24," | 24  |   8710       5   8704       2 |   5    0      8596       110 |   2  52    0    0 470f |    2.746       0       5       0       5     52     52      0   8380     326       2  52    0470f a70f      9.690 "
test,1583577400555572992,26," | 26  |   8710       5   8704       2 |   5    0      8673        33 |   1  52    0    0 470f |    2.014       0       5       0       5     52     52      0   8520     186       1  52    0470f a70f      8.970 "
test,1583577400575543040,27," | 27  |   8710       5   8708       0 |   4    6      8453       255 |   8  27   52    1 dc0f |   12.451       0       1       0       1     27     27      0   8123     585      17  27    1dc0f a70f     30.210 "
test,1583577400578809856,28," | 28  |   8710       5   8698       8 |   3    0      8020       686 |   6  52    0    0 470f |    3.479       0       4       0       4     52     52      0   7679    1027       3  52    0470f a70f     30.390 "
test,1583577400559971072,29," | 29  |   8710       5   8693      15 |   5    4      7710       998 |   1  27   52    0 dc0f |    2.014       0       5       0       5     27     27      0   7338    1370       1  27    0dc0f a70f     12.900 "
test,1583577400552724992,30," | 30  |   8710       5   8702       4 |   2    3      8589       117 |   1  35   52    0 6c0f |    2.014       0       5       0       5     35     35      0   8275     431       1  35    06c0f a70f      8.250 "
test,1583577400556813056,35," | 35  |   8710       5   8702       4 |   1    3      8296       410 |   2  35   52    1 6c0f |    1.770       0       4       0       4     35     35      0   8107     599       2  35    16c0f a70f      6.510 "
test,1583577400568963072,40," | 40  |   8710       5   8627      75 |   3    0      8196       506 |   7  52    0    0 470f |    3.417       0       5       0       5     52     52      0   7989     713       3  52    0470f a70f     10.380 "
test,1583577400558749952,41," | 41  |   8710       5   8636      60 |   4    0      8612        84 |   3  52    0    0 470f |    3.479       0       5       0       5     52     52      0   8419     277       3  52    0470f a70f      9.600 "
test,1583577400555183872,42," | 42  |   8710       5   8639      67 |   4    0      8552       154 |   3  52    0    0 470f |    3.448       0       5       0       5     52     52      0   8376     330       3  52    0470f a70f      9.630 "
test,1583577400554656000,44," | 44  |   8710       5   8648      58 |   5    0      8551       155 |   2  52    0    0 470f |    2.746       0       5       0       5     52     52      0   8386     320       2  52    0470f a70f      8.940 "
test,1583577400559287040,45," | 45  |   8710       5   8662      44 |   5    0      8441       265 |   3  52    0    0 470f |    3.479       0       5       0       5     52     52      0   8290     416       3  52    0470f a70f      9.720 "
test,1583577400572493056,46," | 46  |   8710       5   8641      58 |   4    0      8282       417 |   3  52    0    0 470f |    3.479       0       5       0       5     52     52      0   8152     547       3  52    0470f a70f      9.660 "
test,1583577400575330048,47," | 47  |   8710       5   8648      58 |   4    0      8441       265 |   4  52    0    0 470f |    3.448       0       4       0       4     52     52      0   8293     413       3  52    0470f a70f     30.330 "
test,1583577400573568000,48," | 48  |   8710       5   8584      55 |   4    0      8469       170 |   4  52    0    0 470f |    3.448       0       5       0       5     52     52      0   8309     330       3  52    0470f a70f      9.660 "
test,1583577400553842944,49," | 49  |   8710       5   8700       0 |   4    0      8534       166 |   2  49    0    1 a60f |    1.739       0       4       0       4     49     49      0   8474     226       2  49    1a60f a70f      6.480 "
test,1583577400555795968,51," | 51  |   8710       5   8701       0 |   5    0      8603        98 |   1   1    0    0 820f |    1.373       0       5       0       5      1      1      0   8572     129       1   1    0820f a70f      7.530 "
test,1583577400556119808,52," | 52  |   8710       5   8669      33 |   4    0      8269       433 |   4  52    0    1 470f |    1.770       0       4       0       4     52     52      0   8125     577       2  52    1470f a70f      8.670 "
test,1583577400555376128,53," | 53  |   8710       5   8684       0 |   5    0      8255       429 |   1  49    0    0 a60f |    2.044       0       5       0       5     49     49      0   8168     516       1  49    0a60f a70f      8.280 "
test,1583577400553124864,54," | 54  |   8710       5   8702       0 |   5    0      8558       144 |   1   1    0    0 820f |    1.373       0       5       0       5      1      1      0   8415     287       1   1    0820f a70f      7.470 "
test,1583577400560802816,55," | 55  |   8710       5   8689       0 |   5    0      8367       322 |   1  49    0    0 a60f |    2.075       0       5       0       5     49     49      0   8292     397       1  49    0a60f a70f      8.190 "
test,1583577400573854976,56," | 56  |   8710       5   8692       0 |   2    5      8564       128 |   2  49   52    0 a60f |    2.746       0       2       0       2     49     49      0   8459     233       2  49    0a60f a70f     30.360 "
test,1583577400557447936,57," | 57  |   8710       5   8647       0 |   3    0      8416       231 |   6  52    0    0 470f |    2.746       0       5       0       5     52     52      0   7889     758       2  52    0470f a70f      9.690 "
test,1583577400554333952,58," | 58  |   8710       5   8701       0 |   5    0      8583       118 |   1  49    0    0 a60f |    2.044       0       5       0       5     49     49      0   8238     463       1  49    0a60f a70f      9.030 "
test,1583577400572876032,5," |  5  |   8710       5   8708       0 |   0    5      7908       800 |   0   5    1    1 380f |    0           0       0       0       8      0      0      0   7765     943       0   5    1380f a70f     30.180 "
test,1583577400552552960,60," | 60  |   8710       5   8701       0 |   5    0      8133       568 |   2   1    0    0 820f |    2.105       0       5       0       5      1      1      0   7960     741       2   1    0820f a70f      8.160 "
test,1583577400556425984,61," | 61  |   8710       5   8693       7 |   5    0      8302       398 |   2  49    0    0 a60f |    2.777       0       5       0       5     49     49      0   8007     693       2  49    0a60f a70f      9.720 "
test,1583577400551429888,7," |  7  |   8710       5   8707       0 |   5    0      8582       125 |   1   1    0    0 820f |    1.312       0       5       0       5      1      1      0   8521     186       1   1    0820f a70f      7.560 "
test,1583577400552210944,9," |  9  |   8710       5   8706       0 |   5    0      8426       280 |   1   1    0    0 820f |    1.342       0       5       0       5      1      1      0   8383     323       1   1    0820f a70f      7.500 "
