test,1583577298551689984,10," | 10  |   8302       5   8274       0 |   5    0      8147       127 |   1  56    0    0 8d0f |    2.014       0       5       0       5     56     56      0   8059     215       1  56    08d0f a70f      8.250 "
test,1583577298551158016,12," | 12  |   8302       5   8266      34 |   5    0      8215        85 |   2  56    0    0 8d0f |    2.777       0       5       0       5     56     56      0   8073     227       2  56    08d0f a70f      8.940 "
test,1583577298554179840,13," | 13  |   8302       5   8298       0 |   5    0      8233        65 |   2  56    0    0 8d0f |    1.983       0       5       0       5     56     56      0   8152     146       1  56    08d0f a70f      8.220 "
test,1583577298553827072,15," | 15  |   8302       5   8257      43 |   5    0      7951       349 |   3  56    0    0 8d0f |    3.509       0       5       0       5     56     56      0   7577     723       3  56    08d0f a70f      9.720 "
test,1583577298550345984,16," | 16  |   8302       5   8298       0 |   4    5      7976       322 |   5  16   22    1 610f |    1.739       0       4       0       4     16     16      0   7765     533       2  16    1610f a70f      6.510 "
test,1583577298553214976,17," | 17  |   8302       5   8287      11 |   5    0      8188       110 |   1  22    0    0 ac0f |    2.014       0       5       0       5     22     22      0   7946     352       1  22    0ac0f a70f      8.250 "
test,1583577298557556992,18," | 18  |   8302       5   8297       0 |   5    0      7846       451 |   1  22    0    0 ac0f |    1.983       0       5       0       5     22     22      0   7536     761       1  22    0ac0f a70f      8.190 "
test,1583577298557746944,19," | 19  |   8302       5   8282      16 |   5    0      8137       161 |   2  22    0    0 ac0f |    2.716       0       5       0       5     22     22      0   7911     387       2  22    0ac0f a70f      8.820 "
test,1583577298553998080,1," |  1  |   8302       4   8299       0 |   5    0      8076       223 |   2  56    0    0 8d0f |    3.448       0       5       0       5     56     56      0   8022     277       2  56    08d0f a70f      9.630 "
test,1583577298556854016,22," | 22  |   8302       5   8296       0 |   4    0      8225        71 |   5  22    0    1 ac0f |    1.739       0       4       0       4     22     22      0   7872     424       2  22    1ac0f a70f      6.480 "
test,1583577298550940928,23," | 23  |   8302       5   8240       0 |   5    7      8203        37 |   1  16   22    0 610f |    2.044       0       5       0       5     16     16      0   8046     194       1  16    0610f a70f      8.310 "
test,1583577298550514944,24," | 24  |   8302       5   8296       2 |   5    0      8195       103 |   1  22    0    0 ac0f |    2.014       0       5       0       5     22     22      0   7990     308       1  22    0ac0f a70f      8.220 "
test,1583577298549550080,26," | 26  |   8302       5   8296       2 |   5    0      8266        32 |   1  22    0    0 ac0f |    2.014       0       5       0       5     22     22      0   8117     181       1  22    0ac0f a70f      8.250 "
test,1583577298559201024,27," | 27  |   8302       5   8300       0 |   5    5      8055       245 |   2  16   29    0 610f |    2.807       0       5       0       5     16     16      0   7737     563       2  16    0610f a70f      8.880 "
test,1583577298553374976,28," | 28  |   8302       4   8290       8 |   5    0      7640       658 |   3  22    0    0 ac0f |    2.014       0       5       0       5     22     22      0   7312     986       1  22    0ac0f a70f      8.880 "
test,1583577298572132096,29," | 29  |   8302       3   8286      14 |   0    8      7344       956 |   0  29   16    1 590f |    0           0       0       0       8      0      0      0   6988    1312       0  29    1590f a70f     30.150 "
test,1583577298556315904,30," | 30  |   8302       5   8294       4 |   5    0      8183       115 |   1  22    0    0 ac0f |    2.014       0       5       0       5     22     22      0   7881     417       1  22    0ac0f a70f      9.720 "
test,1583577298552484096,35," | 35  |   8302       5   8294       4 |   5    0      7904       394 |   1  22    0    0 ac0f |    1.983       0       5       0       5     22     22      0   7719     579       1  22    0ac0f a70f     10.260 "
test,1583577298555320064,40," | 40  |   8302       5   8219      75 |   5    0      7826       468 |   2  22    0    0 ac0f |    2.716       0       5       0       5     22     22      0   7626     668       2  22    0ac0f a70f     10.380 "
test,1583577298573189120,41," | 41  |   8302       5   8228      60 |   5   10      8210        78 |   1  16   22    0 610f |    5.004       0       1       0       1     16     16      0   8021     267       5  16    0610f a70f     30.330 "
test,1583577298557368064,42," | 42  |   8302       5   8231      67 |   5    0      8149       149 |   1  22    0    0 ac0f |    2.014       0       5       0       5     22     22      0   7979     319       1  22    0ac0f a70f      9.720 "
test,1583577298573846016,44," | 44  |   8302       5   8240      58 |   5    0      8151       147 |   4  22    0    0 ac0f |    8.575       0       3       0       3     22     22      0   7990     308      10  22    0ac0f a70f     30.300 "
test,1583577298574033920,45," | 45  |   8302       5   8254      44 |   5    9      8045       253 |   1  16   22    0 610f |    2.105       0       3       0       3     16     16      0   7902     396       1  16    0610f a70f     30.240 "
test,1583577298554665216,46," | 46  |   8302       5   8233      58 |   2    1      7890       401 |   5  22   16    0 ac0f |    2.716       0       5       0       5     22     22      0   7764     527       2  22    0ac0f a70f     11.010 "
test,1583577298555610880,47," | 47  |   8302       5   8240      58 |   5    0      8040       258 |   5  22    0    0 ac0f |    2.716       0       5       0       5     22     22      0   7899     399       2  22    0ac0f a70f     11.070 "
test,1583577298556631040,48," | 48  |   8302       5   8176      55 |   5    0      8065       166 |   1  22    0    0 ac0f |    1.983       0       5       0       5     22     22      0   7910     321       1  22    0ac0f a70f      9.600 "
test,1583577298554373888,49," | 49  |   8302       5   8292       0 |   5    0      8132       160 |   3  56    0    0 8d0f |    2.746       0       5       0       5     56     56      0   8073     219       2  56    08d0f a70f      8.940 "
test,1583577298550700032,51," | 51  |   8302       5   8293       0 |   5    0      8197        96 |   1  56    0    0 8d0f |    2.014       0       5       0       5     56     56      0   8169     124       1  56    08d0f a70f      8.250 "
test,1583577298572422912,52," | 52  |   8302       5   8261      33 |   5    7      7881       413 |   1  16   22    0 610f |    2.044       0       3       0       3     16     16      0   7740     554       1  16    0610f a70f     30.360 "
test,1583577298556097024,53," | 53  |   8302       5   8276       0 |   5    0      7869       407 |   4  56    0    0 8d0f |    3.448       0       5       0       5     56     56      0   7784     492       3  56    08d0f a70f      9.660 "
test,1583577298553551872,54," | 54  |   8302       5   8294       0 |   5    0      8152       142 |   2  56    0    0 8d0f |    2.746       0       5       0       5     56     56      0   8013     281       2  56    08d0f a70f      8.970 "
test,1583577298552849920,55," | 55  |   8302       5   8281       0 |   5    0      7970       311 |   3  56    0    0 8d0f |    2.777       0       5       0       5     56     56      0   7899     382       2  56    08d0f a70f      8.820 "
test,1583577298551887872,56," | 56  |   8302       5   8284       0 |   5    0      8159       125 |   2  56    0    1 8d0f |    1.739       0       4       0       4     56     56      0   8059     225       2  56    18d0f a70f      6.480 "
test,1583577298570563072,57," | 57  |   8302       5   8239       0 |   2   13      8019       220 |   1  22   60    0 ac0f |    0           0       0       0       8      0      0      0   7515     724       0  22    0ac0f a70f     30.390 "
test,1583577298554980096,58," | 58  |   8302       5   8293       0 |   5    0      8180       113 |   2  56    0    0 8d0f |    2.014       0       5       0       5     56     56      0   7846     447       1  56    08d0f a70f      8.190 "
test,1583577298552129024,5," |  5  |   8302       5   8300       0 |   5    0      7542       758 |   3  56    0    0 8d0f |    2.746       0       5       0       5     56     56      0   7401     899       2  56    08d0f a70f      8.940 "
test,1583577298571261952,60," | 60  |   8302       5   8293       0 |   0    7      7750       543 |   0  60   22    1 9a0f |    0           0       0       0       8      0      0      0   7586     707       0  60    19a0f a70f     30.240 "
test,1583577298563961088,61," | 61  |   8302       5   8285       7 |   4    1      7919       373 |   3  56   22    0 8d0f |    2.014       0       5       0       5     56     56      0   7636     656       1  56    08d0f a70f      8.970 "
test,1583577298553062912,7," |  7  |   8302       5   8299       0 |   5    0      8178       121 |   2  56    0    0 8d0f |    2.746       0       5       0       5     56     56      0   8120     179       2  56    08d0f a70f      9.000 "
test,1583577298551424000,9," |  9  |   8302       5   8298       0 |   5    0      8028       270 |   2  56    0    0 8d0f |    2.746       0       5       0       5     56     56      0   7986     312       2  56    08d0f a70f      8.880 "
