test,1583575428511940864,10," | 10  |    822       5    794       0 |   5    1       784        10 |   1   9   15    0 3e0f |    2.044       0       5       0       5      9      9      0    772      22       1   9    03e0f a70f      8.100 "
test,1583575428531707904,12," | 12  |    822       5    820       0 |   1   13       814         6 |   1  15    7    0 800f |   13.488       0       1       0       1     15     15      0    800      20      17  15    0800f a70f     30.390 "
test,1583575428538744832,13," | 13  |    822       5    818       0 |   2   14       810         8 |   1  15    7    0 800f |   12.084       0       4       0       4     15     15      0    799      19      15  15    0800f a70f     30.240 "
test,1583575428533394944,15," | 15  |    822       5    820       0 |   2    2       790        30 |   2  15   19    1 800f |   12.481       0       3       0       3     15     15      0    761      59      17  15    1800f a70f     30.240 "
test,1583575428514772992,16," | 16  |    822       5    818       0 |   5    0       788        30 |   2  19    0    0  20f |    2.746       0       5       0       5     19     19      0    769      49       2  19    0 20f a70f      9.690 "
test,1583575428533152000,17," | 17  |    822       5    818       0 |   5    0       808        10 |   1  19    0    0  20f |    2.746       0       4       0       4     19     19      0    785      33       2  19    0 20f a70f     30.390 "
test,1583575428511584000,18," | 18  |    822       5    817       0 |   5    0       762        55 |   1  19    0    0  20f |    2.075       0       5       0       5     19     19      0    726      91       1  19    0 20f a70f      8.220 "
test,1583575428511763968,19," | 19  |    822       5    817       1 |   4    0       810         8 |   4  19    0    1  20f |    1.739       0       4       0       4     19     19      0    786      32       2  19    1 20f a70f      7.200 "
test,1583575428518052096,1," |  1  |    822       4    819       0 |   5    1       804        15 |   1   9   15    0 3e0f |    2.716       0       5       0       5      9      9      0    797      22       1   9    03e0f a70f      8.940 "
test,1583575428514067968,22," | 22  |    822       5    816       0 |   3    0       807         9 |  11  19    0    0  20f |    2.746       0       5       0       5     19     19      0    766      50       2  19    0 20f a70f      8.970 "
test,1583575428513427968,23," | 23  |    822       5    760       0 |   5    0       756         4 |   1  19    0    0  20f |    2.807       0       5       0       5     19     19      0    742      18       2  19    0 20f a70f      8.880 "
test,1583575428513231872,24," | 24  |    822       5    818       0 |   5    0       813         5 |   1  19    0    0  20f |    2.746       0       5       0       5     19     19      0    794      24       2  19    0 20f a70f      8.880 "
test,1583575428515106048,26," | 26  |    822       5    818       0 |   5    0       815         3 |   1  19    0    0  20f |    2.044       0       5       0       5     19     19      0    799      19       1  19    0 20f a70f      8.970 "
test,1583575428512551936,27," | 27  |    822       5    820       0 |   5    0       802        18 |   1  19    0    0  20f |    2.014       0       5       0       5     19     19      0    767      53       1  19    0 20f a70f      8.970 "
test,1583575428533698048,28," | 28  |    822       5    818       0 |   5    0       750        68 |   1  30    0    0 5a0f |    2.044       0       4       0       4     30     30      0    728      90       1  30    05a0f a70f     30.360 "
test,1583575428534509056,29," | 29  |    822       5    817       3 |   2    0       722        98 |   1  19    0    0  20f |    2.075       0       4       0       4     19     19      0    681     139       1  19    0 20f a70f     30.270 "
test,1583575428511121920,30," | 30  |    822       5    818       0 |   4    0       809         9 |   2  30    0    1 5a0f |    1.739       0       4       0       4     30     30      0    787      31       2  30    15a0f a70f      6.510 "
test,1583575428512190976,35," | 35  |    822       5    818       0 |   5    0       782        36 |   1  30    0    0 5a0f |    2.014       0       5       0       5     30     30      0    768      50       1  30    05a0f a70f      8.250 "
test,1583575428516804864,40," | 40  |    822       5    788      26 |   5    0       745        69 |   2  19    0    0  20f |    3.509       0       5       0       5     19     19      0    716      98       3  19    0 20f a70f     10.320 "
test,1583575428526825984,41," | 41  |    822       5    783      25 |   5    0       797        11 |   7  19    0    0  20f |    3.509       0       5       0       5     19     19      0    776      32       3  19    0 20f a70f     10.320 "
test,1583575428514266880,42," | 42  |    822       5    790      28 |   5    0       784        34 |   2  19    0    0  20f |    3.448       0       5       0       5     19     19      0    764      54       3  19    0 20f a70f      9.660 "
test,1583575428519126016,44," | 44  |    822       5    795      23 |   5    0       791        27 |   2  19    0    0  20f |    2.777       0       5       0       5     19     19      0    768      50       2  19    0 20f a70f      8.970 "
test,1583575428515535104,45," | 45  |    822       5    799      19 |   5    0       778        40 |   3  19    0    0  20f |    3.448       0       5       0       5     19     19      0    757      61       3  19    0 20f a70f      9.630 "
test,1583575428530438912,46," | 46  |    822       5    787      24 |   0   10       775        36 |   0  46   19    1 140f |    0           0       0       0       8      0      0      0    757      54       0  46    1140f a70f     30.180 "
test,1583575428516526848,47," | 47  |    822       5    793      25 |   5    0       781        37 |   2  19    0    0  20f |    2.746       0       5       0       5     19     19      0    765      53       2  19    0 20f a70f      9.690 "
test,1583575428517107968,48," | 48  |    822       5    729      22 |   5    0       723        28 |   7  19    0    0  20f |    3.509       0       5       0       5     19     19      0    700      51       3  19    0 20f a70f      9.630 "
test,1583575428514507008,49," | 49  |    822       5    812       0 |   5    0       800        12 |   3   9    0    0 3e0f |    3.540       0       5       0       5      9      9      0    794      18       3   9    03e0f a70f      9.690 "
test,1583575428526253824,51," | 51  |    822       5    813       0 |   5    0       807         6 |   2  15    0    0 800f |   11.291       0       5       0       5     15     15      0    806       7      14  15    0800f a70f     18.780 "
test,1583575428518685952,52," | 52  |    822       5    807       7 |   5    0       775        39 |   1  19    0    0  20f |    2.746       0       5       0       5     19     19      0    757      57       2  19    0 20f a70f      9.480 "
test,1583575428518187008,53," | 53  |    822       5    796       0 |   5    0       756        40 |   4   9    0    0 3e0f |    4.211       0       5       0       5      9      9      0    750      46       4   9    03e0f a70f     10.290 "
test,1583575428512370176,54," | 54  |    822       5    814       0 |   5    0       803        11 |   1   9    0    0 3e0f |    2.044       0       5       0       5      9      9      0    784      30       1   9    03e0f a70f      9.000 "
test,1583575428517255168,55," | 55  |    822       5    801       0 |   5    0       766        35 |   3   9    0    0 3e0f |    3.509       0       5       0       5      9      9      0    764      37       3   9    03e0f a70f      9.570 "
test,1583575428527947008,56," | 56  |    822       5    804       0 |   5    0       787        17 |   3  15    0    0 800f |   11.352       0       5       0       5     15     15      0    781      23      14  15    0800f a70f     19.410 "
test,1583575428519643904,57," | 57  |    822       5    759       0 |   4    1       731        28 |   8  19   15    0  20f |    2.807       0       5       0       5     19     19      0    688      71       2  19    0 20f a70f      9.630 "
test,1583575428513891072,58," | 58  |    822       5    813       0 |   5    0       803        10 |   2   9    0    0 3e0f |    2.777       0       5       0       5      9      9      0    781      32       2   9    03e0f a70f      9.690 "
test,1583575428519820032,5," |  5  |    822       5    820       0 |   2    0       756        64 |   1  15    0    0 800f |    2.075       0       5       0       5     15     15      0    739      81       1  15    0800f a70f     15.960 "
test,1583575428524451072,60," | 60  |    822       5    813       0 |   5    0       764        49 |   3  15    0    0 800f |    6.286       0       5       0       5     15     15      0    755      58       7  15    0800f a70f     16.650 "
test,1583575428517661184,61," | 61  |    822       5    812       0 |   5    0       781        31 |   2   9    0    0 3e0f |    2.777       0       5       0       5      9      9      0    761      51       2   9    03e0f a70f      9.690 "
test,1583575428537390848,7," |  7  |    822       5    819       0 |   0   10       804        15 |   0   7    9    1 600f |    0           0       0       0       8      0      0      0    800      19       0   7    1600f a70f     30.270 "
test,1583575428511318016,9," |  9  |    822       5    818       0 |   4    0       785        33 |   4   9    0    1 3e0f |    1.770       0       4       0       4      9      9      0    780      38       2   9    13e0f a70f      6.510 "
