test,1583577378805663232,10," | 10  |   8623       5   8595       0 |   5    0      8464       131 |   1   7    0    0 390f |    2.075       0       5       0       5      7      7      0   8373     222       1   7    0390f a70f      8.910 "
test,1583577378801467904,12," | 12  |   8623       5   8587      34 |   5    0      8533        88 |   1   7    0    0 390f |    2.014       0       5       0       5      7      7      0   8388     233       1   7    0390f a70f      8.250 "
test,1583577378803772928,13," | 13  |   8623       5   8619       0 |   5    0      8550        69 |   1   7    0    0 390f |    2.044       0       5       0       5      7      7      0   8467     152       1   7    0390f a70f      8.160 "
test,1583577378819013120,15," | 15  |   8623       5   8578      43 |   5    0      8258       363 |   2   7    0    0 390f |    2.746       0       5       0       5      7      7      0   7872     749       2   7    0390f a70f      9.000 "
test,1583577378805280000,16," | 16  |   8623       5   8619       0 |   2    0      8277       342 |   4  19    0    0 d20f |    2.777       0       5       0       5     19     19      0   8060     559       2  19    0d20f a70f      8.880 "
test,1583577378813692160,17," | 17  |   8623       5   8608      11 |   5    0      8503       116 |   1  19    0    0 d20f |    2.044       0       5       0       5     19     19      0   8256     363       1  19    0d20f a70f      9.030 "
test,1583577378803528960,18," | 18  |   8623       5   8618       0 |   5    0      8144       474 |   2  19    0    0 d20f |    2.746       0       5       0       5     19     19      0   7826     792       2  19    0d20f a70f      8.940 "
test,1583577378808242176,19," | 19  |   8623       5   8602      17 |   4    0      8450       169 |   2  19    0    1 d20f |    3.936       0       4       0       4     19     19      0   8217     402       5  19    1d20f a70f     10.080 "
test,1583577378801259008,1," |  1  |   8623       4   8620       0 |   5    0      8386       234 |   1   7    0    0 390f |    2.716       0       5       0       5      7      7      0   8331     289       1   7    0390f a70f      8.940 "
test,1583577378807065856,22," | 22  |   8623       5   8617       0 |   5    0      8545        72 |   2  19    0    0 d20f |    2.746       0       5       0       5     19     19      0   8182     435       2  19    0d20f a70f      8.970 "
test,1583577378802333184,23," | 23  |   8623       5   8561       0 |   5    0      8524        37 |   1  19    0    0 d20f |    2.044       0       5       0       5     19     19      0   8364     197       1  19    0d20f a70f      8.130 "
test,1583577378804342016,24," | 24  |   8623       5   8617       2 |   5    0      8509       110 |   1  19    0    0 d20f |    2.777       0       5       0       5     19     19      0   8296     323       2  19    0d20f a70f      9.000 "
test,1583577378803340032,26," | 26  |   8623       5   8617       2 |   5    0      8586        33 |   1  19    0    0 d20f |    2.075       0       5       0       5     19     19      0   8434     185       1  19    0d20f a70f      8.220 "
test,1583577378807812096,27," | 27  |   8623       5   8621       0 |   4    0      8369       252 |   1  19    0    0 d20f |    2.044       0       5       0       5     19     19      0   8040     581       1  19    0d20f a70f      9.000 "
test,1583577378824752128,28," | 28  |   8623       4   8611       8 |   2    8      7935       684 |   2  19   30    0 d20f |    4.241       0       2       0       2     19     19      0   7599    1020       4  19    0d20f a70f     30.360 "
test,1583577378809101056,29," | 29  |   8623       4   8606      15 |   3    0      7635       986 |   1  19    0    0 d20f |    2.777       0       5       0       5     19     19      0   7267    1354       2  19    0d20f a70f     11.820 "
test,1583577378803153920,30," | 30  |   8623       5   8615       4 |   5    0      8502       117 |   2  30    0    1 680f |    1.739       0       4       0       4     30     30      0   8193     426       2  30    1680f a70f      6.510 "
test,1583577378804796928,35," | 35  |   8623       5   8615       4 |   5    0      8211       408 |   1  30    0    0 680f |    1.983       0       5       0       5     30     30      0   8025     594       1  30    0680f a70f      8.220 "
test,1583577378824541952,40," | 40  |   8623       5   8540      75 |   2    2      8120       495 |   2  41   19    0  60f |    2.746       0       4       0       4     41     41      0   7914     701       2  41    0 60f a70f     30.300 "
test,1583577378802955008,41," | 41  |   8623       5   8549      60 |   1    2      8527        82 |   3  41   19    1  60f |    1.770       0       4       0       4     41     41      0   8334     275       2  41    1 60f a70f      6.510 "
test,1583577378805111040,42," | 42  |   8623       5   8552      67 |   2    5      8465       154 |   1  41   19    0  60f |    1.983       0       5       0       5     41     41      0   8289     330       1  41    0 60f a70f      8.220 "
test,1583577378806374144,44," | 44  |   8623       5   8561      58 |   1    5      8466       153 |   1  41   19    0  60f |    2.014       0       5       0       5     41     41      0   8301     318       1  41    0 60f a70f      8.070 "
test,1583577378811981056,45," | 45  |   8623       5   8575      44 |   2    0      8358       261 |   1  41    0    0  60f |    2.014       0       5       0       5     41     41      0   8208     411       1  41    0 60f a70f      8.250 "
test,1583577378804937984,46," | 46  |   8623       5   8554      58 |   2    0      8197       415 |   1  41    0    0  60f |    2.014       0       5       0       5     41     41      0   8067     545       1  41    0 60f a70f      8.070 "
test,1583577378802757888,47," | 47  |   8623       5   8561      58 |   2    0      8357       262 |   1  41    0    0  60f |    2.044       0       5       0       5     41     41      0   8211     408       1  41    0 60f a70f      8.100 "
test,1583577378805480960,48," | 48  |   8623       5   8497      55 |   2    5      8382       170 |   1  41   19    0  60f |    1.983       0       5       0       5     41     41      0   8222     330       1  41    0 60f a70f      8.250 "
test,1583577378796881920,49," | 49  |   8623       5   8613       0 |   5    0      8447       166 |   2  49    0    1  40f |    1.739       0       4       0       4     49     49      0   8387     226       2  49    1 40f a70f      6.480 "
test,1583577378805999872,51," | 51  |   8623       5   8614       0 |   5    0      8516        98 |   1   7    0    0 390f |    2.044       0       5       0       5      7      7      0   8488     126       1   7    0390f a70f      8.910 "
test,1583577378809742848,52," | 52  |   8623       5   8582      33 |   5    0      8184       431 |   1  19    0    0 d20f |    2.075       0       5       0       5     19     19      0   8041     574       1  19    0d20f a70f     10.290 "
test,1583577378808876032,53," | 53  |   8623       5   8597       0 |   5    0      8173       424 |   1  49    0    0  40f |    2.044       0       5       0       5     49     49      0   8086     511       1  49    0 40f a70f      8.190 "
test,1583577378802130944,54," | 54  |   8623       5   8615       0 |   5    0      8471       144 |   1   7    0    0 390f |    2.014       0       5       0       5      7      7      0   8330     285       1   7    0390f a70f      8.250 "
test,1583577378797091840,55," | 55  |   8623       5   8602       0 |   5    0      8284       318 |   1  49    0    0  40f |    2.044       0       5       0       5     49     49      0   8210     392       1  49    0 40f a70f      8.250 "
test,1583577378807485952,56," | 56  |   8623       5   8605       0 |   5    0      8477       128 |   2   7    0    0 390f |    2.777       0       5       0       5      7      7      0   8374     231       2   7    0390f a70f      9.570 "
test,1583577378823610112,57," | 57  |   8623       5   8560       0 |   4    1      8331       229 |   2  19    7    0 d20f |    2.807       0       4       0       4     19     19      0   7808     752       2  19    0d20f a70f     30.330 "
test,1583577378823899904,58," | 58  |   8623       5   8614       0 |   1    6      8498       116 |   2   7   49    0 390f |    9.368       0       1       0       1      7      7      0   8155     459      11   7    0390f a70f     30.390 "
test,1583577378810211840,5," |  5  |   8623       5   8621       0 |   5    0      7833       788 |   2   7    0    0 390f |    2.807       0       5       0       5      7      7      0   7691     930       2   7    0390f a70f      8.880 "
test,1583577378811553024,60," | 60  |   8623       5   8614       0 |   2    0      8050       564 |   2   7    0    0 390f |    2.777       0       5       0       5      7      7      0   7878     736       2   7    0390f a70f      9.600 "
test,1583577378804108032,61," | 61  |   8623       5   8606       7 |   5    0      8224       389 |   2   7    0    0 390f |    2.746       0       5       0       5      7      7      0   7931     682       2   7    0390f a70f      8.970 "
test,1583577378801662976,7," |  7  |   8623       5   8620       0 |   4    0      8496       124 |   2   7    0    1 390f |    1.739       0       4       0       4      7      7      0   8436     184       2   7    1390f a70f      7.200 "
test,1583577378808695040,9," |  9  |   8623       5   8619       0 |   5    0      8341       278 |   1   7    0    0 390f |    2.044       0       5       0       5      7      7      0   8299     320       1   7    0390f a70f      8.310 "
