test,1583577379304550912,10," | 10  |   8625       5   8597       0 |   4    0      8466       131 |   4  10    0    1 e60f |    1.739       0       4       0       4     10     10      0   8375     222       2  10    1e60f a70f      6.510 "
test,1583577379306998016,12," | 12  |   8625       5   8589      34 |   5    0      8535        88 |   1  10    0    0 e60f |    2.777       0       5       0       5     10     10      0   8390     233       2  10    0e60f a70f      8.910 "
test,1583577379301755904,13," | 13  |   8625       5   8621       0 |   5    0      8552        69 |   1  10    0    0 e60f |    2.075       0       5       0       5     10     10      0   8469     152       1  10    0e60f a70f      8.220 "
test,1583577379307572992,15," | 15  |   8625       5   8580      43 |   5    0      8260       363 |   2  10    0    0 e60f |    3.540       0       5       0       5     10     10      0   7874     749       3  10    0e60f a70f      9.690 "
test,1583577379305571072,16," | 16  |   8625       5   8621       0 |   5    0      8279       342 |   3  48    0    0 470f |    2.807       0       5       0       5     48     48      0   8062     559       2  48    0470f a70f      9.750 "
test,1583577379311224832,17," | 17  |   8625       5   8610      11 |   5    0      8505       116 |   2  48    0    0 470f |    3.540       0       5       0       5     48     48      0   8258     363       3  48    0470f a70f     10.320 "
test,1583577379306786048,18," | 18  |   8625       5   8620       0 |   5    0      8146       474 |   2  48    0    0 470f |    2.777       0       5       0       5     48     48      0   7828     792       2  48    0470f a70f      9.000 "
test,1583577379310416896,19," | 19  |   8625       5   8604      17 |   4    3      8452       169 |   3  48   27    0 470f |    3.540       0       5       0       5     48     48      0   8219     402       3  48    0470f a70f     10.470 "
test,1583577379303468032,1," |  1  |   8625       4   8622       0 |   5    0      8388       234 |   1  10    0    0 e60f |    2.746       0       5       0       5     10     10      0   8333     289       1  10    0e60f a70f      8.910 "
test,1583577379304729088,22," | 22  |   8625       5   8619       0 |   5    0      8547        72 |   1  48    0    0 470f |    2.075       0       5       0       5     48     48      0   8184     435       1  48    0470f a70f      8.310 "
test,1583577379303139072,23," | 23  |   8625       5   8563       0 |   5    0      8526        37 |   2  48    0    0 470f |    2.807       0       5       0       5     48     48      0   8366     197       2  48    0470f a70f      9.030 "
test,1583577379306585088,24," | 24  |   8625       5   8619       2 |   5    0      8511       110 |   2  48    0    0 470f |    3.509       0       5       0       5     48     48      0   8298     323       3  48    0470f a70f      9.510 "
test,1583577379303826176,26," | 26  |   8625       5   8619       2 |   5    0      8588        33 |   2  48    0    0 470f |    2.807       0       5       0       5     48     48      0   8436     185       2  48    0470f a70f     10.470 "
test,1583577379325815808,27," | 27  |   8625       5   8623       0 |   1    6      8371       252 |   5  27   48    1 340f |    1.770       0       1       0       1     27     27      0   8042     581       2  27    1340f a70f     30.300 "
test,1583577379308480000,28," | 28  |   8625       5   8613       8 |   5    0      7937       684 |   2  48    0    0 470f |    3.509       0       5       0       5     48     48      0   7601    1020       3  48    0470f a70f     10.290 "
test,1583577379326037760,29," | 29  |   8625       5   8608      15 |   3    2      7637       986 |   1  27   48    0 340f |    2.014       0       2       0       2     27     27      0   7268    1355       1  27    0340f a70f     30.390 "
test,1583577379304130048,30," | 30  |   8625       5   8617       4 |   5    0      8504       117 |   2  48    0    0 470f |    2.807       0       5       0       5     48     48      0   8195     426       2  48    0470f a70f      9.750 "
test,1583577379303284992,35," | 35  |   8625       5   8617       4 |   5    0      8213       408 |   2  48    0    0 470f |    2.746       0       5       0       5     48     48      0   8027     594       2  48    0470f a70f      8.940 "
test,1583577379308643072,40," | 40  |   8625       4   8542      75 |   5    0      8122       495 |   1  48    0    0 470f |    2.075       0       5       0       5     48     48      0   7916     701       1  48    0470f a70f      8.250 "
test,1583577379312338176,41," | 41  |   8625       5   8551      60 |   5    0      8529        82 |   1  48    0    0 470f |    2.075       0       5       0       5     48     48      0   8336     275       1  48    0470f a70f      9.750 "
test,1583577379310228224,42," | 42  |   8625       5   8554      67 |   5    0      8467       154 |   1  48    0    0 470f |    2.044       0       5       0       5     48     48      0   8291     330       1  48    0470f a70f     10.440 "
test,1583577379304872960,44," | 44  |   8625       5   8563      58 |   5    0      8468       153 |   1  48    0    0 470f |    2.075       0       5       0       5     48     48      0   8303     318       1  48    0470f a70f      9.570 "
test,1583577379310024960,45," | 45  |   8625       5   8577      44 |   5    0      8360       261 |   1  48    0    0 470f |    2.044       0       5       0       5     48     48      0   8210     411       1  48    0470f a70f     10.470 "
test,1583577379306211072,46," | 46  |   8625       5   8556      58 |   5    0      8199       415 |   1  48    0    0 470f |    2.044       0       5       0       5     48     48      0   8069     545       1  48    0470f a70f     10.350 "
test,1583577379302962176,47," | 47  |   8625       5   8563      58 |   5    0      8359       262 |   1  48    0    0 470f |    2.075       0       5       0       5     48     48      0   8213     408       1  48    0470f a70f      8.130 "
test,1583577379302632192,48," | 48  |   8625       5   8499      55 |   4    0      8384       170 |   7  48    0    1 470f |    1.739       0       4       0       4     48     48      0   8224     330       2  48    1470f a70f      6.510 "
test,1583577379304326912,49," | 49  |   8625       5   8615       0 |   5    0      8449       166 |   4  10    0    0 e60f |    3.479       0       5       0       5     10     10      0   8389     226       3  10    0e60f a70f      9.660 "
test,1583577379302146048,51," | 51  |   8625       5   8616       0 |   5    0      8518        98 |   1  10    0    0 e60f |    2.044       0       5       0       5     10     10      0   8490     126       1  10    0e60f a70f      8.130 "
test,1583577379309125888,52," | 52  |   8625       5   8584      33 |   5    0      8186       431 |   3  48    0    0 470f |    3.540       0       5       0       5     48     48      0   8043     574       3  48    0470f a70f      9.750 "
test,1583577379307374080,53," | 53  |   8625       5   8599       0 |   5    0      8175       424 |   5  10    0    0 e60f |    4.211       0       5       0       5     10     10      0   8088     511       4  10    0e60f a70f     10.260 "
test,1583577379305972224,54," | 54  |   8625       5   8617       0 |   5    0      8473       144 |   1  10    0    0 e60f |    2.014       0       5       0       5     10     10      0   8332     285       1  10    0e60f a70f      8.280 "
test,1583577379308300032,55," | 55  |   8625       5   8604       0 |   5    0      8286       318 |   4  10    0    0 e60f |    3.540       0       5       0       5     10     10      0   8212     392       3  10    0e60f a70f      9.570 "
test,1583577379302349056,56," | 56  |   8625       5   8607       0 |   5    0      8479       128 |   1  10    0    0 e60f |    2.075       0       5       0       5     10     10      0   8376     231       1  10    0e60f a70f      8.280 "
test,1583577379307841024,57," | 57  |   8625       5   8562       0 |   5    1      8333       229 |   2  10   48    0 e60f |    2.807       0       5       0       5     10     10      0   7810     752       2  10    0e60f a70f      9.030 "
test,1583577379324877056,58," | 58  |   8625       5   8616       0 |   5    0      8500       116 |   3  10    0    0 e60f |    2.777       0       4       0       4     10     10      0   8157     459       2  10    0e60f a70f     30.210 "
test,1583577379307992832,5," |  5  |   8625       5   8623       0 |   4    0      7834       789 |   2  10    0    0 e60f |    2.777       0       5       0       5     10     10      0   7692     931       2  10    0e60f a70f      8.970 "
test,1583577379305051136,60," | 60  |   8625       5   8616       0 |   5    0      8052       564 |   2  10    0    0 e60f |    2.807       0       5       0       5     10     10      0   7880     736       2  10    0e60f a70f      9.000 "
test,1583577379324045056,61," | 61  |   8625       5   8608       7 |   5    0      8226       389 |   2  10    0    0 e60f |    2.746       0       4       0       4     10     10      0   7933     682       2  10    0e60f a70f     30.390 "
test,1583577379305234944,7," |  7  |   8625       5   8622       0 |   5    0      8498       124 |   1  10    0    0 e60f |    2.075       0       5       0       5     10     10      0   8438     184       1  10    0e60f a70f      8.160 "
test,1583577379301963008,9," |  9  |   8625       5   8621       0 |   5    0      8343       278 |   1  10    0    0 e60f |    2.044       0       5       0       5     10     10      0   8301     320       1  10    0e60f a70f      8.160 "
