test,1583577238302263040,10," | 10  |   8061       5   8033       0 |   5    0      7908       125 |   3  23    0    0 8c0f |    3.540       0       5       0       5     23     23      0   7821     212       3  23    08c0f a70f     10.470 "
test,1583577238320617984,12," | 12  |   8061       5   8025      34 |   1   13      7977        82 |   1  15    5    0 700f |    1.983       0       3       0       3     15     15      0   7837     222       1  15    0700f a70f     30.390 "
test,1583577238303930880,13," | 13  |   8061       5   8057       0 |   5    0      7995        62 |   4  23    0    0 8c0f |    3.479       0       5       0       5     23     23      0   7914     143       3  23    08c0f a70f      9.690 "
test,1583577238320174848,15," | 15  |   8061       5   8016      43 |   1    0      7730       329 |   2  15    0    1 700f |    1.739       0       3       0       3     15     15      0   7363     696       2  15    1700f a70f     30.300 "
test,1583577238300528128,16," | 16  |   8061       5   8057       0 |   5    0      7754       303 |   1  23    0    0 8c0f |    2.044       0       5       0       5     23     23      0   7551     506       1  23    08c0f a70f      8.910 "
test,1583577238301126912,17," | 17  |   8061       5   8046      11 |   5    0      7950       107 |   2  23    0    0 8c0f |    2.014       0       5       0       5     23     23      0   7712     345       1  23    08c0f a70f      8.850 "
test,1583577238302438912,18," | 18  |   8061       5   8056       0 |   5    0      7616       440 |   2  23    0    0 8c0f |    2.746       0       5       0       5     23     23      0   7312     744       2  23    08c0f a70f      8.940 "
test,1583577238324606976,19," | 19  |   8061       5   8042      15 |   4    4      7900       157 |   3  23   29    0 8c0f |    2.014       0       4       0       4     23     23      0   7684     373       1  23    08c0f a70f     30.300 "
test,1583577238308666880,1," |  1  |   8061       4   8058       0 |   5    0      7847       211 |   4  23    0    0 8c0f |    4.180       0       5       0       5     23     23      0   7794     264       3  23    08c0f a70f     10.350 "
test,1583577238300126976,22," | 22  |   8061       5   8055       0 |   5    0      7988        67 |   1  23    0    0 8c0f |    2.044       0       5       0       5     23     23      0   7640     415       1  23    08c0f a70f      8.970 "
test,1583577238298525184,23," | 23  |   8061       5   7999       0 |   4    0      7963        36 |   3  23    0    1 8c0f |    1.739       0       4       0       4     23     23      0   7812     187       2  23    18c0f a70f      7.230 "
test,1583577238299942912,24," | 24  |   8061       5   8055       2 |   5    0      7963        94 |   2  23    0    0 8c0f |    2.746       0       5       0       5     23     23      0   7763     294       2  23    08c0f a70f      8.790 "
test,1583577238298166016,26," | 26  |   8061       5   8055       2 |   5    0      8025        32 |   2  23    0    0 8c0f |    2.014       0       5       0       5     23     23      0   7880     177       1  23    08c0f a70f      8.250 "
test,1583577238305620992,27," | 27  |   8061       5   8059       0 |   5    0      7822       237 |   1  23    0    0 8c0f |    2.044       0       5       0       5     23     23      0   7510     549       1  23    08c0f a70f      8.910 "
test,1583577238319266048,28," | 28  |   8061       5   8049       8 |   3    9      7421       636 |   3  23   30    0 8c0f |    0           0       0       0       8      0      0      0   7099     958       0  23    08c0f a70f     30.390 "
test,1583577238320832000,29," | 29  |   8061       5   8046      13 |   0    2      7136       923 |   0  29   23    1 8c0f |    0           0       0       2       2      0     29      0   6787    1272       8  29    18c0f a70f     30.270 "
test,1583577238298352128,30," | 30  |   8061       5   8054       3 |   4    3      7946       111 |   5  30   23    1 360f |    1.739       0       4       0       4     30     30      0   7648     409       2  30    1360f a70f      6.480 "
test,1583577238300320000,35," | 35  |   8061       5   8054       3 |   5    4      7671       386 |   1  30   23    0 360f |    1.983       0       5       0       5     30     30      0   7489     568       1  30    0360f a70f      8.220 "
test,1583577238303675904,40," | 40  |   8061       5   7979      74 |   4    0      7596       457 |   3  23    0    0 8c0f |    3.509       0       5       0       5     23     23      0   7400     653       3  23    08c0f a70f      9.720 "
test,1583577238307826944,41," | 41  |   8061       5   7988      59 |   5    0      7972        75 |   2  23    0    0 8c0f |    3.509       0       5       0       5     23     23      0   7789     258       3  23    08c0f a70f      9.540 "
test,1583577238309447936,42," | 42  |   8061       5   7995      62 |   5    0      7912       145 |   2  23    0    0 8c0f |    2.777       0       5       0       5     23     23      0   7746     311       2  23    08c0f a70f      9.750 "
test,1583577238306963968,44," | 44  |   8061       5   8000      57 |   5    0      7910       147 |   3  23    0    0 8c0f |    2.746       0       5       0       5     23     23      0   7753     304       2  23    08c0f a70f      8.820 "
test,1583577238304395008,45," | 45  |   8061       5   8014      43 |   5    0      7811       246 |   2  23    0    0 8c0f |    2.777       0       5       0       5     23     23      0   7673     384       2  23    08c0f a70f      9.000 "
test,1583577238306024192,46," | 46  |   8061       5   7993      57 |   5    0      7665       385 |   3  23    0    0 8c0f |    3.509       0       5       0       5     23     23      0   7542     508       3  23    08c0f a70f     10.290 "
test,1583577238305097216,47," | 47  |   8061       5   8000      57 |   5    0      7807       250 |   2  23    0    0 8c0f |    3.509       0       5       0       5     23     23      0   7669     388       3  23    08c0f a70f      9.690 "
test,1583577238317310976,48," | 48  |   8061       5   7935      55 |   5    0      7828       162 |   2  23    0    0 8c0f |    2.777       0       5       0       5     23     23      0   7678     312       2  23    08c0f a70f      8.910 "
test,1583577238303217920,49," | 49  |   8061       5   8051       0 |   5    0      7896       155 |   3  23    0    0 8c0f |    3.540       0       5       0       5     23     23      0   7837     214       3  23    08c0f a70f     10.410 "
test,1583577238299515136,51," | 51  |   8061       5   8052       0 |   5    0      7962        90 |   2  23    0    0 8c0f |    2.777       0       5       0       5     23     23      0   7934     118       2  23    08c0f a70f      9.000 "
test,1583577238321276928,52," | 52  |   8061       4   8022      31 |   5    0      7654       399 |   1  23    0    0 8c0f |    2.044       0       4       0       4     23     23      0   7516     537       1  23    08c0f a70f     30.360 "
test,1583577238303021056,53," | 53  |   8061       5   8035       0 |   5    0      7633       402 |   4  23    0    0 8c0f |    3.479       0       5       0       5     23     23      0   7549     486       3  23    08c0f a70f     11.160 "
test,1583577238306248960,54," | 54  |   8061       5   8053       0 |   5    0      7918       135 |   3  23    0    0 8c0f |    3.509       0       5       0       5     23     23      0   7784     269       3  23    08c0f a70f      9.570 "
test,1583577238305826816,55," | 55  |   8061       5   8040       0 |   5    0      7738       302 |   3  23    0    0 8c0f |    3.479       0       5       0       5     23     23      0   7667     373       3  23    08c0f a70f     10.320 "
test,1583577238302614016,56," | 56  |   8061       5   8043       0 |   5    0      7923       120 |   2  23    0    0 8c0f |    2.777       0       5       0       5     23     23      0   7825     218       2  23    08c0f a70f      8.910 "
test,1583577238301935872,57," | 57  |   8061       5   7998       0 |   5    0      7786       212 |   1  23    0    0 8c0f |    2.044       0       5       0       5     23     23      0   7299     699       1  23    08c0f a70f      8.130 "
test,1583577238301386240,58," | 58  |   8061       5   8052       0 |   5    0      7942       110 |   2  23    0    0 8c0f |    2.746       0       5       0       5     23     23      0   7614     438       2  23    08c0f a70f      9.690 "
test,1583577238316654848,5," |  5  |   8061       5   8059       0 |   0    4      7319       740 |   0   5   23    1 e20f |    0           0       0       0       8      0      0      0   7183     876       0   5    1e20f a70f     30.150 "
test,1583577238303409152,60," | 60  |   8061       5   8052       0 |   5    0      7525       527 |   2  23    0    0 8c0f |    2.807       0       5       0       5     23     23      0   7363     689       2  23    08c0f a70f      9.570 "
test,1583577238322721024,61," | 61  |   8061       5   8044       7 |   5    0      7685       366 |   2  23    0    0 8c0f |    2.746       0       4       0       4     23     23      0   7413     638       2  23    08c0f a70f     30.360 "
test,1583577238301608192,7," |  7  |   8061       5   8058       0 |   5    0      7937       121 |   4  23    0    0 8c0f |    3.479       0       5       0       5     23     23      0   7881     177       3  23    08c0f a70f      9.720 "
test,1583577238309114880,9," |  9  |   8061       5   8057       0 |   5    0      7795       262 |   5  23    0    0 8c0f |    4.241       0       5       0       5     23     23      0   7755     302       4  23    08c0f a70f     10.350 "
