test,1583577327305095936,10," | 10  |   8417       5   8389       0 |   4    2      8260       129 |   1   9   48    0 690f |    2.075       0       5       0       5      9      9      0   8170     219       1   9    0690f a70f      8.850 "
test,1583577327301459968,12," | 12  |   8417       5   8381      34 |   5    0      8329        86 |   2   9    0    0 690f |    2.075       0       5       0       5      9      9      0   8185     230       1   9    0690f a70f      8.940 "
test,1583577327301896960,13," | 13  |   8417       5   8413       0 |   5    0      8347        66 |   1   9    0    0 690f |    2.044       0       5       0       5      9      9      0   8264     149       1   9    0690f a70f      9.000 "
test,1583577327323972096,15," | 15  |   8417       5   8372      43 |   1    4      8061       354 |   3  48    9    0 a40f |   10.864       0       2       0       2     48     48      0   7685     730      13  48    0a40f a70f     30.300 "
test,1583577327325171968,16," | 16  |   8417       5   8413       0 |   4    7      8087       326 |   1  41   48    0 2a0f |    2.075       0       3       0       3     41     41      0   7872     541       1  41    02a0f a70f     30.330 "
test,1583577327302419968,17," | 17  |   8417       5   8402      11 |   5    0      8301       112 |   5  48    0    0 a40f |    2.777       0       5       0       5     48     48      0   8056     357       2  48    0a40f a70f      8.850 "
test,1583577327301691136,18," | 18  |   8417       5   8412       0 |   5    0      7949       463 |   2  48    0    0 a40f |    2.807       0       5       0       5     48     48      0   7636     776       2  48    0a40f a70f      8.940 "
test,1583577327314045952,19," | 19  |   8417       5   8396      17 |   5    0      8249       164 |   3  48    0    0 a40f |    3.540       0       5       0       5     48     48      0   8019     394       3  48    0a40f a70f      9.630 "
test,1583577327302128128,1," |  1  |   8417       4   8414       0 |   5    0      8188       226 |   1   9    0    0 690f |    2.746       0       5       0       5      9      9      0   8133     281       1   9    0690f a70f      8.970 "
test,1583577327296747008,22," | 22  |   8417       5   8411       0 |   5    0      8340        71 |   1  48    0    0 a40f |    2.044       0       5       0       5     48     48      0   7982     429       1  48    0a40f a70f      8.850 "
test,1583577327301238016,23," | 23  |   8417       5   8355       0 |   4    3      8318        37 |   8  48   41    0 a40f |    3.540       0       5       0       5     48     48      0   8160     195       3  48    0a40f a70f      9.720 "
test,1583577327306131968,24," | 24  |   8417       5   8411       2 |   5    0      8306       107 |   2  48    0    0 a40f |    2.807       0       5       0       5     48     48      0   8097     316       2  48    0a40f a70f      8.880 "
test,1583577327303293952,26," | 26  |   8417       5   8411       2 |   5    0      8381        32 |   2  48    0    0 a40f |    2.777       0       5       0       5     48     48      0   8231     182       2  48    0a40f a70f      9.000 "
test,1583577327313675008,27," | 27  |   8417       5   8415       0 |   5    0      8167       248 |   4  48    0    0 a40f |    3.509       0       5       0       5     48     48      0   7846     569       3  48    0a40f a70f     11.760 "
test,1583577327324456960,28," | 28  |   8417       5   8405       8 |   5    0      7742       671 |   3  48    0    0 a40f |    2.777       0       4       0       4     48     48      0   7413    1000       2  48    0a40f a70f     30.360 "
test,1583577327314444032,29," | 29  |   8417       5   8401      14 |   4    0      7450       965 |   4  48    0    0 a40f |    4.241       0       5       0       5     48     48      0   7086    1329       4  48    0a40f a70f     12.390 "
test,1583577327303760896,30," | 30  |   8417       5   8409       4 |   5    0      8297       116 |   2  48    0    0 a40f |    2.777       0       5       0       5     48     48      0   7993     420       2  48    0a40f a70f      9.720 "
test,1583577327308585984,35," | 35  |   8417       5   8409       4 |   5    0      8016       397 |   2  48    0    0 a40f |    2.807       0       5       0       5     48     48      0   7831     582       2  48    0a40f a70f      9.570 "
test,1583577327323420928,40," | 40  |   8417       5   8334      75 |   5    0      7932       477 |   1  48    0    0 a40f |    2.014       0       4       0       4     48     48      0   7729     680       1  48    0a40f a70f     30.300 "
test,1583577327322132992,41," | 41  |   8417       5   8343      60 |   2    8      8323        80 |   8  41   48    1 2a0f |   12.420       0       1       0       1     41     41      0   8133     270      17  41    12a0f a70f     30.390 "
test,1583577327323760128,42," | 42  |   8417       5   8346      67 |   5    0      8263       150 |   4  48    0    0 a40f |    3.479       0       4       0       4     48     48      0   8090     323       3  48    0a40f a70f     30.360 "
test,1583577327302597888,44," | 44  |   8417       5   8355      58 |   5    0      8264       149 |   1  48    0    0 a40f |    2.075       0       5       0       5     48     48      0   8103     310       1  48    0a40f a70f      9.720 "
test,1583577327307841024,45," | 45  |   8417       5   8369      44 |   5    0      8158       255 |   2  48    0    0 a40f |    2.777       0       5       0       5     48     48      0   8012     401       2  48    0a40f a70f     10.380 "
test,1583577327321476096,46," | 46  |   8417       5   8348      58 |   0    7      7998       408 |   0  46   41    1 eb0f |    0           0       0       0       8      0      0      0   7870     536       0  46    1eb0f a70f     30.180 "
test,1583577327324763136,47," | 47  |   8417       5   8355      58 |   5    1      8155       258 |   1  48   41    0 a40f |    2.777       0       4       0       4     48     48      0   8011     402       2  48    0a40f a70f     30.360 "
test,1583577327326425088,48," | 48  |   8417       5   8291      55 |   4    0      8178       168 |   4  48    0    1 a40f |    3.936       0       3       0       3     48     48      0   8020     326       5  48    1a40f a70f     30.300 "
test,1583577327304285952,49," | 49  |   8417       5   8407       0 |   5    0      8245       162 |   4  48    0    0 a40f |    4.241       0       5       0       5     48     48      0   8186     221       4  48    0a40f a70f     10.260 "
test,1583577327304497920,51," | 51  |   8417       5   8408       0 |   5    0      8312        96 |   3  48    0    0 a40f |    3.509       0       5       0       5     48     48      0   8284     124       3  48    0a40f a70f     10.440 "
test,1583577327308788992,52," | 52  |   8417       5   8376      33 |   5    0      7986       423 |   4  48    0    0 a40f |    3.509       0       5       0       5     48     48      0   7844     565       3  48    0a40f a70f      9.540 "
test,1583577327307020800,53," | 53  |   8417       5   8391       0 |   5    0      7976       415 |   5  48    0    0 a40f |    4.974       0       5       0       5     48     48      0   7891     500       5  48    0a40f a70f     11.160 "
test,1583577327305392896,54," | 54  |   8417       5   8409       0 |   5    0      8267       142 |   2   9    0    0 690f |    2.105       0       5       0       5      9      9      0   8128     281       1   9    0690f a70f      8.340 "
test,1583577327304925952,55," | 55  |   8417       5   8396       0 |   5    0      8082       314 |   4  48    0    0 a40f |    4.272       0       5       0       5     48     48      0   8011     385       4  48    0a40f a70f     10.350 "
test,1583577327305923840,56," | 56  |   8417       5   8399       0 |   5    0      8272       127 |   3  48    0    0 a40f |    3.509       0       5       0       5     48     48      0   8171     228       3  48    0a40f a70f      9.720 "
test,1583577327316517120,57," | 57  |   8417       5   8354       0 |   5    0      8133       221 |   2  48    0    0 a40f |    2.807       0       5       0       5     48     48      0   7619     735       2  48    0a40f a70f      8.880 "
test,1583577327322465024,58," | 58  |   8417       5   8408       0 |   5    0      8294       114 |   3  48    0    0 a40f |    3.509       0       4       0       4     48     48      0   7955     453       3  48    0a40f a70f     30.300 "
test,1583577327304688896,5," |  5  |   8417       5   8415       0 |   5    0      7646       769 |   2   9    0    0 690f |    2.807       0       5       0       5      9      9      0   7505     910       2   9    0690f a70f      9.630 "
test,1583577327303508992,60," | 60  |   8417       5   8408       0 |   5    0      7857       551 |   3  48    0    0 a40f |    3.509       0       5       0       5     48     48      0   7690     718       3  48    0a40f a70f      9.690 "
test,1583577327306782976,61," | 61  |   8417       5   8400       7 |   5    0      8029       378 |   3  48    0    0 a40f |    3.479       0       5       0       5     48     48      0   7743     664       3  48    0a40f a70f      9.600 "
test,1583577327309382912,7," |  7  |   8417       5   8414       0 |   5    0      8292       122 |   1   9    0    0 690f |    2.105       0       5       0       5      9      9      0   8233     181       1   9    0690f a70f      8.310 "
test,1583577327308975872,9," |  9  |   8417       5   8413       0 |   4    0      8136       277 |   2   9    0    1 690f |    1.739       0       4       0       4      9      9      0   8094     319       2   9    1690f a70f      6.510 "
