test,1583577429059980032,10," | 10  |   8824       5   8796       0 |   5    2      8662       134 |   1   1   57    0 a10f |    1.373       0       5       0       5      1      1      0   8570     226       1   1    0a10f a70f      7.530 "
test,1583577429051953920,12," | 12  |   8824       5   8788      34 |   5    0      8732        90 |   2   1    0    0 a10f |    1.373       0       5       0       5      1      1      0   8586     236       1   1    0a10f a70f      7.560 "
test,1583577429051677952,13," | 13  |   8824       5   8820       0 |   5    0      8750        70 |   4   1    0    0 a10f |    1.312       0       5       0       5      1      1      0   8666     154       1   1    0a10f a70f      7.530 "
test,1583577429070792960,15," | 15  |   8824       5   8779      43 |   0    7      8448       374 |   0  15    1    1 4b0f |    0           0       0       0       8      0      0      0   8058     764       0  15    14b0f a70f     30.270 "
test,1583577429060818944,16," | 16  |   8824       5   8820       0 |   5    0      8470       350 |   1  45    0    0 140f |    2.014       0       5       0       5     45     45      0   8250     570       1  45    0140f a70f      8.940 "
test,1583577429058404864,17," | 17  |   8824       5   8809      11 |   5    0      8702       118 |   3  45    0    0 140f |    4.211       0       5       0       5     45     45      0   8454     366       4  45    0140f a70f     11.880 "
test,1583577429053806080,18," | 18  |   8824       5   8819       0 |   5    0      8338       481 |   2  45    0    0 140f |    2.746       0       5       0       5     45     45      0   8014     805       2  45    0140f a70f      8.940 "
test,1583577429060198912,19," | 19  |   8824       5   8803      17 |   5    0      8647       173 |   3  45    0    0 140f |    4.211       0       5       0       5     45     45      0   8410     410       4  45    0140f a70f     12.480 "
test,1583577429057917952,1," |  1  |   8824       4   8821       0 |   4    0      8578       243 |   2   1    0    1 a10f |    1.770       0       4       0       4      1      1      0   8523     298       2   1    1a10f a70f      6.510 "
test,1583577429054707968,22," | 22  |   8824       5   8818       0 |   5    0      8745        73 |   3  45    0    0 140f |    2.777       0       5       0       5     45     45      0   8375     443       2  45    0140f a70f      9.690 "
test,1583577429055025152,23," | 23  |   8824       5   8762       0 |   5    0      8724        38 |   2  45    0    0 140f |    2.777       0       5       0       5     45     45      0   8562     200       2  45    0140f a70f      9.570 "
test,1583577429059166976,24," | 24  |   8824       5   8818       2 |   5    0      8708       112 |   3  45    0    0 140f |    3.509       0       5       0       5     45     45      0   8489     331       3  45    0140f a70f      9.720 "
test,1583577429055928832,26," | 26  |   8824       5   8818       2 |   5    0      8785        35 |   4  45    0    0 140f |    3.448       0       5       0       5     45     45      0   8633     187       3  45    0140f a70f      9.660 "
test,1583577429061775872,27," | 27  |   8824       5   8822       0 |   5    0      8565       257 |   3  45    0    0 140f |    3.540       0       5       0       5     45     45      0   8231     591       3  45    0140f a70f     12.510 "
test,1583577429056380160,28," | 28  |   8824       5   8812       8 |   5    0      8129       691 |   5  45    0    0 140f |    4.211       0       5       0       5     45     45      0   7778    1042       4  45    0140f a70f     10.410 "
test,1583577429062040064,29," | 29  |   8824       5   8807      15 |   5    0      7814      1008 |   4  45    0    0 140f |    4.241       0       5       0       5     45     45      0   7438    1384       4  45    0140f a70f     13.320 "
test,1583577429055553024,30," | 30  |   8824       5   8816       4 |   5    0      8701       119 |   4  45    0    0 140f |    3.540       0       5       0       5     45     45      0   8381     439       3  45    0140f a70f      9.600 "
test,1583577429062493952,35," | 35  |   8824       5   8816       4 |   5    0      8410       410 |   4  45    0    0 140f |    3.509       0       5       0       5     45     45      0   8216     604       3  45    0140f a70f     10.410 "
test,1583577429058852864,40," | 40  |   8824       5   8738      78 |   5    0      8301       515 |   2  45    0    0 140f |    2.044       0       5       0       5     45     45      0   8086     730       1  45    0140f a70f      9.000 "
test,1583577429052768000,41," | 41  |   8824       5   8748      62 |   5    0      8723        87 |   1  45    0    0 140f |    2.044       0       5       0       5     45     45      0   8523     287       1  45    0140f a70f      8.220 "
test,1583577429053977856,42," | 42  |   8824       5   8751      69 |   5    0      8660       160 |   1  45    0    0 140f |    2.044       0       5       0       5     45     45      0   8477     343       1  45    0140f a70f      8.280 "
test,1583577429053587968,44," | 44  |   8824       5   8760      60 |   5    0      8659       161 |   1  45    0    0 140f |    2.044       0       5       0       5     45     45      0   8490     330       1  45    0140f a70f      8.280 "
test,1583577429057590016,45," | 45  |   8824       5   8776      44 |   4    0      8551       269 |   2  45    0    1 140f |    1.770       0       4       0       4     45     45      0   8393     427       2  45    1140f a70f      6.510 "
test,1583577429058098944,46," | 46  |   8824       5   8754      59 |   5    0      8393       420 |   1  45    0    0 140f |    2.075       0       5       0       5     45     45      0   8253     560       1  45    0140f a70f      8.910 "
test,1583577429055756032,47," | 47  |   8824       5   8759      61 |   5    0      8545       275 |   1  45    0    0 140f |    2.014       0       5       0       5     45     45      0   8389     431       1  45    0140f a70f      8.820 "
test,1583577429056157184,48," | 48  |   8824       5   8696      57 |   5    0      8577       176 |   1  45    0    0 140f |    2.044       0       5       0       5     45     45      0   8409     344       1  45    0140f a70f      8.280 "
test,1583577429057199104,49," | 49  |   8824       5   8814       0 |   4    0      8644       170 |   5  49    0    1 a90f |    1.739       0       4       0       4     49     49      0   8584     230       2  49    1a90f a70f      6.480 "
test,1583577429056580096,51," | 51  |   8824       5   8815       0 |   5    0      8715       100 |   2  57    0    0 d50f |    2.746       0       5       0       5     57     57      0   8683     132       2  57    0d50f a70f      8.940 "
test,1583577429057393152,52," | 52  |   8824       3   8783      33 |   4    0      8380       436 |   2  45    0    0 140f |    2.746       0       5       0       5     45     45      0   8234     582       2  45    0140f a70f      9.660 "
test,1583577429058268160,53," | 53  |   8824       5   8798       0 |   5    0      8364       434 |   4  49    0    0 a90f |    2.014       0       5       0       5     49     49      0   8276     522       1  49    0a90f a70f      8.250 "
test,1583577429057018880,54," | 54  |   8824       5   8816       0 |   5    0      8669       147 |   7   1    0    0 a10f |    1.373       0       5       0       5      1      1      0   8526     290       1   1    0a10f a70f      7.560 "
test,1583577429073100032,55," | 55  |   8824       5   8803       0 |   0    8      8476       327 |   0  55   57    1 d40f |    0           0       0       0       8      0      0      0   8399     404       0  55    1d40f a70f     30.150 "
test,1583577429055212032,56," | 56  |   8824       5   8806       0 |   5    0      8677       129 |   1  57    0    0 d50f |    2.014       0       5       0       5     57     57      0   8571     235       1  57    0d50f a70f      8.790 "
test,1583577429076708096,57," | 57  |   8824       3   8761       0 |   1    0      8529       232 |  10  57    0    1 d50f |    8.331       0       1       0       1     57     57      0   7993     768      11  57    1d50f a70f     30.270 "
test,1583577429075576064,58," | 58  |   8824       4   8815       0 |   3   10      8695       120 |   2  57   55    0 d50f |    5.676       0       2       0       2     57     57      0   8343     472       6  57    0d50f a70f     30.360 "
test,1583577429053422080,5," |  5  |   8824       5   8822       0 |   5    0      8012       810 |   5   1    0    0 a10f |    2.044       0       5       0       5      1      1      0   7869     953       2   1    0a10f a70f      8.250 "
test,1583577429053167104,60," | 60  |   8824       5   8815       0 |   5    0      8235       580 |   1  57    0    0 d50f |    2.014       0       5       0       5     57     57      0   8060     755       1  57    0d50f a70f      8.220 "
test,1583577429075131904,61," | 61  |   8824       5   8807       7 |   4    2      8412       402 |   1  57    1    0 d50f |    5.676       0       2       0       2     57     57      0   8110     704       6  57    0d50f a70f     30.360 "
test,1583577429052598016,7," |  7  |   8824       5   8821       0 |   5    0      8695       126 |   1   1    0    0 a10f |    1.342       0       5       0       5      1      1      0   8635     186       1   1    0a10f a70f      7.590 "
test,1583577429047742976,9," |  9  |   8824       5   8820       0 |   5    0      8538       282 |   1   1    0    0 a10f |    1.342       0       5       0       5      1      1      0   8495     325       1   1    0a10f a70f      7.440 "
