test,1583577459052923904,10," | 10  |   8944       5   8916       0 |   4    0      8781       135 |   3  10    0    1 8b0f |    1.739       0       4       0       4     10     10      0   8689     227       2  10    18b0f a70f      6.480 "
test,1583577459058851840,12," | 12  |   8944       5   8908      34 |   5    0      8852        90 |   1  10    0    0 8b0f |    1.983       0       5       0       5     10     10      0   8705     237       1  10    08b0f a70f      8.250 "
test,1583577459052715008,13," | 13  |   8944       5   8940       0 |   5    0      8868        72 |   1  10    0    0 8b0f |    1.983       0       5       0       5     10     10      0   8785     155       1  10    08b0f a70f      8.220 "
test,1583577459059272960,15," | 15  |   8944       5   8899      43 |   5    0      8564       378 |   2  10    0    0 8b0f |    2.777       0       5       0       5     10     10      0   8173     769       2  10    08b0f a70f      8.910 "
test,1583577459062892800,16," | 16  |   8944       5   8940       0 |   5    0      8587       353 |   7  52    0    0 7e0f |    1.983       0       5       0       5     52     52      0   8363     577       1  52    07e0f a70f      8.910 "
test,1583577459073715968,17," | 17  |   8944       5   8929      11 |   1    8      8820       120 |   4  45   22    0 9a0f |    0           0       0       0       8      0      0      0   8568     372       0  45    09a0f a70f     30.390 "
test,1583577459058153984,18," | 18  |   8944       5   8939       0 |   5    2      8449       490 |   1  22   45    0 310f |    2.044       0       5       0       5     22     22      0   8118     821       1  22    0310f a70f      8.190 "
test,1583577459076751872,19," | 19  |   8944       5   8922      18 |   1    8      8764       176 |   1  27   52    0 b70f |    9.948       0       1       0       1     27     27      0   8524     416      12  27    0b70f a70f     30.390 "
test,1583577459054534912,1," |  1  |   8944       4   8941       0 |   5    0      8696       245 |   1  10    0    0 8b0f |    2.685       0       5       0       5     10     10      0   8641     300       1  10    08b0f a70f      8.790 "
test,1583577459060302080,22," | 22  |   8944       5   8938       0 |   4    4      8864        74 |   5  22   52    1 310f |    3.204       0       4       0       4     22     22      0   8489     449       4  22    1310f a70f      7.950 "
test,1583577459053702144,23," | 23  |   8944       5   8882       0 |   5    0      8844        38 |   8  52    0    0 7e0f |    1.983       0       5       0       5     52     52      0   8680     202       1  52    07e0f a70f      8.220 "
test,1583577459061575936,24," | 24  |   8944       5   8938       2 |   5    4      8828       112 |   1  22   52    0 310f |    1.983       0       5       0       5     22     22      0   8606     334       1  22    0310f a70f      8.220 "
test,1583577459057257984,26," | 26  |   8944       5   8938       2 |   5   10      8905        35 |   1  22   52    0 310f |    2.746       0       5       0       5     22     22      0   8752     188       2  22    0310f a70f      8.820 "
test,1583577459057088000,27," | 27  |   8944       5   8942       0 |   4    5      8682       260 |   5  27   52    1 b70f |    3.814       0       4       0       4     27     27      0   8345     597       5  27    1b70f a70f      8.520 "
test,1583577459074729984,28," | 28  |   8944       5   8932       8 |   0   11      8238       702 |   0  28   22    1 c10f |    0           0       0       0       8      0      0      0   7880    1060       0  28    1c10f a70f     30.180 "
test,1583577459056103936,29," | 29  |   8944       5   8927      15 |   5    0      7923      1019 |   1  27    0    0 b70f |    1.983       0       5       0       5     27     27      0   7545    1397       1  27    0b70f a70f      8.730 "
test,1583577459057432064,30," | 30  |   8944       5   8936       4 |   5    0      8821       119 |   1  22    0    0 310f |    2.685       0       5       0       5     22     22      0   8492     448       2  22    0310f a70f      8.910 "
test,1583577459055932160,35," | 35  |   8944       5   8936       4 |   5    0      8524       416 |   1  22    0    0 310f |    1.983       0       5       0       5     22     22      0   8324     616       1  22    0310f a70f      8.220 "
test,1583577459076018176,40," | 40  |   8944       5   8852      84 |   5    0      8412       524 |   2  45    0    0 9a0f |    2.777       0       4       0       4     45     45      0   8189     747       2  45    09a0f a70f     30.300 "
test,1583577459061729792,41," | 41  |   8944       5   8862      68 |   5    0      8834        96 |   1  45    0    0 9a0f |    2.075       0       5       0       5     45     45      0   8632     298       1  45    09a0f a70f      8.310 "
test,1583577459055095040,42," | 42  |   8944       5   8865      75 |   5    0      8773       167 |   1  45    0    0 9a0f |    2.075       0       5       0       5     45     45      0   8581     359       1  45    09a0f a70f      8.310 "
test,1583577459065643008,44," | 44  |   8944       5   8874      66 |   5    0      8773       167 |   1  45    0    0 9a0f |    2.075       0       5       0       5     45     45      0   8597     343       1  45    09a0f a70f      8.190 "
test,1583577459048144128,45," | 45  |   8944       5   8891      49 |   4    0      8662       278 |   4  45    0    1 9a0f |    1.739       0       4       0       4     45     45      0   8500     440       2  45    19a0f a70f      6.510 "
test,1583577459061299968,46," | 46  |   8944       5   8868      65 |   5    0      8503       430 |   1  45    0    0 9a0f |    2.044       0       5       0       5     45     45      0   8361     572       1  45    09a0f a70f      8.970 "
test,1583577459060018944,47," | 47  |   8944       5   8873      67 |   5    0      8660       280 |   1  45    0    0 9a0f |    2.044       0       5       0       5     45     45      0   8500     440       1  45    09a0f a70f      8.130 "
test,1583577459062379008,48," | 48  |   8944       5   8810      63 |   5    0      8694       179 |   1  45    0    0 9a0f |    2.014       0       5       0       5     45     45      0   8521     352       1  45    09a0f a70f      8.250 "
test,1583577459052498944,49," | 49  |   8944       5   8934       0 |   5    0      8763       171 |   2  49    0    1 760f |    1.739       0       4       0       4     49     49      0   8703     231       2  49    1760f a70f      6.480 "
test,1583577459053526016,51," | 51  |   8944       5   8935       0 |   5    0      8833       102 |   1  10    0    0 8b0f |    2.014       0       5       0       5     10     10      0   8800     135       1  10    08b0f a70f      8.100 "
test,1583577459058674176,52," | 52  |   8944       5   8903      33 |   4    0      8491       445 |   8  52    0    1 7e0f |    1.770       0       4       0       4     52     52      0   8340     596       2  52    17e0f a70f      6.510 "
test,1583577459056883968,53," | 53  |   8944       5   8918       0 |   5    0      8476       442 |   1  49    0    0 760f |    2.014       0       5       0       5     49     49      0   8388     530       1  49    0760f a70f      8.250 "
test,1583577459053901824,54," | 54  |   8944       5   8936       0 |   5    0      8788       148 |   2  10    0    0 8b0f |    2.014       0       5       0       5     10     10      0   8645     291       1  10    08b0f a70f      8.250 "
test,1583577459053366016,55," | 55  |   8944       5   8923       0 |   5    0      8592       331 |   2  49    0    0 760f |    2.075       0       5       0       5     49     49      0   8514     409       1  49    0760f a70f      8.220 "
test,1583577459054213888,56," | 56  |   8944       5   8926       0 |   5    0      8795       131 |   1  10    0    0 8b0f |    1.983       0       5       0       5     10     10      0   8689     237       1  10    08b0f a70f      8.880 "
test,1583577459075550976,57," | 57  |   8944       5   8881       0 |   5    7      8643       238 |   1  22   52    0 310f |    1.953       0       4       0       4     22     22      0   8103     778       1  22    0310f a70f     30.390 "
test,1583577459075757056,58," | 58  |   8944       5   8935       0 |   5    0      8811       124 |   1  10    0    0 8b0f |    9.307       0       4       0       4     10     10      0   8447     488      11  10    08b0f a70f     30.390 "
test,1583577459059091968,5," |  5  |   8944       5   8942       0 |   5    0      8116       826 |   2  10    0    0 8b0f |    2.685       0       5       0       5     10     10      0   7971     971       2  10    08b0f a70f      8.910 "
test,1583577459063662080,60," | 60  |   8944       5   8935       0 |   5    0      8346       589 |   2  10    0    0 8b0f |    2.746       0       5       0       5     10     10      0   8168     767       2  10    08b0f a70f      8.880 "
test,1583577459061923072,61," | 61  |   8944       5   8918      16 |   5    0      8517       417 |   2  10    0    0 8b0f |    3.479       0       5       0       5     10     10      0   8211     723       3  10    08b0f a70f     13.290 "
test,1583577459053207040,7," |  7  |   8944       5   8941       0 |   5    0      8815       126 |   1  10    0    0 8b0f |    1.983       0       5       0       5     10     10      0   8754     187       1  10    08b0f a70f      8.220 "
test,1583577459055350016,9," |  9  |   8944       5   8940       0 |   5    0      8655       285 |   1  10    0    0 8b0f |    1.983       0       5       0       5     10     10      0   8612     328       1  10    08b0f a70f      8.190 "
