test,1583577453812258048,10," | 10  |   8923       5   8895       0 |   5    0      8760       135 |   1  51    0    0 a00f |    2.044       0       5       0       5     51     51      0   8668     227       1  51    0a00f a70f      8.880 "
test,1583577453805895936,12," | 12  |   8923       5   8887      34 |   5    0      8831        90 |   2  51    0    0 a00f |    2.777       0       5       0       5     51     51      0   8684     237       2  51    0a00f a70f      9.000 "
test,1583577453807323904,13," | 13  |   8923       5   8919       0 |   5    0      8847        72 |   1  51    0    0 a00f |    2.075       0       5       0       5     51     51      0   8764     155       1  51    0a00f a70f      8.820 "
test,1583577453806583808,15," | 15  |   8923       5   8878      43 |   5    0      8544       377 |   3  51    0    0 a00f |    3.479       0       5       0       5     51     51      0   8154     767       3  51    0a00f a70f      9.720 "
test,1583577453808957952,16," | 16  |   8923       5   8919       0 |   5    0      8566       353 |   1  23    0    0 5a0f |    2.075       0       5       0       5     23     23      0   8342     577       1  23    05a0f a70f      9.570 "
test,1583577453807522048,17," | 17  |   8923       5   8908      11 |   5    0      8800       119 |   1  23    0    0 5a0f |    2.044       0       5       0       5     23     23      0   8549     370       1  23    05a0f a70f      9.570 "
test,1583577453823079936,18," | 18  |   8923       5   8918       0 |   0    7      8431       487 |   0  18   23    1  40f |    0           0       0       0       8      0      0      0   8100     818       0  18    1 40f a70f     28.140 "
test,1583577453815762944,19," | 19  |   8923       5   8902      17 |   5    0      8744       175 |   1  23    0    0 5a0f |    2.075       0       5       0       5     23     23      0   8504     415       1  23    05a0f a70f      9.690 "
test,1583577453803002112,1," |  1  |   8923       4   8920       0 |   5    0      8675       245 |   1  51    0    0 a00f |    2.716       0       5       0       5     51     51      0   8620     300       1  51    0a00f a70f      8.940 "
test,1583577453825315072,22," | 22  |   8923       5   8917       0 |   5    0      8844        73 |   1  23    0    0 5a0f |    2.807       0       4       0       4     23     23      0   8469     448       2  23    05a0f a70f     30.240 "
test,1583577453806727936,23," | 23  |   8923       5   8861       0 |   5    0      8823        38 |   2  23    0    1 5a0f |    1.739       0       4       0       4     23     23      0   8659     202       2  23    15a0f a70f      7.950 "
test,1583577453805071104,24," | 24  |   8923       5   8917       2 |   5    0      8807       112 |   2  23    0    0 5a0f |    2.777       0       5       0       5     23     23      0   8585     334       2  23    05a0f a70f      8.970 "
test,1583577453802787072,26," | 26  |   8923       5   8917       2 |   5    0      8884        35 |   1  23    0    0 5a0f |    2.075       0       5       0       5     23     23      0   8731     188       1  23    05a0f a70f      8.190 "
test,1583577453814487808,27," | 27  |   8923       4   8921       0 |   4    1      8662       259 |   1  23   51    0 5a0f |    2.075       0       5       0       5     23     23      0   8325     596       1  23    05a0f a70f     12.450 "
test,1583577453825858048,28," | 28  |   8923       5   8911       8 |   4    0      8220       699 |   1  20    0    0 820f |    2.044       0       4       0       4     20     20      0   7863    1056       1  20    0820f a70f     30.390 "
test,1583577453827156992,29," | 29  |   8923       4   8906      15 |   5    0      7904      1017 |   2  23    0    0 5a0f |   10.131       0       3       0       3     23     23      0   7526    1395      12  23    05a0f a70f     30.240 "
test,1583577453810157056,30," | 30  |   8923       5   8915       4 |   5    0      8800       119 |   1  20    0    0 820f |    2.044       0       5       0       5     20     20      0   8471     448       1  20    0820f a70f      8.130 "
test,1583577453808596992,35," | 35  |   8923       5   8915       4 |   5    0      8503       416 |   2  20    0    0 820f |    2.746       0       5       0       5     20     20      0   8303     616       2  20    0820f a70f      8.970 "
test,1583577453815995904,40," | 40  |   8923       5   8833      82 |   5    0      8391       524 |   4  23    0    0 5a0f |    3.509       0       5       0       5     23     23      0   8169     746       3  23    05a0f a70f     10.320 "
test,1583577453807915008,41," | 41  |   8923       5   8843      66 |   5    0      8816        93 |   3  23    0    0 5a0f |    2.777       0       5       0       5     23     23      0   8613     296       2  23    05a0f a70f      9.720 "
test,1583577453813788928,42," | 42  |   8923       5   8846      73 |   5    0      8754       165 |   2  23    0    0 5a0f |    3.540       0       5       0       5     23     23      0   8562     357       3  23    05a0f a70f      9.750 "
test,1583577453810381824,44," | 44  |   8923       5   8855      64 |   5    0      8754       165 |   2  23    0    0 5a0f |    2.777       0       5       0       5     23     23      0   8578     341       2  23    05a0f a70f      9.000 "
test,1583577453805505024,45," | 45  |   8923       5   8872      47 |   5    0      8642       277 |   2  23    0    0 5a0f |    2.746       0       5       0       5     23     23      0   8479     440       2  23    05a0f a70f      9.000 "
test,1583577453824145920,46," | 46  |   8923       4   8849      63 |   0    3      8483       429 |   0  46   23    1 ae0f |    0           0       0       0       8      0      0      0   8341     571       0  46    1ae0f a70f     30.120 "
test,1583577453808350208,47," | 47  |   8923       2   8854      65 |   5    0      8639       280 |   3  23    0    0 5a0f |    3.509       0       5       0       5     23     23      0   8480     439       3  23    05a0f a70f      9.750 "
test,1583577453823375872,48," | 48  |   8923       5   8791      61 |   5    0      8674       178 |   2  23    0    0 5a0f |    3.540       0       4       0       4     23     23      0   8502     350       3  23    05a0f a70f     30.300 "
test,1583577453803212032,49," | 49  |   8923       5   8913       0 |   5    0      8742       171 |   1  53    0    0 100f |    2.044       0       5       0       5     53     53      0   8682     231       1  53    0100f a70f      8.250 "
test,1583577453802361856,51," | 51  |   8923       5   8914       0 |   5    0      8812       102 |   2  51    0    1 a00f |    1.739       0       4       0       4     51     51      0   8779     135       2  51    1a00f a70f      6.480 "
test,1583577453803889152,52," | 52  |   8923       5   8882      33 |   5    0      8470       445 |   1  23    0    0 5a0f |    2.044       0       5       0       5     23     23      0   8319     596       1  23    05a0f a70f      8.130 "
test,1583577453802573824,53," | 53  |   8923       5   8897       0 |   4    0      8456       441 |   2  53    0    1 100f |    1.770       0       4       0       4     53     53      0   8368     529       2  53    1100f a70f      6.510 "
test,1583577453806916864,54," | 54  |   8923       5   8915       0 |   5    0      8767       148 |   2  51    0    0 a00f |    2.777       0       5       0       5     51     51      0   8624     291       2  51    0a00f a70f      8.850 "
test,1583577453805265920,55," | 55  |   8923       5   8902       0 |   5    0      8572       330 |   1  53    0    0 100f |    2.044       0       5       0       5     53     53      0   8494     408       1  53    0100f a70f      8.250 "
test,1583577453804847872,56," | 56  |   8923       5   8905       0 |   5    0      8775       130 |   1  51    0    0 a00f |    2.075       0       5       0       5     51     51      0   8669     236       1  51    0a00f a70f      8.190 "
test,1583577453825100032,57," | 57  |   8923       2   8860       0 |   5    0      8622       238 |   1  23    0    0 5a0f |    2.044       0       3       0       3     23     23      0   8083     777       1  23    05a0f a70f     30.390 "
test,1583577453813596928,58," | 58  |   8923       3   8914       0 |   1    0      8791       123 |  11  51    0    0 a00f |    3.509       0       5       0       5     51     51      0   8428     486       3  51    0a00f a70f      9.720 "
test,1583577453807703040,5," |  5  |   8923       5   8921       0 |   5    0      8096       825 |   2  51    0    0 a00f |    2.777       0       5       0       5     51     51      0   7952     969       2  51    0a00f a70f      9.540 "
test,1583577453804368896,60," | 60  |   8923       5   8914       0 |   5    0      8326       588 |   1  51    0    0 a00f |    2.014       0       5       0       5     51     51      0   8148     766       1  51    0a00f a70f      8.190 "
test,1583577453804598016,7," |  7  |   8923       5   8920       0 |   5    0      8794       126 |   1  51    0    0 a00f |    2.044       0       5       0       5     51     51      0   8734     186       1  51    0a00f a70f      8.970 "
test,1583577453806085120,9," |  9  |   8923       5   8919       0 |   5    0      8634       285 |   2  51    0    0 a00f |    2.777       0       5       0       5     51     51      0   8591     328       2  51    0a00f a70f      8.880 "
