test,1583577393302138112,10," | 10  |   8681       5   8653       0 |   5    0      8520       133 |   1  12    0    0 7e0f |    2.044       0       5       0       5     12     12      0   8429     224       1  12    07e0f a70f      8.130 "
test,1583577393309211904,12," | 12  |   8681       5   8645      34 |   4    0      8590        89 |   2  12    0    1 7e0f |    1.739       0       4       0       4     12     12      0   8444     235       2  12    17e0f a70f      6.510 "
test,1583577393308496896,13," | 13  |   8681       5   8677       0 |   5    0      8607        70 |   1  12    0    0 7e0f |    2.014       0       5       0       5     12     12      0   8523     154       1  12    07e0f a70f      8.940 "
test,1583577393297569024,15," | 15  |   8681       5   8636      43 |   5    0      8313       366 |   1  12    0    0 7e0f |    2.075       0       5       0       5     12     12      0   7927     752       1  12    07e0f a70f      8.160 "
test,1583577393302364160,16," | 16  |   8681       5   8677       0 |   4    0      8333       344 |   2  16    0    1  e0f |    1.739       0       4       0       4     16     16      0   8116     561       2  16    1 e0f a70f      6.510 "
test,1583577393305960960,17," | 17  |   8681       5   8666      11 |   5    0      8561       116 |   1  16    0    0  e0f |    2.777       0       5       0       5     16     16      0   8313     364       2  16    0 e0f a70f      9.570 "
test,1583577393303920896,18," | 18  |   8681       5   8676       0 |   5    0      8201       475 |   2  16    0    0  e0f |    2.807       0       5       0       5     16     16      0   7882     794       2  16    0 e0f a70f      9.630 "
test,1583577393327183872,19," | 19  |   8681       5   8660      17 |   5    0      8506       171 |   3  16    0    0  e0f |    3.509       0       4       0       4     16     16      0   8273     404       3  16    0 e0f a70f     30.390 "
test,1583577393303008000,1," |  1  |   8681       4   8678       0 |   5    0      8442       236 |   1  12    0    0 7e0f |    2.716       0       5       0       5     12     12      0   8387     291       1  12    07e0f a70f      8.940 "
test,1583577393306988032,22," | 22  |   8681       5   8675       0 |   5    0      8603        72 |   2  16    0    0  e0f |    2.746       0       5       0       5     16     16      0   8238     437       2  16    0 e0f a70f      8.970 "
test,1583577393302586112,23," | 23  |   8681       5   8619       0 |   5    0      8581        38 |   1  16    0    0  e0f |    2.075       0       5       0       5     16     16      0   8422     197       1  16    0 e0f a70f      8.280 "
test,1583577393312759040,24," | 24  |   8681       5   8675       2 |   5    0      8567       110 |   2  16    0    0  e0f |    2.746       0       5       0       5     16     16      0   8353     324       2  16    0 e0f a70f      9.600 "
test,1583577393303416064,26," | 26  |   8681       5   8675       2 |   5    0      8644        33 |   1  16    0    0  e0f |    2.044       0       5       0       5     16     16      0   8492     185       1  16    0 e0f a70f      9.000 "
test,1583577393310199040,27," | 27  |   8681       5   8679       0 |   4    0      8424       255 |   2  16    0    0  e0f |    2.777       0       5       0       5     16     16      0   8095     584       2  16    0 e0f a70f      8.970 "
test,1583577393311966976,28," | 28  |   8681       5   8669       8 |   5    0      7992       685 |   2  16    0    0  e0f |    3.479       0       5       0       5     16     16      0   7653    1024       3  16    0 e0f a70f     10.980 "
test,1583577393307739136,29," | 29  |   8681       4   8664      15 |   4    0      7685       994 |   3  16    0    0  e0f |    3.509       0       5       0       5     16     16      0   7314    1365       3  16    0 e0f a70f      9.570 "
test,1583577393308897024,30," | 30  |   8681       5   8673       4 |   5    0      8560       117 |   4  16    0    0  e0f |    4.241       0       5       0       5     16     16      0   8248     429       4  16    0 e0f a70f     10.470 "
test,1583577393309747968,35," | 35  |   8681       5   8673       4 |   5    0      8269       408 |   3  16    0    0  e0f |    3.479       0       5       0       5     16     16      0   8080     597       3  16    0 e0f a70f      9.660 "
test,1583577393326457856,40," | 40  |   8681       5   8598      75 |   4    5      8172       501 |   3  16   44    0  e0f |    4.211       0       4       0       4     16     16      0   7966     707       4  16    0 e0f a70f     30.240 "
test,1583577393324253184,41," | 41  |   8681       5   8607      60 |   5    0      8584        83 |   1  16    0    0  e0f |    4.211       0       4       0       4     16     16      0   8391     276       4  16    0 e0f a70f     30.360 "
test,1583577393324558848,42," | 42  |   8681       5   8610      67 |   3    7      8523       154 |   5  16   44    0  e0f |    3.479       0       4       0       4     16     16      0   8347     330       3  16    0 e0f a70f     30.390 "
test,1583577393322679040,44," | 44  |   8681       5   8619      58 |   0    3      8522       155 |   0  44   16    1 700f |    0           0       0       0       8      0      0      0   8357     320       0  44    1700f a70f     30.180 "
test,1583577393325235968,45," | 45  |   8681       5   8633      44 |   4    8      8414       263 |   1  16   44    0  e0f |    3.479       0       3       0       3     16     16      0   8263     414       3  16    0 e0f a70f     30.390 "
test,1583577393325746944,46," | 46  |   8681       5   8612      58 |   5    0      8253       417 |   2  16    0    0  e0f |    4.211       0       4       0       4     16     16      0   8123     547       4  16    0 e0f a70f     30.360 "
test,1583577393326176000,47," | 47  |   8681       5   8619      58 |   4    6      8413       264 |   3  16   44    0  e0f |    4.211       0       4       0       4     16     16      0   8265     412       4  16    0 e0f a70f     30.360 "
test,1583577393324985856,48," | 48  |   8681       5   8555      55 |   4    6      8440       170 |   2  16   44    0  e0f |    3.509       0       4       0       4     16     16      0   8280     330       3  16    0 e0f a70f     30.360 "
test,1583577393306558976,49," | 49  |   8681       5   8671       0 |   5    0      8505       166 |   2  12    0    0 7e0f |    2.777       0       5       0       5     12     12      0   8445     226       2  12    07e0f a70f      8.970 "
test,1583577393304218112,51," | 51  |   8681       5   8672       0 |   5    0      8574        98 |   2  12    0    0 7e0f |    2.777       0       5       0       5     12     12      0   8544     128       2  12    07e0f a70f      9.000 "
test,1583577393325428992,52," | 52  |   8681       3   8640      33 |   4    0      8240       433 |   1  16    0    0  e0f |    2.044       0       4       0       4     16     16      0   8097     576       1  16    0 e0f a70f     30.330 "
test,1583577393308329984,53," | 53  |   8681       5   8655       0 |   5    0      8227       428 |   3  12    0    0 7e0f |    3.479       0       5       0       5     12     12      0   8140     515       3  12    07e0f a70f      9.690 "
test,1583577393306156032,54," | 54  |   8681       5   8673       0 |   5    0      8529       144 |   1  12    0    0 7e0f |    2.044       0       5       0       5     12     12      0   8386     287       1  12    07e0f a70f      8.880 "
test,1583577393306736896,55," | 55  |   8681       5   8660       0 |   5    0      8339       321 |   2  12    0    0 7e0f |    2.777       0       5       0       5     12     12      0   8264     396       2  12    07e0f a70f      9.000 "
test,1583577393307205888,56," | 56  |   8681       5   8663       0 |   5    0      8535       128 |   2  12    0    0 7e0f |    2.777       0       5       0       5     12     12      0   8430     233       2  12    07e0f a70f      8.850 "
test,1583577393305324032,57," | 57  |   8681       4   8618       0 |   2    3      8388       230 |   2  16   12    0  e0f |    2.807       0       5       0       5     16     16      0   7862     756       2  16    0 e0f a70f      8.880 "
test,1583577393314137856,58," | 58  |   8681       5   8672       0 |   5    0      8554       118 |   1  12    0    0 7e0f |    2.014       0       5       0       5     12     12      0   8210     462       1  12    07e0f a70f      8.280 "
test,1583577393302778880,5," |  5  |   8681       5   8679       0 |   5    0      7882       797 |   1  12    0    0 7e0f |    2.014       0       5       0       5     12     12      0   7739     940       1  12    07e0f a70f      8.220 "
test,1583577393305041152,60," | 60  |   8681       5   8672       0 |   5    0      8105       567 |   3  12    0    0 7e0f |    3.509       0       5       0       5     12     12      0   7932     740       3  12    07e0f a70f      9.720 "
test,1583577393324734976,61," | 61  |   8681       5   8664       7 |   5    0      8275       396 |   2  12    0    0 7e0f |    2.807       0       4       0       4     12     12      0   7981     690       2  12    07e0f a70f     30.330 "
test,1583577393303179008,7," |  7  |   8681       5   8678       0 |   5    0      8553       125 |   1  12    0    0 7e0f |    2.014       0       5       0       5     12     12      0   8492     186       1  12    07e0f a70f      8.250 "
test,1583577393304459008,9," |  9  |   8681       5   8677       0 |   5    0      8397       280 |   1  12    0    0 7e0f |    2.014       0       5       0       5     12     12      0   8354     323       1  12    07e0f a70f      9.000 "
