test,1583577396551486976,10," | 10  |   8694       5   8666       0 |   5    0      8533       133 |   1   1    0    0 820f |    1.342       0       5       0       5      1      1      0   8442     224       1   1    0820f a70f      7.440 "
test,1583577396556658944,12," | 12  |   8694       5   8658      34 |   5    0      8602        90 |   1   1    0    0 820f |    3.540       0       5       0       5      1      1      0   8456     236       4   1    0820f a70f     10.230 "
test,1583577396550929152,13," | 13  |   8694       5   8690       0 |   5    0      8620        70 |   1   1    0    0 820f |    1.312       0       5       0       5      1      1      0   8536     154       1   1    0820f a70f      7.530 "
test,1583577396559868928,15," | 15  |   8694       5   8649      43 |   5    0      8326       366 |   2   1    0    0 820f |    3.570       0       5       0       5      1      1      0   7939     753       4   1    0820f a70f     11.190 "
test,1583577396571137792,16," | 16  |   8694       5   8690       0 |   5    0      8346       344 |   2  42    0    0 ca0f |    0           0       0       0       8      0      0      0   8128     562       0  42    0ca0f a70f     30.390 "
test,1583577396559225088,17," | 17  |   8694       5   8679      11 |   2    6      8574       116 |   1  19   42    0 530f |    2.014       0       5       0       5     19     19      0   8326     364       1  19    0530f a70f      8.190 "
test,1583577396572724992,18," | 18  |   8694       5   8689       0 |   5    0      8212       477 |   1  42    0    0 ca0f |    0           0       0       0       8      0      0      0   7891     798       0  42    0ca0f a70f     30.360 "
test,1583577396553656064,19," | 19  |   8694       5   8673      17 |   2    9      8519       171 |   2  19   29    1 530f |    1.739       0       4       0       4     19     19      0   8286     404       2  19    1530f a70f      6.480 "
test,1583577396551687936,1," |  1  |   8694       4   8691       0 |   4    0      8455       236 |   4   1    0    1 820f |    1.739       0       4       0       4      1      1      0   8400     291       2   1    1820f a70f      6.480 "
test,1583577396573028096,22," | 22  |   8694       5   8688       0 |   5    0      8615        73 |   2  42    0    0 ca0f |    0           0       0       0       8      0      0      0   8249     439       0  42    0ca0f a70f     30.360 "
test,1583577396569325056,23," | 23  |   8694       5   8632       0 |   5    0      8594        38 |   6  42    0    0 ca0f |    0           0       0       0       8      0      0      0   8434     198       0  42    0ca0f a70f     30.390 "
test,1583577396572086016,24," | 24  |   8694       5   8688       2 |   5    0      8580       110 |   1  42    0    0 ca0f |    0           0       0       0       8      0      0      0   8364     326       0  42    0ca0f a70f     30.390 "
test,1583577396570575104,26," | 26  |   8694       5   8688       2 |   5    0      8657        33 |   2  42    0    0 ca0f |    0           0       0       0       8      0      0      0   8504     186       0  42    0ca0f a70f     30.390 "
test,1583577396575334144,27," | 27  |   8694       5   8692       0 |   2    7      8437       255 |   2  19   29    0 530f |    3.479       0       3       0       3     19     19      0   8108     584       3  19    0530f a70f     30.300 "
test,1583577396556111104,28," | 28  |   8694       5   8682       8 |   5    3      8005       685 |   1  30   42    0 a20f |    2.014       0       5       0       5     30     30      0   7665    1025       1  30    0a20f a70f      8.220 "
test,1583577396574827008,29," | 29  |   8694       4   8677      15 |   0    1      7695       997 |   0  29   19    1 a20f |    0           0       0       0       8      0      0      0   7324    1368       0  29    1a20f a70f     30.180 "
test,1583577396559453952,30," | 30  |   8694       5   8686       4 |   4    4      8573       117 |   5  30   42    1 a20f |    1.739       0       4       0       4     30     30      0   8261     429       2  30    1a20f a70f      6.510 "
test,1583577396555706112,35," | 35  |   8694       5   8686       4 |   5    4      8282       408 |   1  30   42    0 a20f |    1.983       0       5       0       5     30     30      0   8093     597       1  30    0a20f a70f      8.070 "
test,1583577396576553216,40," | 40  |   8694       5   8611      75 |   5    0      8182       504 |   1  42    0    0 ca0f |    2.075       0       2       0       2     42     42      0   7975     711       1  42    0ca0f a70f     30.330 "
test,1583577396573915904,41," | 41  |   8694       5   8620      60 |   4    0      8597        83 |   1  42    0    0 ca0f |    2.014       0       2       0       2     42     42      0   8404     276       1  42    0ca0f a70f     30.360 "
test,1583577396576372992,42," | 42  |   8694       5   8623      67 |   3    0      8536       154 |   8  42    0    1 ca0f |    1.739       0       1       0       1     42     42      0   8360     330       2  42    1ca0f a70f     30.300 "
test,1583577396576942080,44," | 44  |   8694       5   8632      58 |   5    0      8535       155 |   1  42    0    0 ca0f |    2.044       0       2       0       2     42     42      0   8370     320       1  42    0ca0f a70f     30.360 "
test,1583577396576141056,45," | 45  |   8694       5   8646      44 |   5    0      8427       263 |   1  42    0    0 ca0f |    2.044       0       2       0       2     42     42      0   8276     414       1  42    0ca0f a70f     30.360 "
test,1583577396577346048,46," | 46  |   8694       5   8625      58 |   4    0      8266       417 |   2  42    0    0 ca0f |    2.014       0       2       0       2     42     42      0   8136     547       1  42    0ca0f a70f     30.360 "
test,1583577396575043840,47," | 47  |   8694       5   8632      58 |   5    0      8426       264 |   1  42    0    0 ca0f |    2.044       0       2       0       2     42     42      0   8278     412       1  42    0ca0f a70f     30.390 "
test,1583577396578522880,48," | 48  |   8694       5   8568      55 |   5    0      8453       170 |   1  42    0    0 ca0f |    2.044       0       2       0       2     42     42      0   8293     330       1  42    0ca0f a70f     30.390 "
test,1583577396554012928,49," | 49  |   8694       5   8684       0 |   5    0      8518       166 |   1  53    0    0 b20f |    2.044       0       5       0       5     53     53      0   8458     226       1  53    0b20f a70f      8.250 "
test,1583577396553099008,51," | 51  |   8694       5   8685       0 |   5    0      8587        98 |   1   1    0    0 820f |    1.373       0       5       0       5      1      1      0   8557     128       1   1    0820f a70f      7.590 "
test,1583577396573617920,52," | 52  |   8694       5   8653      33 |   5    0      8253       433 |   2  42    0    0 ca0f |    0           0       0       0       8      0      0      0   8109     577       0  42    0ca0f a70f     30.360 "
test,1583577396552050944,53," | 53  |   8694       5   8668       0 |   5    0      8239       429 |   2  53    0    1 b20f |    1.739       0       4       0       4     53     53      0   8152     516       2  53    1b20f a70f      6.480 "
test,1583577396551297792,54," | 54  |   8694       5   8686       0 |   5    0      8542       144 |   1   1    0    0 820f |    1.373       0       5       0       5      1      1      0   8399     287       1   1    0820f a70f      7.560 "
test,1583577396557961984,55," | 55  |   8694       5   8673       0 |   5    0      8352       321 |   1  53    0    0 b20f |    2.014       0       5       0       5     53     53      0   8277     396       1  53    0b20f a70f      8.100 "
test,1583577396553821184,56," | 56  |   8694       5   8676       0 |   5    0      8548       128 |   2   1    0    0 820f |    2.075       0       5       0       5      1      1      0   8443     233       2   1    0820f a70f      8.310 "
test,1583577396562525952,57," | 57  |   8694       5   8631       0 |   5    0      8400       231 |   3   1    0    0 820f |    2.807       0       5       0       5      1      1      0   7874     757       3   1    0820f a70f      8.970 "
test,1583577396557017088,58," | 58  |   8694       5   8685       0 |   5    0      8567       118 |   2   1    0    0 820f |    2.105       0       5       0       5      1      1      0   8222     463       2   1    0820f a70f      8.220 "
test,1583577396555489024,5," |  5  |   8694       5   8692       0 |   5    0      7894       798 |   2   1    0    0 820f |    2.044       0       5       0       5      1      1      0   7751     941       2   1    0820f a70f      8.250 "
test,1583577396552676864,60," | 60  |   8694       5   8685       0 |   5    0      8118       567 |   2   1    0    0 820f |    2.105       0       5       0       5      1      1      0   7945     740       2   1    0820f a70f      8.250 "
test,1583577396554800896,61," | 61  |   8694       5   8677       7 |   5    0      8288       396 |   2   1    0    0 820f |    2.044       0       5       0       5      1      1      0   7993     691       2   1    0820f a70f      8.970 "
test,1583577396552957184,7," |  7  |   8694       5   8691       0 |   5    0      8566       125 |   1   1    0    0 820f |    1.342       0       5       0       5      1      1      0   8505     186       1   1    0820f a70f      7.590 "
test,1583577396553302016,9," |  9  |   8694       5   8690       0 |   5    0      8410       280 |   1   1    0    0 820f |    1.342       0       5       0       5      1      1      0   8367     323       1   1    0820f a70f      7.590 "
