test,1583577292805172992,10," | 10  |   8279       5   8251       0 |   3    2      8124       127 |   1   1   60    0 590f |    1.373       0       5       0       5      1      1      0   8036     215       1   1    0590f a70f      8.190 "
test,1583577292798640128,12," | 12  |   8279       5   8243      34 |   5    0      8192        85 |   1   1    0    0 590f |    1.403       0       5       0       5      1      1      0   8052     225       1   1    0590f a70f      7.590 "
test,1583577292799386880,13," | 13  |   8279       5   8275       0 |   5    0      8210        65 |   1   1    0    0 590f |    1.342       0       5       0       5      1      1      0   8129     146       1   1    0590f a70f      7.590 "
test,1583577292800740864,15," | 15  |   8279       5   8234      43 |   5    0      7930       347 |   2   1    0    0 590f |    2.075       0       5       0       5      1      1      0   7558     719       2   1    0590f a70f      8.340 "
test,1583577292819991040,16," | 16  |   8279       5   8275       0 |   1    8      7953       322 |   3  60   44    0 160f |    0           0       0       0       8      0      0      0   7743     532       0  60    0160f a70f     30.390 "
test,1583577292803745024,17," | 17  |   8279       5   8264      11 |   5    0      8166       109 |   3  44    0    0 b70f |    2.716       0       5       0       5     44     44      0   7923     352       2  44    0b70f a70f      8.940 "
test,1583577292808898816,18," | 18  |   8279       5   8274       0 |   5    0      7825       449 |   2  44    0    0 b70f |    2.716       0       5       0       5     44     44      0   7515     759       2  44    0b70f a70f      8.850 "
test,1583577292823527168,19," | 19  |   8279       5   8259      16 |   5    0      8114       161 |   3  44    0    0 b70f |    3.479       0       4       0       4     44     44      0   7889     386       3  44    0b70f a70f     30.270 "
test,1583577292801233152,1," |  1  |   8279       4   8276       0 |   5    0      8053       223 |   2   1    0    1 590f |    1.739       0       4       0       4      1      1      0   7999     277       2   1    1590f a70f      6.480 "
test,1583577292815223808,22," | 22  |   8279       5   8273       0 |   5    0      8202        71 |   2  44    0    0 b70f |    2.716       0       5       0       5     44     44      0   7849     424       2  44    0b70f a70f      9.690 "
test,1583577292819443968,23," | 23  |   8279       5   8217       0 |   1    6      8180        37 |   2  60    1    0 160f |    0           0       0       0       8      0      0      0   8025     192       0  60    0160f a70f     30.390 "
test,1583577292803548928,24," | 24  |   8279       5   8273       2 |   5    0      8174       101 |   2  44    0    0 b70f |    2.014       0       5       0       5     44     44      0   7968     307       1  44    0b70f a70f      8.250 "
test,1583577292803239168,26," | 26  |   8279       5   8273       2 |   5    0      8243        32 |   3  44    0    0 b70f |    1.983       0       5       0       5     44     44      0   8094     181       1  44    0b70f a70f      8.220 "
test,1583577292822316032,27," | 27  |   8279       5   8277       0 |   2    7      8032       245 |   4   1   29    0 590f |    7.232       0       1       0       1      1      1      0   7716     561       9   1    0590f a70f     30.390 "
test,1583577292821309952,28," | 28  |   8279       5   8267       8 |   0    7      7618       657 |   0  28   44    1 aa0f |    0           0       0       0       8      0      0      0   7290     985       0  28    1aa0f a70f     30.270 "
test,1583577292822665984,29," | 29  |   8279       5   8263      14 |   0    2      7324       953 |   0  29   44    1 8b0f |    0           0       0       0       8      0      0      0   6969    1308       0  29    18b0f a70f     30.240 "
test,1583577292806732800,30," | 30  |   8279       5   8271       4 |   5    0      8160       115 |   4  44    0    0 b70f |    3.479       0       5       0       5     44     44      0   7858     417       3  44    0b70f a70f     11.070 "
test,1583577292804698112,35," | 35  |   8279       5   8271       4 |   5    0      7881       394 |   3  44    0    0 b70f |    3.448       0       5       0       5     44     44      0   7696     579       3  44    0b70f a70f     10.290 "
test,1583577292821666048,40," | 40  |   8279       5   8196      75 |   5    0      7803       468 |   2  44    0    0 b70f |    2.685       0       4       0       4     44     44      0   7603     668       2  44    0b70f a70f     30.390 "
test,1583577292804495104,41," | 41  |   8279       5   8205      60 |   5    0      8188        77 |   1  44    0    0 b70f |    1.983       0       5       0       5     44     44      0   8001     264       1  44    0b70f a70f      8.040 "
test,1583577292803924992,42," | 42  |   8279       5   8208      67 |   5    0      8126       149 |   1  44    0    0 b70f |    2.746       0       5       0       5     44     44      0   7956     319       2  44    0b70f a70f      9.690 "
test,1583577292802169088,44," | 44  |   8279       5   8217      58 |   4    0      8128       147 |   2  44    0    1 b70f |    1.739       0       4       0       4     44     44      0   7967     308       2  44    1b70f a70f      6.510 "
test,1583577292806230016,45," | 45  |   8279       5   8231      44 |   5    0      8022       253 |   1  44    0    0 b70f |    2.014       0       5       0       5     44     44      0   7879     396       1  44    0b70f a70f      8.070 "
test,1583577292814934016,46," | 46  |   8279       5   8210      58 |   5    0      7868       400 |   1  44    0    0 b70f |    2.685       0       5       0       5     44     44      0   7744     524       2  44    0b70f a70f      8.940 "
test,1583577292802588928,47," | 47  |   8279       5   8217      58 |   5    0      8018       257 |   1  44    0    0 b70f |    1.983       0       5       0       5     44     44      0   7878     397       1  44    0b70f a70f      8.190 "
test,1583577292801563904,48," | 48  |   8279       5   8153      55 |   5    0      8042       166 |   1  44    0    0 b70f |    2.014       0       5       0       5     44     44      0   7888     320       1  44    0b70f a70f      8.250 "
test,1583577292801891072,49," | 49  |   8279       5   8269       0 |   5    0      8111       158 |   1  55    0    0 950f |    2.044       0       5       0       5     55     55      0   8053     216       1  55    0950f a70f      8.130 "
test,1583577292803382016,51," | 51  |   8279       5   8270       0 |   5    1      8174        96 |   1  60    1    0 160f |    3.479       0       5       0       5     60     60      0   8146     124       3  60    0160f a70f      9.690 "
test,1583577292821948160,52," | 52  |   8279       5   8238      33 |   4    0      7859       412 |   6  44    0    0 b70f |    2.746       0       4       0       4     44     44      0   7718     553       2  44    0b70f a70f     30.240 "
test,1583577292801063168,53," | 53  |   8279       5   8253       0 |   5    0      7847       406 |   1  55    0    0 950f |    2.075       0       5       0       5     55     55      0   7763     490       1  55    0950f a70f      8.310 "
test,1583577292807527168,54," | 54  |   8279       5   8271       0 |   5    0      8130       141 |   1   1    0    0 590f |    1.373       0       5       0       5      1      1      0   7992     279       1   1    0590f a70f      7.620 "
test,1583577292800235008,55," | 55  |   8279       5   8258       0 |   5    0      7948       310 |   2  55    0    1 950f |    1.739       0       4       0       4     55     55      0   7878     380       2  55    1950f a70f      6.480 "
test,1583577292802434048,56," | 56  |   8279       5   8261       0 |   5    0      8137       124 |   1  60    0    0 160f |    2.716       0       5       0       5     60     60      0   8038     223       2  60    0160f a70f      8.940 "
test,1583577292801400832,57," | 57  |   8279       5   8216       0 |   5    0      7996       220 |   1  60    0    0 160f |    1.983       0       5       0       5     60     60      0   7496     720       1  60    0160f a70f      8.220 "
test,1583577292802938112,58," | 58  |   8279       5   8270       0 |   5    0      8157       113 |   1  55    0    0 950f |    2.044       0       5       0       5     55     55      0   7824     446       1  55    0950f a70f      8.280 "
test,1583577292800422912,5," |  5  |   8279       5   8277       0 |   5    0      7519       758 |   2   1    0    0 590f |    2.105       0       5       0       5      1      1      0   7380     897       2   1    0590f a70f      8.220 "
test,1583577292798857984,60," | 60  |   8279       5   8270       0 |   4    0      7729       541 |   6  60    0    1 160f |    1.739       0       4       0       4     60     60      0   7565     705       2  60    1160f a70f      6.480 "
test,1583577292819665920,61," | 61  |   8279       5   8262       7 |   0    0      7896       373 |   0   0    0    0    0 |    0           0       0       0       8      0      0      0   7615     654       0   0    0   0 a70f     30.360 "
test,1583577292799782912,7," |  7  |   8279       5   8276       0 |   5    0      8155       121 |   1   1    0    0 590f |    1.342       0       5       0       5      1      1      0   8097     179       1   1    0590f a70f      7.590 "
test,1583577292801719808,9," |  9  |   8279       5   8275       0 |   5    0      8005       270 |   1   1    0    0 590f |    1.373       0       5       0       5      1      1      0   7963     312       1   1    0590f a70f      7.590 "
