test,1583577266552587008,10," | 10  |   8174       5   8146       0 |   5    0      8021       125 |   2   1    0    0 820f |    1.312       0       5       0       5      1      1      0   7932     214       1   1    0820f a70f      7.560 "
test,1583577266543865088,12," | 12  |   8174       5   8138      34 |   5    0      8089        83 |   1   1    0    0 820f |    1.342       0       5       0       5      1      1      0   7949     223       1   1    0820f a70f      7.440 "
test,1583577266554588928,13," | 13  |   8174       5   8170       0 |   5    0      8108        62 |   1   1    0    0 820f |    1.312       0       5       0       5      1      1      0   8026     144       1   1    0820f a70f      7.590 "
test,1583577266570225920,15," | 15  |   8174       5   8129      43 |   0    4      7834       338 |   0  15   24    1 a80f |    0           0       0       0       8      0      0      0   7464     708       0  15    1a80f a70f     30.180 "
test,1583577266559518976,16," | 16  |   8174       5   8170       0 |   5    0      7859       311 |   1  45    0    0  30f |    3.509       0       5       0       5     45     45      0   7654     516       3  45    0 30f a70f     16.890 "
test,1583577266554785024,17," | 17  |   8174       4   8159      11 |   5    0      8063       107 |   6  45    0    0  30f |   10.131       0       5       0       5     45     45      0   7823     347      12  45    0 30f a70f     16.080 "
test,1583577266569020160,18," | 18  |   8174       5   8169       0 |   0    6      7725       444 |   0  18   24    1 9d0f |    0           0       0       0       8      0      0      0   7418     751       0  18    19d0f a70f     30.180 "
test,1583577266558659072,19," | 19  |   8174       3   8155      15 |   4    9      8012       158 |   7  45   24    0  30f |   10.803       0       5       0       5     45     45      0   7793     377      13  45    0 30f a70f     16.920 "
test,1583577266549343232,1," |  1  |   8174       4   8171       0 |   4    0      7955       216 |   2   1    0    1 820f |    1.739       0       4       0       4      1      1      0   7902     269       2   1    1820f a70f      6.480 "
test,1583577266570462976,22," | 22  |   8174       5   8168       0 |   2    8      8100        68 |   5  45   24    0  30f |    9.399       0       3       0       3     45     45      0   7749     419      11  45    0 30f a70f     30.240 "
test,1583577266563755008,23," | 23  |   8174       5   8112       0 |   5    0      8075        37 |   2  45    0    0  30f |   11.566       0       5       0       5     45     45      0   7924     188      14  45    0 30f a70f     17.490 "
test,1583577266548468224,24," | 24  |   8174       5   8168       2 |   4    1      8073        97 |  20  24   45    1 ad0f |    1.739       0       4       0       4     24     24      0   7870     300       2  24    1ad0f a70f      6.510 "
test,1583577266549131008,26," | 26  |   8174       5   8168       2 |   5    4      8138        32 |   1  24   45    0 ad0f |    1.983       0       5       0       5     24     24      0   7992     178       1  24    0ad0f a70f      8.220 "
test,1583577266559928064,27," | 27  |   8174       4   8172       0 |   5    0      7934       238 |   3  45    0    0  30f |   10.833       0       5       0       5     45     45      0   7621     551      13  45    0 30f a70f     19.770 "
test,1583577266571574016,28," | 28  |   8174       4   8162       8 |   3    2      7520       650 |   1  24   45    0 ad0f |    3.509       0       3       0       3     24     24      0   7195     975       3  24    0ad0f a70f     30.300 "
test,1583577266572998144,29," | 29  |   8174       5   8159      13 |   3    3      7237       935 |   4  45   24    0  30f |   13.031       0       4       0       4     45     45      0   6887    1285      16  45    0 30f a70f     30.240 "
test,1583577266570900992,30," | 30  |   8174       5   8166       4 |   1    2      8057       113 |   6  45   24    0  30f |   10.070       0       3       0       3     45     45      0   7758     412      12  45    0 30f a70f     30.300 "
test,1583577266570697984,35," | 35  |   8174       5   8166       4 |   1    0      7783       387 |   6  45    0    0  30f |   10.101       0       3       0       3     45     45      0   7600     570      12  45    0 30f a70f     30.360 "
test,1583577266572155904,40," | 40  |   8174       5   8091      75 |   5    0      7702       464 |   1  45    0    0  30f |    2.777       0       4       0       4     45     45      0   7504     662       2  45    0 30f a70f     30.390 "
test,1583577266550760960,41," | 41  |   8174       5   8100      60 |   5    0      8084        76 |   1  45    0    0  30f |    2.014       0       5       0       5     45     45      0   7899     261       1  45    0 30f a70f      8.250 "
test,1583577266556314880,42," | 42  |   8174       5   8103      67 |   5    0      8025       145 |   1  45    0    0  30f |    1.983       0       5       0       5     45     45      0   7856     314       1  45    0 30f a70f      8.220 "
test,1583577266545277952,44," | 44  |   8174       5   8112      58 |   5    0      8023       147 |   1  45    0    0  30f |    2.014       0       5       0       5     45     45      0   7864     306       1  45    0 30f a70f      8.250 "
test,1583577266551549952,45," | 45  |   8174       5   8126      44 |   4    0      7923       247 |   2  45    0    1  30f |    1.739       0       4       0       4     45     45      0   7781     389       2  45    1 30f a70f      7.230 "
test,1583577266551737088,46," | 46  |   8174       5   8105      58 |   5    0      7771       392 |   1  45    0    0  30f |    2.746       0       5       0       5     45     45      0   7647     516       2  45    0 30f a70f      8.850 "
test,1583577266551034880,47," | 47  |   8174       5   8112      58 |   5    0      7916       254 |   2  45    0    0  30f |    2.777       0       5       0       5     45     45      0   7777     393       2  45    0 30f a70f      8.970 "
test,1583577266556452864,48," | 48  |   8174       5   8048      55 |   5    0      7938       165 |   1  45    0    0  30f |    2.075       0       5       0       5     45     45      0   7785     318       1  45    0 30f a70f      8.970 "
test,1583577266555450880,49," | 49  |   8174       5   8164       0 |   5    0      8008       156 |   1  55    0    0 de0f |    2.014       0       5       0       5     55     55      0   7949     215       1  55    0de0f a70f      8.940 "
test,1583577266548243968,51," | 51  |   8174       5   8165       0 |   5    0      8073        92 |   2  51    0    1  70f |    1.739       0       4       0       4     51     51      0   8045     120       2  51    1 70f a70f      6.480 "
test,1583577266571276800,52," | 52  |   8174       4   8135      31 |   4   10      7763       403 |   5  45   24    0  30f |   13.031       0       4       0       4     45     45      0   7624     542      16  45    0 30f a70f     30.360 "
test,1583577266549575168,53," | 53  |   8174       5   8148       0 |   5    0      7745       403 |   1  55    0    0 de0f |    1.983       0       5       0       5     55     55      0   7661     487       1  55    0de0f a70f      8.190 "
test,1583577266553687040,54," | 54  |   8174       5   8166       0 |   5    0      8030       136 |   1   1    0    0 820f |    1.342       0       5       0       5      1      1      0   7893     273       1   1    0820f a70f      7.590 "
test,1583577266550422016,55," | 55  |   8174       5   8153       0 |   5    0      7849       304 |   2  55    0    1 de0f |    1.770       0       4       0       4     55     55      0   7778     375       2  55    1de0f a70f      6.510 "
test,1583577266571887104,56," | 56  |   8174       5   8156       0 |   5    0      8033       123 |   1  51    0    0  70f |    2.044       0       3       0       3     51     51      0   7934     222       1  51    0 70f a70f     30.270 "
test,1583577266568567040,57," | 57  |   8174       5   8111       0 |   0    7      7893       218 |   0  57   24    1  50f |    0           0       0       0       8      0      0      0   7403     708       0  57    1 50f a70f     30.240 "
test,1583577266572505088,58," | 58  |   8174       5   8165       0 |   5    0      8053       112 |   1  55    0    0 de0f |    1.983       0       3       0       3     55     55      0   7725     440       1  55    0de0f a70f     30.390 "
test,1583577266551990016,5," |  5  |   8174       5   8172       0 |   5    0      7422       750 |   2   1    0    0 820f |    2.075       0       5       0       5      1      1      0   7285     887       2   1    0820f a70f      8.280 "
test,1583577266549774848,60," | 60  |   8174       5   8165       0 |   5    0      7627       538 |   1  51    0    0  70f |    2.044       0       5       0       5     51     51      0   7465     700       1  51    0 70f a70f      8.190 "
test,1583577266556941056,61," | 61  |   8174       5   8157       7 |   1    2      7796       368 |   1  57   55    0  50f |    4.089       0       5       0       5     57     57      0   7520     644       4  57    0 50f a70f     19.350 "
test,1583577266551271936,7," |  7  |   8174       5   8171       0 |   5    0      8050       121 |   1   1    0    0 820f |    1.373       0       5       0       5      1      1      0   7994     177       1   1    0820f a70f      7.530 "
test,1583577266548657920,9," |  9  |   8174       5   8170       0 |   5    0      7903       267 |   1   1    0    0 820f |    1.312       0       5       0       5      1      1      0   7861     309       1   1    0820f a70f      7.560 "
