test,1583577372809684992,10," | 10  |   8599       5   8571       0 |   5    0      8440       131 |   1   1    0    0 590f |    1.312       0       5       0       5      1      1      0   8349     222       1   1    0590f a70f      7.410 "
test,1583577372806011904,12," | 12  |   8599       5   8563      34 |   5    0      8509        88 |   1   1    0    0 590f |    2.044       0       5       0       5      1      1      0   8364     233       2   1    0590f a70f      8.310 "
test,1583577372801309952,13," | 13  |   8599       5   8595       0 |   5    0      8526        69 |   1   1    0    0 590f |    1.342       0       5       0       5      1      1      0   8443     152       1   1    0590f a70f      7.560 "
test,1583577372808944896,15," | 15  |   8599       5   8554      43 |   4    5      8234       363 |   2   1    5    0 590f |    2.777       0       5       0       5      1      1      0   7848     749       3   1    0590f a70f      9.000 "
test,1583577372809197824,16," | 16  |   8599       5   8595       0 |   5    0      8253       342 |   2  17    0    0 4e0f |    2.014       0       5       0       5     17     17      0   8036     559       1  17    04e0f a70f      8.970 "
test,1583577372804875008,17," | 17  |   8599       5   8584      11 |   4    0      8481       114 |   4  17    0    1 4e0f |    1.739       0       4       0       4     17     17      0   8233     362       2  17    14e0f a70f      7.200 "
test,1583577372822011904,18," | 18  |   8599       5   8594       0 |   0    8      8121       473 |   0  18   17    1 870f |    0           0       0       0       8      0      0      0   7804     790       0  18    1870f a70f     30.180 "
test,1583577372803890944,19," | 19  |   8599       5   8578      17 |   5    0      8428       167 |   1  17    0    0 4e0f |    2.044       0       5       0       5     17     17      0   8194     401       1  17    04e0f a70f      9.000 "
test,1583577372799840000,1," |  1  |   8599       4   8596       0 |   5    0      8363       233 |   2   1    0    1 590f |    1.739       0       4       0       4      1      1      0   8308     288       2   1    1590f a70f      6.480 "
test,1583577372807773952,22," | 22  |   8599       5   8593       0 |   5    0      8521        72 |   1  17    0    0 4e0f |    2.777       0       5       0       5     17     17      0   8159     434       2  17    04e0f a70f      9.720 "
test,1583577372809847040,23," | 23  |   8599       5   8537       0 |   5    0      8500        37 |   1  17    0    0 4e0f |    2.075       0       5       0       5     17     17      0   8340     197       1  17    04e0f a70f      8.280 "
test,1583577372803550976,24," | 24  |   8599       5   8593       2 |   5    0      8486       109 |   1  17    0    0 4e0f |    2.777       0       5       0       5     17     17      0   8274     321       2  17    04e0f a70f      8.850 "
test,1583577372803191808,26," | 26  |   8599       5   8593       2 |   5    0      8562        33 |   1  17    0    0 4e0f |    2.044       0       5       0       5     17     17      0   8411     184       1  17    04e0f a70f      8.190 "
test,1583577372817085952,27," | 27  |   8599       5   8597       0 |   5    0      8345       252 |   1  17    0    0 4e0f |    2.044       0       5       0       5     17     17      0   8018     579       1  17    04e0f a70f      8.850 "
test,1583577372802333184,28," | 28  |   8599       5   8587       8 |   5    0      7913       682 |   1  17    0    0 4e0f |    2.014       0       5       0       5     17     17      0   7577    1018       1  17    04e0f a70f      8.250 "
test,1583577372825177856,29," | 29  |   8599       5   8582      15 |   5    0      7613       984 |   2  17    0    0 4e0f |    2.746       0       4       0       4     17     17      0   7245    1352       2  17    04e0f a70f     30.390 "
test,1583577372806249984,30," | 30  |   8599       5   8591       4 |   5    0      8478       117 |   3  17    0    0 4e0f |    3.479       0       5       0       5     17     17      0   8169     426       3  17    04e0f a70f     11.160 "
test,1583577372807336192,35," | 35  |   8599       5   8591       4 |   5    0      8187       408 |   2  17    0    0 4e0f |    3.479       0       5       0       5     17     17      0   8001     594       3  17    04e0f a70f     10.380 "
test,1583577372805374976,40," | 40  |   8599       5   8516      75 |   5    0      8099       492 |   2  47    0    0 e20f |    2.746       0       5       0       5     47     47      0   7893     698       2  47    0e20f a70f      8.820 "
test,1583577372806937088,41," | 41  |   8599       5   8525      60 |   5    0      8503        82 |   2  47    0    0 e20f |    4.180       0       5       0       5     47     47      0   8311     274       4  47    0e20f a70f     11.100 "
test,1583577372808633088,42," | 42  |   8599       5   8528      67 |   5    0      8441       154 |   2  47    0    0 e20f |    3.479       0       5       0       5     47     47      0   8266     329       3  47    0e20f a70f      9.690 "
test,1583577372806516992,44," | 44  |   8599       5   8537      58 |   5    0      8442       153 |   2  47    0    0 e20f |    4.211       0       5       0       5     47     47      0   8279     316       4  47    0e20f a70f     11.040 "
test,1583577372808461824,45," | 45  |   8599       5   8551      44 |   5    0      8335       260 |   2  47    0    0 e20f |    4.211       0       5       0       5     47     47      0   8186     409       4  47    0e20f a70f     10.410 "
test,1583577372810820096,46," | 46  |   8599       5   8530      58 |   5    0      8177       411 |   2  47    0    0 e20f |    3.448       0       5       0       5     47     47      0   8046     542       3  47    0e20f a70f      9.660 "
test,1583577372805680128,47," | 47  |   8599       5   8537      58 |   4    0      8334       261 |   3  47    0    1 e20f |    3.204       0       4       0       4     47     47      0   8188     407       4  47    1e20f a70f      7.920 "
test,1583577372807945984,48," | 48  |   8599       5   8473      55 |   5    0      8359       169 |   1  47    0    0 e20f |    2.014       0       5       0       5     47     47      0   8199     329       1  47    0e20f a70f      9.510 "
test,1583577372801675008,49," | 49  |   8599       5   8589       0 |   5    0      8423       166 |   1  55    0    0 8a0f |    1.983       0       5       0       5     55     55      0   8363     226       1  55    08a0f a70f      8.190 "
test,1583577372802098944,51," | 51  |   8599       5   8590       0 |   5    0      8492        98 |   1   1    0    0 590f |    1.342       0       5       0       5      1      1      0   8464     126       1   1    0590f a70f      7.500 "
test,1583577372811438080,52," | 52  |   8599       5   8558      33 |   5    0      8161       430 |   2  17    0    0 4e0f |    2.807       0       5       0       5     17     17      0   8017     574       2  17    04e0f a70f      8.850 "
test,1583577372805114112,53," | 53  |   8599       5   8573       0 |   5    0      8152       421 |   1  55    0    0 8a0f |    1.983       0       5       0       5     55     55      0   8065     508       1  55    08a0f a70f      8.220 "
test,1583577372801847808,54," | 54  |   8599       5   8591       0 |   5    0      8447       144 |   1   1    0    0 590f |    1.373       0       5       0       5      1      1      0   8306     285       1   1    0590f a70f      7.560 "
test,1583577372807593984,55," | 55  |   8599       5   8578       0 |   5    0      8260       318 |   2  55    0    1 8a0f |    1.770       0       4       0       4     55     55      0   8186     392       2  55    18a0f a70f      6.510 "
test,1583577372802561024,56," | 56  |   8599       5   8581       0 |   4    1      8453       128 |   4   1   17    0 590f |    2.075       0       5       0       5      1      1      0   8350     231       2   1    0590f a70f      8.280 "
test,1583577372824616960,57," | 57  |   8599       5   8536       0 |   5    0      8309       227 |   4  17    0    0 4e0f |   10.101       0       1       0       1     17     17      0   7786     750      12  17    04e0f a70f     30.390 "
test,1583577372804361984,58," | 58  |   8599       5   8590       0 |   5    0      8474       116 |   1  55    0    0 8a0f |    2.044       0       5       0       5     55     55      0   8131     459       1  55    08a0f a70f      8.280 "
test,1583577372820980992,5," |  5  |   8599       5   8597       0 |   0    3      7810       787 |   0   5    1    1 cd0f |    0           0       0       0       8      0      0      0   7668     929       0   5    1cd0f a70f     30.180 "
test,1583577372804645120,60," | 60  |   8599       5   8590       0 |   5    0      8026       564 |   2   1    0    0 590f |    2.105       0       5       0       5      1      1      0   7854     736       2   1    0590f a70f      8.160 "
test,1583577372803006976,61," | 61  |   8599       5   8582       7 |   4    1      8200       389 |   2   1   17    0 590f |    2.075       0       5       0       5      1      1      0   7908     681       2   1    0590f a70f      8.310 "
test,1583577372801073920,7," |  7  |   8599       5   8596       0 |   5    0      8472       124 |   1   1    0    0 590f |    1.342       0       5       0       5      1      1      0   8412     184       1   1    0590f a70f      7.470 "
test,1583577372800643072,9," |  9  |   8599       5   8595       0 |   5    0      8317       278 |   1   1    0    0 590f |    1.373       0       5       0       5      1      1      0   8275     320       1   1    0590f a70f      7.620 "
