test,1583577410074561024,10," | 10  |   8748       5   8720       0 |   0    8      8586       134 |   0  10   15    1 2d0f |    0           0       0       0       8      0      0      0   8495     225       0  10    12d0f a70f     30.150 "
test,1583577410057359872,12," | 12  |   8748       5   8712      34 |   5    0      8656        90 |   1  15    0    0 b90f |    4.119       0       5       0       5     15     15      0   8510     236       4  15    0b90f a70f     10.230 "
test,1583577410059292928,13," | 13  |   8748       5   8744       0 |   5    0      8674        70 |   1  15    0    0 b90f |    4.852       0       5       0       5     15     15      0   8590     154       5  15    0b90f a70f     11.610 "
test,1583577410054976000,15," | 15  |   8748       5   8703      43 |   4    0      8378       368 |   2  15    0    1 b90f |    3.814       0       4       0       4     15     15      0   7988     758       5  15    1b90f a70f      8.520 "
test,1583577410075117056,16," | 16  |   8748       5   8744       0 |   1    5      8398       346 |   1  45   15    0 d30f |    4.821       0       1       0       1     45     45      0   8179     565       5  45    0d30f a70f     30.390 "
test,1583577410060329984,17," | 17  |   8748       5   8733      11 |   5    0      8627       117 |   5  15    0    0 b90f |    4.180       0       5       0       5     15     15      0   8379     365       4  15    0b90f a70f     11.100 "
test,1583577410057142016,18," | 18  |   8748       5   8743       0 |   4    0      8264       479 |   6  15    0    0 b90f |    3.479       0       5       0       5     15     15      0   7943     800       3  15    0b90f a70f     10.410 "
test,1583577410067425024,19," | 19  |   8748       5   8727      17 |   5    0      8572       172 |   5  15    0    0 b90f |    4.241       0       5       0       5     15     15      0   8336     408       4  15    0b90f a70f     11.700 "
test,1583577410059747840,1," |  1  |   8748       4   8745       0 |   5    0      8505       240 |   2  15    0    0 b90f |    5.493       0       5       0       5     15     15      0   8450     295       5  15    0b90f a70f     12.420 "
test,1583577410056883968,22," | 22  |   8748       5   8742       0 |   5    0      8669        73 |   3  15    0    0 b90f |    2.746       0       5       0       5     15     15      0   8302     440       2  15    0b90f a70f     10.290 "
test,1583577410059088896,23," | 23  |   8748       5   8686       0 |   5    0      8648        38 |   4  15    0    0 b90f |    3.479       0       5       0       5     15     15      0   8487     199       3  15    0b90f a70f     10.380 "
test,1583577410072141056,24," | 24  |   8748       3   8742       2 |   1   11      8634       110 |   1  40   15    0 9d0f |    0           0       0       0       8      0      0      0   8416     328       0  40    09d0f a70f     30.360 "
test,1583577410054248960,26," | 26  |   8748       5   8742       2 |   5    0      8710        34 |   5  15    0    0 b90f |    3.479       0       5       0       5     15     15      0   8558     186       3  15    0b90f a70f      9.720 "
test,1583577410076572928,27," | 27  |   8748       5   8746       0 |   1    8      8490       256 |   5  27   15    1 580f |    1.770       0       1       0       1     27     27      0   8158     588       2  27    1580f a70f     30.300 "
test,1583577410054457856,28," | 28  |   8748       4   8736       8 |   5    0      8057       687 |   3  15    0    0 b90f |    3.479       0       5       0       5     15     15      0   7713    1031       3  15    0b90f a70f      9.690 "
test,1583577410075930112,29," | 29  |   8748       5   8731      15 |   3    3      7746      1000 |   1  27   15    0 580f |    2.075       0       2       0       2     27     27      0   7374    1372       1  27    0580f a70f     30.390 "
test,1583577410053468928,30," | 30  |   8748       5   8740       4 |   5    0      8627       117 |   2  15    0    0 b90f |    2.777       0       5       0       5     15     15      0   8311     433       2  15    0b90f a70f      8.850 "
test,1583577410055490048,35," | 35  |   8748       5   8740       4 |   5    0      8334       410 |   3  15    0    0 b90f |    3.509       0       5       0       5     15     15      0   8143     601       3  15    0b90f a70f      9.630 "
test,1583577410050252800,45," | 45  |   8748       1   8700      44 |   4    0      8477       267 |   2  45    0    1 d30f |    3.814       0       4       0       4     45     45      0   8324     420       5  45    1d30f a70f      8.520 "
test,1583577410060142080,46," | 46  |   8748       1   8679      58 |   4    0      8319       418 |   4  45    0    0 d30f |    4.821       0       5       0       5     45     45      0   8186     551       5  45    0d30f a70f     10.830 "
test,1583577410051906048,49," | 49  |   8748       5   8738       0 |   5    0      8569       169 |   2  49    0    1 4a0f |    1.739       0       4       0       4     49     49      0   8508     230       2  49    14a0f a70f      6.480 "
test,1583577410058909952,51," | 51  |   8748       5   8739       0 |   5    0      8640        99 |   3  15    0    0 b90f |    4.943       0       5       0       5     15     15      0   8609     130       5  15    0b90f a70f     11.730 "
test,1583577410059478016,52," | 52  |   8748       5   8707      33 |   5    0      8307       433 |   6  15    0    0 b90f |    4.211       0       5       0       5     15     15      0   8163     577       4  15    0b90f a70f     11.100 "
test,1583577410052843008,53," | 53  |   8748       5   8722       0 |   5    0      8291       431 |   1  49    0    0 4a0f |    2.014       0       5       0       5     49     49      0   8203     519       1  49    04a0f a70f      8.250 "
test,1583577410075661056,54," | 54  |   8748       5   8740       0 |   5    0      8595       145 |   3  15    0    0 b90f |    5.523       0       4       0       4     15     15      0   8452     288       6  15    0b90f a70f     30.390 "
test,1583577410071501056,55," | 55  |   8748       5   8727       0 |   0    8      8403       324 |   0  55   49    1 4b0f |    0           0       0       0       8      0      0      0   8326     401       0  55    14b0f a70f     30.150 "
test,1583577410067207168,56," | 56  |   8748       5   8730       0 |   2    0      8601       129 |  12  15    0    0 b90f |    4.943       0       5       0       5     15     15      0   8496     234       5  15    0b90f a70f     11.010 "
test,1583577410055919872,57," | 57  |   8748       5   8685       0 |   5    0      8453       232 |   5  15    0    0 b90f |    4.241       0       5       0       5     15     15      0   7923     762       4  15    0b90f a70f     10.440 "
test,1583577410053869056,58," | 58  |   8748       5   8739       0 |   3    5      8620       119 |   3  49   10    0 4a0f |    2.044       0       5       0       5     49     49      0   8273     466       1  49    04a0f a70f      9.720 "
test,1583577410056681984,5," |  5  |   8748       5   8746       0 |   5    0      7941       805 |   1  15    0    0 b90f |    4.821       0       5       0       5     15     15      0   7798     948       5  15    0b90f a70f     10.920 "
test,1583577410072731904,60," | 60  |   8748       5   8739       0 |   0    6      8167       572 |   0  60   15    1 de0f |    0           0       0       0       8      0      0      0   7994     745       0  60    1de0f a70f     30.210 "
test,1583577410062333952,61," | 61  |   8748       5   8731       7 |   2    4      8337       401 |   6  49   10    0 4a0f |    2.777       0       5       0       5     49     49      0   8040     698       2  49    04a0f a70f     10.290 "
test,1583577410056168960,7," |  7  |   8748       5   8745       0 |   5    0      8619       126 |   2  15    0    0 b90f |    4.791       0       5       0       5     15     15      0   8559     186       5  15    0b90f a70f     10.980 "
test,1583577410058554880,9," |  9  |   8748       5   8744       0 |   5    0      8463       281 |   3  15    0    0 b90f |    4.791       0       5       0       5     15     15      0   8420     324       5  15    0b90f a70f     12.420 "
