test,1583577394803738112,10," | 10  |   8687       5   8659       0 |   5    0      8526       133 |   1  51    0    0 590f |    2.044       0       5       0       5     51     51      0   8435     224       1  51    0590f a70f      8.250 "
test,1583577394814411008,12," | 12  |   8687       5   8651      34 |   4    0      8595        90 |   4  51    0    0 590f |    3.509       0       5       0       5     51     51      0   8449     236       3  51    0590f a70f      9.720 "
test,1583577394804291072,13," | 13  |   8687       5   8683       0 |   5    0      8613        70 |   1  51    0    0 590f |    2.746       0       5       0       5     51     51      0   8529     154       2  51    0590f a70f      8.910 "
test,1583577394821594880,15," | 15  |   8687       4   8642      43 |   1    5      8319       366 |   1  20   51    0 6b0f |    0           0       0       0       8      0      0      0   7932     753       0  20    06b0f a70f     30.390 "
test,1583577394805324032,16," | 16  |   8687       5   8683       0 |   5    0      8339       344 |   1  52    0    0 3e0f |    2.746       0       5       0       5     52     52      0   8122     561       2  52    03e0f a70f      8.940 "
test,1583577394828609024,17," | 17  |   8687       5   8672      11 |   5    0      8567       116 |   6  52    0    0 3e0f |    2.716       0       3       0       3     52     52      0   8319     364       2  52    03e0f a70f     30.390 "
test,1583577394823899904,18," | 18  |   8687       5   8682       0 |   1   11      8206       476 |   4  24   22    0 ca0f |    0           0       0       0       8      0      0      0   7886     796       0  24    0ca0f a70f     30.360 "
test,1583577394825474048,19," | 19  |   8687       5   8666      17 |   5    1      8512       171 |   1  52   27    0 3e0f |    2.716       0       4       0       4     52     52      0   8279     404       2  52    03e0f a70f     30.360 "
test,1583577394802644992,1," |  1  |   8687       4   8684       0 |   5    0      8448       236 |   1  51    0    0 590f |    2.716       0       5       0       5     51     51      0   8393     291       1  51    0590f a70f      8.880 "
test,1583577394823357952,22," | 22  |   8687       5   8681       0 |   0    8      8608        73 |   0  22   52    1 660f |    0           0       0       0       8      0      0      0   8243     438       0  22    1660f a70f     30.210 "
test,1583577394802146048,23," | 23  |   8687       5   8625       0 |   5    0      8587        38 |   1  52    0    0 3e0f |    2.014       0       5       0       5     52     52      0   8428     197       1  52    03e0f a70f      8.100 "
test,1583577394821811968,24," | 24  |   8687       5   8681       2 |   1   11      8573       110 |   5  24   22    1 ca0f |    0           0       0       0       8      0      0      0   8358     325       0  24    1ca0f a70f     30.150 "
test,1583577394822611968,26," | 26  |   8687       5   8681       2 |   5    1      8650        33 |   1  52   24    0 3e0f |    2.716       0       4       0       4     52     52      0   8498     185       2  52    03e0f a70f     30.390 "
test,1583577394825273088,27," | 27  |   8687       5   8685       0 |   1    8      8430       255 |   5  27   52    1 740f |    3.814       0       1       0       1     27     27      0   8101     584       5  27    1740f a70f     30.300 "
test,1583577394825948928,28," | 28  |   8687       5   8675       8 |   4    6      7998       685 |   1  20   22    0 6b0f |    2.746       0       3       0       3     20     20      0   7659    1024       2  20    06b0f a70f     30.390 "
test,1583577394826780160,29," | 29  |   8687       5   8670      15 |   2    3      7689       996 |   4  27   52    0 740f |    2.044       0       3       0       3     27     27      0   7318    1367       1  27    0740f a70f     30.390 "
test,1583577394806041088,30," | 30  |   8687       5   8679       4 |   5    0      8566       117 |   1  20    0    0 6b0f |    2.044       0       5       0       5     20     20      0   8254     429       1  20    06b0f a70f      8.280 "
test,1583577394807808000,35," | 35  |   8687       5   8679       4 |   5    0      8275       408 |   2  20    0    0 6b0f |    2.716       0       5       0       5     20     20      0   8086     597       2  20    06b0f a70f      8.910 "
test,1583577394806524160,40," | 40  |   8687       5   8604      75 |   3    1      8176       503 |   1  41   24    0 a50f |    2.014       0       5       0       5     41     41      0   7969     710       1  41    0a50f a70f      9.600 "
test,1583577394802493184,41," | 41  |   8687       5   8613      60 |   1    2      8590        83 |   5  41   52    1 a50f |    1.739       0       4       0       4     41     41      0   8397     276       2  41    1a50f a70f      6.480 "
test,1583577394804975104,42," | 42  |   8687       5   8616      67 |   3    4      8529       154 |   1  41   22    0 a50f |    2.014       0       5       0       5     41     41      0   8353     330       1  41    0a50f a70f      9.690 "
test,1583577394807040000,44," | 44  |   8687       5   8625      58 |   3    6      8528       155 |   1  41   52    0 a50f |    2.014       0       5       0       5     41     41      0   8363     320       1  41    0a50f a70f      8.940 "
test,1583577394811474944,45," | 45  |   8687       5   8639      44 |   3    3      8420       263 |   1  41   52    0 a50f |    2.044       0       5       0       5     41     41      0   8269     414       1  41    0a50f a70f      8.880 "
test,1583577394804794112,46," | 46  |   8687       5   8618      58 |   3    0      8259       417 |   1  41    0    0 a50f |    2.075       0       5       0       5     41     41      0   8129     547       1  41    0a50f a70f      8.130 "
test,1583577394806898176,47," | 47  |   8687       5   8625      58 |   3    0      8419       264 |   1  41    0    0 a50f |    2.044       0       5       0       5     41     41      0   8271     412       1  41    0a50f a70f      8.910 "
test,1583577394801976064,48," | 48  |   8687       5   8561      55 |   3    3      8446       170 |   1  41   22    0 a50f |    2.044       0       5       0       5     41     41      0   8286     330       1  41    0a50f a70f      9.000 "
test,1583577394803260928,49," | 49  |   8687       5   8677       0 |   5    0      8511       166 |   1  53    0    0 170f |    1.983       0       5       0       5     53     53      0   8451     226       1  53    0170f a70f      8.190 "
test,1583577394801736192,51," | 51  |   8687       5   8678       0 |   4    0      8580        98 |   2  51    0    1 590f |    1.739       0       4       0       4     51     51      0   8550     128       2  51    1590f a70f      6.510 "
test,1583577394802996992,52," | 52  |   8687       3   8646      33 |   4    0      8246       433 |   2  52    0    1 3e0f |    1.770       0       4       0       4     52     52      0   8103     576       2  52    13e0f a70f      6.510 "
test,1583577394802825984,53," | 53  |   8687       5   8661       0 |   4    0      8233       428 |   2  53    0    1 170f |    1.739       0       4       0       4     53     53      0   8146     515       2  53    1170f a70f      6.510 "
test,1583577394813500928,54," | 54  |   8687       5   8679       0 |   3    2      8535       144 |   3  51   52    0 590f |    2.746       0       5       0       5     51     51      0   8392     287       2  51    0590f a70f     10.410 "
test,1583577394808940032,55," | 55  |   8687       5   8666       0 |   5    0      8345       321 |   1  53    0    0 170f |    1.983       0       5       0       5     53     53      0   8270     396       1  53    0170f a70f      8.190 "
test,1583577394803973888,56," | 56  |   8687       5   8669       0 |   2    2      8541       128 |   7  51   52    0 590f |    2.014       0       5       0       5     51     51      0   8436     233       1  51    0590f a70f      8.220 "
test,1583577394825740032,57," | 57  |   8687       4   8624       0 |   5    0      8394       230 |   2  52    0    0 3e0f |    3.509       0       2       0       2     52     52      0   7868     756       3  52    03e0f a70f     30.360 "
test,1583577394822814976,58," | 58  |   8687       5   8678       0 |   5    1      8560       118 |   3  52   53    0 3e0f |    0           0       0       0       8      0      0      0   8215     463       0  52    03e0f a70f     30.390 "
test,1583577394803510784,5," |  5  |   8687       5   8685       0 |   5    0      7888       797 |   2  51    0    0 590f |    3.479       0       5       0       5     51     51      0   7745     940       3  51    0590f a70f      9.540 "
test,1583577394805711872,60," | 60  |   8687       5   8678       0 |   1    1      8111       567 |   8  51   52    0 590f |    2.044       0       5       0       5     51     51      0   7938     740       1  51    0590f a70f      8.130 "
test,1583577394820972032,61," | 61  |   8687       5   8670       7 |   5    1      8281       396 |   3  52   51    0 3e0f |    0           0       0       0       8      0      0      0   7986     691       0  52    03e0f a70f     30.360 "
test,1583577394808161024,7," |  7  |   8687       5   8684       0 |   5    0      8559       125 |   1  51    0    0 590f |    2.746       0       5       0       5     51     51      0   8498     186       2  51    0590f a70f      8.850 "
test,1583577394807601920,9," |  9  |   8687       5   8683       0 |   5    0      8403       280 |   2  51    0    0 590f |    2.777       0       5       0       5     51     51      0   8360     323       2  51    0590f a70f      8.910 "
