test,1583577457305677056,10," | 10  |   8937       5   8909       0 |   4    5      8774       135 |   1  58   52    0 e20f |    2.044       0       5       0       5     58     58      0   8682     227       1  58    0e20f a70f      9.000 "
test,1583577457303415040,12," | 12  |   8937       5   8901      34 |   5    0      8845        90 |   1  58    0    0 e20f |    2.014       0       5       0       5     58     58      0   8698     237       1  58    0e20f a70f      8.250 "
test,1583577457323281152,13," | 13  |   8937       5   8933       0 |   5    0      8861        72 |   2  58    0    0 e20f |    2.777       0       4       0       4     58     58      0   8778     155       2  58    0e20f a70f     30.360 "
test,1583577457327193856,15," | 15  |   8937       5   8892      43 |   5    0      8557       378 |   2  58    0    0 e20f |    2.746       0       4       0       4     58     58      0   8166     769       2  58    0e20f a70f     30.390 "
test,1583577457304608000,16," | 16  |   8937       5   8933       0 |   5    0      8580       353 |   1  52    0    0 8c0f |    2.014       0       5       0       5     52     52      0   8356     577       1  52    08c0f a70f      9.570 "
test,1583577457324027136,17," | 17  |   8937       5   8922      11 |   0   10      8813       120 |   0  17   52    1 550f |    0           0       0       0       8      0      0      0   8562     371       0  17    1550f a70f     30.210 "
test,1583577457311547136,18," | 18  |   8937       5   8932       0 |   5    0      8442       490 |   2  52    0    0 8c0f |    3.479       0       5       0       5     52     52      0   8111     821       3  52    08c0f a70f     11.130 "
test,1583577457326844928,19," | 19  |   8937       5   8915      18 |   4    5      8757       176 |   1  52   17    0 8c0f |    2.777       0       2       0       2     52     52      0   8517     416       2  52    08c0f a70f     30.390 "
test,1583577457304172032,1," |  1  |   8937       4   8934       0 |   5    0      8689       245 |   2  58    0    0 e20f |    3.448       0       5       0       5     58     58      0   8634     300       2  58    0e20f a70f      9.510 "
test,1583577457309843968,22," | 22  |   8937       5   8931       0 |   5    0      8857        74 |   2  52    0    0 8c0f |    3.509       0       5       0       5     52     52      0   8482     449       3  52    08c0f a70f     10.230 "
test,1583577457306365952,23," | 23  |   8937       5   8875       0 |   5    0      8837        38 |   1  52    0    0 8c0f |    2.044       0       5       0       5     52     52      0   8673     202       1  52    08c0f a70f     10.440 "
test,1583577457306724096,24," | 24  |   8937       5   8931       2 |   5    0      8821       112 |   1  52    0    0 8c0f |    3.509       0       5       0       5     52     52      0   8599     334       3  52    08c0f a70f     10.440 "
test,1583577457324904960,26," | 26  |   8937       5   8931       2 |   5    0      8898        35 |   1  52    0    0 8c0f |    2.777       0       4       0       4     52     52      0   8745     188       2  52    08c0f a70f     30.390 "
test,1583577457325696000,27," | 27  |   8937       5   8935       0 |   4    5      8675       260 |   4  52   17    0 8c0f |    2.777       0       4       0       4     52     52      0   8338     597       2  52    08c0f a70f     30.300 "
test,1583577457324737024,28," | 28  |   8937       5   8925       8 |   5    0      8233       700 |   1  30    0    0 1d0f |    2.044       0       4       0       4     30     30      0   7875    1058       1  30    01d0f a70f     30.300 "
test,1583577457327017984,29," | 29  |   8937       4   8920      15 |   4    0      7916      1019 |   5  52    0    0 8c0f |    5.706       0       3       0       3     52     52      0   7538    1397       6  52    08c0f a70f     30.270 "
test,1583577457302427904,30," | 30  |   8937       5   8929       4 |   5    0      8814       119 |   2  30    0    1 1d0f |    1.739       0       4       0       4     30     30      0   8485     448       2  30    11d0f a70f      6.510 "
test,1583577457302927104,35," | 35  |   8937       5   8929       4 |   5    0      8517       416 |   1  30    0    0 1d0f |    2.014       0       5       0       5     30     30      0   8317     616       1  30    01d0f a70f      8.160 "
test,1583577457307040000,40," | 40  |   8937       4   8846      83 |   5    0      8405       524 |   2  44    0    0 5b0f |    2.014       0       5       0       5     44     44      0   8182     747       1  44    05b0f a70f      9.570 "
test,1583577457305501952,41," | 41  |   8937       5   8856      67 |   4    5      8829        94 |   2  44   17    0 5b0f |    2.044       0       5       0       5     44     44      0   8626     297       1  44    05b0f a70f      8.880 "
test,1583577457308016896,42," | 42  |   8937       5   8859      74 |   4    0      8767       166 |   4  44    0    0 5b0f |    2.044       0       5       0       5     44     44      0   8575     358       1  44    05b0f a70f      8.880 "
test,1583577457298603008,44," | 44  |   8937       5   8868      65 |   4    0      8767       166 |   2  44    0    1 5b0f |    1.739       0       4       0       4     44     44      0   8591     342       2  44    15b0f a70f      6.510 "
test,1583577457298289152,45," | 45  |   8937       5   8885      48 |   5    0      8656       277 |   2  44    0    0 5b0f |    2.044       0       5       0       5     44     44      0   8493     440       1  44    05b0f a70f      8.160 "
test,1583577457299451136,46," | 46  |   8937       5   8862      64 |   5    0      8497       429 |   1  44    0    0 5b0f |    1.983       0       5       0       5     44     44      0   8355     571       1  44    05b0f a70f      8.940 "
test,1583577457308525056,47," | 47  |   8937       5   8867      66 |   5    0      8653       280 |   1  44    0    0 5b0f |    1.983       0       5       0       5     44     44      0   8493     440       1  44    05b0f a70f      8.940 "
test,1583577457307496192,48," | 48  |   8937       5   8804      62 |   5    0      8688       178 |   1  44    0    0 5b0f |    2.014       0       5       0       5     44     44      0   8515     351       1  44    05b0f a70f      8.970 "
test,1583577457308903936,49," | 49  |   8937       5   8927       0 |   5    0      8756       171 |   1  58    0    0 e20f |    2.044       0       5       0       5     58     58      0   8696     231       1  58    0e20f a70f      8.160 "
test,1583577457308363008,51," | 51  |   8937       5   8928       0 |   5    0      8826       102 |  12  52    0    0 8c0f |    4.211       0       5       0       5     52     52      0   8793     135       4  52    08c0f a70f     10.440 "
test,1583577457304869888,52," | 52  |   8937       5   8896      33 |   4    0      8484       445 |   4  52    0    1 8c0f |    1.770       0       4       0       4     52     52      0   8333     596       2  52    18c0f a70f      7.230 "
test,1583577457307312896,53," | 53  |   8937       5   8911       0 |   5    0      8469       442 |   2  58    0    0 e20f |    2.746       0       5       0       5     58     58      0   8381     530       2  58    0e20f a70f      8.940 "
test,1583577457303873024,54," | 54  |   8937       5   8929       0 |   5    0      8781       148 |   1  58    0    0 e20f |    2.044       0       5       0       5     58     58      0   8638     291       1  58    0e20f a70f      8.280 "
test,1583577457304371200,55," | 55  |   8937       5   8916       0 |   5    0      8586       330 |   1  58    0    0 e20f |    2.044       0       5       0       5     58     58      0   8508     408       1  58    0e20f a70f      8.250 "
test,1583577457311997952,56," | 56  |   8937       5   8919       0 |   5    0      8788       131 |  11  52    0    0 8c0f |    3.540       0       5       0       5     52     52      0   8683     236       3  52    08c0f a70f      9.570 "
test,1583577457309094912,57," | 57  |   8937       5   8874       0 |   5    0      8636       238 |   2  52    0    0 8c0f |    2.746       0       5       0       5     52     52      0   8097     777       2  52    08c0f a70f      8.910 "
test,1583577457327941888,58," | 58  |   8937       5   8928       0 |   4    0      8804       124 |   2  58    0    1 e20f |    1.739       0       3       0       3     58     58      0   8440     488       2  58    1e20f a70f     30.300 "
test,1583577457307692032,5," |  5  |   8937       5   8935       0 |   5    0      8109       826 |   2  58    0    0 e20f |    2.777       0       5       0       5     58     58      0   7965     970       2  58    0e20f a70f      9.000 "
test,1583577457305957120,60," | 60  |   8937       5   8928       0 |   5    0      8339       589 |   3  52    0    0 8c0f |    3.509       0       5       0       5     52     52      0   8161     767       3  52    08c0f a70f      9.690 "
test,1583577457324374016,61," | 61  |   8937       5   8911      16 |   5    0      8510       417 |   1  58    0    0 e20f |    2.044       0       3       0       3     58     58      0   8204     723       1  58    0e20f a70f     30.360 "
test,1583577457305089024,7," |  7  |   8937       5   8934       0 |   5    0      8808       126 |   2  58    0    0 e20f |    2.746       0       5       0       5     58     58      0   8747     187       2  58    0e20f a70f      8.970 "
test,1583577457310144000,9," |  9  |   8937       5   8933       0 |   5    0      8648       285 |   2  58    0    0 e20f |    2.746       0       5       0       5     58     58      0   8605     328       2  58    0e20f a70f      8.970 "
