test,1583577327551286016,10," | 10  |   8418       5   8390       0 |   5    0      8261       129 |   1  54    0    0  30f |    2.014       0       5       0       5     54     54      0   8171     219       1  54    0 30f a70f      8.220 "
test,1583577327562700032,12," | 12  |   8418       5   8382      34 |   5    0      8330        86 |   1  54    0    0  30f |    2.777       0       5       0       5     54     54      0   8186     230       2  54    0 30f a70f      9.000 "
test,1583577327552637952,13," | 13  |   8418       5   8414       0 |   5    0      8348        66 |   1  54    0    0  30f |    2.777       0       5       0       5     54     54      0   8265     149       2  54    0 30f a70f      9.690 "
test,1583577327558955008,15," | 15  |   8418       5   8373      43 |   5    0      8062       354 |   2  54    0    0  30f |    3.479       0       5       0       5     54     54      0   7686     730       3  54    0 30f a70f      9.510 "
test,1583577327547473920,16," | 16  |   8418       5   8414       0 |   4    0      8088       326 |   2  16    0    1 3b0f |    1.739       0       4       0       4     16     16      0   7873     541       2  16    13b0f a70f      6.510 "
test,1583577327573387008,17," | 17  |   8418       4   8403      11 |   5    0      8302       112 |   1  16    0    0 3b0f |    2.746       0       4       0       4     16     16      0   8057     357       2  16    03b0f a70f     30.390 "
test,1583577327553431040,18," | 18  |   8418       5   8413       0 |   5    0      7950       463 |   2  16    0    0 3b0f |    2.746       0       5       0       5     16     16      0   7637     776       2  16    03b0f a70f      8.790 "
test,1583577327571526912,19," | 19  |   8418       5   8397      17 |   0    3      8249       165 |   0  19   16    1 c10f |    0           0       0       0       8      0      0      0   8019     395       0  19    1c10f a70f     30.180 "
test,1583577327550940160,1," |  1  |   8418       4   8415       0 |   5    0      8189       226 |   1  54    0    0  30f |    2.716       0       5       0       5     54     54      0   8134     281       1  54    0 30f a70f      8.820 "
test,1583577327553745920,22," | 22  |   8418       5   8412       0 |   5    0      8341        71 |   2  16    0    0 3b0f |    2.716       0       5       0       5     16     16      0   7983     429       2  16    03b0f a70f      8.940 "
test,1583577327550301184,23," | 23  |   8418       5   8356       0 |   5    0      8319        37 |   1  16    0    0 3b0f |    2.044       0       5       0       5     16     16      0   8161     195       1  16    03b0f a70f      8.220 "
test,1583577327552800768,24," | 24  |   8418       5   8412       2 |   5    0      8307       107 |   2  16    0    0 3b0f |    2.716       0       5       0       5     16     16      0   8098     316       2  16    03b0f a70f      8.910 "
test,1583577327552131840,26," | 26  |   8418       5   8412       2 |   5    0      8382        32 |   1  16    0    0 3b0f |    2.044       0       5       0       5     16     16      0   8232     182       1  16    03b0f a70f      8.910 "
test,1583577327571942144,27," | 27  |   8418       5   8416       0 |   0    2      8167       249 |   0  27   16    1 170f |    0           0       0       0       8      0      0      0   7846     570       0  27    1170f a70f     30.270 "
test,1583577327574635008,28," | 28  |   8418       5   8406       8 |   5    0      7743       671 |   2  16    0    0 3b0f |    5.645       0       3       0       3     16     16      0   7414    1000       6  16    03b0f a70f     30.270 "
test,1583577327572145920,29," | 29  |   8418       5   8402      14 |   0    0      7450       966 |   0  29    0    1 e80f |    0           0       0       0       8      0      0      0   7086    1330       0  29    1e80f a70f     30.180 "
test,1583577327573159936,30," | 30  |   8418       5   8410       4 |   5    0      8298       116 |   3  16    0    0 3b0f |    4.913       0       4       0       4     16     16      0   7994     420       5  16    03b0f a70f     30.300 "
test,1583577327575057920,35," | 35  |   8418       5   8410       4 |   5    0      8017       397 |   3  16    0    0 3b0f |    4.943       0       4       0       4     16     16      0   7832     582       5  16    03b0f a70f     30.360 "
test,1583577327573947904,40," | 40  |   8418       5   8335      75 |   5    0      7933       477 |   3  16    0    0 3b0f |    4.211       0       3       0       3     16     16      0   7730     680       4  16    03b0f a70f     30.390 "
test,1583577327558149120,41," | 41  |   8418       5   8344      60 |   5    0      8324        80 |   1  16    0    0 3b0f |    1.983       0       5       0       5     16     16      0   8134     270       1  16    03b0f a70f      8.040 "
test,1583577327556727040,42," | 42  |   8418       5   8347      67 |   5    0      8264       150 |   2  16    0    0 3b0f |    2.716       0       5       0       5     16     16      0   8091     323       2  16    03b0f a70f      8.790 "
test,1583577327553246976,44," | 44  |   8418       5   8356      58 |   5    0      8265       149 |   2  16    0    0 3b0f |    2.746       0       5       0       5     16     16      0   8104     310       2  16    03b0f a70f      8.850 "
test,1583577327558751232,45," | 45  |   8418       5   8370      44 |   5    0      8159       255 |   1  16    0    0 3b0f |    2.777       0       5       0       5     16     16      0   8013     401       2  16    03b0f a70f      8.850 "
test,1583577327556494080,46," | 46  |   8418       5   8349      58 |   5    0      7999       408 |   2  16    0    0 3b0f |    2.746       0       5       0       5     16     16      0   7871     536       2  16    03b0f a70f      8.940 "
test,1583577327560389888,47," | 47  |   8418       5   8356      58 |   5    0      8156       258 |   2  16    0    0 3b0f |    2.746       0       5       0       5     16     16      0   8012     402       2  16    03b0f a70f      8.970 "
test,1583577327575324160,48," | 48  |   8418       5   8292      55 |   5    0      8179       168 |   2  16    0    0 3b0f |    2.716       0       4       0       4     16     16      0   8021     326       2  16    03b0f a70f     30.240 "
test,1583577327561683968,49," | 49  |   8418       5   8408       0 |   5   12      8246       162 |   1  53   55    0  a0f |    2.014       0       5       0       5     53     53      0   8187     221       1  53    0 a0f a70f      8.220 "
test,1583577327558429952,51," | 51  |   8418       5   8409       0 |   5    0      8313        96 |   2  54    0    0  30f |    2.777       0       5       0       5     54     54      0   8285     124       2  54    0 30f a70f      9.000 "
test,1583577327550627072,52," | 52  |   8418       5   8377      33 |   4    6      7987       423 |   1  16   19    0 3b0f |    2.014       0       5       0       5     16     16      0   7845     565       1  16    03b0f a70f      8.220 "
test,1583577327551525120,53," | 53  |   8418       5   8392       0 |   4    9      7977       415 |   5  53   55    1  a0f |    1.739       0       4       0       4     53     53      0   7892     500       2  53    1 a0f a70f      6.510 "
test,1583577327554979072,54," | 54  |   8418       5   8410       0 |   4    0      8268       142 |   2  54    0    1  30f |    1.739       0       4       0       4     54     54      0   8129     281       2  54    1 30f a70f      7.200 "
test,1583577327574846976,55," | 55  |   8418       5   8397       0 |   4    0      8083       314 |  14  55    0    1 e00f |   10.253       0       3       0       3     55     55      0   8012     385      14  55    1e00f a70f     30.270 "
test,1583577327554307840,56," | 56  |   8418       5   8400       0 |   5    0      8273       127 |   2  54    0    0  30f |    2.777       0       5       0       5     54     54      0   8172     228       2  54    0 30f a70f      8.970 "
test,1583577327555255040,57," | 57  |   8418       5   8355       0 |   1    6      8134       221 |   2  16   19    0 3b0f |    2.746       0       5       0       5     16     16      0   7620     735       2  16    03b0f a70f      8.970 "
test,1583577327556014080,58," | 58  |   8418       5   8409       0 |   5    4      8295       114 |   1  55   54    0 e00f |    2.044       0       5       0       5     55     55      0   7956     453       1  55    0e00f a70f     13.710 "
test,1583577327554030848,5," |  5  |   8418       5   8416       0 |   5    0      7647       769 |   2  54    0    0  30f |    3.479       0       5       0       5     54     54      0   7506     910       3  54    0 30f a70f      9.600 "
test,1583577327559191040,60," | 60  |   8418       5   8409       0 |   5    0      7858       551 |   3  54    0    0  30f |    3.509       0       5       0       5     54     54      0   7691     718       3  54    0 30f a70f      9.570 "
test,1583577327576515840,61," | 61  |   8418       5   8401       7 |   5    0      8030       378 |   1  54    0    0  30f |    2.014       0       3       0       3     54     54      0   7744     664       1  54    0 30f a70f     30.300 "
test,1583577327550055936,7," |  7  |   8418       5   8415       0 |   5    0      8293       122 |   1  54    0    0  30f |    2.014       0       5       0       5     54     54      0   8234     181       1  54    0 30f a70f      8.250 "
test,1583577327552988928,9," |  9  |   8418       5   8414       0 |   5    0      8137       277 |   1  54    0    0  30f |    2.014       0       5       0       5     54     54      0   8095     319       1  54    0 30f a70f      8.160 "
