test,1583577354300140032,10," | 10  |   8525       5   8497       0 |   5    0      8366       131 |   1   1    0    0 3a0f |    1.342       0       5       0       5      1      1      0   8275     222       1   1    03a0f a70f      7.560 "
test,1583577354310211840,12," | 12  |   8525       5   8489      34 |   5    1      8436        87 |   1   1   49    0 3a0f |    1.342       0       5       0       5      1      1      0   8292     231       1   1    03a0f a70f      8.220 "
test,1583577354300952832,13," | 13  |   8525       5   8521       0 |   5    0      8452        69 |   1   1    0    0 3a0f |    1.373       0       5       0       5      1      1      0   8369     152       1   1    03a0f a70f      7.620 "
test,1583577354321445888,15," | 15  |   8525       5   8480      43 |   5    0      8164       359 |   2   1    0    0 3a0f |    2.105       0       4       0       4      1      1      0   7785     738       2   1    03a0f a70f     30.360 "
test,1583577354322184960,16," | 16  |   8525       5   8521       0 |   0    7      8186       335 |   0  16   35    1 310f |    0           0       0       0       8      0      0      0   7970     551       0  16    1310f a70f     30.150 "
test,1583577354304635904,17," | 17  |   8525       5   8510      11 |   5    0      8407       114 |   2  35    0    0 e90f |    2.777       0       5       0       5     35     35      0   8160     361       2  35    0e90f a70f      9.000 "
test,1583577354304100096,18," | 18  |   8525       5   8520       0 |   5    0      8052       468 |   2  35    0    0 e90f |    2.746       0       5       0       5     35     35      0   7736     784       2  35    0e90f a70f      8.970 "
test,1583577354308634880,19," | 19  |   8525       5   8504      17 |   5    0      8354       167 |   3  35    0    0 e90f |    3.479       0       5       0       5     35     35      0   8121     400       3  35    0e90f a70f      9.720 "
test,1583577354299593984,1," |  1  |   8525       4   8522       0 |   4    0      8290       232 |   5   1    0    1 3a0f |    1.739       0       4       0       4      1      1      0   8235     287       2   1    13a0f a70f      6.480 "
test,1583577354303024128,22," | 22  |   8525       5   8519       0 |   5    0      8448        71 |   1  35    0    0 e90f |    2.044       0       5       0       5     35     35      0   8086     433       1  35    0e90f a70f      8.220 "
test,1583577354322900992,23," | 23  |   8525       5   8463       0 |   4    5      8426        37 |   4  35   16    0 e90f |    2.777       0       4       0       4     35     35      0   8267     196       2  35    0e90f a70f     30.390 "
test,1583577354314209024,24," | 24  |   8525       5   8519       2 |   5    0      8413       108 |   2  35    0    0 e90f |    2.807       0       5       0       5     35     35      0   8201     320       2  35    0e90f a70f      9.000 "
test,1583577354303205888,26," | 26  |   8525       5   8519       2 |   5    0      8488        33 |   2  35    0    0 e90f |    2.807       0       5       0       5     35     35      0   8337     184       2  35    0e90f a70f      9.030 "
test,1583577354305725184,27," | 27  |   8525       5   8523       0 |   5    0      8271       252 |   3  35    0    0 e90f |    3.540       0       5       0       5     35     35      0   7946     577       3  35    0e90f a70f     10.470 "
test,1583577354324043008,28," | 28  |   8525       4   8513       8 |   4    0      7842       679 |   1  35    0    0 e90f |    2.044       0       4       0       4     35     35      0   7510    1011       1  35    0e90f a70f     30.360 "
test,1583577354325555968,29," | 29  |   8525       5   8509      14 |   3    0      7548       975 |   8  35    0    0 e90f |    5.737       0       4       0       4     35     35      0   7182    1341       6  35    0e90f a70f     30.240 "
test,1583577354301209088,30," | 30  |   8525       5   8517       4 |   5    0      8405       116 |   1  35    0    0 e90f |    2.014       0       5       0       5     35     35      0   8098     423       1  35    0e90f a70f      8.250 "
test,1583577354302541056,35," | 35  |   8525       5   8517       4 |   4    0      8120       401 |   2  35    0    1 e90f |    1.739       0       4       0       4     35     35      0   7934     587       2  35    1e90f a70f      6.480 "
test,1583577354307986944,40," | 40  |   8525       5   8442      75 |   2    1      8029       488 |   3  45   35    0 ea0f |    2.746       0       5       0       5     45     45      0   7823     694       2  45    0ea0f a70f     10.410 "
test,1583577354306585088,41," | 41  |   8525       5   8451      60 |   2    1      8431        80 |   2  45   35    0 ea0f |    2.044       0       5       0       5     45     45      0   8239     272       1  45    0ea0f a70f      8.100 "
test,1583577354305449984,42," | 42  |   8525       5   8454      67 |   2    1      8368       153 |   2  45   35    0 ea0f |    2.044       0       5       0       5     45     45      0   8193     328       1  45    0ea0f a70f      8.250 "
test,1583577354303616000,44," | 44  |   8525       5   8463      58 |   3    2      8371       150 |   1  45   35    0 ea0f |    2.044       0       5       0       5     45     45      0   8210     311       1  45    0ea0f a70f      8.250 "
test,1583577354301840896,45," | 45  |   8525       5   8477      44 |   2    0      8263       258 |   2  45    0    1 ea0f |    1.739       0       4       0       4     45     45      0   8116     405       2  45    1ea0f a70f      6.510 "
test,1583577354324826112,46," | 46  |   8525       5   8456      58 |   3    0      8104       410 |   1  45    0    0 ea0f |    2.044       0       4       0       4     45     45      0   7973     541       1  45    0ea0f a70f     30.360 "
test,1583577354309964032,47," | 47  |   8525       5   8463      58 |   3    0      8260       261 |   1  45    0    0 ea0f |    3.509       0       5       0       5     45     45      0   8114     407       3  45    0ea0f a70f     11.160 "
test,1583577354306123008,48," | 48  |   8525       5   8399      55 |   2    1      8286       168 |   2  45   35    0 ea0f |    2.044       0       5       0       5     45     45      0   8126     328       1  45    0ea0f a70f      8.310 "
test,1583577354302379008,49," | 49  |   8525       5   8515       0 |   4    0      8350       165 |   2  49    0    1 ec0f |    1.739       0       4       0       4     49     49      0   8291     224       2  49    1ec0f a70f      6.480 "
test,1583577354299844096,51," | 51  |   8525       5   8516       0 |   5    0      8419        97 |   1   1    0    0 3a0f |    1.312       0       5       0       5      1      1      0   8390     126       1   1    03a0f a70f      7.470 "
test,1583577354307065088,52," | 52  |   8525       5   8484      33 |   5    0      8089       428 |   5  35    0    0 e90f |    3.479       0       5       0       5     35     35      0   7946     571       3  35    0e90f a70f      9.690 "
test,1583577354304316160,53," | 53  |   8525       5   8499       0 |   5    0      8080       419 |   1  49    0    0 ec0f |    1.983       0       5       0       5     49     49      0   7994     505       1  49    0ec0f a70f      8.220 "
test,1583577354323895808,54," | 54  |   8525       5   8517       0 |   1    7      8373       144 |   3  49    1    0 ec0f |    8.575       0       3       0       3     49     49      0   8235     282      10  49    0ec0f a70f     30.330 "
test,1583577354305213952,55," | 55  |   8525       5   8504       0 |   5    0      8187       317 |   1  49    0    0 ec0f |    2.014       0       5       0       5     49     49      0   8114     390       1  49    0ec0f a70f      8.250 "
test,1583577354312236032,56," | 56  |   8525       5   8507       0 |   5    0      8379       128 |   2   1    0    0 3a0f |    2.105       0       5       0       5      1      1      0   8277     230       2   1    03a0f a70f      8.220 "
test,1583577354324406016,57," | 57  |   8525       5   8462       0 |   1    4      8238       224 |   2  49   35    0 ec0f |   10.803       0       2       0       2     49     49      0   7718     744      13  49    0ec0f a70f     30.390 "
test,1583577354315099904,58," | 58  |   8525       4   8516       0 |   5    0      8401       115 |   1  49    0    0 ec0f |    2.014       0       5       0       5     49     49      0   8060     456       1  49    0ec0f a70f      9.660 "
test,1583577354302014976,5," |  5  |   8525       5   8523       0 |   5    0      7744       779 |   2   1    0    0 3a0f |    2.075       0       5       0       5      1      1      0   7602     921       2   1    03a0f a70f      8.280 "
test,1583577354309037824,60," | 60  |   8525       5   8516       0 |   5    0      7959       557 |   2   1    0    0 3a0f |    2.075       0       5       0       5      1      1      0   7790     726       2   1    03a0f a70f      8.280 "
test,1583577354307392000,61," | 61  |   8525       5   8508       7 |   5    0      8132       383 |   2  49    0    0 ec0f |    2.746       0       5       0       5     49     49      0   7843     672       2  49    0ec0f a70f     11.850 "
test,1583577354300424960,7," |  7  |   8525       5   8522       0 |   5    1      8400       122 |   1   1   49    0 3a0f |    1.373       0       5       0       5      1      1      0   8340     182       1   1    03a0f a70f      7.560 "
test,1583577354302806016,9," |  9  |   8525       5   8521       0 |   5    0      8244       277 |   1   1    0    0 3a0f |    1.342       0       5       0       5      1      1      0   8202     319       1   1    03a0f a70f      7.590 "
