test,1583577369551390976,10," | 10  |   8586       5   8558       0 |   5    0      8427       131 |   1  54    0    0 c70f |    2.044       0       5       0       5     54     54      0   8336     222       1  54    0c70f a70f      8.130 "
test,1583577369553486080,12," | 12  |   8586       5   8550      34 |   5    0      8497        87 |   1  54    0    0 c70f |    2.044       0       5       0       5     54     54      0   8352     232       1  54    0c70f a70f      8.160 "
test,1583577369554814976,13," | 13  |   8586       5   8582       0 |   5    0      8513        69 |   1  54    0    0 c70f |    2.014       0       5       0       5     54     54      0   8430     152       1  54    0c70f a70f      8.970 "
test,1583577369572691968,15," | 15  |   8586       5   8541      43 |   1    4      8222       362 |   2  30   54    0 be0f |    0           0       0       0       8      0      0      0   7839     745       0  30    0be0f a70f     30.390 "
test,1583577369557763072,16," | 16  |   8586       5   8582       0 |   5    0      8240       342 |   1  41    0    0 b70f |    2.014       0       5       0       5     41     41      0   8023     559       1  41    0b70f a70f      8.100 "
test,1583577369556561920,17," | 17  |   8586       5   8571      11 |   5    0      8468       114 |   1  41    0    0 b70f |    2.044       0       5       0       5     41     41      0   8220     362       1  41    0b70f a70f      8.130 "
test,1583577369555680000,18," | 18  |   8586       5   8581       0 |   5    0      8109       472 |   2  41    0    0 b70f |    3.479       0       5       0       5     41     41      0   7792     789       3  41    0b70f a70f      9.510 "
test,1583577369561024000,19," | 19  |   8586       5   8565      17 |   5    0      8415       167 |   2  41    0    0 b70f |    2.777       0       5       0       5     41     41      0   8181     401       2  41    0b70f a70f      8.910 "
test,1583577369555897856,1," |  1  |   8586       4   8583       0 |   5    0      8350       233 |   1  54    0    0 c70f |    2.685       0       5       0       5     54     54      0   8295     288       1  54    0c70f a70f      8.910 "
test,1583577369558700032,22," | 22  |   8586       5   8580       0 |   5    0      8508        72 |   2  41    0    0 b70f |    2.716       0       5       0       5     41     41      0   8146     434       2  41    0b70f a70f      8.940 "
test,1583577369554202112,23," | 23  |   8586       5   8524       0 |   5    0      8487        37 |   2  41    0    0 b70f |    2.777       0       5       0       5     41     41      0   8327     197       2  41    0b70f a70f      8.970 "
test,1583577369555236096,24," | 24  |   8586       5   8580       2 |   5    0      8474       108 |   1  41    0    0 b70f |    3.479       0       5       0       5     41     41      0   8262     320       3  41    0b70f a70f      9.510 "
test,1583577369552939008,26," | 26  |   8586       5   8580       2 |   5    0      8549        33 |   2  41    0    0 b70f |    2.716       0       5       0       5     41     41      0   8398     184       2  41    0b70f a70f      8.940 "
test,1583577369558914816,27," | 27  |   8586       5   8584       0 |   5    0      8332       252 |   2  41    0    0 b70f |    3.448       0       5       0       5     41     41      0   8005     579       3  41    0b70f a70f      9.690 "
test,1583577369554619136,28," | 28  |   8586       4   8574       8 |   3    1      7900       682 |   1  30   41    0 be0f |    2.044       0       5       0       5     30     30      0   7565    1017       1  30    0be0f a70f      8.130 "
test,1583577369560698880,29," | 29  |   8586       5   8569      15 |   4    0      7600       984 |   3  41    0    0 b70f |    3.448       0       5       0       5     41     41      0   7233    1351       3  41    0b70f a70f     10.380 "
test,1583577369552335104,30," | 30  |   8586       3   8578       4 |   4    0      8466       116 |   2  30    0    1 be0f |    1.739       0       4       0       4     30     30      0   8157     425       2  30    1be0f a70f      6.510 "
test,1583577369553092096,35," | 35  |   8586       3   8578       4 |   5    0      8175       407 |   1  30    0    0 be0f |    2.014       0       5       0       5     30     30      0   7989     593       1  30    0be0f a70f      8.220 "
test,1583577369573897984,40," | 40  |   8586       5   8503      75 |   5    0      8087       491 |   1  41    0    0 b70f |    1.983       0       4       0       4     41     41      0   7880     698       1  41    0b70f a70f     30.390 "
test,1583577369574306048,41," | 41  |   8586       5   8512      60 |   4    0      8490        82 |   2  41    0    1 b70f |    5.401       0       3       0       3     41     41      0   8298     274       7  41    1b70f a70f     30.300 "
test,1583577369556779008,42," | 42  |   8586       5   8515      67 |   5    0      8428       154 |   1  41    0    0 b70f |    1.953       0       5       0       5     41     41      0   8253     329       1  41    0b70f a70f      9.630 "
test,1583577369554995968,44," | 44  |   8586       5   8524      58 |   5    0      8431       151 |   1  41    0    0 b70f |    2.044       0       5       0       5     41     41      0   8269     313       1  41    0b70f a70f      8.820 "
test,1583577369562365952,45," | 45  |   8586       5   8538      44 |   5    0      8322       260 |   1  41    0    0 b70f |    2.014       0       5       0       5     41     41      0   8173     409       1  41    0b70f a70f      9.690 "
test,1583577369558428160,46," | 46  |   8586       5   8517      58 |   5    0      8164       411 |   1  41    0    0 b70f |    1.983       0       5       0       5     41     41      0   8033     542       1  41    0b70f a70f      9.480 "
test,1583577369575529984,47," | 47  |   8586       5   8524      58 |   5    0      8321       261 |   1  41    0    0 b70f |    1.983       0       4       0       4     41     41      0   8175     407       1  41    0b70f a70f     30.390 "
test,1583577369555442176,48," | 48  |   8586       5   8460      55 |   5    0      8346       169 |   1  41    0    0 b70f |    2.014       0       5       0       5     41     41      0   8186     329       1  41    0b70f a70f      9.690 "
test,1583577369573486080,49," | 49  |   8586       5   8576       0 |   5    0      8410       166 |   2  54    0    0 c70f |    2.746       0       3       0       3     54     54      0   8350     226       2  54    0c70f a70f     30.300 "
test,1583577369556286976,51," | 51  |   8586       5   8577       0 |   5    0      8479        98 |   2  54    0    0 c70f |    2.746       0       5       0       5     54     54      0   8451     126       2  54    0c70f a70f      8.880 "
test,1583577369559954944,52," | 52  |   8586       4   8545      33 |   4    0      8149       429 |   3  41    0    0 b70f |    2.777       0       5       0       5     41     41      0   8005     573       2  41    0b70f a70f     10.350 "
test,1583577369571700992,53," | 53  |   8586       5   8560       0 |   0    4      8139       421 |   0  53   54    1  20f |    0           0       0       0       8      0      0      0   8052     508       0  53    1 20f a70f     30.210 "
test,1583577369551110912,54," | 54  |   8586       5   8578       0 |   4    0      8434       144 |   4  54    0    1 c70f |    1.739       0       4       0       4     54     54      0   8293     285       2  54    1c70f a70f      6.480 "
test,1583577369574116096,55," | 55  |   8586       5   8565       0 |   5    0      8247       318 |   2  54    0    0 c70f |    2.746       0       3       0       3     54     54      0   8173     392       2  54    0c70f a70f     30.360 "
test,1583577369559325952,56," | 56  |   8586       5   8568       0 |   5    0      8440       128 |   2  54    0    0 c70f |    2.746       0       5       0       5     54     54      0   8337     231       2  54    0c70f a70f      8.940 "
test,1583577369574752000,57," | 57  |   8586       5   8523       0 |   5    0      8296       227 |   3  54    0    0 c70f |    5.676       0       3       0       3     54     54      0   7774     749       6  54    0c70f a70f     30.390 "
test,1583577369552033024,58," | 58  |   8586       5   8577       0 |   5    0      8461       116 |   1  54    0    0 c70f |    1.983       0       5       0       5     54     54      0   8118     459       1  54    0c70f a70f      8.250 "
test,1583577369553287936,5," |  5  |   8586       5   8584       0 |   5    0      7799       785 |   2  54    0    0 c70f |    2.716       0       5       0       5     54     54      0   7657     927       2  54    0c70f a70f      8.940 "
test,1583577369558108160,60," | 60  |   8586       5   8577       0 |   5    0      8015       562 |   3  54    0    0 c70f |    3.479       0       5       0       5     54     54      0   7843     734       3  54    0c70f a70f      9.690 "
test,1583577369552585984,61," | 61  |   8586       5   8569       7 |   5    0      8187       389 |   1  54    0    0 c70f |    1.983       0       5       0       5     54     54      0   7895     681       1  54    0c70f a70f      8.220 "
test,1583577369552769792,7," |  7  |   8586       5   8583       0 |   5    0      8459       124 |   1  54    0    0 c70f |    1.983       0       5       0       5     54     54      0   8399     184       1  54    0c70f a70f      8.220 "
test,1583577369554387200,9," |  9  |   8586       5   8582       0 |   5    0      8304       278 |   1  54    0    0 c70f |    1.983       0       5       0       5     54     54      0   8262     320       1  54    0c70f a70f      8.220 "
