test,1583577459302365952,10," | 10  |   8945       5   8917       0 |   4    0      8782       135 |   5  10    0    1 d30f |    1.770       0       4       0       4     10     10      0   8690     227       2  10    1d30f a70f      6.510 "
test,1583577459304951040,12," | 12  |   8945       5   8909      34 |   5    0      8853        90 |   1  10    0    0 d30f |    2.746       0       5       0       5     10     10      0   8706     237       2  10    0d30f a70f      9.000 "
test,1583577459308728832,13," | 13  |   8945       5   8941       0 |   5    0      8869        72 |   1  10    0    0 d30f |    2.014       0       5       0       5     10     10      0   8786     155       1  10    0d30f a70f      8.250 "
test,1583577459323262976,15," | 15  |   8945       5   8900      43 |   0    6      8564       379 |   0  15   57    1  20f |    0           0       0       0       8      0      0      0   8173     770       0  15    1 20f a70f     28.110 "
test,1583577459326152192,16," | 16  |   8945       5   8941       0 |   5    0      8588       353 |   2  57    0    0 410f |    2.746       0       4       0       4     57     57      0   8364     577       2  57    0410f a70f     30.270 "
test,1583577459308891904,17," | 17  |   8945       5   8930      11 |   5    0      8821       120 |   3  57    0    0 410f |    2.746       0       5       0       5     57     57      0   8569     372       2  57    0410f a70f      8.970 "
test,1583577459317285888,18," | 18  |   8945       5   8940       0 |   1    4      8450       490 |   2  48   57    0 940f |   10.803       0       5       0       5     48     48      0   8119     821      13  48    0940f a70f     16.860 "
test,1583577459316487168,19," | 19  |   8945       5   8923      18 |   5    0      8765       176 |   2  57    0    0 410f |    2.746       0       5       0       5     57     57      0   8525     416       2  57    0410f a70f      8.910 "
test,1583577459303271168,1," |  1  |   8945       4   8942       0 |   5    0      8697       245 |   1  10    0    0 d30f |    2.685       0       5       0       5     10     10      0   8642     300       1  10    0d30f a70f      8.820 "
test,1583577459315911936,22," | 22  |   8945       5   8939       0 |   2    5      8865        74 |   1  48   57    0 940f |   10.040       0       5       0       5     48     48      0   8490     449      12  48    0940f a70f     16.140 "
test,1583577459305464064,23," | 23  |   8945       5   8883       0 |   5    0      8845        38 |   1  57    0    0 410f |    2.014       0       5       0       5     57     57      0   8681     202       1  57    0410f a70f      8.850 "
test,1583577459314429952,24," | 24  |   8945       5   8939       2 |   1    7      8829       112 |   2  48   57    0 940f |   10.101       0       5       0       5     48     48      0   8607     334      12  48    0940f a70f     16.170 "
test,1583577459304246784,26," | 26  |   8945       5   8939       2 |   5    0      8906        35 |   3  57    0    0 410f |    1.983       0       5       0       5     57     57      0   8753     188       1  57    0410f a70f      8.070 "
test,1583577459308156928,27," | 27  |   8945       5   8943       0 |   5    0      8683       260 |   3  57    0    0 410f |    2.716       0       5       0       5     57     57      0   8346     597       2  57    0410f a70f      8.790 "
test,1583577459315411968,28," | 28  |   8945       5   8933       8 |   4    0      8239       702 |   2  48    0    0 940f |   11.505       0       5       0       5     48     48      0   7881    1060      14  48    0940f a70f     17.610 "
test,1583577459309972992,29," | 29  |   8945       4   8928      15 |   3    0      7924      1019 |   3  57    0    0 410f |    3.448       0       5       0       5     57     57      0   7546    1397       3  57    0410f a70f      9.660 "
test,1583577459312720896,30," | 30  |   8945       4   8937       4 |   5    0      8822       119 |   2  48    0    0 940f |   10.833       0       5       0       5     48     48      0   8493     448      13  48    0940f a70f     17.610 "
test,1583577459313550080,35," | 35  |   8945       4   8937       4 |   5    0      8525       416 |   2  48    0    0 940f |   10.833       0       5       0       5     48     48      0   8325     616      13  48    0940f a70f     16.920 "
test,1583577459309596160,40," | 40  |   8945       5   8853      84 |   4    0      8413       524 |   1  48    0    0 940f |    2.014       0       5       0       5     48     48      0   8190     747       1  48    0940f a70f      9.540 "
test,1583577459311202048,41," | 41  |   8945       5   8863      68 |   2    1      8835        96 |   1  46   57    0 b30f |    4.028       0       5       0       5     46     46      0   8633     298       4  46    0b30f a70f     15.030 "
test,1583577459306305024,42," | 42  |   8945       5   8866      75 |   5    0      8774       167 |   1  48    0    0 940f |    2.746       0       5       0       5     48     48      0   8582     359       2  48    0940f a70f      8.970 "
test,1583577459310952960,44," | 44  |   8945       5   8875      66 |   4    1      8774       167 |   1  48   57    0 940f |    2.746       0       5       0       5     48     48      0   8598     343       2  48    0940f a70f      8.970 "
test,1583577459307822080,45," | 45  |   8945       5   8892      49 |   4    0      8663       278 |   1  48    0    0 940f |    2.777       0       5       0       5     48     48      0   8501     440       2  48    0940f a70f      9.600 "
test,1583577459318903808,46," | 46  |   8945       5   8869      65 |   2    4      8504       430 |   2  46   48    1 b30f |   10.284       0       4       0       4     46     46      0   8362     572      14  46    1b30f a70f     14.730 "
test,1583577459305725184,47," | 47  |   8945       5   8874      67 |   5    0      8661       280 |   1  48    0    0 940f |    2.014       0       5       0       5     48     48      0   8501     440       1  48    0940f a70f      8.130 "
test,1583577459309112064,48," | 48  |   8945       5   8811      63 |   4    0      8695       179 |   2  48    0    1 940f |    1.739       0       4       0       4     48     48      0   8522     352       2  48    1940f a70f      8.640 "
test,1583577459302563840,49," | 49  |   8945       5   8935       0 |   4    0      8764       171 |   2  49    0    1 910f |    1.739       0       4       0       4     49     49      0   8704     231       2  49    1910f a70f      6.480 "
test,1583577459303048960,51," | 51  |   8945       5   8936       0 |   5    2      8834       102 |   1  10   57    0 d30f |    2.014       0       5       0       5     10     10      0   8801     135       1  10    0d30f a70f      8.160 "
test,1583577459307421952,52," | 52  |   8945       5   8904      33 |   5    0      8492       445 |   2  57    0    0 410f |    2.746       0       5       0       5     57     57      0   8341     596       2  57    0410f a70f      8.940 "
test,1583577459303857152,53," | 53  |   8945       5   8919       0 |   5    0      8477       442 |   1  49    0    0 910f |    1.953       0       5       0       5     49     49      0   8389     530       1  49    0910f a70f      8.160 "
test,1583577459305260800,54," | 54  |   8945       5   8937       0 |   4    0      8789       148 |   1  10    0    0 d30f |    1.983       0       5       0       5     10     10      0   8646     291       1  10    0d30f a70f      8.220 "
test,1583577459304018944,55," | 55  |   8945       5   8924       0 |   5    0      8593       331 |   1  49    0    0 910f |    2.044       0       5       0       5     49     49      0   8515     409       1  49    0910f a70f      8.160 "
test,1583577459302878976,56," | 56  |   8945       5   8927       0 |   3    1      8796       131 |   4  57   10    0 410f |    2.014       0       5       0       5     57     57      0   8690     237       1  57    0410f a70f      8.220 "
test,1583577459310461952,57," | 57  |   8945       5   8882       0 |   4    0      8644       238 |   7  57    0    1 410f |    1.770       0       4       0       4     57     57      0   8104     778       2  57    1410f a70f      6.510 "
test,1583577459308572160,58," | 58  |   8945       5   8936       0 |   5    0      8812       124 |   1  49    0    0 910f |    2.014       0       5       0       5     49     49      0   8448     488       1  49    0910f a70f      8.910 "
test,1583577459306083072,5," |  5  |   8945       5   8943       0 |   5    0      8117       826 |   2  10    0    0 d30f |    2.685       0       5       0       5     10     10      0   7972     971       2  10    0d30f a70f      8.880 "
test,1583577459307634176,60," | 60  |   8945       5   8936       0 |   3    4      8347       589 |   4  57   15    0 410f |    2.014       0       5       0       5     57     57      0   8169     767       1  57    0410f a70f      8.220 "
test,1583577459326436096,61," | 61  |   8945       5   8919      16 |   4    3      8518       417 |   2  49   57    0 910f |    2.746       0       4       0       4     49     49      0   8212     723       2  49    0910f a70f     30.270 "
test,1583577459303507200,7," |  7  |   8945       5   8942       0 |   5    0      8816       126 |   1  10    0    0 d30f |    1.983       0       5       0       5     10     10      0   8755     187       1  10    0d30f a70f      8.220 "
test,1583577459304613120,9," |  9  |   8945       5   8941       0 |   5    0      8656       285 |   1  10    0    0 d30f |    1.983       0       5       0       5     10     10      0   8613     328       1  10    0d30f a70f      8.130 "
