test,1583577291805943040,10," | 10  |   8275       5   8247       0 |   5    0      8120       127 |   1  12    0    0 670f |    1.983       0       5       0       5     12     12      0   8032     215       1  12    0670f a70f      8.220 "
test,1583577291801403904,12," | 12  |   8275       5   8239      34 |   4    0      8188        85 |   2  12    0    1 670f |    1.739       0       4       0       4     12     12      0   8048     225       2  12    1670f a70f      6.480 "
test,1583577291799334912,13," | 13  |   8275       5   8271       0 |   5    0      8206        65 |   1  12    0    0 670f |    1.983       0       5       0       5     12     12      0   8125     146       1  12    0670f a70f      8.190 "
test,1583577291804476928,15," | 15  |   8275       5   8230      43 |   5    0      7927       346 |   1  12    0    0 670f |    2.014       0       5       0       5     12     12      0   7555     718       1  12    0670f a70f      8.250 "
test,1583577291811828992,16," | 16  |   8275       5   8271       0 |   5    0      7949       322 |   1  26    0    0  a0f |    1.983       0       5       0       5     26     26      0   7740     531       1  26    0 a0f a70f      8.940 "
test,1583577291805733888,17," | 17  |   8275       5   8260      11 |   5    0      8162       109 |   1  26    0    0  a0f |    2.014       0       5       0       5     26     26      0   7919     352       1  26    0 a0f a70f      8.280 "
test,1583577291802448896,18," | 18  |   8275       5   8270       0 |   5    0      7821       449 |   1  26    0    0  a0f |    1.983       0       5       0       5     26     26      0   7511     759       1  26    0 a0f a70f      8.220 "
test,1583577291803580928,19," | 19  |   8275       4   8255      16 |   5    0      8110       161 |   1  26    0    0  a0f |    2.746       0       5       0       5     26     26      0   7885     386       2  26    0 a0f a70f      8.820 "
test,1583577291803019008,1," |  1  |   8275       4   8272       0 |   5    0      8049       223 |   1  12    0    0 670f |    2.685       0       5       0       5     12     12      0   7995     277       1  12    0670f a70f      8.910 "
test,1583577291800000000,22," | 22  |   8275       5   8269       0 |   5    0      8198        71 |   1  26    0    0  a0f |    2.014       0       5       0       5     26     26      0   7845     424       1  26    0 a0f a70f      8.250 "
test,1583577291804936960,23," | 23  |   8275       5   8213       0 |   5    0      8176        37 |   1  26    0    0  a0f |    2.044       0       5       0       5     26     26      0   8022     191       1  26    0 a0f a70f      8.100 "
test,1583577291800290048,24," | 24  |   8275       5   8269       2 |   5    0      8170       101 |   1  26    0    0  a0f |    2.014       0       5       0       5     26     26      0   7964     307       1  26    0 a0f a70f      8.070 "
test,1583577291799554048,26," | 26  |   8275       5   8269       2 |   4    0      8239        32 |   2  26    0    1  a0f |    1.739       0       4       0       4     26     26      0   8090     181       2  26    1 a0f a70f      6.510 "
test,1583577291821188864,27," | 27  |   8275       5   8273       0 |   0    2      8028       245 |   0  27   26    1 110f |    0           0       0       0       8      0      0      0   7712     561       0  27    1110f a70f     30.210 "
test,1583577291822539008,28," | 28  |   8275       5   8263       8 |   5    7      7615       656 |   1  30   26    0  40f |    2.014       0       4       0       4     30     30      0   7287     984       1  30    0 40f a70f     30.390 "
test,1583577291819624960,29," | 29  |   8275       5   8259      14 |   0    2      7321       952 |   0  29   26    1  90f |    0           0       0       0       8      0      0      0   6966    1307       0  29    1 90f a70f     30.240 "
test,1583577291800769024,30," | 30  |   8275       5   8267       4 |   4    6      8157       114 |   5  30   26    1  40f |    1.739       0       4       0       4     30     30      0   7855     416       2  30    1 40f a70f      6.480 "
test,1583577291808877824,35," | 35  |   8275       5   8267       4 |   5    4      7877       394 |   1  30   26    0  40f |    2.014       0       5       0       5     30     30      0   7692     579       1  30    0 40f a70f      8.220 "
test,1583577291808190976,40," | 40  |   8275       5   8192      75 |   5    0      7799       468 |   2  26    0    0  a0f |    3.448       0       5       0       5     26     26      0   7599     668       3  26    0 a0f a70f      9.510 "
test,1583577291803227904,41," | 41  |   8275       5   8201      60 |   5    0      8185        76 |   2  26    0    0  a0f |    2.746       0       5       0       5     26     26      0   7998     263       2  26    0 a0f a70f      8.940 "
test,1583577291804007936,42," | 42  |   8275       5   8204      67 |   5    0      8123       148 |   2  26    0    0  a0f |    2.746       0       5       0       5     26     26      0   7953     318       2  26    0 a0f a70f      9.600 "
test,1583577291801656064,44," | 44  |   8275       5   8213      58 |   5    0      8124       147 |   1  26    0    0  a0f |    2.014       0       5       0       5     26     26      0   7963     308       1  26    0 a0f a70f      8.160 "
test,1583577291809309952,45," | 45  |   8275       5   8227      44 |   5    0      8018       253 |   2  26    0    0  a0f |    2.746       0       5       0       5     26     26      0   7875     396       2  26    0 a0f a70f      8.790 "
test,1583577291804649984,46," | 46  |   8275       5   8206      58 |   5    0      7864       400 |   2  26    0    0  a0f |    2.746       0       5       0       5     26     26      0   7740     524       2  26    0 a0f a70f      9.660 "
test,1583577291803755008,47," | 47  |   8275       5   8213      58 |   5    0      8014       257 |   2  26    0    0  a0f |    2.716       0       5       0       5     26     26      0   7874     397       2  26    0 a0f a70f      8.940 "
test,1583577291802804992,48," | 48  |   8275       5   8149      55 |   5    0      8038       166 |   2  26    0    0  a0f |    2.746       0       5       0       5     26     26      0   7884     320       2  26    0 a0f a70f      8.910 "
test,1583577291799736064,49," | 49  |   8275       5   8265       0 |   4    5      8107       158 |   8  49   55    1 c50f |    1.739       0       4       0       4     49     49      0   8049     216       2  49    1c50f a70f      6.510 "
test,1583577291807218944,51," | 51  |   8275       5   8266       0 |   5    0      8170        96 |   2  12    0    0 670f |    2.716       0       5       0       5     12     12      0   8142     124       2  12    0670f a70f      8.940 "
test,1583577291795110912,52," | 52  |   8275       5   8234      33 |   4    0      7855       412 |   2  26    0    0  a0f |    2.014       0       5       0       5     26     26      0   7714     553       1  26    0 a0f a70f      8.220 "
test,1583577291807041792,53," | 53  |   8275       5   8249       0 |   5    0      7844       405 |   1  49    0    0 c50f |    1.983       0       5       0       5     49     49      0   7760     489       1  49    0c50f a70f      8.070 "
test,1583577291822878976,54," | 54  |   8275       5   8267       0 |   4    2      8126       141 |   1  12   26    0 670f |    2.014       0       3       0       3     12     12      0   7988     279       1  12    0670f a70f     30.390 "
test,1583577291819377920,55," | 55  |   8275       5   8254       0 |   0    7      7944       310 |   0  55   49    1 130f |    0           0       0       0       8      0      0      0   7874     380       0  55    1130f a70f     30.180 "
test,1583577291802108928,56," | 56  |   8275       5   8257       0 |   5    0      8133       124 |   2  26    0    0  a0f |    2.746       0       5       0       5     26     26      0   8034     223       2  26    0 a0f a70f      8.790 "
test,1583577291807511040,57," | 57  |   8275       5   8212       0 |   5    0      7992       220 |   1  26    0    0  a0f |    1.983       0       5       0       5     26     26      0   7492     720       1  26    0 a0f a70f      8.220 "
test,1583577291822191872,58," | 58  |   8275       5   8266       0 |   3    7      8153       113 |   5  26   55    0  a0f |    5.645       0       3       0       3     26     26      0   7820     446       6  26    0 a0f a70f     30.390 "
test,1583577291802279936,5," |  5  |   8275       5   8273       0 |   5    0      7515       758 |   1  12    0    0 670f |    2.014       0       5       0       5     12     12      0   7376     897       1  12    0670f a70f      8.190 "
test,1583577291806462976,60," | 60  |   8275       5   8266       0 |   2    3      7725       541 |   2  26   12    0  a0f |    2.746       0       5       0       5     26     26      0   7561     705       2  26    0 a0f a70f      8.970 "
test,1583577291804289024,61," | 61  |   8275       5   8258       7 |   4    0      7894       371 |   3  26    0    0  a0f |    3.509       0       5       0       5     26     26      0   7613     652       3  26    0 a0f a70f      9.630 "
test,1583577291801876992,7," |  7  |   8275       4   8272       0 |   5    0      8151       121 |   1  12    0    0 670f |    2.014       0       5       0       5     12     12      0   8093     179       1  12    0670f a70f      8.250 "
test,1583577291801071872,9," |  9  |   8275       5   8271       0 |   5    0      8001       270 |   1  12    0    0 670f |    1.983       0       5       0       5     12     12      0   7959     312       1  12    0670f a70f      8.130 "
