test,1583577552054594048,10," | 10  |   9316       5   9288       0 |   5    1      9148       140 |   1   9   57    0 600f |    2.075       0       5       0       5      9      9      0   9052     236       1   9    0600f a70f      8.220 "
test,1583577552057697024,12," | 12  |   9316       5   9280      34 |   5    0      9221        93 |   1   9    0    0 600f |    2.044       0       5       0       5      9      9      0   9069     245       1   9    0600f a70f      8.970 "
test,1583577552056097024,13," | 13  |   9316       5   9312       0 |   5    0      9237        75 |   1   9    0    0 600f |    2.044       0       5       0       5      9      9      0   9150     162       1   9    0600f a70f      8.820 "
test,1583577552058392064,15," | 15  |   9316       5   9271      43 |   5    0      8913       401 |   2   9    0    0 600f |    2.807       0       5       0       5      9      9      0   8509     805       2   9    0600f a70f      9.600 "
test,1583577552075243008,16," | 16  |   9316       5   9312       0 |   5    0      8948       364 |   1  45    0    0 440f |    0           0       0       0       8      0      0      0   8709     603       0  45    0440f a70f     30.330 "
test,1583577552059163136,17," | 17  |   9316       5   9301      11 |   5    0      9186       126 |   1  26    0    0 630f |    2.014       0       5       0       5     26     26      0   8923     389       1  26    0630f a70f      8.970 "
test,1583577552061336064,18," | 18  |   9316       5   9311       0 |   5    1      8803       508 |   1  26   45    0 630f |    2.044       0       5       0       5     26     26      0   8459     852       1  26    0630f a70f      8.970 "
test,1583577552058619904,19," | 19  |   9316       5   9294      18 |   5    0      9132       180 |   1  26    0    0 630f |    1.983       0       5       0       5     26     26      0   8876     436       1  26    0630f a70f      8.940 "
test,1583577552057879808,1," |  1  |   9316       4   9313       0 |   5    0      9057       256 |   1   9    0    0 600f |    2.716       0       5       0       5      9      9      0   9001     312       1   9    0600f a70f      8.910 "
test,1583577552056296960,22," | 22  |   9316       5   9310       0 |   3    0      9228        82 |   8  26    0    0 630f |    2.075       0       5       0       5     26     26      0   8840     470       1  26    0630f a70f      8.970 "
test,1583577552075700992,23," | 23  |   9316       5   9254       0 |   4    3      9214        40 |   7  45   26    0 440f |    0           0       0       0       8      0      0      0   9038     216       0  45    0440f a70f     30.390 "
test,1583577552057073152,24," | 24  |   9316       5   9310       2 |   5    0      9193       119 |   5  26    0    0 630f |    2.075       0       5       0       5     26     26      0   8962     350       1  26    0630f a70f      8.190 "
test,1583577552054795008,26," | 26  |   9316       5   9310       2 |   5    0      9276        36 |   6  26    0    1 630f |    1.739       0       4       0       4     26     26      0   9114     198       2  26    1630f a70f      6.510 "
test,1583577552057528064,27," | 27  |   9316       4   9314       0 |   3    1      9039       275 |   3  26   45    0 630f |    4.241       0       5       0       5     26     26      0   8682     632       4  26    0630f a70f     10.440 "
test,1583577552078208000,28," | 28  |   9316       5   9304       8 |   4    1      8581       731 |   2  30   26    0 7a0f |    2.014       0       4       0       4     30     30      0   8210    1102       1  30    07a0f a70f     30.390 "
test,1583577552059823872,29," | 29  |   9316       4   9299      15 |   5    0      8244      1070 |   2  26    0    0 630f |    2.777       0       5       0       5     26     26      0   7850    1464       2  26    0630f a70f     11.130 "
test,1583577552053953792,30," | 30  |   9316       5   9308       4 |   4    0      9190       122 |   2  30    0    1 7a0f |    1.739       0       4       0       4     30     30      0   8850     462       2  30    17a0f a70f      6.480 "
test,1583577552058777088,35," | 35  |   9316       5   9308       4 |   5    0      8883       429 |   1  30    0    0 7a0f |    2.044       0       5       0       5     30     30      0   8675     637       1  30    07a0f a70f      8.250 "
test,1583577552060823040,41," | 41  |   9316       5   9223      79 |   5    0      9196       106 |   1  45    0    0 440f |    2.014       0       5       0       5     45     45      0   8983     319       1  45    0440f a70f      8.220 "
test,1583577552063159040,42," | 42  |   9316       5   9226      86 |   5    0      9132       180 |   1  45    0    0 440f |    2.716       0       5       0       5     45     45      0   8926     386       2  45    0440f a70f      8.940 "
test,1583577552078998016,44," | 44  |   9316       5   9238      74 |   0    2      9124       188 |   0  44   45    1 420f |    0           0       0       0       8      0      0      0   8937     375       0  44    1420f a70f     30.060 "
test,1583577552105426176,45," | 45  |   9316       5   9258      54 |   4    0      9018       294 |   2  45    0    1 440f |    1.739       0       3       0       3     45     45      0   8847     465       2  45    1440f a70f     30.300 "
test,1583577552069381120,46," | 46  |   9316       5   9233      72 |   5    0      8851       454 |   2  45    0    0 440f |    2.716       0       5       0       5     45     45      0   8692     613       2  45    0440f a70f      8.910 "
test,1583577552063450112,47," | 47  |   9316       5   9235      77 |   5    0      9011       301 |   2  45    0    0 440f |    2.777       0       5       0       5     45     45      0   8837     475       2  45    0440f a70f      8.850 "
test,1583577552095649024,48," | 48  |   9316       5   9174      71 |   5    0      9056       189 |   2  45    0    0 440f |    2.716       0       4       0       4     45     45      0   8865     380       2  45    0440f a70f     30.360 "
test,1583577552061566208,49," | 49  |   9316       5   9306       0 |   5    0      9121       185 |   2  57    0    0 e70f |    2.716       0       5       0       5     57     57      0   9057     249       2  57    0e70f a70f      8.910 "
test,1583577552055716864,51," | 51  |   9316       5   9307       0 |   5    1      9203       104 |   1  57    9    0 e70f |    1.953       0       5       0       5     57     57      0   9167     140       1  57    0e70f a70f      8.910 "
test,1583577552060033024,52," | 52  |   9316       5   9275      33 |   4    0      8846       462 |   1  26    0    0 630f |    2.044       0       5       0       5     26     26      0   8686     622       1  26    0630f a70f      8.100 "
test,1583577552062119936,53," | 53  |   9316       5   9290       0 |   5    0      8815       475 |   3  57    0    0 e70f |    3.448       0       5       0       5     57     57      0   8720     570       3  57    0e70f a70f      9.630 "
test,1583577552059320064,54," | 54  |   9316       5   9308       0 |   5    0      9154       154 |   1   9    0    0 600f |    2.746       0       5       0       5      9      9      0   9005     303       2   9    0600f a70f      9.000 "
test,1583577552057241856,55," | 55  |   9316       5   9295       0 |   5    0      8954       341 |   2  57    0    0 e70f |    2.746       0       5       0       5     57     57      0   8869     426       2  57    0e70f a70f      8.940 "
test,1583577552055179008,56," | 56  |   9316       5   9298       0 |   5    0      9162       136 |   1  57    0    0 e70f |    1.983       0       5       0       5     57     57      0   9048     250       1  57    0e70f a70f      8.130 "
test,1583577552058964992,57," | 57  |   9316       5   9253       0 |   2    1      9009       244 |   5  57   26    1 e70f |    1.739       0       4       0       4     57     57      0   8442     811       2  57    1e70f a70f      6.480 "
test,1583577552059503104,5," |  5  |   9316       5   9314       0 |   5    0      8455       859 |   2   9    0    0 600f |    2.746       0       5       0       5      9      9      0   8305    1009       2   9    0600f a70f      9.660 "
test,1583577552054946816,60," | 60  |   9316       5   9307       0 |   5    0      8696       611 |   1  57    0    0 e70f |    2.044       0       5       0       5     57     57      0   8507     800       1  57    0e70f a70f      8.160 "
test,1583577552078782208,61," | 61  |   9316       5   9290      16 |   2    5      8876       430 |   1  57    9    0 e70f |    2.014       0       4       0       4     57     57      0   8557     749       1  57    0e70f a70f     30.270 "
test,1583577552054310144,7," |  7  |   9316       5   9313       0 |   5    0      9180       133 |   1   9    0    0 600f |    2.044       0       5       0       5      9      9      0   9118     195       1   9    0600f a70f      8.160 "
test,1583577552053004032,9," |  9  |   9316       5   9312       0 |   4    0      9015       297 |   4   9    0    1 600f |    1.770       0       4       0       4      9      9      0   8970     342       2   9    1600f a70f      6.510 "
