test,1583577565556286976,10," | 10  |   9370       5   9342       0 |   5    0      9202       140 |   1  51    0    0 900f |    2.044       0       5       0       5     51     51      0   9105     237       1  51    0900f a70f      9.660 "
test,1583577565575757056,12," | 12  |   9370       5   9334      34 |   1   11      9275        93 |   1   5   55    0 230f |    2.044       0       2       0       2      5      5      0   9121     247       1   5    0230f a70f     30.390 "
test,1583577565575577088,13," | 13  |   9370       5   9366       0 |   1   15      9291        75 |   1   5   56    0 230f |    2.075       0       1       0       1      5      5      0   9202     164       1   5    0230f a70f     30.330 "
test,1583577565578712064,15," | 15  |   9370       5   9325      43 |   1    0      8966       402 |   2   5    0    0 230f |    2.807       0       2       0       2      5      5      0   8560     808       2   5    0230f a70f     30.390 "
test,1583577565560039168,16," | 16  |   9370       5   9366       0 |   5    0      8998       368 |   2  48    0    0 c50f |    2.746       0       5       0       5     48     48      0   8757     609       2  48    0c50f a70f     10.260 "
test,1583577565560390912,17," | 17  |   9370       5   9355      11 |   5    0      9239       127 |   2  48    0    0 c50f |    2.777       0       5       0       5     48     48      0   8973     393       2  48    0c50f a70f     10.380 "
test,1583577565557754880,18," | 18  |   9370       5   9365       0 |   5    0      8854       511 |   2  48    0    0 c50f |    2.716       0       5       0       5     48     48      0   8507     858       2  48    0c50f a70f      8.880 "
test,1583577565579761920,19," | 19  |   9370       5   9348      18 |   4    0      9186       180 |   3  48    0    0 c50f |    3.509       0       4       0       4     48     48      0   8927     439       3  48    0c50f a70f     30.240 "
test,1583577565555036928,1," |  1  |   9370       4   9367       0 |   5    0      9109       258 |   1  51    0    0 900f |    2.716       0       5       0       5     51     51      0   9053     314       1  51    0900f a70f      8.820 "
test,1583577565557342976,22," | 22  |   9370       5   9364       0 |   5    0      9282        82 |   1  48    0    0 c50f |    2.075       0       5       0       5     48     48      0   8889     475       1  48    0c50f a70f      8.310 "
test,1583577565559856896,23," | 23  |   9370       5   9308       0 |   5    0      9267        41 |   2  48    0    0 c50f |    2.746       0       5       0       5     48     48      0   9089     219       2  48    0c50f a70f      9.540 "
test,1583577565556519936,24," | 24  |   9370       5   9364       2 |   5    0      9247       119 |   3  48    0    0 c50f |    2.746       0       5       0       5     48     48      0   9014     352       2  48    0c50f a70f      8.850 "
test,1583577565557003008,26," | 26  |   9370       5   9364       2 |   5    0      9330        36 |   2  48    0    0 c50f |    2.777       0       5       0       5     48     48      0   9165     201       2  48    0c50f a70f      9.750 "
test,1583577565577506048,27," | 27  |   9370       5   9368       0 |   0    3      9091       277 |   0  27   48    1 de0f |    0           0       0       0       8      0      0      0   8728     640       0  27    1de0f a70f     30.240 "
test,1583577565559598080,28," | 28  |   9370       5   9358       8 |   5    0      8630       736 |   1  30    0    0 ba0f |    2.014       0       5       0       5     30     30      0   8256    1110       1  30    0ba0f a70f      8.250 "
test,1583577565576438784,29," | 29  |   9370       3   9353      15 |   0    1      8291      1077 |   0  29   27    1  50f |    0           0       0       0       8      0      0      0   7893    1475       0  29    1 50f a70f     30.150 "
test,1583577565558181888,30," | 30  |   9370       5   9362       4 |   4    0      9244       122 |   8  30    0    1 ba0f |    1.770       0       4       0       4     30     30      0   8902     464       2  30    1ba0f a70f      6.510 "
test,1583577565558681856,35," | 35  |   9370       5   9362       4 |   5    0      8936       430 |   1  30    0    0 ba0f |    2.014       0       5       0       5     30     30      0   8726     640       1  30    0ba0f a70f      8.160 "
test,1583577565574825984,40," | 40  |   9370       5   9268      94 |   0    5      8806       556 |   0  40   48    1 b00f |    0           0       0       0       8      0      0      0   8564     798       0  40    1b00f a70f     30.150 "
test,1583577565555558912,41," | 41  |   9370       5   9277      79 |   5    0      9249       107 |   1  48    0    0 c50f |    2.014       0       5       0       5     48     48      0   9036     320       1  48    0c50f a70f      8.220 "
test,1583577565561750784,42," | 42  |   9370       5   9280      86 |   5    0      9186       180 |   1  48    0    0 c50f |    2.014       0       5       0       5     48     48      0   8979     387       1  48    0c50f a70f      9.660 "
test,1583577565557190912,44," | 44  |   9370       5   9292      74 |   5    0      9177       189 |   1  48    0    0 c50f |    2.044       0       5       0       5     48     48      0   8990     376       1  48    0c50f a70f      8.130 "
test,1583577565580293888,45," | 45  |   9370       5   9312      54 |   5    0      9070       296 |   1  48    0    0 c50f |    2.014       0       4       0       4     48     48      0   8898     468       1  48    0c50f a70f     30.390 "
test,1583577565560539904,46," | 46  |   9370       5   9287      72 |   5    0      8903       456 |   1  48    0    0 c50f |    2.044       0       5       0       5     48     48      0   8743     616       1  48    0c50f a70f     10.440 "
test,1583577565556105984,47," | 47  |   9370       5   9289      77 |   5    0      9065       301 |   1  48    0    0 c50f |    2.044       0       5       0       5     48     48      0   8890     476       1  48    0c50f a70f      8.850 "
test,1583577565578897920,48," | 48  |   9370       5   9228      71 |   4    0      9110       189 |   5  48    0    1 c50f |    3.936       0       3       0       3     48     48      0   8919     380       5  48    1c50f a70f     30.300 "
test,1583577565558382080,49," | 49  |   9370       5   9360       0 |   5    0      9173       187 |   4  53    0    0 7c0f |    2.014       0       5       0       5     53     53      0   9109     251       1  53    07c0f a70f      8.220 "
test,1583577565577837056,51," | 51  |   9370       5   9361       0 |   2    5      9255       106 |   2  51   56    1 900f |    1.739       0       3       0       3     51     51      0   9219     142       2  51    1900f a70f     30.300 "
test,1583577565562640896,52," | 52  |   9370       4   9329      33 |   3    0      8899       463 |   4  48    0    0 c50f |    3.479       0       5       0       5     48     48      0   8738     624       3  48    0c50f a70f     11.130 "
test,1583577565554663936,53," | 53  |   9370       5   9344       0 |   4    0      8866       478 |   5  53    0    1 7c0f |    1.770       0       4       0       4     53     53      0   8771     573       2  53    17c0f a70f      6.510 "
test,1583577565555808000,54," | 54  |   9370       5   9362       0 |   5    0      9208       154 |   2  51    0    0 900f |    2.746       0       5       0       5     51     51      0   9058     304       2  51    0900f a70f      8.970 "
test,1583577565575962112,55," | 55  |   9370       5   9349       0 |   4    8      9007       342 |   8  55   53    1 5b0f |   10.253       0       3       0       3     55     55      0   8922     427      14  55    15b0f a70f     30.300 "
test,1583577565576598784,56," | 56  |   9370       5   9352       0 |   0    4      9215       137 |   0  56   55    1 b60f |    0           0       0       0       8      0      0      0   9097     255       0  56    1b60f a70f     30.180 "
test,1583577565578131968,57," | 57  |   9370       5   9307       0 |   4    8      9061       246 |   5  48   55    0 c50f |    3.479       0       4       0       4     48     48      0   8489     818       3  48    0c50f a70f     30.360 "
test,1583577565565380096,58," | 58  |   9370       5   9361       0 |   5    7      9233       128 |   1  55   56    0 5b0f |    2.075       0       5       0       5     55     55      0   8850     511       1  55    05b0f a70f     13.710 "
test,1583577565580014848,5," |  5  |   9370       5   9368       0 |   1    1      8505       863 |   2   5   51    1 230f |    1.770       0       2       0       2      5      5      0   8352    1016       2   5    1230f a70f     30.300 "
test,1583577565579101184,60," | 60  |   9370       5   9361       0 |   2    8      8749       612 |   1  51   56    0 900f |    2.044       0       4       0       4     51     51      0   8556     805       1  51    0900f a70f     30.300 "
test,1583577565575303168,61," | 61  |   9370       5   9344      16 |   1    8      8929       431 |   8  48   55    0 c50f |    0           0       0       0       8      0      0      0   8605     755       0  48    0c50f a70f     30.390 "
test,1583577565554460928,7," |  7  |   9370       5   9367       0 |   5    0      9233       134 |   1  51    0    0 900f |    2.014       0       5       0       5     51     51      0   9170     197       1  51    0900f a70f      8.130 "
test,1583577565559001856,9," |  9  |   9370       5   9366       0 |   5    0      9069       297 |   2  51    0    0 900f |    2.777       0       5       0       5     51     51      0   9024     342       2  51    0900f a70f      8.910 "
