test,1583577498554894848,10," | 10  |   9102       5   9074       0 |   5    0      8936       138 |   1   1    0    0 820f |    1.373       0       5       0       5      1      1      0   8840     234       1   1    0820f a70f      7.560 "
test,1583577498554424064,12," | 12  |   9102       5   9066      34 |   5    0      9009        91 |   1   1    0    0 820f |    1.312       0       5       0       5      1      1      0   8859     241       1   1    0820f a70f      8.190 "
test,1583577498552369152,13," | 13  |   9102       5   9098       0 |   5    0      9025        73 |   1   1    0    0 820f |    1.342       0       5       0       5      1      1      0   8940     158       1   1    0820f a70f      7.560 "
test,1583577498565612032,15," | 15  |   9102       5   9057      43 |   4    1      8713       387 |   2   1   23    0 820f |    2.044       0       5       0       5      1      1      0   8315     785       2   1    0820f a70f      9.000 "
test,1583577498557609984,16," | 16  |   9102       5   9098       0 |   5    7      8739       359 |   1  23   26    0 7b0f |    2.075       0       5       0       5     23     23      0   8509     589       1  23    07b0f a70f      8.130 "
test,1583577498555689984,17," | 17  |   9102       5   9087      11 |   5    1      8976       122 |   1  26   23    0 e80f |    3.540       0       5       0       5     26     26      0   8715     383       3  26    0e80f a70f      9.750 "
test,1583577498575890176,18," | 18  |   9102       5   9097       0 |   5    6      8599       498 |   1  22   26    0  60f |    2.044       0       2       0       2     22     22      0   8261     836       1  22    0 60f a70f     30.300 "
test,1583577498576344064,19," | 19  |   9102       5   9080      18 |   4    6      8920       178 |   9  26   22    0 e80f |    4.272       0       4       0       4     26     26      0   8669     429       4  26    0e80f a70f     30.270 "
test,1583577498551851008,1," |  1  |   9102       4   9099       0 |   4    0      8849       250 |   2   1    0    1 820f |    1.739       0       4       0       4      1      1      0   8793     306       2   1    1820f a70f      6.510 "
test,1583577498574112000,22," | 22  |   9102       5   9096       0 |   4    5      9019        77 |   8  22   23    1  60f |    1.739       0       1       0       1     22     22      0   8638     458       2  22    1 60f a70f     30.300 "
test,1583577498553238016,23," | 23  |   9102       5   9040       0 |   4   10      9002        38 |   5  23   26    1 7b0f |    1.739       0       4       0       4     23     23      0   8834     206       2  23    17b0f a70f      6.510 "
test,1583577498573774080,24," | 24  |   9102       5   9096       2 |   0   17      8982       116 |   0  24   22    1 3d0f |   10.284       0       2       0       2     24     24      0   8756     342      14  24    13d0f a70f     30.270 "
test,1583577498554703872,26," | 26  |   9102       5   9096       2 |   4    0      9062        36 |   5  26    0    1 e80f |    1.770       0       4       0       4     26     26      0   8905     193       2  26    1e80f a70f      8.670 "
test,1583577498580368128,27," | 27  |   9102       5   9100       0 |   5    6      8835       265 |   1  23   26    0 7b0f |    2.044       0       4       0       4     23     23      0   8487     613       1  23    07b0f a70f     30.390 "
test,1583577498560151040,28," | 28  |   9102       5   9090       8 |   5    0      8384       714 |   4  35    0    0 370f |    2.746       0       5       0       5     35     35      0   8020    1078       2  35    0370f a70f      8.970 "
test,1583577498582880000,29," | 29  |   9102       5   9085      15 |   5    3      8057      1043 |   2  23   26    0 7b0f |    2.777       0       4       0       4     23     23      0   7670    1430       2  23    07b0f a70f     30.360 "
test,1583577498554081024,30," | 30  |   9102       5   9094       4 |   5    0      8978       120 |   4  35    0    0 370f |    2.044       0       5       0       5     35     35      0   8646     452       1  35    0370f a70f      8.190 "
test,1583577498556121088,35," | 35  |   9102       5   9094       4 |   4    0      8678       420 |   5  35    0    1 370f |    1.739       0       4       0       4     35     35      0   8476     622       2  35    1370f a70f      6.480 "
test,1583577498578161920,40," | 40  |   9102       5   9002      92 |   2    2      8556       538 |   1  24   45    0 3d0f |    2.014       0       4       0       4     24     24      0   8320     774       1  24    03d0f a70f     30.390 "
test,1583577498576157184,41," | 41  |   9102       5   9009      79 |   2    6      8984       104 |   1  45   23    0 2e0f |    2.014       0       3       0       3     45     45      0   8773     315       1  45    02e0f a70f     30.360 "
test,1583577498576563968,42," | 42  |   9102       5   9012      86 |   2    3      8920       178 |   2  45   22    0 2e0f |    2.044       0       3       0       3     45     45      0   8719     379       1  45    02e0f a70f     30.390 "
test,1583577498577394944,44," | 44  |   9102       5   9024      74 |   2    4      8920       178 |   2  45   24    0 2e0f |    2.014       0       3       0       3     45     45      0   8735     363       1  45    02e0f a70f     30.390 "
test,1583577498577972992,45," | 45  |   9102       5   9044      54 |   2    4      8810       288 |   2  45   23    1 2e0f |    1.739       0       2       0       2     45     45      0   8641     457       2  45    12e0f a70f     30.300 "
test,1583577498577668864,46," | 46  |   9102       5   9019      72 |   2    1      8648       443 |   2  45   24    0 2e0f |    2.777       0       3       0       3     45     45      0   8491     600       2  45    02e0f a70f     30.390 "
test,1583577498576869888,47," | 47  |   9102       5   9021      77 |   2    2      8804       294 |   2  45   22    0 2e0f |    2.746       0       3       0       3     45     45      0   8633     465       2  45    02e0f a70f     30.360 "
test,1583577498575521024,48," | 48  |   9102       5   8960      71 |   1    5      8844       187 |   3  45   22    0 2e0f |    2.044       0       3       0       3     45     45      0   8657     374       1  45    02e0f a70f     30.300 "
test,1583577498556943872,49," | 49  |   9102       5   9092       0 |   5    0      8916       176 |   2  54    0    0 8d0f |    2.716       0       5       0       5     54     54      0   8857     235       2  54    08d0f a70f      8.910 "
test,1583577498553040128,51," | 51  |   9102       5   9093       0 |   5    0      8990       103 |   1   1    0    0 820f |    1.342       0       5       0       5      1      1      0   8957     136       1   1    0820f a70f      7.500 "
test,1583577498574830080,52," | 52  |   9102       5   9061      33 |   5    0      8643       451 |   4  26    0    0 e80f |    2.075       0       2       0       2     26     26      0   8488     606       1  26    0e80f a70f     30.300 "
test,1583577498555220992,53," | 53  |   9102       5   9076       0 |   5    0      8622       454 |   3  54    0    0 8d0f |    3.417       0       5       0       5     54     54      0   8532     544       3  54    08d0f a70f      9.600 "
test,1583577498574334976,54," | 54  |   9102       5   9094       0 |   3    6      8944       150 |   5  54    1    1 8d0f |    8.178       0       2       0       2     54     54      0   8797     297      11  54    18d0f a70f     30.150 "
test,1583577498558945024,55," | 55  |   9102       5   9081       0 |   5    0      8747       334 |   2  54    0    0 8d0f |    2.746       0       5       0       5     54     54      0   8669     412       2  54    08d0f a70f      8.940 "
test,1583577498555870976,56," | 56  |   9102       5   9084       0 |   5    0      8949       135 |   2   1    0    0 820f |    2.075       0       5       0       5      1      1      0   8841     243       2   1    0820f a70f      8.310 "
test,1583577498581221120,57," | 57  |   9102       5   9039       0 |   5    0      8798       241 |   4  26    0    0 e80f |   10.070       0       1       0       1     26     26      0   8246     793      12  26    0e80f a70f     30.390 "
test,1583577498559452928,58," | 58  |   9102       5   9093       0 |   5    1      8969       124 |   1  54   26    0 8d0f |    2.014       0       5       0       5     54     54      0   8600     493       1  54    08d0f a70f     10.230 "
test,1583577498553519872,5," |  5  |   9102       5   9100       0 |   5    0      8264       836 |   2   1    0    0 820f |    2.044       0       5       0       5      1      1      0   8115     985       2   1    0820f a70f      8.250 "
test,1583577498556370944,60," | 60  |   9102       5   9093       0 |   5    0      8496       597 |   2   1    0    0 820f |    2.075       0       5       0       5      1      1      0   8313     780       2   1    0820f a70f      8.310 "
test,1583577498565374976,61," | 61  |   9102       5   9076      16 |   5    1      8667       425 |   1  54   26    0 8d0f |    4.119       0       5       0       5     54     54      0   8358     734       4  54    08d0f a70f     10.950 "
test,1583577498553692160,7," |  7  |   9102       5   9099       0 |   5    0      8970       129 |   1   1    0    0 820f |    1.312       0       5       0       5      1      1      0   8908     191       1   1    0820f a70f      7.560 "
test,1583577498553880832,9," |  9  |   9102       5   9098       0 |   5    0      8808       290 |   1   1    0    0 820f |    1.373       0       5       0       5      1      1      0   8764     334       1   1    0820f a70f      7.590 "
