test,1583577558306437120,10," | 10  |   9341       5   9313       0 |   5    0      9173       140 |   2  57    0    0 2b0f |    2.777       0       5       0       5     57     57      0   9077     236       2  57    02b0f a70f      8.970 "
test,1583577558309382912,12," | 12  |   9341       5   9305      34 |   5    0      9246        93 |   4  57    0    0 2b0f |    4.241       0       5       0       5     57     57      0   9094     245       4  57    02b0f a70f     10.980 "
test,1583577558328167936,13," | 13  |   9341       5   9337       0 |   2   10      9262        75 |   5  13   57    1 9d0f |    1.770       0       1       0       1     13     13      0   9175     162       2  13    19d0f a70f     30.300 "
test,1583577558311070976,15," | 15  |   9341       5   9296      43 |   5    0      8938       401 |   5  57    0    0 2b0f |    4.913       0       5       0       5     57     57      0   8533     806       5  57    02b0f a70f     11.790 "
test,1583577558305854208,16," | 16  |   9341       5   9337       0 |   5    1      8972       365 |   2  57   42    0 2b0f |    2.746       0       5       0       5     57     57      0   8732     605       2  57    02b0f a70f      8.940 "
test,1583577558314673920,17," | 17  |   9341       5   9326      11 |   5    0      9210       127 |   2  57    0    0 2b0f |    2.777       0       5       0       5     57     57      0   8944     393       2  57    02b0f a70f      9.720 "
test,1583577558325017088,18," | 18  |   9341       5   9336       0 |   0    2      8827       509 |   0  18   57    1 490f |    0           0       0       0       8      0      0      0   8480     856       0  18    1490f a70f     30.210 "
test,1583577558315676928,19," | 19  |   9341       5   9319      18 |   4    6      9157       180 |   2  57   29    0 2b0f |    2.746       0       5       0       5     57     57      0   8898     439       2  57    02b0f a70f     10.410 "
test,1583577558307714048,1," |  1  |   9341       4   9338       0 |   5    0      9081       257 |   3  57    0    0 2b0f |    4.882       0       5       0       5     57     57      0   9025     313       4  57    02b0f a70f     11.100 "
test,1583577558326968064,22," | 22  |   9341       5   9335       0 |   3    8      9253        82 |   3  57   18    0 2b0f |    2.746       0       4       0       4     57     57      0   8861     474       2  57    02b0f a70f     30.360 "
test,1583577558306659840,23," | 23  |   9341       5   9279       0 |   5    0      9239        40 |   1  57    0    0 2b0f |    1.983       0       5       0       5     57     57      0   9061     218       1  57    02b0f a70f      8.220 "
test,1583577558309132032,24," | 24  |   9341       5   9335       2 |   5    0      9218       119 |   2  57    0    0 2b0f |    2.746       0       5       0       5     57     57      0   8985     352       2  57    02b0f a70f     10.260 "
test,1583577558313484800,26," | 26  |   9341       5   9335       2 |   5    0      9301        36 |   1  57    0    0 2b0f |    1.983       0       5       0       5     57     57      0   9137     200       1  57    02b0f a70f      9.630 "
test,1583577558307235072,27," | 27  |   9341       5   9339       0 |   5    0      9064       275 |   4  57    0    0 2b0f |    2.746       0       5       0       5     57     57      0   8702     637       2  57    02b0f a70f      9.600 "
test,1583577558311952128,28," | 28  |   9341       5   9329       8 |   5    0      8603       734 |   6  57    0    0 2b0f |    3.509       0       5       0       5     57     57      0   8229    1108       3  57    02b0f a70f      9.720 "
test,1583577558326780928,29," | 29  |   9341       5   9324      15 |   0    2      8266      1073 |   0  29   57    1 830f |    0           0       0       0       8      0      0      0   7868    1471       0  29    1830f a70f     30.210 "
test,1583577558310304000,30," | 30  |   9341       5   9333       4 |   5    0      9215       122 |   5  57    0    0 2b0f |    4.180       0       5       0       5     57     57      0   8873     464       4  57    02b0f a70f     10.350 "
test,1583577558306881024,35," | 35  |   9341       5   9333       4 |   5    0      8907       430 |   4  57    0    0 2b0f |    3.509       0       5       0       5     57     57      0   8697     640       3  57    02b0f a70f      9.630 "
test,1583577558309526016,40," | 40  |   9341       5   9240      93 |   5    0      8779       554 |   1  42    0    0 960f |    2.044       0       5       0       5     42     42      0   8537     796       1  42    0960f a70f      9.750 "
test,1583577558304617984,41," | 41  |   9341       5   9248      79 |   5    0      9221       106 |   1  42    0    0 960f |    2.044       0       5       0       5     42     42      0   9007     320       1  42    0960f a70f      8.250 "
test,1583577558307435008,42," | 42  |   9341       5   9251      86 |   5    0      9157       180 |   2  42    0    1 960f |    1.739       0       4       0       4     42     42      0   8950     387       2  42    1960f a70f      7.230 "
test,1583577558307048192,44," | 44  |   9341       5   9263      74 |   5    0      9148       189 |   2  42    0    0 960f |    2.075       0       5       0       5     42     42      0   8961     376       1  42    0960f a70f      9.030 "
test,1583577558305062144,45," | 45  |   9341       5   9283      54 |   5    0      9041       296 |   1  42    0    0 960f |    2.075       0       5       0       5     42     42      0   8869     468       1  42    0960f a70f      8.160 "
test,1583577558309745920,46," | 46  |   9341       5   9258      72 |   5    0      8876       454 |   1  42    0    0 960f |    2.044       0       5       0       5     42     42      0   8716     614       1  42    0960f a70f      8.970 "
test,1583577558305231104,47," | 47  |   9341       5   9260      77 |   5    0      9036       301 |   1  42    0    0 960f |    2.044       0       5       0       5     42     42      0   8861     476       1  42    0960f a70f      8.280 "
test,1583577558314849024,48," | 48  |   9341       5   9199      71 |   5    0      9081       189 |   1  42    0    0 960f |    2.014       0       5       0       5     42     42      0   8890     380       1  42    0960f a70f      8.940 "
test,1583577558305597184,49," | 49  |   9341       5   9331       0 |   5    0      9144       187 |   1  53    0    0 570f |    2.044       0       5       0       5     53     53      0   9080     251       1  53    0570f a70f      8.250 "
test,1583577558306054144,51," | 51  |   9341       5   9332       0 |   5    0      9227       105 |   1  57    0    0 2b0f |    2.746       0       5       0       5     57     57      0   9191     141       2  57    02b0f a70f      9.000 "
test,1583577558312709120,52," | 52  |   9341       5   9300      33 |   5    0      8870       463 |   2  57    0    0 2b0f |    2.777       0       5       0       5     57     57      0   8709     624       2  57    02b0f a70f     10.320 "
test,1583577558304884992,53," | 53  |   9341       5   9315       0 |   4    0      8839       476 |   2  53    0    1 570f |    1.739       0       4       0       4     53     53      0   8744     571       2  53    1570f a70f      6.480 "
test,1583577558310624000,54," | 54  |   9341       5   9333       0 |   5    0      9179       154 |   3  57    0    0 2b0f |    3.479       0       5       0       5     57     57      0   9030     303       3  57    02b0f a70f      9.690 "
test,1583577558326556928,55," | 55  |   9341       5   9320       0 |   4    3      8979       341 |  17  55   53    1 9e0f |   12.420       0       3       0       3     55     55      0   8894     426      17  55    19e0f a70f     30.150 "
test,1583577558308599040,56," | 56  |   9341       5   9323       0 |   5    0      9187       136 |   1  57    0    0 2b0f |    2.044       0       5       0       5     57     57      0   9072     251       1  57    02b0f a70f      8.100 "
test,1583577558328491008,57," | 57  |   9341       5   9278       0 |   4    0      9034       244 |   2  57    0    1 2b0f |    1.739       0       3       0       3     57     57      0   8466     812       2  57    12b0f a70f     30.300 "
test,1583577558322052864,58," | 58  |   9341       5   9332       0 |   5    3      9204       128 |   1  55   57    0 9e0f |    2.044       0       5       0       5     55     55      0   8821     511       1  55    09e0f a70f     15.870 "
test,1583577558329116160,5," |  5  |   9341       5   9339       0 |   4    6      8478       861 |   1  13   57    0 9d0f |    2.014       0       2       0       2     13     13      0   8327    1012       1  13    09d0f a70f     30.360 "
test,1583577558304442880,60," | 60  |   9341       5   9332       0 |   5    0      8720       612 |   1  57    0    0 2b0f |    2.014       0       5       0       5     57     57      0   8530     802       1  57    02b0f a70f      8.220 "
test,1583577558311553024,61," | 61  |   9341       5   9315      16 |   5    0      8901       430 |   1  57    0    0 2b0f |    1.953       0       5       0       5     57     57      0   8578     753       1  57    02b0f a70f     10.320 "
test,1583577558308418048,7," |  7  |   9341       5   9338       0 |   5    0      9205       133 |   3  57    0    0 2b0f |    4.211       0       5       0       5     57     57      0   9143     195       4  57    02b0f a70f     10.350 "
test,1583577558311271936,9," |  9  |   9341       5   9337       0 |   5    0      9040       297 |   4  57    0    0 2b0f |    3.479       0       5       0       5     57     57      0   8995     342       3  57    02b0f a70f      9.690 "
