test,1583575453514522112,10," | 10  |    922       5    894       0 |   4    0       882        12 |   5  10    0    1 d40f |    3.814       0       4       0       4     10     10      0    869      25       5  10    1d40f a70f      8.520 "
test,1583575453511234048,12," | 12  |    922       5    920       0 |   5    8       914         6 |   1   7   49    0 690f |    2.044       0       5       0       5      7      7      0    897      23       1   7    0690f a70f      8.100 "
test,1583575453511692032,13," | 13  |    922       5    918       0 |   5   10       909         9 |   1   7   10    0 690f |    2.014       0       5       0       5      7      7      0    898      20       1   7    0690f a70f      8.220 "
test,1583575453533549056,15," | 15  |    922       5    920       0 |   1    6       887        33 |   7  20    7    0 bb0f |    6.225       0       1       0       1     20     20      0    855      65       7  20    0bb0f a70f     30.390 "
test,1583575453515439104,16," | 16  |    922       5    918       0 |   5    0       886        32 |   2  42    0    0 ae0f |    2.716       0       5       0       5     42     42      0    865      53       2  42    0ae0f a70f      8.940 "
test,1583575453535319040,17," | 17  |    922       5    918       0 |   5    0       907        11 |   4  42    0    0 ae0f |    4.943       0       3       0       3     42     42      0    878      40       5  42    0ae0f a70f     30.390 "
test,1583575453516670976,18," | 18  |    922       5    917       0 |   5    0       857        60 |   1  42    0    0 ae0f |    1.983       0       5       0       5     42     42      0    815     102       1  42    0ae0f a70f      8.190 "
test,1583575453536147200,19," | 19  |    922       5    917       1 |   4    5       909         9 |   1  27   42    0 4d0f |    1.983       0       2       0       2     27     27      0    879      39       1  27    04d0f a70f     30.390 "
test,1583575453513967104,1," |  1  |    922       4    919       0 |   5   10       900        19 |   1   7   10    0 690f |    2.716       0       5       0       5      7      7      0    893      26       1   7    0690f a70f      8.790 "
test,1583575453517446912,22," | 22  |    922       5    916       0 |   5    0       907         9 |   3  42    0    0 ae0f |    2.716       0       5       0       5     42     42      0    864      52       2  42    0ae0f a70f      9.450 "
test,1583575453518284032,23," | 23  |    922       5    860       0 |   5    0       854         6 |   3  42    0    0 ae0f |    3.448       0       5       0       5     42     42      0    838      22       3  42    0ae0f a70f      9.510 "
test,1583575453519759872,24," | 24  |    922       5    918       0 |   5    0       913         5 |   1  42    0    0 ae0f |    2.746       0       5       0       5     42     42      0    890      28       2  42    0ae0f a70f      8.790 "
test,1583575453516002816,26," | 26  |    922       5    918       0 |   5    0       915         3 |   2  42    0    0 ae0f |    3.417       0       5       0       5     42     42      0    896      22       3  42    0ae0f a70f      9.630 "
test,1583575453537448960,27," | 27  |    922       5    920       0 |   3    1       898        22 |  20  27   42    1 4d0f |    1.739       0       2       0       2     27     27      0    857      63       2  27    14d0f a70f     30.300 "
test,1583575453536914944,28," | 28  |    922       5    918       0 |   5    0       844        74 |   2  20    0    0 bb0f |    4.791       0       4       0       4     20     20      0    820      98       5  20    0bb0f a70f     30.210 "
test,1583575453534648064,29," | 29  |    922       5    917       3 |   5    0       814       106 |   1  27    0    0 4d0f |    2.716       0       2       0       2     27     27      0    762     158       2  27    04d0f a70f     30.360 "
test,1583575453515579904,30," | 30  |    922       5    918       0 |   5    0       907        11 |   1  20    0    0 bb0f |    4.089       0       5       0       5     20     20      0    881      37       4  20    0bb0f a70f     10.260 "
test,1583575453516993024,35," | 35  |    922       5    918       0 |   5    0       876        42 |   2  20    0    0 bb0f |    4.852       0       5       0       5     20     20      0    861      57       5  20    0bb0f a70f     10.980 "
test,1583575453515255040,40," | 40  |    922       5    885      29 |   3    0       840        74 |   1  42    0    0 ae0f |    1.953       0       5       0       5     42     42      0    805     109       1  42    0ae0f a70f      8.880 "
test,1583575453513488128,41," | 41  |    922       5    880      28 |   5    0       895        13 |   1  42    0    0 ae0f |    2.014       0       5       0       5     42     42      0    871      37       1  42    0ae0f a70f      8.220 "
test,1583575453511986944,42," | 42  |    922       5    887      31 |   4    0       881        37 |   2  42    0    1 ae0f |    1.739       0       4       0       4     42     42      0    856      62       2  42    1ae0f a70f      6.480 "
test,1583575453514929152,44," | 44  |    922       5    892      26 |   5    0       890        28 |   1  42    0    0 ae0f |    2.014       0       5       0       5     42     42      0    861      57       1  42    0ae0f a70f      8.220 "
test,1583575453514276096,45," | 45  |    922       5    897      21 |   5    0       876        42 |   1  42    0    0 ae0f |    2.746       0       5       0       5     42     42      0    852      66       2  42    0ae0f a70f      8.940 "
test,1583575453512609024,46," | 46  |    922       5    884      27 |   5    0       869        42 |   1  42    0    0 ae0f |    2.014       0       5       0       5     42     42      0    849      62       1  42    0ae0f a70f      8.250 "
test,1583575453520301056,47," | 47  |    922       5    890      28 |   5    0       881        37 |   1  42    0    0 ae0f |    1.983       0       5       0       5     42     42      0    862      56       1  42    0ae0f a70f      8.220 "
test,1583575453512868864,48," | 48  |    922       5    826      25 |   5    0       821        30 |   1  42    0    0 ae0f |    1.983       0       5       0       5     42     42      0    794      57       1  42    0ae0f a70f      8.070 "
test,1583575453513793024,49," | 49  |    922       5    912       0 |   5    0       900        12 |   2  49    0    1  90f |    1.739       0       4       0       4     49     49      0    893      19       2  49    1 90f a70f      6.510 "
test,1583575453513219072,51," | 51  |    922       5    913       0 |   5    0       907         6 |   6  10    0    0 d40f |    2.044       0       5       0       5     10     10      0    906       7       1  10    0d40f a70f      8.730 "
test,1583575453534423040,52," | 52  |    922       1    906       8 |   5    0       869        45 |   2  42    0    0 ae0f |    3.448       0       4       0       4     42     42      0    850      64       3  42    0ae0f a70f     30.330 "
test,1583575453513047040,53," | 53  |    922       5    896       0 |   5    0       848        48 |   1  49    0    0  90f |    2.014       0       5       0       5     49     49      0    841      55       1  49    0 90f a70f      8.250 "
test,1583575453531367168,54," | 54  |    922       5    914       0 |   5    9       901        13 |   2   7   49    0 690f |    2.777       0       4       0       4      7      7      0    881      33       2   7    0690f a70f     30.360 "
test,1583575453531117056,55," | 55  |    922       5    901       0 |   0   10       863        38 |   0  55   49    1  c0f |    0           0       0       0       8      0      0      0    860      41       0  55    1 c0f a70f     30.240 "
test,1583575453518807808,56," | 56  |    922       5    904       0 |   5    1       885        19 |   1  10   42    0 d40f |    2.075       0       5       0       5     10     10      0    878      26       1  10    0d40f a70f      8.880 "
test,1583575453515825152,57," | 57  |    922       5    859       0 |   1    0       828        31 |   4  42    0    0 ae0f |    4.241       0       5       0       5     42     42      0    784      75       4  42    0ae0f a70f     10.320 "
test,1583575453537681152,58," | 58  |    922       5    913       0 |   5    0       902        11 |   3  49    0    0  90f |    3.479       0       3       0       3     49     49      0    878      35       3  49    0 90f a70f     30.360 "
test,1583575453518095104,5," |  5  |    922       5    920       0 |   5    1       846        74 |   2   7   20    0 690f |    2.777       0       5       0       5      7      7      0    828      92       2   7    0690f a70f      8.880 "
test,1583575453536717056,60," | 60  |    922       5    913       0 |   1    7       861        52 |   5  42   10    0 ae0f |   10.833       0       1       0       1     42     42      0    849      64      13  42    0ae0f a70f     30.390 "
test,1583575453534822912,61," | 61  |    922       5    912       0 |   1    4       874        38 |   5  42    7    0 ae0f |   10.833       0       1       0       1     42     42      0    851      61      13  42    0ae0f a70f     30.330 "
test,1583575453511437056,7," |  7  |    922       5    919       0 |   4   10       903        16 |   5   7   10    1 690f |    1.739       0       4       0       4      7      7      0    899      20       2   7    1690f a70f      6.480 "
test,1583575453531672064,9," |  9  |    922       5    918       0 |   5    0       882        36 |   4  10    0    0 d40f |    9.979       0       1       0       1     10     10      0    876      42      12  10    0d40f a70f     30.360 "
