test,1583575462281618944,10," | 10  |    957       5    929       0 |   4    9       916        13 |   3  26    9    0 c40f |    4.943       0       2       0       2     26     26      0    903      26       5  26    0c40f a70f     30.360 "
test,1583575462271877120,12," | 12  |    957       5    955       0 |   5    0       949         6 |   1  54    0    0 c80f |    2.075       0       5       0       5     54     54      0    930      25       1  54    0c80f a70f      8.160 "
test,1583575462283326976,13," | 13  |    957       5    953       0 |   1   14       942        11 |   3  26    9    0 c40f |    5.676       0       2       0       2     26     26      0    932      21       6  26    0c40f a70f     30.330 "
test,1583575462264806144,15," | 15  |    957       5    955       0 |   5    0       921        34 |   2  54    0    0 c80f |    2.777       0       5       0       5     54     54      0    887      68       2  54    0c80f a70f      8.970 "
test,1583575462262780928,16," | 16  |    957       5    953       0 |   4    0       921        32 |   1  26    0    0 c40f |    2.014       0       5       0       5     26     26      0    898      55       1  26    0c40f a70f      8.190 "
test,1583575462266187008,17," | 17  |    957       5    952       1 |   3    1       942        11 |   6  26   28    0 c40f |    2.014       0       5       0       5     26     26      0    913      40       1  26    0c40f a70f      9.690 "
test,1583575462263057920,18," | 18  |    957       5    952       0 |   5    0       890        62 |   1  26    0    0 c40f |    2.014       0       5       0       5     26     26      0    846     106       1  26    0c40f a70f      8.220 "
test,1583575462267515904,19," | 19  |    957       5    951       2 |   3    0       943        10 |   5  26    0    0 c40f |    2.014       0       5       0       5     26     26      0    913      40       1  26    0c40f a70f      9.600 "
test,1583575462283549952,1," |  1  |    957       4    954       0 |   5    0       935        19 |   3  54    0    0 c80f |    3.448       0       2       0       2     54     54      0    928      26       2  54    0c80f a70f     30.390 "
test,1583575462261449216,22," | 22  |    957       5    951       0 |   5    0       941        10 |   1  26    0    0 c40f |    2.044       0       5       0       5     26     26      0    896      55       1  26    0c40f a70f      8.220 "
test,1583575462263781120,23," | 23  |    957       5    895       0 |   5    0       889         6 |   1  26    0    0 c40f |    2.716       0       5       0       5     26     26      0    873      22       2  26    0c40f a70f      9.480 "
test,1583575462261662976,24," | 24  |    957       5    953       0 |   5    0       948         5 |   1  26    0    0 c40f |    2.014       0       5       0       5     26     26      0    924      29       1  26    0c40f a70f      8.190 "
test,1583575462262455040,26," | 26  |    957       5    953       0 |   4    0       950         3 |   4  26    0    1 c40f |    1.770       0       4       0       4     26     26      0    930      23       2  26    1c40f a70f      6.510 "
test,1583575462265790976,27," | 27  |    957       5    955       0 |   5    0       932        23 |   2  26    0    0 c40f |    2.746       0       5       0       5     26     26      0    891      64       2  26    0c40f a70f      8.820 "
test,1583575462284861952,28," | 28  |    957       5    953       0 |   0    7       877        76 |   0  28   26    1 a50f |    0           0       0       0       8      0      0      0    850     103       0  28    1a50f a70f     30.150 "
test,1583575462268732160,29," | 29  |    957       3    952       3 |   4    0       844       111 |   3  26    0    0 c40f |    2.746       0       5       0       5     26     26      0    792     163       2  26    0c40f a70f      9.600 "
test,1583575462269295872,30," | 30  |    957       5    953       0 |   5    0       940        13 |   2  26    0    0 c40f |    2.746       0       5       0       5     26     26      0    910      43       2  26    0c40f a70f      9.660 "
test,1583575462259830016,35," | 35  |    957       5    953       0 |   5    0       909        44 |   2  26    0    0 c40f |    2.716       0       5       0       5     26     26      0    891      62       2  26    0c40f a70f      8.940 "
test,1583575462284719104,40," | 40  |    957       5    919      30 |   5    0       873        76 |   4  44    0    0 140f |    8.453       0       1       0       1     44     44      0    837     112      10  44    0140f a70f     30.330 "
test,1583575462285633024,41," | 41  |    957       5    914      29 |   5    0       930        13 |   4  44    0    0 140f |    7.751       0       1       0       1     44     44      0    904      39       9  44    0140f a70f     30.360 "
test,1583575462282403072,42," | 42  |    957       5    921      32 |   4    6       915        38 |   5  42   44    1 420f |    3.814       0       3       0       3     42     42      0    890      63       5  42    1420f a70f     30.300 "
test,1583575462283751936,44," | 44  |    957       5    926      27 |   4    0       925        28 |   5  44    0    1 140f |    3.814       0       3       0       3     44     44      0    895      58       5  44    1140f a70f     30.180 "
test,1583575462268349952,45," | 45  |    957       5    931      22 |   5    0       909        44 |   4  44    0    0 140f |    2.014       0       5       0       5     44     44      0    885      68       1  44    0140f a70f      8.730 "
test,1583575462284230912,46," | 46  |    957       5    918      28 |   5    0       902        44 |   4  44    0    0 140f |    7.049       0       2       0       2     44     44      0    882      64       8  44    0140f a70f     30.240 "
test,1583575462281830912,47," | 47  |    957       5    924      29 |   5   11       913        40 |   1  42   44    0 420f |    2.014       0       4       0       4     42     42      0    895      58       1  42    0420f a70f     30.330 "
test,1583575462286863104,48," | 48  |    957       5    860      26 |   5    0       854        32 |   4  44    0    0 140f |    8.453       0       1       0       1     44     44      0    827      59      10  44    0140f a70f     30.330 "
test,1583575462262653952,49," | 49  |    957       5    947       0 |   5    0       934        13 |   1  55    0    0 a70f |    2.044       0       5       0       5     55     55      0    926      21       1  55    0a70f a70f      8.130 "
test,1583575462263406080,51," | 51  |    957       5    948       0 |   5    0       942         6 |   2  26    0    0 c40f |    2.716       0       5       0       5     26     26      0    941       7       2  26    0c40f a70f      8.940 "
test,1583575462261914880,52," | 52  |    957       4    941       8 |   5    0       901        48 |   1  26    0    0 c40f |    2.014       0       5       0       5     26     26      0    882      67       1  26    0c40f a70f      8.070 "
test,1583575462263986176,53," | 53  |    957       5    931       0 |   5    0       881        50 |   1  55    0    0 a70f |    1.983       0       5       0       5     55     55      0    873      58       1  55    0a70f a70f      8.250 "
test,1583575462282049024,54," | 54  |    957       5    949       0 |   4    1       936        13 |   4  54   26    1 c80f |    1.739       0       2       0       2     54     54      0    916      33       2  54    1c80f a70f     30.300 "
test,1583575462262198016,55," | 55  |    957       5    936       0 |   5    0       895        41 |   2  55    0    1 a70f |    1.739       0       4       0       4     55     55      0    891      45       2  55    1a70f a70f      6.480 "
test,1583575462269958144,56," | 56  |    957       5    939       0 |   5    0       920        19 |   2  26    0    0 c40f |    2.716       0       5       0       5     26     26      0    913      26       2  26    0c40f a70f      8.790 "
test,1583575462267803904,57," | 57  |    957       4    894       0 |   5    0       863        31 |   1  26    0    0 c40f |    2.014       0       5       0       5     26     26      0    818      76       1  26    0c40f a70f      8.220 "
test,1583575462282881024,58," | 58  |    957       5    948       0 |   3    9       935        13 |   1  54   55    0 c80f |    0           0       0       0       8      0      0      0    908      40       0  54    0c80f a70f     30.360 "
test,1583575462259609088,5," |  5  |    957       5    955       0 |   4    0       878        77 |   2  54    0    0 c80f |    2.746       0       5       0       5     54     54      0    859      96       2  54    0c80f a70f      9.000 "
test,1583575462264214016,60," | 60  |    957       5    948       0 |   5    0       894        54 |   2  26    0    0 c40f |    2.716       0       5       0       5     26     26      0    882      66       2  26    0c40f a70f      8.940 "
test,1583575462286247936,61," | 61  |    957       5    947       0 |   3    4       906        41 |   2  54   26    0 c80f |    2.044       0       3       0       3     54     54      0    882      65       1  54    0c80f a70f     30.360 "
test,1583575462289971200,7," |  7  |    957       5    954       0 |   5    0       937        17 |   2  54    0    0 c80f |    2.807       0       3       0       3     54     54      0    933      21       2  54    0c80f a70f     30.360 "
test,1583575462288273152,9," |  9  |    957       5    953       0 |   0    9       915        38 |   0   9   54    1 ea0f |    0           0       0       0       8      0      0      0    909      44       0   9    1ea0f a70f     30.150 "
