test,1583577515317740032,10," | 10  |   9169       5   9141       0 |   5    0      9003       138 |   2  15    0    0 410f |    2.777       0       5       0       5     15     15      0   8906     235       2  15    0410f a70f      8.970 "
test,1583577515304230912,12," | 12  |   9169       5   9133      34 |   5    0      9075        92 |   1  15    0    0 410f |    2.044       0       5       0       5     15     15      0   8925     242       1  15    0410f a70f      8.160 "
test,1583577515303649792,13," | 13  |   9169       5   9165       0 |   5    0      9092        73 |   2  15    0    0 410f |    2.014       0       5       0       5     15     15      0   9007     158       1  15    0410f a70f      8.220 "
test,1583577515305556992,15," | 15  |   9169       5   9124      43 |   4    0      8779       388 |   4  15    0    1 410f |    1.739       0       4       0       4     15     15      0   8378     789       2  15    1410f a70f      6.480 "
test,1583577515308975104,16," | 16  |   9169       5   9165       0 |   5    0      8804       361 |   2  19    0    0 640f |    2.777       0       5       0       5     19     19      0   8572     593       2  19    0640f a70f      8.970 "
test,1583577515309520128,17," | 17  |   9169       5   9154      11 |   4    0      9041       124 |   2  19    0    0 640f |    2.044       0       5       0       5     19     19      0   8780     385       1  19    0640f a70f      8.850 "
test,1583577515310086912,18," | 18  |   9169       5   9164       0 |   5    0      8663       501 |   3  19    0    0 640f |    4.974       0       5       0       5     19     19      0   8325     839       5  19    0640f a70f     11.010 "
test,1583577515305217024,19," | 19  |   9169       5   9147      18 |   4    0      8987       178 |   2  19    0    1 640f |    1.739       0       4       0       4     19     19      0   8735     430       2  19    1640f a70f      6.510 "
test,1583577515304681984,1," |  1  |   9169       4   9166       0 |   5    0      8915       251 |   2  15    0    0 410f |    3.448       0       5       0       5     15     15      0   8859     307       2  15    0410f a70f      9.660 "
test,1583577515308044800,22," | 22  |   9169       5   9163       0 |   5    0      9083        80 |   2  19    0    0 640f |    5.004       0       5       0       5     19     19      0   8702     461       5  19    0640f a70f     10.980 "
test,1583577515303905024,23," | 23  |   9169       5   9107       0 |   5    0      9068        39 |   1  19    0    0 640f |    2.044       0       5       0       5     19     19      0   8898     209       1  19    0640f a70f      8.280 "
test,1583577515311544064,24," | 24  |   9169       5   9163       2 |   5    0      9049       116 |   2  19    0    0 640f |    4.974       0       5       0       5     19     19      0   8823     342       5  19    0640f a70f     11.130 "
test,1583577515308315136,26," | 26  |   9169       5   9163       2 |   5    0      9129        36 |   2  19    0    0 640f |    4.211       0       5       0       5     19     19      0   8971     194       4  19    0640f a70f     10.260 "
test,1583577515310433024,27," | 27  |   9169       5   9167       0 |   5    0      8900       267 |   1  19    0    0 640f |    2.044       0       5       0       5     19     19      0   8550     617       1  19    0640f a70f      9.000 "
test,1583577515325978112,28," | 28  |   9169       4   9157       8 |   4    4      8448       717 |   6  19   35    0 640f |    5.706       0       2       0       2     19     19      0   8083    1082       6  19    0640f a70f     30.300 "
test,1583577515311341056,29," | 29  |   9169       3   9152      15 |   5    0      8114      1053 |   1  19    0    0 640f |    2.044       0       5       0       5     19     19      0   7726    1441       1  19    0640f a70f      9.690 "
test,1583577515326371072,30," | 30  |   9169       5   9161       4 |   4    5      9045       120 |   5  19   35    0 640f |    5.676       0       2       0       2     19     19      0   8713     452       6  19    0640f a70f     30.330 "
test,1583577515323962880,35," | 35  |   9169       5   9161       4 |   0    8      8744       421 |   0  35   19    1 d40f |    0           0       0       0       8      0      0      0   8542     623       0  35    1d40f a70f     30.270 "
test,1583577515306659840,40," | 40  |   9169       5   9069      92 |   5    0      8619       542 |   2  44    0    0 b40f |    2.075       0       5       0       5     44     44      0   8381     780       1  44    0b40f a70f      9.690 "
test,1583577515309320960,41," | 41  |   9169       5   9076      79 |   5    0      9051       104 |   1  44    0    0 b40f |    2.014       0       5       0       5     44     44      0   8840     315       1  44    0b40f a70f      8.970 "
test,1583577515306864128,42," | 42  |   9169       5   9079      86 |   5    0      8987       178 |   1  44    0    0 b40f |    2.075       0       5       0       5     44     44      0   8786     379       1  44    0b40f a70f      9.750 "
test,1583577515305764864,44," | 44  |   9169       5   9091      74 |   4    0      8983       182 |   2  44    0    1 b40f |    1.739       0       4       0       4     44     44      0   8798     367       2  44    1b40f a70f      7.200 "
test,1583577515307550976,45," | 45  |   9169       5   9111      54 |   5    0      8873       292 |   1  44    0    0 b40f |    2.075       0       5       0       5     44     44      0   8703     462       1  44    0b40f a70f      8.310 "
test,1583577515307054080,46," | 46  |   9169       5   9086      72 |   5    0      8713       445 |   2  44    0    0 b40f |    2.044       0       5       0       5     44     44      0   8556     602       1  44    0b40f a70f      9.540 "
test,1583577515313047808,47," | 47  |   9169       5   9088      77 |   5    0      8867       298 |   1  44    0    0 b40f |    2.044       0       5       0       5     44     44      0   8696     469       1  44    0b40f a70f      9.630 "
test,1583577515306004992,48," | 48  |   9169       5   9027      71 |   5    0      8910       188 |   1  44    0    0 b40f |    2.044       0       5       0       5     44     44      0   8723     375       1  44    0b40f a70f      9.540 "
test,1583577515322635776,49," | 49  |   9169       5   9159       0 |   5    0      8982       177 |   4  19    0    0 640f |    0           0       0       0       8      0      0      0   8920     239       0  19    0640f a70f     30.360 "
test,1583577515310610176,51," | 51  |   9169       5   9160       0 |   5    0      9056       104 |   2  15    0    0 410f |    2.807       0       5       0       5     15     15      0   9023     137       2  15    0410f a70f      8.940 "
test,1583577515306328064,52," | 52  |   9169       4   9128      33 |   5    0      8704       457 |   1  19    0    0 640f |    2.044       0       5       0       5     19     19      0   8548     613       1  19    0640f a70f      8.970 "
test,1583577515323590144,53," | 53  |   9169       5   9143       0 |   5    0      8680       463 |   5  19    0    0 640f |    0           0       0       0       8      0      0      0   8588     555       0  19    0640f a70f     30.390 "
test,1583577515310833920,54," | 54  |   9169       5   9161       0 |   5    1      9009       152 |   2  15   19    0 410f |    2.777       0       5       0       5     15     15      0   8859     302       2  15    0410f a70f      9.000 "
test,1583577515322316800,55," | 55  |   9169       5   9148       0 |   5    0      8811       337 |   4  19    0    0 640f |    0           0       0       0       8      0      0      0   8730     418       0  19    0640f a70f     30.360 "
test,1583577515324306944,56," | 56  |   9169       5   9151       0 |   4    3      9016       135 |   3  19   15    0 640f |    0           0       0       0       8      0      0      0   8904     247       0  19    0640f a70f     30.360 "
test,1583577515307277824,57," | 57  |   9169       5   9106       0 |   5    0      8865       241 |   2  19    0    0 640f |    2.746       0       5       0       5     19     19      0   8308     798       2  19    0640f a70f      8.970 "
test,1583577515324733952,58," | 58  |   9169       5   9160       0 |   4    1      9036       124 |   3  19   15    0 640f |    0           0       0       0       8      0      0      0   8663     497       0  19    0640f a70f     30.390 "
test,1583577515327374080,5," |  5  |   9169       5   9167       0 |   5    0      8325       842 |   1  15    0    0 410f |    2.746       0       4       0       4     15     15      0   8175     992       2  15    0410f a70f     30.360 "
test,1583577515313916928,60," | 60  |   9169       5   9160       0 |   5    0      8559       601 |   1  15    0    0 410f |    3.540       0       5       0       5     15     15      0   8373     787       3  15    0410f a70f      9.600 "
test,1583577515324537088,61," | 61  |   9169       5   9143      16 |   4    1      8733       426 |   3  19   15    0 640f |    0           0       0       0       8      0      0      0   8421     738       0  19    0640f a70f     30.360 "
test,1583577515304879872,7," |  7  |   9169       5   9166       0 |   5    0      9036       130 |   2  15    0    0 410f |    2.807       0       5       0       5     15     15      0   8973     193       2  15    0410f a70f      8.970 "
test,1583577515308478976,9," |  9  |   9169       5   9165       0 |   5    0      8875       290 |   2  15    0    0 410f |    2.777       0       5       0       5     15     15      0   8830     335       2  15    0410f a70f      8.910 "
