test,1583577569060472064,10," | 10  |   9384       5   9356       0 |   5    0      9215       141 |   2  10    0    1 ed0f |    1.739       0       4       0       4     10     10      0   9118     238       2  10    1ed0f a70f      7.920 "
test,1583577569055383808,12," | 12  |   9384       5   9348      34 |   4    3      9289        93 |   8  12   10    1 ca0f |    1.739       0       4       0       4     12     12      0   9134     248       2  12    1ca0f a70f      6.480 "
test,1583577569058202880,13," | 13  |   9384       5   9380       0 |   5    0      9305        75 |   1  10    0    0 ed0f |    1.983       0       5       0       5     10     10      0   9214     166       1  10    0ed0f a70f      9.660 "
test,1583577569077588992,15," | 15  |   9384       5   9339      43 |   0    4      8978       404 |   0  15   12    1 a60f |   16.693       0       1       0       1     15     15      0   8571     811      23  15    1a60f a70f     30.270 "
test,1583577569062663168,16," | 16  |   9384       5   9380       0 |   2    0      9012       368 |  10  18    0    0 590f |    2.746       0       5       0       5     18     18      0   8770     610       2  18    0590f a70f      8.820 "
test,1583577569059864064,17," | 17  |   9384       5   9369      11 |   5    0      9253       127 |   3  18    0    0 590f |    2.746       0       5       0       5     18     18      0   8986     394       2  18    0590f a70f      8.970 "
test,1583577569058074112,18," | 18  |   9384       5   9379       0 |   4    0      8868       511 |   5  18    0    1 590f |    1.739       0       4       0       4     18     18      0   8520     859       2  18    1590f a70f      6.480 "
test,1583577569061594880,19," | 19  |   9384       2   9362      18 |   5    0      9199       181 |   4  18    0    0 590f |    2.746       0       5       0       5     18     18      0   8940     440       2  18    0590f a70f      9.690 "
test,1583577569060276992,1," |  1  |   9384       4   9381       0 |   5    0      9121       260 |   1  10    0    0 ed0f |    2.716       0       5       0       5     10     10      0   9064     317       1  10    0ed0f a70f     10.230 "
test,1583577569058636032,22," | 22  |   9384       5   9378       0 |   5    0      9296        82 |   1  18    0    0 590f |    1.983       0       5       0       5     18     18      0   8902     476       1  18    0590f a70f      8.190 "
test,1583577569075520000,23," | 23  |   9384       5   9322       0 |   1   10      9281        41 |   2  61   15    0 390f |    0           0       0       0       8      0      0      0   9101     221       0  61    0390f a70f     30.390 "
test,1583577569057874944,24," | 24  |   9384       5   9378       2 |   5    0      9261       119 |   2  18    0    0 590f |    2.014       0       5       0       5     18     18      0   9027     353       1  18    0590f a70f      8.820 "
test,1583577569054678016,26," | 26  |   9384       5   9378       2 |   5    0      9344        36 |   3  18    0    0 590f |    2.044       0       5       0       5     18     18      0   9178     202       1  18    0590f a70f      8.280 "
test,1583577569078094848,27," | 27  |   9384       4   9382       0 |   3    9      9102       280 |   1  15   18    0 a60f |    1.983       0       4       0       4     15     15      0   8737     645       1  15    0a60f a70f     30.390 "
test,1583577569064444928,28," | 28  |   9384       5   9372       8 |   5    0      8644       736 |   3  18    0    0 590f |    3.509       0       5       0       5     18     18      0   8270    1110       3  18    0590f a70f     10.440 "
test,1583577569078705152,29," | 29  |   9384       4   9367      15 |   2    4      8304      1078 |   2  15   18    0 a60f |    2.716       0       4       0       4     15     15      0   7904    1478       2  15    0a60f a70f     30.360 "
test,1583577569068311808,30," | 30  |   9384       5   9376       4 |   5    0      9258       122 |   3  18    0    0 590f |    3.479       0       5       0       5     18     18      0   8916     464       3  18    0590f a70f      9.510 "
test,1583577569061752064,35," | 35  |   9384       5   9376       4 |   5    0      8950       430 |   2  18    0    0 590f |    2.716       0       5       0       5     18     18      0   8740     640       2  18    0590f a70f      8.760 "
test,1583577569061017088,40," | 40  |   9384       5   9282      94 |   4    1      8818       558 |   4  41   18    0 5c0f |    2.014       0       5       0       5     41     41      0   8575     801       1  41    05c0f a70f      8.820 "
test,1583577569054435072,41," | 41  |   9384       5   9291      79 |   3    2      9263       107 |   5  41   18    1 5c0f |    1.739       0       4       0       4     41     41      0   9050     320       2  41    15c0f a70f      6.480 "
test,1583577569056850944,42," | 42  |   9384       5   9294      86 |   5    0      9200       180 |   1  41    0    0 5c0f |    2.044       0       5       0       5     41     41      0   8993     387       1  41    05c0f a70f      8.160 "
test,1583577569057585920,44," | 44  |   9384       5   9306      74 |   5    0      9190       190 |   1  41    0    0 5c0f |    2.044       0       5       0       5     41     41      0   9003     377       1  41    05c0f a70f      8.910 "
test,1583577569058396160,45," | 45  |   9384       5   9326      54 |   5    0      9084       296 |   1  41    0    0 5c0f |    2.014       0       5       0       5     41     41      0   8912     468       1  41    05c0f a70f      8.250 "
test,1583577569060659968,46," | 46  |   9384       5   9301      72 |   5    0      8917       456 |   1  41    0    0 5c0f |    2.044       0       5       0       5     41     41      0   8756     617       1  41    05c0f a70f      9.000 "
test,1583577569056432896,47," | 47  |   9384       5   9303      77 |   5    0      9079       301 |   1  41    0    0 5c0f |    1.983       0       5       0       5     41     41      0   8904     476       1  41    05c0f a70f      8.220 "
test,1583577569056616192,48," | 48  |   9384       5   9242      71 |   5    0      9124       189 |   1  41    0    0 5c0f |    1.983       0       5       0       5     41     41      0   8933     380       1  41    05c0f a70f      8.220 "
test,1583577569054892032,49," | 49  |   9384       5   9374       0 |   5    0      9186       188 |   2  49    0    1 a70f |    1.739       0       4       0       4     49     49      0   9122     252       2  49    1a70f a70f      6.510 "
test,1583577569056233984,51," | 51  |   9384       5   9375       0 |   5    0      9269       106 |   1  10    0    0 ed0f |    2.014       0       5       0       5     10     10      0   9232     143       1  10    0ed0f a70f      8.250 "
test,1583577569075272192,52," | 52  |   9384       5   9343      33 |   1    7      8912       464 |   3  61   18    0 390f |    0           0       0       0       8      0      0      0   8750     626       0  61    0390f a70f     30.360 "
test,1583577569055151104,53," | 53  |   9384       5   9358       0 |   5    0      8878       480 |   1  49    0    0 a70f |    2.014       0       5       0       5     49     49      0   8783     575       1  49    0a70f a70f      8.070 "
test,1583577569060816896,54," | 54  |   9384       5   9376       0 |   5    0      9222       154 |   3  10    0    0 ed0f |    2.014       0       5       0       5     10     10      0   9071     305       1  10    0ed0f a70f      9.690 "
test,1583577569059639808,55," | 55  |   9384       5   9363       0 |   5    0      9020       343 |   1  49    0    0 a70f |    1.983       0       5       0       5     49     49      0   8935     428       1  49    0a70f a70f      8.220 "
test,1583577569061288960,56," | 56  |   9384       5   9366       0 |   5    0      9229       137 |   5  10    0    0 ed0f |    2.014       0       5       0       5     10     10      0   9110     256       1  10    0ed0f a70f      8.940 "
test,1583577569077148928,57," | 57  |   9384       5   9321       0 |   2    4      9075       246 |   1  61   10    0 390f |    2.014       0       1       0       1     61     61      0   8503     818       1  61    0390f a70f     30.360 "
test,1583577569076904960,58," | 58  |   9384       5   9375       0 |   3    3      9246       129 |   1  61   10    0 390f |    2.044       0       3       0       3     61     61      0   8862     513       1  61    0390f a70f     30.300 "
test,1583577569059448832,5," |  5  |   9384       5   9382       0 |   5    0      8516       866 |   2  10    0    0 ed0f |    2.777       0       5       0       5     10     10      0   8362    1020       2  10    0ed0f a70f     10.410 "
test,1583577569057057024,60," | 60  |   9384       5   9375       0 |   5    0      8763       612 |   6  10    0    0 ed0f |    2.746       0       5       0       5     10     10      0   8569     806       2  10    0ed0f a70f      8.910 "
test,1583577569078950912,61," | 61  |   9384       5   9358      16 |   2    3      8942       432 |   8  61   10    1 390f |    1.739       0       3       0       3     61     61      0   8618     756       2  61    1390f a70f     30.300 "
test,1583577569055744768,7," |  7  |   9384       5   9381       0 |   5   10      9247       134 |   1  12   10    0 ca0f |    2.044       0       5       0       5     12     12      0   9183     198       1  12    0ca0f a70f      8.130 "
test,1583577569060039936,9," |  9  |   9384       5   9380       0 |   5    0      9083       297 |   1  10    0    0 ed0f |    1.983       0       5       0       5     10     10      0   9037     343       1  10    0ed0f a70f      9.690 "
