test,1583577485824908032,10," | 10  |   9051       5   9023       0 |   5    0      8886       137 |   2  12    0    0 940f |    2.044       0       4       0       4     12     12      0   8791     232       1  12    0940f a70f     30.390 "
test,1583577485805340160,12," | 12  |   9051       5   9015      34 |   4    0      8958        91 |   3  12    0    1 940f |    1.739       0       4       0       4     12     12      0   8810     239       2  12    1940f a70f      6.480 "
test,1583577485822014976,13," | 13  |   9051       5   9047       0 |   5    0      8975        72 |   1  12    0    0 940f |    2.044       0       4       0       4     12     12      0   8890     157       1  12    0940f a70f     30.360 "
test,1583577485810451968,15," | 15  |   9051       5   9006      43 |   5    0      8665       384 |   1  12    0    0 940f |    2.044       0       5       0       5     12     12      0   8271     778       1  12    0940f a70f      8.220 "
test,1583577485804730880,16," | 16  |   9051       5   9047       0 |   5    0      8690       357 |   1  26    0    0 160f |    2.014       0       5       0       5     26     26      0   8464     583       1  26    0160f a70f      8.100 "
test,1583577485804489984,17," | 17  |   9051       5   9036      11 |   5    0      8926       121 |   1  26    0    0 160f |    2.014       0       5       0       5     26     26      0   8669     378       1  26    0160f a70f      8.100 "
test,1583577485804331008,18," | 18  |   9051       5   9046       0 |   5    0      8553       493 |   1  26    0    0 160f |    2.044       0       5       0       5     26     26      0   8217     829       1  26    0160f a70f      8.250 "
test,1583577485806940160,19," | 19  |   9051       5   9029      18 |   5    0      8869       178 |   3  26    0    0 160f |    2.044       0       5       0       5     26     26      0   8622     425       1  26    0160f a70f      8.880 "
test,1583577485821785088,1," |  1  |   9051       4   9048       0 |   0   10      8798       250 |   0   1   12    1 1b0f |    0           0       0       0       8      0      0      0   8742     306       0   1    11b0f a70f     30.240 "
test,1583577485803013120,22," | 22  |   9051       5   9045       0 |   5    0      8970        75 |   1  26    0    0 160f |    2.044       0       5       0       5     26     26      0   8590     455       1  26    0160f a70f      8.130 "
test,1583577485803209984,23," | 23  |   9051       5   8989       0 |   5    0      8951        38 |   1  26    0    0 160f |    2.044       0       5       0       5     26     26      0   8785     204       1  26    0160f a70f      8.220 "
test,1583577485803524096,24," | 24  |   9051       5   9045       2 |   5    0      8933       114 |   1  26    0    0 160f |    2.044       0       5       0       5     26     26      0   8709     338       1  26    0160f a70f      8.280 "
test,1583577485803874048,26," | 26  |   9051       5   9045       2 |   5    0      9011        36 |   2  26    0    1 160f |    1.739       0       4       0       4     26     26      0   8856     191       2  26    1160f a70f      6.510 "
test,1583577485813818880,27," | 27  |   9051       5   9049       0 |   5    8      8785       264 |   1  29   26    0 bb0f |    2.075       0       5       0       5     29     29      0   8441     608       1  29    0bb0f a70f     15.120 "
test,1583577485809336832,28," | 28  |   9051       5   9039       8 |   5    0      8335       712 |   5  26    0    0 160f |    4.241       0       5       0       5     26     26      0   7974    1073       4  26    0160f a70f     11.100 "
test,1583577485817969152,29," | 29  |   9051       5   9034      15 |   4    3      8012      1037 |   8  29   26    1 bb0f |   10.253       0       4       0       4     29     29      0   7628    1421      14  29    1bb0f a70f     14.730 "
test,1583577485806392064,30," | 30  |   9051       5   9043       4 |   5    0      8927       120 |   4  26    0    0 160f |    4.211       0       5       0       5     26     26      0   8597     450       4  26    0160f a70f     10.320 "
test,1583577485818393856,35," | 35  |   9051       5   9043       4 |   5    0      8628       419 |   4  26    0    0 160f |    4.241       0       5       0       5     26     26      0   8427     620       4  26    0160f a70f     11.160 "
test,1583577485812731136,40," | 40  |   9051       5   8954      89 |   5    0      8508       535 |   2  26    0    0 160f |    2.777       0       5       0       5     26     26      0   8278     765       2  26    0160f a70f      9.720 "
test,1583577485809155072,41," | 41  |   9051       5   8961      76 |   5    0      8934       103 |   2  26    0    0 160f |    2.746       0       5       0       5     26     26      0   8726     311       2  26    0160f a70f     10.410 "
test,1583577485806610944,42," | 42  |   9051       5   8965      82 |   5    0      8872       175 |   2  26    0    0 160f |    2.777       0       5       0       5     26     26      0   8674     373       2  26    0160f a70f      8.940 "
test,1583577485806225920,44," | 44  |   9051       5   8976      71 |   5    0      8873       174 |   1  26    0    0 160f |    2.044       0       5       0       5     26     26      0   8692     355       1  26    0160f a70f      8.220 "
test,1583577485807107840,45," | 45  |   9051       5   8994      53 |   5    0      8760       287 |   2  26    0    0 160f |    2.777       0       5       0       5     26     26      0   8593     454       2  26    0160f a70f      9.690 "
test,1583577485812526080,46," | 46  |   9051       5   8971      69 |   5    0      8601       439 |   2  26    0    0 160f |    3.448       0       5       0       5     26     26      0   8447     593       3  26    0160f a70f     10.290 "
test,1583577485804969984,47," | 47  |   9051       5   8973      74 |   5    0      8757       290 |   2  26    0    0 160f |    2.746       0       5       0       5     26     26      0   8590     457       2  26    0160f a70f      8.940 "
test,1583577485808165120,48," | 48  |   9051       5   8912      68 |   5    0      8794       186 |   2  26    0    0 160f |    2.716       0       5       0       5     26     26      0   8613     367       2  26    0160f a70f      8.790 "
test,1583577485802768896,49," | 49  |   9051       5   9041       0 |   4    0      8866       175 |   2  49    0    1 9d0f |    1.739       0       4       0       4     49     49      0   8807     234       2  49    19d0f a70f      6.480 "
test,1583577485805967104,51," | 51  |   9051       5   9042       0 |   5    0      8939       103 |   2  12    0    0 940f |    2.746       0       5       0       5     12     12      0   8906     136       2  12    0940f a70f      8.910 "
test,1583577485807653888,52," | 52  |   9051       5   9010      33 |   5    0      8592       451 |   1  26    0    0 160f |    2.014       0       5       0       5     26     26      0   8439     604       1  26    0160f a70f      8.220 "
test,1583577485808541952,53," | 53  |   9051       5   9025       0 |   5    0      8575       450 |   1  49    0    0 9d0f |    2.044       0       5       0       5     49     49      0   8485     540       1  49    09d0f a70f      8.250 "
test,1583577485825742848,54," | 54  |   9051       5   9043       0 |   5    0      8894       149 |   2  12    0    0 940f |    2.777       0       4       0       4     12     12      0   8749     294       2  12    0940f a70f     30.390 "
test,1583577485804118016,55," | 55  |   9051       5   9030       0 |   5    0      8696       334 |   1  49    0    0 9d0f |    2.014       0       5       0       5     49     49      0   8618     412       1  49    09d0f a70f      8.220 "
test,1583577485824326912,56," | 56  |   9051       5   9033       0 |   5    1      8899       134 |   2  12   26    0 940f |    3.509       0       4       0       4     12     12      0   8791     242       3  12    0940f a70f     30.240 "
test,1583577485805782016,57," | 57  |   9051       5   8988       0 |   5    0      8749       239 |   2  26    0    0 160f |    2.075       0       5       0       5     26     26      0   8199     789       1  26    0160f a70f      8.190 "
test,1583577485826067968,58," | 58  |   9051       5   9042       0 |   4    5      8918       124 |   1  49   61    0 9d0f |    2.746       0       3       0       3     49     49      0   8550     492       2  49    09d0f a70f     30.390 "
test,1583577485805579776,5," |  5  |   9051       5   9049       0 |   5    0      8218       831 |   1  12    0    0 940f |    2.014       0       5       0       5     12     12      0   8070     979       1  12    0940f a70f      8.220 "
test,1583577485808969984,60," | 60  |   9051       5   9042       0 |   5    0      8448       594 |   3  12    0    0 940f |    3.509       0       5       0       5     12     12      0   8265     777       3  12    0940f a70f      9.660 "
test,1583577485824681984,61," | 61  |   9051       5   9025      16 |   0    2      8617       424 |   0  61   12    1 5e0f |    0           0       0       0       8      0      0      0   8308     733       0  61    15e0f a70f     30.120 "
test,1583577485825256192,7," |  7  |   9051       5   9048       0 |   5    0      8920       128 |   1  12    0    0 940f |    2.014       0       4       0       4     12     12      0   8858     190       1  12    0940f a70f     30.270 "
test,1583577485823307008,9," |  9  |   9051       5   9047       0 |   5    0      8758       289 |   2  12    0    0 940f |    2.044       0       4       0       4     12     12      0   8714     333       1  12    0940f a70f     30.360 "
