test,1583577593056494848,10," | 10  |   9480       5   9452       0 |   5    0      9310       142 |   1  51    0    0 5b0f |    2.044       0       5       0       5     51     51      0   9211     241       1  51    05b0f a70f      8.130 "
test,1583577593074682880,12," | 12  |   9480       5   9444      34 |   0    7      9383        95 |   0  12   51    1 350f |    0           0       0       0       8      0      0      0   9223     255       0  12    1350f a70f     30.180 "
test,1583577593054979072,13," | 13  |   9480       5   9476       0 |   5    0      9400        76 |   1  51    0    0 5b0f |    2.014       0       5       0       5     51     51      0   9309     167       1  51    05b0f a70f      8.220 "
test,1583577593075819008,15," | 15  |   9480       5   9435      43 |   1    6      9069       409 |   1  20   12    0 800f |    0           0       0       0       8      0      0      0   8654     824       0  20    0800f a70f     30.360 "
test,1583577593063136000,16," | 16  |   9480       5   9476       0 |   5    0      9107       369 |   3  51    0    0 5b0f |    3.509       0       5       0       5     51     51      0   8863     613       3  51    05b0f a70f      9.630 "
test,1583577593062932992,17," | 17  |   9480       5   9464      12 |   5    0      9348       128 |   3  51    0    0 5b0f |    3.448       0       5       0       5     51     51      0   9080     396       3  51    05b0f a70f     11.040 "
test,1583577593071857920,18," | 18  |   9480       5   9475       0 |   5    0      8958       517 |   3  51    0    0 5b0f |    3.509       0       5       0       5     51     51      0   8608     867       3  51    05b0f a70f      9.540 "
test,1583577593064214016,19," | 19  |   9480       5   9457      19 |   5    0      9295       181 |   4  51    0    0 5b0f |    4.211       0       5       0       5     51     51      0   9034     442       4  51    05b0f a70f     11.790 "
test,1583577593072660992,1," |  1  |   9480       4   9477       0 |   5    0      9216       261 |   1  51    0    0 5b0f |    3.448       0       5       0       5     51     51      0   9158     319       2  51    05b0f a70f      9.570 "
test,1583577593061206016,22," | 22  |   9480       5   9474       0 |   5    0      9391        83 |   2  51    0    0 5b0f |    2.716       0       5       0       5     51     51      0   8993     481       2  51    05b0f a70f      9.570 "
test,1583577593061752064,23," | 23  |   9480       5   9418       0 |   5    0      9376        42 |   2  51    0    0 5b0f |    2.746       0       5       0       5     51     51      0   9194     224       2  51    05b0f a70f      8.910 "
test,1583577593059155968,24," | 24  |   9480       5   9474       2 |   5    0      9356       120 |   3  51    0    0 5b0f |    3.479       0       5       0       5     51     51      0   9118     358       3  51    05b0f a70f      9.690 "
test,1583577593058178816,26," | 26  |   9480       5   9474       2 |   5    0      9440        36 |   2  51    0    0 5b0f |    2.746       0       5       0       5     51     51      0   9272     204       2  51    05b0f a70f      8.910 "
test,1583577593057615872,27," | 27  |   9480       5   9478       0 |   5    0      9197       281 |   3  51    0    0 5b0f |    3.479       0       5       0       5     51     51      0   8829     649       3  51    05b0f a70f      9.690 "
test,1583577593081175040,28," | 28  |   9480       5   9468       8 |   0    3      8735       741 |   0  28   51    1 1b0f |    0           0       0       0       8      0      0      0   8356    1120       0  28    11b0f a70f     30.240 "
test,1583577593079147008,29," | 29  |   9480       3   9463      15 |   4    0      8391      1087 |   5  51    0    0 5b0f |    4.241       0       3       0       3     51     51      0   7987    1491       4  51    05b0f a70f     30.240 "
test,1583577593055219968,30," | 30  |   9480       5   9472       4 |   5    0      9354       122 |   1  20    0    0 800f |    2.014       0       5       0       5     20     20      0   9011     465       1  20    0800f a70f      8.100 "
test,1583577593066777088,35," | 35  |   9480       5   9472       4 |   5    0      9039       437 |   2  20    0    0 800f |    2.716       0       5       0       5     20     20      0   8828     648       2  20    0800f a70f      8.820 "
test,1583577593065607168,41," | 41  |   9480       5   9387      79 |   5    0      9359       107 |   4  51    0    0 5b0f |    4.180       0       5       0       5     51     51      0   9146     320       4  51    05b0f a70f     10.380 "
test,1583577593062156800,42," | 42  |   9480       5   9390      86 |   5    0      9296       180 |   4  51    0    0 5b0f |    3.448       0       5       0       5     51     51      0   9089     387       3  51    05b0f a70f      9.630 "
test,1583577593058604032,44," | 44  |   9480       5   9402      74 |   5    0      9286       190 |   4  51    0    0 5b0f |    3.479       0       5       0       5     51     51      0   9098     378       3  51    05b0f a70f      9.690 "
test,1583577593062743808,45," | 45  |   9480       5   9422      54 |   5    0      9179       297 |   4  51    0    0 5b0f |    4.241       0       5       0       5     51     51      0   9007     469       4  51    05b0f a70f     10.260 "
test,1583577593078938112,46," | 46  |   9480       5   9397      72 |   2    0      9008       461 |   4  51    0    0 5b0f |    4.211       0       4       0       4     51     51      0   8847     622       4  51    05b0f a70f     30.390 "
test,1583577593060409088,47," | 47  |   9480       5   9399      77 |   5    0      9173       303 |   4  51    0    0 5b0f |    4.211       0       5       0       5     51     51      0   8997     479       4  51    05b0f a70f     10.440 "
test,1583577593059910144,48," | 48  |   9480       5   9338      71 |   5    0      9220       189 |   3  51    0    0 5b0f |    3.509       0       5       0       5     51     51      0   9029     380       3  51    05b0f a70f     10.410 "
test,1583577593062362880,49," | 49  |   9480       5   9470       0 |   5    0      9282       188 |   4  51    0    0 5b0f |    4.180       0       5       0       5     51     51      0   9218     252       4  51    05b0f a70f     10.200 "
test,1583577593054699008,51," | 51  |   9480       5   9471       0 |   4    0      9364       107 |   4  51    0    1 5b0f |    1.739       0       4       0       4     51     51      0   9326     145       2  51    15b0f a70f      6.480 "
test,1583577593074161152,52," | 52  |   9480       5   9439      33 |   5    0      9002       470 |   3  51    0    0 5b0f |    3.479       0       5       0       5     51     51      0   8835     637       3  51    05b0f a70f     12.540 "
test,1583577593061576960,53," | 53  |   9480       5   9454       0 |   5    0      8967       487 |   5  51    0    0 5b0f |    4.913       0       5       0       5     51     51      0   8872     582       5  51    05b0f a70f     11.010 "
test,1583577593060199936,54," | 54  |   9480       5   9472       0 |   5    0      9317       155 |   2  51    0    0 5b0f |    2.777       0       5       0       5     51     51      0   9165     307       2  51    05b0f a70f      8.970 "
test,1583577593062524160,55," | 55  |   9480       5   9459       0 |   5    0      9112       347 |   5  51    0    0 5b0f |    4.241       0       5       0       5     51     51      0   9027     432       4  51    05b0f a70f     10.440 "
test,1583577593055915008,56," | 56  |   9480       5   9462       0 |   5    0      9322       140 |   1  51    0    0 5b0f |    2.044       0       5       0       5     51     51      0   9199     263       1  51    05b0f a70f      8.250 "
test,1583577593067449088,57," | 57  |   9480       5   9417       0 |   5    0      9166       251 |   1  51    0    0 5b0f |    2.044       0       5       0       5     51     51      0   8587     830       1  51    05b0f a70f      8.970 "
test,1583577593078718976,58," | 58  |   9480       5   9471       0 |   5    0      9342       129 |   3  51    0    0 5b0f |    3.479       0       4       0       4     51     51      0   8954     517       3  51    05b0f a70f     30.390 "
test,1583577593059518976,5," |  5  |   9480       5   9478       0 |   5    0      8607       871 |   2  51    0    0 5b0f |    2.746       0       5       0       5     51     51      0   8451    1027       2  51    05b0f a70f      8.790 "
test,1583577593060782080,60," | 60  |   9480       5   9471       0 |   5    0      8852       619 |   1  51    0    0 5b0f |    2.014       0       5       0       5     51     51      0   8655     816       1  51    05b0f a70f      8.100 "
test,1583577593063806976,61," | 61  |   9480       5   9454      16 |   5    0      9032       438 |   3  51    0    0 5b0f |    2.777       0       5       0       5     51     51      0   8705     765       2  51    05b0f a70f      9.000 "
test,1583577593056936960,7," |  7  |   9480       5   9477       0 |   5    0      9341       136 |   1  51    0    0 5b0f |    2.746       0       5       0       5     51     51      0   9277     200       2  51    05b0f a70f      9.600 "
test,1583577593057793024,9," |  9  |   9480       5   9476       0 |   5    0      9178       298 |   2  51    0    0 5b0f |    2.746       0       5       0       5     51     51      0   9131     345       2  51    05b0f a70f      8.820 "
