test,1583577562804855040,10," | 10  |   9359       5   9331       0 |   5    0      9191       140 |   1  54    0    0 ba0f |    2.014       0       5       0       5     54     54      0   9095     236       1  54    0ba0f a70f      8.160 "
test,1583577562806605056,12," | 12  |   9359       5   9323      34 |   5    0      9264        93 |   1  54    0    0 ba0f |    1.983       0       5       0       5     54     54      0   9111     246       1  54    0ba0f a70f      8.970 "
test,1583577562804316928,13," | 13  |   9359       5   9355       0 |   5    0      9280        75 |   1  54    0    0 ba0f |    2.014       0       5       0       5     54     54      0   9192     163       1  54    0ba0f a70f      8.220 "
test,1583577562807955968,15," | 15  |   9359       5   9314      43 |   5    0      8955       402 |   2  54    0    0 ba0f |    2.746       0       5       0       5     54     54      0   8549     808       2  54    0ba0f a70f      9.540 "
test,1583577562806185984,16," | 16  |   9359       5   9355       0 |   5    0      8989       366 |   1  23    0    0 ec0f |    2.044       0       5       0       5     23     23      0   8748     607       1  23    0ec0f a70f      8.250 "
test,1583577562820601856,17," | 17  |   9359       5   9344      11 |   5    0      9228       127 |   1  23    0    0 ec0f |    3.509       0       5       0       5     23     23      0   8962     393       3  23    0ec0f a70f      9.720 "
test,1583577562808258048,18," | 18  |   9359       5   9354       0 |   5    0      8844       510 |   2  23    0    0 ec0f |    3.509       0       5       0       5     23     23      0   8497     857       3  23    0ec0f a70f     10.410 "
test,1583577562819907840,19," | 19  |   9359       5   9337      18 |   5    0      9175       180 |   1  23    0    0 ec0f |    2.746       0       5       0       5     23     23      0   8916     439       2  23    0ec0f a70f      8.970 "
test,1583577562805295872,1," |  1  |   9359       4   9356       0 |   5    0      9099       257 |   1  54    0    0 ba0f |    2.716       0       5       0       5     54     54      0   9043     313       1  54    0ba0f a70f      8.790 "
test,1583577562807753984,22," | 22  |   9359       5   9353       0 |   5    0      9271        82 |   1  23    0    0 ec0f |    3.479       0       5       0       5     23     23      0   8879     474       3  23    0ec0f a70f      9.690 "
test,1583577562806776064,23," | 23  |   9359       5   9297       0 |   4    0      9257        40 |   2  23    0    1 ec0f |    1.739       0       4       0       4     23     23      0   9079     218       2  23    1ec0f a70f      6.510 "
test,1583577562809739008,24," | 24  |   9359       5   9353       2 |   5    0      9236       119 |   1  23    0    0 ec0f |    3.509       0       5       0       5     23     23      0   9003     352       3  23    0ec0f a70f     10.440 "
test,1583577562812769024,26," | 26  |   9359       5   9353       2 |   5    0      9319        36 |   1  23    0    0 ec0f |    2.746       0       5       0       5     23     23      0   9155     200       2  23    0ec0f a70f      9.690 "
test,1583577562812015104,27," | 27  |   9359       5   9357       0 |   4    1      9081       276 |   3  23   54    0 ec0f |    2.075       0       5       0       5     23     23      0   8718     639       1  23    0ec0f a70f      9.600 "
test,1583577562812505856,28," | 28  |   9359       5   9347       8 |   4    0      8620       735 |   2  23    0    0 ec0f |    4.974       0       5       0       5     23     23      0   8246    1109       5  23    0ec0f a70f     11.160 "
test,1583577562813241856,29," | 29  |   9359       4   9342      15 |   5    0      8281      1076 |   2  23    0    0 ec0f |    2.777       0       5       0       5     23     23      0   7883    1474       2  23    0ec0f a70f      9.690 "
test,1583577562825694208,30," | 30  |   9359       5   9351       4 |   5    0      9233       122 |   2  23    0    0 ec0f |    4.241       0       3       0       3     23     23      0   8891     464       4  23    0ec0f a70f     30.360 "
test,1583577562826648064,35," | 35  |   9359       5   9351       4 |   5    0      8925       430 |   2  23    0    0 ec0f |    4.241       0       3       0       3     23     23      0   8715     640       4  23    0ec0f a70f     30.390 "
test,1583577562809478144,40," | 40  |   9359       5   9257      94 |   2    3      8796       555 |   1  48   23    0 470f |    1.983       0       5       0       5     48     48      0   8554     797       1  48    0470f a70f      8.190 "
test,1583577562809211904,41," | 41  |   9359       5   9266      79 |   1    0      9239       106 |   1  48    0    0 470f |    2.014       0       5       0       5     48     48      0   9025     320       1  48    0470f a70f      9.540 "
test,1583577562810246912,42," | 42  |   9359       5   9269      86 |   1    2      9175       180 |   1  48   23    0 470f |    1.983       0       5       0       5     48     48      0   8968     387       1  48    0470f a70f      8.940 "
test,1583577562810468864,44," | 44  |   9359       5   9281      74 |   1    5      9166       189 |   1  48   23    0 470f |    2.014       0       5       0       5     48     48      0   8979     376       1  48    0470f a70f      9.690 "
test,1583577562816711936,45," | 45  |   9359       5   9301      54 |   1    3      9059       296 |   1  48   23    0 470f |    1.983       0       5       0       5     48     48      0   8887     468       1  48    0470f a70f      9.690 "
test,1583577562811585792,46," | 46  |   9359       5   9276      72 |   2    0      8892       456 |   1  48    0    0 470f |    2.014       0       5       0       5     48     48      0   8732     616       1  48    0470f a70f      8.160 "
test,1583577562813648896,47," | 47  |   9359       5   9278      77 |   1    2      9054       301 |   1  48   23    0 470f |    2.014       0       5       0       5     48     48      0   8879     476       1  48    0470f a70f      8.250 "
test,1583577562818882816,48," | 48  |   9359       5   9217      71 |   1    3      9099       189 |   2  48   23    1 470f |    1.770       0       4       0       4     48     48      0   8908     380       2  48    1470f a70f      6.510 "
test,1583577562807367936,49," | 49  |   9359       5   9349       0 |   5    0      9162       187 |   2  54    0    0 ba0f |    2.716       0       5       0       5     54     54      0   9098     251       2  54    0ba0f a70f      8.910 "
test,1583577562806423040,51," | 51  |   9359       5   9350       0 |   5    0      9245       105 |   3  23    0    0 ec0f |    3.479       0       5       0       5     23     23      0   9209     141       3  23    0ec0f a70f      9.690 "
test,1583577562805497856,52," | 52  |   9359       4   9318      33 |   5    0      8888       463 |   1  23    0    0 ec0f |    2.044       0       5       0       5     23     23      0   8727     624       1  23    0ec0f a70f      8.160 "
test,1583577562813467904,53," | 53  |   9359       5   9333       0 |   5    0      8856       477 |   3  54    0    0 ba0f |    3.448       0       5       0       5     54     54      0   8761     572       3  54    0ba0f a70f      9.570 "
test,1583577562804642048,54," | 54  |   9359       5   9351       0 |   4    0      9197       154 |   2  54    0    1 ba0f |    1.739       0       4       0       4     54     54      0   9048     303       2  54    1ba0f a70f      6.510 "
test,1583577562809922816,55," | 55  |   9359       5   9338       0 |   5    0      8997       341 |   2  54    0    0 ba0f |    2.746       0       5       0       5     54     54      0   8912     426       2  54    0ba0f a70f      8.820 "
test,1583577562828835072,56," | 56  |   9359       5   9341       0 |   2    4      9205       136 |   1  54   23    0 ba0f |    6.408       0       3       0       3     54     54      0   9088     253       7  54    0ba0f a70f     30.270 "
test,1583577562827404032,57," | 57  |   9359       5   9296       0 |   5    0      9052       244 |   1  23    0    0 ec0f |    2.044       0       4       0       4     23     23      0   8482     814       1  23    0ec0f a70f     30.360 "
test,1583577562805923072,58," | 58  |   9359       5   9350       0 |   5    0      9222       128 |   1  54    0    0 ba0f |    2.014       0       5       0       5     54     54      0   8839     511       1  54    0ba0f a70f      8.910 "
test,1583577562817792000,5," |  5  |   9359       5   9357       0 |   5    0      8496       861 |   2  54    0    0 ba0f |    2.746       0       5       0       5     54     54      0   8344    1013       2  54    0ba0f a70f      8.820 "
test,1583577562808613120,60," | 60  |   9359       5   9350       0 |   5    0      8738       612 |   2  23    0    0 ec0f |    2.746       0       5       0       5     23     23      0   8547     803       2  23    0ec0f a70f      8.940 "
test,1583577562808962048,61," | 61  |   9359       5   9333      16 |   5    0      8918       431 |   1  54    0    0 ba0f |    1.983       0       5       0       5     54     54      0   8595     754       1  54    0ba0f a70f      8.100 "
test,1583577562805771008,7," |  7  |   9359       5   9356       0 |   5    0      9223       133 |   1  54    0    0 ba0f |    1.983       0       5       0       5     54     54      0   9160     196       1  54    0ba0f a70f      8.070 "
test,1583577562806961152,9," |  9  |   9359       5   9355       0 |   5    0      9058       297 |   1  54    0    0 ba0f |    2.044       0       5       0       5     54     54      0   9013     342       1  54    0ba0f a70f      8.220 "
