test,1583577556054171136,10," | 10  |   9332       5   9304       0 |   5    0      9164       140 |   1   7    0    0 c80f |    2.075       0       5       0       5      7      7      0   9068     236       1   7    0c80f a70f      8.220 "
test,1583577556057907200,12," | 12  |   9332       5   9296      34 |   5    0      9237        93 |   1   7    0    0 c80f |    2.014       0       5       0       5      7      7      0   9085     245       1   7    0c80f a70f      8.130 "
test,1583577556054001152,13," | 13  |   9332       5   9328       0 |   5    0      9253        75 |   1   7    0    0 c80f |    2.075       0       5       0       5      7      7      0   9166     162       1   7    0c80f a70f      8.250 "
test,1583577556080132096,15," | 15  |   9332       5   9287      43 |   1    4      8929       401 |  17  15   30    1 170f |   10.284       0       2       0       2     15     15      0   8524     806      14  15    1170f a70f     30.240 "
test,1583577556058765056,16," | 16  |   9332       5   9328       0 |   5    0      8963       365 |   3  24    0    0 4a0f |    3.479       0       5       0       5     24     24      0   8723     605       3  24    04a0f a70f      9.540 "
test,1583577556066433792,17," | 17  |   9332       5   9317      11 |   1    7      9202       126 |  14  17   24    1 330f |    3.814       0       4       0       4     17     17      0   8936     392       5  17    1330f a70f      8.490 "
test,1583577556075031040,18," | 18  |   9332       5   9327       0 |   1    7      8819       508 |   2  48   24    0 e00f |    0           0       0       0       8      0      0      0   8472     855       0  48    0e00f a70f     30.360 "
test,1583577556062707968,19," | 19  |   9332       5   9310      18 |   2    8      9148       180 |   1  17   24    0 330f |    1.983       0       5       0       5     17     17      0   8890     438       1  17    0330f a70f      8.760 "
test,1583577556061469952,1," |  1  |   9332       4   9329       0 |   5    0      9073       256 |   1   7    0    0 c80f |    2.685       0       5       0       5      7      7      0   9017     312       1   7    0c80f a70f      8.910 "
test,1583577556075273984,22," | 22  |   9332       5   9326       0 |   1   10      9244        82 |   1  48   17    0 e00f |    0           0       0       0       8      0      0      0   8852     474       0  48    0e00f a70f     30.360 "
test,1583577556060200960,23," | 23  |   9332       5   9270       0 |   5    0      9230        40 |   2  24    0    0 4a0f |    2.746       0       5       0       5     24     24      0   9052     218       2  24    04a0f a70f      8.970 "
test,1583577556058264064,24," | 24  |   9332       5   9326       2 |   4    0      9209       119 |  11  24    0    1 4a0f |    1.770       0       4       0       4     24     24      0   8976     352       2  24    14a0f a70f      6.510 "
test,1583577556054380032,26," | 26  |   9332       5   9326       2 |   5    0      9292        36 |  10  24    0    0 4a0f |    2.044       0       5       0       5     24     24      0   9128     200       1  24    04a0f a70f      8.190 "
test,1583577556060759040,27," | 27  |   9332       5   9330       0 |   4    3      9055       275 |   1  17   24    0 330f |    1.983       0       5       0       5     17     17      0   8695     635       1  17    0330f a70f      8.820 "
test,1583577556057549056,28," | 28  |   9332       5   9320       8 |   4    1      8595       733 |   1  30   17    0 a80f |    2.044       0       5       0       5     30     30      0   8222    1106       1  30    0a80f a70f      8.310 "
test,1583577556078301952,29," | 29  |   9332       5   9315      15 |   4    2      8258      1072 |   2  17   24    0 330f |    4.791       0       2       0       2     17     17      0   7861    1469       5  17    0330f a70f     30.360 "
test,1583577556060372992,30," | 30  |   9332       5   9324       4 |   4    0      9206       122 |   8  30    0    1 a80f |    1.770       0       4       0       4     30     30      0   8865     463       2  30    1a80f a70f      6.510 "
test,1583577556057750016,35," | 35  |   9332       5   9324       4 |   5    0      8898       430 |   1  30    0    0 a80f |    2.044       0       5       0       5     30     30      0   8689     639       1  30    0a80f a70f      8.280 "
test,1583577556056870912,41," | 41  |   9332       5   9239      79 |   5    0      9212       106 |   2  48    0    0 e00f |    2.105       0       5       0       5     48     48      0   8999     319       1  48    0e00f a70f      8.310 "
test,1583577556055958016,42," | 42  |   9332       5   9242      86 |   5    0      9148       180 |   2  48    0    0 e00f |    2.044       0       5       0       5     48     48      0   8942     386       1  48    0e00f a70f      8.250 "
test,1583577556055572992,44," | 44  |   9332       5   9254      74 |   5    0      9139       189 |   2  48    0    0 e00f |    2.044       0       5       0       5     48     48      0   8952     376       1  48    0e00f a70f      8.280 "
test,1583577556056158976,45," | 45  |   9332       5   9274      54 |   5    0      9033       295 |   2  48    0    0 e00f |    2.014       0       5       0       5     48     48      0   8862     466       1  48    0e00f a70f      8.280 "
test,1583577556076011776,46," | 46  |   9332       5   9249      72 |   5    0      8867       454 |   1  48    0    0 e00f |    2.044       0       4       0       4     48     48      0   8708     613       1  48    0e00f a70f     30.360 "
test,1583577556057323008,47," | 47  |   9332       5   9251      77 |   5    0      9027       301 |   3  48    0    0 e00f |    2.044       0       5       0       5     48     48      0   8853     475       1  48    0e00f a70f      8.280 "
test,1583577556055782144,48," | 48  |   9332       5   9190      71 |   4    0      9072       189 |   2  48    0    1 e00f |    1.739       0       4       0       4     48     48      0   8881     380       2  48    1e00f a70f      6.510 "
test,1583577556054629120,49," | 49  |   9332       5   9322       0 |   4    0      9135       187 |   5  49    0    1 4c0f |    1.739       0       4       0       4     49     49      0   9071     251       2  49    14c0f a70f      6.480 "
test,1583577556056637952,51," | 51  |   9332       5   9323       0 |   5    0      9219       104 |   1   7    0    0 c80f |    2.014       0       5       0       5      7      7      0   9183     140       1   7    0c80f a70f      8.250 "
test,1583577556059350016,52," | 52  |   9332       3   9291      33 |   5    0      8861       463 |   1  24    0    0 4a0f |    2.044       0       5       0       5     24     24      0   8700     624       1  24    04a0f a70f      8.970 "
test,1583577556058496000,53," | 53  |   9332       5   9306       0 |   5    0      8830       476 |   1  49    0    0 4c0f |    1.983       0       5       0       5     49     49      0   8735     571       1  49    04c0f a70f      8.220 "
test,1583577556055272960,54," | 54  |   9332       5   9324       0 |   5    0      9170       154 |   1   7    0    0 c80f |    2.044       0       5       0       5      7      7      0   9021     303       1   7    0c80f a70f      8.280 "
test,1583577556059709952,55," | 55  |   9332       5   9311       0 |   5    0      8970       341 |   1  49    0    0 4c0f |    2.014       0       5       0       5     49     49      0   8885     426       1  49    04c0f a70f      8.130 "
test,1583577556061281024,56," | 56  |   9332       5   9314       0 |   5    0      9178       136 |   2   7    0    0 c80f |    2.807       0       5       0       5      7      7      0   9063     251       2   7    0c80f a70f      8.850 "
test,1583577556074095104,57," | 57  |   9332       5   9269       0 |   5    0      9025       244 |   3   7    0    0 c80f |    0           0       0       0       8      0      0      0   8457     812       0   7    0c80f a70f     30.360 "
test,1583577556076879104,58," | 58  |   9332       3   9323       0 |   5    8      9195       128 |   1  49    7    0 4c0f |    2.044       0       4       0       4     49     49      0   8812     511       1  49    04c0f a70f     30.390 "
test,1583577556063118080,5," |  5  |   9332       5   9330       0 |   4    3      8470       860 |   4  15    7    0 170f |    1.983       0       5       0       5     15     15      0   8319    1011       1  15    0170f a70f     13.680 "
test,1583577556058052096,60," | 60  |   9332       5   9323       0 |   5    0      8711       612 |   4   7    0    0 c80f |    2.777       0       5       0       5      7      7      0   8521     802       2   7    0c80f a70f      8.850 "
test,1583577556077114112,61," | 61  |   9332       5   9306      16 |   3    3      8892       430 |   4   7   49    0 c80f |    3.509       0       2       0       2      7      7      0   8571     751       3   7    0c80f a70f     30.330 "
test,1583577556053772800,7," |  7  |   9332       5   9329       0 |   4    0      9196       133 |   2   7    0    1 c80f |    1.739       0       4       0       4      7      7      0   9134     195       2   7    1c80f a70f      6.510 "
test,1583577556055074048,9," |  9  |   9332       5   9328       0 |   5    0      9031       297 |   1   7    0    0 c80f |    2.044       0       5       0       5      7      7      0   8986     342       1   7    0c80f a70f      8.190 "
