test,1583577596055250944,10," | 10  |   9492       5   9464       0 |   5    0      9322       142 |   1   7    0    0 230f |    2.075       0       5       0       5      7      7      0   9223     241       1   7    0230f a70f      8.280 "
test,1583577596056148992,12," | 12  |   9492       5   9456      34 |   5    0      9394        96 |   1   7    0    0 230f |    2.075       0       5       0       5      7      7      0   9235     255       1   7    0230f a70f      8.310 "
test,1583577596054425856,13," | 13  |   9492       5   9488       0 |   5    0      9412        76 |   1   7    0    0 230f |    2.044       0       5       0       5      7      7      0   9321     167       1   7    0230f a70f      8.250 "
test,1583577596057156096,15," | 15  |   9492       5   9447      43 |   4    0      9081       409 |   4   7    0    0 230f |    2.777       0       5       0       5      7      7      0   8665     825       2   7    0230f a70f      9.030 "
test,1583577596079502080,16," | 16  |   9492       5   9488       0 |   5    0      9118       370 |   2  17    0    0 540f |    1.983       0       3       0       3     17     17      0   8874     614       1  17    0540f a70f     30.360 "
test,1583577596057543936,17," | 17  |   9492       5   9476      12 |   4    0      9360       128 |   2  17    0    1 540f |    3.204       0       4       0       4     17     17      0   9092     396       4  17    1540f a70f      7.950 "
test,1583577596076738048,18," | 18  |   9492       5   9487       0 |   0    8      8969       518 |   0  18   47    1 940f |    0           0       0       0       8      0      0      0   8619     868       0  18    1940f a70f     30.180 "
test,1583577596062643968,19," | 19  |   9492       5   9469      19 |   5    0      9307       181 |   1  17    0    0 540f |    1.983       0       5       0       5     17     17      0   9046     442       1  17    0540f a70f      8.070 "
test,1583577596060913152,1," |  1  |   9492       4   9489       0 |   5    0      9228       261 |   1   7    0    0 230f |    2.716       0       5       0       5      7      7      0   9170     319       1   7    0230f a70f      8.970 "
test,1583577596079195136,22," | 22  |   9492       5   9486       0 |   5    0      9403        83 |   1  17    0    0 540f |    2.716       0       4       0       4     17     17      0   9005     481       2  17    0540f a70f     30.390 "
test,1583577596057827072,23," | 23  |   9492       5   9430       0 |   5    0      9388        42 |   1  17    0    0 540f |    1.983       0       5       0       5     17     17      0   9206     224       1  17    0540f a70f      8.220 "
test,1583577596062854912,24," | 24  |   9492       5   9486       2 |   5    0      9368       120 |   1  17    0    0 540f |    2.746       0       5       0       5     17     17      0   9130     358       2  17    0540f a70f      8.970 "
test,1583577596062392064,26," | 26  |   9492       5   9486       2 |   5    0      9452        36 |   1  17    0    0 540f |    1.983       0       5       0       5     17     17      0   9284     204       1  17    0540f a70f      8.220 "
test,1583577596056538112,27," | 27  |   9492       5   9490       0 |   5    0      9209       281 |   1  17    0    0 540f |    2.014       0       5       0       5     17     17      0   8841     649       1  17    0540f a70f      8.940 "
test,1583577596064572160,28," | 28  |   9492       4   9480       8 |   5    0      8747       741 |   1  17    0    0 540f |    4.211       0       5       0       5     17     17      0   8368    1120       4  17    0540f a70f     10.350 "
test,1583577596081649920,29," | 29  |   9492       5   9475      15 |   2    0      8402      1088 |   5  17    0    0 540f |    4.241       0       4       0       4     17     17      0   7998    1492       4  17    0540f a70f     30.240 "
test,1583577596081021184,30," | 30  |   9492       5   9484       4 |   3    5      9366       122 |   3  17   35    0 540f |    3.509       0       4       0       4     17     17      0   9023     465       3  17    0540f a70f     30.330 "
test,1583577596075464960,35," | 35  |   9492       5   9484       4 |   0    5      9050       438 |   0  35   17    1 1d0f |    0           0       0       0       8      0      0      0   8839     649       0  35    11d0f a70f     30.150 "
test,1583577596081225984,41," | 41  |   9492       5   9399      79 |   2   11      9371       107 |   2  48   46    0 b70f |    2.746       0       4       0       4     48     48      0   9158     320       2  48    0b70f a70f     30.270 "
test,1583577596080187136,42," | 42  |   9492       5   9402      86 |   2   10      9308       180 |   2  48   46    0 b70f |    2.777       0       4       0       4     48     48      0   9101     387       2  48    0b70f a70f     30.240 "
test,1583577596056832000,44," | 44  |   9492       5   9414      74 |   3    4      9298       190 |   1  48   46    0 b70f |    1.983       0       5       0       5     48     48      0   9110     378       1  48    0b70f a70f      8.220 "
test,1583577596058734848,45," | 45  |   9492       5   9434      54 |   3   10      9191       297 |   1  48   46    0 b70f |    1.983       0       5       0       5     48     48      0   9019     469       1  48    0b70f a70f      8.850 "
test,1583577596075678208,46," | 46  |   9492       5   9409      72 |   0    2      9018       463 |   0  46   48    1 5a0f |    0           0       0       0       8      0      0      0   8857     624       0  46    15a0f a70f     30.210 "
test,1583577596077133056,47," | 47  |   9492       5   9411      77 |   0    3      9184       304 |   0  47   46    1 220f |    0           0       0       0       8      0      0      0   9008     480       0  47    1220f a70f     30.150 "
test,1583577596059921152,48," | 48  |   9492       5   9350      71 |   2    3      9232       189 |   2  48   46    1 b70f |    1.739       0       4       0       4     48     48      0   9041     380       2  48    1b70f a70f      6.480 "
test,1583577596055917056,49," | 49  |   9492       5   9482       0 |   5    4      9293       189 |   1  55   61    0 970f |    2.014       0       5       0       5     55     55      0   9229     253       1  55    0970f a70f      8.220 "
test,1583577596055033088,51," | 51  |   9492       5   9483       0 |   5    0      9376       107 |   1   7    0    0 230f |    2.075       0       5       0       5      7      7      0   9338     145       1   7    0230f a70f      8.310 "
test,1583577596058973184,52," | 52  |   9492       5   9451      33 |   5    0      9013       471 |   2  17    0    0 540f |    2.746       0       5       0       5     17     17      0   8846     638       2  17    0540f a70f      9.540 "
test,1583577596059181056,53," | 53  |   9492       5   9466       0 |   5    0      8978       488 |   1  55    0    0 970f |    1.983       0       5       0       5     55     55      0   8883     583       1  55    0970f a70f      8.190 "
test,1583577596058018048,54," | 54  |   9492       5   9484       0 |   5    0      9329       155 |   1   7    0    0 230f |    2.044       0       5       0       5      7      7      0   9177     307       1   7    0230f a70f      8.280 "
test,1583577596055664128,55," | 55  |   9492       5   9471       0 |   4    3      9123       348 |   8  55   61    1 970f |    1.770       0       4       0       4     55     55      0   9038     433       2  55    1970f a70f      6.510 "
test,1583577596057348864,56," | 56  |   9492       5   9474       0 |   5    0      9334       140 |   1  61    0    0 ec0f |    2.044       0       5       0       5     61     61      0   9211     263       1  61    0ec0f a70f      8.280 "
test,1583577596076299008,57," | 57  |   9492       5   9429       0 |   5    0      9178       251 |   2  61    0    0 ec0f |    0           0       0       0       8      0      0      0   8596     833       0  61    0ec0f a70f     30.360 "
test,1583577596078480128,58," | 58  |   9492       5   9483       0 |   5    0      9354       129 |   1  61    0    0 ec0f |    2.044       0       4       0       4     61     61      0   8965     518       1  61    0ec0f a70f     30.360 "
test,1583577596060733184,5," |  5  |   9492       5   9490       0 |   5    0      8618       872 |   2   7    0    0 230f |    2.777       0       5       0       5      7      7      0   8461    1029       2   7    0230f a70f      8.820 "
test,1583577596059400960,60," | 60  |   9492       5   9483       0 |   5    0      8863       620 |   2   7    0    0 230f |    2.746       0       5       0       5      7      7      0   8666     817       2   7    0230f a70f      8.940 "
test,1583577596059791104,61," | 61  |   9492       5   9466      16 |   4    0      9044       438 |   3  61    0    1 ec0f |    1.739       0       4       0       4     61     61      0   8717     765       2  61    1ec0f a70f      6.510 "
test,1583577596054703872,7," |  7  |   9492       5   9489       0 |   4    0      9353       136 |   4   7    0    1 230f |    1.739       0       4       0       4      7      7      0   9289     200       2   7    1230f a70f      6.480 "
test,1583577596056369152,9," |  9  |   9492       5   9488       0 |   5    0      9190       298 |   1   7    0    0 230f |    2.075       0       5       0       5      7      7      0   9143     345       1   7    0230f a70f      8.310 "
