test,1583577540820871168,10," | 10  |   9271       5   9243       0 |   5    0      9104       139 |   2  57    0    0 dc0f |    2.807       0       5       0       5     57     57      0   9008     235       2  57    0dc0f a70f      8.880 "
test,1583577540805139968,12," | 12  |   9271       5   9235      34 |   3    3      9177        92 |  14  12   57    1 d20f |    1.739       0       4       0       4     12     12      0   9025     244       2  12    1d20f a70f      6.480 "
test,1583577540808656896,13," | 13  |   9271       5   9267       0 |   5    0      9193        74 |   4  57    0    0 dc0f |    3.479       0       5       0       5     57     57      0   9107     160       3  57    0dc0f a70f      9.660 "
test,1583577540806423808,15," | 15  |   9271       5   9226      43 |   5    1      8871       398 |   1  12   57    0 d20f |    2.044       0       5       0       5     12     12      0   8467     802       1  12    0d20f a70f      8.280 "
test,1583577540813186816,16," | 16  |   9271       5   9267       0 |   5    0      8903       364 |   2  57    0    0 dc0f |    2.807       0       5       0       5     57     57      0   8666     601       2  57    0dc0f a70f      8.910 "
test,1583577540814934016,17," | 17  |   9271       5   9256      11 |   5    0      9142       125 |   2  57    0    0 dc0f |    2.746       0       5       0       5     57     57      0   8879     388       2  57    0dc0f a70f      8.970 "
test,1583577540817017088,18," | 18  |   9271       5   9266       0 |   4    0      8760       506 |   2  18    0    1 d30f |    1.739       0       4       0       4     18     18      0   8416     850       2  18    1d30f a70f      6.480 "
test,1583577540810309888,19," | 19  |   9271       5   9249      18 |   5    0      9087       180 |   3  57    0    0 dc0f |    3.540       0       5       0       5     57     57      0   8833     434       3  57    0dc0f a70f      9.600 "
test,1583577540808430848,1," |  1  |   9271       4   9268       0 |   5    0      9014       254 |   2  57    0    0 dc0f |    4.180       0       5       0       5     57     57      0   8958     310       3  57    0dc0f a70f     10.380 "
test,1583577540811047168,22," | 22  |   9271       5   9265       0 |   5    0      9183        82 |   1  18    0    0 d30f |    2.075       0       5       0       5     18     18      0   8796     469       1  18    0d30f a70f      8.280 "
test,1583577540806708992,23," | 23  |   9271       5   9209       0 |   5    0      9169        40 |   1  57    0    0 dc0f |    2.014       0       5       0       5     57     57      0   8995     214       1  57    0dc0f a70f      9.690 "
test,1583577540827901952,24," | 24  |   9271       5   9265       2 |   1    4      9150       117 |   1  18   57    0 d30f |    2.075       0       2       0       2     18     18      0   8921     346       1  18    0d30f a70f     30.270 "
test,1583577540799721984,26," | 26  |   9271       5   9265       2 |   5    0      9231        36 |   1  57    0    0 dc0f |    2.044       0       5       0       5     57     57      0   9069     198       1  57    0dc0f a70f      8.280 "
test,1583577540807899904,27," | 27  |   9271       5   9269       0 |   5    0      8996       273 |   2  57    0    0 dc0f |    2.746       0       5       0       5     57     57      0   8640     629       2  57    0dc0f a70f      9.690 "
test,1583577540809294080,28," | 28  |   9271       5   9259       8 |   5    0      8546       721 |   1  30    0    0 ba0f |    2.044       0       5       0       5     30     30      0   8179    1088       1  30    0ba0f a70f      8.280 "
test,1583577540828530944,29," | 29  |   9271       4   9254      15 |   5    0      8203      1066 |   3  57    0    0 dc0f |    3.509       0       2       0       2     57     57      0   7810    1459       3  57    0dc0f a70f     30.240 "
test,1583577540804548864,30," | 30  |   9271       5   9263       4 |   4    0      9146       121 |   2  30    0    1 ba0f |    1.770       0       4       0       4     30     30      0   8809     458       2  30    1ba0f a70f      6.510 "
test,1583577540804153856,35," | 35  |   9271       5   9263       4 |   5    0      8840       427 |   1  30    0    0 ba0f |    2.014       0       5       0       5     30     30      0   8635     632       1  30    0ba0f a70f      8.250 "
test,1583577540809947904,40," | 40  |   9271       5   9171      92 |   5    0      8717       546 |   3  18    0    0 d30f |    3.479       0       5       0       5     18     18      0   8475     788       3  18    0d30f a70f     11.040 "
test,1583577540810808064,41," | 41  |   9271       5   9178      79 |   5    0      9152       105 |   2  18    0    0 d30f |    2.777       0       5       0       5     18     18      0   8940     317       2  18    0d30f a70f     11.040 "
test,1583577540813815040,42," | 42  |   9271       5   9181      86 |   5    0      9087       180 |   3  18    0    0 d30f |    2.746       0       5       0       5     18     18      0   8883     384       2  18    0d30f a70f     11.880 "
test,1583577540808169984,44," | 44  |   9271       5   9193      74 |   5    0      9080       187 |   3  18    0    0 d30f |    2.777       0       5       0       5     18     18      0   8894     373       2  18    0d30f a70f      9.600 "
test,1583577540806926848,45," | 45  |   9271       5   9213      54 |   5    0      8973       294 |   3  18    0    0 d30f |    2.777       0       5       0       5     18     18      0   8802     465       2  18    0d30f a70f      9.000 "
test,1583577540814379008,46," | 46  |   9271       5   9188      72 |   5    0      8808       452 |   3  18    0    0 d30f |    3.479       0       5       0       5     18     18      0   8649     611       3  18    0d30f a70f     12.570 "
test,1583577540805552128,47," | 47  |   9271       5   9190      77 |   5    0      8967       300 |   1  18    0    0 d30f |    2.014       0       5       0       5     18     18      0   8793     474       1  18    0d30f a70f      8.250 "
test,1583577540812292096,48," | 48  |   9271       5   9129      71 |   5    0      9011       189 |   3  18    0    0 d30f |    2.807       0       5       0       5     18     18      0   8820     380       2  18    0d30f a70f     10.290 "
test,1583577540812052992,49," | 49  |   9271       5   9261       0 |   5    0      9079       182 |   2  57    0    0 dc0f |    3.509       0       5       0       5     57     57      0   9015     246       3  57    0dc0f a70f      9.540 "
test,1583577540804371968,51," | 51  |   9271       5   9262       0 |   5    0      9158       104 |   1  57    0    0 dc0f |    2.044       0       5       0       5     57     57      0   9123     139       1  57    0dc0f a70f      8.280 "
test,1583577540806246144,52," | 52  |   9271       5   9230      33 |   5    0      8801       462 |   1  57    0    0 dc0f |    2.044       0       5       0       5     57     57      0   8641     622       1  57    0dc0f a70f      8.250 "
test,1583577540810094080,53," | 53  |   9271       5   9245       0 |   5    0      8772       473 |   3  57    0    0 dc0f |    4.241       0       5       0       5     57     57      0   8677     568       4  57    0dc0f a70f     10.440 "
test,1583577540808864000,54," | 54  |   9271       5   9263       0 |   5    0      9109       154 |   1  57    0    0 dc0f |    3.509       0       5       0       5     57     57      0   8960     303       3  57    0dc0f a70f      9.600 "
test,1583577540807512064,55," | 55  |   9271       5   9250       0 |   5    0      8909       341 |   2  57    0    0 dc0f |    3.509       0       5       0       5     57     57      0   8824     426       3  57    0dc0f a70f      9.540 "
test,1583577540803904000,56," | 56  |   9271       5   9253       0 |   5    0      9117       136 |   1  57    0    0 dc0f |    2.075       0       5       0       5     57     57      0   9004     249       1  57    0dc0f a70f      8.280 "
test,1583577540810530048,57," | 57  |   9271       5   9208       0 |   4    0      8965       243 |   2  57    0    1 dc0f |    1.739       0       4       0       4     57     57      0   8400     808       2  57    1dc0f a70f      8.640 "
test,1583577540812530944,58," | 58  |   9271       5   9262       0 |   5    0      9137       125 |   1  57    0    0 dc0f |    2.777       0       5       0       5     57     57      0   8757     505       2  57    0dc0f a70f      9.750 "
test,1583577540805798144,5," |  5  |   9271       5   9269       0 |   4    4      8416       853 |   1  12   57    0 d20f |    2.014       0       5       0       5     12     12      0   8266    1003       1  12    0d20f a70f      8.220 "
test,1583577540811578880,60," | 60  |   9271       5   9262       0 |   5    0      8655       607 |   1  57    0    0 dc0f |    2.044       0       5       0       5     57     57      0   8467     795       1  57    0dc0f a70f      8.880 "
test,1583577540809516800,61," | 61  |   9271       5   9245      16 |   5    0      8833       428 |   1  57    0    0 dc0f |    2.014       0       5       0       5     57     57      0   8516     745       1  57    0dc0f a70f      8.880 "
test,1583577540804833792,7," |  7  |   9271       5   9268       0 |   4    9      9135       133 |   1  12   57    0 d20f |    2.044       0       5       0       5     12     12      0   9073     195       1  12    0d20f a70f      8.280 "
test,1583577540807156992,9," |  9  |   9271       5   9267       0 |   5    0      8972       295 |   2  57    0    0 dc0f |    3.509       0       5       0       5     57     57      0   8927     340       3  57    0dc0f a70f      9.720 "
