test,1583577473305805824,10," | 10  |   9001       5   8973       0 |   5    0      8837       136 |   1  51    0    0 4b0f |    2.044       0       5       0       5     51     51      0   8743     230       1  51    04b0f a70f      8.280 "
test,1583577473306018048,12," | 12  |   9001       5   8965      34 |   5    0      8909        90 |   2  51    0    0 4b0f |    2.777       0       5       0       5     51     51      0   8761     238       2  51    04b0f a70f      8.910 "
test,1583577473304302848,13," | 13  |   9001       5   8997       0 |   5    0      8925        72 |   1  51    0    0 4b0f |    2.044       0       5       0       5     51     51      0   8840     157       1  51    04b0f a70f      8.970 "
test,1583577473326651136,15," | 15  |   9001       5   8956      43 |   5    0      8617       382 |   3  51    0    0 4b0f |    4.974       0       4       0       4     51     51      0   8224     775       5  51    04b0f a70f     30.240 "
test,1583577473305267968,16," | 16  |   9001       5   8997       0 |   5    0      8642       355 |   3  51    0    0 4b0f |    3.479       0       5       0       5     51     51      0   8417     580       3  51    04b0f a70f      9.540 "
test,1583577473323172096,17," | 17  |   9001       5   8986      11 |   5    5      8876       121 |   1  27   51    0 910f |    0           0       0       0       8      0      0      0   8622     375       0  27    0910f a70f     30.390 "
test,1583577473314311936,18," | 18  |   9001       4   8996       0 |   5    0      8505       491 |   4  51    0    0 4b0f |    3.509       0       5       0       5     51     51      0   8172     824       3  51    04b0f a70f     10.440 "
test,1583577473308867840,19," | 19  |   9001       5   8979      18 |   2    7      8820       177 |   5  51   27    0 4b0f |    3.479       0       5       0       5     51     51      0   8578     419       3  51    04b0f a70f      9.510 "
test,1583577473309442048,1," |  1  |   9001       4   8998       0 |   5    0      8749       249 |   1  51    0    0 4b0f |    2.716       0       5       0       5     51     51      0   8694     304       1  51    04b0f a70f      9.600 "
test,1583577473306394112,22," | 22  |   9001       5   8995       0 |   5    0      8920        75 |   3  51    0    0 4b0f |    3.509       0       5       0       5     51     51      0   8543     452       3  51    04b0f a70f      9.660 "
test,1583577473309113088,23," | 23  |   9001       5   8939       0 |   5    0      8901        38 |   2  51    0    0 4b0f |    2.746       0       5       0       5     51     51      0   8736     203       2  51    04b0f a70f      9.510 "
test,1583577473307560960,24," | 24  |   9001       5   8995       2 |   5    0      8884       113 |   3  51    0    0 4b0f |    3.479       0       5       0       5     51     51      0   8661     336       3  51    04b0f a70f      9.690 "
test,1583577473307182080,26," | 26  |   9001       5   8995       2 |   5    0      8961        36 |   2  51    0    0 4b0f |    2.746       0       5       0       5     51     51      0   8808     189       2  51    04b0f a70f      8.970 "
test,1583577473327570944,27," | 27  |   9001       5   8999       0 |   4    2      8735       264 |  17  27   51    1 910f |    0           0       0       0       8      0      0      0   8395     604       0  27    1910f a70f     30.120 "
test,1583577473308404992,28," | 28  |   9001       5   8989       8 |   3    1      8288       709 |   2  20   51    0 5a0f |    2.746       0       5       0       5     20     20      0   7929    1068       2  20    05a0f a70f      8.850 "
test,1583577473325185024,29," | 29  |   9001       4   8984      15 |   0    4      7970      1029 |   0  29   27    1 5e0f |    0           0       0       0       8      0      0      0   7590    1409       0  29    15e0f a70f     30.210 "
test,1583577473303010816,30," | 30  |   9001       5   8993       4 |   5    0      8877       120 |   1  20    0    0 5a0f |    1.983       0       5       0       5     20     20      0   8548     449       1  20    05a0f a70f      8.220 "
test,1583577473307843840,35," | 35  |   9001       5   8993       4 |   5    0      8580       417 |   2  20    0    0 5a0f |    2.746       0       5       0       5     20     20      0   8380     617       2  20    05a0f a70f      9.000 "
test,1583577473306189056,49," | 49  |   9001       5   8991       0 |   5    0      8817       174 |   1  55    0    0 3a0f |    2.044       0       5       0       5     55     55      0   8758     233       1  55    03a0f a70f      8.250 "
test,1583577473302828032,51," | 51  |   9001       5   8992       0 |   4    0      8889       103 |   2  51    0    1 4b0f |    1.739       0       4       0       4     51     51      0   8856     136       2  51    14b0f a70f      6.510 "
test,1583577473305614080,52," | 52  |   9001       4   8960      33 |   4    0      8544       449 |   3  51    0    0 4b0f |    3.479       0       5       0       5     51     51      0   8394     599       3  51    04b0f a70f      9.690 "
test,1583577473303899904,53," | 53  |   9001       5   8975       0 |   5    0      8529       446 |   1  55    0    0 3a0f |    2.014       0       5       0       5     55     55      0   8440     535       1  55    03a0f a70f      8.130 "
test,1583577473310498048,54," | 54  |   9001       5   8993       0 |   5    0      8844       149 |   2  51    0    0 4b0f |    2.777       0       5       0       5     51     51      0   8700     293       2  51    04b0f a70f     10.320 "
test,1583577473302639872,55," | 55  |   9001       5   8980       0 |   4    0      8649       331 |   5  55    0    1 3a0f |    1.739       0       4       0       4     55     55      0   8570     410       2  55    13a0f a70f      6.510 "
test,1583577473303342080,56," | 56  |   9001       5   8983       0 |   5    0      8850       133 |   1  51    0    0 4b0f |    2.044       0       5       0       5     51     51      0   8743     240       1  51    04b0f a70f      8.250 "
test,1583577473311109120,57," | 57  |   9001       5   8938       0 |   5    0      8700       238 |   1  51    0    0 4b0f |    2.044       0       5       0       5     51     51      0   8153     785       1  51    04b0f a70f      8.310 "
test,1583577473307396864,58," | 58  |   9001       3   8992       0 |   5    4      8868       124 |   1  55   51    0 3a0f |    2.044       0       5       0       5     55     55      0   8501     491       1  55    03a0f a70f      8.310 "
test,1583577473309707008,5," |  5  |   9001       5   8999       0 |   5    0      8170       829 |   2  51    0    0 4b0f |    2.777       0       5       0       5     51     51      0   8023     976       2  51    04b0f a70f      9.570 "
test,1583577473303548160,60," | 60  |   9001       5   8992       0 |   5    0      8401       591 |   1  51    0    0 4b0f |    2.014       0       5       0       5     51     51      0   8220     772       1  51    04b0f a70f      8.220 "
test,1583577473328038912,61," | 61  |   9001       5   8975      16 |   2    1      8571       420 |   5  51   55    0 4b0f |    3.479       0       4       0       4     51     51      0   8263     728       3  51    04b0f a70f     30.300 "
test,1583577473309978112,7," |  7  |   9001       5   8998       0 |   5    0      8872       126 |   1  51    0    0 4b0f |    2.044       0       5       0       5     51     51      0   8811     187       1  51    04b0f a70f      9.000 "
test,1583577473307023104,9," |  9  |   9001       5   8997       0 |   5    0      8710       287 |   2  51    0    0 4b0f |    2.777       0       5       0       5     51     51      0   8667     330       2  51    04b0f a70f      9.000 "
