test,1583577542057742080,10," | 10  |   9276       5   9248       0 |   5    0      9108       140 |   1  61    0    0 220f |    2.746       0       5       0       5     61     61      0   9012     236       2  61    0220f a70f      8.940 "
test,1583577542059969792,12," | 12  |   9276       5   9240      34 |   5    0      9182        92 |   3  61    0    0 220f |    2.746       0       5       0       5     61     61      0   9030     244       2  61    0220f a70f      9.690 "
test,1583577542056161024,13," | 13  |   9276       5   9272       0 |   5    0      9198        74 |   2  61    0    0 220f |    2.746       0       5       0       5     61     61      0   9112     160       2  61    0220f a70f      8.940 "
test,1583577542061719040,15," | 15  |   9276       5   9231      43 |   5    0      8876       398 |   4  61    0    0 220f |    3.479       0       5       0       5     61     61      0   8472     802       3  61    0220f a70f     10.260 "
test,1583577542056595200,17," | 17  |   9276       5   9261      11 |   4    1      9147       125 |   4  17   61    1 7d0f |    1.739       0       4       0       4     17     17      0   8884     388       2  17    17d0f a70f      7.950 "
test,1583577542057401856,18," | 18  |   9276       5   9271       0 |   5    0      8764       507 |   2  17    0    0 7d0f |    1.953       0       5       0       5     17     17      0   8420     851       1  17    07d0f a70f      8.160 "
test,1583577542059622144,1," |  1  |   9276       4   9273       0 |   5    0      9019       254 |   2  61    0    0 220f |    3.417       0       5       0       5     61     61      0   8963     310       2  61    0220f a70f      9.630 "
test,1583577542055486976,22," | 22  |   9276       5   9270       0 |   5    0      9188        82 |   1  17    0    0 7d0f |    2.044       0       5       0       5     17     17      0   8801     469       1  17    07d0f a70f      8.250 "
test,1583577542056989952,24," | 24  |   9276       5   9270       2 |   5    0      9155       117 |   1  17    0    0 7d0f |    2.014       0       5       0       5     17     17      0   8926     346       1  17    07d0f a70f      8.820 "
test,1583577542057900032,26," | 26  |   9276       5   9270       2 |   5    0      9236        36 |   1  17    0    0 7d0f |    1.983       0       5       0       5     17     17      0   9074     198       1  17    07d0f a70f      8.250 "
test,1583577542065256192,28," | 28  |   9276       5   9264       8 |   5    0      8551       721 |   5  17    0    0 7d0f |    2.777       0       5       0       5     17     17      0   8184    1088       2  17    07d0f a70f     10.320 "
test,1583577542056777984,30," | 30  |   9276       5   9268       4 |   5    0      9151       121 |   2  17    0    0 7d0f |    2.716       0       5       0       5     17     17      0   8814     458       2  17    07d0f a70f      9.630 "
test,1583577542056397056,35," | 35  |   9276       5   9268       4 |   5    0      8844       428 |   2  17    0    0 7d0f |    2.777       0       5       0       5     17     17      0   8639     633       2  17    07d0f a70f      8.910 "
test,1583577542064989184,40," | 40  |   9276       5   9176      92 |   5    0      8722       546 |   2  17    0    0 7d0f |    2.777       0       5       0       5     17     17      0   8480     788       2  17    07d0f a70f      9.600 "
test,1583577542060966912,41," | 41  |   9276       5   9183      79 |   5    0      9156       106 |   1  17    0    0 7d0f |    2.014       0       5       0       5     17     17      0   8944     318       1  17    07d0f a70f      8.070 "
test,1583577542060610048,42," | 42  |   9276       5   9186      86 |   5    0      9092       180 |   2  17    0    0 7d0f |    2.716       0       5       0       5     17     17      0   8888     384       2  17    07d0f a70f      8.940 "
test,1583577542058633984,44," | 44  |   9276       5   9198      74 |   5    0      9085       187 |   2  17    0    0 7d0f |    2.777       0       5       0       5     17     17      0   8899     373       2  17    07d0f a70f      8.850 "
test,1583577542059325952,45," | 45  |   9276       5   9218      54 |   5    0      8978       294 |   2  17    0    0 7d0f |    2.777       0       5       0       5     17     17      0   8807     465       2  17    07d0f a70f      8.850 "
test,1583577542061867008,46," | 46  |   9276       5   9193      72 |   4    0      8812       453 |   2  17    0    0 7d0f |    2.716       0       5       0       5     17     17      0   8653     612       2  17    07d0f a70f      8.970 "
test,1583577542069268992,47," | 47  |   9276       5   9195      77 |   5    0      8972       300 |   2  17    0    0 7d0f |    2.716       0       5       0       5     17     17      0   8798     474       2  17    07d0f a70f      8.940 "
test,1583577542061211136,48," | 48  |   9276       4   9134      71 |   5    0      9016       189 |   2  17    0    0 7d0f |    2.777       0       5       0       5     17     17      0   8825     380       2  17    07d0f a70f      8.880 "
test,1583577542055136000,49," | 49  |   9276       5   9266       0 |   5    4      9084       182 |   1  53   61    0 ad0f |    2.014       0       5       0       5     53     53      0   9020     246       1  53    0ad0f a70f      8.160 "
test,1583577542058299136,51," | 51  |   9276       5   9267       0 |   5    0      9163       104 |   2  61    0    0 220f |    2.746       0       5       0       5     61     61      0   9128     139       2  61    0220f a70f      8.850 "
test,1583577542094611968,52," | 52  |   9276       5   9235      33 |   4    3      8806       462 |   4  61   17    0 220f |   10.803       0       1       0       1     61     61      0   8646     622      13  61    0220f a70f     30.300 "
test,1583577542053661952,53," | 53  |   9276       5   9250       0 |   4    0      8777       473 |   5  53    0    1 ad0f |    1.739       0       4       0       4     53     53      0   8682     568       2  53    1ad0f a70f      6.480 "
test,1583577542061348864,54," | 54  |   9276       5   9268       0 |   5    0      9114       154 |   1  61    0    0 220f |    2.014       0       5       0       5     61     61      0   8965     303       1  61    0220f a70f      8.850 "
test,1583577542054140160,55," | 55  |   9276       5   9255       0 |   5    4      8914       341 |   1  53   61    0 ad0f |    2.044       0       5       0       5     53     53      0   8829     426       1  53    0ad0f a70f      8.100 "
test,1583577542063874048,56," | 56  |   9276       5   9258       0 |   5    0      9122       136 |   1  61    0    0 220f |    2.014       0       5       0       5     61     61      0   9009     249       1  61    0220f a70f      8.100 "
test,1583577542054894080,58," | 58  |   9276       5   9267       0 |   5    0      9141       126 |   1  61    0    0 220f |    2.044       0       5       0       5     61     61      0   8761     506       1  61    0220f a70f      8.160 "
test,1583577542060794112,5," |  5  |   9276       5   9274       0 |   5    0      8419       855 |   3  61    0    0 220f |    3.479       0       5       0       5     61     61      0   8269    1005       3  61    0220f a70f      9.660 "
test,1583577542057235968,60," | 60  |   9276       5   9267       0 |   5    0      8660       607 |   3  61    0    0 220f |    2.746       0       5       0       5     61     61      0   8472     795       2  61    0220f a70f      9.570 "
test,1583577542055324160,61," | 61  |   9276       5   9250      16 |   4    0      8836       430 |   8  61    0    1 220f |    1.739       0       4       0       4     61     61      0   8518     748       2  61    1220f a70f      6.510 "
test,1583577542055756032,7," |  7  |   9276       5   9273       0 |   5    0      9140       133 |   2  61    0    0 220f |    2.777       0       5       0       5     61     61      0   9078     195       2  61    0220f a70f      8.910 "
test,1583577542059113984,9," |  9  |   9276       5   9272       0 |   5    0      8977       295 |   2  61    0    0 220f |    2.746       0       5       0       5     61     61      0   8932     340       2  61    0220f a70f      8.970 "
