test,1583577566555666944,10," | 10  |   9374       5   9346       0 |   5    0      9206       140 |   1  54    0    0 240f |    2.014       0       5       0       5     54     54      0   9109     237       1  54    0240f a70f      8.220 "
test,1583577566555856896,12," | 12  |   9374       5   9338      34 |   4    7      9279        93 |   5  12   54    1 940f |    1.739       0       4       0       4     12     12      0   9125     247       2  12    1940f a70f      6.480 "
test,1583577566561108992,13," | 13  |   9374       5   9370       0 |   5    0      9295        75 |   1  54    0    0 240f |    1.953       0       5       0       5     54     54      0   9205     165       1  54    0240f a70f      8.190 "
test,1583577566558706944,15," | 15  |   9374       5   9329      43 |   5    0      8970       402 |   1  12    0    0 940f |    2.075       0       5       0       5     12     12      0   8563     809       1  12    0940f a70f      8.220 "
test,1583577566577553152,16," | 16  |   9374       5   9370       0 |   5    0      9002       368 |   3  18    0    0 e30f |    6.439       0       1       0       1     18     18      0   8761     609       7  18    0e30f a70f     30.360 "
test,1583577566576903936,17," | 17  |   9374       5   9359      11 |   5    0      9243       127 |   3  18    0    0 e30f |    2.807       0       4       0       4     18     18      0   8976     394       2  18    0e30f a70f     30.390 "
test,1583577566555054848,18," | 18  |   9374       5   9369       0 |   5    0      8858       511 |   2  18    0    1 e30f |    1.739       0       4       0       4     18     18      0   8511     858       2  18    1e30f a70f      6.480 "
test,1583577566577936896,19," | 19  |   9374       5   9352      18 |   5    0      9190       180 |   4  18    0    0 e30f |    2.807       0       4       0       4     18     18      0   8931     439       2  18    0e30f a70f     30.270 "
test,1583577566561764096,1," |  1  |   9374       4   9371       0 |   5    0      9112       259 |   1  54    0    0 240f |    2.685       0       5       0       5     54     54      0   9056     315       1  54    0240f a70f     14.520 "
test,1583577566564177920,22," | 22  |   9374       5   9368       0 |   5    0      9286        82 |   1  18    0    0 e30f |    2.075       0       5       0       5     18     18      0   8893     475       1  18    0e30f a70f      9.030 "
test,1583577566573419008,23," | 23  |   9374       5   9312       0 |   1   12      9271        41 |   3  54   18    0 240f |    0           0       0       0       8      0      0      0   9092     220       0  54    0240f a70f     30.360 "
test,1583577566556390144,24," | 24  |   9374       5   9368       2 |   5    0      9251       119 |   1  18    0    0 e30f |    2.044       0       5       0       5     18     18      0   9018     352       1  18    0e30f a70f      8.220 "
test,1583577566574807040,26," | 26  |   9374       5   9368       2 |   5    0      9334        36 |   2  18    0    0 e30f |    2.807       0       4       0       4     18     18      0   9168     202       2  18    0e30f a70f     30.390 "
test,1583577566575258880,27," | 27  |   9374       5   9372       0 |   1   10      9095       277 |   4  54   12    0 240f |    0           0       0       0       8      0      0      0   8730     642       0  54    0240f a70f     30.390 "
test,1583577566557379072,28," | 28  |   9374       5   9362       8 |   4    2      8634       736 |   2  28   18    1 ab0f |    1.739       0       4       0       4     28     28      0   8260    1110       2  28    1ab0f a70f      7.230 "
test,1583577566576169984,29," | 29  |   9374       4   9357      15 |   1    4      8294      1078 |   5  54   18    0 240f |    0           0       0       0       8      0      0      0   7895    1477       0  54    0240f a70f     30.360 "
test,1583577566556571904,30," | 30  |   9374       5   9366       4 |   5    0      9248       122 |   1  28    0    0 ab0f |    2.044       0       5       0       5     28     28      0   8906     464       1  28    0ab0f a70f      8.100 "
test,1583577566557185792,35," | 35  |   9374       5   9366       4 |   5    0      8940       430 |   2  28    0    0 ab0f |    2.746       0       5       0       5     28     28      0   8730     640       2  28    0ab0f a70f      8.970 "
test,1583577566563497984,40," | 40  |   9374       5   9272      94 |   5    0      8810       556 |   1  42    0    0 cb0f |    2.014       0       5       0       5     42     42      0   8568     798       1  42    0cb0f a70f      8.250 "
test,1583577566571877888,41," | 41  |   9374       5   9281      79 |   5    0      9253       107 |   1  42    0    0 cb0f |    2.014       0       5       0       5     42     42      0   9040     320       1  42    0cb0f a70f      8.220 "
test,1583577566562496000,42," | 42  |   9374       5   9284      86 |   4    0      9190       180 |   2  42    0    1 cb0f |    1.770       0       4       0       4     42     42      0   8983     387       2  42    1cb0f a70f      6.510 "
test,1583577566577233920,44," | 44  |   9374       5   9296      74 |   0    4      9180       190 |   0  44   42    1 370f |    0           0       0       0       8      0      0      0   8993     377       0  44    1370f a70f     30.240 "
test,1583577566578396160,45," | 45  |   9374       5   9316      54 |   5    0      9074       296 |   1  42    0    0 cb0f |    2.807       0       3       0       3     42     42      0   8902     468       2  42    0cb0f a70f     30.360 "
test,1583577566562663168,46," | 46  |   9374       5   9291      72 |   5    0      8907       456 |   1  42    0    0 cb0f |    2.014       0       5       0       5     42     42      0   8747     616       1  42    0cb0f a70f      8.100 "
test,1583577566559705856,47," | 47  |   9374       5   9293      77 |   5    0      9069       301 |   1  42    0    0 cb0f |    2.044       0       5       0       5     42     42      0   8894     476       1  42    0cb0f a70f      8.130 "
test,1583577566578596096,48," | 48  |   9374       5   9232      71 |   5    0      9114       189 |   1  42    0    0 cb0f |    2.777       0       2       0       2     42     42      0   8923     380       2  42    0cb0f a70f     30.360 "
test,1583577566557025792,49," | 49  |   9374       5   9364       0 |   5    0      9177       187 |   2  54    0    0 240f |    2.685       0       5       0       5     54     54      0   9113     251       2  54    0240f a70f      8.880 "
test,1583577566558240768,51," | 51  |   9374       5   9365       0 |   5    0      9259       106 |   2  54    0    0 240f |    2.716       0       5       0       5     54     54      0   9223     142       2  54    0240f a70f      8.940 "
test,1583577566564837888,52," | 52  |   9374       5   9333      33 |   5    0      8903       463 |   3  18    0    0 e30f |    2.777       0       5       0       5     18     18      0   8742     624       2  18    0e30f a70f      8.970 "
test,1583577566556818944,53," | 53  |   9374       5   9348       0 |   5    0      8870       478 |   3  54    0    0 240f |    3.448       0       5       0       5     54     54      0   8775     573       3  54    0240f a70f      9.600 "
test,1583577566558878976,54," | 54  |   9374       5   9366       0 |   4    0      9212       154 |   4  54    0    1 240f |    5.401       0       4       0       4     54     54      0   9062     304       7  54    1240f a70f     10.080 "
test,1583577566556123904,55," | 55  |   9374       5   9353       0 |   5    0      9011       342 |   2  54    0    0 240f |    2.716       0       5       0       5     54     54      0   8926     427       2  54    0240f a70f      8.850 "
test,1583577566560019968,56," | 56  |   9374       5   9356       0 |   5    0      9219       137 |   2  54    0    0 240f |    2.014       0       5       0       5     54     54      0   9101     255       1  54    0240f a70f      8.250 "
test,1583577566558022144,57," | 57  |   9374       5   9311       0 |   1    0      9065       246 |   2  54    0    0 240f |    2.716       0       5       0       5     54     54      0   8493     818       2  54    0240f a70f      8.910 "
test,1583577566559526912,58," | 58  |   9374       5   9365       0 |   5    0      9237       128 |   1  54    0    0 240f |    2.014       0       5       0       5     54     54      0   8853     512       1  54    0240f a70f      8.970 "
test,1583577566549901056,5," |  5  |   9374       5   9372       0 |   5    4      8509       863 |   1  12   54    0 940f |    2.044       0       5       0       5     12     12      0   8356    1016       1  12    0940f a70f      8.250 "
test,1583577566557671168,60," | 60  |   9374       5   9365       0 |   5    0      8753       612 |   3  54    0    0 240f |    3.479       0       5       0       5     54     54      0   8560     805       3  54    0240f a70f      9.570 "
test,1583577566558572032,61," | 61  |   9374       5   9348      16 |   5    0      8932       432 |   1  54    0    0 240f |    1.983       0       5       0       5     54     54      0   8608     756       1  54    0240f a70f      8.130 "
test,1583577566555284992,7," |  7  |   9374       5   9371       0 |   5    9      9237       134 |   1  12   54    0 940f |    2.014       0       5       0       5     12     12      0   9174     197       1  12    0940f a70f      8.250 "
test,1583577566566651136,9," |  9  |   9374       5   9370       0 |   5    0      9073       297 |   1  54    0    0 240f |    1.983       0       5       0       5     54     54      0   9028     342       1  54    0240f a70f     14.550 "
