test,1583577485052369152,10," | 10  |   9048       5   9020       0 |   3    0      8883       137 |   7  10    0    1 540f |    1.770       0       4       0       4     10     10      0   8788     232       2  10    1540f a70f      6.510 "
test,1583577485052994048,12," | 12  |   9048       5   9012      34 |   5    0      8955        91 |   1  10    0    0 540f |    2.014       0       5       0       5     10     10      0   8807     239       1  10    0540f a70f      8.250 "
test,1583577485055493120,13," | 13  |   9048       5   9044       0 |   5    0      8972        72 |   1  10    0    0 540f |    2.014       0       5       0       5     10     10      0   8887     157       1  10    0540f a70f      8.220 "
test,1583577485075556096,15," | 15  |   9048       5   9003      43 |   5    0      8662       384 |   2  10    0    0 540f |    2.746       0       4       0       4     10     10      0   8269     777       2  10    0540f a70f     30.330 "
test,1583577485059374080,16," | 16  |   9048       5   9044       0 |   5    0      8687       357 |   2  24    0    0 420f |    2.716       0       5       0       5     24     24      0   8461     583       2  24    0420f a70f      8.910 "
test,1583577485058813952,17," | 17  |   9048       5   9033      11 |   5    0      8923       121 |   1  24    0    0 420f |    1.983       0       5       0       5     24     24      0   8666     378       1  24    0420f a70f      8.940 "
test,1583577485054763008,18," | 18  |   9048       5   9043       0 |   5    0      8550       493 |   1  24    0    0 420f |    2.014       0       5       0       5     24     24      0   8214     829       1  24    0420f a70f      8.790 "
test,1583577485060638976,19," | 19  |   9048       5   9026      18 |   5    0      8866       178 |   1  24    0    0 420f |    2.014       0       5       0       5     24     24      0   8619     425       1  24    0420f a70f      9.600 "
test,1583577485053339904,1," |  1  |   9048       4   9045       0 |   5    0      8796       249 |   1  10    0    0 540f |    2.716       0       5       0       5     10     10      0   8740     305       1  10    0540f a70f      8.820 "
test,1583577485053576960,22," | 22  |   9048       5   9042       0 |   5    0      8967        75 |   1  24    0    0 420f |    2.014       0       5       0       5     24     24      0   8587     455       1  24    0420f a70f      8.130 "
test,1583577485054567936,23," | 23  |   9048       5   8986       0 |   5    0      8948        38 |   1  24    0    0 420f |    1.953       0       5       0       5     24     24      0   8782     204       1  24    0420f a70f      8.160 "
test,1583577485054047232,24," | 24  |   9048       5   9042       2 |   4    0      8930       114 |   4  24    0    1 420f |    1.739       0       4       0       4     24     24      0   8706     338       2  24    1420f a70f      6.480 "
test,1583577485053790976,26," | 26  |   9048       5   9042       2 |   5    0      9008        36 |   1  24    0    0 420f |    2.044       0       5       0       5     24     24      0   8853     191       1  24    0420f a70f      8.190 "
test,1583577485060466176,27," | 27  |   9048       5   9046       0 |   4    0      8782       264 |   2  24    0    0 420f |    2.716       0       5       0       5     24     24      0   8438     608       2  24    0420f a70f      9.660 "
test,1583577485062027008,28," | 28  |   9048       5   9036       8 |   5    0      8332       712 |   2  24    0    0 420f |    2.044       0       5       0       5     24     24      0   7971    1073       1  24    0420f a70f      9.000 "
test,1583577485057588992,29," | 29  |   9048       5   9031      15 |   5    0      8009      1037 |   2  24    0    0 420f |    2.716       0       5       0       5     24     24      0   7625    1421       2  24    0420f a70f     10.380 "
test,1583577485056539136,30," | 30  |   9048       5   9040       4 |   5    0      8924       120 |   2  24    0    0 420f |    3.448       0       5       0       5     24     24      0   8594     450       3  24    0420f a70f      9.690 "
test,1583577485056157952,35," | 35  |   9048       5   9040       4 |   5    0      8625       419 |   2  24    0    0 420f |    2.777       0       5       0       5     24     24      0   8424     620       2  24    0420f a70f      8.880 "
test,1583577485058579968,40," | 40  |   9048       5   8951      89 |   5    0      8505       535 |   1  24    0    0 420f |    2.044       0       5       0       5     24     24      0   8275     765       1  24    0420f a70f      9.600 "
test,1583577485057306112,41," | 41  |   9048       5   8958      76 |   5    0      8931       103 |   2  24    0    0 420f |    2.746       0       5       0       5     24     24      0   8723     311       2  24    0420f a70f      9.630 "
test,1583577485055335168,42," | 42  |   9048       5   8962      82 |   5    0      8869       175 |   1  24    0    0 420f |    2.014       0       5       0       5     24     24      0   8671     373       1  24    0420f a70f      8.970 "
test,1583577485059806976,44," | 44  |   9048       5   8973      71 |   5    0      8870       174 |   1  24    0    0 420f |    1.983       0       5       0       5     24     24      0   8689     355       1  24    0420f a70f      8.940 "
test,1583577485060924160,45," | 45  |   9048       5   8991      53 |   5    0      8757       287 |   2  24    0    0 420f |    2.777       0       5       0       5     24     24      0   8590     454       2  24    0420f a70f      9.660 "
test,1583577485062915072,46," | 46  |   9048       5   8968      69 |   5    0      8598       439 |   2  24    0    0 420f |    2.746       0       5       0       5     24     24      0   8444     593       2  24    0420f a70f      9.510 "
test,1583577485061840128,47," | 47  |   9048       5   8970      74 |   5    0      8754       290 |   2  24    0    0 420f |    2.716       0       5       0       5     24     24      0   8587     457       2  24    0420f a70f      9.660 "
test,1583577485066227968,48," | 48  |   9048       5   8909      68 |   5    0      8791       186 |   2  24    0    0 420f |    2.746       0       5       0       5     24     24      0   8610     367       2  24    0420f a70f     10.410 "
test,1583577485075012096,49," | 49  |   9048       5   9038       0 |   4    5      8863       175 |   4  10   53    0 540f |    2.746       0       4       0       4     10     10      0   8804     234       2  10    0540f a70f     30.360 "
test,1583577485059129088,51," | 51  |   9048       5   9039       0 |   5    0      8936       103 |   1  10    0    0 540f |    2.014       0       5       0       5     10     10      0   8903     136       1  10    0540f a70f      8.100 "
test,1583577485056742912,52," | 52  |   9048       5   9007      33 |   4    0      8590       450 |   1  24    0    0 420f |    2.014       0       5       0       5     24     24      0   8437     603       1  24    0420f a70f      8.190 "
test,1583577485073210112,53," | 53  |   9048       5   9022       0 |   0    4      8572       450 |   0  53   10    1 e90f |    0           0       0       0       8      0      0      0   8482     540       0  53    1e90f a70f     30.210 "
test,1583577485055155968,54," | 54  |   9048       5   9040       0 |   5    0      8891       149 |   1  10    0    0 540f |    2.044       0       5       0       5     10     10      0   8746     294       1  10    0540f a70f      8.280 "
test,1583577485075814912,55," | 55  |   9048       5   9027       0 |   4    5      8693       334 |   4  10   53    0 540f |    2.777       0       4       0       4     10     10      0   8615     412       2  10    0540f a70f     30.300 "
test,1583577485054397952,56," | 56  |   9048       5   9030       0 |   5    0      8896       134 |   1  10    0    0 540f |    2.014       0       5       0       5     10     10      0   8788     242       1  10    0540f a70f      8.820 "
test,1583577485076355840,57," | 57  |   9048       5   8985       0 |   3    3      8747       238 |   4  24   10    0 420f |    7.171       0       2       0       2     24     24      0   8197     788       8  24    0420f a70f     30.390 "
test,1583577485055865088,58," | 58  |   9048       3   9039       0 |   5    0      8915       124 |   1  10    0    0 540f |    2.014       0       5       0       5     10     10      0   8547     492       1  10    0540f a70f      8.880 "
test,1583577485058214912,5," |  5  |   9048       5   9046       0 |   5    0      8215       831 |   2  10    0    0 540f |    2.746       0       5       0       5     10     10      0   8067     979       2  10    0540f a70f      8.910 "
test,1583577485057772032,60," | 60  |   9048       5   9039       0 |   5    1      8445       594 |   2  10   24    0 540f |    2.746       0       5       0       5     10     10      0   8262     777       2  10    0540f a70f      8.940 "
test,1583577485076845824,61," | 61  |   9048       5   9022      16 |   5    0      8615       423 |   2  10    0    0 540f |    2.777       0       4       0       4     10     10      0   8307     731       2  10    0540f a70f     30.240 "
test,1583577485055645952,7," |  7  |   9048       5   9045       0 |   5    0      8917       128 |   1  10    0    0 540f |    1.983       0       5       0       5     10     10      0   8855     190       1  10    0540f a70f      8.160 "
test,1583577485054950912,9," |  9  |   9048       5   9044       0 |   5    0      8755       289 |   1  10    0    0 540f |    2.014       0       5       0       5     10     10      0   8711     333       1  10    0540f a70f      8.070 "
