test,1583577572614490880,22," | 22  |   9398       5   9392       0 |   5    0      9310        82 |   1  23    0    0 900f |    2.014       0       5       0       5     23     23      0   8916     476       1  23    0900f a70f      8.220 "
test,1583577572613938176,29," | 29  |   9398       4   9381      15 |   5    0      8316      1080 |   2  23    0    0 900f |    2.777       0       3       0       3     23     23      0   7916    1480       2  23    0900f a70f     30.330 "
test,1583577572615041024,7," |  7  |   9398       5   9395       0 |   5    0      9261       134 |   1   1    0    0 820f |    1.342       0       5       0       5      1      1      0   9197     198       1   1    0820f a70f      7.560 "
