test,1583575463764041984,10," | 10  |    963       5    935       0 |   2    0       922        13 |   1   7    0    0 210f |    2.014       0       5       0       5      7      7      0    909      26       1   7    0210f a70f      8.100 "
test,1583575463762900992,12," | 12  |    963       5    961       0 |   5    0       955         6 |   1   7    0    0 210f |    2.044       0       5       0       5      7      7      0    936      25       1   7    0210f a70f      8.280 "
test,1583575463762023936,13," | 13  |    963       5    959       0 |   5    0       948        11 |   1   7    0    0 210f |    2.044       0       5       0       5      7      7      0    938      21       1   7    0210f a70f      8.250 "
test,1583575463764733952,15," | 15  |    963       4    961       0 |   4    4       926        35 |   2   7   60    0 210f |    2.777       0       5       0       5      7      7      0    891      70       2   7    0210f a70f      8.850 "
test,1583575463767577856,16," | 16  |    963       5    959       0 |   5    0       927        32 |   3  35    0    0 3b0f |    4.180       0       5       0       5     35     35      0    903      56       4  35    03b0f a70f     10.380 "
test,1583575463766565120,17," | 17  |    963       5    958       1 |   4    4       948        11 |   3  35   27    0 3b0f |    3.448       0       5       0       5     35     35      0    919      40       3  35    03b0f a70f      9.630 "
test,1583575463767137024,18," | 18  |    963       5    958       0 |   5    0       895        63 |   2  35    0    0 3b0f |    3.479       0       5       0       5     35     35      0    851     107       3  35    03b0f a70f     10.980 "
test,1583575463784378112,19," | 19  |    963       5    957       2 |   3    3       949        10 |   4  35   27    0 3b0f |    4.211       0       4       0       4     35     35      0    919      40       4  35    03b0f a70f     30.390 "
test,1583575463764323072,1," |  1  |    963       4    960       0 |   5    0       941        19 |   1   7    0    0 210f |    2.716       0       5       0       5      7      7      0    934      26       1   7    0210f a70f      8.790 "
test,1583575463766896128,22," | 22  |    963       5    957       0 |   5    0       947        10 |   1  35    0    0 3b0f |    2.716       0       5       0       5     35     35      0    902      55       2  35    03b0f a70f     10.380 "
test,1583575463781889024,23," | 23  |    963       5    901       0 |   5    0       895         6 |   2  35    0    0 3b0f |    4.180       0       4       0       4     35     35      0    879      22       4  35    03b0f a70f     30.300 "
test,1583575463770307072,24," | 24  |    963       5    959       0 |   5    0       954         5 |   2  35    0    0 3b0f |    3.479       0       5       0       5     35     35      0    930      29       3  35    03b0f a70f     10.290 "
test,1583575463765253120,26," | 26  |    963       5    959       0 |   5    0       956         3 |   2  35    0    0 3b0f |    3.479       0       5       0       5     35     35      0    936      23       3  35    03b0f a70f      9.690 "
test,1583575463781428224,27," | 27  |    963       5    961       0 |   0    5       937        24 |   0  27   35    1 3e0f |    0           0       0       0       8      0      0      0    896      65       0  27    13e0f a70f     30.210 "
test,1583575463770675968,28," | 28  |    963       5    959       0 |   4    0       882        77 |   1  35    0    0 3b0f |    2.746       0       5       0       5     35     35      0    855     104       2  35    03b0f a70f      9.660 "
test,1583575463784637952,29," | 29  |    963       3    958       3 |   0    2       849       112 |   0  29   35    1 280f |    0           0       0       0       8      0      0      0    797     164       0  29    1280f a70f     30.150 "
test,1583575463769548032,30," | 30  |    963       5    959       0 |   5    0       946        13 |   1  35    0    0 3b0f |    1.983       0       5       0       5     35     35      0    916      43       1  35    03b0f a70f      8.190 "
test,1583575463762646016,35," | 35  |    963       5    959       0 |   4    0       915        44 |   2  35    0    1 3b0f |    1.739       0       4       0       4     35     35      0    897      62       2  35    13b0f a70f      6.510 "
test,1583575463776755200,40," | 40  |    963       5    925      30 |   4    0       878        77 |   5  40    0    1 800f |   12.451       0       4       0       4     40     40      0    843     112      17  40    1800f a70f     17.520 "
test,1583575463785571072,41," | 41  |    963       5    920      29 |   5    0       936        13 |   6  40    0    0 800f |   13.488       0       3       0       3     40     40      0    910      39      17  40    0800f a70f     30.300 "
test,1583575463786379008,42," | 42  |    963       5    927      32 |   5    0       921        38 |   6  40    0    0 800f |   13.458       0       4       0       4     40     40      0    896      63      17  40    0800f a70f     30.390 "
test,1583575463786819072,44," | 44  |    963       5    932      27 |   5    0       930        29 |   5  40    0    0 800f |   13.427       0       4       0       4     40     40      0    900      59      17  40    0800f a70f     30.480 "
test,1583575463787205888,45," | 45  |    963       5    937      22 |   5    0       914        45 |   6  40    0    0 800f |   13.458       0       4       0       4     40     40      0    890      69      17  40    0800f a70f     30.270 "
test,1583575463784105984,46," | 46  |    963       5    924      28 |   0   11       907        45 |   0  46   40    1 1b0f |    0           0       0       0       8      0      0      0    887      65       0  46    11b0f a70f     30.210 "
test,1583575463786163968,47," | 47  |    963       5    930      29 |   5    0       919        40 |   5  40    0    0 800f |   13.488       0       4       0       4     40     40      0    901      58      17  40    0800f a70f     30.360 "
test,1583575463785976832,48," | 48  |    963       5    866      26 |   5    0       860        32 |   4  40    0    0 800f |   12.725       0       4       0       4     40     40      0    833      59      16  40    0800f a70f     30.360 "
test,1583575463762326016,49," | 49  |    963       5    953       0 |   5    0       940        13 |   2  49    0    1 ea0f |    1.739       0       4       0       4     49     49      0    932      21       2  49    1ea0f a70f      6.480 "
test,1583575463763771904,51," | 51  |    963       5    954       0 |   5    0       948         6 |   1   7    0    0 210f |    2.746       0       5       0       5      7      7      0    947       7       2   7    0210f a70f      8.970 "
test,1583575463765656064,52," | 52  |    963       5    947       8 |   5    0       906        49 |   3  35    0    0 3b0f |    4.211       0       5       0       5     35     35      0    887      68       4  35    03b0f a70f     10.230 "
test,1583575463765064960,53," | 53  |    963       5    937       0 |   5    0       887        50 |   1  49    0    0 ea0f |    1.983       0       5       0       5     49     49      0    879      58       1  49    0ea0f a70f      8.220 "
test,1583575463766375936,54," | 54  |    963       5    955       0 |   5    0       942        13 |   1   7    0    0 210f |    2.014       0       5       0       5      7      7      0    922      33       1   7    0210f a70f      8.130 "
test,1583575463763175936,55," | 55  |    963       5    942       0 |   5    0       901        41 |   1  49    0    0 ea0f |    2.044       0       5       0       5     49     49      0    897      45       1  49    0ea0f a70f      8.160 "
test,1583575463767299840,56," | 56  |    963       5    945       0 |   5    0       926        19 |   2   7    0    0 210f |    2.746       0       5       0       5      7      7      0    919      26       2   7    0210f a70f      8.970 "
test,1583575463770128128,57," | 57  |    963       5    900       0 |   1    9       868        32 |  10  35   60    0 3b0f |    4.211       0       5       0       5     35     35      0    823      77       4  35    03b0f a70f     10.410 "
test,1583575463782455040,58," | 58  |    963       5    954       0 |   1   10       941        13 |   2   7   49    0 210f |    9.338       0       1       0       1      7      7      0    914      40      11   7    0210f a70f     30.360 "
test,1583575463763564032,5," |  5  |    963       5    961       0 |   5    0       884        77 |   2   7    0    0 210f |    2.746       0       5       0       5      7      7      0    864      97       2   7    0210f a70f      8.940 "
test,1583575463789180160,60," | 60  |    963       5    954       0 |   0    2       898        56 |   0  60    7    1 550f |    0           0       0       0       8      0      0      0    886      68       0  60    1550f a70f     30.180 "
test,1583575463764563200,61," | 61  |    963       5    953       0 |   1    0       912        41 |   2   7    0    0 210f |    2.777       0       5       0       5      7      7      0    887      66       2   7    0210f a70f      9.000 "
test,1583575463761179904,7," |  7  |    963       5    960       0 |   4    0       943        17 |   5   7    0    1 210f |    1.739       0       4       0       4      7      7      0    939      21       2   7    1210f a70f      6.480 "
test,1583575463761619200,9," |  9  |    963       5    959       0 |   5    0       921        38 |   1   7    0    0 210f |    2.044       0       5       0       5      7      7      0    915      44       1   7    0210f a70f      8.250 "
