test,1583577528575968000,10," | 10  |   9222       5   9194       0 |   5    0      9056       138 |   1  58    0    0 ba0f |    5.706       0       4       0       4     58     58      0   8959     235       6  58    0ba0f a70f     30.270 "
test,1583577528563452928,12," | 12  |   9222       5   9186      34 |   5    0      9128        92 |   1  58    0    0 ba0f |    3.479       0       5       0       5     58     58      0   8977     243       3  58    0ba0f a70f     13.800 "
test,1583577528562563840,13," | 13  |   9222       5   9218       0 |   5    0      9145        73 |   3  58    0    0 ba0f |    4.211       0       5       0       5     58     58      0   9060     158       4  58    0ba0f a70f     13.020 "
test,1583577528560512000,15," | 15  |   9222       5   9177      43 |   5    0      8828       392 |   2  58    0    0 ba0f |    4.241       0       5       0       5     58     58      0   8424     796       4  58    0ba0f a70f     14.400 "
test,1583577528564791040,16," | 16  |   9222       5   9218       0 |   5    0      8856       362 |   2  57    0    0 220f |    2.777       0       5       0       5     57     57      0   8623     595       2  57    0220f a70f      9.540 "
test,1583577528549388032,17," | 17  |   9222       5   9207      11 |   4    0      9094       124 |   5  17    0    1 750f |    1.739       0       4       0       4     17     17      0   8832     386       2  17    1750f a70f      6.480 "
test,1583577528557012992,18," | 18  |   9222       5   9217       0 |   5    0      8714       503 |   2  57    0    0 220f |    3.509       0       5       0       5     57     57      0   8372     845       3  57    0220f a70f      9.690 "
test,1583577528563232000,19," | 19  |   9222       5   9200      18 |   5    0      9040       178 |   4  17    0    0 750f |    1.983       0       5       0       5     17     17      0   8787     431       1  17    0750f a70f      8.190 "
test,1583577528571854080,1," |  1  |   9222       4   9219       0 |   5    0      8966       253 |   4  58    0    0 ba0f |    4.150       0       5       0       5     58     58      0   8910     309       3  58    0ba0f a70f     14.460 "
test,1583577528558208000,22," | 22  |   9222       5   9216       0 |   5    0      9135        81 |   1  57    0    0 220f |    3.479       0       5       0       5     57     57      0   8750     466       3  57    0220f a70f      9.690 "
test,1583577528561742080,23," | 23  |   9222       5   9160       0 |   5    0      9121        39 |   1  57    0    0 220f |    2.014       0       5       0       5     57     57      0   8950     210       1  57    0220f a70f     10.410 "
test,1583577528557726976,24," | 24  |   9222       5   9216       2 |   5    0      9101       117 |   1  57    0    0 220f |    3.509       0       5       0       5     57     57      0   8875     343       3  57    0220f a70f      9.720 "
test,1583577528555258112,26," | 26  |   9222       5   9216       2 |   4    1      9182        36 |   1  57   17    0 220f |    2.777       0       5       0       5     57     57      0   9023     195       2  57    0220f a70f      8.820 "
test,1583577528561945856,27," | 27  |   9222       5   9220       0 |   5    0      8949       271 |   2  57    0    0 220f |    2.777       0       5       0       5     57     57      0   8596     624       2  57    0220f a70f     11.100 "
test,1583577528560195840,28," | 28  |   9222       4   9210       8 |   5    0      8499       719 |   1  30    0    0 bc0f |    2.014       0       5       0       5     30     30      0   8132    1086       1  30    0bc0f a70f      8.220 "
test,1583577528577966848,29," | 29  |   9222       5   9205      15 |   1    1      8161      1059 |   3  57   17    0 220f |    3.448       0       4       0       4     57     57      0   7770    1450       3  57    0220f a70f     30.360 "
test,1583577528559319040,30," | 30  |   9222       5   9214       4 |   5    0      9098       120 |   5  30    0    1 bc0f |    1.739       0       4       0       4     30     30      0   8761     457       2  30    1bc0f a70f      6.480 "
test,1583577528562362880,35," | 35  |   9222       5   9214       4 |   5    0      8793       425 |   4  30    0    0 bc0f |    2.014       0       5       0       5     30     30      0   8588     630       1  30    0bc0f a70f      8.250 "
test,1583577528554373120,40," | 40  |   9222       5   9122      92 |   5    0      8671       543 |   5  47    0    0  20f |    1.983       0       5       0       5     47     47      0   8431     783       1  47    0 20f a70f      8.220 "
test,1583577528556706048,41," | 41  |   9222       5   9129      79 |   5    0      9103       105 |   1  47    0    0  20f |    2.014       0       5       0       5     47     47      0   8892     316       1  47    0 20f a70f      8.220 "
test,1583577528554995968,42," | 42  |   9222       5   9132      86 |   5    0      9038       180 |   2  47    0    0  20f |    1.983       0       5       0       5     47     47      0   8836     382       1  47    0 20f a70f      8.250 "
test,1583577528553893120,44," | 44  |   9222       5   9144      74 |   5    0      9034       184 |   2  47    0    0  20f |    2.014       0       5       0       5     47     47      0   8848     370       1  47    0 20f a70f      8.190 "
test,1583577528558404096,45," | 45  |   9222       5   9164      54 |   5    0      8925       293 |   1  47    0    0  20f |    2.014       0       5       0       5     47     47      0   8754     464       1  47    0 20f a70f      8.850 "
test,1583577528556518144,46," | 46  |   9222       5   9139      72 |   5    0      8763       448 |   1  47    0    0  20f |    1.983       0       5       0       5     47     47      0   8605     606       1  47    0 20f a70f      8.160 "
test,1583577528553376000,47," | 47  |   9222       5   9141      77 |   5    0      8919       299 |   2  47    0    1  20f |    1.739       0       4       0       4     47     47      0   8746     472       2  47    1 20f a70f      6.480 "
test,1583577528557224960,48," | 48  |   9222       5   9080      71 |   5    0      8962       189 |   2  47    0    0  20f |    1.983       0       5       0       5     47     47      0   8773     378       1  47    0 20f a70f      8.070 "
test,1583577528558651904,49," | 49  |   9222       5   9212       0 |   5    0      9034       178 |   1  55    0    0 5d0f |    2.014       0       5       0       5     55     55      0   8972     240       1  55    05d0f a70f      8.220 "
test,1583577528559792896,51," | 51  |   9222       5   9213       0 |   5    1      9109       104 |   1  57   58    0 220f |    2.777       0       5       0       5     57     57      0   9075     138       2  57    0220f a70f      8.910 "
test,1583577528561309952,52," | 52  |   9222       2   9181      33 |   5    0      8754       460 |   2  57    0    0 220f |    2.777       0       5       0       5     57     57      0   8597     617       2  57    0220f a70f     10.260 "
test,1583577528555814912,53," | 53  |   9222       5   9196       0 |   5    0      8728       468 |   1  55    0    0 5d0f |    2.014       0       5       0       5     55     55      0   8635     561       1  55    05d0f a70f      8.250 "
test,1583577528559159040,54," | 54  |   9222       5   9214       0 |   5    0      9060       154 |   1  58    0    0 ba0f |    2.716       0       5       0       5     58     58      0   8911     303       2  58    0ba0f a70f     13.770 "
test,1583577528560935936,55," | 55  |   9222       5   9201       0 |   4    0      8861       340 |   2  55    0    1 5d0f |    1.770       0       4       0       4     55     55      0   8779     422       2  55    15d0f a70f      6.510 "
test,1583577528554809088,56," | 56  |   9222       5   9204       0 |   5    0      9069       135 |   1  57    0    0 220f |    2.014       0       5       0       5     57     57      0   8957     247       1  57    0220f a70f      8.220 "
test,1583577528555979008,57," | 57  |   9222       5   9159       0 |   4    0      8917       242 |   2  57    0    1 220f |    3.204       0       4       0       4     57     57      0   8358     801       4  57    1220f a70f      7.920 "
test,1583577528562722048,58," | 58  |   9222       3   9213       0 |   3    1      9088       125 |  13  58   55    1 ba0f |    8.117       0       4       0       4     58     58      0   8711     502      11  58    1ba0f a70f     13.470 "
test,1583577528563886848,5," |  5  |   9222       5   9220       0 |   5    0      8370       850 |   2  58    0    0 ba0f |    4.211       0       5       0       5     58     58      0   8220    1000       4  58    0ba0f a70f     13.620 "
test,1583577528557409024,60," | 60  |   9222       5   9213       0 |   5    0      8610       603 |   1  57    0    0 220f |    2.044       0       5       0       5     57     57      0   8423     790       1  57    0220f a70f      8.220 "
test,1583577528565057024,61," | 61  |   9222       5   9196      16 |   5    1      8786       426 |   1  58   57    0 ba0f |    2.044       0       5       0       5     58     58      0   8472     740       1  58    0ba0f a70f     14.460 "
test,1583577528574296832,7," |  7  |   9222       5   9219       0 |   0   10      9086       133 |   0   7   58    1 b80f |    0           0       0       0       8      0      0      0   9024     195       0   7    1b80f a70f     30.240 "
test,1583577528575386112,9," |  9  |   9222       5   9218       0 |   0    9      8926       292 |   0   9   58    1 850f |    0           0       0       0       8      0      0      0   8881     337       0   9    1850f a70f     30.270 "
