test,1583577581555044864,10," | 10  |   9434       5   9406       0 |   5    0      9264       142 |   1   9    0    0 720f |    2.014       0       5       0       5      9      9      0   9167     239       1   9    0720f a70f      8.220 "
test,1583577581554586880,12," | 12  |   9434       5   9398      34 |   5    0      9339        93 |   1   9    0    0 720f |    2.014       0       5       0       5      9      9      0   9181     251       1   9    0720f a70f      8.220 "
test,1583577581556816128,13," | 13  |   9434       5   9430       0 |   5    0      9354        76 |   1   9    0    0 720f |    2.044       0       5       0       5      9      9      0   9263     167       1   9    0720f a70f      9.540 "
test,1583577581558018816,15," | 15  |   9434       5   9389      43 |   5    0      9027       405 |   2   9    0    0 720f |    2.746       0       5       0       5      9      9      0   8616     816       2   9    0720f a70f      8.940 "
test,1583577581561059072,16," | 16  |   9434       5   9430       0 |   5    0      9061       369 |   2  52    0    0 8c0f |    2.716       0       5       0       5     52     52      0   8818     612       2  52    08c0f a70f      8.910 "
test,1583577581562505984,17," | 17  |   9434       5   9419      11 |   5    0      9302       128 |   2  52    0    0 8c0f |    4.241       0       5       0       5     52     52      0   9036     394       4  52    08c0f a70f     11.820 "
test,1583577581557684992,18," | 18  |   9434       5   9429       0 |   5    0      8914       515 |   2  52    0    0 8c0f |    2.777       0       5       0       5     52     52      0   8565     864       2  52    08c0f a70f      9.630 "
test,1583577581559272960,19," | 19  |   9434       5   9412      18 |   5    0      9249       181 |   2  52    0    0 8c0f |    4.241       0       5       0       5     52     52      0   8990     440       4  52    08c0f a70f     10.350 "
test,1583577581558419968,1," |  1  |   9434       4   9431       0 |   5    0      9170       261 |   1   9    0    0 720f |    2.685       0       5       0       5      9      9      0   9112     319       1   9    0720f a70f      8.940 "
test,1583577581560878080,22," | 22  |   9434       5   9428       0 |   5    0      9346        82 |   2  52    0    0 8c0f |    3.448       0       5       0       5     52     52      0   8950     478       3  52    08c0f a70f     10.350 "
test,1583577581559571968,23," | 23  |   9434       5   9372       0 |   5    0      9331        41 |   1  52    0    0 8c0f |    2.014       0       5       0       5     52     52      0   9150     222       1  52    08c0f a70f      8.250 "
test,1583577581556144896,24," | 24  |   9434       5   9428       2 |   5    0      9311       119 |   1  52    0    0 8c0f |    2.014       0       5       0       5     52     52      0   9076     354       1  52    08c0f a70f      8.250 "
test,1583577581557521152,26," | 26  |   9434       5   9428       2 |   5    0      9394        36 |   1  52    0    0 8c0f |    2.014       0       5       0       5     52     52      0   9227     203       1  52    08c0f a70f      8.910 "
test,1583577581560658944,27," | 27  |   9434       5   9432       0 |   4    0      9151       281 |   2  52    0    0 8c0f |    2.746       0       5       0       5     52     52      0   8785     647       2  52    08c0f a70f     10.920 "
test,1583577581560285184,28," | 28  |   9434       4   9422       8 |   5    0      8691       739 |   2  52    0    0 8c0f |    4.241       0       5       0       5     52     52      0   8314    1116       4  52    08c0f a70f     10.260 "
test,1583577581561481984,29," | 29  |   9434       3   9417      15 |   4    0      8348      1084 |   5  52    0    0 8c0f |    4.943       0       5       0       5     52     52      0   7946    1486       5  52    08c0f a70f     11.100 "
test,1583577581559834880,30," | 30  |   9434       5   9426       4 |   5    0      9308       122 |   3  52    0    0 8c0f |    3.479       0       5       0       5     52     52      0   8965     465       3  52    08c0f a70f      9.630 "
test,1583577581560098816,35," | 35  |   9434       5   9426       4 |   5    0      8996       434 |   3  52    0    0 8c0f |    4.211       0       5       0       5     52     52      0   8785     645       4  52    08c0f a70f     10.410 "
test,1583577581581882112,40," | 40  |   9434       5   9332      94 |   2    5      8864       562 |   2  41   46    0 270f |    3.509       0       1       0       1     41     41      0   8620     806       3  41    0270f a70f     30.360 "
test,1583577581575436032,41," | 41  |   9434       5   9341      79 |   1   11      9313       107 |   5  41   46    1 270f |    1.739       0       1       0       1     41     41      0   9100     320       2  41    1270f a70f     30.300 "
test,1583577581577729024,42," | 42  |   9434       5   9344      86 |   2   12      9250       180 |   1  41   46    0 270f |    2.746       0       1       0       1     41     41      0   9043     387       2  41    0270f a70f     30.360 "
test,1583577581577532928,44," | 44  |   9434       5   9356      74 |   2   11      9240       190 |   3  41   46    0 270f |    2.777       0       1       0       1     41     41      0   9052     378       2  41    0270f a70f     30.360 "
test,1583577581576915968,45," | 45  |   9434       5   9376      54 |   3   10      9133       297 |   1  41   46    0 270f |    2.014       0       2       0       2     41     41      0   8961     469       1  41    0270f a70f     30.390 "
test,1583577581574529024,46," | 46  |   9434       5   9351      72 |   0    1      8966       457 |   0  46   41    1 890f |    0           0       0       0       8      0      0      0   8805     618       0  46    1890f a70f     30.210 "
test,1583577581577085952,47," | 47  |   9434       5   9353      77 |   2    8      9129       301 |   1  41   46    0 270f |    2.044       0       2       0       2     41     41      0   8954     476       1  41    0270f a70f     30.390 "
test,1583577581580792832,48," | 48  |   9434       5   9292      71 |   2   11      9174       189 |   2  41   46    0 270f |    2.746       0       1       0       1     41     41      0   8983     380       2  41    0270f a70f     30.360 "
test,1583577581557339904,49," | 49  |   9434       5   9424       0 |   5    0      9236       188 |   1  55    0    0 310f |    2.014       0       5       0       5     55     55      0   9172     252       1  55    0310f a70f      8.790 "
test,1583577581578743808,51," | 51  |   9434       5   9425       0 |   5    0      9318       107 |   4   9    0    0 720f |    2.746       0       3       0       3      9      9      0   9280     145       2   9    0720f a70f     30.360 "
test,1583577581557029888,52," | 52  |   9434       4   9393      33 |   4    0      8958       468 |   2  52    0    1 8c0f |    3.204       0       4       0       4     52     52      0   8794     632       4  52    18c0f a70f      7.950 "
test,1583577581556633088,53," | 53  |   9434       5   9408       0 |   5    0      8922       486 |   1  55    0    0 310f |    1.983       0       5       0       5     55     55      0   8827     581       1  55    0310f a70f      8.220 "
test,1583577581555527936,54," | 54  |   9434       5   9426       0 |   5    0      9272       154 |   1   9    0    0 720f |    2.014       0       5       0       5      9      9      0   9120     306       1   9    0720f a70f      8.100 "
test,1583577581555703040,55," | 55  |   9434       5   9413       0 |   5    0      9067       346 |   2  55    0    1 310f |    1.770       0       4       0       4     55     55      0   8982     431       2  55    1310f a70f      6.510 "
test,1583577581575193856,56," | 56  |   9434       5   9416       0 |   0    8      9276       140 |   0  56    9    1 750f |    0           0       0       0       8      0      0      0   9155     261       0  56    1750f a70f     30.150 "
test,1583577581578941952,57," | 57  |   9434       5   9371       0 |   5    0      9122       249 |   2  52    0    0 8c0f |    2.746       0       4       0       4     52     52      0   8547     824       2  52    08c0f a70f     30.270 "
test,1583577581578216960,58," | 58  |   9434       5   9425       0 |   1    9      9296       129 |   2  55   61    0 310f |    2.777       0       4       0       4     55     55      0   8909     516       2  55    0310f a70f     30.300 "
test,1583577581555937024,5," |  5  |   9434       5   9432       0 |   5    0      8563       869 |   2   9    0    0 720f |    2.746       0       5       0       5      9      9      0   8408    1024       2   9    0720f a70f      8.940 "
test,1583577581578542080,60," | 60  |   9434       5   9425       0 |   5    0      8807       618 |   3   9    0    0 720f |    3.479       0       3       0       3      9      9      0   8612     813       3   9    0720f a70f     30.300 "
test,1583577581576596992,61," | 61  |   9434       5   9408      16 |   0    4      8988       436 |   0  61    9    1 650f |    0           0       0       0       8      0      0      0   8661     763       0  61    1650f a70f     30.240 "
test,1583577581554790912,7," |  7  |   9434       5   9431       0 |   5    0      9296       135 |   1   9    0    0 720f |    2.044       0       5       0       5      9      9      0   9231     200       1   9    0720f a70f      8.250 "
test,1583577581554397184,9," |  9  |   9434       5   9430       0 |   5    0      9133       297 |   2   9    0    1 720f |    1.739       0       4       0       4      9      9      0   9086     344       2   9    1720f a70f      6.510 "
