test,1583577514304349952,10," | 10  |   9165       5   9137       0 |   5    0      8999       138 |   1  58    0    0 130f |    2.075       0       5       0       5     58     58      0   8902     235       1  58    0130f a70f      9.000 "
test,1583577514309690880,12," | 12  |   9165       5   9129      34 |   5    0      9071        92 |   3  58    0    0 130f |    2.777       0       5       0       5     58     58      0   8921     242       2  58    0130f a70f      9.720 "
test,1583577514305830912,13," | 13  |   9165       5   9161       0 |   5    0      9088        73 |   2  58    0    0 130f |    2.777       0       5       0       5     58     58      0   9003     158       2  58    0130f a70f      9.660 "
test,1583577514307593984,15," | 15  |   9165       5   9120      43 |   5    0      8775       388 |   4  58    0    0 130f |    2.777       0       5       0       5     58     58      0   8375     788       2  58    0130f a70f     10.410 "
test,1583577514326579200,16," | 16  |   9165       5   9161       0 |   0   10      8800       361 |   0  16   48    1 a40f |    0           0       0       0       8      0      0      0   8568     593       0  16    1a40f a70f     30.210 "
test,1583577514309228800,17," | 17  |   9165       5   9150      11 |   5    0      9037       124 |   2  48    0    0 bc0f |    2.746       0       5       0       5     48     48      0   8776     385       2  48    0bc0f a70f      9.000 "
test,1583577514305607168,18," | 18  |   9165       5   9160       0 |   5    0      8659       501 |   2  48    0    0 bc0f |    2.746       0       5       0       5     48     48      0   8321     839       2  48    0bc0f a70f      8.850 "
test,1583577514309830912,19," | 19  |   9165       5   9143      18 |   5    0      8983       178 |   2  48    0    0 bc0f |    3.479       0       5       0       5     48     48      0   8731     430       3  48    0bc0f a70f      9.540 "
test,1583577514304878080,1," |  1  |   9165       4   9162       0 |   5    0      8911       251 |   2  58    0    0 130f |    3.448       0       5       0       5     58     58      0   8855     307       2  58    0130f a70f      9.660 "
test,1583577514303750144,22," | 22  |   9165       5   9159       0 |   5    0      9080        79 |   1  48    0    0 bc0f |    1.983       0       5       0       5     48     48      0   8699     460       1  48    0bc0f a70f      8.190 "
test,1583577514309029120,23," | 23  |   9165       5   9103       0 |   5    0      9064        39 |   4  48    0    0 bc0f |    3.479       0       5       0       5     48     48      0   8894     209       3  48    0bc0f a70f     11.760 "
test,1583577514312028928,24," | 24  |   9165       5   9159       2 |   5    0      9045       116 |   2  48    0    0 bc0f |    2.716       0       5       0       5     48     48      0   8819     342       2  48    0bc0f a70f      9.570 "
test,1583577514305063936,26," | 26  |   9165       5   9159       2 |   5    0      9125        36 |   2  48    0    0 bc0f |    2.746       0       5       0       5     48     48      0   8967     194       2  48    0bc0f a70f      8.940 "
test,1583577514310363904,27," | 27  |   9165       5   9163       0 |   5    0      8896       267 |   3  48    0    0 bc0f |    4.180       0       5       0       5     48     48      0   8546     617       4  48    0bc0f a70f     11.100 "
test,1583577514310511104,28," | 28  |   9165       5   9153       8 |   5    0      8444       717 |   2  48    0    0 bc0f |    2.746       0       5       0       5     48     48      0   8079    1082       2  48    0bc0f a70f     11.040 "
test,1583577514327590912,29," | 29  |   9165       4   9148      15 |   4    0      8111      1052 |   3  48    0    0 bc0f |    4.943       0       3       0       3     48     48      0   7723    1440       5  48    0bc0f a70f     30.360 "
test,1583577514311650048,30," | 30  |   9165       5   9157       4 |   5    0      9041       120 |   2  48    0    0 bc0f |    2.746       0       5       0       5     48     48      0   8709     452       2  48    0bc0f a70f     10.290 "
test,1583577514308279040,35," | 35  |   9165       5   9157       4 |   5    0      8741       420 |   2  48    0    0 bc0f |    2.746       0       5       0       5     48     48      0   8539     622       2  48    0bc0f a70f     11.160 "
test,1583577514310934016,40," | 40  |   9165       4   9065      92 |   4    6      8615       542 |   1  48   46    0 bc0f |    2.014       0       5       0       5     48     48      0   8377     780       1  48    0bc0f a70f     11.130 "
test,1583577514306071040,41," | 41  |   9165       5   9072      79 |   5    0      9047       104 |   4  48    0    0 bc0f |    2.746       0       5       0       5     48     48      0   8836     315       2  48    0bc0f a70f      9.510 "
test,1583577514306921984,42," | 42  |   9165       5   9075      86 |   5    0      8983       178 |   1  48    0    0 bc0f |    1.983       0       5       0       5     48     48      0   8782     379       1  48    0bc0f a70f     10.290 "
test,1583577514308877824,44," | 44  |   9165       5   9087      74 |   5    0      8979       182 |   1  48    0    0 bc0f |    1.983       0       5       0       5     48     48      0   8794     367       1  48    0bc0f a70f      8.880 "
test,1583577514307162880,45," | 45  |   9165       5   9107      54 |   5    0      8869       292 |   1  48    0    0 bc0f |    1.983       0       5       0       5     48     48      0   8700     461       1  48    0bc0f a70f      8.250 "
test,1583577514325254912,46," | 46  |   9165       5   9082      72 |   0    2      8709       445 |   0  46   48    1 d80f |    0           0       0       0       8      0      0      0   8552     602       0  46    1d80f a70f     30.210 "
test,1583577514308464896,47," | 47  |   9165       4   9084      77 |   5    0      8863       298 |   1  48    0    0 bc0f |    2.014       0       5       0       5     48     48      0   8692     469       1  48    0bc0f a70f      9.690 "
test,1583577514306399232,48," | 48  |   9165       3   9023      71 |   4    0      8906       188 |   2  48    0    1 bc0f |    1.739       0       4       0       4     48     48      0   8719     375       2  48    1bc0f a70f      9.390 "
test,1583577514325905152,49," | 49  |   9165       5   9155       0 |   5    0      8978       177 |   4  58    0    0 130f |    3.479       0       3       0       3     58     58      0   8917     238       3  58    0130f a70f     30.360 "
test,1583577514304691968,51," | 51  |   9165       5   9156       0 |   5    0      9052       104 |   2  58    0    0 130f |    2.746       0       5       0       5     58     58      0   9019     137       2  58    0130f a70f      8.970 "
test,1583577514311363072,52," | 52  |   9165       5   9124      33 |   5    0      8701       456 |   5  48    0    0 bc0f |    3.448       0       5       0       5     48     48      0   8545     612       3  48    0bc0f a70f     11.040 "
test,1583577514323023104,53," | 53  |   9165       5   9139       0 |   0    5      8676       463 |   0  53   58    1 830f |    0           0       0       0       8      0      0      0   8585     554       0  53    1830f a70f     30.180 "
test,1583577514303325952,54," | 54  |   9165       5   9157       0 |   5    0      9005       152 |   1  58    0    0 130f |    2.075       0       5       0       5     58     58      0   8856     301       1  58    0130f a70f      8.220 "
test,1583577514325472000,55," | 55  |   9165       5   9144       0 |   5    0      8807       337 |   4  58    0    0 130f |    3.509       0       3       0       3     58     58      0   8727     417       3  58    0130f a70f     30.270 "
test,1583577514303548928,56," | 56  |   9165       5   9147       0 |   5    0      9012       135 |   1  58    0    0 130f |    2.014       0       5       0       5     58     58      0   8902     245       1  58    0130f a70f      8.220 "
test,1583577514327096832,57," | 57  |   9165       5   9102       0 |   2    1      8861       241 |   1  58   48    0 130f |    2.044       0       4       0       4     58     58      0   8304     798       1  58    0130f a70f     30.360 "
test,1583577514308048896,58," | 58  |   9165       5   9156       0 |   3    0      9032       124 |  11  58    0    1 130f |    1.739       0       4       0       4     58     58      0   8660     496       2  58    1130f a70f      6.510 "
test,1583577514324118016,5," |  5  |   9165       5   9163       0 |   0    9      8322       841 |   0   5   58    1 da0f |    0           0       0       0       8      0      0      0   8173     990       0   5    1da0f a70f     30.180 "
test,1583577514306562048,60," | 60  |   9165       5   9156       0 |   5    0      8555       601 |   2  58    0    0 130f |    2.777       0       5       0       5     58     58      0   8369     787       2  58    0130f a70f      9.540 "
test,1583577514303951104,61," | 61  |   9165       5   9139      16 |   5    0      8729       426 |   1  58    0    0 130f |    2.075       0       5       0       5     58     58      0   8418     737       1  58    0130f a70f      8.160 "
test,1583577514307764992,7," |  7  |   9165       5   9162       0 |   5    0      9032       130 |   2  58    0    0 130f |    2.807       0       5       0       5     58     58      0   8970     192       2  58    0130f a70f      9.000 "
test,1583577514305372928,9," |  9  |   9165       5   9161       0 |   5    0      8871       290 |   2  58    0    0 130f |    2.746       0       5       0       5     58     58      0   8826     335       2  58    0130f a70f      9.690 "
