test,1583577591805771008,10," | 10  |   9475       5   9447       0 |   5    0      9305       142 |   1   9    0    0 c70f |    1.983       0       5       0       5      9      9      0   9206     241       1   9    0c70f a70f      8.940 "
test,1583577591808898816,12," | 12  |   9475       5   9439      34 |   5    0      9380        93 |   1   9    0    0 c70f |    1.983       0       5       0       5      9      9      0   9220     253       1   9    0c70f a70f      8.940 "
test,1583577591805458176,13," | 13  |   9475       5   9471       0 |   5    0      9395        76 |   1   9    0    0 c70f |    2.044       0       5       0       5      9      9      0   9304     167       1   9    0c70f a70f      8.880 "
test,1583577591827447040,15," | 15  |   9475       4   9430      43 |   5    0      9064       409 |   2   9    0    0 c70f |    2.777       0       4       0       4      9      9      0   8651     822       2   9    0c70f a70f     30.270 "
test,1583577591818768128,16," | 16  |   9475       5   9471       0 |   5    0      9102       369 |   2  22    0    0 de0f |    2.716       0       5       0       5     22     22      0   8858     613       2  22    0de0f a70f      8.820 "
test,1583577591812932096,17," | 17  |   9475       5   9460      11 |   5    0      9343       128 |   1  22    0    0 de0f |    1.983       0       5       0       5     22     22      0   9075     396       1  22    0de0f a70f      8.940 "
test,1583577591807517952,18," | 18  |   9475       5   9470       0 |   5    0      8953       517 |   1  22    0    0 de0f |    1.983       0       5       0       5     22     22      0   8603     867       1  22    0de0f a70f      8.910 "
test,1583577591830586880,19," | 19  |   9475       5   9453      18 |   5    0      9290       181 |   4  22    0    0 de0f |    2.746       0       4       0       4     22     22      0   9029     442       2  22    0de0f a70f     30.390 "
test,1583577591811117056,1," |  1  |   9475       4   9472       0 |   5    0      9211       261 |   1   9    0    0 c70f |    2.685       0       5       0       5      9      9      0   9153     319       1   9    0c70f a70f      8.910 "
test,1583577591806279936,22," | 22  |   9475       5   9469       0 |   4    0      9386        83 |   2  22    0    1 de0f |    1.739       0       4       0       4     22     22      0   8988     481       2  22    1de0f a70f      7.920 "
test,1583577591808648192,23," | 23  |   9475       5   9413       0 |   5    0      9371        42 |   1  22    0    0 de0f |    2.014       0       5       0       5     22     22      0   9189     224       1  22    0de0f a70f      8.250 "
test,1583577591808274944,24," | 24  |   9475       5   9469       2 |   5    0      9352       119 |   1  22    0    0 de0f |    1.983       0       5       0       5     22     22      0   9114     357       1  22    0de0f a70f      8.880 "
test,1583577591805982976,26," | 26  |   9475       5   9469       2 |   5    0      9435        36 |   1  22    0    0 de0f |    2.014       0       5       0       5     22     22      0   9267     204       1  22    0de0f a70f      8.250 "
test,1583577591828416000,27," | 27  |   9475       5   9473       0 |   4    1      9192       281 |   4  22    9    0 de0f |    2.746       0       4       0       4     22     22      0   8824     649       2  22    0de0f a70f     30.330 "
test,1583577591829750016,28," | 28  |   9475       4   9463       8 |   2    4      8731       740 |   6  22   35    0 de0f |    3.479       0       4       0       4     22     22      0   8352    1119       3  22    0de0f a70f     30.390 "
test,1583577591829171968,29," | 29  |   9475       5   9458      15 |   3    0      8386      1087 |  11  22    0    0 de0f |    4.943       0       3       0       3     22     22      0   7982    1491       5  22    0de0f a70f     30.360 "
test,1583577591825593856,30," | 30  |   9475       5   9467       4 |   1    8      9349       122 |   5  22   35    0 de0f |    3.479       0       3       0       3     22     22      0   9006     465       3  22    0de0f a70f     30.360 "
test,1583577591824739840,35," | 35  |   9475       5   9467       4 |   0    1      9035       436 |   0  35   22    1 a80f |    0           0       0       0       8      0      0      0   8824     647       0  35    1a80f a70f     30.180 "
test,1583577591812367872,40," | 40  |   9475       5   9373      94 |   5    0      8902       565 |   4  22    0    0 de0f |    3.448       0       5       0       5     22     22      0   8656     811       3  22    0de0f a70f      9.660 "
test,1583577591828619008,41," | 41  |   9475       5   9382      79 |   5    0      9354       107 |   1  22    0    0 de0f |    2.716       0       4       0       4     22     22      0   9141     320       2  22    0de0f a70f     30.330 "
test,1583577591810957056,42," | 42  |   9475       5   9385      86 |   5    0      9291       180 |   1  22    0    0 de0f |    2.746       0       5       0       5     22     22      0   9084     387       2  22    0de0f a70f      9.480 "
test,1583577591811412224,44," | 44  |   9475       5   9397      74 |   5    0      9281       190 |   2  22    0    0 de0f |    2.716       0       5       0       5     22     22      0   9093     378       2  22    0de0f a70f      9.510 "
test,1583577591809103104,45," | 45  |   9475       5   9417      54 |   5    0      9174       297 |   2  22    0    0 de0f |    3.448       0       5       0       5     22     22      0   9002     469       3  22    0de0f a70f      9.510 "
test,1583577591827171072,46," | 46  |   9475       5   9392      72 |   0    2      9003       461 |   0  46   22    1 e80f |    0           0       0       0       8      0      0      0   8842     622       0  46    1e80f a70f     30.150 "
test,1583577591815277056,47," | 47  |   9475       5   9394      77 |   5    0      9168       303 |   2  22    0    0 de0f |    3.479       0       5       0       5     22     22      0   8992     479       3  22    0de0f a70f      9.540 "
test,1583577591817910016,48," | 48  |   9475       5   9333      71 |   5    0      9215       189 |   1  22    0    0 de0f |    2.777       0       5       0       5     22     22      0   9024     380       2  22    0de0f a70f      8.910 "
test,1583577591806875904,49," | 49  |   9475       5   9465       0 |   5    0      9277       188 |   1  55    0    0 ca0f |    2.014       0       5       0       5     55     55      0   9213     252       1  55    0ca0f a70f      8.760 "
test,1583577591809363968,51," | 51  |   9475       5   9466       0 |   5    0      9359       107 |   2  61    0    0 970f |    2.777       0       5       0       5     61     61      0   9321     145       2  61    0970f a70f      9.000 "
test,1583577591829577984,52," | 52  |   9475       5   9434      33 |   5    0      8997       470 |   2  22    0    0 de0f |    2.685       0       4       0       4     22     22      0   8830     637       2  22    0de0f a70f     30.360 "
test,1583577591807941888,53," | 53  |   9475       5   9449       0 |   5    0      8962       487 |   1  55    0    0 ca0f |    1.983       0       5       0       5     55     55      0   8867     582       1  55    0ca0f a70f      8.250 "
test,1583577591805221120,54," | 54  |   9475       5   9467       0 |   5    0      9312       155 |   1   9    0    0 c70f |    2.014       0       5       0       5      9      9      0   9160     307       1   9    0c70f a70f      8.250 "
test,1583577591808448000,55," | 55  |   9475       5   9454       0 |   4    0      9107       347 |   3  55    0    1 ca0f |    1.770       0       4       0       4     55     55      0   9022     432       2  55    1ca0f a70f      6.510 "
test,1583577591805048832,56," | 56  |   9475       5   9457       0 |   5    0      9317       140 |   1  61    0    0 970f |    2.014       0       5       0       5     61     61      0   9194     263       1  61    0970f a70f      8.220 "
test,1583577591831099136,57," | 57  |   9475       5   9412       0 |   4    0      9161       251 |  11  61    0    0 970f |   12.695       0       2       0       2     61     61      0   8582     830      16  61    0970f a70f     30.360 "
test,1583577591826981120,58," | 58  |   9475       5   9466       0 |   1    7      9337       129 |   2  55   61    0 ca0f |    2.777       0       4       0       4     55     55      0   8949     517       2  55    0ca0f a70f     30.330 "
test,1583577591809790976,5," |  5  |   9475       5   9473       0 |   5    0      8602       871 |   2   9    0    0 c70f |    2.716       0       5       0       5      9      9      0   8446    1027       2   9    0c70f a70f      9.630 "
test,1583577591809575168,60," | 60  |   9475       5   9466       0 |   5    0      8847       619 |   3  61    0    0 970f |    2.716       0       5       0       5     61     61      0   8650     816       2  61    0970f a70f      9.660 "
test,1583577591829025024,61," | 61  |   9475       5   9449      16 |   4    0      9027       438 |  10  61    0    1 970f |   12.390       0       2       0       2     61     61      0   8700     765      17  61    1970f a70f     30.240 "
test,1583577591807156992,7," |  7  |   9475       5   9472       0 |   5    0      9336       136 |   1   9    0    0 c70f |    1.983       0       5       0       5      9      9      0   9272     200       1   9    0c70f a70f      8.910 "
test,1583577591804416000,9," |  9  |   9475       5   9471       0 |   4    0      9173       298 |   2   9    0    1 c70f |    1.739       0       4       0       4      9      9      0   9126     345       2   9    1c70f a70f      6.510 "
