test,1583577527055361024,10," | 10  |   9216       5   9188       0 |   5    0      9050       138 |   1  58    0    0 c20f |    2.044       0       5       0       5     58     58      0   8953     235       1  58    0c20f a70f      8.160 "
test,1583577527055625984,12," | 12  |   9216       5   9180      34 |   5    0      9122        92 |   1  58    0    0 c20f |    2.044       0       5       0       5     58     58      0   8971     243       1  58    0c20f a70f      8.130 "
test,1583577527058013952,13," | 13  |   9216       5   9212       0 |   5    0      9139        73 |   2  58    0    0 c20f |    2.777       0       5       0       5     58     58      0   9054     158       2  58    0c20f a70f      8.820 "
test,1583577527056544000,15," | 15  |   9216       5   9171      43 |   4    0      8823       391 |   4  58    0    0 c20f |    2.777       0       5       0       5     58     58      0   8419     795       2  58    0c20f a70f      9.000 "
test,1583577527055149056,16," | 16  |   9216       5   9212       0 |   4    0      8850       362 |   2  16    0    1 660f |    1.770       0       4       0       4     16     16      0   8617     595       2  16    1660f a70f      7.230 "
test,1583577527057615104,17," | 17  |   9216       5   9201      11 |   5    1      9088       124 |   1  24   16    0 7d0f |    1.983       0       5       0       5     24     24      0   8826     386       1  24    07d0f a70f      8.220 "
test,1583577527058872832,18," | 18  |   9216       5   9211       0 |   5    0      8708       503 |   1  24    0    0 7d0f |    2.716       0       5       0       5     24     24      0   8366     845       2  24    07d0f a70f      8.760 "
test,1583577527057265920,19," | 19  |   9216       5   9194      18 |   5    1      9034       178 |   1  24   16    0 7d0f |    2.014       0       5       0       5     24     24      0   8781     431       1  24    07d0f a70f      8.940 "
test,1583577527060209920,1," |  1  |   9216       4   9213       0 |   5    0      8960       253 |   3  58    0    0 c20f |    3.448       0       5       0       5     58     58      0   8904     309       2  58    0c20f a70f      9.630 "
test,1583577527053609984,22," | 22  |   9216       5   9210       0 |   5    0      9129        81 |   1  24    0    0 7d0f |    2.014       0       5       0       5     24     24      0   8744     466       1  24    07d0f a70f      8.160 "
test,1583577527053345792,23," | 23  |   9216       5   9154       0 |   5    0      9115        39 |   1  16    0    0 660f |    2.014       0       5       0       5     16     16      0   8945     209       1  16    0660f a70f      8.250 "
test,1583577527054018048,24," | 24  |   9216       5   9210       2 |   4    1      9095       117 |   4  24   16    1 7d0f |    1.739       0       4       0       4     24     24      0   8869     343       2  24    17d0f a70f      6.510 "
test,1583577527054958080,26," | 26  |   9216       5   9210       2 |   5    2      9176        36 |   1  24   16    0 7d0f |    2.014       0       5       0       5     24     24      0   9017     195       1  24    07d0f a70f      8.250 "
test,1583577527077876992,27," | 27  |   9216       4   9214       0 |   3    1      8943       271 |   3  24   16    0 7d0f |    3.479       0       4       0       4     24     24      0   8590     624       3  24    07d0f a70f     30.300 "
test,1583577527063908096,28," | 28  |   9216       5   9204       8 |   5    0      8493       719 |   1  24    0    0 7d0f |    2.014       0       5       0       5     24     24      0   8126    1086       1  24    07d0f a70f      8.970 "
test,1583577527056912896,29," | 29  |   9216       4   9199      15 |   5    0      8156      1058 |   2  24    0    0 7d0f |    2.746       0       5       0       5     24     24      0   7765    1449       2  24    07d0f a70f      9.570 "
test,1583577527060556032,30," | 30  |   9216       5   9208       4 |   5    0      9092       120 |   3  24    0    0 7d0f |    2.716       0       5       0       5     24     24      0   8755     457       2  24    07d0f a70f      9.600 "
test,1583577527057095168,35," | 35  |   9216       5   9208       4 |   5    0      8788       424 |   2  24    0    0 7d0f |    2.746       0       5       0       5     24     24      0   8583     629       2  24    07d0f a70f      8.820 "
test,1583577527076775168,40," | 40  |   9216       5   9116      92 |   5    0      8666       542 |   1  24    0    0 7d0f |    3.387       0       2       0       2     24     24      0   8426     782       3  24    07d0f a70f     30.390 "
test,1583577527079873024,41," | 41  |   9216       5   9123      79 |   1   14      9097       105 |   1  16   48    0 660f |    3.509       0       1       0       1     16     16      0   8886     316       3  16    0660f a70f     30.330 "
test,1583577527076022016,42," | 42  |   9216       5   9126      86 |   5    0      9033       179 |   1  24    0    0 7d0f |    3.448       0       3       0       3     24     24      0   8831     381       3  24    07d0f a70f     30.390 "
test,1583577527077192192,44," | 44  |   9216       5   9138      74 |   5    0      9028       184 |   1  24    0    0 7d0f |    3.417       0       3       0       3     24     24      0   8842     370       3  24    07d0f a70f     30.390 "
test,1583577527076466944,45," | 45  |   9216       5   9158      54 |   1   10      8919       293 |   1  16   48    0 660f |    3.509       0       1       0       1     16     16      0   8748     464       3  16    0660f a70f     30.390 "
test,1583577527081059072,46," | 46  |   9216       5   9133      72 |   5    0      8757       448 |   4  24    0    0 7d0f |    4.943       0       2       0       2     24     24      0   8599     606       5  24    07d0f a70f     30.330 "
test,1583577527077466880,47," | 47  |   9216       5   9135      77 |   5    0      8913       299 |   2  24    0    0 7d0f |    4.211       0       3       0       3     24     24      0   8740     472       4  24    07d0f a70f     30.360 "
test,1583577527082072064,48," | 48  |   9216       5   9074      71 |   0    7      8956       189 |   0  48   24    1 950f |    0           0       0       0       8      0      0      0   8767     378       0  48    1950f a70f     30.150 "
test,1583577527054265856,49," | 49  |   9216       5   9206       0 |   5    0      9028       178 |   1  53    0    0 3b0f |    1.983       0       5       0       5     53     53      0   8966     240       1  53    03b0f a70f      8.190 "
test,1583577527060911872,51," | 51  |   9216       5   9207       0 |   5    0      9103       104 |   2  58    0    0 c20f |    2.716       0       5       0       5     58     58      0   9070     137       2  58    0c20f a70f      8.940 "
test,1583577527077644032,52," | 52  |   9216       4   9175      33 |   5    0      8748       460 |   2  16    0    0 660f |    2.746       0       4       0       4     16     16      0   8591     617       2  16    0660f a70f     30.270 "
test,1583577527055803136,53," | 53  |   9216       5   9190       0 |   4    0      8724       466 |   2  53    0    1 3b0f |    1.739       0       4       0       4     53     53      0   8631     559       2  53    13b0f a70f      6.480 "
test,1583577527057435904,54," | 54  |   9216       5   9208       0 |   5    0      9054       154 |   1  58    0    0 c20f |    2.044       0       5       0       5     58     58      0   8905     303       1  58    0c20f a70f      8.280 "
test,1583577527059766016,55," | 55  |   9216       5   9195       0 |   5    0      8855       340 |   1  53    0    0 3b0f |    2.044       0       5       0       5     53     53      0   8773     422       1  53    03b0f a70f      8.220 "
test,1583577527059111168,56," | 56  |   9216       5   9198       0 |   5    0      9063       135 |   1  58    0    0 c20f |    2.044       0       5       0       5     58     58      0   8951     247       1  58    0c20f a70f      8.100 "
test,1583577527076281088,57," | 57  |   9216       5   9153       0 |   2    0      8911       242 |   4  58    0    0 c20f |    2.044       0       1       0       1     58     58      0   8352     801       1  58    0c20f a70f     30.300 "
test,1583577527078759936,58," | 58  |   9216       5   9207       0 |   4    1      9082       125 |   6  58   53    1 c20f |    3.814       0       3       0       3     58     58      0   8705     502       5  58    1c20f a70f     30.300 "
test,1583577527056706816,5," |  5  |   9216       5   9214       0 |   5    0      8365       849 |   2  58    0    0 c20f |    2.746       0       5       0       5     58     58      0   8215     999       2  58    0c20f a70f      8.940 "
test,1583577527058563840,60," | 60  |   9216       5   9207       0 |   5    0      8605       602 |   2  58    0    0 c20f |    2.777       0       5       0       5     58     58      0   8418     789       2  58    0c20f a70f      9.600 "
test,1583577527061726976,61," | 61  |   9216       5   9190      16 |   5    0      8780       426 |   1  58    0    0 c20f |    2.014       0       5       0       5     58     58      0   8466     740       1  58    0c20f a70f      8.910 "
test,1583577527056097024,7," |  7  |   9216       5   9213       0 |   5    0      9082       131 |   2  58    0    0 c20f |    2.777       0       5       0       5     58     58      0   9019     194       2  58    0c20f a70f      8.850 "
test,1583577527057841152,9," |  9  |   9216       5   9212       0 |   5    0      8922       290 |   2  58    0    0 c20f |    2.777       0       5       0       5     58     58      0   8877     335       2  58    0c20f a70f      9.000 "
