test,1583575459513331968,10," | 10  |    946       5    918       0 |   4    0       905        13 |   4  10    0    1 d70f |    1.770       0       4       0       4     10     10      0    892      26       2  10    1d70f a70f      6.510 "
test,1583575459517600000,12," | 12  |    946       5    944       0 |   5    0       938         6 |   1  10    0    0 d70f |    2.014       0       5       0       5     10     10      0    920      24       1  10    0d70f a70f      8.910 "
test,1583575459515845120,13," | 13  |    946       5    942       0 |   5    0       931        11 |   2  10    0    0 d70f |    1.983       0       5       0       5     10     10      0    921      21       1  10    0d70f a70f      8.220 "
test,1583575459516439040,15," | 15  |    946       5    944       0 |   5    0       910        34 |   2  10    0    0 d70f |    2.746       0       5       0       5     10     10      0    877      67       2  10    0d70f a70f      9.690 "
test,1583575459530391040,16," | 16  |    946       5    942       0 |   5   10       910        32 |   1  45   23    0 5d0f |    0           0       0       0       8      0      0      0    887      55       0  45    05d0f a70f     30.390 "
test,1583575459515165952,17," | 17  |    946       5    941       1 |   5    0       931        11 |   1  23    0    0  90f |    2.075       0       5       0       5     23     23      0    902      40       1  23    0 90f a70f      9.030 "
test,1583575459518798080,18," | 18  |    946       5    941       0 |   5    0       880        61 |   2  23    0    0  90f |    2.777       0       5       0       5     23     23      0    836     105       2  23    0 90f a70f      9.000 "
test,1583575459515636992,19," | 19  |    946       5    940       2 |   5    0       932        10 |   4  23    0    0  90f |    2.777       0       5       0       5     23     23      0    902      40       2  23    0 90f a70f      9.540 "
test,1583575459513724160,1," |  1  |    946       4    943       0 |   5    0       924        19 |   2  10    0    0 d70f |    2.685       0       5       0       5     10     10      0    917      26       1  10    0d70f a70f      8.760 "
test,1583575459517380096,22," | 22  |    946       5    940       0 |   5    0       931         9 |   2  23    0    0  90f |    2.044       0       5       0       5     23     23      0    886      54       1  23    0 90f a70f      8.250 "
test,1583575459513164032,23," | 23  |    946       5    884       0 |   5    0       878         6 |   7  23    0    1  90f |    1.739       0       4       0       4     23     23      0    862      22       2  23    1 90f a70f      6.510 "
test,1583575459512047104,24," | 24  |    946       5    942       0 |   5    0       937         5 |   2  23    0    0  90f |    2.044       0       5       0       5     23     23      0    913      29       1  23    0 90f a70f      8.130 "
test,1583575459516294912,26," | 26  |    946       5    942       0 |   5    0       939         3 |   1  23    0    0  90f |    2.075       0       5       0       5     23     23      0    919      23       1  23    0 90f a70f      9.000 "
test,1583575459514328832,27," | 27  |    946       5    944       0 |   5    0       921        23 |   1  23    0    0  90f |    2.014       0       5       0       5     23     23      0    880      64       1  23    0 90f a70f      9.690 "
test,1583575459536150016,28," | 28  |    946       5    942       0 |   4    2       867        75 |   1  35   23    0 d60f |    5.676       0       3       0       3     35     35      0    840     102       6  35    0d60f a70f     30.270 "
test,1583575459535916032,29," | 29  |    946       4    941       3 |   4    0       835       109 |   2  23    0    0  90f |    2.807       0       1       0       1     23     23      0    783     161       2  23    0 90f a70f     30.300 "
test,1583575459513580032,30," | 30  |    946       5    942       0 |   5    0       929        13 |   1  35    0    0 d60f |    1.983       0       5       0       5     35     35      0    899      43       1  35    0d60f a70f      8.220 "
test,1583575459511532032,35," | 35  |    946       5    942       0 |   4    0       899        43 |   2  35    0    1 d60f |    1.739       0       4       0       4     35     35      0    881      61       2  35    1d60f a70f      6.510 "
test,1583575459522889984,40," | 40  |    946       5    908      30 |   3    6       862        76 |   5  47   45    0 cd0f |    2.716       0       5       0       5     47     47      0    826     112       2  47    0cd0f a70f     11.760 "
test,1583575459531824128,41," | 41  |    946       5    903      29 |   4    3       919        13 |   1  45   47    0 5d0f |    0           0       0       0       8      0      0      0    893      39       0  45    05d0f a70f     30.360 "
test,1583575459515343872,42," | 42  |    946       5    910      32 |   4    7       904        38 |   1  47   45    0 cd0f |    2.014       0       5       0       5     47     47      0    879      63       1  47    0cd0f a70f      8.250 "
test,1583575459518505216,44," | 44  |    946       5    915      27 |   4    6       914        28 |   1  45   23    0 5d0f |    2.014       0       5       0       5     45     45      0    884      58       1  45    05d0f a70f      8.130 "
test,1583575459518348032,45," | 45  |    946       5    920      22 |   3    2       899        43 |   8  45   47    1 5d0f |    1.739       0       4       0       4     45     45      0    875      67       2  45    15d0f a70f      6.480 "
test,1583575459535531008,46," | 46  |    946       5    907      28 |   5    3       892        43 |   1  45   47    0 5d0f |    4.211       0       1       0       1     45     45      0    872      63       4  45    05d0f a70f     30.360 "
test,1583575459521160960,47," | 47  |    946       5    913      29 |   3    7       903        39 |   5  47   45    1 cd0f |    1.739       0       4       0       4     47     47      0    885      57       2  47    1cd0f a70f      6.480 "
test,1583575459518040832,48," | 48  |    946       5    849      26 |   4    6       843        32 |   1  47   45    0 cd0f |    1.983       0       5       0       5     47     47      0    816      59       1  47    0cd0f a70f     11.070 "
test,1583575459510445056,49," | 49  |    946       5    936       0 |   5    0       924        12 |   3  10    0    0 d70f |    2.716       0       5       0       5     10     10      0    917      19       2  10    0d70f a70f      8.850 "
test,1583575459511890944,51," | 51  |    946       5    937       0 |   4    0       931         6 |   2  51    0    1 cb0f |    1.739       0       4       0       4     51     51      0    930       7       2  51    1cb0f a70f      6.480 "
test,1583575459524097792,52," | 52  |    946       2    930       8 |   5    0       891        47 |   1  23    0    0  90f |    2.044       0       5       0       5     23     23      0    872      66       1  23    0 90f a70f      8.250 "
test,1583575459510652160,53," | 53  |    946       5    920       0 |   5    0       870        50 |   4  10    0    0 d70f |    3.448       0       5       0       5     10     10      0    863      57       3  10    0d70f a70f      9.660 "
test,1583575459514780160,54," | 54  |    946       5    938       0 |   5    0       925        13 |   1  10    0    0 d70f |    2.014       0       5       0       5     10     10      0    905      33       1  10    0d70f a70f      9.690 "
test,1583575459519154944,55," | 55  |    946       5    925       0 |   5    0       884        41 |   3  10    0    0 d70f |    2.746       0       5       0       5     10     10      0    881      44       2  10    0d70f a70f      8.880 "
test,1583575459512844032,56," | 56  |    946       5    928       0 |   5    0       909        19 |   1  51    0    0 cb0f |    2.014       0       5       0       5     51     51      0    902      26       1  51    0cb0f a70f      8.190 "
test,1583575459535090944,57," | 57  |    946       5    883       0 |   2    3       852        31 |   4  51   23    0 cb0f |    5.676       0       3       0       3     51     51      0    808      75       6  51    0cb0f a70f     30.390 "
test,1583575459520220160,58," | 58  |    946       5    937       0 |   5    0       924        13 |   2  10    0    0 d70f |    1.983       0       5       0       5     10     10      0    900      37       1  10    0d70f a70f     10.350 "
test,1583575459514499840,5," |  5  |    946       5    944       0 |   5    0       869        75 |   2  10    0    0 d70f |    2.716       0       5       0       5     10     10      0    850      94       2  10    0d70f a70f      8.880 "
test,1583575459516057088,60," | 60  |    946       5    937       0 |   5    0       884        53 |   1  51    0    0 cb0f |    2.044       0       5       0       5     51     51      0    872      65       1  51    0cb0f a70f      8.190 "
test,1583575459516577024,61," | 61  |    946       5    936       0 |   5    0       895        41 |   3  10    0    0 d70f |    2.716       0       5       0       5     10     10      0    872      64       2  10    0d70f a70f      9.510 "
test,1583575459516873984,7," |  7  |    946       5    943       0 |   5    0       926        17 |   2  10    0    0 d70f |    2.044       0       5       0       5     10     10      0    922      21       1  10    0d70f a70f      8.250 "
test,1583575459512464128,9," |  9  |    946       5    942       0 |   5    0       905        37 |   1  10    0    0 d70f |    1.983       0       5       0       5     10     10      0    899      43       1  10    0d70f a70f      8.070 "
