test,1583577524804963072,10," | 10  |   9207       5   9179       0 |   5    0      9041       138 |   1   9    0    0 650f |    2.105       0       5       0       5      9      9      0   8944     235       1   9    0650f a70f      8.190 "
test,1583577524806340096,12," | 12  |   9207       5   9171      34 |   5    0      9113        92 |   1   9    0    0 650f |    2.807       0       5       0       5      9      9      0   8962     243       2   9    0650f a70f      9.000 "
test,1583577524807225856,13," | 13  |   9207       5   9203       0 |   5    0      9130        73 |   1   9    0    0 650f |    2.838       0       5       0       5      9      9      0   9045     158       2   9    0650f a70f      9.630 "
test,1583577524809886976,15," | 15  |   9207       5   9162      43 |   5    0      8816       389 |   2   9    0    0 650f |    3.509       0       5       0       5      9      9      0   8412     793       3   9    0650f a70f      9.720 "
test,1583577524812526848,16," | 16  |   9207       5   9203       0 |   5    0      8842       361 |   4  49    0    0 ab0f |    4.211       0       5       0       5     49     49      0   8609     594       4  49    0ab0f a70f     10.380 "
test,1583577524813024000,17," | 17  |   9207       5   9192      11 |   5    0      9079       124 |   7  49    0    0 ab0f |    4.211       0       5       0       5     49     49      0   8817     386       4  49    0ab0f a70f     12.570 "
test,1583577524825708032,18," | 18  |   9207       5   9202       0 |   0   11      8699       503 |   0  18   49    1 d90f |    0           0       0       0       8      0      0      0   8358     844       0  18    1d90f a70f     30.180 "
test,1583577524810957056,19," | 19  |   9207       5   9185      18 |   5    0      9025       178 |   7  49    0    0 ab0f |    4.180       0       5       0       5     49     49      0   8772     431       4  49    0ab0f a70f     11.820 "
test,1583577524804094976,1," |  1  |   9207       4   9204       0 |   5    0      8951       253 |   1   9    0    0 650f |    2.746       0       5       0       5      9      9      0   8895     309       1   9    0650f a70f      8.970 "
test,1583577524812797184,22," | 22  |   9207       5   9201       0 |   5    0      9120        81 |   6  49    0    0 ab0f |    3.509       0       5       0       5     49     49      0   8735     466       3  49    0ab0f a70f     13.200 "
test,1583577524811297792,23," | 23  |   9207       5   9145       0 |   5    0      9106        39 |   3  49    0    0 ab0f |    3.479       0       5       0       5     49     49      0   8936     209       3  49    0ab0f a70f     11.100 "
test,1583577524809608960,24," | 24  |   9207       5   9201       2 |   5    0      9086       117 |   7  49    0    0 ab0f |    4.241       0       5       0       5     49     49      0   8860     343       4  49    0ab0f a70f     12.420 "
test,1583577524809005056,26," | 26  |   9207       5   9201       2 |   5    0      9167        36 |   3  49    0    0 ab0f |    3.509       0       5       0       5     49     49      0   9008     195       3  49    0ab0f a70f     11.730 "
test,1583577524826017024,27," | 27  |   9207       5   9205       0 |   0    8      8934       271 |   0  27   49    1 250f |    0           0       0       0       8      0      0      0   8581     624       0  27    1250f a70f     30.180 "
test,1583577524826530048,28," | 28  |   9207       5   9195       8 |   5    0      8484       719 |   5   9    0    0 650f |    5.706       0       4       0       4      9      9      0   8118    1085       6   9    0650f a70f     30.240 "
test,1583577524827568128,29," | 29  |   9207       5   9190      15 |   5    0      8148      1057 |   8  49    0    0 ab0f |    4.974       0       2       0       2     49     49      0   7757    1448       5  49    0ab0f a70f     30.330 "
test,1583577524813182976,30," | 30  |   9207       5   9199       4 |   5    0      9083       120 |   4   9    0    0 650f |    5.004       0       5       0       5      9      9      0   8747     456       5   9    0650f a70f     11.070 "
test,1583577524808115968,35," | 35  |   9207       5   9199       4 |   5    0      8780       423 |   5   9    0    0 650f |    5.737       0       5       0       5      9      9      0   8576     627       6   9    0650f a70f     11.760 "
test,1583577524810094080,40," | 40  |   9207       5   9107      92 |   5    0      8657       542 |   5  49    0    0 ab0f |    4.943       0       5       0       5     49     49      0   8418     781       5  49    0ab0f a70f     11.130 "
test,1583577524810509056,41," | 41  |   9207       5   9114      79 |   5    0      9088       105 |   5  49    0    0 ab0f |    4.974       0       5       0       5     49     49      0   8877     316       5  49    0ab0f a70f     12.450 "
test,1583577524811126016,42," | 42  |   9207       5   9117      86 |   5    0      9024       179 |   5  49    0    0 ab0f |    4.241       0       5       0       5     49     49      0   8822     381       4  49    0ab0f a70f     10.290 "
test,1583577524813878016,44," | 44  |   9207       5   9129      74 |   5    0      9019       184 |   4  49    0    0 ab0f |    4.913       0       5       0       5     49     49      0   8833     370       5  49    0ab0f a70f     11.670 "
test,1583577524815900928,45," | 45  |   9207       5   9149      54 |   5    0      8910       293 |   5  49    0    0 ab0f |    4.913       0       5       0       5     49     49      0   8739     464       5  49    0ab0f a70f     11.130 "
test,1583577524820224000,46," | 46  |   9207       5   9124      72 |   5    0      8748       448 |   5  49    0    0 ab0f |    4.943       0       5       0       5     49     49      0   8590     606       5  49    0ab0f a70f     12.420 "
test,1583577524815570176,47," | 47  |   9207       5   9126      77 |   5    0      8904       299 |   5  49    0    0 ab0f |    4.974       0       5       0       5     49     49      0   8731     472       5  49    0ab0f a70f     11.010 "
test,1583577524808648192,48," | 48  |   9207       5   9065      71 |   5    0      8948       188 |   5  49    0    0 ab0f |    4.180       0       5       0       5     49     49      0   8759     377       4  49    0ab0f a70f     11.130 "
test,1583577524804455168,49," | 49  |   9207       5   9197       0 |   4    0      9019       178 |   2  49    0    1 ab0f |    1.739       0       4       0       4     49     49      0   8957     240       2  49    1ab0f a70f      6.480 "
test,1583577524805722112,51," | 51  |   9207       5   9198       0 |   5    0      9094       104 |   2   9    0    0 650f |    2.807       0       5       0       5      9      9      0   9061     137       2   9    0650f a70f      8.910 "
test,1583577524813707008,52," | 52  |   9207       3   9166      33 |   5    0      8740       459 |   4  49    0    0 ab0f |    4.241       0       5       0       5     49     49      0   8583     616       4  49    0ab0f a70f     12.480 "
test,1583577524804795136,53," | 53  |   9207       5   9181       0 |   5    0      8715       466 |   1  49    0    0 ab0f |    1.983       0       5       0       5     49     49      0   8622     559       1  49    0ab0f a70f      8.220 "
test,1583577524808427008,54," | 54  |   9207       5   9199       0 |   5    0      9046       153 |   1   9    0    0 650f |    2.044       0       5       0       5      9      9      0   8896     303       1   9    0650f a70f      8.280 "
test,1583577524806755072,55," | 55  |   9207       5   9186       0 |   5    0      8846       340 |   1  49    0    0 ab0f |    2.014       0       5       0       5     49     49      0   8764     422       1  49    0ab0f a70f      8.940 "
test,1583577524805453056,56," | 56  |   9207       5   9189       0 |   3    0      9054       135 |   7   9    0    0 650f |    2.807       0       5       0       5      9      9      0   8942     247       2   9    0650f a70f      9.000 "
test,1583577524803757824,57," | 57  |   9207       5   9144       0 |   5    0      8902       242 |   2  49    0    0 ab0f |    2.746       0       5       0       5     49     49      0   8344     800       2  49    0ab0f a70f     10.410 "
test,1583577524807836160,58," | 58  |   9207       5   9198       0 |   5    0      9073       125 |   1  49    0    0 ab0f |    2.014       0       5       0       5     49     49      0   8696     502       1  49    0ab0f a70f      9.570 "
test,1583577524813420032,5," |  5  |   9207       5   9205       0 |   5    0      8357       848 |   2   9    0    0 650f |    3.540       0       5       0       5      9      9      0   8207     998       3   9    0650f a70f      9.660 "
test,1583577524808836096,60," | 60  |   9207       5   9198       0 |   2    0      8597       601 |   9   9    0    0 650f |    3.509       0       5       0       5      9      9      0   8410     788       3   9    0650f a70f      9.690 "
test,1583577524810728960,61," | 61  |   9207       5   9181      16 |   2    2      8771       426 |   2  49    9    0 ab0f |    2.746       0       5       0       5     49     49      0   8457     740       2  49    0ab0f a70f     10.380 "
test,1583577524803323904,7," |  7  |   9207       5   9204       0 |   5    0      9073       131 |   1   9    0    0 650f |    2.075       0       5       0       5      9      9      0   9010     194       1   9    0650f a70f      8.160 "
test,1583577524803548160,9," |  9  |   9207       5   9203       0 |   4    0      8913       290 |   2   9    0    1 650f |    1.770       0       4       0       4      9      9      0   8868     335       2   9    1650f a70f      6.510 "
