test,1583577558561579008,10," | 10  |   9342       5   9314       0 |   5    0      9174       140 |   2  61    0    0 b60f |    2.746       0       5       0       5     61     61      0   9078     236       2  61    0b60f a70f      8.850 "
test,1583577558562707968,12," | 12  |   9342       5   9306      34 |   5    0      9247        93 |   3  61    0    0 b60f |    2.746       0       5       0       5     61     61      0   9095     245       2  61    0b60f a70f      9.570 "
test,1583577558561067008,13," | 13  |   9342       5   9338       0 |   5    0      9263        75 |   2  61    0    0 b60f |    2.746       0       5       0       5     61     61      0   9176     162       2  61    0b60f a70f      9.660 "
test,1583577558579140864,15," | 15  |   9342       5   9297      43 |   1    4      8939       401 |   2  30   61    0 bd0f |    2.746       0       1       0       1     30     30      0   8534     806       2  30    0bd0f a70f     30.360 "
test,1583577558563564032,16," | 16  |   9342       5   9338       0 |   5    0      8973       365 |   1  41    0    0 b50f |    3.479       0       5       0       5     41     41      0   8733     605       3  41    0b50f a70f     10.350 "
test,1583577558556866816,17," | 17  |   9342       5   9327      11 |   5    0      9211       127 |   3  41    0    0 b50f |    2.044       0       5       0       5     41     41      0   8945     393       1  41    0b50f a70f      8.190 "
test,1583577558558998016,18," | 18  |   9342       5   9337       0 |   5    0      8828       509 |   2  41    0    0 b50f |    2.746       0       5       0       5     41     41      0   8481     856       2  41    0b50f a70f      9.510 "
test,1583577558558036992,19," | 19  |   9342       5   9320      18 |   5    0      9158       180 |   3  41    0    0 b50f |    2.777       0       5       0       5     41     41      0   8899     439       2  41    0b50f a70f      9.000 "
test,1583577558560875776,1," |  1  |   9342       4   9339       0 |   5    0      9082       257 |   2  61    0    0 b60f |    3.448       0       5       0       5     61     61      0   9026     313       2  61    0b60f a70f      9.570 "
test,1583577558561975040,22," | 22  |   9342       5   9336       0 |   5    0      9254        82 |   3  41    0    0 b50f |    4.211       0       5       0       5     41     41      0   8862     474       4  41    0b50f a70f     11.010 "
test,1583577558556674048,23," | 23  |   9342       5   9280       0 |   5    0      9240        40 |   2  41    0    0 b50f |    3.509       0       5       0       5     41     41      0   9062     218       3  41    0b50f a70f     10.350 "
test,1583577558559715072,24," | 24  |   9342       5   9336       2 |   5    0      9219       119 |   2  41    0    0 b50f |    2.746       0       5       0       5     41     41      0   8986     352       2  41    0b50f a70f      8.970 "
test,1583577558561372160,26," | 26  |   9342       5   9336       2 |   5    0      9302        36 |   3  41    0    0 b50f |    2.746       0       5       0       5     41     41      0   9138     200       2  41    0b50f a70f      8.970 "
test,1583577558559390976,27," | 27  |   9342       4   9340       0 |   4    5      9065       275 |   4  41   29    0 b50f |    2.777       0       5       0       5     41     41      0   8703     637       2  41    0b50f a70f     11.160 "
test,1583577558556286208,28," | 28  |   9342       5   9330       8 |   5    0      8604       734 |   1  30    0    0 bd0f |    2.014       0       5       0       5     30     30      0   8230    1108       1  30    0bd0f a70f      8.250 "
test,1583577558576482048,29," | 29  |   9342       4   9325      15 |   0    4      8266      1074 |   0  29   41    1 9e0f |    0           0       0       0       8      0      0      0   7868    1472       0  29    19e0f a70f     30.150 "
test,1583577558558275840,30," | 30  |   9342       5   9334       4 |   4    0      9216       122 |   2  30    0    1 bd0f |    1.770       0       4       0       4     30     30      0   8874     464       2  30    1bd0f a70f      6.510 "
test,1583577558554802944,35," | 35  |   9342       5   9334       4 |   5    0      8908       430 |   1  30    0    0 bd0f |    2.014       0       5       0       5     30     30      0   8698     640       1  30    0bd0f a70f      8.250 "
test,1583577558560692992,40," | 40  |   9342       5   9241      93 |   5    0      8780       554 |   1  41    0    0 b50f |    2.014       0       5       0       5     41     41      0   8538     796       1  41    0b50f a70f      9.000 "
test,1583577558554999040,41," | 41  |   9342       5   9249      79 |   4    0      9222       106 |   4  41    0    1 b50f |    1.739       0       4       0       4     41     41      0   9008     320       2  41    1b50f a70f      7.200 "
test,1583577558557775104,42," | 42  |   9342       5   9252      86 |   5    0      9158       180 |   1  41    0    0 b50f |    1.983       0       5       0       5     41     41      0   8951     387       1  41    0b50f a70f      8.250 "
test,1583577558572868096,44," | 44  |   9342       5   9264      74 |   5    0      9149       189 |   1  41    0    0 b50f |    2.044       0       5       0       5     41     41      0   8962     376       1  41    0b50f a70f      8.970 "
test,1583577558555300096,45," | 45  |   9342       5   9284      54 |   5    0      9042       296 |   1  41    0    0 b50f |    2.044       0       5       0       5     41     41      0   8870     468       1  41    0b50f a70f      8.190 "
test,1583577558558809088,46," | 46  |   9342       5   9259      72 |   5    0      8877       454 |   1  41    0    0 b50f |    1.983       0       5       0       5     41     41      0   8717     614       1  41    0b50f a70f      8.910 "
test,1583577558557568000,47," | 47  |   9342       5   9261      77 |   5    0      9037       301 |   1  41    0    0 b50f |    1.983       0       5       0       5     41     41      0   8862     476       1  41    0b50f a70f      8.220 "
test,1583577558565058048,48," | 48  |   9342       5   9200      71 |   5    0      9082       189 |   1  41    0    0 b50f |    2.044       0       5       0       5     41     41      0   8891     380       1  41    0b50f a70f      8.250 "
test,1583577558556026880,49," | 49  |   9342       5   9332       0 |   5    0      9145       187 |   1  53    0    0 720f |    2.014       0       5       0       5     53     53      0   9081     251       1  53    0720f a70f      8.220 "
test,1583577558559849984,51," | 51  |   9342       5   9333       0 |   5    0      9228       105 |   2  61    0    0 b60f |    2.746       0       5       0       5     61     61      0   9192     141       2  61    0b60f a70f      8.850 "
test,1583577558578318080,52," | 52  |   9342       4   9301      33 |   5    0      8871       463 |   2  41    0    0 b50f |    3.479       0       4       0       4     41     41      0   8710     624       3  41    0b50f a70f     30.360 "
test,1583577558553769984,53," | 53  |   9342       5   9316       0 |   5    0      8840       476 |   2  53    0    1 720f |    1.739       0       4       0       4     53     53      0   8745     571       2  53    1720f a70f      6.510 "
test,1583577558555537920,54," | 54  |   9342       5   9334       0 |   5    0      9180       154 |   1  61    0    0 b60f |    2.044       0       5       0       5     61     61      0   9031     303       1  61    0b60f a70f      8.130 "
test,1583577558567795968,55," | 55  |   9342       5   9321       0 |   5    0      8980       341 |   1  53    0    0 720f |    2.014       0       5       0       5     53     53      0   8895     426       1  53    0720f a70f      8.220 "
test,1583577558555831808,56," | 56  |   9342       5   9324       0 |   5    0      9188       136 |   1  61    0    0 b60f |    2.044       0       5       0       5     61     61      0   9073     251       1  61    0b60f a70f      8.250 "
test,1583577558576987136,57," | 57  |   9342       5   9279       0 |   1    5      9035       244 |   1  61   41    0 b60f |    2.044       0       4       0       4     61     61      0   8467     812       1  61    0b60f a70f     30.330 "
test,1583577558578051072,58," | 58  |   9342       5   9333       0 |   5    1      9205       128 |   1  61   53    0 b60f |    2.014       0       3       0       3     61     61      0   8822     511       1  61    0b60f a70f     30.390 "
test,1583577558560524032,5," |  5  |   9342       5   9340       0 |   5    0      8479       861 |   4  61    0    0 b60f |    3.509       0       5       0       5     61     61      0   8328    1012       3  61    0b60f a70f     10.260 "
test,1583577558558639104,60," | 60  |   9342       5   9333       0 |   5    0      8721       612 |   3  61    0    0 b60f |    2.746       0       5       0       5     61     61      0   8531     802       2  61    0b60f a70f      9.630 "
test,1583577558559222016,61," | 61  |   9342       5   9316      16 |   4    0      8902       430 |   4  61    0    1 b60f |    5.401       0       4       0       4     61     61      0   8579     753       7  61    1b60f a70f     10.050 "
test,1583577558559568896,7," |  7  |   9342       5   9339       0 |   5    0      9206       133 |   2  61    0    0 b60f |    2.746       0       5       0       5     61     61      0   9144     195       2  61    0b60f a70f      8.970 "
test,1583577558557060864,9," |  9  |   9342       5   9338       0 |   5    0      9041       297 |   2  61    0    0 b60f |    2.777       0       5       0       5     61     61      0   8996     342       2  61    0b60f a70f      9.000 "
