test,1583577490302961152,10," | 10  |   9069       5   9041       0 |   5    0      8903       138 |   2   9    0    0 690f |    2.075       0       5       0       5      9      9      0   8807     234       1   9    0690f a70f      8.310 "
test,1583577490305604096,12," | 12  |   9069       5   9033      34 |   5    0      8976        91 |   2   9    0    0 690f |    2.807       0       5       0       5      9      9      0   8827     240       2   9    0690f a70f      9.630 "
test,1583577490306905088,13," | 13  |   9069       5   9065       0 |   5    0      8992        73 |   2   9    0    0 690f |    2.075       0       5       0       5      9      9      0   8907     158       1   9    0690f a70f      8.280 "
test,1583577490308414976,15," | 15  |   9069       5   9024      43 |   4    2      8682       385 |   5   9   57    0 690f |    3.509       0       5       0       5      9      9      0   8286     781       3   9    0690f a70f     10.290 "
test,1583577490307742976,16," | 16  |   9069       5   9065       0 |   5    0      8707       358 |   5  24    0    0 be0f |    3.509       0       5       0       5     24     24      0   8480     585       3  24    0be0f a70f      9.630 "
test,1583577490307105024,17," | 17  |   9069       5   9054      11 |   5    0      8944       121 |   2  24    0    0 be0f |    2.044       0       5       0       5     24     24      0   8683     382       1  24    0be0f a70f      8.850 "
test,1583577490304663040,18," | 18  |   9069       5   9064       0 |   5    0      8570       494 |   1  24    0    0 be0f |    2.075       0       5       0       5     24     24      0   8233     831       1  24    0be0f a70f      8.160 "
test,1583577490298659072,19," | 19  |   9069       5   9047      18 |   5    0      8887       178 |   2  24    0    0 be0f |    2.044       0       5       0       5     24     24      0   8637     428       1  24    0be0f a70f      8.220 "
test,1583577490303834880,1," |  1  |   9069       4   9066       0 |   5    0      8816       250 |   1   9    0    0 690f |    2.746       0       5       0       5      9      9      0   8760     306       1   9    0690f a70f      8.820 "
test,1583577490304352000,22," | 22  |   9069       5   9063       0 |   5    0      8988        75 |   2  24    0    0 be0f |    2.075       0       5       0       5     24     24      0   8606     457       1  24    0be0f a70f      8.910 "
test,1583577490307951872,23," | 23  |   9069       5   9007       0 |   5    0      8969        38 |   4  24    0    0 be0f |    2.746       0       5       0       5     24     24      0   8802     205       2  24    0be0f a70f     10.380 "
test,1583577490302566912,24," | 24  |   9069       5   9063       2 |   4    0      8951       114 |   3  24    0    1 be0f |    1.739       0       4       0       4     24     24      0   8725     340       2  24    1be0f a70f      6.480 "
test,1583577490304156928,26," | 26  |   9069       5   9063       2 |   5    0      9029        36 |   1  24    0    0 be0f |    2.014       0       5       0       5     24     24      0   8872     193       1  24    0be0f a70f      8.970 "
test,1583577490307280896,27," | 27  |   9069       5   9067       0 |   5    0      8803       264 |   3  24    0    0 be0f |    2.777       0       5       0       5     24     24      0   8456     611       2  24    0be0f a70f      9.000 "
test,1583577490310565888,28," | 28  |   9069       5   9057       8 |   5    0      8352       713 |   1  30    0    0 c70f |    2.014       0       5       0       5     30     30      0   7990    1075       1  30    0c70f a70f      8.250 "
test,1583577490306580992,29," | 29  |   9069       4   9052      15 |   5    0      8029      1038 |   3  24    0    0 be0f |    2.777       0       5       0       5     24     24      0   7642    1425       2  24    0be0f a70f      9.000 "
test,1583577490303340800,30," | 30  |   9069       5   9061       4 |   4    0      8945       120 |   2  30    0    1 c70f |    1.770       0       4       0       4     30     30      0   8615     450       2  30    1c70f a70f      6.510 "
test,1583577490303617024,35," | 35  |   9069       5   9061       4 |   5    0      8646       419 |   1  30    0    0 c70f |    2.044       0       5       0       5     30     30      0   8445     620       1  30    0c70f a70f      8.280 "
test,1583577490306397952,40," | 40  |   9069       5   8969      92 |   2    1      8524       537 |   3  41   46    0 3a0f |    2.746       0       5       0       5     41     41      0   8288     773       2  41    03a0f a70f      8.880 "
test,1583577490308572928,41," | 41  |   9069       5   8976      79 |   1    8      8951       104 |   5  41   46    1 3a0f |    1.770       0       4       0       4     41     41      0   8740     315       2  41    13a0f a70f      6.510 "
test,1583577490310035968,42," | 42  |   9069       5   8979      86 |   2    7      8887       178 |   1  41   46    0 3a0f |    2.014       0       5       0       5     41     41      0   8686     379       1  41    03a0f a70f      8.970 "
test,1583577490326217984,44," | 44  |   9069       5   8991      74 |   2    4      8888       177 |   2  41   46    0 3a0f |    2.014       0       4       0       4     41     41      0   8703     362       1  41    03a0f a70f     30.270 "
test,1583577490305201920,45," | 45  |   9069       5   9011      54 |   3    3      8777       288 |   1  41   46    0 3a0f |    2.014       0       5       0       5     41     41      0   8608     457       1  41    03a0f a70f      8.130 "
test,1583577490324742144,46," | 46  |   9069       5   8986      72 |   0    1      8617       441 |   0  46   41    1 110f |    0           0       0       0       8      0      0      0   8460     598       0  46    1110f a70f     30.210 "
test,1583577490305926912,47," | 47  |   9069       5   8988      77 |   3    4      8773       292 |   1  41   46    0 3a0f |    2.044       0       5       0       5     41     41      0   8603     462       1  41    03a0f a70f      8.160 "
test,1583577490305007872,48," | 48  |   9069       5   8927      71 |   2    7      8811       187 |   1  41   46    0 3a0f |    2.044       0       5       0       5     41     41      0   8624     374       1  41    03a0f a70f      8.970 "
test,1583577490322119936,49," | 49  |   9069       5   9059       0 |   5    0      8883       176 |   2  57    0    0 820f |   12.725       0       5       0       5     57     57      0   8824     235      16  57    0820f a70f     18.750 "
test,1583577490325690880,51," | 51  |   9069       5   9060       0 |   5    0      8957       103 |   3   9    0    0 690f |    2.746       0       3       0       3      9      9      0   8924     136       2   9    0690f a70f     30.390 "
test,1583577490305391104,52," | 52  |   9069       5   9028      33 |   5    0      8610       451 |   1  24    0    0 be0f |    2.044       0       5       0       5     24     24      0   8455     606       1  24    0be0f a70f      8.250 "
test,1583577490319937024,53," | 53  |   9069       5   9043       0 |   5    0      8590       453 |   3  57    0    0 820f |   13.397       0       5       0       5     57     57      0   8500     543      17  57    0820f a70f     19.410 "
test,1583577490318875136,54," | 54  |   9069       5   9061       0 |   5    7      8911       150 |   1  57    9    0 820f |   12.023       0       5       0       5     57     57      0   8766     295      15  57    0820f a70f     23.010 "
test,1583577490320466944,55," | 55  |   9069       5   9048       0 |   5    0      8714       334 |   2  57    0    0 820f |   12.756       0       5       0       5     57     57      0   8636     412      16  57    0820f a70f     18.780 "
test,1583577490324492032,56," | 56  |   9069       5   9051       0 |   0   12      8916       135 |   0  56   57    1 c40f |    0           0       0       0       8      0      0      0   8808     243       0  56    1c40f a70f     30.180 "
test,1583577490321076992,57," | 57  |   9069       5   9006       0 |   3    7      8765       241 |  20  57   56    1 820f |   10.284       0       4       0       4     57     57      0   8214     792      14  57    1820f a70f     21.330 "
test,1583577490321242112,58," | 58  |   9069       5   9060       0 |   5    0      8936       124 |   1  57    0    0 820f |   11.993       0       5       0       5     57     57      0   8567     493      15  57    0820f a70f     22.200 "
test,1583577490312536064,5," |  5  |   9069       5   9067       0 |   5    0      8233       834 |   3   9    0    0 690f |    2.777       0       5       0       5      9      9      0   8084     983       2   9    0690f a70f      8.970 "
test,1583577490311186944,60," | 60  |   9069       5   9060       0 |   5    4      8466       594 |   1  57    9    0 820f |    2.014       0       5       0       5     57     57      0   8283     777       1  57    0820f a70f     12.240 "
test,1583577490322781184,61," | 61  |   9069       5   9043      16 |   5    0      8635       424 |   1  57    0    0 820f |   12.023       0       5       0       5     57     57      0   8326     733      15  57    0820f a70f     22.980 "
test,1583577490308207872,7," |  7  |   9069       5   9066       0 |   5    0      8938       128 |   1   9    0    0 690f |    2.044       0       5       0       5      9      9      0   8876     190       1   9    0690f a70f      8.910 "
test,1583577490302108160,9," |  9  |   9069       5   9065       0 |   5    0      8775       290 |   2   9    0    1 690f |    1.739       0       4       0       4      9      9      0   8731     334       2   9    1690f a70f      6.480 "
