test,1583577509806711040,10," | 10  |   9147       5   9119       0 |   5    0      8981       138 |   2  57    0    0 4a0f |    2.746       0       5       0       5     57     57      0   8884     235       2  57    04a0f a70f     10.290 "
test,1583577509806934016,12," | 12  |   9147       5   9111      34 |   5    0      9053        92 |   2  57    0    0 4a0f |    3.509       0       5       0       5     57     57      0   8903     242       3  57    04a0f a70f     10.410 "
test,1583577509810548992,13," | 13  |   9147       5   9143       0 |   5    0      9070        73 |   2  57    0    0 4a0f |    2.746       0       5       0       5     57     57      0   8985     158       2  57    04a0f a70f     10.350 "
test,1583577509807895040,15," | 15  |   9147       5   9102      43 |   5    0      8757       388 |   3  57    0    0 4a0f |    4.211       0       5       0       5     57     57      0   8357     788       4  57    04a0f a70f     11.130 "
test,1583577509829906944,16," | 16  |   9147       5   9143       0 |   5    0      8784       359 |   3  22    0    0 eb0f |    3.540       0       4       0       4     22     22      0   8553     590       3  22    0eb0f a70f     30.240 "
test,1583577509805700096,17," | 17  |   9147       5   9132      11 |   5    0      9020       123 |   1  22    0    0 eb0f |    2.075       0       5       0       5     22     22      0   8758     385       1  22    0eb0f a70f      9.660 "
test,1583577509823331072,18," | 18  |   9147       5   9142       0 |   0    7      8641       501 |   0  18   22    1 8b0f |    0           0       0       0       8      0      0      0   8303     839       0  18    18b0f a70f     30.150 "
test,1583577509827759104,19," | 19  |   9147       5   9125      18 |   5    0      8965       178 |   2  22    0    0 eb0f |    2.807       0       4       0       4     22     22      0   8713     430       2  22    0eb0f a70f     30.270 "
test,1583577509804898048,1," |  1  |   9147       4   9144       0 |   5    0      8894       250 |   2  57    0    0 4a0f |    3.387       0       5       0       5     57     57      0   8838     306       2  57    04a0f a70f      9.600 "
test,1583577509805452032,22," | 22  |   9147       5   9141       0 |   4    0      9062        79 |   5  22    0    1 eb0f |    1.739       0       4       0       4     22     22      0   8681     460       2  22    1eb0f a70f      7.920 "
test,1583577509810337024,23," | 23  |   9147       5   9085       0 |   1    7      9046        39 |   1  57   22    0 4a0f |    2.014       0       5       0       5     57     57      0   8876     209       1  57    04a0f a70f     14.520 "
test,1583577509804248064,24," | 24  |   9147       5   9141       2 |   5    0      9027       116 |   1  22    0    0 eb0f |    2.044       0       5       0       5     22     22      0   8801     342       1  22    0eb0f a70f      8.940 "
test,1583577509802776064,26," | 26  |   9147       5   9141       2 |   5    0      9107        36 |   1  22    0    0 eb0f |    2.014       0       5       0       5     22     22      0   8949     194       1  22    0eb0f a70f      8.220 "
test,1583577509828754944,27," | 27  |   9147       5   9145       0 |   4    3      8878       267 |   4  22   29    0 eb0f |    5.706       0       2       0       2     22     22      0   8529     616       6  22    0eb0f a70f     30.330 "
test,1583577509826864896,28," | 28  |   9147       5   9135       8 |   5    0      8426       717 |   1  22    0    0 eb0f |    2.777       0       4       0       4     22     22      0   8062    1081       2  22    0eb0f a70f     30.270 "
test,1583577509827092992,29," | 29  |   9147       5   9130      15 |   0    5      8095      1050 |   0  29   22    1 6a0f |    0           0       0       0       8      0      0      0   7707    1438       0  29    16a0f a70f     30.180 "
test,1583577509804478976,30," | 30  |   9147       5   9139       4 |   5    0      9023       120 |   1  22    0    0 eb0f |    2.777       0       5       0       5     22     22      0   8691     452       2  22    0eb0f a70f      8.850 "
test,1583577509804719872,35," | 35  |   9147       5   9139       4 |   5    0      8723       420 |   1  22    0    0 eb0f |    2.014       0       5       0       5     22     22      0   8521     622       1  22    0eb0f a70f      8.250 "
test,1583577509830892032,40," | 40  |   9147       5   9047      92 |   4    0      8600       539 |   1  48    0    0 630f |    2.044       0       3       0       3     48     48      0   8363     776       1  48    0630f a70f     30.360 "
test,1583577509825263104,41," | 41  |   9147       5   9054      79 |   3    0      9029       104 |   1  48    0    0 630f |    2.014       0       3       0       3     48     48      0   8818     315       1  48    0630f a70f     30.330 "
test,1583577509824742912,42," | 42  |   9147       5   9057      86 |   3    0      8965       178 |   1  48    0    0 630f |    2.014       0       3       0       3     48     48      0   8764     379       1  48    0630f a70f     30.360 "
test,1583577509831099136,44," | 44  |   9147       5   9069      74 |   3    1      8962       181 |   1  48   22    0 630f |    2.014       0       3       0       3     48     48      0   8777     366       1  48    0630f a70f     30.390 "
test,1583577509825798144,45," | 45  |   9147       5   9089      54 |   3    0      8852       291 |   1  48    0    0 630f |    1.983       0       3       0       3     48     48      0   8683     460       1  48    0630f a70f     30.330 "
test,1583577509830113792,46," | 46  |   9147       5   9064      72 |   4    0      8692       444 |   2  48    0    0 630f |    2.044       0       3       0       3     48     48      0   8535     601       1  48    0630f a70f     30.390 "
test,1583577509826048000,47," | 47  |   9147       5   9066      77 |   2    1      8845       298 |   1  48   18    0 630f |    2.014       0       3       0       3     48     48      0   8674     469       1  48    0630f a70f     30.330 "
test,1583577509828520960,48," | 48  |   9147       5   9005      71 |   1    0      8888       188 |  11  48    0    1 630f |    3.814       0       1       0       1     48     48      0   8701     375       5  48    1630f a70f     30.210 "
test,1583577509825432064,49," | 49  |   9147       5   9137       0 |   4    5      8961       176 |   4  57   53    0 4a0f |    2.746       0       4       0       4     57     57      0   8900     237       2  57    04a0f a70f     30.360 "
test,1583577509806333952,51," | 51  |   9147       5   9138       0 |   5    0      9034       104 |   1  57    0    0 4a0f |    2.014       0       5       0       5     57     57      0   9001     137       1  57    04a0f a70f      8.790 "
test,1583577509807183104,52," | 52  |   9147       5   9106      33 |   5    0      8684       455 |   2  22    0    0 eb0f |    2.777       0       5       0       5     22     22      0   8528     611       2  22    0eb0f a70f      9.690 "
test,1583577509824300032,53," | 53  |   9147       5   9121       0 |   0    4      8660       461 |   0  53   57    1 8e0f |    0           0       0       0       8      0      0      0   8569     552       0  53    18e0f a70f     30.180 "
test,1583577509805864960,54," | 54  |   9147       5   9139       0 |   5    0      8987       152 |   2  57    0    0 4a0f |    2.746       0       5       0       5     57     57      0   8840     299       2  57    04a0f a70f      8.970 "
test,1583577509826236928,55," | 55  |   9147       5   9126       0 |   4    5      8789       337 |   4  57   53    0 4a0f |    2.746       0       4       0       4     57     57      0   8709     417       2  57    04a0f a70f     30.360 "
test,1583577509803988992,56," | 56  |   9147       5   9129       0 |   5    0      8994       135 |   1  57    0    0 4a0f |    2.044       0       5       0       5     57     57      0   8885     244       1  57    04a0f a70f      7.980 "
test,1583577509813932032,57," | 57  |   9147       4   9084       0 |   2    2      8843       241 |   5  57   22    1 4a0f |    8.148       0       4       0       4     57     57      0   8289     795      11  57    14a0f a70f     12.780 "
test,1583577509810947840,58," | 58  |   9147       5   9138       0 |   5    0      9014       124 |   1  57    0    0 4a0f |    2.044       0       5       0       5     57     57      0   8644     494       1  57    04a0f a70f      8.760 "
test,1583577509812156928,5," |  5  |   9147       5   9145       0 |   4    0      8306       839 |   3  57    0    0 4a0f |    3.448       0       5       0       5     57     57      0   8157     988       3  57    04a0f a70f     11.070 "
test,1583577509807718912,60," | 60  |   9147       5   9138       0 |   5    0      8538       600 |   1  57    0    0 4a0f |    2.044       0       5       0       5     57     57      0   8353     785       1  57    04a0f a70f      9.360 "
test,1583577509811311104,61," | 61  |   9147       5   9121      16 |   5    0      8711       426 |   1  57    0    0 4a0f |    2.014       0       5       0       5     57     57      0   8401     736       1  57    04a0f a70f      9.480 "
test,1583577509807384064,7," |  7  |   9147       5   9144       0 |   5    0      9014       130 |   2  57    0    0 4a0f |    2.716       0       5       0       5     57     57      0   8952     192       2  57    04a0f a70f     10.380 "
test,1583577509805134080,9," |  9  |   9147       5   9143       0 |   5    0      8853       290 |   3  57    0    0 4a0f |    3.509       0       5       0       5     57     57      0   8808     335       3  57    04a0f a70f      9.660 "
