test,1583577544804282880,10," | 10  |   9287       5   9259       0 |   5    0      9119       140 |   1   1    0    0 590f |    1.373       0       5       0       5      1      1      0   9023     236       1   1    0590f a70f      7.440 "
test,1583577544803940096,12," | 12  |   9287       5   9251      34 |   5    0      9192        93 |   1   1    0    0 590f |    1.342       0       5       0       5      1      1      0   9040     245       1   1    0590f a70f      7.500 "
test,1583577544832555008,13," | 13  |   9287       5   9283       0 |   2    8      9208        75 |   8  13    1    1 670f |    8.117       0       2       0       2     13     13      0   9122     161      11  13    1670f a70f     30.210 "
test,1583577544810376960,15," | 15  |   9287       5   9242      43 |   5    0      8887       398 |   2   1    0    0 590f |    2.044       0       5       0       5      1      1      0   8483     802       2   1    0590f a70f      8.280 "
test,1583577544807187968,16," | 16  |   9287       5   9283       0 |   5    0      8919       364 |   2  52    0    0 240f |    2.746       0       5       0       5     52     52      0   8681     602       2  52    0240f a70f      9.660 "
test,1583577544825229056,17," | 17  |   9287       5   9272      11 |   0    9      9157       126 |   0  17   52    1 ad0f |    0           0       0       0       8      0      0      0   8894     389       0  17    1ad0f a70f     30.210 "
test,1583577544808785920,18," | 18  |   9287       5   9282       0 |   5    0      8774       508 |   3  52    0    0 240f |    4.241       0       5       0       5     52     52      0   8430     852       4  52    0240f a70f     10.410 "
test,1583577544827316992,19," | 19  |   9287       5   9265      18 |   5    0      9103       180 |   1  52    0    0 240f |    2.777       0       4       0       4     52     52      0   8848     435       2  52    0240f a70f     30.390 "
test,1583577544803691008,1," |  1  |   9287       4   9284       0 |   5    0      9029       255 |   2   1    0    1 590f |    1.739       0       4       0       4      1      1      0   8973     311       2   1    1590f a70f      6.510 "
test,1583577544813182208,22," | 22  |   9287       5   9281       0 |   5    0      9199        82 |   2  52    0    0 240f |    4.272       0       5       0       5     52     52      0   8812     469       4  52    0240f a70f     10.260 "
test,1583577544807655168,23," | 23  |   9287       5   9225       0 |   5    0      9185        40 |   1  52    0    0 240f |    2.044       0       5       0       5     52     52      0   9010     215       1  52    0240f a70f      9.720 "
test,1583577544811346176,24," | 24  |   9287       5   9281       2 |   5    0      9165       118 |   1  52    0    0 240f |    3.509       0       5       0       5     52     52      0   8936     347       3  52    0240f a70f      9.690 "
test,1583577544811068928,26," | 26  |   9287       5   9281       2 |   5    0      9247        36 |   1  52    0    0 240f |    2.807       0       5       0       5     52     52      0   9085     198       2  52    0240f a70f     10.470 "
test,1583577544807468800,27," | 27  |   9287       5   9285       0 |   5    1      9011       274 |   4  52    1    0 240f |    2.777       0       5       0       5     52     52      0   8655     630       2  52    0240f a70f     10.410 "
test,1583577544811512832,28," | 28  |   9287       5   9275       8 |   4    3      8559       724 |   4  35   17    0 490f |    2.777       0       5       0       5     35     35      0   8190    1093       2  35    0490f a70f      8.910 "
test,1583577544828320000,29," | 29  |   9287       4   9270      15 |   5    0      8217      1068 |   2  52    0    0 240f |    4.974       0       4       0       4     52     52      0   7824    1461       5  52    0240f a70f     30.360 "
test,1583577544809812992,30," | 30  |   9287       5   9279       4 |   5    0      9161       122 |   1  35    0    0 490f |    2.014       0       5       0       5     35     35      0   8824     459       1  35    0490f a70f      8.220 "
test,1583577544809400064,35," | 35  |   9287       5   9279       4 |   4    0      8854       429 |   2  35    0    1 490f |    1.739       0       4       0       4     35     35      0   8649     634       2  35    1490f a70f      6.480 "
test,1583577544808249856,40," | 40  |   9287       5   9187      92 |   4    0      8731       548 |   2  47    0    0 130f |    2.014       0       5       0       5     47     47      0   8490     789       1  47    0130f a70f      8.250 "
test,1583577544812304896,41," | 41  |   9287       5   9194      79 |   5    0      9167       106 |   1  47    0    0 130f |    2.044       0       5       0       5     47     47      0   8955     318       1  47    0130f a70f      8.820 "
test,1583577544821304064,42," | 42  |   9287       5   9197      86 |   5    0      9103       180 |   1  47    0    0 130f |    2.014       0       5       0       5     47     47      0   8899     384       1  47    0130f a70f      8.280 "
test,1583577544808006144,44," | 44  |   9287       5   9209      74 |   4    1      9096       187 |   3  47   52    0 130f |    2.075       0       5       0       5     47     47      0   8910     373       1  47    0130f a70f      8.310 "
test,1583577544808957952,45," | 45  |   9287       5   9229      54 |   5    0      8989       294 |   1  47    0    0 130f |    2.044       0       5       0       5     47     47      0   8818     465       1  47    0130f a70f      8.280 "
test,1583577544808581120,46," | 46  |   9287       5   9204      72 |   5    0      8823       453 |   1  47    0    0 130f |    2.044       0       5       0       5     47     47      0   8664     612       1  47    0130f a70f      8.850 "
test,1583577544809617920,47," | 47  |   9287       5   9206      77 |   4    0      8983       300 |   2  47    0    1 130f |    1.739       0       4       0       4     47     47      0   8809     474       2  47    1130f a70f      6.510 "
test,1583577544812096000,48," | 48  |   9287       5   9145      71 |   5    0      9027       189 |   1  47    0    0 130f |    2.014       0       5       0       5     47     47      0   8836     380       1  47    0130f a70f      9.660 "
test,1583577544805931008,49," | 49  |   9287       5   9277       0 |   5    0      9094       183 |   1  58    0    0 a10f |    2.014       0       5       0       5     58     58      0   9030     247       1  58    0a10f a70f      8.220 "
test,1583577544804482816,51," | 51  |   9287       5   9278       0 |   5    0      9174       104 |   1   1    0    0 590f |    1.342       0       5       0       5      1      1      0   9138     140       1   1    0590f a70f      8.220 "
test,1583577544806711808,52," | 52  |   9287       5   9246      33 |   5    0      8817       462 |   4  52    0    1 240f |    1.770       0       4       0       4     52     52      0   8657     622       2  52    1240f a70f      6.510 "
test,1583577544806317056,53," | 53  |   9287       5   9261       0 |   5    0      8788       473 |   2  58    0    0 a10f |    2.716       0       5       0       5     58     58      0   8693     568       2  58    0a10f a70f      8.790 "
test,1583577544826523904,54," | 54  |   9287       5   9279       0 |   5    0      9125       154 |   1   1    0    0 590f |    1.342       0       4       0       4      1      1      0   8976     303       1   1    0590f a70f     30.330 "
test,1583577544811734016,55," | 55  |   9287       5   9266       0 |   5    0      8925       341 |   1  58    0    0 a10f |    1.983       0       5       0       5     58     58      0   8840     426       1  58    0a10f a70f      8.100 "
test,1583577544825541120,56," | 56  |   9287       5   9269       0 |   1    6      9133       136 |   3  52   13    0 240f |    5.004       0       4       0       4     52     52      0   9019     250       5  52    0240f a70f     30.360 "
test,1583577544812841984,57," | 57  |   9287       5   9224       0 |   5    0      8981       243 |   2  52    0    0 240f |    2.807       0       5       0       5     52     52      0   8414     810       2  52    0240f a70f      9.000 "
test,1583577544805115904,58," | 58  |   9287       5   9278       0 |   1    0      9151       127 |  10  58    0    1 a10f |    1.739       0       4       0       4     58     58      0   8771     507       2  58    1a10f a70f      6.480 "
test,1583577544807815936,5," |  5  |   9287       5   9285       0 |   4    5      8429       856 |   1  13    1    0 670f |    2.014       0       5       0       5     13     13      0   8279    1006       1  13    0670f a70f     10.110 "
test,1583577544820030976,60," | 60  |   9287       5   9278       0 |   3    1      8669       609 |   2   1   52    0 590f |    2.105       0       5       0       5      1      1      0   8480     798       2   1    0590f a70f      8.940 "
test,1583577544806119936,61," | 61  |   9287       5   9261      16 |   2    2      8847       430 |   7  58    1    0 a10f |    2.014       0       5       0       5     58     58      0   8529     748       1  58    0a10f a70f      8.160 "
test,1583577544803246080,7," |  7  |   9287       5   9284       0 |   5    0      9151       133 |   1   1    0    0 590f |    1.342       0       5       0       5      1      1      0   9089     195       1   1    0590f a70f      7.440 "
test,1583577544803500032,9," |  9  |   9287       5   9283       0 |   5    0      8988       295 |   1   1    0    0 590f |    1.373       0       5       0       5      1      1      0   8943     340       1   1    0590f a70f      7.620 "
