test,1583577506804850944,10," | 10  |   9135       5   9107       0 |   5    0      8969       138 |   1  58    0    0 c40f |    2.075       0       5       0       5     58     58      0   8872     235       1  58    0c40f a70f      9.570 "
test,1583577506808470016,12," | 12  |   9135       5   9099      34 |   5    0      9041        92 |   1  58    0    0 c40f |    2.044       0       5       0       5     58     58      0   8891     242       1  58    0c40f a70f      9.540 "
test,1583577506807892992,13," | 13  |   9135       5   9131       0 |   5    0      9058        73 |   2  58    0    0 c40f |    2.777       0       5       0       5     58     58      0   8973     158       2  58    0c40f a70f     10.200 "
test,1583577506811767040,15," | 15  |   9135       4   9090      43 |   3    0      8745       388 |   2  58    0    0 c40f |    2.777       0       5       0       5     58     58      0   8346     787       2  58    0c40f a70f     10.260 "
test,1583577506803224064,16," | 16  |   9135       5   9131       0 |   4    0      8772       359 |   3  16    0    1 720f |    1.739       0       4       0       4     16     16      0   8541     590       2  16    1720f a70f      6.480 "
test,1583577506809992192,17," | 17  |   9135       5   9120      11 |   5    0      9009       122 |   1  16    0    0 720f |    2.044       0       5       0       5     16     16      0   8747     384       1  16    0720f a70f      9.000 "
test,1583577506805059072,18," | 18  |   9135       5   9130       0 |   5    3      8631       499 |   2  35   16    0 d10f |    2.746       0       5       0       5     35     35      0   8293     837       2  35    0d10f a70f      8.820 "
test,1583577506816049152,19," | 19  |   9135       5   9113      18 |   5    0      8953       178 |   2  16    0    0 720f |    2.746       0       5       0       5     16     16      0   8701     430       2  16    0720f a70f      9.690 "
test,1583577506807023104,1," |  1  |   9135       4   9132       0 |   5    0      8882       250 |   2  58    0    0 c40f |    3.448       0       5       0       5     58     58      0   8826     306       2  58    0c40f a70f     10.890 "
test,1583577506808182016,22," | 22  |   9135       5   9129       0 |   5    4      9050        79 |   1  35   16    0 d10f |    1.983       0       5       0       5     35     35      0   8669     460       1  35    0d10f a70f      8.070 "
test,1583577506802972160,23," | 23  |   9135       5   9073       0 |   5    0      9034        39 |   1  16    0    0 720f |    2.014       0       5       0       5     16     16      0   8864     209       1  16    0720f a70f      8.130 "
test,1583577506826155776,24," | 24  |   9135       5   9129       2 |   5    4      9015       116 |   2  35   16    0 d10f |    3.479       0       4       0       4     35     35      0   8789     342       3  35    0d10f a70f     30.390 "
test,1583577506803623936,26," | 26  |   9135       5   9129       2 |   5    0      9095        36 |   2  16    0    0 720f |    2.044       0       5       0       5     16     16      0   8937     194       1  16    0720f a70f      8.190 "
test,1583577506810745856,27," | 27  |   9135       5   9133       0 |   5    0      8866       267 |   2  16    0    0 720f |    2.746       0       5       0       5     16     16      0   8517     616       2  16    0720f a70f      8.790 "
test,1583577506805821952,28," | 28  |   9135       4   9123       8 |   5    4      8415       716 |   1  35   16    0 d10f |    2.014       0       5       0       5     35     35      0   8051    1080       1  35    0d10f a70f      8.820 "
test,1583577506828360192,29," | 29  |   9135       5   9118      15 |   1    0      8085      1048 |   7  16    0    0 720f |    4.943       0       4       0       4     16     16      0   7697    1436       5  16    0720f a70f     30.330 "
test,1583577506804611072,30," | 30  |   9135       5   9127       4 |   5    1      9011       120 |   1  35   58    0 d10f |    1.983       0       5       0       5     35     35      0   8679     452       1  35    0d10f a70f      8.130 "
test,1583577506804423168,35," | 35  |   9135       5   9127       4 |   4    0      8711       420 |   5  35    0    1 d10f |    1.739       0       4       0       4     35     35      0   8509     622       2  35    1d10f a70f      6.480 "
test,1583577506827343872,40," | 40  |   9135       4   9035      92 |   3    4      8589       538 |   2  45   35    0 900f |    2.716       0       4       0       4     45     45      0   8352     775       2  45    0900f a70f     30.390 "
test,1583577506825123072,41," | 41  |   9135       5   9042      79 |   4    3      9017       104 |   1  45   35    0 900f |    2.014       0       4       0       4     45     45      0   8806     315       1  45    0900f a70f     30.360 "
test,1583577506827116032,42," | 42  |   9135       5   9045      86 |   3    6      8953       178 |   1  45   35    0 900f |    3.479       0       3       0       3     45     45      0   8752     379       3  45    0900f a70f     30.390 "
test,1583577506829120000,44," | 44  |   9135       5   9057      74 |   4    5      8951       180 |   1  45   35    0 900f |    1.983       0       4       0       4     45     45      0   8766     365       1  45    0900f a70f     30.390 "
test,1583577506826674944,45," | 45  |   9135       5   9077      54 |   3    1      8841       290 |   5  45   16    1 900f |    1.739       0       3       0       3     45     45      0   8672     459       2  45    1900f a70f     30.300 "
test,1583577506826499072,46," | 46  |   9135       5   9052      72 |   4    0      8680       444 |   1  45    0    0 900f |    2.014       0       4       0       4     45     45      0   8523     601       1  45    0900f a70f     30.390 "
test,1583577506826867968,47," | 47  |   9135       5   9054      77 |   3    1      8834       297 |   1  45   35    0 900f |    2.746       0       4       0       4     45     45      0   8663     468       2  45    0900f a70f     30.360 "
test,1583577506825828096,48," | 48  |   9135       5   8993      71 |   4    4      8876       188 |   1  45   35    0 900f |    2.014       0       4       0       4     45     45      0   8689     375       1  45    0900f a70f     30.390 "
test,1583577506804017920,49," | 49  |   9135       5   9125       0 |   4    0      8949       176 |   2  49    0    1 530f |    1.739       0       4       0       4     49     49      0   8888     237       2  49    1530f a70f      6.480 "
test,1583577506807506944,51," | 51  |   9135       5   9126       0 |   5    0      9022       104 |   2  58    0    0 c40f |    2.746       0       5       0       5     58     58      0   8989     137       2  58    0c40f a70f      9.510 "
test,1583577506809820928,52," | 52  |   9135       5   9094      33 |   5    0      8674       453 |   1  16    0    0 720f |    2.746       0       5       0       5     16     16      0   8518     609       2  16    0720f a70f      8.970 "
test,1583577506803438848,53," | 53  |   9135       5   9109       0 |   5    0      8649       460 |   1  49    0    0 530f |    2.014       0       5       0       5     49     49      0   8558     551       1  49    0530f a70f      8.250 "
test,1583577506809152000,54," | 54  |   9135       5   9127       0 |   5    0      8975       152 |   1  58    0    0 c40f |    2.044       0       5       0       5     58     58      0   8828     299       1  58    0c40f a70f     10.260 "
test,1583577506807692032,55," | 55  |   9135       5   9114       0 |   5    0      8777       337 |   1  49    0    0 530f |    2.075       0       5       0       5     49     49      0   8697     417       1  49    0530f a70f      8.130 "
test,1583577506806565120,56," | 56  |   9135       5   9117       0 |   5    0      8982       135 |   1  58    0    0 c40f |    2.044       0       5       0       5     58     58      0   8873     244       1  58    0c40f a70f      8.700 "
test,1583577506808734976,57," | 57  |   9135       5   9072       0 |   1    7      8831       241 |   1  58   35    0 c40f |    2.075       0       5       0       5     58     58      0   8277     795       1  58    0c40f a70f     10.830 "
test,1583577506827999232,58," | 58  |   9135       5   9126       0 |   4    0      9002       124 |   2  58    0    1 c40f |    8.178       0       2       0       2     58     58      0   8632     494      11  58    1c40f a70f     30.240 "
test,1583577506811425024,5," |  5  |   9135       5   9133       0 |   5    0      8295       838 |   2  58    0    0 c40f |    2.746       0       5       0       5     58     58      0   8146     987       2  58    0c40f a70f     10.950 "
test,1583577506807215872,60," | 60  |   9135       5   9126       0 |   5    0      8526       600 |   2  58    0    0 c40f |    2.807       0       5       0       5     58     58      0   8341     785       2  58    0c40f a70f     10.230 "
test,1583577506812218880,61," | 61  |   9135       5   9109      16 |   5    0      8700       425 |   1  58    0    0 c40f |    2.044       0       5       0       5     58     58      0   8390     735       1  58    0c40f a70f      9.540 "
test,1583577506806797056,7," |  7  |   9135       5   9132       0 |   5    0      9003       129 |   2  58    0    0 c40f |    2.777       0       5       0       5     58     58      0   8941     191       2  58    0c40f a70f     10.290 "
test,1583577506806294016,9," |  9  |   9135       5   9131       0 |   5    0      8841       290 |   2  58    0    0 c40f |    2.807       0       5       0       5     58     58      0   8796     335       2  58    0c40f a70f     10.260 "
