0 1 1 1 2 1 3 3 3 1 2 4 3 4 3 2 2 3 3 2 3 2 2 2 1 
1 0 1 1 2 1 3 3 3 1 2 4 3 4 3 2 2 3 3 2 3 2 2 2 1 
2 1 0 1 1 1 2 2 2 1 1 3 2 3 2 1 1 2 2 1 2 1 1 1 1 
1 1 1 0 2 1 3 3 3 1 2 4 3 4 3 2 2 3 3 2 3 2 2 2 2 
2 2 1 2 0 2 3 3 3 2 1 3 1 3 2 1 2 2 3 2 1 1 2 2 1 
1 1 1 1 2 0 3 3 3 1 2 4 3 4 3 2 2 3 3 2 3 2 2 2 1 
3 3 2 3 3 3 0 1 2 2 3 3 3 3 2 3 2 3 1 1 3 3 1 1 2 
4 4 3 4 3 4 1 0 1 3 3 2 3 3 2 3 2 3 1 1 3 2 2 2 3 
3 3 2 3 2 3 2 1 0 3 2 1 2 2 1 2 1 2 1 2 2 1 2 3 2 
1 1 1 1 2 1 2 3 3 0 2 4 3 4 3 2 2 3 2 2 3 2 1 1 2 
2 2 1 2 2 2 3 3 3 2 0 3 1 3 2 1 2 2 3 2 2 2 2 2 1 
4 3 2 3 3 3 3 2 1 3 3 0 2 1 1 2 1 2 1 2 2 2 2 3 3 
3 3 2 3 2 3 3 3 2 3 1 2 0 2 1 1 1 1 2 2 1 1 3 3 2 
4 3 2 3 3 3 3 2 1 3 3 1 2 0 1 2 1 1 2 2 2 2 3 3 3 
3 3 2 3 2 3 2 2 1 3 2 1 1 1 0 1 1 1 1 1 2 1 2 3 2 
3 2 1 2 2 2 3 3 3 2 1 3 1 3 2 0 2 1 3 2 2 1 2 2 2 
3 2 1 2 2 2 3 2 1 2 2 2 1 2 1 2 0 1 2 2 1 1 2 2 2 
4 3 2 3 2 3 4 3 2 3 2 3 1 3 2 1 1 0 3 3 1 2 3 3 3 
3 3 2 3 3 3 2 1 1 2 3 2 3 3 2 3 2 3 0 1 3 2 1 2 3 
3 3 2 3 3 3 1 1 2 2 3 2 2 2 1 2 1 2 1 0 2 2 1 2 3 
3 3 2 3 1 3 3 3 2 3 2 2 1 2 1 2 1 1 2 2 0 1 3 3 2 
2 2 1 2 1 2 3 3 2 2 1 2 1 2 1 1 1 2 2 2 1 0 2 2 1 
2 2 1 2 2 2 1 2 2 1 2 3 3 3 2 2 2 3 1 1 3 2 0 1 2 
2 2 1 2 2 2 1 2 3 1 2 4 3 4 3 2 2 3 2 2 3 2 1 0 1 
1 1 1 2 1 1 2 3 3 2 1 4 2 4 3 2 2 3 3 2 2 2 2 1 0 
-------------------------------------------------------------------------------------------------------------------------------------------------------------------------------------------
Network diameter:4


Group Initiator::4
-----------------------------------------------------------------------------------------------------------
20 26 19 25 13 11 17 23 24 27 18 28 22 0 0 0 0 0 0 0 0 0 0 0 0 
GROUP DIAMETER FROM INITIATOR ::4
count_other_group_member::13
Max value :: 52
Group Initiator::20
-----------------------------------------------------------------------------------------------------------
4 1 2 8 15 33 3 31 32 10 6 16 22 0 0 0 0 0 0 0 0 0 0 0 0 
GROUP DIAMETER FROM INITIATOR ::4
count_other_group_member::12
Max value :: 100
00 04 07 02 
01 06 06 00 
1*(4)+10*(3)+13*(2)+2*(1)+interspection_factor=62
Normalized interspection_factor=0.62
-------------------------------------------------------------------------------------------------------------------------------------------------------------------------------------------
-------------------------------------------------------------------------------------------------------------------------------------------------------------------------------------------
Network diameter:4


Group Initiator::2
-----------------------------------------------------------------------------------------------------------
13 20 19 25 26 11 17 23 24 27 18 28 22 0 0 0 0 0 0 0 0 0 0 0 0 
GROUP DIAMETER FROM INITIATOR ::4
count_other_group_member::13
Max value :: 52
Group Initiator::13
-----------------------------------------------------------------------------------------------------------
2 1 10 8 15 33 3 31 32 4 6 16 22 0 0 0 0 0 0 0 0 0 0 0 0 
GROUP DIAMETER FROM INITIATOR ::4
count_other_group_member::12
Max value :: 100
00 04 07 02 
00 07 06 00 
0*(4)+11*(3)+13*(2)+2*(1)+interspection_factor=61
Normalized interspection_factor=0.61
-------------------------------------------------------------------------------------------------------------------------------------------------------------------------------------------
-------------------------------------------------------------------------------------------------------------------------------------------------------------------------------------------
Network diameter:4


Group Initiator::6
-----------------------------------------------------------------------------------------------------------
28 20 19 25 26 11 17 23 24 27 18 28 22 0 0 0 0 0 0 0 0 0 0 0 0 
GROUP DIAMETER FROM INITIATOR ::4
count_other_group_member::13
Max value :: 52
Group Initiator::28
-----------------------------------------------------------------------------------------------------------
6 1 10 8 15 33 3 31 32 4 6 16 22 0 0 0 0 0 0 0 0 0 0 0 0 
GROUP DIAMETER FROM INITIATOR ::4
count_other_group_member::12
Max value :: 100
05 04 04 00 
06 06 01 00 
11*(4)+10*(3)+5*(2)+0*(1)+interspection_factor=84
Normalized interspection_factor=0.84
-------------------------------------------------------------------------------------------------------------------------------------------------------------------------------------------
-------------------------------------------------------------------------------------------------------------------------------------------------------------------------------------------
Network diameter:4


Group Initiator::15
-----------------------------------------------------------------------------------------------------------
17 20 19 25 26 11 28 23 24 27 18 28 22 0 0 0 0 0 0 0 0 0 0 0 0 
GROUP DIAMETER FROM INITIATOR ::4
count_other_group_member::13
Max value :: 52
Group Initiator::17
-----------------------------------------------------------------------------------------------------------
15 1 10 8 6 33 3 31 32 4 6 16 22 0 0 0 0 0 0 0 0 0 0 0 0 
GROUP DIAMETER FROM INITIATOR ::4
count_other_group_member::12
Max value :: 100
00 06 05 02 
00 03 09 01 
0*(4)+9*(3)+14*(2)+3*(1)+interspection_factor=58
Normalized interspection_factor=0.58
-------------------------------------------------------------------------------------------------------------------------------------------------------------------------------------------
-------------------------------------------------------------------------------------------------------------------------------------------------------------------------------------------
Network diameter:4


Group Initiator::32
-----------------------------------------------------------------------------------------------------------
27 20 19 25 26 11 17 23 24 28 18 28 22 0 0 0 0 0 0 0 0 0 0 0 0 
GROUP DIAMETER FROM INITIATOR ::4
count_other_group_member::13
Max value :: 52
Group Initiator::27
-----------------------------------------------------------------------------------------------------------
32 1 10 8 15 33 3 31 6 4 6 16 22 0 0 0 0 0 0 0 0 0 0 0 0 
GROUP DIAMETER FROM INITIATOR ::4
count_other_group_member::12
Max value :: 100
00 07 04 02 
02 04 07 00 
2*(4)+11*(3)+11*(2)+2*(1)+interspection_factor=65
Normalized interspection_factor=0.65
-------------------------------------------------------------------------------------------------------------------------------------------------------------------------------------------
-------------------------------------------------------------------------------------------------------------------------------------------------------------------------------------------
Network diameter:4


Group Initiator::10
-----------------------------------------------------------------------------------------------------------
18 20 19 25 26 11 17 23 24 27 28 28 22 0 0 0 0 0 0 0 0 0 0 0 0 
GROUP DIAMETER FROM INITIATOR ::4
count_other_group_member::13
Max value :: 52
Group Initiator::18
-----------------------------------------------------------------------------------------------------------
10 1 6 8 15 33 3 31 32 4 6 16 22 0 0 0 0 0 0 0 0 0 0 0 0 
GROUP DIAMETER FROM INITIATOR ::4
count_other_group_member::12
Max value :: 100
03 02 08 00 
02 04 07 00 
5*(4)+6*(3)+15*(2)+0*(1)+interspection_factor=68
Normalized interspection_factor=0.68
-------------------------------------------------------------------------------------------------------------------------------------------------------------------------------------------
-------------------------------------------------------------------------------------------------------------------------------------------------------------------------------------------
Network diameter:4


Group Initiator::8
-----------------------------------------------------------------------------------------------------------
11 20 19 25 26 28 17 23 24 27 18 28 22 0 0 0 0 0 0 0 0 0 0 0 0 
GROUP DIAMETER FROM INITIATOR ::4
count_other_group_member::13
Max value :: 52
Group Initiator::11
-----------------------------------------------------------------------------------------------------------
8 1 10 6 15 33 3 31 32 4 6 16 22 0 0 0 0 0 0 0 0 0 0 0 0 
GROUP DIAMETER FROM INITIATOR ::4
count_other_group_member::12
Max value :: 100
00 05 06 02 
01 02 07 03 
1*(4)+7*(3)+13*(2)+5*(1)+interspection_factor=56
Normalized interspection_factor=0.56
-------------------------------------------------------------------------------------------------------------------------------------------------------------------------------------------
-------------------------------------------------------------------------------------------------------------------------------------------------------------------------------------------
Network diameter:4


Group Initiator::3
-----------------------------------------------------------------------------------------------------------
23 20 19 25 26 11 17 28 24 27 18 28 22 0 0 0 0 0 0 0 0 0 0 0 0 
GROUP DIAMETER FROM INITIATOR ::4
count_other_group_member::13
Max value :: 52
Group Initiator::23
-----------------------------------------------------------------------------------------------------------
3 1 10 8 15 33 6 31 32 4 6 16 22 0 0 0 0 0 0 0 0 0 0 0 0 
GROUP DIAMETER FROM INITIATOR ::4
count_other_group_member::12
Max value :: 100
05 06 02 00 
01 10 02 00 
6*(4)+16*(3)+4*(2)+0*(1)+interspection_factor=80
Normalized interspection_factor=0.8
-------------------------------------------------------------------------------------------------------------------------------------------------------------------------------------------
-------------------------------------------------------------------------------------------------------------------------------------------------------------------------------------------
Network diameter:4


Group Initiator::31
-----------------------------------------------------------------------------------------------------------
10 11 25 13 17 19 20 26 23 24 27 18 0 0 0 0 0 0 0 0 0 0 0 0 0 
GROUP DIAMETER FROM INITIATOR ::4
count_other_group_member::12
Max value :: 48
Group Initiator::10
-----------------------------------------------------------------------------------------------------------
31 1 4 8 15 33 32 3 2 6 28 22 16 0 0 0 0 0 0 0 0 0 0 0 0 
GROUP DIAMETER FROM INITIATOR ::4
count_other_group_member::13
Max value :: 100
03 04 05 00 
02 03 08 00 
5*(4)+7*(3)+13*(2)+0*(1)+interspection_factor=67
Normalized interspection_factor=0.67
-------------------------------------------------------------------------------------------------------------------------------------------------------------------------------------------
-------------------------------------------------------------------------------------------------------------------------------------------------------------------------------------------
Network diameter:4


Group Initiator::3
-----------------------------------------------------------------------------------------------------------
23 10 32 15 1 2 28 25 19 27 11 17 0 0 0 0 0 0 0 0 0 0 0 0 0 
GROUP DIAMETER FROM INITIATOR ::4
count_other_group_member::12
Max value :: 48
Group Initiator::23
-----------------------------------------------------------------------------------------------------------
3 6 31 4 8 33 16 22 26 20 24 18 13 0 0 0 0 0 0 0 0 0 0 0 0 
GROUP DIAMETER FROM INITIATOR ::4
count_other_group_member::13
Max value :: 100
05 05 02 00 
05 08 00 00 
10*(4)+13*(3)+2*(2)+0*(1)+interspection_factor=83
Normalized interspection_factor=0.83
-------------------------------------------------------------------------------------------------------------------------------------------------------------------------------------------
-------------------------------------------------------------------------------------------------------------------------------------------------------------------------------------------
Network diameter:4


Group Initiator::4
-----------------------------------------------------------------------------------------------------------
15 10 32 23 1 2 28 25 19 27 11 17 0 0 0 0 0 0 0 0 0 0 0 0 0 
GROUP DIAMETER FROM INITIATOR ::4
count_other_group_member::12
Max value :: 48
Group Initiator::15
-----------------------------------------------------------------------------------------------------------
4 6 31 3 8 33 16 22 26 20 24 18 13 0 0 0 0 0 0 0 0 0 0 0 0 
GROUP DIAMETER FROM INITIATOR ::4
count_other_group_member::13
Max value :: 100
03 03 04 02 
04 05 04 00 
7*(4)+8*(3)+8*(2)+2*(1)+interspection_factor=70
Normalized interspection_factor=0.7
-------------------------------------------------------------------------------------------------------------------------------------------------------------------------------------------
-------------------------------------------------------------------------------------------------------------------------------------------------------------------------------------------
Network diameter:4


Group Initiator::24
-----------------------------------------------------------------------------------------------------------
2 10 32 15 1 23 28 25 19 27 11 17 0 0 0 0 0 0 0 0 0 0 0 0 0 
GROUP DIAMETER FROM INITIATOR ::4
count_other_group_member::12
Max value :: 48
Group Initiator::2
-----------------------------------------------------------------------------------------------------------
24 6 31 4 8 33 16 22 26 20 3 18 13 0 0 0 0 0 0 0 0 0 0 0 0 
GROUP DIAMETER FROM INITIATOR ::4
count_other_group_member::13
Max value :: 100
02 01 07 02 
04 05 04 00 
6*(4)+6*(3)+11*(2)+2*(1)+interspection_factor=66
Normalized interspection_factor=0.66
-------------------------------------------------------------------------------------------------------------------------------------------------------------------------------------------
-------------------------------------------------------------------------------------------------------------------------------------------------------------------------------------------
Network diameter:4


Group Initiator::6
-----------------------------------------------------------------------------------------------------------
28 10 32 15 1 2 23 25 19 27 11 17 0 0 0 0 0 0 0 0 0 0 0 0 0 
GROUP DIAMETER FROM INITIATOR ::4
count_other_group_member::12
Max value :: 48
Group Initiator::28
-----------------------------------------------------------------------------------------------------------
6 3 31 4 8 33 16 22 26 20 24 18 13 0 0 0 0 0 0 0 0 0 0 0 0 
GROUP DIAMETER FROM INITIATOR ::4
count_other_group_member::13
Max value :: 100
02 05 05 00 
07 06 00 00 
9*(4)+11*(3)+5*(2)+0*(1)+interspection_factor=79
Normalized interspection_factor=0.79
-------------------------------------------------------------------------------------------------------------------------------------------------------------------------------------------
-------------------------------------------------------------------------------------------------------------------------------------------------------------------------------------------
Network diameter:4


Group Initiator::18
-----------------------------------------------------------------------------------------------------------
27 10 32 15 1 2 28 25 19 23 11 17 0 0 0 0 0 0 0 0 0 0 0 0 0 
GROUP DIAMETER FROM INITIATOR ::4
count_other_group_member::12
Max value :: 48
Group Initiator::27
-----------------------------------------------------------------------------------------------------------
18 6 31 4 8 33 16 22 26 20 24 3 13 0 0 0 0 0 0 0 0 0 0 0 0 
GROUP DIAMETER FROM INITIATOR ::4
count_other_group_member::13
Max value :: 100
03 03 06 00 
04 06 03 00 
7*(4)+9*(3)+9*(2)+0*(1)+interspection_factor=73
Normalized interspection_factor=0.73
-------------------------------------------------------------------------------------------------------------------------------------------------------------------------------------------
