node	%	avgtime	stdev
1	10	55.95816898148148	14.224254875447032
1	20	106.9468136574074	18.39247237023662
1	30	144.74006828703705	26.169451030606346
1	40	174.77259953703702	31.721339075945036
1	50	222.11741203703704	44.08396108834898
1	60	258.8262711471611	53.804949611290354
1	70	284.4827494199536	60.029867515920344
1	80	314.7958637951106	70.4641918495692
1	90	367.58161267605635	84.55491512091298
5	10	79.78507755581668	66.26165602427005
5	20	111.17512131919906	81.7642763243084
5	30	159.78546044864225	79.79760169149478
5	40	193.461658392435	83.62228849391116
5	50	244.14171563981043	85.37124440321486
5	60	282.23824550898206	85.78426936230666
5	70	306.86271184371185	89.43850876241996
5	80	335.7838969465649	90.50396183172893
5	90	382.1356505681818	97.28893014181757
9	10	61.02620092915215	13.233574329353003
9	20	105.21722764227643	19.221392707671765
9	30	144.347756097561	26.302266794981684
9	40	174.9330232288037	31.7309790730501
9	50	222.19748896631825	44.19725511666809
9	60	259.6740174418605	53.82346778684516
9	70	284.7192429906542	60.20216282594009
9	80	314.61307638072856	69.86982203429154
9	90	366.0467198067633	83.82030912736343
10	10	53.78059677419355	13.401502163339446
10	20	100.57904262672811	18.968656288415133
10	30	140.3665668202765	25.20274143235267
10	40	170.758633640553	30.54426413882942
10	50	217.9326762672811	43.55897297992435
10	60	254.76838479262673	53.51629837648497
10	70	280.18005767012687	60.494693417428984
10	80	310.74347331786544	69.70535078201175
10	90	363.358301754386	84.63158058117324
12	10	65.97686643437864	67.27451068707694
12	20	114.7857497089639	70.72355711988071
12	30	155.4313857808858	68.90532567262514
12	40	185.03865110851808	68.64199069308238
12	50	233.17223130841123	70.9419473122004
12	60	271.60109601873535	75.75743204104691
12	70	297.2422188235294	80.17202778580413
12	80	328.3486631079478	86.36363003812096
12	90	378.69161547762997	97.36861797258244
13	10	62.015869815668204	13.57193002071074
13	20	100.62298041474655	20.641786935598777
13	30	143.45079147465438	27.476953604026978
13	40	174.04560368663596	33.03168343438495
13	50	223.1595495391705	45.83094333065494
13	60	260.8622710495963	52.35407374656367
13	70	286.7458961937716	58.41925245285902
13	80	318.1196905311778	69.19853171776747
13	90	370.1509107763615	83.41608489197684
15	10	78.53768771929825	41.046368130870235
15	20	117.61095087719298	50.18506401677303
15	30	163.6275076023392	54.5946561541495
15	40	193.99193684210528	60.16965271060244
15	50	237.8730655737705	64.31813454151741
15	60	276.8437785630153	70.32490332840153
15	70	304.0504358669834	76.01552703336712
15	80	336.39452305825245	80.16076234574638
15	90	384.321029562982	88.67387139821331
16	10	79.04046457607433	22.839591733312204
16	20	109.18090824622531	28.299652640027627
16	30	157.56638095238094	34.27620727019145
16	40	183.30421835075492	37.19931250869711
16	50	213.3717770034843	43.32875344295035
16	60	245.59821511627908	56.487278291355835
16	70	268.17261627906976	59.33237179907029
16	80	301.38852927400467	67.8689153018654
16	90	350.57724909747293	75.86225256294874
17	10	98.2657476744186	54.21916509387083
17	20	117.4683046511628	53.717335822264005
17	30	171.59127124563446	60.461485148162254
17	40	197.0883306169965	60.108065811826094
17	50	229.5715634458673	63.001380789686664
17	60	260.6048723653396	71.46585826585564
17	70	281.11149295774646	75.5948167966906
17	80	309.5935083333333	78.32580047541393
17	90	351.8717503059976	82.30249758102624
18	10	78.7888761574074	22.287997167537267
18	20	98.07981134259259	21.913223492896954
18	30	141.40490277777778	25.86959273877845
18	40	171.61595601851852	29.39600118859487
18	50	211.89052314814816	37.12119381948098
18	60	249.1763738425926	52.43931874525169
18	70	266.69086458333334	55.939251316812104
18	80	293.48752491309386	63.168484369683064
18	90	336.63037398373984	68.70571985345109
19	10	100.27964069767442	55.8803704176515
19	20	119.82268488372092	54.497128960440236
19	30	174.7363986013986	61.430147761537185
19	40	202.5181421911422	63.392270427911235
19	50	234.49131971995334	65.60190571822295
19	60	263.4079156908665	68.76733630665576
19	70	283.2300282352941	69.23819328506232
19	80	313.30518637992833	75.21721712953513
19	90	356.10865233415234	80.86750867208522
22	10	71.3667632183908	22.734689998836128
22	20	103.85452643678161	21.413471476887516
22	30	147.57100114942529	24.72015219593788
22	40	175.56480229885057	29.277167616948205
22	50	212.04781954022988	37.56637934226354
22	60	245.1791471264368	52.359404494037875
22	70	262.56282988505745	55.62020031284491
22	80	289.70914252873564	62.78876100777156
22	90	331.6782272202999	66.57198309037045
23	10	70.2965464037123	22.748498390888063
23	20	110.05125174013921	26.334705103666234
23	30	154.06102436194897	32.56303597929285
23	40	177.6156879350348	35.01265590866006
23	50	206.8742482598608	42.769939955630214
23	60	238.8122981438515	55.84309630254657
23	70	260.86696631823463	58.186130070882086
23	80	294.18287558139536	66.29934377330065
23	90	342.98893992932864	73.31118086105863
24	10	78.20882694541231	22.29717423699472
24	20	99.57612775842044	22.94427839297537
24	30	144.85401045296166	26.226690240937316
24	40	174.18024274099884	31.610766770315575
24	50	212.29314518002323	37.904065706987105
24	60	248.08648604651162	52.10411528272613
24	70	265.3678951048951	55.87664135862056
24	80	293.07483780630105	63.2583814332478
24	90	335.24272352941176	68.8126110973517
27	10	95.68120789779326	35.889484913456755
27	20	117.16682346109175	40.64676176725701
27	30	168.60651219512195	51.03896163553744
27	40	195.29221395348839	56.286260316423466
27	50	228.10538927738926	61.00676554420561
27	60	255.96458333333334	62.05358178809808
27	70	278.23281420118343	66.0198269020387
27	80	311.5172502994012	68.7551358524202
27	90	353.1887617866005	77.40496702323857
28	10	106.38894588235294	55.7956056297405
28	20	126.9463875147232	56.26060539319965
28	30	179.05179151943463	63.57740857229857
28	40	207.98999882075472	65.52638131776348
28	50	247.33518698224853	71.07341038372931
28	60	281.99403321470936	78.35515581426809
28	70	303.61164523809526	81.38406983797547
28	80	328.46651312649163	85.24898796539861
28	90	363.28469951923074	86.44064754151815
28	100	477.3135877862595	132.54524636809944
29	10	98.16324477958237	34.855859124567196
29	20	120.19862180974478	41.692631113255544
29	30	168.56541647331787	47.90127004884199
29	40	191.31693039443155	53.954120570955105
29	50	223.8060325203252	60.58862802249097
29	60	260.86686464410735	66.87723734164923
29	70	286.2229645390071	70.80286109963777
29	80	322.11888355342137	73.64653285863635
29	90	366.9540286783042	83.18814603115217
30	10	80.07083177570094	22.970905637012507
30	20	100.91996495327103	23.47109509946992
30	30	151.80181308411215	28.348812950716813
30	40	181.56695911214953	32.72039635448839
30	50	220.53249297423886	41.3582903048135
30	60	255.90226390532544	55.79539676285444
30	70	272.0857942238267	56.83318658685822
30	80	298.6899681372549	65.233575169485
30	90	340.1922213541667	70.76213621706944
35	10	79.7245121668598	23.01885165479291
35	20	101.0883348783314	23.4130032548353
35	30	151.85758169177288	28.042077615777153
35	40	181.4281413673233	32.25682826528939
35	50	220.17790824622531	40.865525918920255
35	60	254.77200351288056	52.656152567826084
35	70	272.53051118963486	56.17134409250137
35	80	298.0557829736211	61.48090980613655
35	90	339.3961849056604	68.14523241091267
40	10	92.10806177156176	24.869753078516446
40	20	98.04244638694638	23.476762935358586
40	30	148.26026223776225	31.529456537565867
40	40	194.3675547785548	43.51450522268073
40	50	242.7117388758782	48.356307735482034
40	60	279.2824163701068	58.6133602015362
40	70	295.6486982035928	60.11838127759916
40	80	320.76698168498166	67.9756644324832
40	90	361.6352258883249	73.86911741426611
42	10	87.6957710982659	26.035448798862515
42	20	100.15095838150289	23.944111095832355
42	30	149.27932023121386	32.063688427911636
42	40	193.95988208092484	42.98794795045128
42	50	239.10465701042872	47.42130057877913
42	60	275.6158441860465	59.55168259180166
42	70	293.1121423570595	61.630617732803124
42	80	317.99378705882356	68.59331720346964
42	90	360.03654750593824	79.94525493972513
44	10	90.90566089965398	24.816951001986396
44	20	99.32937485582468	23.330271055405127
44	30	148.92720415224915	30.809079395372645
44	40	192.59773210161663	40.80740435997698
44	50	238.80079490150638	47.59400574930955
44	60	275.57339837398376	59.84165685453374
44	70	292.8172823803967	61.79570286692566
44	80	318.9008782201405	68.14792191892515
44	90	360.2858642857143	78.60681628352505
45	10	93.53690961761298	24.978269687075343
45	20	99.5556604866744	23.86290691965375
45	30	149.11926882966395	34.28827957952884
45	40	194.39379258400928	44.04199474749752
45	50	241.1663023255814	49.845577583311886
45	60	277.33157429245284	60.38038211572328
45	70	294.9023195266272	62.411105454226934
45	80	319.99433975903617	68.91380319937302
45	90	360.14132587064677	73.17210539521461
46	10	98.55925638051043	27.59642637063951
46	20	103.80021113689095	27.13890930871031
46	30	154.9817378190255	35.97907381407796
46	40	201.76080908032597	46.87837199113537
46	50	251.07786384976527	53.14829614009124
46	60	287.4453668280872	58.23074362974035
46	70	303.7147139334155	61.7475674316444
46	80	327.6143678887484	68.90349773989949
46	90	367.6325391891892	77.41486275391084
47	10	92.87366164542294	25.538584932400237
47	20	98.42708458864426	24.048280150477552
47	30	145.4666720741599	30.767922360747406
47	40	192.45401853997683	42.10677377542238
47	50	239.03618118466898	47.21044100050838
47	60	277.87075	60.12272997485169
47	70	294.42750991831974	61.74100152131753
47	80	319.5054752941177	68.01336635907312
47	90	360.08648375451264	78.52183764993231
48	10	86.38491580161477	25.67099542552342
48	20	100.00839907727797	24.256500967322882
48	30	151.72055247981547	30.452495990989796
48	40	194.41084313725491	42.08467484494165
48	50	239.88864896073903	48.431592322869705
48	60	276.17330394431553	60.0769154349596
48	70	292.89559673659676	62.440186513378706
48	80	318.42408401400235	69.58538888757795
48	90	359.58771529411763	79.55530757956402
49	10	63.60230379746835	17.67854936907148
49	20	132.5228492520138	45.50007928973762
49	30	162.0868594470046	47.74530735763013
49	40	188.00826267281107	53.758998847810844
49	50	232.297125	60.720782867177334
49	60	268.6865378346915	67.5416954105697
49	70	291.0098903301887	71.00128254832752
49	80	324.3623249701314	83.47612474091198
49	90	378.743917721519	99.0325873940442
51	10	67.44203468208093	15.564134949778188
51	20	99.91995606936416	18.568324227523554
51	30	137.67226820809248	24.940630482749533
51	40	166.74917687861273	28.975972010585963
51	50	213.1866863425926	42.5859002416351
51	60	249.0542511574074	54.21003159691664
51	70	274.25232754629627	60.99850144955935
51	80	303.5433495934959	63.470576004269006
51	90	356.10829824561404	79.79985848894665
52	10	78.33814435389988	23.58463638633509
52	20	105.9477427240978	28.948524251675003
52	30	155.92308158508158	33.452837640769836
52	40	181.68632634032633	36.835758659130775
52	50	212.37763127187864	42.56719975967689
52	60	243.43956658878506	55.60311689929979
52	70	264.44993309859154	57.792149304554655
52	80	295.2236714628297	59.68953282192261
52	90	344.50746551724137	68.34078213583129
53	10	70.21762411347518	15.01503657503592
53	20	143.42277369668247	44.967435199086864
53	30	172.4981698337292	43.9494874941638
53	40	198.58007508939212	50.490822897594136
53	50	242.0480376670717	57.3703441124745
53	60	275.7223421717172	65.32551641015314
53	70	295.97465257595775	68.70481287654907
53	80	324.71841459854016	68.8607407830714
53	90	374.68759590316574	82.02488641900672
54	10	52.88052954808806	13.204880074103576
54	20	101.51852723059096	19.132063529076998
54	30	141.48128273464658	26.950250126062343
54	40	171.268033603708	32.37940131789601
54	50	220.25637659327927	45.63997726912224
54	60	257.75269257540606	54.36570408962711
54	70	284.11862863795113	59.745148838659176
54	80	314.9379120750293	70.09759481158409
54	90	367.4634526066351	84.01198584825491
55	10	80.75821198156682	15.270286370207264
55	20	143.36698502304148	45.41456750576456
55	30	172.92849826989618	47.63209246138874
55	40	198.7619907727797	53.65877827760075
55	50	243.1735863267671	60.82361270622833
55	60	280.5687951105937	71.90224231578057
55	70	303.00448470588236	75.34006318774529
55	80	336.1910982035928	87.031360564827
55	90	391.6855308176101	103.07176983542851
56	10	56.07046527777778	14.31460390674168
56	20	101.10769907407408	18.715670736491244
56	30	136.32678125	24.7719024110651
56	40	163.71662037037038	27.9169141765276
56	50	207.95436458333333	45.72262275967287
56	60	242.88102780996525	56.433687957003656
56	70	269.22742857142856	62.96964239271264
56	80	299.47266939252336	65.06731087461003
56	90	352.72595621301775	81.24241533559226
57	10	60.05524161849711	40.864294768297455
57	20	110.98197916666666	44.23709040108401
57	30	145.91399537037037	46.31404041249502
57	40	167.5222997685185	47.26681201169557
57	50	200.49444328703703	51.90748393069462
57	60	232.07835648148148	58.289637260421934
57	70	257.49950173812283	66.62283265420179
57	80	290.3672668213457	72.36944969351018
57	90	341.7092072599532	83.10392563734881
58	10	63.439128621089225	15.767220137927579
58	20	118.11467207415991	42.06687332069436
58	30	148.6599165701043	46.844915099851434
58	40	173.9117705677868	52.082464049807626
58	50	216.63586658932715	55.29928303326033
58	60	253.14125406032483	65.76599160160121
58	70	277.2423101045296	71.45961981594759
58	80	309.90695555555556	83.04956601860472
58	90	364.7955715976331	97.67910172665738
60	10	65.91238111888111	14.884896473515507
60	20	100.4425407925408	18.25600907772083
60	30	137.47534032634033	26.102008512707634
60	40	167.65210606060606	31.39588942888456
60	50	214.94232322053676	46.1558998526189
60	60	251.8278	57.0154561019127
60	70	277.2463152302243	61.46109220248226
60	80	306.66024401913876	64.09224575051164
60	90	357.19693664596275	77.70829940263437
61	10	61.67862747380675	43.18334956295594
61	20	116.73069732246799	48.63121838929352
61	30	146.3909196740396	52.76495830138742
61	40	171.4134470314319	54.78759878375677
61	50	215.55215715948776	58.78690472748141
61	60	252.2208773364486	68.06889453633701
61	70	276.54493742621014	73.7942334344581
61	80	308.6390525686977	79.6050303069591
61	90	362.6880310945274	94.65097895090105
