name,time,nodeid,value
test,1566315300994823936,17, | 17  |      0       9     53      1      4
test,1566315302015927040,17, | 17  |      0      10     53      1      5
test,1566315304008135168,17, | 17  |      0      10     53      1      4
test,1566315346418374144,17, | 17  |      0      10     58      1      3
test,1566315348408428032,17, | 17  |      0      10     58      1      3
test,1566315350416270080,17, | 17  |      0      10     58      1      4
test,1566315352407737088,17, | 17  |      0      10     58      1      4
test,1566315354417510912,17, | 17  |      0      10     58      1      3
test,1566315356414836992,17, | 17  |      0      10     58      1      3
test,1566315358414848000,17, | 17  |      0      10     58      1      4
test,1566315360406105088,17, | 17  |      0      10     58      1      3
test,1566315362413677056,17, | 17  |      0      10     58      1      5
test,1566315364406040064,17, | 17  |      0      10     58      1      3
test,1566315366413146112,17, | 17  |      0      10     58      1      3
test,1566315368404544000,17, | 17  |      0      10     58      1      5
test,1566315370413011968,17, | 17  |      0      10     58      1      5
test,1566315372403641856,17, | 17  |      0      10     58      1      3
test,1566315374412947968,17, | 17  |      0      10     58      1      6
test,1566315376402978816,17, | 17  |      0      10     58      1      3
test,1566315378415652096,17, | 17  |      0      10     58      1      3
test,1566315380422430976,17, | 17  |      0      10     58      1      3
test,1566315382409560064,17, | 17  |      0      10     58      1      3
test,1566315384417212928,17, | 17  |      0      10     58      1      3
test,1566315386409239040,17, | 17  |      0      10     58      1      3
test,1566315388428369920,17, | 17  |      0      10     58      1      3
test,1566315390408701952,17, | 17  |      0      10     58      1      3
test,1566315392417776128,17, | 17  |      0      10     58      1      3
test,1566315394407834880,17, | 17  |      0      10     58      1      3
test,1566315396414871808,17, | 17  |      0      10     58      1      5
test,1566315398407852032,17, | 17  |      0      10     58      1      3
test,1566315401385854976,17, | 17  |      0       8     58      1      3
test,1566315402405634048,17, | 17  |      0      10     58      1      3
test,1566315404417326080,17, | 17  |      0      10     58      1      5
test,1566315406404836864,17, | 17  |      0      10     58      1      3
test,1566315408418160896,17, | 17  |      0      10     58      1      3
test,1566315410404108032,17, | 17  |      0      10     58      1      3
test,1566315412411984896,17, | 17  |      0      10     58      1      3
test,1566315414419486976,17, | 17  |      0      10     58      1      5
test,1566315416411287040,17, | 17  |      0      10     58      1      3
test,1566315418421206016,17, | 17  |      0      10     58      1      5
test,1566315420409878016,17, | 17  |      0      10     58      1      3
test,1566315422422467072,17, | 17  |      0      10     58      1      3
test,1566315424409356032,17, | 17  |      0      10     58      1      3
test,1566315426400727040,17, | 17  |      0      10     58      1      3
test,1566315428409828864,17, | 17  |      0      10     58      1      3
test,1566315430417876992,17, | 17  |      0      10     58      1      5
test,1566315432411847168,17, | 17  |      0      10     58      1      5
test,1566315434418689024,17, | 17  |      0      10     58      1      3
test,1566315436406999040,17, | 17  |      0      10     58      1      3
test,1566315438415901952,17, | 17  |      0      10     58      1      3
test,1566315440405817088,17, | 17  |      0      10     58      1      5
test,1566315442416941824,17, | 17  |      0      10     58      1      7
test,1566315444405416960,17, | 17  |      0      10     58      1      3
test,1566315446413764096,17, | 17  |      0      10     58      1      6
test,1566315448404473088,17, | 17  |      0      10     58      1      3
test,1566315450412496128,17, | 17  |      0      10     58      1      3
test,1566315452403943936,17, | 17  |      0      10     58      1      3
test,1566315454419550976,17, | 17  |      0      10     58      1      3
test,1566315456402992128,17, | 17  |      0      10     58      1      5
test,1566315458411474944,17, | 17  |      0      10     58      1      3
test,1566315460402272000,17, | 17  |      0      10     58      1      3
test,1566315462410518784,17, | 17  |      0      10     58      1      4
test,1566315464402093056,17, | 17  |      0      10     58      1      3
test,1566315466411049984,17, | 17  |      0      10     58      1      5
test,1566315468423206144,17, | 17  |      0      10     58      1      3
test,1566315470408157184,17, | 17  |      0      10     58      1      3
test,1566315472415528960,17, | 17  |      0      10     58      1      3
test,1566315474410981888,17, | 17  |      0      10     58      1      3
test,1566315476417406976,17, | 17  |      0      10     58      1      3
test,1566315478406292992,17, | 17  |      0      10     58      1      5
test,1566315480414964992,17, | 17  |      0      10     58      1      3
test,1566315483393396992,17, | 17  |      0       9     58      1      3
test,1566315484414619904,17, | 17  |      0      10     58      1      5
test,1566315486404881920,17, | 17  |      0      10     58      1      4
test,1566315488413091072,17, | 17  |      0      10     58      1      3
test,1566315490404495872,17, | 17  |      0      10     58      1      3
test,1566315492412136960,17, | 17  |      0      10     58      1      3
test,1566315494403083008,17, | 17  |      0      10     58      1      4
test,1566315496415976960,17, | 17  |      0      10     58      1      3
test,1566315498404727808,17, | 17  |      0      10     58      1      2
test,1566315501381752064,17, | 17  |      0       9     58      1      5
test,1566315502401534976,17, | 17  |      0      10     58      1      4
test,1566315504409027072,17, | 17  |      0      10     58      1      3
test,1566315506401227008,17, | 17  |      0      10     58      1      3
test,1566315508411084032,17, | 17  |      0      10     58      1      4
test,1566315510399794176,17, | 17  |      0      10     58      1      3
test,1566315512407763968,17, | 17  |      0      10     58      1      3
test,1566315514416651008,17, | 17  |      0      10     58      1      4
test,1566315516412470016,17, | 17  |      0      10     58      1      2
test,1566315518415333120,17, | 17  |      0      10     58      1      5
test,1566315520406734080,17, | 17  |      0      10     58      1      4
test,1566315522414686976,17, | 17  |      0      10     58      1      3
test,1566315524405142016,17, | 17  |      0      10     58      1      3
test,1566315526416238080,17, | 17  |      0      10     58      1      3
test,1566315528410173952,17, | 17  |      0      10     58      1      3
test,1566315530414513152,17, | 17  |      0      10     58      1      3
test,1566315532406673920,17, | 17  |      0      10     58      1      3
test,1566315534415091968,17, | 17  |      0      10     58      1      3
test,1566315536403005952,17, | 17  |      0      10     58      1      3
test,1566315538411776000,17, | 17  |      0      10     58      1      3
test,1566315540403047936,17, | 17  |      0      10     58      1      3
test,1566315542414014208,17, | 17  |      0      10     58      1      3
test,1566315545389084928,17, | 17  |      0       7     58      1      3
test,1566315546410173952,17, | 17  |      0      10     58      1      3
test,1566315548401272064,17, | 17  |      0      10     58      1      3
test,1566315550409178880,17, | 17  |      0      10     58      1      6
test,1566315552400995072,17, | 17  |      0      10     58      1      3
test,1566315554407578880,17, | 17  |      0      10     58      1      3
test,1566315556415791104,17, | 17  |      0      10     58      1      6
test,1566315558416409088,17, | 17  |      0      10     58      1      3
test,1566315560399483904,17, | 17  |      0      10     58      1      3
test,1566315562407321856,17, | 17  |      0      10     58      1      3
test,1566315564416848896,17, | 17  |      0      10     58      1      3
test,1566315566404875008,17, | 17  |      0      10     58      1      3
test,1566315568416518912,17, | 17  |      0      10     58      1      3
test,1566315570406908928,17, | 17  |      0      10     58      1      3
test,1566315572415278848,17, | 17  |      0      10     58      1      3
test,1566315574403610880,17, | 17  |      0      10     58      1      5
test,1566315576414565120,17, | 17  |      0      10     58      1      3
test,1566315578405380864,17, | 17  |      0      10     58      1      3
test,1566315580411192832,17, | 17  |      0      10     58      1      3
test,1566315582402874112,17, | 17  |      0      10     58      1      3
test,1566315584411813888,17, | 17  |      0      10     58      1      3
test,1566315586401675008,17, | 17  |      0      10     58      1      3
test,1566315588413383936,17, | 17  |      0      10     58      1      5
test,1566315590401977088,17, | 17  |      0      10     58      1      3
test,1566315592415121152,17, | 17  |      0      10     58      1      3
test,1566315594399454976,17, | 17  |      0      10     58      1      3
test,1566315596411435008,17, | 17  |      0      10     58      1      3
test,1566315598398756864,17, | 17  |      0      10     58      1      4
test,1566315600418850048,17, | 17  |      0      10     58      1      3
test,1566315602397989888,17, | 17  |      0      10     58      1      3
test,1566315604407376896,17, | 17  |      0      10     58      1      3
test,1566315606416681984,17, | 17  |      0      10     58      1      5
test,1566315608405203968,17, | 17  |      0      10     58      1      2
test,1566315610396385024,17, | 17  |      0      10     58      1      3
test,1566315612404247040,17, | 17  |      0      10     58      1      2
test,1566315614395538176,17, | 17  |      0      10     58      1      3
test,1566315616405769984,17, | 17  |      0      10     58      1      3
test,1566315618413649152,17, | 17  |      0      10     58      1      5
test,1566315620402580992,17, | 17  |      0      10     58      1      5
test,1566315622418493952,17, | 17  |      0      10     58      1      5
test,1566315624402556928,17, | 17  |      0      10     58      1      5
test,1566315626414774784,17, | 17  |      0      10     58      1      6
test,1566315628402043136,17, | 17  |      0      10     58      1      6
test,1566315630413469952,17, | 17  |      0      10     58      1      4
test,1566315632401478144,17, | 17  |      0      10     58      1      5
test,1566315634411976192,17, | 17  |      0      10     58      1      4
test,1566315636401562880,17, | 17  |      0      10     58      1      4
test,1566315638410075904,17, | 17  |      0      10     58      1      3
test,1566315640415496960,17, | 17  |      0      10     58      1      5
test,1566315642407987968,17, | 17  |      0      10     58      1      3
test,1566315644398347008,17, | 17  |      0      10     58      1      3
test,1566315646408647936,17, | 17  |      0      10     58      1      2
test,1566315648396847104,17, | 17  |      0      10     58      1      3
test,1566315650406640128,17, | 17  |      0      10     58      1      3
test,1566315653383954944,17, | 17  |      0       9     58      1      5
test,1566315654407099136,17, | 17  |      0      10     58      1      3
test,1566315656395322112,17, | 17  |      0      10     58      1      3
test,1566315658403929088,17, | 17  |      0      10     58      1      5
test,1566315661382268928,17, | 17  |      0       9     58      1      3
test,1566315662402374912,17, | 17  |      0      10     58      1      3
test,1566315664409630976,17, | 17  |      0      10     58      1      3
test,1566315666402752000,17, | 17  |      0      10     58      1      3
test,1566315668392878080,17, | 17  |      0      10     58      1      3
test,1566315670400573952,17, | 17  |      0      10     58      1      3
test,1566315672409697024,17, | 17  |      0      10     58      1      3
test,1566315674400197888,17, | 17  |      0      10     58      1      3
test,1566315676409364992,17, | 17  |      0      10     58      1      3
test,1566315678399060992,17, | 17  |      0      10     58      1      3
test,1566315680407222016,17, | 17  |      0      10     58      1      3
test,1566315682398159104,17, | 17  |      0      10     58      1      2
test,1566315684406370048,17, | 17  |      0      10     58      1      3
test,1566315686397964032,17, | 17  |      0      10     58      1      5
test,1566315688405120000,17, | 17  |      0      10     58      1      5
test,1566315690396718080,17, | 17  |      0      10     58      1      5
test,1566315692406045952,17, | 17  |      0      10     58      1      3
test,1566315694396666880,17, | 17  |      0      10     58      1      3
test,1566315696410633984,17, | 17  |      0      10     58      1      2
test,1566315698412969216,17, | 17  |      0      10     58      1      4
test,1566315700402546944,17, | 17  |      0      10     58      1      7
test,1566315702394252032,17, | 17  |      0      10     58      1      3
test,1566315704401719040,17, | 17  |      0      10     58      1      3
test,1566315707381801984,17, | 17  |      0       7     58      1      6
test,1566315708408008192,17, | 17  |      0      10     58      1      3
test,1566315710408608000,17, | 17  |      0      10     58      1      2
test,1566315712402711040,17, | 17  |      0      10     58      1      6
test,1566315714408288000,17, | 17  |      0      10     58      1      3
test,1566315716400484096,17, | 17  |      0      10     58      1      3
test,1566315718407424000,17, | 17  |      0      10     58      1      3
test,1566315720398958080,17, | 17  |      0      10     58      1      5
test,1566315722408278016,17, | 17  |      0      10     58      1      3
test,1566315724399205888,17, | 17  |      0      10     58      1      3
test,1566315726409038080,17, | 17  |      0      10     58      1      5
test,1566315728398163200,17, | 17  |      0      10     58      1      3
test,1566315730405308928,17, | 17  |      0      10     58      1      3
test,1566315732396424960,17, | 17  |      0      10     58      1      3
test,1566315734404113152,17, | 17  |      0      10     58      1      3
test,1566315736397076992,17, | 17  |      0      10     58      1      3
test,1566315738405089024,17, | 17  |      0      10     58      1      3
test,1566315740395076096,17, | 17  |      0      10     58      1      3
test,1566315742403766016,17, | 17  |      0      10     58      1      3
test,1566315744394433024,17, | 17  |      0      10     58      1      3
test,1566315746403476992,17, | 17  |      0      10     58      1      3
test,1566315748393495040,17, | 17  |      0      10     58      1      3
test,1566315750404802048,17, | 17  |      0      10     58      1      3
test,1566315752392272896,17, | 17  |      0      10     58      1      3
test,1566315754401387008,17, | 17  |      0      10     58      1      3
test,1566315756409515008,17, | 17  |      0      10     58      1      3
test,1566315758406878976,17, | 17  |      0      10     58      1      3
test,1566315760413754112,17, | 17  |      0      10     58      1      3
test,1566315762402780160,17, | 17  |      0      10     58      1      5
test,1566315764408576000,17, | 17  |      0      10     58      1      3
test,1566315766398530048,17, | 17  |      0      10     58      1      3
test,1566315768405144832,17, | 17  |      0      10     58      1      3
test,1566315770398152960,17, | 17  |      0      10     58      1      3
test,1566315772405925888,17, | 17  |      0      10     58      1      4
test,1566315774396100096,17, | 17  |      0      10     58      1      6
test,1566315776408611072,17, | 17  |      0      10     58      1      3
test,1566315778395433984,17, | 17  |      0      10     58      1      5
test,1566315780407654912,17, | 17  |      0      10     58      1      4
test,1566315782394988032,17, | 17  |      0      10     58      1      4
test,1566315784403856896,17, | 17  |      0      10     58      1      3
test,1566315786393943040,17, | 17  |      0      10     58      1      3
test,1566315788402333952,17, | 17  |      0      10     58      1      3
test,1566315790413484032,17, | 17  |      0      10     58      1      8
test,1566315792403062016,17, | 17  |      0      10     58      1      5
test,1566315794408720128,17, | 17  |      0      10     58      1      3
test,1566315796399912192,17, | 17  |      0      10     58      1      4
test,1566315799379225856,17, | 17  |      0       9     58      1      3
test,1566315800405059072,17, | 17  |      0      10     58      1      3
test,1566315802409537024,17, | 17  |      0      10     58      1      4
test,1566315804398371840,17, | 17  |      0      10     58      1      3
test,1566315806405560064,17, | 17  |      0      10     58      1      3
test,1566315808400073984,17, | 17  |      0      10     58      1      4
test,1566315810406054144,17, | 17  |      0      10     58      1      3
test,1566315812405452032,17, | 17  |      0      10     58      1      3
test,1566315814410830080,17, | 17  |      0      10     58      1      3
test,1566315816397944832,17, | 17  |      0      10     58      1      3
test,1566315818403444992,17, | 17  |      0      10     58      1      5
test,1566315820398542848,17, | 17  |      0      10     58      1      3
test,1566315822409837056,17, | 17  |      0      10     58      1      3
test,1566315824394076160,17, | 17  |      0      10     58      1      3
test,1566315826406996992,17, | 17  |      0      10     58      1      3
test,1566315828393512960,17, | 17  |      0      10     58      1      3
test,1566315830401473024,17, | 17  |      0      10     58      1      4
test,1566315832394917120,17, | 17  |      0      10     58      1      3
test,1566315834400911104,17, | 17  |      0      10     58      1      3
test,1566315836392004864,17, | 17  |      0      10     58      1      3
test,1566315838401635840,17, | 17  |      0      10     58      1      6
test,1566315840391303168,17, | 17  |      0      10     58      1      3
test,1566315842402755072,17, | 17  |      0      10     58      1      3
test,1566315844391496960,17, | 17  |      0      10     58      1      3
test,1566315846397802240,17, | 17  |      0      10     58      1      5
test,1566315848389643008,17, | 17  |      0      10     58      1      3
test,1566315850397684224,17, | 17  |      0      10     58      1      3
test,1566315852388644864,17, | 17  |      0      10     58      1      3
test,1566315854397078016,17, | 17  |      0      10     58      1      3
test,1566315856387841024,17, | 17  |      0      10     58      1      3
test,1566315858395399168,17, | 17  |      0      10     58      1      3
test,1566315860403465984,17, | 17  |      0      10     58      1      3
test,1566315862396652032,17, | 17  |      0      10     58      1      3
test,1566315864408070144,17, | 17  |      0      10     58      1      3
test,1566315866393953024,17, | 17  |      0      10     58      1      3
test,1566315868402717952,17, | 17  |      0      10     58      1      6
test,1566315870393374976,17, | 17  |      0      10     58      1      3
test,1566315872402260992,17, | 17  |      0      10     58      1      3
test,1566315874394594816,17, | 17  |      0      10     58      1      3
test,1566315876399770112,17, | 17  |      0      10     58      1      5
test,1566315879379260160,17, | 17  |      0       9     58      1      3
test,1566315880400225024,17, | 17  |      0      10     58      1      3
test,1566315882391150848,17, | 17  |      0      10     58      1      4
test,1566315884403552000,17, | 17  |      0      10     58      1      3
test,1566315886409374976,17, | 17  |      0      10     58      1      4
test,1566315888397824000,17, | 17  |      0      10     58      1      3
test,1566315890389059072,17, | 17  |      0      10     58      1      3
test,1566315892396611072,17, | 17  |      0      10     58      1      3
test,1566315894388386048,17, | 17  |      0      10     58      1      3
test,1566315896400464896,17, | 17  |      0      10     58      1      3
test,1566315898387522048,17, | 17  |      0      10     58      1      3
