name,time,nodeid,value
test,1566315300007036928,24, | 24  |      0      10     53      1      3
test,1566315302011496192,24, | 24  |      0      10     53      1      4
test,1566315304001761792,24, | 24  |      0      10     53      1      5
test,1566315306006424064,24, | 24  |      0      10     53      1      3
test,1566315346416908032,24, | 24  |      0      10     58      1      3
test,1566315348419336960,24, | 24  |      0      10     58      1      3
test,1566315350423297024,24, | 24  |      0      10     58      1      5
test,1566315352412595968,24, | 24  |      0      10     58      1      5
test,1566315354419070976,24, | 24  |      0      10     58      1      3
test,1566315356405723136,24, | 24  |      0      10     58      1      3
test,1566315359396022016,24, | 24  |      0       9     58      1      5
test,1566315360417412096,24, | 24  |      0      10     58      1      4
test,1566315362420497920,24, | 24  |      0      10     58      1      4
test,1566315365394976000,24, | 24  |      0       9     58      1      3
test,1566315366415653888,24, | 24  |      0      10     58      1      3
test,1566315368421112064,24, | 24  |      0      10     58      1      8
test,1566315370426161152,24, | 24  |      0      10     58      1      6
test,1566315373398526976,24, | 24  |      0       6     58      1      4
test,1566315374418905088,24, | 24  |      0      10     58      1      4
test,1566315376422429184,24, | 24  |      0      10     58      1      3
test,1566315379397253120,24, | 24  |      0       9     58      1      3
test,1566315380424516864,24, | 24  |      0      10     58      1      4
test,1566315382423603968,24, | 24  |      0      10     58      1      3
test,1566315384410372096,24, | 24  |      0      10     58      1      3
test,1566315387385068032,24, | 24  |      0       8     58      1      3
test,1566315388422966016,24, | 24  |      0      10     58      1      3
test,1566315390409593088,24, | 24  |      0      10     58      1      5
test,1566315392413862912,24, | 24  |      0      10     58      1      3
test,1566315394420568064,24, | 24  |      0      10     58      1      3
test,1566315396407176960,24, | 24  |      0      10     58      1      4
test,1566315398415463936,24, | 24  |      0      10     58      1      3
test,1566315401387672832,24, | 24  |      0       9     58      1      4
test,1566315402406373120,24, | 24  |      0      10     58      1      3
test,1566315404412869888,24, | 24  |      0      10     58      1      4
test,1566315406416465152,24, | 24  |      0      10     58      1      4
test,1566315408423156992,24, | 24  |      0      10     58      1      4
test,1566315410412463872,24, | 24  |      0      10     58      1      4
test,1566315412416539904,24, | 24  |      0      10     58      1      3
test,1566315414419840000,24, | 24  |      0      10     58      1      6
test,1566315416408914944,24, | 24  |      0      10     58      1      3
test,1566315418416870144,24, | 24  |      0      10     58      1      6
test,1566315420402352128,24, | 24  |      0      10     58      1      3
test,1566315423393572096,24, | 24  |      0       8     58      1      4
test,1566315424413028864,24, | 24  |      0      10     58      1      3
test,1566315426419603968,24, | 24  |      0      10     58      1      3
test,1566315428408157952,24, | 24  |      0      10     58      1      3
test,1566315430417606144,24, | 24  |      0      10     58      1      4
test,1566315432416914944,24, | 24  |      0      10     58      1      5
test,1566315434404836864,24, | 24  |      0      10     58      1      3
test,1566315436410914048,24, | 24  |      0      10     58      1      3
test,1566315438414846976,24, | 24  |      0      10     58      1      4
test,1566315440403392000,24, | 24  |      0      10     58      1      4
test,1566315442408919040,24, | 24  |      0      10     58      1      4
test,1566315444418564096,24, | 24  |      0      10     58      1      3
test,1566315447388442112,24, | 24  |      0       9     58      1     18
test,1566315448409060096,24, | 24  |      0      10     58      1      4
test,1566315451398003968,24, | 24  |      0       9     58      1      3
test,1566315452417465088,24, | 24  |      0      10     58      1      4
test,1566315454405594112,24, | 24  |      0      10     58      1      4
test,1566315456412549120,24, | 24  |      0      10     58      1      4
test,1566315458417285888,24, | 24  |      0      10     58      1      4
test,1566315461390886144,24, | 24  |      0       9     58      1      7
test,1566315462411545088,24, | 24  |      0      10     58      1      4
test,1566315465384749056,24, | 24  |      0       8     58      1      4
test,1566315466403323904,24, | 24  |      0      10     58      1      2
test,1566315468408592896,24, | 24  |      0      10     58      1      4
test,1566315470422075136,24, | 24  |      0      10     58      1      4
test,1566315472421870848,24, | 24  |      0      10     58      1      4
test,1566315474412174848,24, | 24  |      0      10     58      1      3
test,1566315476414978048,24, | 24  |      0      10     58      1      4
test,1566315479386897920,24, | 24  |      0       8     58      1      3
test,1566315481391931904,24, | 24  |      0       8     58      1      3
test,1566315482411111168,24, | 24  |      0      10     58      1      4
test,1566315485386077952,24, | 24  |      0       9     58      1      3
test,1566315487390705152,24, | 24  |      0       9     58      1      5
test,1566315489395478016,24, | 24  |      0       9     58      1      3
test,1566315490420707840,24, | 24  |      0      10     58      1      4
test,1566315492402895872,24, | 24  |      0      10     58      1      4
test,1566315494409261824,24, | 24  |      0      10     58      1      5
test,1566315496415304960,24, | 24  |      0      10     58      1      4
test,1566315499388112896,24, | 24  |      0       7     58      1      3
test,1566315501393156096,24, | 24  |      0       9     58      1      4
test,1566315503382021888,24, | 24  |      0       8     58      1      4
test,1566315504400829952,24, | 24  |      0      10     58      1      3
test,1566315506406540032,24, | 24  |      0      10     58      1      3
test,1566315508411990784,24, | 24  |      0      10     58      1      3
test,1566315510417166848,24, | 24  |      0      10     58      1      4
test,1566315513390500096,24, | 24  |      0       8     58      1      4
test,1566315514410945792,24, | 24  |      0      10     58      1      4
test,1566315517384422144,24, | 24  |      0       9     58      1      4
test,1566315518402856192,24, | 24  |      0      10     58      1      4
test,1566315520408061952,24, | 24  |      0      10     58      1      4
test,1566315522416065024,24, | 24  |      0      10     58      1      4
test,1566315524401572864,24, | 24  |      0      10     58      1      4
test,1566315526409490944,24, | 24  |      0      10     58      1      4
test,1566315528413406976,24, | 24  |      0      10     58      1      4
test,1566315530418822912,24, | 24  |      0      10     58      1      3
test,1566315532405185024,24, | 24  |      0      10     58      1      3
test,1566315534410650112,24, | 24  |      0      10     58      1      3
test,1566315536416368896,24, | 24  |      0      10     58      1      3
test,1566315539390554880,24, | 24  |      0       9     58      1      5
test,1566315541395307008,24, | 24  |      0       9     58      1      4
test,1566315543384376064,24, | 24  |      0       9     58      1      4
test,1566315544403744000,24, | 24  |      0      10     58      1      3
test,1566315546408741120,24, | 24  |      0      10     58      1      3
test,1566315549384339200,24, | 24  |      0       8     58      1      4
test,1566315550401608960,24, | 24  |      0      10     58      1      4
test,1566315552406341120,24, | 24  |      0      10     58      1      5
test,1566315554419001088,24, | 24  |      0      10     58      1      4
test,1566315556416539904,24, | 24  |      0      10     58      1      5
test,1566315558407036928,24, | 24  |      0      10     58      1      3
test,1566315560410542080,24, | 24  |      0      10     58      1      3
test,1566315562399074048,24, | 24  |      0      10     58      1      3
test,1566315565390487040,24, | 24  |      0       8     58      1      3
test,1566315566416035840,24, | 24  |      0      10     58      1      6
test,1566315568398716928,24, | 24  |      0      10     58      1      4
test,1566315570403511040,24, | 24  |      0      10     58      1      4
test,1566315573394067968,24, | 24  |      0       9     58      1      3
test,1566315574420015104,24, | 24  |      0      10     58      1      5
test,1566315576419506176,24, | 24  |      0      10     58      1      3
test,1566315578407215104,24, | 24  |      0      10     58      1      4
test,1566315580412239104,24, | 24  |      0      10     58      1      2
test,1566315582400617984,24, | 24  |      0      10     58      1      3
test,1566315585391695104,24, | 24  |      0       9     58      1      4
test,1566315586412666112,24, | 24  |      0      10     58      1      4
test,1566315588399385856,24, | 24  |      0      10     58      1      5
test,1566315590412512000,24, | 24  |      0      10     58      1      2
test,1566315592411168000,24, | 24  |      0      10     58      1      4
test,1566315594415662080,24, | 24  |      0      10     58      1      7
test,1566315596404151808,24, | 24  |      0      10     58      1      4
test,1566315598410226176,24, | 24  |      0      10     58      1      5
test,1566315600420665088,24, | 24  |      0      10     58      1      4
test,1566315603388102144,24, | 24  |      0       9     58      1      3
test,1566315604408845056,24, | 24  |      0      10     58      1      2
test,1566315606412192000,24, | 24  |      0      10     58      1      5
test,1566315608401032960,24, | 24  |      0      10     58      1      8
test,1566315610409445120,24, | 24  |      0      10     58      1      2
test,1566315613380740864,24, | 24  |      0       8     58      1      4
test,1566315614414961152,24, | 24  |      0      10     58      1      3
test,1566315616405076992,24, | 24  |      0      10     58      1      3
test,1566315618409858816,24, | 24  |      0      10     58      1      4
test,1566315620416958208,24, | 24  |      0      10     58      1      5
test,1566315622404738816,24, | 24  |      0      10     58      1      2
test,1566315624408546816,24, | 24  |      0      10     58      1      4
test,1566315626414982912,24, | 24  |      0      10     58      1      2
test,1566315628385637888,24, | 24  |      0       1     58      1      5
test,1566315630409681152,24, | 24  |      0      10     58      1      5
test,1566315633383659008,24, | 24  |      0       9     58      1     12
test,1566315634400594944,24, | 24  |      0      10     58      1      4
test,1566315636412807936,24, | 24  |      0      10     58      1      4
test,1566315638414277120,24, | 24  |      0      10     58      1      3
test,1566315640399555072,24, | 24  |      0      10     58      1      4
test,1566315642403927040,24, | 24  |      0      10     58      1      2
test,1566315644416599040,24, | 24  |      0      10     58      1      4
test,1566315646398468864,24, | 24  |      0      10     58      1      4
test,1566315649389313024,24, | 24  |      0       8     58      1      4
test,1566315651378259968,24, | 24  |      0       8     58      1      3
test,1566315652396716032,24, | 24  |      0      10     58      1      2
test,1566315654404165120,24, | 24  |      0      10     58      1      2
test,1566315657377363968,24, | 24  |      0       9     58      1      3
test,1566315658395625216,24, | 24  |      0      10     58      1      5
test,1566315660401935104,24, | 24  |      0      10     58      1      4
test,1566315662405647872,24, | 24  |      0      10     58      1      2
test,1566315664412436992,24, | 24  |      0      10     58      1      4
test,1566315666399620096,24, | 24  |      0      10     58      1      3
test,1566315668405483008,24, | 24  |      0      10     58      1      4
test,1566315670410150144,24, | 24  |      0      10     58      1      3
test,1566315672399180800,24, | 24  |      0      10     58      1      5
test,1566315674404044032,24, | 24  |      0      10     58      1      5
test,1566315676415035136,24, | 24  |      0      10     58      1      3
test,1566315678414458112,24, | 24  |      0      10     58      1      3
test,1566315680402374144,24, | 24  |      0      10     58      1      4
test,1566315682407168000,24, | 24  |      0      10     58      1      3
test,1566315685381992960,24, | 24  |      0       7     58      1      7
test,1566315686408300032,24, | 24  |      0      10     58      1      6
test,1566315689376017920,24, | 24  |      0       9     58      1      6
test,1566315690410782208,24, | 24  |      0      10     58      1      5
test,1566315693385627136,24, | 24  |      0       9     58      1      3
test,1566315694409560064,24, | 24  |      0      10     58      1      3
test,1566315696393512960,24, | 24  |      0      10     58      1      3
test,1566315698398088960,24, | 24  |      0      10     58      1      4
test,1566315700402776832,24, | 24  |      0      10     58      1      8
test,1566315702408911872,24, | 24  |      0      10     58      1      4
test,1566315704412616960,24, | 24  |      0      10     58      1      4
test,1566315706405230080,24, | 24  |      0      10     58      1      4
test,1566315708407207936,24, | 24  |      0      10     58      1      3
test,1566315710414727936,24, | 24  |      0      10     58      1      4
test,1566315713387106048,24, | 24  |      0       9     58      1      2
test,1566315714407540992,24, | 24  |      0      10     58      1      3
test,1566315716415548160,24, | 24  |      0      10     58      1      3
test,1566315718399211008,24, | 24  |      0      10     58      1      4
test,1566315720406849024,24, | 24  |      0      10     58      1      4
test,1566315722409118976,24, | 24  |      0      10     58      1      3
test,1566315724398232832,24, | 24  |      0      10     58      1      3
test,1566315726406835968,24, | 24  |      0      10     58      1      4
test,1566315729378514176,24, | 24  |      0       2     58      1      3
test,1566315730397360128,24, | 24  |      0      10     58      1      3
test,1566315733387974912,24, | 24  |      0       9     58      1      4
test,1566315735377027072,24, | 24  |      0       9     58      1      3
test,1566315736396014080,24, | 24  |      0      10     58      1      3
test,1566315738402216960,24, | 24  |      0      10     58      1      4
test,1566315740409902080,24, | 24  |      0      10     58      1      3
test,1566315742413316864,24, | 24  |      0      10     58      1      3
test,1566315744399763200,24, | 24  |      0      10     58      1      3
test,1566315746404759808,24, | 24  |      0      10     58      1      4
test,1566315749380086784,24, | 24  |      0       9     58      1      3
test,1566315750399336960,24, | 24  |      0      10     58      1      3
test,1566315752403147008,24, | 24  |      0      10     58      1      3
test,1566315754409001984,24, | 24  |      0      10     58      1      3
test,1566315756397288960,24, | 24  |      0      10     58      1      3
test,1566315758403678976,24, | 24  |      0      10     58      1      2
test,1566315760406603008,24, | 24  |      0      10     58      1      2
test,1566315763382086912,24, | 24  |      0       9     58      1      6
test,1566315764405856000,24, | 24  |      0      10     58      1      4
test,1566315766406557952,24, | 24  |      0      10     58      1      3
test,1566315768394466048,24, | 24  |      0      10     58      1      3
test,1566315771385864960,24, | 24  |      0       9     58      1      4
test,1566315772406115072,24, | 24  |      0      10     58      1      4
test,1566315774411813888,24, | 24  |      0      10     58      1      4
test,1566315776398590208,24, | 24  |      0      10     58      1      3
test,1566315778404672000,24, | 24  |      0      10     58      1      5
test,1566315780392384000,24, | 24  |      0      10     58      1      4
test,1566315783383450880,24, | 24  |      0       9     58      1      3
test,1566315784405185024,24, | 24  |      0      10     58      1      2
test,1566315786390619136,24, | 24  |      0      10     58      1      3
test,1566315789382113024,24, | 24  |      0       9     58      1      2
test,1566315790402489856,24, | 24  |      0      10     58      1      6
test,1566315792410217984,24, | 24  |      0      10     58      1      6
test,1566315794394892032,24, | 24  |      0      10     58      1      3
test,1566315797386574080,24, | 24  |      0       9     58      1      3
test,1566315799374931200,24, | 24  |      0       9     58      1      3
test,1566315800393963008,24, | 24  |      0      10     58      1      4
test,1566315802410710016,24, | 24  |      0      10     58      1      3
test,1566315804405169920,24, | 24  |      0      10     58      1      3
test,1566315806409810944,24, | 24  |      0      10     58      1      6
test,1566315808397897984,24, | 24  |      0      10     58      1      3
test,1566315810407280896,24, | 24  |      0      10     58      1      3
test,1566315812411312128,24, | 24  |      0      10     58      1      3
test,1566315814396132864,24, | 24  |      0      10     58      1      4
test,1566315816402697984,24, | 24  |      0      10     58      1      4
test,1566315818408098048,24, | 24  |      0      10     58      1      5
test,1566315821381091072,24, | 24  |      0       9     58      1      7
test,1566315822400890112,24, | 24  |      0      10     58      1      3
test,1566315824406217216,24, | 24  |      0      10     58      1      3
test,1566315826393316096,24, | 24  |      0      10     58      1      4
test,1566315828398555136,24, | 24  |      0      10     58      1      4
test,1566315830404167936,24, | 24  |      0      10     58      1      5
test,1566315832412547072,24, | 24  |      0      10     58      1      4
test,1566315834399187200,24, | 24  |      0      10     58      1      3
test,1566315837372474880,24, | 24  |      0       9     58      1      4
test,1566315839377306112,24, | 24  |      0       9     58      1      8
test,1566315840397784832,24, | 24  |      0      10     58      1      3
test,1566315843372279040,24, | 24  |      0       8     58      1      3
test,1566315844411848960,24, | 24  |      0      10     58      1      3
test,1566315847381377024,24, | 24  |      0       7     58      1     11
test,1566315849385937920,24, | 24  |      0       9     58      1      3
test,1566315850405390080,24, | 24  |      0      10     58      1      4
test,1566315852395243008,24, | 24  |      0      10     58      1      4
test,1566315854401054976,24, | 24  |      0      10     58      1      2
test,1566315856402973952,24, | 24  |      0      10     58      1      3
test,1566315859378476032,24, | 24  |      0       8     58      1      4
test,1566315861383685120,24, | 24  |      0       9     58      1      4
test,1566315862403791872,24, | 24  |      0      10     58      1      3
test,1566315864392915968,24, | 24  |      0      10     58      1      3
test,1566315866395652096,24, | 24  |      0      10     58      1      3
test,1566315868402012160,24, | 24  |      0      10     58      1      6
test,1566315870406832896,24, | 24  |      0      10     58      1      4
test,1566315872395201024,24, | 24  |      0      10     58      1      4
test,1566315874408116224,24, | 24  |      0      10     58      1      3
test,1566315876405031936,24, | 24  |      0      10     58      1      4
test,1566315878393721088,24, | 24  |      0      10     58      1      4
test,1566315880398209024,24, | 24  |      0      10     58      1      4
test,1566315882403805952,24, | 24  |      0      10     58      1      2
test,1566315884392430080,24, | 24  |      0      10     58      1      5
test,1566315886399873024,24, | 24  |      0      10     58      1      3
test,1566315888403388928,24, | 24  |      0      10     58      1      4
test,1566315890390862080,24, | 24  |      0      10     58      1      2
test,1566315892397542912,24, | 24  |      0      10     58      1      2
test,1566315894406685952,24, | 24  |      0      10     58      1      2
test,1566315896408057088,24, | 24  |      0      10     58      1      2
test,1566315898395254016,24, | 24  |      0      10     58      1      5
