------------------------------------------------------------------------------------------------------------------------------------------------------------------------------------------------------------
Group-Initiator	|	Packet_Sent
------------------------------------------------------------------------------------------------------------------------------------------------------------------------------------------------------------
11 		|	182
------------------------------------------------------------------------------------------------------------------------------------------------------------------------------------------------------------
2 		|	182
------------------------------------------------------------------------------------------------------------------------------------------------------------------------------------------------------------
SNo		Node:		Init_Id		R_Self_init		Nt recv		PRR		Duty Cycle(%)		hop-count		Latency
------------------------------------------------------------------------------------------------------------------------------------------------------------------------------------------------------------
1 		1 		2 			182 		0 		1.0 		1.728 			1.022 						2478
2 		2 		2 			0 		182 		0.0 		3.401 			0.0 						2478
3 		3 		11 			111 		71 		0.61 		2.534 			3.784 						2480
4 		4 		2 			182 		0 		1.0 		2.015 			1.033 						2478
5 		6 		11 			130 		52 		0.714 		1.905 			3.562 						2480
6 		7 		11 			170 		12 		0.934 		2.566 			1.224 						2480
7 		8 		2 			182 		0 		1.0 		2.004 			1.011 						2478
8 		10 		2 			121 		61 		0.665 		2.456 			3.256 						2478
9 		11 		11 			0 		182 		0.0 		3.975 			0.0 						2480
10 		13 		11 			178 		4 		0.978 		3.044 			1.23 						2480
11 		14 		11 			178 		4 		0.978 		3.134 			1.208 						2480
12 		15 		2 			182 		0 		1.0 		2.254 			1.099 						2478
13 		16 		2 			105 		77 		0.577 		2.288 			2.495 						2478
14 		17 		11 			169 		13 		0.929 		2.618 			2.012 						2480
15 		18 		11 			130 		52 		0.714 		2.111 			3.669 						2480
16 		19 		11 			169 		13 		0.929 		2.703 			2.355 						2480
17 		20 		11 			168 		14 		0.923 		2.751 			2.185 						2480
18 		22 		11 			130 		52 		0.714 		1.757 			3.546 						2480
19 		23 		2 			105 		77 		0.577 		2.719 			3.39 						2478
20 		24 		11 			137 		45 		0.753 		3.074 			3.029 						2480
21 		25 		2 			89 		93 		0.489 		2.266 			3.73 						2478
22 		26 		11 			176 		6 		0.967 		2.735 			1.193 						2480
23 		27 		11 			131 		51 		0.72 		2.158 			3.313 						2480
24 		28 		2 			121 		61 		0.665 		2.144 			2.562 						2478
25 		31 		2 			131 		51 		0.72 		2.136 			2.107 						2478
26 		32 		2 			120 		62 		0.659 		1.914 			2.308 						2478
27 		33 		2 			181 		1 		0.995 		2.081 			1.055 						2478
------------------------------------------------------------------------------------------------------------------------------------------------------------------------------------------------------------
											0.808 		2.462 			2.295
------------------------------------------------------------------------------------------------------------------------------------------------------------------------------------------------------------
											0.165 		0.523 			1.016
------------------------------------------------------------------------------------------------------------------------------------------------------------------------------------------------------------
