../../tools/sky/serialdump-linux -b115200 /dev/ttyUSB0
 |  1  |    434       9    430       1 |    434       1       2    2479     128     127      53       3     -58      95      1    2479        0  
 |  1  |    435       9    431       1 |    435       1       2    2479     128     135      26       0     -5
 |  1  |    452       9    448       1 |    452       1       2    2479     128       0     101       0       0       0      0    2479        0  
 |  1  |    453       9    449       1 |    453       1       2    2479     128       0     101       0       0       0      0    2479        0  
 |  1  |    454       9    450       1 |    454       1       2    2479     128       0     101       0       0       0      0    2479        0  
 |  1  |    455       9    451       1 |    455       1       2    2479     128       0     101       0       0       0      0    2479        0  
 |  1  |    456       9    452       1 |    456       1       2    2479     128       0     101       0       0       0      0    2479        0  
 |  1  |    457       9    453       1 |    457       1       2    2479     128       0     101       0       0       0      0    2479        0  
 |  1  |    458       9    454       1 |    458       1       2    2479     128       0     101       0       0       0      0    2479        0  
 |  1  |    459       9    455       1 |    459       1       2    2479     128       0     101       0       0       0      0    2479        0  
 |  1  |    460       9    456       1 |    460       1       2    2479     128       0     101       0       0       0      0    2479        0  
 |  1  |    461       9    457       1 |    461       1       2    2479     128       0     101       0       0       0      0    2479        0  
 |  1  |    462       9    458       1 |    462       1       2    2479     128       0     101       0       0       0      0    2479        0  
 |  1  |    463       9    459       1 |    463       1       2    2479     128       0     101       0       0       0      0    2479        0  
 |  1  |    464       9    460       1 |    464       1       2    2479     128       0     101       0       0       0      0    2479        0  
 |  1  |    465       9    461       1 |    465       1       2    2479     128       0      91       0     -56      81      1    2479        0  
 |  1  |    466       9    462       1 |    466       1       2    2479     128       0      89       0     -56      80      1    2479        0  
 |  1  |    467       9    463       1 |    467       1       2    2479     128       0      99       0     -56      83      1    2479        0  
 |  1  |    468       9    464       1 |    468       1       2    2479     128       0      85       0     -56      75      1    2479        0  
 |  1  |    469       9    465       1 |    469       1       2    2479     128       0      87       0     -56      79      1    2479        0  
 |  1  |    470       9    466       1 |    470       1       2    2479     128       0      98       0     -56      82      1    2479        0  
 |  1  |    471       9    467       1 |    471       1       2    2479     128       0      94       0     -56      79      1    2479        0  
 |  1  |    472       9    468       1 |    472       1       2    2479     128       0     100       0     -56      82      1    2479        0  
 |  1  |    473       9    469       1 |    473       1       2    2479     128       0      85       0     -56      77      1    2479        0  
 |  1  |    474       9    470       1 |    474       1       2    2479     128       0      90       0     -56      78      1    2479        0  
 |  1  |    475       9    471       1 |    475       1       2    2479     128       0      94       0     -57      78      1    2479        0  
 |  1  |    476       9    472       1 |    476       1       2    2479     128       0      96       0     -56      79      1    2479        0  
 |  1  |    477       9    473       1 |    477       1       2    2479     128       0      99       0     -57      81      1    2479        0  
 |  1  |    478       9    474       1 |    478       1       2    2479     128       0      71       0     -57      69      1    2479        0  
 |  1  |    479       9    475       1 |    479       1       2    2479     128       0      85       0     -57      74      1    2479        0  
 |  1  |    480       9    476       1 |    480       1       2    2479     128       0      95       0     -57      81      1    2479        0  
 |  1  |    481       9    477       1 |    481       1       2    2479     128       0      86       0     -56      82      1    2479        0  
 |  1  |    482       9    478       1 |    482       1       2    2479     128       0      88       0     -56      78      1    2479        0  
 |  1  |    483       9    479       1 |    483       1       2    2479     128       0      87       0     -56      81      1    2479        0  
 |  1  |    484       9    480       1 |    484       1       2    2479     128       0      93       0     -56      81      1    2479        0  
 |  1  |    485       9    481       1 |    485       1       2    2479     128       0      97       0     -55      79      1    2479        0  
 |  1  |    486       9    482       1 |    486       1       2    2479     128       0      79       0     -55      73      1    2479        0  
 |  1  |    487       9    483       1 |    487       1       2    2479     128       0      86       0     -55      77      1    2479        0  
 |  1  |    488       9    484       1 |    488       1       2    2479     128       0      74       0     -55      74      1    2479        0  
 |  1  |    489       9    485       1 |    489       1       2    2479     128       0      90       0     -55      80      1    2479        0  
 |  1  |    490       9    486       1 |    490       1       2    2479     128       0      99       0     -55      81      1    2479        0  
 |  1  |    491       9    487       1 |    491       1       2    2479     128       0      88       0     -54      78      1    2479        0  
 |  1  |    492       9    488       1 |    492       1       2    2479     128       0      84       0     -55      79      1    2479        0  
 |  1  |    493       9    489       1 |    493       1       2    2479     128       0      95       0     -55      83      1    2479        0  
 |  1  |    494       9    490       1 |    494       1       2    2479     128       0      95       0       0       0      0    2479        0  
 |  1  |    495       9    491       1 |    495       1       2    2479     128       0      87       0     -56      76      1    2479        0  
 |  1  |    496       9    492       1 |    496       1       2    2479     128       0      87       0       0       0      0    2479        0  
 |  1  |    497       9    493       1 |    497       1       2    2479     128       0      83       0     -56      76      1    2479        0  
 |  1  |    498       9    494       1 |    498       1       2    2479     128       0      86       0     -56      79      1    2479        0  
 |  1  |    499       9    495       1 |    499       1       2    2479     128       0      97       0     -54      85      1    2479        0  
 |  1  |    500       9    496       1 |    500       1       2    2479     128       0      96       0     -52      82      1    2479        0  
 |  1  |    501       9    497       1 |    501       1       2    2479     128       0      62       0     -54      64      1    2479        0  
 |  1  |    502       9    498       1 |    502       1       2    2479     128       0      62       0       0       0      0    2479        0  
 |  1  |    503       9    499       1 |    503       1       2    2479     128       0      68       0     -56      66      1    2479        0  
 |  1  |    504       9    500       1 |    504       1       2    2479     128       0      93       0     -56      76      1    2479        0  
 |  1  |    505       9    501       1 |    505       1       2    2479     128       0      92       0     -56      75      1    2479        0  
 |  1  |    506       9    502       1 |    506       1       2    2479     128       0      79       0     -56      68      1    2479        0  
 |  1  |    507       9    503       1 |    507       1       2    2479     128       0      82       0     -56      74      1    2479        0  
 |  1  |    508       9    504       1 |    508       1       2    2479     128       0      82       0       0       0      0    2479        0  
 |  1  |    509       9    505       1 |    509       1       2    2479     128       0      82       0       0       0      0    2479        0  
 |  1  |    510       9    506       1 |    510       1       2    2479     128       0     101       0     -56      82      1    2479        0  
 |  1  |    511       9    507       1 |    511       1       2    2479     128       0      85       0     -56      77      1    2479        0  
 |  1  |    512       9    508       1 |    512       1       2    2479     128       0      93       0     -56      79      1    2479        0  
 |  1  |    513       9    509       1 |    513       1       2    2479     128       0      93       0       0       0      0    2479        0  
 |  1  |    514       9    510       1 |    514       1       2    2479     128       0      93       0       0       0      0    2479        0  
 |  1  |    515       9    511       1 |    515       1       2    2479     128       0      89       0     -56      77      1    2479        0  
 |  1  |    516       9    512       1 |    516       1       2    2479     128       0      89       0     -56      78      1    2479        0  
 |  1  |    517       9    513       1 |    517       1       2    2479     128       0      89       0       0       0      0    2479        0  
 |  1  |    518       9    514       1 |    518       1       2    2479     128       0      89       0       0       0      0    2479        0  
 |  1  |    519       9    515       1 |    519       1       2    2479     128       0      85       0     -54      81      1    2479        0  
 |  1  |    520       9    516       1 |    520       1       2    2479     128       0      87       0     -55      76      1    2479        0  
 |  1  |    521       9    517       1 |    521       1       2    2479     128       0      87       0       0       0      0    2479        0  
 |  1  |    522       9    518       1 |    522       1       2    2479     128       0      87       0       0       0      0    2479        0  
 |  1  |    523       9    519       1 |    523       1       2    2479     128       0      87       0       0       0      0    2479        0  
 |  1  |    524       9    520       1 |    524       1       2    2479     128       0      87       0       0       0      0    2479        0  
 |  1  |    525       9    521       1 |    525       1       2    2479     128       0      87       0       0       0      0    2479        0  
 |  1  |    526       9    522       1 |    526       1       2    2479     128       0      87       0       0       0      0    2479        0  
 |  1  |    527       9    523       1 |    527       1       2    2479     128       0      87       0       0       0      0    2479        0  
 |  1  |    528       9    524       1 |    528       1       2    2479     128       0      87       0       0       0      0    2479        0  
 |  1  |    529       9    525       1 |    529       1       2    2479     128       0      87       0       0       0      0    2479        0  
 |  1  |    530       9    526       1 |    530       1       2    2479     128       0      87       0       0       0      0    2479        0  
 |  1  |    531       9    527       1 |    531       1       2    2479     128       0      87       0       0       0      0    2479        0  
 |  1  |    532       9    528       1 |    532       1       2    2479     128       0      87       0       0       0      0    2479        0  
 |  1  |    533       9    529       1 |    533       1       2    2479     128       0      87       0       0       0      0    2479        0  
 |  1  |    534       9    530       1 |    534       1       2    2479     128       0      87       0       0       0      0    2479        0  
 |  1  |    535       9    531       1 |    535       1       2    2479     128       0      87       0       0       0      0    2479        0  
 |  1  |    536       9    532       1 |    536       1       2    2479     128       0      87       0       0       0      0    2479        0  
 |  1  |    537       9    533       1 |    537       1       2    2479     128       0      87       0       0       0      0    2479        0  
 |  1  |    538       9    534       1 |    538       1       2    2479     128       0      87       0       0       0      0    2479        0  
 |  1  |    539       9    535       1 |    539       1       2    2479     128       0      87       0       0       0      0    2479        0  
 |  1  |    540       9    536       1 |    540       1       2    2479     128       0      87       0       0       0      0    2479        0  
 |  1  |    541       9    537       1 |    541       1       2    2479     128       0      87       0       0       0      0    2479        0  
 |  1  |    542       9    538       1 |    542       1       2    2479     128       0      87       0       0       0      0    2479        0  
 |  1  |    543       9    539       1 |    543       1       2    2479     128       0      87       0       0       0      0    2479        0  
 |  1  |    544       9    540       1 |    544       1       2    2479     128       0      87       0       0       0      0    2479        0  
 |  1  |    545       9    541       1 |    545       1       2    2479     128       0      87       0       0       0      0    2479        0  
 |  1  |    546       9    542       1 |    546       1       2    2479     128       0      87       0       0       0      0    2479        0  
 |  1  |    547       9    543       1 |    547       1       2    2479     128       0      87       0       0       0      0    2479        0  
 |  1  |    548       9    544       1 |    548       1       2    2479     128       0      87       0       0       0      0    2479        0  
 |  1  |    549       9    545       1 |    549       1       2    2479     128       0      87       0       0       0      0    2479        0  
 |  1  |    550       9    546       1 |    550       1       2    2479     128       0      87       0       0       0      0    2479        0  
 |  1  |    551       9    547       1 |    551       1       2    2479     128       0      87       0       0       0      0    2479        0  
 |  1  |    552       9    548       1 |    552       1       2    2479     128       0      87       0       0       0      0    2479        0  
 |  1  |    553       9    549       1 |    553       1       2    2479     128       0      87       0       0       0      0    2479        0  
 |  1  |    554       9    550       1 |    554       1       2    2479     128       0      87       0       0       0      0    2479        0  
 |  1  |    555       9    551       1 |    555       1       2    2479     128       0      87       0       0       0      0    2479        0  
 |  1  |    556       9    552       1 |    556       1       2    2479     128       0      87       0       0       0      0    2479        0  
 |  1  |    557       9    553       1 |    557       1       2    2479     128       0      87       0       0       0      0    2479        0  
 |  1  |    558       9    554       1 |    558       1       2    2479     128       0      87       0       0       0      0    2479        0  
../../platform/sky/Makefile.sky:146: recipe for target 'login' failed
