name,time,nodeid,value
test,1566296701451468032,27, | 27  |      0      10     47      1      4
test,1566296703441659904,27, | 27  |      0      10     47      1      3
test,1566296745729027072,27, | 27  |      0      10     40      1      4
test,1566296747740730880,27, | 27  |      0      10     40      1      3
test,1566296749726407168,27, | 27  |      0      10     40      1      3
test,1566296751738718976,27, | 27  |      0      10     40      1      5
test,1566296753726126848,27, | 27  |      0      10     40      1      6
test,1566296755739436032,27, | 27  |      0      10     40      1      3
test,1566296757725750016,27, | 27  |      0      10     40      1      3
test,1566296759733978112,27, | 27  |      0      10     40      1     11
test,1566296761725622016,27, | 27  |      0      10     40      1      3
test,1566296763735981056,27, | 27  |      0      10     40      1      3
test,1566296765725653760,27, | 27  |      0      10     40      1      5
test,1566296767735155200,27, | 27  |      0      10     40      1      4
test,1566296769725053184,27, | 27  |      0      10     40      1      4
test,1566296771738679040,27, | 27  |      0      10     40      1      5
test,1566296773725011968,27, | 27  |      0      10     40      1      3
test,1566296775734558976,27, | 27  |      0      10     40      1      3
test,1566296777724850944,27, | 27  |      0      10     40      1      5
test,1566296779734596864,27, | 27  |      0      10     40      1      3
test,1566296781742484992,27, | 27  |      0      10     40      1      5
test,1566296783732584960,27, | 27  |      0      10     40      1      8
test,1566296785724029952,27, | 27  |      0      10     40      1      4
test,1566296787731564032,27, | 27  |      0      10     40      1      6
test,1566296789723614976,27, | 27  |      0      10     40      1      5
test,1566296791731702016,27, | 27  |      0      10     40      1      3
test,1566296793723227136,27, | 27  |      0      10     40      1      4
test,1566296795731673088,27, | 27  |      0      10     40      1      6
test,1566296797723421184,27, | 27  |      0      10     40      1      4
test,1566296799734642944,27, | 27  |      0      10     40      1      4
test,1566296801722573056,27, | 27  |      0      10     40      1      4
test,1566296803730871040,27, | 27  |      0      10     40      1      4
test,1566296805723038976,27, | 27  |      0      10     40      1      4
test,1566296807731722240,27, | 27  |      0      10     40      1      4
test,1566296809740163072,27, | 27  |      0      10     40      1      6
test,1566296811731163904,27, | 27  |      0      10     40      1      4
test,1566296813721649920,27, | 27  |      0      10     40      1      3
test,1566296815732119040,27, | 27  |      0      10     40      1      3
test,1566296817721463808,27, | 27  |      0      10     40      1      3
test,1566296819729904896,27, | 27  |      0      10     40      1      5
test,1566296821721223168,27, | 27  |      0      10     40      1      4
test,1566296823730961152,27, | 27  |      0      10     40      1      7
test,1566296825737147136,27, | 27  |      0      10     40      1      3
test,1566296827731927040,27, | 27  |      0      10     40      1      4
test,1566296829720700928,27, | 27  |      0      10     40      1      4
test,1566296831732667904,27, | 27  |      0      10     40      1      3
test,1566296833739418112,27, | 27  |      0      10     40      1      3
test,1566296835728416000,27, | 27  |      0      10     40      1      5
test,1566296837739406080,27, | 27  |      0      10     40      1      6
test,1566296839732431872,27, | 27  |      0      10     40      1      3
test,1566296841737516032,27, | 27  |      0      10     40      1      3
test,1566296843727899136,27, | 27  |      0      10     40      1      3
test,1566296845739276800,27, | 27  |      0      10     40      1      4
test,1566296847727747840,27, | 27  |      0      10     40      1      3
test,1566296849744498944,27, | 27  |      0      10     40      1      3
test,1566296851729267968,27, | 27  |      0      10     40      1      6
test,1566296853718790912,27, | 27  |      0      10     40      1      3
test,1566296855726520064,27, | 27  |      0      10     40      1      3
test,1566296857734971904,27, | 27  |      0      10     40      1      5
test,1566296859729399040,27, | 27  |      0      10     40      1      5
test,1566296861733997056,27, | 27  |      0      10     40      1      5
test,1566296863726625792,27, | 27  |      0      10     40      1      5
test,1566296865738654976,27, | 27  |      0      10     40      1      7
test,1566296867727780096,27, | 27  |      0      10     40      1      4
test,1566296869744118016,27, | 27  |      0      10     40      1      3
test,1566296871725516032,27, | 27  |      0      10     40      1      4
test,1566296873733298176,27, | 27  |      0      10     40      1      3
test,1566296875729121024,27, | 27  |      0      10     40      1      4
test,1566296877733777152,27, | 27  |      0      10     40      1      3
test,1566296879728424192,27, | 27  |      0      10     40      1      4
test,1566296881739324928,27, | 27  |      0      10     40      1      3
test,1566296883727375872,27, | 27  |      0      10     40      1      3
test,1566296885737748992,27, | 27  |      0      10     40      1      3
test,1566296887725396992,27, | 27  |      0      10     40      1      6
test,1566296889739844096,27, | 27  |      0      10     40      1      3
test,1566296891726132992,27, | 27  |      0      10     40      1      3
test,1566296893732919808,27, | 27  |      0      10     40      1      7
test,1566296895725714944,27, | 27  |      0      10     40      1      3
test,1566296897736068864,27, | 27  |      0      10     40      1      3
test,1566296899724154112,27, | 27  |      0      10     40      1      4
test,1566296901734905088,27, | 27  |      0      10     40      1      4
test,1566296903724209920,27, | 27  |      0      10     40      1      3
test,1566296905732446976,27, | 27  |      0      10     40      1      4
test,1566296907723016960,27, | 27  |      0      10     40      1      3
test,1566296909736083968,27, | 27  |      0      10     40      1      3
test,1566296911722626048,27, | 27  |      0      10     40      1      4
test,1566296913733611008,27, | 27  |      0      10     40      1      3
test,1566296915722682880,27, | 27  |      0      10     40      1      3
test,1566296917735849984,27, | 27  |      0      10     40      1      3
test,1566296919721991168,27, | 27  |      0      10     40      1      6
test,1566296921734931968,27, | 27  |      0      10     40      1      4
test,1566296923723286016,27, | 27  |      0      10     40      1      3
test,1566296925730337024,27, | 27  |      0      10     40      1      5
test,1566296927722018048,27, | 27  |      0      10     40      1      3
test,1566296929733733888,27, | 27  |      0      10     40      1      4
test,1566296931722673920,27, | 27  |      0      10     40      1      5
test,1566296934704721920,27, | 27  |      0       9     40      1      3
test,1566296935720928000,27, | 27  |      0      10     40      1      4
test,1566296937730078976,27, | 27  |      0      10     40      1      3
test,1566296939720655872,27, | 27  |      0      10     40      1      4
test,1566296941729176064,27, | 27  |      0      10     40      1      7
test,1566296943720623104,27, | 27  |      0      10     40      1      5
test,1566296945731161088,27, | 27  |      0      10     40      1      4
test,1566296947720422912,27, | 27  |      0      10     40      1      3
test,1566296949729888000,27, | 27  |      0      10     40      1      3
test,1566296951720189952,27, | 27  |      0      10     40      1      4
test,1566296953729126912,27, | 27  |      0      10     40      1      3
test,1566296955719780096,27, | 27  |      0      10     40      1      3
test,1566296957727879168,27, | 27  |      0      10     40      1      5
test,1566296959736058112,27, | 27  |      0      10     40      1      8
test,1566296961730308096,27, | 27  |      0      10     40      1      5
test,1566296963718885888,27, | 27  |      0      10     40      1      5
test,1566296965729944064,27, | 27  |      0      10     40      1      3
test,1566296967718573056,27, | 27  |      0      10     40      1      3
test,1566296969727380992,27, | 27  |      0      10     40      1      5
test,1566296971718234112,27, | 27  |      0      10     40      1      5
test,1566296973727164928,27, | 27  |      0      10     40      1      4
test,1566296975718174976,27, | 27  |      0      10     40      1      4
test,1566296977728540928,27, | 27  |      0      10     40      1      4
test,1566296979735464192,27, | 27  |      0      10     40      1      8
test,1566296981729438976,27, | 27  |      0      10     40      1      3
test,1566296983717694976,27, | 27  |      0      10     40      1      4
test,1566296985726430976,27, | 27  |      0      10     40      1      6
test,1566296988715312896,27, | 27  |      0       0      0      0      0
test,1566296989725006080,27, | 27  |      0      10     40      1      4
test,1566296991716785920,27, | 27  |      0      10     40      1      3
test,1566296993725327104,27, | 27  |      0      10     40      1      3
test,1566296995716492032,27, | 27  |      0      10     40      1      4
test,1566296997724679936,27, | 27  |      0      10     40      1      3
test,1566296999733697024,27, | 27  |      0      10     40      1      4
test,1566297001724910848,27, | 27  |      0      10     40      1      4
test,1566297003715879936,27, | 27  |      0      10     40      1      3
test,1566297005724111104,27, | 27  |      0      10     40      1      5
test,1566297007715595008,27, | 27  |      0      10     40      1      3
test,1566297009724712960,27, | 27  |      0      10     40      1      3
test,1566297011732099072,27, | 27  |      0      10     40      1      4
test,1566297013723630848,27, | 27  |      0      10     40      1      4
test,1566297015715131136,27, | 27  |      0      10     40      1      3
test,1566297017724632064,27, | 27  |      0      10     40      1      4
test,1566297019734661120,27, | 27  |      0      10     40      1      7
test,1566297022710577920,27, | 27  |      0       9     40      1      3
test,1566297023714660864,27, | 27  |      0      10     40      1      3
test,1566297025722632960,27, | 27  |      0      10     40      1      3
test,1566297027732064000,27, | 27  |      0      10     40      1      3
test,1566297029725982976,27, | 27  |      0      10     40      1      4
test,1566297031732180224,27, | 27  |      0      10     40      1      4
test,1566297033722161152,27, | 27  |      0      10     40      1      7
test,1566297035731652096,27, | 27  |      0      10     40      1      4
test,1566297037721932800,27, | 27  |      0      10     40      1      3
test,1566297039713417984,27, | 27  |      0      10     40      1      3
test,1566297041721553920,27, | 27  |      0      10     40      1      3
test,1566297043729347840,27, | 27  |      0      10     40      1      4
test,1566297045723840000,27, | 27  |      0      10     40      1      3
test,1566297047712711936,27, | 27  |      0      10     40      1      4
test,1566297049721085184,27, | 27  |      0      10     40      1      3
test,1566297051713210112,27, | 27  |      0      10     40      1      4
test,1566297053721446144,27, | 27  |      0      10     40      1      3
test,1566297055712111872,27, | 27  |      0      10     40      1      4
test,1566297057720549120,27, | 27  |      0      10     40      1      3
test,1566297059730736128,27, | 27  |      0      10     40      1      3
test,1566297061722966784,27, | 27  |      0      10     40      1      3
test,1566297063730441984,27, | 27  |      0      10     40      1      6
test,1566297065720568832,27, | 27  |      0      10     40      1      4
test,1566297067727691776,27, | 27  |      0      10     40      1      3
test,1566297069721185024,27, | 27  |      0      10     40      1      3
test,1566297071736157952,27, | 27  |      0      10     40      1      3
test,1566297073719424000,27, | 27  |      0      10     40      1      5
test,1566297075728898048,27, | 27  |      0      10     40      1      5
test,1566297077721645056,27, | 27  |      0      10     40      1      6
test,1566297079728418048,27, | 27  |      0      10     40      1      3
test,1566297081718460928,27, | 27  |      0      10     40      1      6
test,1566297083733787136,27, | 27  |      0      10     40      1      3
test,1566297085718930944,27, | 27  |      0      10     40      1      4
test,1566297087729032960,27, | 27  |      0      10     40      1      4
test,1566297089717787904,27, | 27  |      0      10     40      1      9
test,1566297091726883840,27, | 27  |      0      10     40      1      7
test,1566297093725200896,27, | 27  |      0      10     40      1      3
test,1566297095727673088,27, | 27  |      0      10     40      1      3
test,1566297097717186816,27, | 27  |      0      10     40      1      3
test,1566297099725708032,27, | 27  |      0      10     40      1      4
test,1566297101716742912,27, | 27  |      0      10     40      1      7
test,1566297103726306048,27, | 27  |      0      10     40      1      3
test,1566297105716748032,27, | 27  |      0      10     40      1      4
test,1566297107728583168,27, | 27  |      0      10     40      1      5
test,1566297109717204992,27, | 27  |      0      10     40      1      3
test,1566297111724615168,27, | 27  |      0      10     40      1      3
test,1566297113719293952,27, | 27  |      0      10     40      1      4
test,1566297115725591040,27, | 27  |      0      10     40      1      3
test,1566297117715136000,27, | 27  |      0      10     40      1      5
test,1566297119723529216,27, | 27  |      0      10     40      1      8
test,1566297122702721024,27, | 27  |      0       9     40      1      3
test,1566297123724625152,27, | 27  |      0      10     40      1      3
test,1566297125718644992,27, | 27  |      0      10     40      1      5
test,1566297127734627072,27, | 27  |      0      10     40      1      3
test,1566297129714396928,27, | 27  |      0      10     40      1      4
test,1566297131724541952,27, | 27  |      0      10     40      1      4
test,1566297133713990912,27, | 27  |      0      10     40      1      3
test,1566297135726867968,27, | 27  |      0      10     40      1      8
test,1566297137714149120,27, | 27  |      0      10     40      1      3
test,1566297139721932800,27, | 27  |      0      10     40      1      7
test,1566297141712979968,27, | 27  |      0      10     40      1      3
test,1566297143722044928,27, | 27  |      0      10     40      1      4
test,1566297145715889920,27, | 27  |      0      10     40      1      3
test,1566297147722248960,27, | 27  |      0      10     40      1      3
test,1566297149712275968,27, | 27  |      0      10     40      1      8
test,1566297151721005824,27, | 27  |      0      10     40      1      4
test,1566297153711993856,27, | 27  |      0      10     40      1      6
test,1566297155726834944,27, | 27  |      0      10     40      1      4
test,1566297157711591936,27, | 27  |      0      10     40      1      4
test,1566297159719296000,27, | 27  |      0      10     40      1      3
test,1566297161712482816,27, | 27  |      0      10     40      1      3
test,1566297163722551040,27, | 27  |      0      10     40      1      4
test,1566297165711204096,27, | 27  |      0      10     40      1      5
test,1566297167719915008,27, | 27  |      0      10     40      1      3
test,1566297169711316992,27, | 27  |      0      10     40      1      8
test,1566297171723602176,27, | 27  |      0      10     40      1      3
test,1566297173728727040,27, | 27  |      0      10     40      1      9
test,1566297175719616000,27, | 27  |      0      10     40      1      4
test,1566297177710726912,27, | 27  |      0      10     40      1      3
test,1566297179718055936,27, | 27  |      0      10     40      1      4
test,1566297181709559040,27, | 27  |      0      10     40      1      6
test,1566297183718497024,27, | 27  |      0      10     40      1      6
test,1566297185710228992,27, | 27  |      0      10     40      1      7
test,1566297187718615040,27, | 27  |      0      10     40      1      4
test,1566297189709125888,27, | 27  |      0      10     40      1      3
test,1566297191717724928,27, | 27  |      0      10     40      1      3
test,1566297193708376832,27, | 27  |      0      10     40      1      3
test,1566297195720201984,27, | 27  |      0      10     40      1      3
test,1566297197708327936,27, | 27  |      0      10     40      1      4
test,1566297199723161856,27, | 27  |      0      10     40      1      3
test,1566297202695718912,27, | 27  |      0       9     40      1      3
test,1566297203717422080,27, | 27  |      0      10     40      1      4
test,1566297205707390976,27, | 27  |      0      10     40      1      3
test,1566297208703303168,27, | 27  |      0       9     40      1      8
test,1566297209707289856,27, | 27  |      0      10     40      1      3
test,1566297211717278976,27, | 27  |      0      10     40      1      5
test,1566297213706605056,27, | 27  |      0      10     40      1      4
test,1566297215716945920,27, | 27  |      0      10     40      1      3
test,1566297217723063040,27, | 27  |      0      10     40      1      4
test,1566297220702158080,27, | 27  |      0       9     40      1      3
test,1566297221724263936,27, | 27  |      0      10     40      1      3
test,1566297223714433792,27, | 27  |      0      10     40      1     10
test,1566297225723089920,27, | 27  |      0      10     40      1      7
test,1566297227714899968,27, | 27  |      0      10     40      1      3
test,1566297229706105088,27, | 27  |      0      10     40      1      3
test,1566297231719196160,27, | 27  |      0      10     40      1      3
test,1566297233723100928,27, | 27  |      0      10     40      1      3
test,1566297235713828096,27, | 27  |      0      10     40      1      6
test,1566297237704695040,27, | 27  |      0      10     40      1      3
test,1566297239715568896,27, | 27  |      0      10     40      1      6
test,1566297241724342016,27, | 27  |      0      10     40      1      4
test,1566297243715230976,27, | 27  |      0      10     40      1      3
test,1566297245720427008,27, | 27  |      0      10     40      1      3
test,1566297247712515072,27, | 27  |      0      10     40      1      3
test,1566297249703595008,27, | 27  |      0      10     40      1      3
test,1566297251712357120,27, | 27  |      0      10     40      1      3
test,1566297253721277952,27, | 27  |      0      10     40      1      5
test,1566297255711083008,27, | 27  |      0      10     40      1      6
test,1566297257718832896,27, | 27  |      0      10     40      1      9
test,1566297259712128000,27, | 27  |      0      10     40      1      3
test,1566297261719760896,27, | 27  |      0      10     40      1      3
test,1566297263717040128,27, | 27  |      0      10     40      1      4
test,1566297265722064896,27, | 27  |      0      10     40      1      3
test,1566297267710935040,27, | 27  |      0      10     40      1      3
test,1566297269726747904,27, | 27  |      0      10     40      1      5
test,1566297271710521088,27, | 27  |      0      10     40      1      5
test,1566297273720555008,27, | 27  |      0      10     40      1      5
test,1566297275711062784,27, | 27  |      0      10     40      1      5
test,1566297277719764992,27, | 27  |      0      10     40      1      3
test,1566297279710498048,27, | 27  |      0      10     40      1      3
test,1566297281721944064,27, | 27  |      0      10     40      1      3
test,1566297283709252096,27, | 27  |      0      10     40      1      3
test,1566297285721231104,27, | 27  |      0      10     40      1      5
test,1566297287708549120,27, | 27  |      0      10     40      1      4
test,1566297289719646976,27, | 27  |      0      10     40      1      3
test,1566297291707837184,27, | 27  |      0      10     40      1      8
test,1566297293801248000,27, | 27  |      0      10     40      1      5
test,1566297295723137024,27, | 27  |      0      10     40      1      5
