name,time,nodeid,value
test,1566296701441957120,51, | 51  |      0      10     47      1      5
test,1566296703450051072,51, | 51  |      0      10     47      1      4
test,1566296745737852160,51, | 51  |      0      10     40      1      4
test,1566296747725539840,51, | 51  |      0      10     40      1      4
test,1566296749734695936,51, | 51  |      0      10     40      1      5
test,1566296751724772864,51, | 51  |      0      10     40      1      5
test,1566296753732280064,51, | 51  |      0      10     40      1      8
test,1566296755744855040,51, | 51  |      0      10     40      1      6
test,1566296757731549952,51, | 51  |      0      10     40      1      4
test,1566296759739908096,51, | 51  |      0      10     40      1     11
test,1566296761729577984,51, | 51  |      0      10     40      1      7
test,1566296763742520064,51, | 51  |      0      10     40      1      4
test,1566296765728986112,51, | 51  |      0      10     40      1      5
test,1566296767737391104,51, | 51  |      0      10     40      1      5
test,1566296769727297024,51, | 51  |      0      10     40      1      4
test,1566296771739375104,51, | 51  |      0      10     40      1      6
test,1566296773726408960,51, | 51  |      0      10     40      1      4
test,1566296775736730112,51, | 51  |      0      10     40      1      4
test,1566296777725050880,51, | 51  |      0      10     40      1      6
test,1566296779733260032,51, | 51  |      0      10     40      1      4
test,1566296781723824896,51, | 51  |      0      10     40      1      5
test,1566296783731654912,51, | 51  |      0      10     40      1      7
test,1566296785745804032,51, | 51  |      0      10     40      1      5
test,1566296787730444800,51, | 51  |      0      10     40      1      3
test,1566296789721566976,51, | 51  |      0      10     40      1      4
test,1566296791729680896,51, | 51  |      0      10     40      1      3
test,1566296793738835968,51, | 51  |      0      10     40      1      5
test,1566296795728593152,51, | 51  |      0      10     40      1      7
test,1566296797745098240,51, | 51  |      0      10     40      1      4
test,1566296799727346944,51, | 51  |      0      10     40      1      3
test,1566296801737520896,51, | 51  |      0      10     40      1      4
test,1566296803728221952,51, | 51  |      0      10     40      1      4
test,1566296805737931008,51, | 51  |      0      10     40      1      5
test,1566296807726180096,51, | 51  |      0      10     40      1      4
test,1566296809732428032,51, | 51  |      0      10     40      1      5
test,1566296811723812096,51, | 51  |      0      10     40      1      5
test,1566296813732779008,51, | 51  |      0      10     40      1      6
test,1566296815722395904,51, | 51  |      0      10     40      1      5
test,1566296817731770112,51, | 51  |      0      10     40      1      4
test,1566296819721424128,51, | 51  |      0      10     40      1      4
test,1566296821729953024,51, | 51  |      0      10     40      1      4
test,1566296823740942848,51, | 51  |      0      10     40      1      5
test,1566296825727879168,51, | 51  |      0      10     40      1      4
test,1566296827738505984,51, | 51  |      0      10     40      1      5
test,1566296829727123968,51, | 51  |      0      10     40      1      5
test,1566296831745575936,51, | 51  |      0      10     40      1      4
test,1566296833729628928,51, | 51  |      0      10     40      1      5
test,1566296835733396992,51, | 51  |      0      10     40      1      5
test,1566296837732232192,51, | 51  |      0      10     40      1      5
test,1566296839735124992,51, | 51  |      0      10     40      1      4
test,1566296841723058944,51, | 51  |      0      10     40      1      4
test,1566296843731666944,51, | 51  |      0      10     40      1      7
test,1566296845721880832,51, | 51  |      0      10     40      1      4
test,1566296847730508032,51, | 51  |      0      10     40      1      4
test,1566296849721062912,51, | 51  |      0      10     40      1      4
test,1566296851729964032,51, | 51  |      0      10     40      1      5
test,1566296853719741952,51, | 51  |      0      10     40      1      4
test,1566296855728920832,51, | 51  |      0      10     40      1      4
test,1566296857736349184,51, | 51  |      0      10     40      1      4
test,1566296859728168960,51, | 51  |      0      10     40      1      5
test,1566296861740359936,51, | 51  |      0      10     40      1      4
test,1566296863725166080,51, | 51  |      0      10     40      1      6
test,1566296865732270848,51, | 51  |      0      10     40      1      4
test,1566296867724247040,51, | 51  |      0      10     40      1      4
test,1566296869737123840,51, | 51  |      0      10     40      1      4
test,1566296871722784000,51, | 51  |      0      10     40      1      4
test,1566296873730577920,51, | 51  |      0      10     40      1      4
test,1566296875721750016,51, | 51  |      0      10     40      1      5
test,1566296877729624064,51, | 51  |      0      10     40      1      4
test,1566296879720647936,51, | 51  |      0      10     40      1      4
test,1566296881730102016,51, | 51  |      0      10     40      1      6
test,1566296883737274880,51, | 51  |      0      10     40      1      7
test,1566296885727485952,51, | 51  |      0      10     40      1      4
test,1566296887734983936,51, | 51  |      0      10     40      1      5
test,1566296889726743040,51, | 51  |      0      10     40      1      8
test,1566296891737897984,51, | 51  |      0      10     40      1      4
test,1566296893726980096,51, | 51  |      0      10     40      1     10
test,1566296895737325824,51, | 51  |      0      10     40      1      6
test,1566296897724570880,51, | 51  |      0      10     40      1      4
test,1566296899731857152,51, | 51  |      0      10     40      1      5
test,1566296901723527936,51, | 51  |      0      10     40      1      3
test,1566296903730262016,51, | 51  |      0      10     40      1      4
test,1566296905721679872,51, | 51  |      0      10     40      1      5
test,1566296907729462016,51, | 51  |      0      10     40      1      4
test,1566296909720294912,51, | 51  |      0      10     40      1      3
test,1566296911728516096,51, | 51  |      0      10     40      1      3
test,1566296913719008000,51, | 51  |      0      10     40      1      3
test,1566296915728820992,51, | 51  |      0      10     40      1      5
test,1566296917717658112,51, | 51  |      0      10     40      1      3
test,1566296919725030912,51, | 51  |      0      10     40      1      5
test,1566296921744368128,51, | 51  |      0      10     40      1      4
test,1566296923728250880,51, | 51  |      0      10     40      1      3
test,1566296925734217984,51, | 51  |      0      10     40      1      4
test,1566296927723314944,51, | 51  |      0      10     40      1      4
test,1566296929730989056,51, | 51  |      0      10     40      1      4
test,1566296931722219008,51, | 51  |      0      10     40      1      5
test,1566296933732815872,51, | 51  |      0      10     40      1      5
test,1566296935720720128,51, | 51  |      0      10     40      1      4
test,1566296937728306944,51, | 51  |      0      10     40      1      5
test,1566296939719489024,51, | 51  |      0      10     40      1      5
test,1566296941727243776,51, | 51  |      0      10     40      1      7
test,1566296943718660096,51, | 51  |      0      10     40      1      5
test,1566296945727056128,51, | 51  |      0      10     40      1      4
test,1566296947735022080,51, | 51  |      0      10     40      1      6
test,1566296949725814016,51, | 51  |      0      10     40      1      6
test,1566296951716088064,51, | 51  |      0      10     40      1      4
test,1566296953729687808,51, | 51  |      0      10     40      1      4
test,1566296955736593920,51, | 51  |      0      10     40      1      5
test,1566296957722637824,51, | 51  |      0      10     40      1      4
test,1566296959730060032,51, | 51  |      0      10     40      1      7
test,1566296961722230016,51, | 51  |      0      10     40      1      4
test,1566296963729948928,51, | 51  |      0      10     40      1      4
test,1566296965721702144,51, | 51  |      0      10     40      1      5
test,1566296967728910848,51, | 51  |      0      10     40      1      4
test,1566296969718934016,51, | 51  |      0      10     40      1      6
test,1566296971726464000,51, | 51  |      0      10     40      1      5
test,1566296973718226944,51, | 51  |      0      10     40      1      4
test,1566296975729976064,51, | 51  |      0      10     40      1      5
test,1566296977716763904,51, | 51  |      0      10     40      1      4
test,1566296979724681984,51, | 51  |      0      10     40      1      4
test,1566296981732795904,51, | 51  |      0      10     40      1      7
test,1566296983725102848,51, | 51  |      0      10     40      1      4
test,1566296985734083840,51, | 51  |      0      10     40      1      4
test,1566296988711229184,51, | 51  |      0       0      0      0      0
test,1566296989731184128,51, | 51  |      0      10     40      1      5
test,1566296991720835072,51, | 51  |      0      10     40      1      4
test,1566296993732587008,51, | 51  |      0      10     40      1      3
test,1566296995719762944,51, | 51  |      0      10     40      1      3
test,1566296997732718080,51, | 51  |      0      10     40      1      5
test,1566296999718630144,51, | 51  |      0      10     40      1      5
test,1566297001726502912,51, | 51  |      0      10     40      1      5
test,1566297003717533952,51, | 51  |      0      10     40      1      4
test,1566297005725200896,51, | 51  |      0      10     40      1      5
test,1566297007717221120,51, | 51  |      0      10     40      1      4
test,1566297009724230144,51, | 51  |      0      10     40      1      4
test,1566297011715311104,51, | 51  |      0      10     40      1      4
test,1566297013723810816,51, | 51  |      0      10     40      1      4
test,1566297015731693056,51, | 51  |      0      10     40      1      5
test,1566297017721968896,51, | 51  |      0      10     40      1      4
test,1566297019730323968,51, | 51  |      0      10     40      1      6
test,1566297021721074176,51, | 51  |      0      10     40      1      4
test,1566297023731668992,51, | 51  |      0      10     40      1      5
test,1566297025719366144,51, | 51  |      0      10     40      1      4
test,1566297027726695936,51, | 51  |      0      10     40      1      3
test,1566297029725047040,51, | 51  |      0      10     40      1      4
test,1566297031726610944,51, | 51  |      0      10     40      1      3
test,1566297033717065984,51, | 51  |      0      10     40      1      6
test,1566297035726868992,51, | 51  |      0      10     40      1      4
test,1566297037715930112,51, | 51  |      0      10     40      1      5
test,1566297039726743040,51, | 51  |      0      10     40      1      5
test,1566297041715182080,51, | 51  |      0      10     40      1      3
test,1566297043724105984,51, | 51  |      0      10     40      1      5
test,1566297045713686016,51, | 51  |      0      10     40      1      3
test,1566297047721508096,51, | 51  |      0      10     40      1      5
test,1566297049728920064,51, | 51  |      0      10     40      1      7
test,1566297051721133056,51, | 51  |      0      10     40      1      3
test,1566297053729541120,51, | 51  |      0      10     40      1      4
test,1566297055725428224,51, | 51  |      0      10     40      1      4
test,1566297057727767040,51, | 51  |      0      10     40      1      5
test,1566297059717979904,51, | 51  |      0      10     40      1      4
test,1566297061737988864,51, | 51  |      0      10     40      1      7
test,1566297063720664064,51, | 51  |      0      10     40      1      4
test,1566297065728369920,51, | 51  |      0      10     40      1      3
test,1566297067715485952,51, | 51  |      0      10     40      1      3
test,1566297069724613888,51, | 51  |      0      10     40      1      4
test,1566297071714422016,51, | 51  |      0      10     40      1      4
test,1566297073724976896,51, | 51  |      0      10     40      1      4
test,1566297075713154048,51, | 51  |      0      10     40      1      6
test,1566297077722714880,51, | 51  |      0      10     40      1      5
test,1566297079712125952,51, | 51  |      0      10     40      1      5
test,1566297081719703808,51, | 51  |      0      10     40      1      4
test,1566297083728937984,51, | 51  |      0      10     40      1      4
test,1566297085719818240,51, | 51  |      0      10     40      1      5
test,1566297087727696896,51, | 51  |      0      10     40      1      4
test,1566297089717474048,51, | 51  |      0      10     40      1     10
test,1566297091725380864,51, | 51  |      0      10     40      1      4
test,1566297093716744960,51, | 51  |      0      10     40      1      4
test,1566297095723467008,51, | 51  |      0      10     40      1      4
test,1566297097715744000,51, | 51  |      0      10     40      1      4
test,1566297099723634944,51, | 51  |      0      10     40      1      6
test,1566297101713711104,51, | 51  |      0      10     40      1      3
test,1566297103724494848,51, | 51  |      0      10     40      1      4
test,1566297105712606976,51, | 51  |      0      10     40      1      5
test,1566297107721116160,51, | 51  |      0      10     40      1      5
test,1566297109711534080,51, | 51  |      0      10     40      1      4
test,1566297111720547072,51, | 51  |      0      10     40      1      4
test,1566297113727834112,51, | 51  |      0      10     40      1      4
test,1566297115726857984,51, | 51  |      0      10     40      1      5
test,1566297117732583936,51, | 51  |      0      10     40      1      4
test,1566297119717987072,51, | 51  |      0      10     40      1      4
test,1566297121725070848,51, | 51  |      0      10     40      1      4
test,1566297123715431936,51, | 51  |      0      10     40      1      5
test,1566297125723828992,51, | 51  |      0      10     40      1      4
test,1566297127715276032,51, | 51  |      0      10     40      1      4
test,1566297129722628096,51, | 51  |      0      10     40      1      4
test,1566297131713592064,51, | 51  |      0      10     40      1      5
test,1566297133721509888,51, | 51  |      0      10     40      1      6
test,1566297135715673088,51, | 51  |      0      10     40      1      4
test,1566297137721880064,51, | 51  |      0      10     40      1      4
test,1566297139710531840,51, | 51  |      0      10     40      1      4
test,1566297141719314176,51, | 51  |      0      10     40      1      4
test,1566297143709553920,51, | 51  |      0      10     40      1      4
test,1566297145716955904,51, | 51  |      0      10     40      1      4
test,1566297147726063872,51, | 51  |      0      10     40      1      4
test,1566297149716044032,51, | 51  |      0      10     40      1      7
test,1566297151723838208,51, | 51  |      0      10     40      1      4
test,1566297153714464000,51, | 51  |      0      10     40      1      8
test,1566297155723108096,51, | 51  |      0      10     40      1      4
test,1566297157713772032,51, | 51  |      0      10     40      1      3
test,1566297159724090112,51, | 51  |      0      10     40      1      4
test,1566297161713063936,51, | 51  |      0      10     40      1      3
test,1566297163721251840,51, | 51  |      0      10     40      1      5
test,1566297165710891008,51, | 51  |      0      10     40      1      4
test,1566297167719619072,51, | 51  |      0      10     40      1      5
test,1566297169709920768,51, | 51  |      0      10     40      1      5
test,1566297171717837056,51, | 51  |      0      10     40      1      5
test,1566297173727533056,51, | 51  |      0      10     40      1      6
test,1566297175716370176,51, | 51  |      0      10     40      1      6
test,1566297177725159936,51, | 51  |      0      10     40      1      5
test,1566297179715414016,51, | 51  |      0      10     40      1      6
test,1566297181722194944,51, | 51  |      0      10     40      1      6
test,1566297183715112960,51, | 51  |      0      10     40      1      6
test,1566297185723169024,51, | 51  |      0      10     40      1      4
test,1566297187712640000,51, | 51  |      0      10     40      1      4
test,1566297190691790080,51, | 51  |      0       9     40      1      7
test,1566297191711229184,51, | 51  |      0      10     40      1      4
test,1566297193718863104,51, | 51  |      0      10     40      1      5
test,1566297195710354944,51, | 51  |      0      10     40      1      5
test,1566297197720774912,51, | 51  |      0      10     40      1      6
test,1566297199712112896,51, | 51  |      0      10     40      1      5
test,1566297201717981952,51, | 51  |      0      10     40      1      3
test,1566297203707768064,51, | 51  |      0      10     40      1      6
test,1566297205716048896,51, | 51  |      0      10     40      1      8
test,1566297207706597120,51, | 51  |      0      10     40      1      4
test,1566297209717024000,51, | 51  |      0      10     40      1      5
test,1566297211705424128,51, | 51  |      0      10     40      1      4
test,1566297213713697792,51, | 51  |      0      10     40      1      4
test,1566297215723828992,51, | 51  |      0      10     40      1      5
test,1566297217713305856,51, | 51  |      0      10     40      1      4
test,1566297219720114944,51, | 51  |      0      10     40      1      4
test,1566297221710667008,51, | 51  |      0      10     40      1      4
test,1566297223720150016,51, | 51  |      0      10     40      1      5
test,1566297225709256960,51, | 51  |      0      10     40      1      5
test,1566297227718739968,51, | 51  |      0      10     40      1      4
test,1566297229708473088,51, | 51  |      0      10     40      1      6
test,1566297231721306112,51, | 51  |      0      10     40      1      4
test,1566297233706816000,51, | 51  |      0      10     40      1      4
test,1566297235716742144,51, | 51  |      0      10     40      1      6
test,1566297237705835008,51, | 51  |      0      10     40      1      5
test,1566297239714343168,51, | 51  |      0      10     40      1      5
test,1566297241704584960,51, | 51  |      0      10     40      1      4
test,1566297243713669888,51, | 51  |      0      10     40      1      5
test,1566297245721920000,51, | 51  |      0      10     40      1      4
test,1566297247715804928,51, | 51  |      0      10     40      1      4
test,1566297249718328064,51, | 51  |      0      10     40      1      4
test,1566297251709712896,51, | 51  |      0      10     40      1      4
test,1566297253718715904,51, | 51  |      0      10     40      1      4
test,1566297255708973056,51, | 51  |      0      10     40      1      5
test,1566297257716967936,51, | 51  |      0      10     40      1     12
test,1566297259707258112,51, | 51  |      0      10     40      1      4
test,1566297261715323904,51, | 51  |      0      10     40      1      5
test,1566297263709170944,51, | 51  |      0      10     40      1      4
test,1566297265717278976,51, | 51  |      0      10     40      1      5
test,1566297267705554944,51, | 51  |      0      10     40      1      3
test,1566297269712582144,51, | 51  |      0      10     40      1      4
test,1566297271724488960,51, | 51  |      0      10     40      1      5
test,1566297273711736064,51, | 51  |      0      10     40      1      4
test,1566297275720672000,51, | 51  |      0      10     40      1      7
test,1566297277711229952,51, | 51  |      0      10     40      1      4
test,1566297279720081920,51, | 51  |      0      10     40      1      5
test,1566297281709129984,51, | 51  |      0      10     40      1      4
test,1566297283718231808,51, | 51  |      0      10     40      1      4
test,1566297285708313856,51, | 51  |      0      10     40      1      4
test,1566297287716648192,51, | 51  |      0      10     40      1      4
test,1566297289706939904,51, | 51  |      0      10     40      1      5
test,1566297291715307008,51, | 51  |      0      10     40      1      4
test,1566297293770589184,51, | 51  |      0      10     40      1      4
test,1566297295721395968,51, | 51  |      0      10     40      1      3
