node	%	avgtime	stdev
1	10	133.26074335260117	22.99498265375636
1	20	166.60400578034682	24.380926767227322
1	30	255.0505098265896	38.09639095816334
1	40	300.0248104046243	44.48858013740439
1	50	345.181	49.62053634575851
1	60	376.93320462427744	56.54103193493295
1	70	419.1458520231214	58.86976991365272
1	80	471.2776164542294	72.07940434429813
1	90	530.2186350877193	80.89309940085735
1	100	735.9065666235447	160.73940047785928
5	10	131.13358053302434	26.28430420773265
5	20	157.51699536500578	26.449542716409503
5	30	215.49834762456547	43.259656905290775
5	40	287.95638818076475	50.038800971655256
5	50	345.3886523754345	54.763605996096736
5	60	381.1643001158749	59.45773894509604
5	70	424.15102441860466	60.403093102350184
5	80	476.6574433962264	72.14953704122041
5	90	534.2460777642771	79.82416782313328
5	100	735.5885315161839	154.28829657768372
9	10	135.0250335648148	22.893243092317093
9	20	164.7188761574074	23.495909155973465
9	30	253.12430555555557	41.8088703551333
9	40	300.4421076388889	45.64767004225077
9	50	346.8446793981482	50.99646809507222
9	60	380.77954166666666	57.615375547115114
9	70	422.6603476245655	59.84936137693572
9	80	474.35814918414917	71.34292479772728
9	90	533.5234223529412	80.9800493452942
9	100	735.8006908831909	158.35525032461732
10	10	122.14661520737327	22.937918870359745
10	20	171.834616359447	24.962316399276464
10	30	249.8775599078341	37.65972555130529
10	40	293.68538594470044	44.17773636122578
10	50	336.8276970046083	49.57906778421865
10	60	369.1882465437788	57.05146813591032
10	70	410.52011188004616	58.79653266239654
10	80	461.976213625866	72.73253553528369
10	90	521.2384541231127	80.4963641116027
10	100	729.925795425667	165.1269092191589
12	10	129.15740693641618	27.61851670504752
12	20	168.4599352601156	29.69110654912586
12	30	226.56732138728324	55.13679445668827
12	40	297.1494901734104	53.31474571124598
12	50	349.55975606936414	56.83893821626771
12	60	382.84958265895955	62.02272728553283
12	70	425.75063425925924	63.313456433472474
12	80	477.9605174825175	73.7725354012196
12	90	536.9102623529412	82.429761172767
12	100	743.8013665730338	156.44958165369601
13	10	131.48065783410138	23.612379702400894
13	20	163.5030668202765	22.928173475807146
13	30	239.55661866359446	43.24048920748767
13	40	293.1015149769585	47.461691824976576
13	50	340.84349884792624	51.15288349498208
13	60	374.37517511520736	57.513734033986694
13	70	416.9513598615917	58.10423193115239
13	80	468.6315893886967	72.58701512644987
13	90	528.1526393063584	81.59140155432382
13	100	735.8796896135266	160.4497959723571
15	10	120.84441203703703	31.45155228851605
15	20	173.1435625	33.53793483417886
15	30	221.65071296296296	50.982667198136454
15	40	294.97483449074076	54.55255716914943
15	50	347.81945138888887	58.63605449490922
15	60	382.4191819235226	63.69630770158419
15	70	426.5086329849013	65.38290571614323
15	80	477.9841872093023	74.88894285248846
15	90	535.6411947743468	82.91343765607448
15	100	749.2084420190996	161.80724462926477
16	10	103.8353576388889	23.340115446877473
16	20	182.1704201388889	35.9070365176077
16	30	251.11206365740742	45.85496133950889
16	40	295.57719444444444	48.12576392557165
16	50	342.1590324074074	51.46144194735882
16	60	374.3353425925926	57.02507740448881
16	70	411.0810150462963	62.48723550463215
16	80	454.7671481481481	65.59807295081916
16	90	513.5629593023256	71.4617511043534
16	100	680.7153144329897	134.22460280015144
17	10	119.70849076212471	27.61057268876632
17	20	197.6264468822171	38.708842907404545
17	30	260.5991478060046	46.563419261914035
17	40	309.0218198614319	50.5837335174694
17	50	351.3935011547344	52.624556983781865
17	60	381.58082909930715	60.128385740997224
17	70	418.98265819861433	65.33423758071245
17	80	460.6263729792148	65.88569006956523
17	90	518.441276300578	70.08411184718348
17	100	677.6676330498177	128.53858528771764
18	10	98.87155028901734	26.14492125469924
18	20	192.66263121387283	39.287718270763285
18	30	254.20175606936417	48.806236761516615
18	40	306.2346346820809	54.71367227668645
18	50	359.01210751445086	56.99855934764647
18	60	392.464910982659	62.078383242013466
18	70	431.36593402777777	67.09554032933087
18	80	470.0163027842227	69.5237251451811
18	90	523.9130803259604	72.38350131878948
18	100	681.3959766871166	131.1481621596384
19	10	143.30178074245939	25.965986297846086
19	20	216.78604292343388	38.91129680452413
19	30	277.59279118329465	48.962691793080296
19	40	324.2015278422274	51.9932637738928
19	50	363.56813805104406	54.223342707047
19	60	394.73574825986077	60.16732896788216
19	70	432.6093642691415	65.3014852890188
19	80	473.74836395348837	66.87417419140517
19	90	531.8726325088339	71.53093646028981
19	100	694.9649687092568	132.66034751513786
22	10	108.17116493656286	29.410478440766596
22	20	198.6302399077278	39.323497494631326
22	30	262.90404152249135	48.88946820816584
22	40	313.55298615916956	53.843698708479415
22	50	359.8646193771626	57.499133418496434
22	60	392.4954468822171	63.898424098472674
22	70	428.83146011560694	69.2638309229717
22	80	468.3081793981481	69.37628521939348
22	90	520.210277262181	72.95751855619639
22	100	669.8312116082225	124.2684800354149
23	10	98.67317762399077	26.030223522587157
23	20	187.95689965397924	34.13482187014526
23	30	251.21475317185698	45.126526977717276
23	40	294.61649826989617	48.22827320403828
23	50	334.9314117647059	52.29113197976473
23	60	365.1304826789838	58.03668692581558
23	70	402.98595265588915	61.15342198830607
23	80	447.42236027713625	64.35487857644614
23	90	504.9528399071926	72.17404404309984
23	100	677.1803922046286	133.61209212446028
24	10	97.79372800925925	24.492439598606847
24	20	190.23638888888888	39.623688421240075
24	30	252.8171238425926	47.93616429791254
24	40	305.9071863425926	52.882618470446836
24	50	354.5849386574074	54.18992564074879
24	60	385.7473391203704	58.63988388695328
24	70	423.409741599073	65.76697552424899
24	80	462.6177101280559	66.95124823985796
24	90	519.7779054842474	71.6357844893093
24	100	678.3829756986635	130.3837955291259
26	10	118.05172632794458	29.538083054886737
26	20	199.73033602771363	39.091140278245
26	30	259.3512586605081	48.22981429134995
26	40	307.97084064665125	51.63269527294836
26	50	351.5538718244804	54.33863570259553
26	60	382.00755773672057	59.179889282399046
26	70	417.8397563510393	65.567079714278
26	80	459.1397930635838	66.73415301418596
26	90	516.1064808806489	70.93401430628971
26	100	678.180306122449	131.71153250304852
27	10	139.81721303841675	46.15584992080027
27	20	201.92847962747382	52.310724812404004
27	30	258.0321478463329	54.59376923856715
27	40	302.4965029103609	58.58937093099263
27	50	337.7120023282887	59.844544467048344
27	60	368.7139871944121	63.39991363138598
27	70	410.58927124563445	67.5425805725423
27	80	456.7127897196262	74.60002312289868
27	90	520.435125882353	78.12939949099793
27	100	704.8812884353741	146.04160154989157
28	10	111.28117365967366	34.54737895187882
28	20	188.3635407925408	44.85847081386685
28	30	260.338493006993	54.363725295140775
28	40	319.3383228438228	62.751256259899165
28	50	362.89666317016315	61.16204510528166
28	60	396.44109324009327	67.2898694427517
28	70	435.1530350058343	73.37613789957321
28	80	476.49953504672897	75.88957900195196
28	90	527.9736346381969	82.41049062524978
28	100	633.1410842767295	98.72438854580088
29	10	98.76102102803739	28.322678243316098
29	20	196.00913785046728	46.77773801968502
29	30	243.0682429906542	55.53586276286468
29	40	289.9386296728972	59.63660737030968
29	50	331.4981425233645	62.627016002882314
29	60	362.5090654205608	63.943705785822154
29	70	404.31867957746476	66.3023819603162
29	80	459.60611862396206	77.09487911266764
29	90	523.7896425061425	82.4018801689997
29	100	718.9465112651646	153.91772258033276
30	10	101.0880476744186	26.58309770736838
30	20	205.56653372093024	45.909835859029734
30	30	274.16752674418603	58.59590098222706
30	40	331.45206868451686	65.58883032342152
30	50	379.77743006993006	73.83589386069661
30	60	416.1228269005848	80.05897554580042
30	70	455.8859811097993	84.68570913708908
30	80	494.8077124105012	85.53990188158518
30	90	544.5545373317013	89.39199435687405
30	100	681.1274553440703	131.233371809572
35	10	101.73947079439252	26.642342681253556
35	20	207.60104439252336	46.48830059285952
35	30	276.57714853801167	59.360537598309755
35	40	333.5143567251462	66.57364465333714
35	50	381.2043071512309	69.15742253605487
35	60	417.68477213695394	76.13972389278341
35	70	455.0218895558223	78.70492827847261
35	80	493.21029099876694	83.87341219365392
35	90	541.2788311518325	84.95503071736073
35	100	666.9272788259958	121.42318221465898
40	10	114.67284069767442	27.015938244932155
40	20	184.36711627906976	39.92896962790822
40	30	281.5323046511628	68.61668076417118
40	40	333.1251069767442	68.40337912876097
40	50	393.4447763466042	71.44354215877453
40	60	426.9826187648456	74.75861948855311
40	70	465.90761363636364	78.2438890455217
40	80	504.73769372693727	81.68817829445955
40	90	555.4612622739018	84.82019183135334
40	100	710.1642307692308	133.01532723436358
42	10	99.5554297235023	24.18396296071534
42	20	178.59193778801844	36.75818393879447
42	30	268.8756186635945	58.025556256113106
42	40	317.6629158986175	59.90772381803126
42	50	377.2215783410138	65.29721935073876
42	60	411.92383640553	71.2022441774415
42	70	448.89725750577367	72.5265839599608
42	80	489.7215768786127	78.28724523807563
42	90	542.7457186046512	86.71450117546267
42	100	703.7985676646707	142.34305520941734
44	10	100.58403110599079	24.56666994374191
44	20	170.6790460829493	34.77067894714445
44	30	265.51640552995394	58.10711515157067
44	40	313.42348156682027	59.00239850983309
44	50	372.2660910138249	65.50887424367303
44	60	405.7257638248848	71.43121439545811
44	70	444.21752995391705	75.16191306580684
44	80	484.09438985005767	78.85924609825422
44	90	539.3131123986095	88.39783513293959
44	100	705.2112948255115	144.4612133081693
45	10	98.5862952710496	23.965765082920093
45	20	160.35434948096886	32.407222617775275
45	30	260.6751637831603	58.650059231532666
45	40	313.45153979238756	58.50966322532219
45	50	370.4172410611303	65.29303862740137
45	60	405.09425144175316	71.22755815274883
45	70	443.93893995381063	74.43909123190737
45	80	485.0393148148148	79.5736989793956
45	90	540.6233805104408	88.83656079162236
45	100	707.9393233173076	144.30372704977134
46	10	119.31738443670152	26.788194179954846
46	20	171.13953193960512	40.879837932715475
46	30	280.2150162601626	67.28285485795728
46	40	332.16027526132405	66.66402323086498
46	50	394.3183197199533	71.5866865861335
46	60	428.6232653301887	74.99856136297745
46	70	465.5058757467145	79.51408140152336
46	80	505.522299877601	84.39731693432357
46	90	557.3582292993631	89.95735703922759
46	100	716.585803030303	139.96755157857947
47	10	107.11392733564014	23.195674285010217
47	20	179.0234521337947	35.58558945023269
47	30	272.6631384083045	59.52839177455482
47	40	321.83036678200693	59.63149115267573
47	50	383.04183275663206	66.03868688820005
47	60	418.209384083045	71.39090674230555
47	70	455.7491143187067	74.02332138601302
47	80	495.5955561993047	78.6681886301965
47	90	550.1866857476635	87.96313348395641
47	100	712.4199361702127	142.50635296581947
48	10	99.6629896313364	24.52893071308303
48	20	181.70208179723502	37.47853730051267
48	30	270.0582396313364	60.96947790973865
48	40	318.910034562212	62.05553768765148
48	50	378.58396543778804	66.77161079119237
48	60	413.6952085253456	73.0599647978592
48	70	450.78903926096996	73.71720701818958
48	80	491.2874716763006	77.82608045676831
48	90	543.5675378346915	86.53506220530438
48	100	700.7003232704402	138.19818542880185
49	10	127.42213310185186	25.37301914217116
49	20	185.46564814814815	30.610741276562095
49	30	267.93147569444443	47.237180864174924
49	40	313.24052430555554	50.71933447579933
49	50	355.77996180555556	65.78306606607934
49	60	385.83320278099654	69.79038127908919
49	70	429.68653154205606	75.13055239319492
49	80	481.6412464622642	82.77999776731062
49	90	543.4990289156626	91.92048641542526
49	100	759.2518892261002	176.04847007063455
51	10	112.06516397228637	24.724293783720455
51	20	182.7887702078522	27.224584852650327
51	30	242.55678637413394	39.31363106745634
51	40	285.4719295612009	41.41984089296458
51	50	326.6163256351039	46.22759728268037
51	60	358.62588914549656	53.55077199423411
51	70	400.9877644341801	57.72275362536626
51	80	452.33497911832944	70.25992193827918
51	90	511.76612805587894	78.2258871596757
51	100	719.9379703703704	165.6205098319287
52	10	98.61751162790698	26.934600752273674
52	20	189.10102441860465	41.363483419347546
52	30	261.86588023255814	51.50765198460334
52	40	308.8139558139535	51.51060226431549
52	50	353.6883441860465	56.45673894249557
52	60	386.78934186046513	61.851097538269954
52	70	423.48662398137367	67.43472345591125
52	80	467.1627857142857	70.15907902177597
52	90	523.4425252403846	74.63364989524017
52	100	680.2871794871795	129.58008076507474
53	10	130.5181426914153	25.618004753921607
53	20	180.14664617169373	29.770179770678123
53	30	271.00779790940766	48.91141364651989
53	40	317.4126306620209	52.542675598281264
53	50	359.57681976744186	66.8770732048605
53	60	390.08779976717113	70.77867080315575
53	70	435.01250821596244	78.5308960262008
53	80	487.2444600715137	85.83838074302903
53	90	546.393125	92.92555834476174
53	100	759.559201980198	170.9521906573949
54	10	130.760366359447	24.94765082184758
54	20	159.81289170506912	27.29111506857254
54	30	247.82155990783411	40.995313340006454
54	40	296.5270103686636	45.91384857175468
54	50	341.068267281106	52.2222250430111
54	60	374.71751152073733	59.1963467630282
54	70	416.6915720876586	60.24181982572266
54	80	468.47854461181925	73.65354114957697
54	90	526.8777777777777	81.91499521019001
54	100	738.5893073047858	163.09794531838287
55	10	127.40653944315545	25.366670669685767
55	20	168.39245939675175	27.47747081497882
55	30	265.647060324826	49.03363302098647
55	40	312.39036542923435	51.0004955325826
55	50	354.46477674418605	61.74974081076695
55	60	385.05172325581395	66.50429747476848
55	70	429.60854556074764	73.49515652377416
55	80	482.1296120283019	81.458874210156
55	90	543.6942853688029	92.90614739317022
55	100	761.6329622926094	176.49472872283098
56	10	109.57199769585253	24.217141503722072
56	20	182.93866129032259	28.491614333100454
56	30	233.5303974654378	39.19607602417683
56	40	277.0626578341014	42.09543830030498
56	50	317.4466059907834	46.481174154402694
56	60	348.991383640553	52.90684375241326
56	70	391.04645161290324	57.06391730334874
56	80	443.8444532871972	70.4242027733831
56	90	502.89907754629627	78.1639745039387
56	100	712.1693815309842	167.08823816541263
57	10	93.64821198156682	23.30827494387518
57	20	187.06486751152073	35.77049851144813
57	30	235.25953341013826	40.600581562758144
57	40	276.2616693548387	44.17435785940503
57	50	314.06850230414744	47.1433079389754
57	60	342.44999193548387	51.44357648750494
57	70	383.6339423963134	56.6449519884218
57	80	433.8064619815668	65.09390420663405
57	90	491.5647718894009	69.70883524531284
57	100	691.0236539379475	158.5207671437916
58	10	112.84639100346021	25.0699966776269
58	20	191.309553633218	33.2381607738873
58	30	248.36493771626297	42.182123622903546
58	40	292.1449619377163	45.47915666330796
58	50	331.50027797001155	53.352971490802595
58	60	360.633493656286	58.89649187197236
58	70	404.0739019607843	63.39065140731499
58	80	456.4099238754325	74.53996186395663
58	90	515.1789180138568	81.83415686478446
58	100	721.7474326923077	165.69030974066334
60	10	112.55824620770129	24.78414969014221
60	20	175.84527304550758	27.120326222952734
60	30	238.39147491248542	42.767468198551896
60	40	284.4986697782964	43.66333700511641
60	50	325.15348424737454	48.88485909540991
60	60	357.06875729288214	54.50394693962171
60	70	398.8432209165687	58.54196435160063
60	80	450.57364573459716	71.94648532252718
60	90	509.06225211097706	77.50846204946477
60	100	720.7579748427673	166.95255209028937
61	10	112.5987546728972	25.807295425599882
61	20	177.26977920560748	32.28723979015522
61	30	236.54472663551402	42.90604902671742
61	40	284.57567640186915	47.0411938910106
61	50	322.9560876168224	55.26655941697452
61	60	354.29777920560747	60.17894578034941
61	70	397.1964876905041	63.1608113801841
61	80	450.2908797169811	74.86785118013113
61	90	508.80033052884613	76.86103922513587
61	100	713.1131661807581	163.08918276527072
