------------------------------------------------------------------------------------------------------------------------------------------------------------------------------------------------------------
Group-Initiator	|	Packet_Sent
------------------------------------------------------------------------------------------------------------------------------------------------------------------------------------------------------------
27 		|	90
------------------------------------------------------------------------------------------------------------------------------------------------------------------------------------------------------------
15 		|	90
------------------------------------------------------------------------------------------------------------------------------------------------------------------------------------------------------------
SNo		Node:		Init_Id		R_Self_init		Nt recv		PRR		Duty Cycle(%)		hop-count		Latency
------------------------------------------------------------------------------------------------------------------------------------------------------------------------------------------------------------
1 		1 		15 			89 		1 		0.989 		1.079 			1.18 						2479
2 		2 		15 			90 		0 		1.0 		1.223 			1.356 						2479
3 		3 		15 			90 		0 		1.0 		1.42 			1.111 						2479
4 		4 		15 			90 		0 		1.0 		1.499 			1.2 						2479
5 		6 		27 			88 		2 		0.978 		1.2 			2.0 						2480
6 		7 		15 			69 		21 		0.767 		1.312 			3.174 						2479
7 		8 		15 			90 		0 		1.0 		1.433 			1.133 						2479
8 		10 		27 			40 		50 		0.444 		1.754 			2.275 						2480
9 		11 		15 			71 		19 		0.789 		1.695 			3.141 						2479
10 		13 		27 			69 		21 		0.767 		1.623 			1.638 						2480
11 		14 		15 			71 		19 		0.789 		2.017 			3.225 						2479
12 		15 		15 			0 		90 		0.0 		2.153 			0.0 						2479
13 		16 		27 			90 		0 		1.0 		1.808 			1.0 						2480
14 		17 		27 			67 		23 		0.744 		1.318 			2.104 						2480
15 		18 		27 			90 		0 		1.0 		1.08 			1.022 						2480
16 		20 		27 			90 		0 		1.0 		1.358 			1.044 						2480
17 		22 		27 			90 		0 		1.0 		0.986 			1.033 						2480
18 		23 		27 			90 		0 		1.0 		1.237 			1.022 						2480
19 		24 		27 			90 		0 		1.0 		1.457 			1.011 						2480
20 		25 		15 			73 		17 		0.811 		1.478 			2.493 						2479
21 		26 		15 			77 		13 		0.856 		1.469 			2.13 						2479
22 		27 		27 			0 		90 		0.0 		1.449 			0.0 						2480
23 		28 		27 			90 		0 		1.0 		1.058 			1.011 						2480
24 		31 		15 			90 		0 		1.0 		1.502 			1.122 						2479
25 		32 		15 			87 		3 		0.967 		1.496 			1.103 						2479
26 		33 		15 			90 		0 		1.0 		1.344 			1.2 						2479
------------------------------------------------------------------------------------------------------------------------------------------------------------------------------------------------------------
											0.912 		1.44 			1.614
------------------------------------------------------------------------------------------------------------------------------------------------------------------------------------------------------------
											0.136 		0.277 			0.744
------------------------------------------------------------------------------------------------------------------------------------------------------------------------------------------------------------
