name,time,nodeid,value
test,1566314744040770048,18,=8`vxB;Yz80800r08080080800 | 18  |      0      10     53      1      5
test,1566314746027633920,18, | 18  |      0      10     53      1      4
test,1566314748034240000,18, | 18  |      0      10     53      1      4
test,1566314750022846976,18, | 18  |      0      10     53      1      5
test,1566314752029719040,18, | 18  |      0      10     53      1      4
test,1566314754044121088,18, | 18  |      0      10     53      1      6
test,1566314756027751936,18, | 18  |      0      10     53      1      5
test,1566314758032903936,18, | 18  |      0      10     53      1      5
test,1566314760022510080,18, | 18  |      0      10     53      1      4
test,1566314762031219968,18, | 18  |      0      10     53      1      6
test,1566314764036364032,18, | 18  |      0      10     53      1      5
test,1566314766027235072,18, | 18  |      0      10     53      1      8
test,1566314768033026048,18, | 18  |      0      10     53      1      5
test,1566314770025985024,18, | 18  |      0      10     53      1      4
test,1566314772029747968,18, | 18  |      0      10     53      1      5
test,1566314774019491072,18, | 18  |      0      10     53      1      4
test,1566314776027271936,18, | 18  |      0      10     53      1      4
test,1566314778033659904,18, | 18  |      0      10     53      1      4
test,1566314780023073792,18, | 18  |      0      10     53      1      3
test,1566314782028995072,18, | 18  |      0      10     53      1      3
test,1566314784019712000,18, | 18  |      0      10     53      1      3
test,1566314786033272064,18, | 18  |      0      10     53      1      5
test,1566314788042714112,18, | 18  |      0      10     53      1      4
test,1566314790022973952,18, | 18  |      0      10     53      1      3
test,1566314792029537792,18, | 18  |      0      10     53      1      4
test,1566314794019489024,18, | 18  |      0      10     53      1      3
test,1566314796037484800,18, | 18  |      0      10     53      1      3
test,1566314798037950976,18, | 18  |      0      10     53      1      3
test,1566314800024728064,18, | 18  |      0      10     53      1      3
test,1566314802029731072,18, | 18  |      0      10     53      1      5
test,1566314804019726080,18, | 18  |      0      10     53      1      3
test,1566314806027335936,18, | 18  |      0      10     53      1      3
test,1566314808033314816,18, | 18  |      0      10     53      1      3
test,1566314810026842112,18, | 18  |      0      10     53      1      3
test,1566314812031100928,18, | 18  |      0      10     53      1      6
test,1566314814019795968,18, | 18  |      0      10     53      1      4
test,1566314816031166976,18, | 18  |      0      10     53      1      5
test,1566314818046003968,18, | 18  |      0      10     53      1      3
test,1566314820022806016,18, | 18  |      0      10     53      1      4
test,1566314822031037952,18, | 18  |      0      10     53      1      4
test,1566314824020359936,18, | 18  |      0      10     53      1      4
test,1566314826030417920,18, | 18  |      0      10     53      1      3
test,1566314828034508032,18, | 18  |      0      10     53      1      3
test,1566314830023130880,18, | 18  |      0      10     53      1      5
test,1566314832029716992,18, | 18  |      0      10     53      1      3
test,1566314834036673024,18, | 18  |      0      10     53      1      6
test,1566314836028701952,18, | 18  |      0      10     53      1      3
test,1566314838042850048,18, | 18  |      0      10     53      1      4
test,1566314840024086016,18, | 18  |      0      10     53      1      3
test,1566314842029794048,18, | 18  |      0      10     53      1      4
test,1566314844035621888,18, | 18  |      0      10     53      1      6
test,1566314846028267008,18, | 18  |      0      10     53      1      5
test,1566314848033572864,18, | 18  |      0      10     53      1      5
test,1566314850023205888,18, | 18  |      0      10     53      1      3
test,1566314852032416000,18, | 18  |      0      10     53      1      4
test,1566314854019552000,18, | 18  |      0      10     53      1      3
test,1566314856026988032,18, | 18  |      0      10     53      1      3
test,1566314858016738816,18, | 18  |      0      10     53      1      6
test,1566314860036233984,18, | 18  |      0      10     53      1      3
test,1566314862032426240,18, | 18  |      0      10     53      1      3
test,1566314864020745984,18, | 18  |      0      10     53      1      3
test,1566314866026788096,18, | 18  |      0      10     53      1      5
test,1566314868016911104,18, | 18  |      0      10     53      1      3
test,1566314870025947136,18, | 18  |      0      10     53      1      4
test,1566314872033651200,18, | 18  |      0      10     53      1      4
test,1566314874019689984,18, | 18  |      0      10     53      1      8
test,1566314876028305152,18, | 18  |      0      10     53      1      3
test,1566314878017067008,18, | 18  |      0      10     53      1      3
test,1566314880023646976,18, | 18  |      0      10     53      1      3
test,1566314882013673984,18, | 18  |      0      10     53      1      3
test,1566314884020489984,18, | 18  |      0      10     53      1      5
test,1566314886029726976,18, | 18  |      0      10     53      1      7
test,1566314888016585216,18, | 18  |      0      10     53      1      5
test,1566314890023730944,18, | 18  |      0      10     53      1      3
test,1566314892029303040,18, | 18  |      0      10     53      1      4
test,1566314894022995968,18, | 18  |      0      10     53      1      3
test,1566314896027024128,18, | 18  |      0      10     53      1      5
test,1566314898016705024,18, | 18  |      0      10     53      1      5
test,1566314900023475968,18, | 18  |      0      10     53      1      3
test,1566314902038711040,18, | 18  |      0      10     53      1      4
test,1566314904020657920,18, | 18  |      0      10     53      1      4
test,1566314906026791936,18, | 18  |      0      10     53      1      3
test,1566314908017116160,18, | 18  |      0      10     53      1      4
test,1566314910023917824,18, | 18  |      0      10     53      1      5
test,1566314912035727872,18, | 18  |      0      10     53      1      5
test,1566314914024990976,18, | 18  |      0      10     53      1      4
test,1566314916028017920,18, | 18  |      0      10     53      1      4
test,1566314918016710144,18, | 18  |      0      10     53      1      6
test,1566314920032406016,18, | 18  |      0      10     53      1      4
test,1566314922013748992,18, | 18  |      0      10     53      1      5
test,1566314924023072000,18, | 18  |      0      10     53      1      4
test,1566314926027375104,18, | 18  |      0      10     53      1      4
test,1566314928017523968,18, | 18  |      0      10     53      1      3
test,1566314930024431872,18, | 18  |      0      10     53      1      3
test,1566314932013655808,18, | 18  |      0      10     53      1      4
test,1566314934024729856,18, | 18  |      0      10     53      1      4
test,1566314936027545856,18, | 18  |      0      10     53      1      5
test,1566314938017276928,18, | 18  |      0      10     53      1      6
test,1566314940024193024,18, | 18  |      0      10     53      1      4
test,1566314942013379072,18, | 18  |      0      10     53      1      3
test,1566314944034981120,18, | 18  |      0      10     53      1      4
test,1566314946026804992,18, | 18  |      0      10     53      1      4
test,1566314948019000064,18, | 18  |      0      10     53      1      4
test,1566314950023161856,18, | 18  |      0      10     53      1      5
test,1566314952013815040,18, | 18  |      0      10     53      1      3
test,1566314954034234112,18, | 18  |      0      10     53      1      3
test,1566314956027590144,18, | 18  |      0      10     53      1      4
test,1566314958017047808,18, | 18  |      0      10     53      1      3
test,1566314960024413184,18, | 18  |      0      10     53      1      4
test,1566314962036737792,18, | 18  |      0      10     53      1      5
test,1566314964020056064,18, | 18  |      0      10     53      1      6
test,1566314966029481984,18, | 18  |      0      10     53      1      4
test,1566314968016950016,18, | 18  |      0      10     53      1      3
test,1566314970025073152,18, | 18  |      0      10     53      1      4
test,1566314972013926144,18, | 18  |      0      10     53      1      4
test,1566314974021725952,18, | 18  |      0      10     53      1      3
test,1566314976034895872,18, | 18  |      0      10     53      1      5
test,1566314978017452032,18, | 18  |      0      10     53      1      4
test,1566314980024689920,18, | 18  |      0      10     53      1      3
test,1566314982031892992,18, | 18  |      0      10     53      1      4
test,1566314984021555968,18, | 18  |      0      10     53      1      3
test,1566314986010537984,18, | 18  |      0      10     53      1      3
test,1566314988023077888,18, | 18  |      0      10     53      1      4
test,1566314990023740928,18, | 18  |      0      10     53      1      4
test,1566314992013844992,18, | 18  |      0      10     53      1      4
test,1566314994020251136,18, | 18  |      0      10     53      1      4
test,1566314996029090816,18, | 18  |      0      10     53      1      4
test,1566314998017441024,18, | 18  |      0      10     53      1      3
test,1566315000023920896,18, | 18  |      0      10     53      1      4
test,1566315002014220032,18, | 18  |      0      10     53      1      3
test,1566315004025660160,18, | 18  |      0      10     53      1      4
test,1566315006011415040,18, | 18  |      0      10     53      1      4
test,1566315008018302976,18, | 18  |      0      10     53      1      3
test,1566315010023730944,18, | 18  |      0      10     53      1      4
test,1566315012014217984,18, | 18  |      0      10     53      1      3
test,1566315014022573056,18, | 18  |      0      10     53      1      4
test,1566315016027671040,18, | 18  |      0      10     53      1      3
test,1566315018019020032,18, | 18  |      0      10     53      1      4
test,1566315020025027072,18, | 18  |      0      10     53      1      4
test,1566315022014970112,18, | 18  |      0      10     53      1      3
test,1566315024022306048,18, | 18  |      0      10     53      1      4
test,1566315026028316928,18, | 18  |      0      10     53      1      5
test,1566315028019906048,18, | 18  |      0      10     53      1      4
test,1566315030027197952,18, | 18  |      0      10     53      1      4
test,1566315032016055040,18, | 18  |      0      10     53      1      3
test,1566315034020183040,18, | 18  |      0      10     53      1      6
test,1566315036027724032,18, | 18  |      0      10     53      1      4
test,1566315038017401856,18, | 18  |      0      10     53      1      3
test,1566315040029280000,18, | 18  |      0      10     53      1      4
test,1566315042014667008,18, | 18  |      0      10     53      1      4
test,1566315044022082048,18, | 18  |      0      10     53      1      3
test,1566315046030575872,18, | 18  |      0      10     53      1     11
test,1566315049005405952,18, | 18  |      0       9     53      1      4
test,1566315050026277120,18, | 18  |      0      10     53      1      3
test,1566315052014491136,18, | 18  |      0      10     53      1      4
test,1566315054032516864,18, | 18  |      0      10     53      1      5
test,1566315056011305216,18, | 18  |      0      10     53      1      5
test,1566315058018162944,18, | 18  |      0      10     53      1      3
test,1566315060026241024,18, | 18  |      0      10     53      1      4
test,1566315062014734080,18, | 18  |      0      10     53      1      3
test,1566315064027273984,18, | 18  |      0      10     53      1      3
test,1566315066027323904,18, | 18  |      0      10     53      1      5
test,1566315068017616896,18, | 18  |      0      10     53      1      5
test,1566315070023451136,18, | 18  |      0      10     53      1      5
test,1566315072017723136,18, | 18  |      0      10     53      1      3
test,1566315074030173952,18, | 18  |      0      10     53      1      3
test,1566315076012980992,18, | 18  |      0      10     53      1      3
test,1566315078021730816,18, | 18  |      0      10     53      1      4
test,1566315080024822016,18, | 18  |      0      10     53      1      5
test,1566315082016005120,18, | 18  |      0      10     53      1      7
test,1566315084022320896,18, | 18  |      0      10     53      1      6
test,1566315086010799872,18, | 18  |      0      10     53      1      3
test,1566315088018039040,18, | 18  |      0      10     53      1      4
test,1566315090029849088,18, | 18  |      0      10     53      1      4
test,1566315092016568064,18, | 18  |      0      10     53      1      3
test,1566315094022806784,18, | 18  |      0      10     53      1      4
test,1566315096010843136,18, | 18  |      0      10     53      1      5
test,1566315098018734080,18, | 18  |      0      10     53      1      6
test,1566315100025583104,18, | 18  |      0      10     53      1      4
test,1566315102015264000,18, | 18  |      0      10     53      1      3
test,1566315104022573056,18, | 18  |      0      10     53      1      6
test,1566315106010952960,18, | 18  |      0      10     53      1      4
test,1566315108026333184,18, | 18  |      0      10     53      1      4
test,1566315110025188096,18, | 18  |      0      10     53      1      9
test,1566315112014583040,18, | 18  |      0      10     53      1      6
test,1566315114020313088,18, | 18  |      0      10     53      1      3
test,1566315116010991104,18, | 18  |      0      10     53      1      4
test,1566315118019289088,18, | 18  |      0      10     53      1      3
test,1566315120007587840,18, | 18  |      0      10     53      1      4
test,1566315123001208064,18, | 18  |      0       9     53      1      3
test,1566315124023191808,18, | 18  |      0      10     53      1      4
test,1566315126014560000,18, | 18  |      0      10     53      1      3
test,1566315128020185088,18, | 18  |      0      10     53      1      4
test,1566315130008187136,18, | 18  |      0      10     53      1      3
test,1566315132015611904,18, | 18  |      0      10     53      1      3
test,1566315134021156096,18, | 18  |      0      10     53      1      5
test,1566315136014641152,18, | 18  |      0      10     53      1      5
test,1566315138021846016,18, | 18  |      0      10     53      1      4
test,1566315140994899968,18, | 18  |      0       9     53      1      3
test,1566315142014673920,18, | 18  |      0      10     53      1      3
test,1566315144021728000,18, | 18  |      0      10     53      1      4
test,1566315146012913920,18, | 18  |      0      10     53      1      5
test,1566315148029035008,18, | 18  |      0      10     53      1      3
test,1566315150008107776,18, | 18  |      0      10     53      1      3
test,1566315152013946112,18, | 18  |      0      10     53      1      3
test,1566315154029374976,18, | 18  |      0      10     53      1      4
test,1566315156011123968,18, | 18  |      0      10     53      1      5
test,1566315158988743936,18, | 18  |      0       9     53      1      3
test,1566315160007909120,18, | 18  |      0      10     53      1      5
test,1566315162020721920,18, | 18  |      0      10     53      1      4
test,1566315164004915968,18, | 18  |      0      10     53      1      4
test,1566315166010745088,18, | 18  |      0      10     53      1      3
test,1566315168023660800,18, | 18  |      0      10     53      1      4
test,1566315170009320960,18, | 18  |      0      10     53      1      4
test,1566315172016253952,18, | 18  |      0      10     53      1      5
test,1566315174004790016,18, | 18  |      0      10     53      1      4
test,1566315176013681920,18, | 18  |      0      10     53      1      5
test,1566315178023726848,18, | 18  |      0      10     53      1      5
test,1566315180008555008,18, | 18  |      0      10     53      1      4
test,1566315182014509824,18, | 18  |      0      10     53      1      3
test,1566315184023529984,18, | 18  |      0      10     53      1      4
test,1566315186011629056,18, | 18  |      0      10     53      1      6
test,1566315188031964928,18, | 18  |      0      10     53      1      3
test,1566315190008562176,18, | 18  |      0      10     53      1      6
test,1566315192014690048,18, | 18  |      0      10     53      1      4
test,1566315194021069056,18, | 18  |      0      10     53      1      4
test,1566315196011639040,18, | 18  |      0      10     53      1      4
test,1566315198023965952,18, | 18  |      0      10     53      1      4
test,1566315200008580096,18, | 18  |      0      10     53      1      6
test,1566315202017599232,18, | 18  |      0      10     53      1      4
test,1566315204020929024,18, | 18  |      0      10     53      1      6
test,1566315206013937920,18, | 18  |      0      10     53      1      3
test,1566315208989146880,18, | 18  |      0       9     53      1      6
test,1566315210011065088,18, | 18  |      0      10     53      1      4
test,1566315212019578880,18, | 18  |      0      10     53      1      4
test,1566315214023741952,18, | 18  |      0      10     53      1      6
test,1566315216010919936,18, | 18  |      0      10     53      1      4
test,1566315218019209984,18, | 18  |      0      10     53      1      6
test,1566315220008603136,18, | 18  |      0      10     53      1      3
test,1566315222016570112,18, | 18  |      0      10     53      1      4
test,1566315224004587776,18, | 18  |      0      10     53      1      4
test,1566315226013537024,18, | 18  |      0      10     53      1      3
test,1566315228001491968,18, | 18  |      0      10     53      1      3
test,1566315230010909952,18, | 18  |      0      10     53      1      5
test,1566315232015547136,18, | 18  |      0      10     53      1      3
test,1566315234004684800,18, | 18  |      0      10     53      1      4
test,1566315236011908096,18, | 18  |      0      10     53      1      3
test,1566315238021043968,18, | 18  |      0      10     53      1      5
test,1566315240026555136,18, | 18  |      0      10     53      1      3
test,1566315242018963200,18, | 18  |      0      10     53      1      3
test,1566315244005035008,18, | 18  |      0      10     53      1      4
test,1566315246045979136,18, | 18  |      0      10     53      1      4
test,1566315248001509888,18, | 18  |      0      10     53      1      3
test,1566315250028611072,18, | 18  |      0      10     53      1      4
test,1566315252026287104,18, | 18  |      0      10     53      1      3
test,1566315254007868928,18, | 18  |      0      10     53      1      3
test,1566315256011326976,18, | 18  |      0      10     53      1      5
test,1566315258001811968,18, | 18  |      0      10     53      1      4
test,1566315260015503872,18, | 18  |      0      10     53      1      4
test,1566315262016207104,18, | 18  |      0      10     53      1      4
test,1566315264005068032,18, | 18  |      0      10     53      1      4
test,1566315266013992960,18, | 18  |      0      10     53      1      5
test,1566315268001688832,18, | 18  |      0      10     53      1      5
test,1566315270008431872,18, | 18  |      0      10     53      1      3
test,1566315272024679936,18, | 18  |      0      10     53      1      3
test,1566315274022401024,18, | 18  |      0      10     53      1      3
test,1566315276014242816,18, | 18  |      0      10     53      1      4
test,1566315278002237952,18, | 18  |      0      10     53      1      4
test,1566315280008681984,18, | 18  |      0      10     53      1      5
test,1566315282016563968,18, | 18  |      0      10     53      1      7
test,1566315284004897024,18, | 18  |      0      10     53      1      5
test,1566315286011929088,18, | 18  |      0      10     53      1      4
test,1566315288018743040,18, | 18  |      0      10     53      1      4
test,1566315290008032000,18, | 18  |      0      10     53      1      7
test,1566315292017494016,18, | 18  |      0      10     53      1      4
test,1566315294005191936,18, | 18  |      0      10     53      1      5
test,1566315296012304896,18, | 18  |      0      10     53      1      5
test,1566315298002216192,18, | 18  |      0      10     53      1      4
