%	avgtime	stdev
10	67.90545343784781	10.520192353202804
20	104.35517696049246	10.38143763276617
30	147.5223596690037	10.564405618998123
40	171.46447405117192	9.799789515188667
50	199.92967373829853	10.733876689017112
60	223.73410310653472	9.634167639863952
70	240.34857294138268	8.52429769464701
80	263.8940237737596	7.244637659767674
90	291.9534124730531	7.396549190781782
100	335.1266960503089	43.420345820340806
